1.59218 -0.744131 0.689839 2.093923 -0.77633 0.923024 0.992919 1.126242 -0.335229 0.170585 -1.506492 0.878241 -0.751713 1.099711 1.64054 1.628419 0.203781 -1.760579 0.749654 -0.700268 -2.10246 -0.481242 2.030734 -1.202738 -0.601997 0.121801 1.09372 1.770293 -0.36836 -1.500778 0.612664 -1.03686 -0.051769 -1.783375 -2.80311 -2.609845 1.271345 -1.492404 -0.015804 -3.4869 -0.528276 -1.977168 0.300947 -0.942712 0.015242 -0.378816 -0.858293 -2.175535 2.640533 -0.838356 0.065145 -1.141492 -1.615269 0.152553 -0.457726 1.701061 -0.391457 -1.01236 -2.805666 -0.819134 -1.311 -1.14763 0.666611 -1.887318 0.351626 -1.430957 -1.177431 -1.795786 1.27764 1.851273 3.47236 -0.341192 0.20115 -1.375063 1.574055 0.097095 0.974426 0.078175 1.028413 1.296605 1.390131 -2.743289 0.206343 -0.071423 -1.830799 1.708201 1.04382 2.279693 -0.431192 2.197189 0.859698 -1.408533 -1.24989 -0.770426 0.659744 0.447228 0.240203 0.671489 -1.519564 1.765739
3.15255 -0.907421 -3.642026 3.17996 3.42207 1.79741 -1.227643 1.238019 3.468645 -1.524123 -0.566973 2.247298 -5.676877 -3.465057 0.468239 -0.491914 -1.179421 -5.83672 -1.538257 2.775791 -2.00479 -1.449758 -1.2796 0.206099 1.947127 -2.184334 -0.629776 0.067498 1.962288 0.042905 -1.775377 -1.31689 1.177621 -0.477848 -4.149457 1.240261 2.627241 0.465456 3.275736 -0.229338 1.461656 -2.33524 -1.892225 -3.19226 0.177513 -1.76301 -0.410329 -0.595822 4.811452 1.986213 4.007822 4.845738 0.252917 1.747265 -0.348649 0.728273 3.103462 1.140455 -1.438188 -2.532658 1.100931 2.908969 -0.149113 1.39746 -0.110243 -0.869566 0.323433 0.189933 -0.593698 1.257804 3.346564 3.900447 -1.435939 2.359596 1.356138 -1.532728 -3.12145 -0.745096 3.148153 -1.649395 -2.176761 3.755593 -0.02329 1.428043 0.63312 -0.20617 3.715836 1.110841 1.264316 -1.176745 1.038138 -1.75898 -2.202135 1.199641 -2.789658 3.940613 -1.314701 0.546179 -0.086898 3.417288
-0.064931 -0.138331 0.198232 -0.041007 -0.170677 0.128621 -0.113532 -0.017183 -0.129859 0.018293 0.091069 0.23205 0.110617 -0.045892 0.061423 0.130782 -0.126274 0.142943 0.092991 0.043825 -0.159002 -0.087038 0.304012 -0.130206 -0.271712 -0.163419 0.06732 -0.19233 -0.025735 0.051998 0.104278 -0.075398 0.021428 -0.113534 -0.14457 -0.133451 0.081829 0.117244 0.036276 0.163783 -0.049146 0.078291 -0.018889 0.056153 -0.052589 -0.137685 0.227447 -0.173361 -0.080266 -0.034348 -0.020994 -0.077514 -0.105721 0.028564 -0.007588 -0.056929 0.093639 -0.091807 0.140699 -0.145069 0.069385 -0.180207 0.040199 -0.120819 -0.065697 0.033705 0.182098 0.053147 0.027494 0.032329 0.081477 0.082844 -0.095203 -0.020235 0.038952 -0.170355 0.016882 0.129981 0.004675 0.166099 0.081093 0.091958 -0.073941 -0.12334 -0.103008 -0.072733 -0.1001 0.023438 0.174072 0.042542 -0.029375 -0.03174 -0.024905 0.085865 -0.089374 0.007537 0.04351 -0.165329 -0.062884 0.001755
-0.130974 -0.112318 0.157221 0.085962 -0.063368 0.076295 -0.086595 -0.05331 -0.099596 0.118038 0.151446 0.10832 0.012365 0.003407 0.138204 0.107297 -0.024699 0.296783 0.083546 0.028176 -0.055304 0.181851 0.121102 0.10818 -0.160284 -0.173263 -0.079079 -0.011196 0.213956 -0.091735 -0.142677 -0.053815 0.061741 0.154703 -0.041203 -0.047572 -0.05149 -0.06694 -0.067508 0.039876 -0.003954 0.132646 0.007986 -0.11102 0.047832 -0.061563 0.062487 -0.04567 -0.197181 -0.013123 0.121474 -0.054545 -0.014542 0.039408 0.163127 -0.059516 -0.016383 -0.061746 0.144925 -0.023901 0.078052 -0.092145 -1.74E-4 -0.109874 -0.032049 0.003953 0.108545 0.095312 0.100044 -0.135824 -0.112887 -0.030076 0.038707 -0.073147 -0.047057 -0.032887 -0.133122 -0.062855 -0.0031 -0.029235 0.016653 0.179251 0.0605 -0.269787 0.083438 -0.006227 0.067538 0.012615 0.263406 0.056452 -0.115465 -0.020556 -0.002455 0.015122 0.024599 -0.047254 0.059027 0.069598 0.028257 -0.06297
0.100195 -0.080192 0.098636 -0.002196 0.010816 -0.057799 -0.189106 0.035665 -0.158401 0.017096 0.057723 -0.073496 -0.154333 -0.058186 0.055717 0.179485 -0.09119 0.047592 -1.1E-5 -0.036447 0.069542 -0.026364 0.113772 0.231986 -0.134337 -0.215597 0.010651 -0.012594 -0.064549 -0.007239 -0.011789 -0.096077 0.077943 -0.071619 -8.0E-5 -0.047155 0.073651 0.037863 -0.040627 0.055824 0.044377 0.007974 0.031266 0.114302 -0.02862 -0.031345 -0.079388 -0.051952 -0.221712 0.085653 0.037433 -0.19096 0.086855 -0.018699 -0.0544 0.140116 -0.057536 -0.02972 0.014695 -0.057303 -0.13393 -0.114809 -0.125779 -0.174829 0.064946 0.061459 0.014127 -0.050541 0.147494 -0.078643 -0.089289 0.069975 -0.046343 0.105745 0.018637 0.028574 -0.076456 -0.003611 -0.026723 -0.119504 0.041653 -0.081001 0.007688 -0.065893 0.117237 -0.046508 -0.04831 0.071317 0.133236 0.021252 0.027556 0.093483 -0.054558 0.072389 -0.048773 -0.055195 -0.030206 -0.077247 -0.105549 -0.120534
-0.014396 0.082447 -0.109268 0.082441 -0.038427 0.044959 0.08352 -0.097354 -0.124596 0.069881 0.114373 0.175699 -0.278408 -0.068332 -0.011784 0.173558 -0.139559 0.028685 -0.00473 0.06413 -0.180627 0.158804 0.258376 -0.100247 0.084898 0.054906 0.029596 0.04115 -0.089845 -0.095533 0.206413 -0.257796 0.061659 -0.063879 0.070665 0.010502 0.085251 -0.04332 -0.046657 0.04108 -0.04291 -0.146298 0.065803 0.001192 -0.225191 -0.100141 0.015416 -0.131741 -0.143418 0.122845 0.118215 -0.189256 -0.011975 -0.023515 -0.119716 -0.045592 -0.067528 0.048595 -0.069715 -0.039977 -0.195763 -0.02676 -0.143712 -0.09207 -0.04767 -0.230304 0.072053 -0.177982 0.094911 0.043541 0.068832 0.099011 0.058238 -0.003209 -0.147618 0.215826 -0.194987 -0.054128 -0.28095 -0.123122 -0.235107 0.12491 0.083253 0.125093 0.081769 -0.098388 0.045012 0.107848 0.210614 0.09562 0.193032 0.002507 -0.151159 0.016803 -0.061331 0.045844 0.169206 -0.064913 -0.025154 -0.00117
-0.060493 0.177615 -0.004827 0.006705 0.005518 0.074168 -0.211491 0.066238 -0.106589 0.05101 0.074724 0.03502 8.36E-4 0.077576 -0.07512 -0.060944 0.071577 0.192055 0.104466 0.08951 0.052275 0.09324 0.080672 -0.08251 -0.069943 -2.51E-4 -0.049392 -0.091688 0.027305 0.015205 -0.072145 0.013569 -0.215766 -0.056288 0.00871 0.088743 -0.092435 0.03069 0.028684 0.117843 0.185735 0.223195 0.131907 0.239888 -0.201584 -0.039727 0.212305 -0.091183 -0.085126 0.085773 0.08809 -2.5E-4 0.035841 0.020332 0.216051 -0.101062 0.128444 0.029447 -0.076262 0.073827 -0.025757 -0.036797 0.09136 -0.185503 -0.203303 -0.10121 0.190945 0.16166 0.061212 0.027742 -0.241355 0.070678 -0.007948 0.077107 0.25071 -0.096053 0.010577 0.113229 0.130095 -0.070924 0.121812 0.216859 0.116627 -0.049913 -0.085507 -0.097486 0.048155 -0.037432 -0.045411 -0.022086 -0.104361 -0.088264 -0.022697 0.141791 0.048275 -0.09798 0.10958 0.004261 -0.104748 -0.02614
-0.015693 -0.141592 0.105461 -0.019333 -0.035921 -0.02385 -0.114133 -0.09696 -0.033441 0.132581 0.180799 0.103629 0.040115 -0.001519 0.124742 0.033536 0.027114 0.202361 0.083089 0.068335 -0.046396 0.042727 0.197123 0.047347 -0.184261 -0.036282 -0.067805 0.002073 0.118868 -0.089429 -0.056272 -0.03832 -0.064651 0.135318 -0.174592 -0.00667 -0.124672 -0.12603 -0.010553 0.027743 -0.07059 0.119522 -0.024684 -0.097407 0.130143 -0.004821 -0.019856 0.047076 -0.069021 0.023325 -0.003184 -0.084569 0.001026 0.059811 0.119885 0.082581 0.001158 -0.009907 0.085743 0.022601 0.114217 -0.035192 0.023607 -0.083953 -0.059136 -0.037596 0.106881 0.062435 0.029353 -0.168723 -0.144886 -0.055364 0.047247 -0.013144 -0.087577 0.004004 -0.13124 -0.062935 0.038125 0.137533 -0.016548 0.090718 0.076705 -0.080086 0.054174 -0.003154 -0.062993 0.077147 0.075708 0.021099 -0.053177 0.00856 0.115226 0.103894 0.007133 -0.146394 0.040328 0.039856 -0.015845 -0.043172
2.591633 1.608701 -2.087245 2.00752 3.012652 4.995656 0.847355 -1.594905 -0.365708 -1.629805 -1.650237 3.712017 -0.231463 -0.537534 -2.036098 2.002639 -0.696666 -4.310136 -1.477319 -1.356504 -0.581823 -1.830239 -0.272773 -1.648095 0.090509 0.008711 0.330842 0.396714 2.341035 -0.526067 1.155793 -1.730906 -1.010387 -1.342646 -1.939355 0.734869 0.727366 0.700702 1.516974 -2.133831 -0.280653 -3.051674 0.017123 0.532043 1.478449 0.375441 0.920129 1.548929 1.087478 0.668327 0.707416 3.249232 -0.362503 1.273221 -2.929682 -0.245389 1.633444 -0.119836 0.103459 -3.445175 0.513245 0.427807 0.738792 1.448203 0.501908 0.362882 -0.731533 -0.391201 0.037778 3.053553 4.030229 1.793904 1.24136 0.081706 -1.401954 -0.638804 -0.487445 -0.267924 0.012844 0.538179 -0.241935 -0.068756 1.351665 -0.112558 0.001814 0.447262 0.833441 -0.023876 1.212707 1.514635 -0.568611 0.376173 -3.663739 -4.345135 -0.444319 2.139788 -2.53093 0.92131 -1.399435 1.763954
0.238228 -0.108271 0.188008 0.212292 -0.173205 0.148539 -0.097329 -0.045048 -0.089203 0.110157 -0.091932 0.189666 0.024196 0.12057 0.168163 0.11375 -0.167624 0.225679 -0.030411 0.449833 -0.046263 0.019835 0.215801 0.257616 -0.230229 -3.71E-4 -0.038718 0.045384 0.131262 -0.371995 -0.141183 -0.276814 -0.068025 -0.018157 0.0301 -0.178172 0.096429 -0.058428 0.135964 0.019544 -0.219114 0.049216 -0.031083 -0.032634 -0.081208 -0.090688 -0.171491 -0.400085 -0.083768 0.14444 0.083515 -0.34802 0.042752 -0.033593 0.211463 0.187167 -0.152025 0.016511 -0.08198 -0.3045 -0.056907 -0.237933 -0.15999 -0.161296 0.143483 -0.13629 0.079481 0.119077 0.143107 0.063147 0.133561 0.018017 -0.003381 -0.070165 0.16995 -0.092239 -0.159931 0.008548 0.020359 0.054431 0.111824 0.247995 0.117914 -0.126854 -0.129064 0.102428 -0.079984 -0.121008 0.131235 -0.029742 -0.108439 0.059177 0.082012 0.170083 -0.174752 -0.087913 0.025301 -0.053261 -0.079114 -0.093603
2.591633 1.608701 -2.087245 2.00752 3.012652 4.995656 0.847355 -1.594905 -0.365708 -1.629805 -1.650237 3.712017 -0.231463 -0.537534 -2.036098 2.002639 -0.696666 -4.310136 -1.477319 -1.356504 -0.581823 -1.830239 -0.272773 -1.648095 0.090509 0.008711 0.330842 0.396714 2.341035 -0.526067 1.155793 -1.730906 -1.010387 -1.342646 -1.939355 0.734869 0.727366 0.700702 1.516974 -2.133831 -0.280653 -3.051674 0.017123 0.532043 1.478449 0.375441 0.920129 1.548929 1.087478 0.668327 0.707416 3.249232 -0.362503 1.273221 -2.929682 -0.245389 1.633444 -0.119836 0.103459 -3.445175 0.513245 0.427807 0.738792 1.448203 0.501908 0.362882 -0.731533 -0.391201 0.037778 3.053553 4.030229 1.793904 1.24136 0.081706 -1.401954 -0.638804 -0.487445 -0.267924 0.012844 0.538179 -0.241935 -0.068756 1.351665 -0.112558 0.001814 0.447262 0.833441 -0.023876 1.212707 1.514635 -0.568611 0.376173 -3.663739 -4.345135 -0.444319 2.139788 -2.53093 0.92131 -1.399435 1.763954
0.121733 0.053646 -0.15544 0.106433 -0.135759 0.019612 0.054153 -0.151473 0.005431 0.023473 -0.007909 -0.188981 0.183387 0.284423 -0.080472 0.196329 0.269745 -0.117484 0.017973 0.26046 0.185873 0.290429 0.011649 0.201769 -0.001069 -0.213618 0.072412 0.122381 0.005055 0.033868 0.035341 -0.053661 -0.095778 -0.044343 -0.025614 0.048081 -0.353645 0.025361 -0.0279 0.033866 -0.065103 0.295804 -0.090635 -0.035496 0.15356 -0.05524 -0.035598 0.061968 0.190476 0.069474 -0.136314 -0.02328 -0.122398 0.046134 -0.195597 0.124305 0.075533 -0.103539 -0.194726 0.244572 0.276593 0.158058 0.05366 -0.123829 -0.133646 0.120329 0.061931 -0.150664 -0.253234 0.106347 0.292983 0.063274 -0.004215 0.297781 0.002637 0.276827 -0.07177 0.099458 0.045496 -0.289078 -0.030452 -0.114557 0.258292 0.051021 0.104142 0.003915 -0.019431 -0.076821 -0.003402 0.006587 -0.055906 -0.315424 -0.103239 0.051093 0.046953 0.154624 -0.009213 -0.030596 -0.275698 -0.282966
2.530173 0.327177 0.044399 2.625334 0.517888 3.557013 2.451318 1.203172 0.111454 -0.877836 0.993505 0.925239 1.70411 0.184584 -3.344441 1.315561 -0.223449 -2.33738 -2.700772 -0.177901 -1.208876 -0.974611 0.664627 0.037142 -0.411572 -1.077825 -0.024273 -1.794378 -0.79838 -0.926177 3.292136 -1.096174 0.976798 -1.896207 -1.609797 -1.230844 0.232738 2.949578 -0.057924 -1.08101 1.370068 -0.923634 0.013831 -0.366606 1.583532 1.295864 0.295803 -0.518726 2.034311 1.638716 1.043836 2.014617 -1.517668 -0.761905 -2.216174 -0.119334 3.167721 0.564994 0.454407 -1.398431 -0.704063 0.182806 0.235055 0.009481 2.114973 0.423103 -0.915837 0.320128 -0.302114 1.741244 4.241235 1.532705 0.087395 1.733089 -1.914919 -1.555496 -2.553138 1.728217 0.554317 -0.161995 -0.15281 1.367703 -2.754788 0.402091 1.267373 0.151077 2.107006 0.23132 0.858491 -0.235151 -0.562467 1.447642 0.923927 -1.409843 -1.953653 0.852024 -1.663305 0.809944 -2.182186 3.15735
0.100195 -0.080192 0.098636 -0.002196 0.010816 -0.057799 -0.189106 0.035665 -0.158401 0.017096 0.057723 -0.073496 -0.154333 -0.058186 0.055717 0.179485 -0.09119 0.047592 -1.1E-5 -0.036447 0.069542 -0.026364 0.113772 0.231986 -0.134337 -0.215597 0.010651 -0.012594 -0.064549 -0.007239 -0.011789 -0.096077 0.077943 -0.071619 -8.0E-5 -0.047155 0.073651 0.037863 -0.040627 0.055824 0.044377 0.007974 0.031266 0.114302 -0.02862 -0.031345 -0.079388 -0.051952 -0.221712 0.085653 0.037433 -0.19096 0.086855 -0.018699 -0.0544 0.140116 -0.057536 -0.02972 0.014695 -0.057303 -0.13393 -0.114809 -0.125779 -0.174829 0.064946 0.061459 0.014127 -0.050541 0.147494 -0.078643 -0.089289 0.069975 -0.046343 0.105745 0.018637 0.028574 -0.076456 -0.003611 -0.026723 -0.119504 0.041653 -0.081001 0.007688 -0.065893 0.117237 -0.046508 -0.04831 0.071317 0.133236 0.021252 0.027556 0.093483 -0.054558 0.072389 -0.048773 -0.055195 -0.030206 -0.077247 -0.105549 -0.120534
-0.132812 0.139556 0.048597 -0.018647 0.118408 0.00247 -0.067271 0.095907 -0.081878 -0.091832 -0.001812 0.057942 -0.014087 -0.00986 -0.069185 0.188377 -0.021068 0.076926 0.254723 -0.248385 -0.080721 -0.117294 -0.027162 0.065033 -0.143138 0.09449 -0.062873 0.012455 -0.115085 -0.011352 0.037397 0.054183 0.069252 0.06757 -0.067839 0.049231 -0.00707 0.081329 0.143743 0.05676 0.004699 0.191203 -0.07709 -0.013433 -0.090536 -0.038912 -0.08486 -0.164565 -0.080733 -0.096047 -0.094106 0.077144 0.063995 0.070608 -0.063214 -0.219161 -0.013689 0.092466 -0.155988 0.032974 -0.019331 -0.044742 -0.109981 -0.082229 0.089341 0.060836 -0.060764 0.00179 -0.039211 -0.069223 -0.037374 0.018909 -0.059089 -0.066894 0.039494 0.021798 -0.084994 -2.04E-4 -0.14342 0.063634 -0.048142 0.00607 0.012367 0.200435 -0.023967 0.015599 0.077542 -0.039174 -0.128248 -0.083469 0.005174 -0.008694 -0.008888 0.03434 -0.011309 0.126286 -0.1118 9.13E-4 0.052469 -0.078198
-0.019201 0.028111 0.019217 0.052324 -0.012545 0.076041 0.041859 0.132425 -0.042682 -0.25324 0.153679 -0.052639 -0.234426 0.154245 0.001178 0.07083 0.073083 0.160228 0.024133 -0.054811 0.001969 0.005439 0.181016 0.099355 -0.126409 -0.051701 0.037309 -0.123638 0.247936 -0.162055 0.114555 0.125901 0.087982 0.08593 -0.090916 0.032607 0.058566 -0.084423 -0.083684 -0.120125 -0.142636 -0.134573 0.099572 -0.067549 0.144656 -0.140025 -0.119758 0.069446 0.087216 -0.032862 -0.006618 -0.111395 0.032981 -0.031112 -0.118341 0.110071 -0.111936 0.153878 0.041608 0.007703 0.064796 -0.130385 0.030277 0.045725 -0.1256 0.149386 -0.11782 -0.166733 0.122695 0.114102 -0.065025 -0.01284 -0.004014 -0.036946 -0.052576 0.183617 0.039352 -0.109896 0.002856 -0.049741 0.098582 -0.079185 0.058208 -0.092538 -0.020486 -0.024785 0.136707 0.03449 -0.090652 0.201497 -0.097455 0.025029 -0.120762 -0.013839 -0.051103 -0.067125 -0.00444 -0.252706 0.02388 -0.108891
0.123208 0.158522 -0.015859 -0.150893 -0.111276 0.064652 0.060192 0.239106 -0.059424 0.01402 -0.031218 0.110509 0.042465 -0.038126 -0.03624 0.059469 0.085702 0.043147 -0.039604 0.049137 -0.159876 0.07405 0.069736 -0.0105 -0.003558 0.046153 0.07899 0.067355 0.239107 -0.027253 -0.094511 0.001897 -0.322473 -0.205476 -0.384549 -0.157485 0.081185 -0.123587 0.017063 0.148889 -0.011788 0.086835 -0.034622 -0.017317 0.051837 0.016011 -0.01846 0.049595 -0.158166 -0.026477 -0.338651 0.008083 0.03484 0.141692 0.024758 -0.228986 0.1985 0.048054 -0.050624 -0.105707 0.226555 -0.107406 0.033602 -0.111698 0.006866 -0.002739 0.111602 0.135218 0.175114 -0.183325 0.030425 0.118795 -0.015455 0.016572 0.150741 -0.147237 -0.28316 0.208215 0.086508 0.031791 -0.045085 0.329271 0.133846 0.016686 0.090577 0.100641 0.046229 0.012763 0.011058 0.022486 -0.107026 -0.099585 -0.270958 0.1592 0.100681 -0.072423 0.179478 -0.135062 0.0736 -0.049079
-0.049635 -0.103073 0.253887 0.04108 0.052319 -0.05142 -0.189597 -0.011542 0.097531 0.019262 0.114527 -0.061102 -0.133151 -0.113371 -0.033199 0.136072 0.054274 0.349724 0.038691 0.110156 -0.1179 0.163816 0.394264 -0.007222 -0.168843 0.098743 -0.10521 -0.087412 0.040951 -0.188737 0.098713 -0.043611 -0.055949 0.238297 -0.186196 -0.028662 -0.089183 0.183903 -0.066614 -0.103684 -0.131928 -0.00787 0.062976 0.041979 0.043564 0.032857 -0.123864 -0.037007 -0.173638 0.033704 0.18433 -0.12014 -0.10154 0.029101 0.183689 0.042064 0.013369 0.130856 0.0106 -0.243803 0.0724 0.002816 -0.314683 -0.183085 0.034406 -0.088406 -0.045928 -0.022786 -0.071209 -0.081021 -0.196672 0.062834 -0.075166 0.01034 0.069947 0.031525 -0.19813 -0.161053 -0.05765 -0.077149 -0.016348 -0.018007 0.043652 -0.363365 -0.062151 0.006908 0.152125 -0.071699 -0.087589 -0.033835 -0.160873 -0.101492 -0.02442 -0.017106 0.004936 -0.058972 -0.002956 -0.213757 0.042222 0.024238
-0.459039 -0.162851 -1.316549 -0.070411 -1.797519 2.123693 -1.359094 0.938352 1.031528 -0.046355 0.230743 -0.595851 -1.308068 -0.414689 0.639028 -2.761519 0.418925 0.751561 -1.237331 0.340662 -2.44131 1.162068 2.75983 -1.715628 -1.029677 0.365405 1.975927 2.281722 0.293739 -1.14786 -0.690247 0.621231 1.137957 0.761656 -3.485526 1.815865 -0.92388 -0.060527 2.024939 -0.136264 -0.850849 -0.149817 1.189445 -2.802708 0.262786 -1.022525 -0.619739 -0.492669 2.327341 -0.184789 -2.192494 0.723115 -0.204751 0.802708 0.392915 0.918046 0.07789 -0.593593 -0.098681 -1.26882 -0.249514 -2.899067 0.29968 2.193434 0.090696 0.477159 0.013853 0.189773 -1.22847 -0.204261 1.25545 1.503794 -0.632037 0.707484 -0.639088 0.144427 -0.365841 -1.340401 -0.74195 2.756047 -1.301719 -1.352461 3.251216 0.980332 0.936959 -0.649171 1.675511 0.807957 -1.070034 2.74029 -2.698268 -0.657518 1.144862 0.12586 -0.481802 0.765775 -2.209611 0.247826 0.329308 3.364158
-0.800986 0.059218 -1.298179 0.369452 -0.309993 2.519996 2.848041 -0.034751 -0.362575 1.800262 0.753069 -0.585982 -0.676025 1.334427 -1.026406 1.090397 2.59785 2.592669 -0.506076 0.363162 -4.493815 -0.950235 0.853549 -3.071773 0.901885 -0.860983 0.483924 1.326413 1.09367 -2.72323 2.503385 -0.737928 -0.26118 0.08762 -2.011725 0.024293 1.540523 1.421999 -0.302405 -1.397915 -0.405207 -0.087616 -2.45213 -2.17856 1.409334 -0.068859 -3.038278 1.454597 0.355901 -0.470559 -0.459286 -1.078807 0.271594 -0.56723 -1.896113 0.010302 1.650728 -0.683977 1.036853 1.539929 -2.137207 0.427425 -0.387335 -0.321493 0.638576 -2.56023 1.968295 0.604878 -1.249972 -1.117556 1.085893 -0.427669 -0.553653 0.225559 -0.297129 0.89341 -0.252973 0.631637 0.264635 1.647513 -2.312323 -0.274431 -0.629407 0.471367 2.285594 -1.570679 1.156018 -0.643656 -0.863082 -0.607325 -1.061679 0.248776 -0.448265 0.724967 -0.341312 1.365787 0.911224 2.336541 -0.485306 0.735299
-0.023725 -0.265581 -0.041655 0.122232 0.026794 -0.088378 -0.095963 -0.07173 -0.107796 -0.053451 0.244892 0.188711 -0.170801 0.022715 -8.47E-4 0.204389 -0.068086 0.024141 0.111102 0.050266 -0.042829 -0.104548 0.056634 0.106866 -0.035671 -0.111641 0.164909 0.066612 0.15263 -0.04625 0.072838 0.047495 -0.171938 0.101539 -0.079368 -0.007698 0.092885 -0.147097 0.195496 -0.035855 -0.218068 -0.098775 0.231561 0.129023 -0.111343 -0.171763 -0.061107 -0.054208 0.042218 0.022472 0.07198 -0.214236 -0.161899 -0.018452 0.010509 -0.022686 0.086178 0.078149 -0.072518 -0.183167 0.119658 -0.068118 0.051934 -0.01767 -0.158406 -0.063514 -0.107352 0.120173 0.133667 0.053117 0.01506 -0.054873 0.029177 -0.089398 -0.004805 -0.012248 0.112717 -0.080168 -0.105325 -0.109812 -0.087183 -0.176569 0.227813 -0.2492 -0.148258 -0.003471 0.100996 0.024248 0.093904 0.123002 -0.140595 0.053374 -0.09475 -0.046893 -0.002508 -0.046196 0.066997 0.183339 -0.060206 -0.072608
0.036055 -0.091672 0.070591 -0.083561 -0.060147 -0.108044 -0.117442 -0.093856 -0.135925 0.047813 0.204944 0.106446 0.086305 -0.052912 0.099857 0.133186 0.003063 0.102866 0.117174 -0.0341 -0.109476 0.045345 0.210008 0.158381 -0.096517 -0.261498 0.095121 0.13241 0.176794 0.064439 0.043277 0.02221 -0.08566 0.098445 -0.05943 -0.039396 -0.085156 0.055979 0.197455 0.163305 -0.213438 -0.002923 -0.010747 -0.029881 -0.064531 -0.091298 0.042295 0.038368 -0.107648 6.6E-4 0.144575 -0.08549 -0.261079 -0.05049 0.045964 -0.010371 -0.028598 -0.074556 0.018547 -0.088037 0.178719 -0.213459 0.05996 -0.057269 -0.159645 -0.018275 0.06246 -0.026922 0.061343 -0.058212 -5.5E-5 -0.018345 -0.057027 -0.016119 -0.026888 -0.031948 0.036979 -0.05861 0.024301 -0.031389 -0.125226 0.131511 0.167786 -0.188848 0.028291 -0.038956 -0.096827 0.039341 0.174685 0.125041 -0.153008 0.020542 0.049273 0.04293 0.002824 -0.085652 0.122763 0.035452 0.036301 0.072441
-0.144336 0.074372 0.113318 0.085118 -0.148613 0.116197 -0.043826 0.097308 0.028569 0.0599 0.122926 0.129504 -0.202531 -0.024615 -0.184827 0.130076 -0.320919 0.065363 0.003498 0.051718 -0.144357 -0.139014 -0.049753 0.108518 -0.082871 0.171983 0.073164 -0.210686 -0.009667 0.210213 0.060274 0.046079 -0.075353 -0.162488 0.155761 -0.129948 -0.292558 -0.091019 -0.218721 0.241112 -0.031704 0.071499 0.229555 0.017352 -0.080441 0.02619 0.111902 -0.063922 0.15966 0.018002 0.091424 -0.033691 -0.13884 -0.017261 0.032462 0.057671 0.059981 0.008869 0.121346 -0.080853 0.079416 0.001784 0.19468 -0.254343 -0.090097 -0.09996 0.234742 -0.05806 -0.035704 -0.10223 -0.09253 0.014641 0.023658 0.024081 0.087838 0.004814 -0.031244 0.126039 -0.042851 0.057792 0.054989 0.062025 0.114046 -0.024096 0.166209 -0.182425 0.030826 0.162165 0.294079 0.052697 -0.053533 0.047016 -0.011732 0.117571 0.109081 -0.155768 -0.001293 -0.333485 -0.017285 0.020007
-0.046939 -0.076457 0.155379 0.1662 0.069524 0.096496 -0.102452 -0.113221 -0.069995 0.067735 -0.041461 -0.018384 -0.044765 0.054772 0.295634 0.081872 -0.019144 0.084523 0.19705 0.048294 -0.045279 -0.125575 0.210144 0.082542 -0.069489 -0.161648 -0.09618 0.013969 0.139558 -0.126741 -0.038873 0.176164 0.123434 0.095662 -0.040694 -0.175842 -0.078757 -0.100937 0.16316 0.049382 -0.101765 0.002275 -0.026199 0.060957 0.025224 -0.065373 -0.100838 -0.027928 0.016842 0.082821 0.081138 0.054827 -0.042892 -0.010984 -0.089199 -0.036418 0.092169 0.12644 0.041819 -0.12197 0.145243 -0.078561 0.139326 -0.047325 0.062605 0.062397 -0.001459 0.055051 -0.003586 0.098288 0.021487 -0.123815 0.078585 -0.039933 -0.018713 -0.045171 -0.067637 -0.298306 -0.034148 -0.089873 0.056005 -0.013415 0.154885 -0.119087 0.036596 0.169625 -0.135238 0.159974 0.009389 -0.044719 -0.106226 -0.05376 -0.187567 -2.74E-4 0.033251 -0.086723 -0.075312 -0.083788 -0.109586 0.048041
-0.042678 -0.11581 0.224654 0.180184 0.046951 -0.127659 -0.223645 -0.072567 0.02744 -0.031627 0.23083 0.114615 -0.146656 -0.103802 0.124178 0.190905 0.038352 0.223753 0.101341 -0.05839 -0.108746 0.110045 0.284564 0.11439 -0.29351 -0.095319 -0.102196 0.039363 0.131456 -0.121373 0.035247 0.069248 -0.145372 0.043425 -0.074531 -0.125179 0.093597 0.057277 0.026069 0.211606 -0.095373 0.193361 0.118839 0.076711 0.090329 -0.146924 -4.03E-4 -0.03858 -0.181913 0.113764 0.207394 -0.286399 -0.137896 0.169741 0.031181 -0.184502 0.167153 -0.04877 -0.017437 -0.062228 0.113816 -0.149499 -0.066622 -0.258098 -0.02689 7.25E-4 0.046073 0.047368 0.117825 -0.14712 -0.131902 0.037238 -0.088663 -0.088854 0.121464 -0.091448 -0.233248 0.040909 -0.180606 -0.134376 0.013263 0.162123 0.154862 -0.11818 0.0689 0.076647 0.083548 0.037984 0.251342 0.189115 -0.102218 -0.089013 -0.094456 0.146544 -0.177494 0.039111 0.038637 -0.086365 -0.044197 0.037639
1.313101 -1.828077 1.255073 -0.57291 -1.221992 -0.141653 0.892546 0.262095 -0.422972 0.52527 2.770927 -2.116018 -1.303039 2.034119 -1.042658 -1.877754 -0.113988 2.948427 -1.157758 0.228368 -1.62103 2.370189 -1.087966 -1.275151 0.610923 3.24562 1.0986 -0.229467 -3.034251 -1.557004 2.718354 -0.823788 -1.708001 -1.364332 0.304998 -1.19356 3.176471 -0.233449 -3.484355 -2.844404 -0.168624 -3.026944 2.318517 -0.33999 -1.533419 -0.264688 -2.004779 -1.258036 -0.82825 0.612678 2.337875 2.021732 1.255669 0.960029 -3.233 -0.309413 2.678803 -1.321722 -2.726613 1.188582 0.358215 2.072681 -2.899753 -1.608204 0.117954 -1.026589 -1.877072 0.22054 -0.516172 0.998566 1.496877 -0.451898 0.04087 3.884146 3.578913 0.680106 -1.856922 0.764707 -0.523331 -0.239934 1.850372 2.376356 -2.081512 2.089242 -1.78243 -2.297229 1.245129 1.257432 -0.202896 -1.347756 -1.270859 2.061053 -0.332924 -0.64474 -1.876097 2.53156 0.742881 -0.423323 2.234084 -1.244354
0.741146 8.583326 -1.393315 5.738402 0.872022 -2.459812 3.101496 -3.569 -1.361115 -2.282686 -1.976625 -0.956684 3.6661 3.522681 1.662995 2.335437 0.875984 1.49722 0.275535 0.867949 -0.136581 4.12743 -1.51294 0.975486 1.67988 -0.419251 -2.337015 2.343401 -1.306507 0.853429 2.215512 -4.032269 3.833903 -0.491189 -0.990703 -0.199692 -0.6515 2.790129 1.097169 -2.907926 -3.237546 0.691798 -3.254575 1.096435 -2.129913 -4.648927 -4.317081 -2.109983 4.746709 3.981817 -3.249265 -1.451338 4.183187 4.13484 0.974366 2.699773 2.734638 -1.194691 -1.749435 -2.817215 2.155997 -2.683492 -2.191882 0.490221 3.142872 1.776302 3.710712 -1.1973 0.132039 0.427646 -0.145471 -0.683268 4.512982 -1.137255 1.246802 -3.178876 3.727865 1.123292 -0.997979 0.956427 4.12254 2.226274 -2.876882 -2.504406 -5.099853 -2.223911 2.527457 0.203178 4.351973 -0.278247 -0.234169 -0.215946 -0.447575 -0.26779 -6.172118 0.520953 -1.239396 0.64833 -0.171807 1.59572
-0.152623 -0.07885 0.217408 -0.046437 0.011436 0.064771 0.001848 0.004504 0.032156 -0.025751 -0.059828 0.083732 -0.064995 -0.02937 0.083344 0.044884 -0.088082 0.062338 -0.063421 0.232054 -0.049186 -0.007815 0.071844 0.079157 -0.065794 -0.144354 0.004433 -0.03492 0.142019 -0.080491 -0.158223 0.033878 -0.009139 0.173222 -0.139138 0.052581 0.137947 -0.099265 -0.141269 0.073671 -0.003354 -0.066323 0.092077 0.197364 0.03651 -0.049935 -0.12316 0.171021 -0.042971 0.119145 0.251611 -0.11111 -0.100577 0.020278 0.233337 -0.153877 -0.12964 -0.139183 -0.00624 -0.079639 -0.010471 -0.152437 0.108958 -0.189595 -0.118281 0.049806 -0.221007 -0.048895 -0.008642 -0.242501 -0.153308 -0.055059 0.007259 -0.06607 -0.044856 -0.041063 -0.205565 0.095136 -0.19576 -0.288995 0.063136 0.106197 0.005448 -0.058999 -0.089572 0.037356 0.05741 -0.054848 0.092141 0.038457 0.051834 0.029403 -0.116998 0.230339 -0.025851 -0.005548 0.100648 -0.101787 -0.04887 -0.151374
-0.060493 0.177615 -0.004827 0.006705 0.005518 0.074168 -0.211491 0.066238 -0.106589 0.05101 0.074724 0.03502 8.36E-4 0.077576 -0.07512 -0.060944 0.071577 0.192055 0.104466 0.08951 0.052275 0.09324 0.080672 -0.08251 -0.069943 -2.51E-4 -0.049392 -0.091688 0.027305 0.015205 -0.072145 0.013569 -0.215766 -0.056288 0.00871 0.088743 -0.092435 0.03069 0.028684 0.117843 0.185735 0.223195 0.131907 0.239888 -0.201584 -0.039727 0.212305 -0.091183 -0.085126 0.085773 0.08809 -2.5E-4 0.035841 0.020332 0.216051 -0.101062 0.128444 0.029447 -0.076262 0.073827 -0.025757 -0.036797 0.09136 -0.185503 -0.203303 -0.10121 0.190945 0.16166 0.061212 0.027742 -0.241355 0.070678 -0.007948 0.077107 0.25071 -0.096053 0.010577 0.113229 0.130095 -0.070924 0.121812 0.216859 0.116627 -0.049913 -0.085507 -0.097486 0.048155 -0.037432 -0.045411 -0.022086 -0.104361 -0.088264 -0.022697 0.141791 0.048275 -0.09798 0.10958 0.004261 -0.104748 -0.02614
0.076366 -0.113758 0.198914 -0.086313 0.036109 -0.067986 -0.2657 0.029907 -0.078939 0.256784 -0.058089 0.126061 0.004952 -0.008668 0.170726 0.179781 0.090461 0.284357 -0.096045 0.316709 -0.022347 -0.010218 0.134477 -0.097373 0.001973 0.184655 -0.172801 0.046019 0.032277 -0.2827 0.12387 -0.093307 -0.090799 0.140858 0.001926 -0.171345 -0.002987 -0.154995 -0.091065 0.096881 -0.072253 0.127105 -0.112285 -0.077252 0.029511 -0.013843 -0.137983 -0.104437 0.08774 0.225358 0.044083 -0.154899 -0.083061 0.174348 -0.032597 -0.08616 0.030219 -0.170082 -0.125118 -0.198104 0.089416 -0.044511 0.074327 -0.147045 -0.011408 -0.13262 0.039725 -0.147556 0.035978 0.044765 0.056961 -0.022516 -0.017659 -0.012649 0.061245 -0.001877 0.105214 0.091813 0.189283 0.02412 -0.046732 -0.043772 -0.182393 0.002609 0.097663 0.039182 0.191466 -0.181607 0.037817 0.094593 -0.19255 0.094633 0.003271 0.033055 -0.051123 -0.221446 0.190835 0.054897 -0.1195 0.12647
-0.258308 -0.108394 0.022958 -0.004101 0.047779 -0.171712 -0.072103 0.131246 -0.048988 0.06657 0.123995 0.041433 -0.234884 -0.02199 0.30164 0.052077 0.079492 0.008455 0.006319 0.012655 -0.072702 0.12341 0.203618 0.014153 -0.0841 0.014383 0.029615 0.126504 0.14127 -0.087756 -0.062961 0.23386 -0.155911 0.00531 -0.011699 0.035597 0.051275 -0.065885 0.213869 -0.207487 -0.081531 -0.343385 0.068798 -0.001441 -0.094427 -0.05294 -0.066201 -6.09E-4 0.091683 0.135202 0.175144 0.022562 -0.001889 0.057189 0.273859 0.09827 -0.160663 0.021815 0.024199 -0.163398 0.141852 0.224879 -0.093696 0.039375 0.010414 0.056515 -0.183767 -0.211433 -0.194554 0.157222 -0.010812 -0.149703 -0.033354 0.0679 -0.019148 0.056006 0.133898 -0.096498 -0.080068 0.036891 0.118654 -0.040662 -0.125016 -0.202784 -0.0362 0.125578 0.086064 0.013093 0.063226 0.216142 0.156492 -0.119817 -0.342229 -0.030519 0.04713 0.061711 -0.239814 -0.134669 0.159457 0.187545
-0.459039 -0.162851 -1.316549 -0.070411 -1.797519 2.123693 -1.359094 0.938352 1.031528 -0.046355 0.230743 -0.595851 -1.308068 -0.414689 0.639028 -2.761519 0.418925 0.751561 -1.237331 0.340662 -2.44131 1.162068 2.75983 -1.715628 -1.029677 0.365405 1.975927 2.281722 0.293739 -1.14786 -0.690247 0.621231 1.137957 0.761656 -3.485526 1.815865 -0.92388 -0.060527 2.024939 -0.136264 -0.850849 -0.149817 1.189445 -2.802708 0.262786 -1.022525 -0.619739 -0.492669 2.327341 -0.184789 -2.192494 0.723115 -0.204751 0.802708 0.392915 0.918046 0.07789 -0.593593 -0.098681 -1.26882 -0.249514 -2.899067 0.29968 2.193434 0.090696 0.477159 0.013853 0.189773 -1.22847 -0.204261 1.25545 1.503794 -0.632037 0.707484 -0.639088 0.144427 -0.365841 -1.340401 -0.74195 2.756047 -1.301719 -1.352461 3.251216 0.980332 0.936959 -0.649171 1.675511 0.807957 -1.070034 2.74029 -2.698268 -0.657518 1.144862 0.12586 -0.481802 0.765775 -2.209611 0.247826 0.329308 3.364158
0.972364 0.676057 -0.229622 -0.964518 -0.553641 0.002786 0.510247 -0.936508 -0.584977 0.748138 0.148673 0.067526 0.881953 0.440604 -0.604975 1.70052 -0.13532 0.430071 1.112735 -0.23101 1.81532 -1.994312 1.290422 -3.309929 0.987792 -2.270802 -0.971578 1.05207 2.514777 0.985778 -1.814781 -0.996119 -0.407916 -0.228174 -1.123273 -0.289473 6.622356 -2.438588 1.329367 -3.949589 -0.883388 -3.538185 0.830075 -0.687184 -0.646043 -1.215806 -3.958585 -1.620548 2.630977 -2.129767 1.179003 1.557856 -0.231863 0.200424 -0.825288 -0.285817 1.841285 0.484698 -2.863168 -1.275712 0.511571 -0.210539 1.389302 -1.339756 -3.43794 -1.037232 3.000465 1.808761 0.935735 -1.815334 4.276704 -0.333702 1.601556 0.960064 1.757506 -1.129663 -1.935657 1.916127 -1.352219 0.042302 1.453926 -1.352891 -1.285866 1.500812 -0.143489 2.504395 -1.171364 0.699739 0.452793 -0.142494 1.403555 -0.713532 -0.246501 -1.231935 0.962466 1.496292 2.173431 -0.472261 3.942203 -1.586211
0.972364 0.676057 -0.229622 -0.964518 -0.553641 0.002786 0.510247 -0.936508 -0.584977 0.748138 0.148673 0.067526 0.881953 0.440604 -0.604975 1.70052 -0.13532 0.430071 1.112735 -0.23101 1.81532 -1.994312 1.290422 -3.309929 0.987792 -2.270802 -0.971578 1.05207 2.514777 0.985778 -1.814781 -0.996119 -0.407916 -0.228174 -1.123273 -0.289473 6.622356 -2.438588 1.329367 -3.949589 -0.883388 -3.538185 0.830075 -0.687184 -0.646043 -1.215806 -3.958585 -1.620548 2.630977 -2.129767 1.179003 1.557856 -0.231863 0.200424 -0.825288 -0.285817 1.841285 0.484698 -2.863168 -1.275712 0.511571 -0.210539 1.389302 -1.339756 -3.43794 -1.037232 3.000465 1.808761 0.935735 -1.815334 4.276704 -0.333702 1.601556 0.960064 1.757506 -1.129663 -1.935657 1.916127 -1.352219 0.042302 1.453926 -1.352891 -1.285866 1.500812 -0.143489 2.504395 -1.171364 0.699739 0.452793 -0.142494 1.403555 -0.713532 -0.246501 -1.231935 0.962466 1.496292 2.173431 -0.472261 3.942203 -1.586211
1.519526 1.445578 -1.609499 2.582747 2.460795 3.529971 0.431498 -0.524736 0.238502 0.565084 -2.150664 2.607871 -3.578636 0.22885 1.205379 0.400126 -2.365878 -2.228676 -0.500047 -1.958516 -2.734259 -2.028213 -0.339577 -2.726884 0.003785 -1.85554 -0.90189 1.042933 0.930181 0.561229 0.956561 0.220468 -1.219533 -0.188243 -0.649085 -0.117874 2.101841 -0.317004 1.300647 -1.49228 0.533457 -2.976113 -0.635474 -1.431524 -0.943268 0.543614 -2.072507 -1.004219 4.072807 -1.496014 2.612373 2.458477 -0.120651 0.418572 -2.53177 0.646754 2.04053 2.0667 -2.403623 -3.037353 -1.289071 1.269349 0.447478 0.512568 0.464348 -0.142416 -1.155552 0.32258 -0.986119 3.909852 3.839548 0.865499 -1.089316 -1.400134 0.517204 -3.398406 -0.576028 -0.612853 -0.573641 -1.979957 1.278503 1.159562 0.583915 -0.210028 0.851463 1.075476 2.276915 0.114312 2.2836 1.968815 1.899569 0.001135 -2.286771 -2.666814 -1.408445 1.975128 -0.085175 1.44887 -1.994305 2.796178
0.060854 -0.011986 -0.038491 -0.215355 -0.196333 0.013959 -0.162443 0.134481 -0.212497 0.029634 0.027952 0.080762 -0.014948 0.07979 0.015262 0.106256 -0.140167 0.062221 0.056658 0.003705 -0.127495 0.040146 0.071066 0.123334 -0.170067 0.049084 0.064598 0.034576 -0.153861 0.059129 -0.122907 0.101599 -0.03729 -0.144749 -0.054557 -0.088295 -0.096698 -0.031594 -0.004937 -0.058224 0.001627 0.103749 0.057639 0.173077 -0.067248 -0.148184 0.083801 0.091989 -0.051326 0.080511 -0.039954 -0.034848 -0.141769 0.053141 0.11912 -0.065528 0.056766 -0.008784 0.041694 -0.183181 0.047779 -0.041783 0.00709 -0.08381 0.007302 0.024247 -0.021254 -0.09643 -0.074851 -0.010163 -0.029143 -0.169037 0.234911 -0.065547 0.066872 -0.113811 0.166807 0.067121 -0.162991 0.064033 0.092899 0.075295 0.092263 0.124227 -0.013228 -0.080937 0.005278 0.092741 0.111105 0.017927 -0.012814 0.028827 -0.039962 0.069081 -0.075695 -0.087783 -0.156934 -0.049833 0.008716 -0.058487
0.038826 0.057241 0.327799 -0.045647 0.191496 -0.049803 -0.17699 0.014172 -0.03957 -0.197826 -0.018384 0.089204 -0.014888 0.046538 0.082575 0.15331 -0.064986 0.127831 0.057104 0.249344 0.104899 0.136459 -0.004628 -0.140759 -0.289996 -0.086021 0.035062 -0.161015 0.063854 -0.179087 0.048598 -0.200793 -0.111273 -0.087891 0.077496 -0.087373 0.094546 0.14933 -0.160426 0.255454 0.039611 0.063766 -0.172434 -0.049711 -0.022499 0.11055 -0.198775 0.017058 -0.069897 -0.061186 -0.088704 0.135471 0.026566 -0.189047 0.064772 -0.238668 -0.054692 -0.47177 -0.010358 -0.209178 -0.072942 -0.071801 0.034949 0.115615 -0.455111 0.204519 0.04734 0.005466 0.034813 0.063101 0.028298 -0.065616 -0.1038 -0.072467 0.146892 -0.21605 -0.080481 0.20539 0.003417 0.040435 -0.001497 -0.050524 -0.071648 -0.202773 -0.199845 0.017659 0.151043 0.042351 0.132325 -0.04072 -0.280076 0.181232 -0.060654 0.217049 0.258221 -0.133451 -0.091122 0.156114 -0.130382 0.171243
-0.171295 -0.065954 0.038882 0.09165 -0.068984 -0.003566 -0.225775 -0.152221 -0.041874 -0.011258 0.020814 0.044999 -0.061306 0.016533 0.180701 0.180738 0.01381 0.119005 0.014025 0.245015 -0.061948 0.026633 0.115597 0.155613 0.003799 -0.028489 -0.040599 0.068413 0.028872 -0.13096 -0.051809 0.090873 -0.155475 0.015699 -0.017094 -0.067773 0.076722 -0.069474 0.073232 -0.064926 0.03031 -0.066425 0.112917 0.024749 0.077286 -0.056283 -0.029186 0.225748 0.078114 0.045758 0.051012 -0.210923 -0.085915 -0.018283 0.192312 8.63E-4 -0.158672 0.09057 0.014417 -0.147861 0.076495 -0.102027 0.032027 -0.055548 0.011866 -0.156144 0.004776 -0.088422 0.01197 0.014637 -0.10458 0.254082 0.061564 -0.062301 -0.108135 -0.072505 0.007662 -0.057641 0.097392 0.027097 0.094468 -0.08758 0.112367 -0.115779 -0.060964 0.101238 -0.005006 0.149959 0.033406 0.222254 -0.100892 -0.041661 -0.016638 -0.004289 -0.088616 0.116489 -0.093088 -0.021015 -0.084834 0.026133
0.0 0.0 0.0 0.0 0.0 0.0 0.0 0.0 0.0 0.0 0.0 0.0 0.0 0.0 0.0 0.0 0.0 0.0 0.0 0.0 0.0 0.0 0.0 0.0 0.0 0.0 0.0 0.0 0.0 0.0 0.0 0.0 0.0 0.0 0.0 0.0 0.0 0.0 0.0 0.0 0.0 0.0 0.0 0.0 0.0 0.0 0.0 0.0 0.0 0.0 0.0 0.0 0.0 0.0 0.0 0.0 0.0 0.0 0.0 0.0 0.0 0.0 0.0 0.0 0.0 0.0 0.0 0.0 0.0 0.0 0.0 0.0 0.0 0.0 0.0 0.0 0.0 0.0 0.0 0.0 0.0 0.0 0.0 0.0 0.0 0.0 0.0 0.0 0.0 0.0 0.0 0.0 0.0 0.0 0.0 0.0 0.0 0.0 0.0 0.0
-0.060493 0.177615 -0.004827 0.006705 0.005518 0.074168 -0.211491 0.066238 -0.106589 0.05101 0.074724 0.03502 8.36E-4 0.077576 -0.07512 -0.060944 0.071577 0.192055 0.104466 0.08951 0.052275 0.09324 0.080672 -0.08251 -0.069943 -2.51E-4 -0.049392 -0.091688 0.027305 0.015205 -0.072145 0.013569 -0.215766 -0.056288 0.00871 0.088743 -0.092435 0.03069 0.028684 0.117843 0.185735 0.223195 0.131907 0.239888 -0.201584 -0.039727 0.212305 -0.091183 -0.085126 0.085773 0.08809 -2.5E-4 0.035841 0.020332 0.216051 -0.101062 0.128444 0.029447 -0.076262 0.073827 -0.025757 -0.036797 0.09136 -0.185503 -0.203303 -0.10121 0.190945 0.16166 0.061212 0.027742 -0.241355 0.070678 -0.007948 0.077107 0.25071 -0.096053 0.010577 0.113229 0.130095 -0.070924 0.121812 0.216859 0.116627 -0.049913 -0.085507 -0.097486 0.048155 -0.037432 -0.045411 -0.022086 -0.104361 -0.088264 -0.022697 0.141791 0.048275 -0.09798 0.10958 0.004261 -0.104748 -0.02614
4.088196 0.297704 -1.028615 4.747435 1.110235 3.134462 1.265814 0.610371 -0.19393 -2.629615 0.757407 2.031496 -1.681606 -0.750734 0.607439 1.730475 -0.575801 -4.9484 -3.106981 1.433708 -2.933383 -0.607278 0.21502 -0.936141 2.201521 -3.425759 0.586913 1.130422 0.587819 -0.544596 0.736509 0.737671 0.264796 0.179184 -4.64829 0.041762 0.734897 0.498987 2.005224 -0.478501 -0.946017 -3.056592 0.966226 -1.025565 0.551075 0.107511 -0.35197 -2.926284 3.608778 0.68242 1.34705 3.202598 -2.869086 -0.732502 -1.947601 1.534661 1.056872 2.271927 0.48151 -4.047965 -0.142861 1.538222 0.398362 -0.676201 0.098441 0.236745 -0.520654 -2.577075 -1.766508 3.842722 3.056848 1.899663 0.194581 1.398197 0.852022 -0.084509 -1.080607 0.04108 1.806659 -3.684653 -2.340004 0.651856 0.016765 1.240274 3.416146 5.020018 2.589897 0.918731 3.34579 -1.734813 2.131855 2.079846 1.246448 0.333801 -2.336565 1.727393 -1.314646 0.072673 -2.721992 3.204293
-0.168535 -0.314107 1.281662 0.034674 -0.151093 0.260773 0.456517 -1.589034 -2.360229 0.320275 -1.031973 1.487944 -0.203679 0.823894 -0.186427 0.375306 -0.137148 -0.444237 -0.428196 -0.303992 -0.344502 1.322166 1.961086 1.800399 -0.584436 1.283963 1.298349 0.896067 -1.399384 -0.986889 1.911913 -0.421495 0.079622 -1.406785 0.827658 -1.612628 0.987818 -0.088615 -1.605032 -2.625575 -0.460709 -0.649926 1.583738 -0.267508 -0.595157 -0.581601 -0.760655 -1.356295 -0.616804 1.546751 -0.143493 -0.172393 -9.18E-4 -0.555019 -0.431891 1.497606 -1.037506 -2.623245 -1.00564 -0.48926 -1.373186 -0.159208 -0.420892 -0.674288 1.061824 0.445802 -0.49047 -2.20927 0.031966 2.549242 2.419934 -0.473385 0.297248 2.322446 1.196198 -0.181165 -1.278033 0.396529 0.182495 -0.676349 0.390354 0.913586 -1.271343 -0.822989 0.060544 -1.15674 -0.808823 -0.098679 -0.227939 0.930039 -0.005398 0.220472 -2.407505 0.294507 1.407112 0.453238 0.649706 -0.061967 0.155158 0.188254
2.591633 1.608701 -2.087245 2.00752 3.012652 4.995656 0.847355 -1.594905 -0.365708 -1.629805 -1.650237 3.712017 -0.231463 -0.537534 -2.036098 2.002639 -0.696666 -4.310136 -1.477319 -1.356504 -0.581823 -1.830239 -0.272773 -1.648095 0.090509 0.008711 0.330842 0.396714 2.341035 -0.526067 1.155793 -1.730906 -1.010387 -1.342646 -1.939355 0.734869 0.727366 0.700702 1.516974 -2.133831 -0.280653 -3.051674 0.017123 0.532043 1.478449 0.375441 0.920129 1.548929 1.087478 0.668327 0.707416 3.249232 -0.362503 1.273221 -2.929682 -0.245389 1.633444 -0.119836 0.103459 -3.445175 0.513245 0.427807 0.738792 1.448203 0.501908 0.362882 -0.731533 -0.391201 0.037778 3.053553 4.030229 1.793904 1.24136 0.081706 -1.401954 -0.638804 -0.487445 -0.267924 0.012844 0.538179 -0.241935 -0.068756 1.351665 -0.112558 0.001814 0.447262 0.833441 -0.023876 1.212707 1.514635 -0.568611 0.376173 -3.663739 -4.345135 -0.444319 2.139788 -2.53093 0.92131 -1.399435 1.763954
-0.135725 -0.168819 0.267913 0.132483 -0.028257 0.059221 -0.169125 0.037387 0.006395 0.080887 0.090462 0.089122 -0.136608 -0.08536 0.116898 0.053702 0.059773 0.191131 -0.036087 0.160387 -0.124535 -0.097714 0.24225 0.101831 -0.222942 -0.105727 0.196216 -0.007958 0.021192 0.201736 -0.061594 -0.170513 0.004214 0.057466 -0.127211 0.043138 0.040041 0.018293 -0.080124 0.018653 -0.090876 0.011577 0.116266 -0.02559 0.113065 0.073367 0.162832 -0.064469 -0.063204 0.122164 -0.028318 -0.304891 -0.245454 -0.125532 0.049721 -0.024282 0.041448 -0.057869 -0.083082 -0.179595 -0.11993 0.104266 0.056721 -0.092759 -0.183795 -0.022763 0.114876 0.117829 0.361913 -0.080271 0.115337 -0.086968 0.228819 -0.015109 -0.160962 0.227893 -0.008668 -0.025697 -0.200826 0.173977 0.045324 0.053199 0.108113 -0.11763 -0.073331 -0.065188 -0.072361 -0.105821 0.273336 0.163962 -0.344504 0.142383 -0.257516 0.107421 0.123926 -0.181341 0.143586 -0.116399 -0.247427 -0.171423
-0.670733 -1.433092 1.1375 1.959934 0.529837 0.653694 -0.773286 0.221757 -1.599962 -1.801401 -1.070258 0.987168 -0.768034 0.345261 0.704967 1.242037 0.856948 -0.778048 -0.359315 -0.533851 -0.384693 0.844807 1.704255 0.338407 -0.634473 0.502538 0.521321 1.91673 0.565399 -1.70988 -2.031883 -1.776518 -0.229738 -1.660201 0.132505 -0.10554 -0.389824 -2.046326 -0.680169 -2.12824 -0.683936 -2.117149 -2.66396 1.681674 -0.061178 0.939458 -1.844226 0.093756 3.199893 -0.139508 0.015422 -1.401129 1.084164 1.628393 0.524706 -0.026846 -0.643238 -1.008132 -0.656549 -0.199032 -0.162639 0.4378 -0.079119 -2.177184 0.092115 0.836588 -0.836723 -0.544035 -1.288505 1.771147 0.948909 -0.837499 1.268145 0.638857 -0.131979 -1.219783 0.620602 0.479274 -1.05634 -2.359853 1.470877 0.006791 1.426331 1.640332 -2.824036 -0.18672 -0.92739 0.465099 1.153808 1.335223 -0.138687 2.455523 -2.453457 -0.921042 -0.220981 -0.128725 -3.238701 -1.123216 -1.755074 -2.039009
0.060854 -0.011986 -0.038491 -0.215355 -0.196333 0.013959 -0.162443 0.134481 -0.212497 0.029634 0.027952 0.080762 -0.014948 0.07979 0.015262 0.106256 -0.140167 0.062221 0.056658 0.003705 -0.127495 0.040146 0.071066 0.123334 -0.170067 0.049084 0.064598 0.034576 -0.153861 0.059129 -0.122907 0.101599 -0.03729 -0.144749 -0.054557 -0.088295 -0.096698 -0.031594 -0.004937 -0.058224 0.001627 0.103749 0.057639 0.173077 -0.067248 -0.148184 0.083801 0.091989 -0.051326 0.080511 -0.039954 -0.034848 -0.141769 0.053141 0.11912 -0.065528 0.056766 -0.008784 0.041694 -0.183181 0.047779 -0.041783 0.00709 -0.08381 0.007302 0.024247 -0.021254 -0.09643 -0.074851 -0.010163 -0.029143 -0.169037 0.234911 -0.065547 0.066872 -0.113811 0.166807 0.067121 -0.162991 0.064033 0.092899 0.075295 0.092263 0.124227 -0.013228 -0.080937 0.005278 0.092741 0.111105 0.017927 -0.012814 0.028827 -0.039962 0.069081 -0.075695 -0.087783 -0.156934 -0.049833 0.008716 -0.058487
0.051808 0.017909 0.085155 -0.060444 -0.057395 -0.038112 -0.021832 4.21E-4 -0.044129 -0.197069 -0.035831 0.082055 -0.089886 0.023977 0.076578 0.1047 0.085872 -0.048943 -0.102234 -0.158831 -0.097398 0.112284 -0.086751 -0.166097 0.042151 -0.003775 0.053049 0.015015 0.171023 0.032037 -0.167228 -0.042769 -0.001751 0.129104 0.095717 -0.015765 -0.123331 0.046481 0.001069 -0.074753 0.21425 -0.151695 0.107777 0.131847 0.162756 -0.059077 0.094894 0.220342 0.015967 -0.007782 -0.029612 0.036834 0.047268 -0.059479 0.066615 -0.145582 -0.097719 0.035055 -0.078837 0.074138 -0.077498 -0.038998 -0.208034 -0.178891 -0.009334 0.114334 -0.210563 -0.045906 0.12167 0.070358 -0.037289 0.014921 -0.045276 -0.027204 -0.016818 -0.003616 0.040959 -0.058463 0.01706 0.150279 -0.093766 -0.061884 0.014857 -0.135344 -0.035199 -0.075126 0.095997 0.180111 1.91E-4 0.060103 0.141862 0.084796 -0.092945 0.174676 -0.029251 0.062299 -0.107607 -0.137936 -0.04503 0.020919
0.051727 -0.163019 0.080513 0.007001 0.026981 -0.139648 -0.070711 0.028251 0.057919 0.015079 0.018688 0.080039 -0.013169 -0.169415 0.229306 0.146242 0.080152 -0.13523 0.071961 0.079063 -0.057927 0.1413 0.136064 0.077363 -0.086358 -0.181423 0.056878 0.077006 0.193802 -0.207265 -0.125262 0.068635 0.066314 0.143827 -0.011856 -0.090492 -0.167857 -0.142853 -0.140182 0.069166 0.015465 -0.037624 -0.138479 0.072324 0.02261 -0.053816 -0.043915 -0.138623 0.11636 -0.030628 0.085947 -0.022334 -0.061743 0.215037 0.147303 0.210964 -0.175339 -0.095672 -0.10277 -0.294775 0.041114 0.031241 0.16528 -0.101715 -0.101105 0.023033 -0.149807 -0.13894 -0.068447 0.12591 0.065311 0.055002 -0.051104 0.038142 0.131558 0.041642 0.016612 0.066537 -0.057153 -0.111632 -0.058681 -0.035739 0.113734 -0.180174 -0.124521 0.227101 0.034789 -0.045129 -0.055464 -0.002681 -0.183934 -0.050067 -0.23769 -0.095259 0.01562 -0.025612 -0.116113 -0.08813 -0.135294 -0.076746
0.352905 0.550922 -1.128945 -0.511125 0.774489 1.405335 -0.371647 0.106012 -0.779785 -0.640302 -0.68578 1.570717 -0.712288 -0.706705 -0.789609 -0.045278 -1.599722 -2.840112 -0.089543 -1.158838 -1.862605 -0.62748 -0.063542 -0.468696 0.750564 0.033551 -0.772222 -0.188991 -0.163115 0.455978 0.038455 -0.779588 0.172303 -1.114448 -0.548246 -0.008155 1.66721 -0.744821 -0.15746 -2.668482 -0.304702 -0.905716 0.479063 0.151803 -0.94063 -0.044338 -0.906122 -0.456182 0.281891 0.268287 0.47007 0.628019 0.328428 1.471286 -2.345457 0.072073 -0.345477 -0.998199 -1.496897 -0.053061 0.351206 -0.934426 0.295591 0.07336 0.24092 0.486976 0.390085 -0.621556 0.375246 -0.02625 1.957847 1.014101 0.004675 0.08874 -0.900479 -0.462149 0.922254 1.355385 -1.048724 0.105897 1.254466 0.410718 0.321258 1.066395 -0.171761 -0.128774 0.315556 0.697301 -0.180925 0.555334 1.005586 -0.891677 -1.232923 -1.994189 -0.567812 0.204184 -0.947385 -0.051526 -0.987029 0.725141
2.097164 -0.684685 -0.553311 1.458123 -0.361984 1.488648 1.630849 -0.547477 0.47489 0.560779 1.147556 1.539561 -1.932941 -0.11562 0.57818 0.806424 -1.418521 -2.667003 -0.404307 -0.989205 -1.565511 -0.075045 -0.224478 -1.593667 -0.559622 1.609323 2.101845 1.713226 0.339484 -0.764511 0.677974 -0.946163 0.391299 -1.386644 -1.354432 -0.47665 1.338354 -0.707447 -0.991086 -1.892278 0.948519 -1.548238 0.87698 -0.199978 -0.431374 0.788559 -0.81503 0.171272 0.574567 -0.922672 -0.541769 1.441391 -0.539436 1.61253 -0.535686 0.383211 1.146898 -1.381123 -0.560221 -1.975539 -0.725461 0.781178 -0.379347 -0.175998 -1.317066 -1.041156 -0.854758 -0.983401 0.970127 1.811068 3.418947 0.275835 0.602118 0.250477 1.673823 -0.047512 1.019559 0.701407 0.301924 -0.204249 1.558021 0.467911 -0.656596 -0.659069 -1.000279 -0.825337 1.172484 0.135611 -0.399185 0.803773 0.206766 0.004044 -0.451418 -0.835186 -0.620386 0.953422 -0.936139 1.506188 -0.979472 2.919243
3.15255 -0.907421 -3.642026 3.17996 3.42207 1.79741 -1.227643 1.238019 3.468645 -1.524123 -0.566973 2.247298 -5.676877 -3.465057 0.468239 -0.491914 -1.179421 -5.83672 -1.538257 2.775791 -2.00479 -1.449758 -1.2796 0.206099 1.947127 -2.184334 -0.629776 0.067498 1.962288 0.042905 -1.775377 -1.31689 1.177621 -0.477848 -4.149457 1.240261 2.627241 0.465456 3.275736 -0.229338 1.461656 -2.33524 -1.892225 -3.19226 0.177513 -1.76301 -0.410329 -0.595822 4.811452 1.986213 4.007822 4.845738 0.252917 1.747265 -0.348649 0.728273 3.103462 1.140455 -1.438188 -2.532658 1.100931 2.908969 -0.149113 1.39746 -0.110243 -0.869566 0.323433 0.189933 -0.593698 1.257804 3.346564 3.900447 -1.435939 2.359596 1.356138 -1.532728 -3.12145 -0.745096 3.148153 -1.649395 -2.176761 3.755593 -0.02329 1.428043 0.63312 -0.20617 3.715836 1.110841 1.264316 -1.176745 1.038138 -1.75898 -2.202135 1.199641 -2.789658 3.940613 -1.314701 0.546179 -0.086898 3.417288
0.229547 0.544727 -0.274649 1.276166 -0.403559 -0.401392 -2.679125 0.639339 -3.356351 -0.051849 1.29832 0.587154 -1.017008 0.98199 -0.010478 0.475955 0.530194 -0.497395 -0.996546 -2.166501 0.296091 1.612848 2.660892 1.487908 -0.372856 1.460905 3.270667 2.293277 -0.122158 -0.397236 1.534 0.964262 -1.510137 -0.353891 -1.153495 -3.466847 1.656319 -1.720978 1.172703 -1.630491 -3.877671 -3.602643 3.775502 0.564637 0.406213 -1.187358 -0.419965 -0.68209 0.52087 -0.369532 -0.021121 -0.982603 -0.827227 0.916302 0.053345 1.460838 -1.538358 -0.19961 2.025315 -3.292123 -2.57876 1.380057 -0.249729 -0.78903 -1.867783 0.665735 -2.268706 -3.418555 1.201707 5.139507 4.458985 -2.876798 1.133844 3.648833 -0.592499 2.038396 -1.183891 -0.944117 1.272498 2.501906 1.659798 -3.084304 -0.294015 -1.277526 -1.614161 -0.067747 0.306641 2.079055 -0.96491 4.179631 -2.134387 -2.230689 -3.937284 -1.615137 1.549554 1.486944 0.518469 -0.540947 0.378382 -0.129263
0.0 0.0 0.0 0.0 0.0 0.0 0.0 0.0 0.0 0.0 0.0 0.0 0.0 0.0 0.0 0.0 0.0 0.0 0.0 0.0 0.0 0.0 0.0 0.0 0.0 0.0 0.0 0.0 0.0 0.0 0.0 0.0 0.0 0.0 0.0 0.0 0.0 0.0 0.0 0.0 0.0 0.0 0.0 0.0 0.0 0.0 0.0 0.0 0.0 0.0 0.0 0.0 0.0 0.0 0.0 0.0 0.0 0.0 0.0 0.0 0.0 0.0 0.0 0.0 0.0 0.0 0.0 0.0 0.0 0.0 0.0 0.0 0.0 0.0 0.0 0.0 0.0 0.0 0.0 0.0 0.0 0.0 0.0 0.0 0.0 0.0 0.0 0.0 0.0 0.0 0.0 0.0 0.0 0.0 0.0 0.0 0.0 0.0 0.0 0.0
-0.060493 0.177615 -0.004827 0.006705 0.005518 0.074168 -0.211491 0.066238 -0.106589 0.05101 0.074724 0.03502 8.36E-4 0.077576 -0.07512 -0.060944 0.071577 0.192055 0.104466 0.08951 0.052275 0.09324 0.080672 -0.08251 -0.069943 -2.51E-4 -0.049392 -0.091688 0.027305 0.015205 -0.072145 0.013569 -0.215766 -0.056288 0.00871 0.088743 -0.092435 0.03069 0.028684 0.117843 0.185735 0.223195 0.131907 0.239888 -0.201584 -0.039727 0.212305 -0.091183 -0.085126 0.085773 0.08809 -2.5E-4 0.035841 0.020332 0.216051 -0.101062 0.128444 0.029447 -0.076262 0.073827 -0.025757 -0.036797 0.09136 -0.185503 -0.203303 -0.10121 0.190945 0.16166 0.061212 0.027742 -0.241355 0.070678 -0.007948 0.077107 0.25071 -0.096053 0.010577 0.113229 0.130095 -0.070924 0.121812 0.216859 0.116627 -0.049913 -0.085507 -0.097486 0.048155 -0.037432 -0.045411 -0.022086 -0.104361 -0.088264 -0.022697 0.141791 0.048275 -0.09798 0.10958 0.004261 -0.104748 -0.02614
2.097164 -0.684685 -0.553311 1.458123 -0.361984 1.488648 1.630849 -0.547477 0.47489 0.560779 1.147556 1.539561 -1.932941 -0.11562 0.57818 0.806424 -1.418521 -2.667003 -0.404307 -0.989205 -1.565511 -0.075045 -0.224478 -1.593667 -0.559622 1.609323 2.101845 1.713226 0.339484 -0.764511 0.677974 -0.946163 0.391299 -1.386644 -1.354432 -0.47665 1.338354 -0.707447 -0.991086 -1.892278 0.948519 -1.548238 0.87698 -0.199978 -0.431374 0.788559 -0.81503 0.171272 0.574567 -0.922672 -0.541769 1.441391 -0.539436 1.61253 -0.535686 0.383211 1.146898 -1.381123 -0.560221 -1.975539 -0.725461 0.781178 -0.379347 -0.175998 -1.317066 -1.041156 -0.854758 -0.983401 0.970127 1.811068 3.418947 0.275835 0.602118 0.250477 1.673823 -0.047512 1.019559 0.701407 0.301924 -0.204249 1.558021 0.467911 -0.656596 -0.659069 -1.000279 -0.825337 1.172484 0.135611 -0.399185 0.803773 0.206766 0.004044 -0.451418 -0.835186 -0.620386 0.953422 -0.936139 1.506188 -0.979472 2.919243
0.0 0.0 0.0 0.0 0.0 0.0 0.0 0.0 0.0 0.0 0.0 0.0 0.0 0.0 0.0 0.0 0.0 0.0 0.0 0.0 0.0 0.0 0.0 0.0 0.0 0.0 0.0 0.0 0.0 0.0 0.0 0.0 0.0 0.0 0.0 0.0 0.0 0.0 0.0 0.0 0.0 0.0 0.0 0.0 0.0 0.0 0.0 0.0 0.0 0.0 0.0 0.0 0.0 0.0 0.0 0.0 0.0 0.0 0.0 0.0 0.0 0.0 0.0 0.0 0.0 0.0 0.0 0.0 0.0 0.0 0.0 0.0 0.0 0.0 0.0 0.0 0.0 0.0 0.0 0.0 0.0 0.0 0.0 0.0 0.0 0.0 0.0 0.0 0.0 0.0 0.0 0.0 0.0 0.0 0.0 0.0 0.0 0.0 0.0 0.0
2.669 5.884626 -2.822182 3.917995 0.341369 -4.397399 3.062641 -2.08977 -1.604053 -0.409806 -2.741371 0.088922 2.032957 0.816046 1.189165 1.985772 7.09E-4 0.322484 0.192557 1.083981 -1.414838 3.083281 0.154385 2.198175 3.650187 -2.068413 -2.855453 3.096969 0.548218 1.242418 2.04961 -0.039255 1.444399 -1.02301 1.246123 -2.523492 -1.587992 2.324198 0.352585 -2.862157 -3.757683 -0.451978 -1.28788 3.083538 0.122249 -3.234966 -5.296841 -1.029083 4.12677 2.56716 -3.587471 -2.884013 2.183966 6.496165 0.946866 2.916584 0.262291 -0.244751 -2.137104 -1.702633 2.190594 0.966118 -1.681313 -0.285372 -2.853686 1.982593 0.909957 -0.505736 -2.037906 2.707815 -0.173545 1.652629 3.096703 -0.568728 3.4419 -1.263456 -1.318436 -0.303039 -1.25283 1.350672 6.253671 0.360774 3.063807 -4.44704 -3.764624 -1.598651 2.798281 2.749917 1.702074 -0.991137 -2.80867 -0.227325 -0.443268 -0.588128 -2.052817 1.307853 -1.27804 -1.268353 -0.547349 5.932014
-0.195124 0.094089 0.236517 -0.11621 0.442304 0.246494 -0.173188 -0.086686 0.027526 0.187306 -0.155501 0.023641 -0.134924 0.03178 0.008285 0.060439 -0.213789 0.100775 -0.233289 0.151081 0.084196 -0.163129 0.100651 -0.148642 -0.080148 -0.076606 0.08081 0.072613 0.195848 -0.213885 -0.023367 0.173884 -0.148904 -0.018416 -0.22651 -0.137979 0.031026 -0.118977 -0.069481 -0.004953 0.10908 -0.114975 -0.064858 -0.048373 -0.012443 0.069781 0.01786 -0.069517 0.118982 0.091017 0.193706 -0.106579 0.028191 0.032537 0.119204 0.16324 -0.175172 0.190201 0.104296 -0.012909 -0.099754 0.073987 -0.12196 -0.089846 0.103089 -0.118624 0.150758 -0.093015 -0.020021 0.073107 0.078078 -0.071656 -0.002373 0.022035 -0.103574 0.39176 -0.206306 -0.007621 0.055148 -0.24952 0.099478 -0.214048 -0.095406 -0.068086 -0.00341 0.045156 0.023584 -0.083893 -0.137361 0.229894 -0.039713 -0.133575 -0.331355 -0.110142 -0.07767 -0.31097 -0.057855 -0.15025 -0.300689 -0.048315
0.051727 -0.163019 0.080513 0.007001 0.026981 -0.139648 -0.070711 0.028251 0.057919 0.015079 0.018688 0.080039 -0.013169 -0.169415 0.229306 0.146242 0.080152 -0.13523 0.071961 0.079063 -0.057927 0.1413 0.136064 0.077363 -0.086358 -0.181423 0.056878 0.077006 0.193802 -0.207265 -0.125262 0.068635 0.066314 0.143827 -0.011856 -0.090492 -0.167857 -0.142853 -0.140182 0.069166 0.015465 -0.037624 -0.138479 0.072324 0.02261 -0.053816 -0.043915 -0.138623 0.11636 -0.030628 0.085947 -0.022334 -0.061743 0.215037 0.147303 0.210964 -0.175339 -0.095672 -0.10277 -0.294775 0.041114 0.031241 0.16528 -0.101715 -0.101105 0.023033 -0.149807 -0.13894 -0.068447 0.12591 0.065311 0.055002 -0.051104 0.038142 0.131558 0.041642 0.016612 0.066537 -0.057153 -0.111632 -0.058681 -0.035739 0.113734 -0.180174 -0.124521 0.227101 0.034789 -0.045129 -0.055464 -0.002681 -0.183934 -0.050067 -0.23769 -0.095259 0.01562 -0.025612 -0.116113 -0.08813 -0.135294 -0.076746
0.352905 0.550922 -1.128945 -0.511125 0.774489 1.405335 -0.371647 0.106012 -0.779785 -0.640302 -0.68578 1.570717 -0.712288 -0.706705 -0.789609 -0.045278 -1.599722 -2.840112 -0.089543 -1.158838 -1.862605 -0.62748 -0.063542 -0.468696 0.750564 0.033551 -0.772222 -0.188991 -0.163115 0.455978 0.038455 -0.779588 0.172303 -1.114448 -0.548246 -0.008155 1.66721 -0.744821 -0.15746 -2.668482 -0.304702 -0.905716 0.479063 0.151803 -0.94063 -0.044338 -0.906122 -0.456182 0.281891 0.268287 0.47007 0.628019 0.328428 1.471286 -2.345457 0.072073 -0.345477 -0.998199 -1.496897 -0.053061 0.351206 -0.934426 0.295591 0.07336 0.24092 0.486976 0.390085 -0.621556 0.375246 -0.02625 1.957847 1.014101 0.004675 0.08874 -0.900479 -0.462149 0.922254 1.355385 -1.048724 0.105897 1.254466 0.410718 0.321258 1.066395 -0.171761 -0.128774 0.315556 0.697301 -0.180925 0.555334 1.005586 -0.891677 -1.232923 -1.994189 -0.567812 0.204184 -0.947385 -0.051526 -0.987029 0.725141
0.121733 0.053646 -0.15544 0.106433 -0.135759 0.019612 0.054153 -0.151473 0.005431 0.023473 -0.007909 -0.188981 0.183387 0.284423 -0.080472 0.196329 0.269745 -0.117484 0.017973 0.26046 0.185873 0.290429 0.011649 0.201769 -0.001069 -0.213618 0.072412 0.122381 0.005055 0.033868 0.035341 -0.053661 -0.095778 -0.044343 -0.025614 0.048081 -0.353645 0.025361 -0.0279 0.033866 -0.065103 0.295804 -0.090635 -0.035496 0.15356 -0.05524 -0.035598 0.061968 0.190476 0.069474 -0.136314 -0.02328 -0.122398 0.046134 -0.195597 0.124305 0.075533 -0.103539 -0.194726 0.244572 0.276593 0.158058 0.05366 -0.123829 -0.133646 0.120329 0.061931 -0.150664 -0.253234 0.106347 0.292983 0.063274 -0.004215 0.297781 0.002637 0.276827 -0.07177 0.099458 0.045496 -0.289078 -0.030452 -0.114557 0.258292 0.051021 0.104142 0.003915 -0.019431 -0.076821 -0.003402 0.006587 -0.055906 -0.315424 -0.103239 0.051093 0.046953 0.154624 -0.009213 -0.030596 -0.275698 -0.282966
-0.144336 0.074372 0.113318 0.085118 -0.148613 0.116197 -0.043826 0.097308 0.028569 0.0599 0.122926 0.129504 -0.202531 -0.024615 -0.184827 0.130076 -0.320919 0.065363 0.003498 0.051718 -0.144357 -0.139014 -0.049753 0.108518 -0.082871 0.171983 0.073164 -0.210686 -0.009667 0.210213 0.060274 0.046079 -0.075353 -0.162488 0.155761 -0.129948 -0.292558 -0.091019 -0.218721 0.241112 -0.031704 0.071499 0.229555 0.017352 -0.080441 0.02619 0.111902 -0.063922 0.15966 0.018002 0.091424 -0.033691 -0.13884 -0.017261 0.032462 0.057671 0.059981 0.008869 0.121346 -0.080853 0.079416 0.001784 0.19468 -0.254343 -0.090097 -0.09996 0.234742 -0.05806 -0.035704 -0.10223 -0.09253 0.014641 0.023658 0.024081 0.087838 0.004814 -0.031244 0.126039 -0.042851 0.057792 0.054989 0.062025 0.114046 -0.024096 0.166209 -0.182425 0.030826 0.162165 0.294079 0.052697 -0.053533 0.047016 -0.011732 0.117571 0.109081 -0.155768 -0.001293 -0.333485 -0.017285 0.020007
1.712598 0.277264 0.411079 -0.241499 -0.935393 1.40536 1.228539 1.399085 0.716063 -0.896747 -2.481361 -3.134534 0.543574 -1.602328 -1.908679 -0.096926 0.596786 -2.783856 -2.527641 1.407987 -2.858746 -2.482969 -1.284209 -0.534158 1.736176 -1.36792 1.614575 0.734303 -0.915146 -0.516233 3.090628 -1.362958 0.396535 -0.858695 -0.803276 1.394256 -0.705281 1.113412 -0.015583 2.615127 -0.116898 -1.518665 1.76046 -1.061116 0.240051 -0.825438 -0.555148 -1.888499 4.10476 0.81274 0.094125 2.482819 -0.014775 1.295676 0.990469 -2.110191 -1.750038 2.858354 -1.038153 -3.641521 -0.183371 -0.031844 -1.173565 0.358213 -0.4125 0.399201 -1.264336 -3.023668 1.096278 -1.151985 2.299933 -0.385198 0.067523 -0.105792 0.301481 -2.063802 0.009593 -2.514295 0.146633 0.56579 -2.863848 -0.226809 1.140698 0.155914 3.112365 3.262719 3.611383 0.53507 0.799208 1.610409 -0.68259 -1.366508 -0.797061 1.387145 -1.183758 -0.398168 -2.351417 2.161542 -1.403292 1.950354
-0.206069 -0.171555 0.255433 -0.014952 -0.167785 -0.046192 -0.080093 -0.094088 0.057377 0.163155 0.302534 0.133311 -0.037203 -0.10132 0.15676 0.054317 7.56E-4 0.190999 0.0635 0.008045 -0.257655 0.138273 0.118304 0.140078 -0.132218 0.032791 -0.047599 0.118388 0.167759 -0.071658 0.027076 -0.17555 -0.159965 -3.01E-4 -0.099874 -0.199759 0.031162 0.007771 0.075566 0.167611 -0.145638 0.288067 0.046841 0.011408 0.047675 0.037864 -0.098064 0.166868 -0.28117 0.125146 -0.134258 -0.255155 -0.0562 -0.029659 -0.082313 0.075915 0.062528 0.075551 0.014488 -0.049325 0.054483 -0.141961 -0.089916 -0.198335 -0.108908 0.074773 0.188892 -0.194917 0.204811 -0.166123 -0.081888 0.049174 -0.237375 0.087083 0.00997 -0.261823 -0.243401 -0.061699 0.070294 -0.038547 0.018818 0.188027 0.122768 -0.196371 0.067557 0.082512 -0.022004 -0.187892 0.270574 -0.067855 -0.041438 0.113355 0.095701 0.160968 -0.045902 -0.152567 0.108479 0.039592 -0.158022 -0.15228
0.0 0.0 0.0 0.0 0.0 0.0 0.0 0.0 0.0 0.0 0.0 0.0 0.0 0.0 0.0 0.0 0.0 0.0 0.0 0.0 0.0 0.0 0.0 0.0 0.0 0.0 0.0 0.0 0.0 0.0 0.0 0.0 0.0 0.0 0.0 0.0 0.0 0.0 0.0 0.0 0.0 0.0 0.0 0.0 0.0 0.0 0.0 0.0 0.0 0.0 0.0 0.0 0.0 0.0 0.0 0.0 0.0 0.0 0.0 0.0 0.0 0.0 0.0 0.0 0.0 0.0 0.0 0.0 0.0 0.0 0.0 0.0 0.0 0.0 0.0 0.0 0.0 0.0 0.0 0.0 0.0 0.0 0.0 0.0 0.0 0.0 0.0 0.0 0.0 0.0 0.0 0.0 0.0 0.0 0.0 0.0 0.0 0.0 0.0 0.0
0.15849 -0.108446 0.060652 -0.008194 -0.052735 -0.14132 -0.064968 -0.131062 -0.176986 0.016132 0.146535 0.097815 -0.006962 0.031031 0.059471 0.228522 -0.072115 0.059189 -0.072778 0.016396 -0.179111 0.031434 0.186752 0.024644 -0.023998 -0.187947 0.062745 0.037207 0.009899 -0.073008 -0.052259 -0.02762 -0.137408 0.098595 -0.129036 -0.108954 0.203361 0.015456 0.063842 -0.078139 0.023904 0.165628 0.087652 0.091934 0.040288 -0.119348 -0.095886 0.086081 -0.017142 -0.01886 0.062085 0.007646 -0.071529 0.016292 0.071593 0.042954 0.010719 -0.144194 0.270578 -0.178196 -0.01856 0.046642 0.069962 -0.239681 -0.078538 -0.080061 0.116532 0.089446 0.187609 -0.137 0.088933 -0.032391 0.006936 0.020387 0.059 0.059742 -0.147257 0.00724 0.065396 -0.036561 -0.015099 -0.005432 0.025834 -0.088228 -0.013923 0.078631 -0.054426 0.14857 -0.045009 0.07035 0.058348 -0.097176 0.10859 0.187265 -0.00569 -0.139389 0.063445 -0.034281 0.047319 -0.08592
0.021664 0.027702 -0.199391 -0.096922 -0.075046 -0.026343 -0.093195 -0.079504 0.007325 -0.246419 -0.068932 0.147794 -0.188436 -0.0271 0.052419 -0.098256 -0.114459 -0.010631 -0.131577 0.079401 0.019506 -0.026024 -0.046881 -8.66E-4 -0.117182 -0.044945 -0.043637 -0.057317 0.172823 -0.189559 0.110503 0.340181 0.09487 -0.029102 0.022616 0.055068 0.32921 0.00857 0.052753 0.067711 -0.006574 -0.224085 0.006713 0.020932 -0.008492 0.070528 -0.013046 0.059184 -0.073514 -0.016901 -0.084964 0.09026 0.091914 -0.098072 0.138469 0.055464 -0.055989 -0.087712 -0.197719 0.005058 0.052378 -0.172117 -0.087499 0.215147 0.104773 -0.192062 0.015252 0.025736 -0.134099 -0.163455 0.057399 0.188056 -0.122024 -0.153516 0.043398 -0.025425 0.10921 0.193404 0.104687 0.025006 0.07257 -0.121035 0.057816 0.077162 0.088411 0.008306 -0.018059 -0.140635 0.215662 -0.005193 0.266697 -0.218006 0.377577 -0.170038 0.130027 0.007419 0.106786 0.065258 0.240408 0.158517
2.097164 -0.684685 -0.553311 1.458123 -0.361984 1.488648 1.630849 -0.547477 0.47489 0.560779 1.147556 1.539561 -1.932941 -0.11562 0.57818 0.806424 -1.418521 -2.667003 -0.404307 -0.989205 -1.565511 -0.075045 -0.224478 -1.593667 -0.559622 1.609323 2.101845 1.713226 0.339484 -0.764511 0.677974 -0.946163 0.391299 -1.386644 -1.354432 -0.47665 1.338354 -0.707447 -0.991086 -1.892278 0.948519 -1.548238 0.87698 -0.199978 -0.431374 0.788559 -0.81503 0.171272 0.574567 -0.922672 -0.541769 1.441391 -0.539436 1.61253 -0.535686 0.383211 1.146898 -1.381123 -0.560221 -1.975539 -0.725461 0.781178 -0.379347 -0.175998 -1.317066 -1.041156 -0.854758 -0.983401 0.970127 1.811068 3.418947 0.275835 0.602118 0.250477 1.673823 -0.047512 1.019559 0.701407 0.301924 -0.204249 1.558021 0.467911 -0.656596 -0.659069 -1.000279 -0.825337 1.172484 0.135611 -0.399185 0.803773 0.206766 0.004044 -0.451418 -0.835186 -0.620386 0.953422 -0.936139 1.506188 -0.979472 2.919243
0.04729 0.094932 0.142011 0.015402 -0.142511 -0.058977 -0.256459 -0.042447 0.175652 -0.075092 -0.011422 0.21131 -0.203909 0.058879 0.066815 -0.0023 0.003975 -0.188601 -0.002767 0.288785 0.220346 -0.069484 0.134736 0.09102 -0.284249 -0.118323 0.347108 -0.017708 -0.02269 0.010602 0.042315 -0.032771 -0.02997 0.064385 -0.06669 0.13751 0.019665 0.076866 -0.117088 0.066898 0.190269 -0.190373 -0.160346 -0.109001 0.20388 -0.260652 -0.006101 0.117891 -0.069569 0.069464 -0.205025 -0.229889 -0.054971 0.007328 -0.027963 -0.054202 0.044145 0.271576 0.15639 0.059082 0.078919 0.070828 -0.074348 -0.177899 -0.176514 -0.163763 0.004666 -0.194711 -0.149581 -0.091003 0.037128 0.124104 -0.118936 -0.122616 -0.098334 -0.001647 -0.071812 -0.080915 0.171466 -0.036539 0.207935 -0.276288 -0.098183 -0.206402 -0.093199 0.351785 -0.088969 -0.105591 -0.156839 0.143145 -0.057806 0.147731 0.104438 0.136074 0.113247 -0.113884 0.056117 0.085614 -0.119088 0.294058
0.443226 -1.341119 0.664672 1.729808 -0.967296 2.001984 -0.140084 0.826622 -2.288214 0.817799 0.717521 0.620104 0.900761 1.883426 1.874115 -2.487742 1.237457 1.04438 -0.098552 0.241026 -2.052482 -0.022102 1.967094 -0.454776 2.87782 -0.655735 0.885947 1.021063 1.112315 -0.785339 0.539924 -0.602245 0.221951 -1.147755 -3.554429 0.072517 0.591204 -1.084846 0.625442 -1.118608 -1.70086 -1.303858 0.015035 -1.659932 0.798693 1.918812 0.701617 0.3499 -0.99065 0.812149 -1.326157 -0.917809 1.810517 0.038456 1.731845 0.170202 2.702105 0.376047 -0.196405 -1.772175 -0.065394 -1.580096 -2.828521 2.95931 0.660658 -2.395911 2.215155 -1.070221 0.130587 0.580988 1.031165 1.206542 -1.554415 1.105609 -2.429958 0.888441 -1.930021 1.560629 -0.599421 0.801345 0.205928 0.405461 -0.151645 -0.206328 0.209988 0.50262 0.461518 1.039507 0.65998 0.992751 0.568737 0.039408 -0.47637 -0.626349 0.302951 -1.605198 -1.669669 0.735924 -0.531127 -0.455543
0.005727 0.024875 -0.03211 -0.014352 0.087566 0.025791 -0.0576 0.071649 -0.146391 0.033925 0.178542 0.104497 0.01205 0.162628 -0.102663 0.156289 0.175853 0.022571 -0.014516 -0.064931 -0.143594 0.11287 0.203688 -0.015318 0.010606 -0.019756 0.016361 0.142799 0.038384 -0.096013 -0.020147 -0.005624 -0.077409 -0.136004 0.021291 -0.080188 -0.047848 -0.052591 -0.008377 -0.20991 0.034855 -0.139408 0.120732 0.087282 0.171771 -0.057156 -0.138011 -0.022773 -0.078898 -0.091263 -0.090599 -0.131681 0.016857 0.056799 -0.031713 -0.118186 0.097133 -0.095688 -0.01253 -0.071959 -0.053595 -0.090943 -0.156421 -0.037279 0.056075 -0.074774 -0.004386 -0.179982 0.056285 -0.04857 0.041173 -0.003324 -0.01983 0.04633 0.007082 -0.018687 -0.132614 -0.001865 0.125883 -0.054192 -0.00151 -0.021273 -0.111373 0.148415 0.083756 0.03832 -0.014445 -0.112029 -0.165936 -0.006342 -0.031237 -0.005023 -0.037118 0.05475 -0.056123 0.014665 -0.027899 0.127032 -0.092186 -0.177427
-0.114618 -0.035886 0.054852 0.031345 -0.054757 0.012647 -0.112146 -0.050526 -0.163169 0.044815 0.045504 0.039315 0.058298 -0.075767 0.034098 0.127415 0.183377 -0.007021 0.001433 0.082576 -0.106399 0.017861 0.147505 -0.115762 -0.043966 0.009687 -0.129423 0.087019 0.115027 0.036049 -0.101813 -0.233322 -0.140612 0.053013 -0.060937 -0.015188 0.211413 -0.113487 -0.063846 -1.55E-4 0.075772 0.002758 -0.017053 0.060928 0.009388 0.090623 0.031342 0.035748 -0.1225 -0.04621 -0.090924 -0.061744 0.0528 -0.085651 -0.044088 0.071775 0.130642 0.011676 0.152505 -0.015521 0.043866 -0.069611 -0.051031 0.011204 0.066788 -0.048888 0.095726 -0.103891 0.047956 -0.057925 -0.160911 -0.019386 -0.021497 3.29E-4 -0.109295 -0.098531 0.004374 0.091074 -0.01499 0.082665 -0.045554 0.057881 -0.074233 -0.103646 0.191506 -0.01314 0.006226 0.01988 0.114705 0.055403 0.046248 -0.009564 -0.031849 0.096049 -0.107315 0.08718 -0.051843 0.112576 -0.08677 -0.021705
1.601962 0.900949 0.635211 3.447764 4.556849 4.718793 1.173769 -3.436885 -1.051534 1.078983 -0.838181 1.967356 -2.331807 -1.547952 -2.257938 1.73556 -0.249706 -0.488316 -1.430589 2.418064 -0.579609 -1.310292 2.943575 1.371693 -0.068968 0.590496 -1.059454 3.26051 -1.564247 1.325481 2.480003 -1.068812 -1.405306 -0.989926 0.348447 1.334518 -0.341972 -1.279951 1.497169 -0.266984 0.310556 -1.181396 1.727869 -2.592004 -2.631376 0.46677 1.482348 2.716194 1.912714 -0.261197 -1.29787 0.133063 1.550387 1.345474 -0.438107 0.220559 -0.533512 -2.984415 -1.66402 -1.92472 0.913412 -0.106297 -1.21729 1.448115 -2.256391 -2.533578 0.626119 1.420162 -1.215115 -0.321127 -0.883991 -0.628644 -0.47982 2.7565 3.289245 0.697882 0.4752 1.076089 -0.944494 -1.346913 3.452797 -1.472294 -0.064429 3.111885 -3.51977 1.561284 2.545174 -1.357291 -1.62109 0.707262 2.474147 -2.281674 -2.342087 -0.713686 -1.224266 -1.652807 -0.212111 1.322653 -3.070063 -0.834083
1.519526 1.445578 -1.609499 2.582747 2.460795 3.529971 0.431498 -0.524736 0.238502 0.565084 -2.150664 2.607871 -3.578636 0.22885 1.205379 0.400126 -2.365878 -2.228676 -0.500047 -1.958516 -2.734259 -2.028213 -0.339577 -2.726884 0.003785 -1.85554 -0.90189 1.042933 0.930181 0.561229 0.956561 0.220468 -1.219533 -0.188243 -0.649085 -0.117874 2.101841 -0.317004 1.300647 -1.49228 0.533457 -2.976113 -0.635474 -1.431524 -0.943268 0.543614 -2.072507 -1.004219 4.072807 -1.496014 2.612373 2.458477 -0.120651 0.418572 -2.53177 0.646754 2.04053 2.0667 -2.403623 -3.037353 -1.289071 1.269349 0.447478 0.512568 0.464348 -0.142416 -1.155552 0.32258 -0.986119 3.909852 3.839548 0.865499 -1.089316 -1.400134 0.517204 -3.398406 -0.576028 -0.612853 -0.573641 -1.979957 1.278503 1.159562 0.583915 -0.210028 0.851463 1.075476 2.276915 0.114312 2.2836 1.968815 1.899569 0.001135 -2.286771 -2.666814 -1.408445 1.975128 -0.085175 1.44887 -1.994305 2.796178
-0.060493 0.177615 -0.004827 0.006705 0.005518 0.074168 -0.211491 0.066238 -0.106589 0.05101 0.074724 0.03502 8.36E-4 0.077576 -0.07512 -0.060944 0.071577 0.192055 0.104466 0.08951 0.052275 0.09324 0.080672 -0.08251 -0.069943 -2.51E-4 -0.049392 -0.091688 0.027305 0.015205 -0.072145 0.013569 -0.215766 -0.056288 0.00871 0.088743 -0.092435 0.03069 0.028684 0.117843 0.185735 0.223195 0.131907 0.239888 -0.201584 -0.039727 0.212305 -0.091183 -0.085126 0.085773 0.08809 -2.5E-4 0.035841 0.020332 0.216051 -0.101062 0.128444 0.029447 -0.076262 0.073827 -0.025757 -0.036797 0.09136 -0.185503 -0.203303 -0.10121 0.190945 0.16166 0.061212 0.027742 -0.241355 0.070678 -0.007948 0.077107 0.25071 -0.096053 0.010577 0.113229 0.130095 -0.070924 0.121812 0.216859 0.116627 -0.049913 -0.085507 -0.097486 0.048155 -0.037432 -0.045411 -0.022086 -0.104361 -0.088264 -0.022697 0.141791 0.048275 -0.09798 0.10958 0.004261 -0.104748 -0.02614
-0.004091 -0.187322 0.032672 0.057003 -0.040247 0.077224 -0.173466 -1.59E-4 -0.093617 0.134825 0.176882 0.060475 0.08873 -0.038276 0.240869 0.088694 0.115194 0.183016 0.066439 0.087114 -0.137474 0.080621 0.256458 0.076846 -0.169403 -0.05896 -0.063153 -0.033878 0.213084 -0.078803 -0.007963 0.100232 -0.007064 0.185576 -0.169589 -0.044285 0.126184 0.034418 -0.077908 -0.092313 -0.105833 0.133448 0.218334 0.01526 0.067879 -0.110745 0.049319 0.054323 -0.148123 -0.053089 -0.050185 -0.135174 -0.081354 0.047568 0.234408 -0.198807 0.160494 0.153197 0.126533 -0.147169 0.089178 0.005684 -0.035977 -0.004898 -0.071395 -0.130505 0.053137 -0.0696 0.152621 -0.153407 -0.043012 -0.137533 0.020505 -0.071915 0.002864 -0.016882 -0.042029 -0.153656 -0.06163 0.030669 -0.07582 0.163984 0.125569 -0.079241 -0.006095 0.041695 -0.057133 -0.020208 0.094599 0.051328 -0.135655 0.037171 -0.072915 0.159936 -0.099379 -0.179371 0.070101 -0.021467 -0.140929 -0.065888
1.150358 -1.173331 -0.944417 -0.356919 -0.252387 2.997799 -1.617019 0.941655 -1.735361 0.561206 0.585236 0.715531 0.404128 0.094574 -0.948472 0.986385 1.368985 -0.242137 0.327782 1.485911 -1.386056 -0.663047 0.991764 -1.311489 0.810668 -0.531157 1.610121 1.549413 1.107554 -0.196018 -0.774368 0.795003 -0.708381 0.058541 -2.973294 -1.487998 -0.660683 -0.845594 -0.084768 -1.021577 -1.278183 0.154002 0.383618 0.351028 1.266769 -0.739503 -0.814568 0.134719 -0.107585 -0.727737 -1.357074 0.504497 -0.044017 -1.304744 -0.06556 -0.546465 1.890005 -0.482737 0.522527 -0.333492 -0.818857 -0.945961 -0.872094 -0.539376 -0.55929 -0.854865 0.484833 1.414298 -1.25361 -0.717549 0.110669 -0.578292 -0.679403 1.734498 -0.837235 0.678614 -0.003511 0.820735 -0.985839 1.294807 -1.776523 0.249341 -0.06364 1.083362 0.718405 -0.239628 0.361267 -0.361951 -0.891536 1.981328 0.308326 1.486094 -0.500629 -0.72509 0.724132 -0.031678 -0.225972 0.277921 -1.837045 1.069791
0.0 0.0 0.0 0.0 0.0 0.0 0.0 0.0 0.0 0.0 0.0 0.0 0.0 0.0 0.0 0.0 0.0 0.0 0.0 0.0 0.0 0.0 0.0 0.0 0.0 0.0 0.0 0.0 0.0 0.0 0.0 0.0 0.0 0.0 0.0 0.0 0.0 0.0 0.0 0.0 0.0 0.0 0.0 0.0 0.0 0.0 0.0 0.0 0.0 0.0 0.0 0.0 0.0 0.0 0.0 0.0 0.0 0.0 0.0 0.0 0.0 0.0 0.0 0.0 0.0 0.0 0.0 0.0 0.0 0.0 0.0 0.0 0.0 0.0 0.0 0.0 0.0 0.0 0.0 0.0 0.0 0.0 0.0 0.0 0.0 0.0 0.0 0.0 0.0 0.0 0.0 0.0 0.0 0.0 0.0 0.0 0.0 0.0 0.0 0.0
1.601962 0.900949 0.635211 3.447764 4.556849 4.718793 1.173769 -3.436885 -1.051534 1.078983 -0.838181 1.967356 -2.331807 -1.547952 -2.257938 1.73556 -0.249706 -0.488316 -1.430589 2.418064 -0.579609 -1.310292 2.943575 1.371693 -0.068968 0.590496 -1.059454 3.26051 -1.564247 1.325481 2.480003 -1.068812 -1.405306 -0.989926 0.348447 1.334518 -0.341972 -1.279951 1.497169 -0.266984 0.310556 -1.181396 1.727869 -2.592004 -2.631376 0.46677 1.482348 2.716194 1.912714 -0.261197 -1.29787 0.133063 1.550387 1.345474 -0.438107 0.220559 -0.533512 -2.984415 -1.66402 -1.92472 0.913412 -0.106297 -1.21729 1.448115 -2.256391 -2.533578 0.626119 1.420162 -1.215115 -0.321127 -0.883991 -0.628644 -0.47982 2.7565 3.289245 0.697882 0.4752 1.076089 -0.944494 -1.346913 3.452797 -1.472294 -0.064429 3.111885 -3.51977 1.561284 2.545174 -1.357291 -1.62109 0.707262 2.474147 -2.281674 -2.342087 -0.713686 -1.224266 -1.652807 -0.212111 1.322653 -3.070063 -0.834083
1.035361 1.319725 0.388011 1.220811 -0.236045 1.447081 -1.78193 3.520004 0.063077 -1.681862 0.545208 0.767849 -1.479444 -1.152839 0.669301 0.685509 -2.946755 -2.239533 -1.187422 -1.793336 0.607402 0.130687 0.296681 -1.569517 1.825066 1.715849 -1.639836 0.849724 -1.742086 0.427502 3.84844 -1.377145 0.671096 -1.312902 -1.152387 0.705431 2.180344 2.97496 1.402098 -0.909545 -1.649212 -0.253421 1.186817 1.193823 3.167747 -0.387379 -0.12198 0.872223 0.13285 0.490844 0.029473 1.345032 0.297008 2.724698 -1.656047 -0.109585 1.500583 -1.148555 -3.658389 1.022988 -1.211381 0.342059 -0.023586 1.22536 -1.874871 -1.957746 -0.188066 -0.235303 -0.067175 1.107354 1.448404 0.838301 1.67396 -0.238039 -0.504146 -1.334739 0.688005 0.37731 -2.953094 0.650433 0.307563 -0.457962 -1.694326 2.40152 -0.816994 0.208705 1.853393 0.15935 -0.989952 1.089235 1.087388 -2.786835 -2.248864 -0.788939 0.405791 0.907533 -1.516669 1.970717 -0.345554 -0.134731
-0.459039 -0.162851 -1.316549 -0.070411 -1.797519 2.123693 -1.359094 0.938352 1.031528 -0.046355 0.230743 -0.595851 -1.308068 -0.414689 0.639028 -2.761519 0.418925 0.751561 -1.237331 0.340662 -2.44131 1.162068 2.75983 -1.715628 -1.029677 0.365405 1.975927 2.281722 0.293739 -1.14786 -0.690247 0.621231 1.137957 0.761656 -3.485526 1.815865 -0.92388 -0.060527 2.024939 -0.136264 -0.850849 -0.149817 1.189445 -2.802708 0.262786 -1.022525 -0.619739 -0.492669 2.327341 -0.184789 -2.192494 0.723115 -0.204751 0.802708 0.392915 0.918046 0.07789 -0.593593 -0.098681 -1.26882 -0.249514 -2.899067 0.29968 2.193434 0.090696 0.477159 0.013853 0.189773 -1.22847 -0.204261 1.25545 1.503794 -0.632037 0.707484 -0.639088 0.144427 -0.365841 -1.340401 -0.74195 2.756047 -1.301719 -1.352461 3.251216 0.980332 0.936959 -0.649171 1.675511 0.807957 -1.070034 2.74029 -2.698268 -0.657518 1.144862 0.12586 -0.481802 0.765775 -2.209611 0.247826 0.329308 3.364158
-0.060493 0.177615 -0.004827 0.006705 0.005518 0.074168 -0.211491 0.066238 -0.106589 0.05101 0.074724 0.03502 8.36E-4 0.077576 -0.07512 -0.060944 0.071577 0.192055 0.104466 0.08951 0.052275 0.09324 0.080672 -0.08251 -0.069943 -2.51E-4 -0.049392 -0.091688 0.027305 0.015205 -0.072145 0.013569 -0.215766 -0.056288 0.00871 0.088743 -0.092435 0.03069 0.028684 0.117843 0.185735 0.223195 0.131907 0.239888 -0.201584 -0.039727 0.212305 -0.091183 -0.085126 0.085773 0.08809 -2.5E-4 0.035841 0.020332 0.216051 -0.101062 0.128444 0.029447 -0.076262 0.073827 -0.025757 -0.036797 0.09136 -0.185503 -0.203303 -0.10121 0.190945 0.16166 0.061212 0.027742 -0.241355 0.070678 -0.007948 0.077107 0.25071 -0.096053 0.010577 0.113229 0.130095 -0.070924 0.121812 0.216859 0.116627 -0.049913 -0.085507 -0.097486 0.048155 -0.037432 -0.045411 -0.022086 -0.104361 -0.088264 -0.022697 0.141791 0.048275 -0.09798 0.10958 0.004261 -0.104748 -0.02614
0.018514 -0.100805 0.039499 0.028774 0.063797 0.035246 -9.29E-4 -0.04767 -0.09467 -0.03279 0.122181 0.113675 0.081724 -0.043853 0.076988 0.159169 0.014874 0.016012 0.186219 0.00367 0.017311 0.042964 0.17054 0.152795 -0.024999 -0.137662 0.083428 0.106618 0.190228 -0.095876 -0.170267 0.004643 -0.085281 0.055195 -0.168677 -0.133353 0.020582 -0.04583 0.18126 -0.143388 -0.017035 -0.063165 0.099785 0.090232 -0.005853 0.069545 0.033268 0.064128 -0.102847 0.136641 0.08442 -0.15761 -0.196311 0.020261 0.162839 -0.057049 0.026844 0.197637 0.125437 -0.027631 0.068017 -0.01809 0.077502 -0.136002 -0.147431 -0.0015 -0.132542 0.071682 0.293682 0.046206 0.058644 -0.09417 0.04847 0.034524 0.087728 0.055265 0.031225 0.023734 -0.068879 0.017168 0.023263 -0.009412 0.115674 -0.187503 -0.156099 -0.134535 0.01238 -0.080882 0.084284 0.02613 -0.11293 -0.082055 0.035518 0.170481 -0.090686 0.049062 0.064527 -0.069402 -0.133448 0.099202
-1.371364 -0.905838 -2.28994 -1.283174 -1.310577 -1.606454 0.910305 1.305647 -4.371454 0.628874 1.806303 0.828653 -2.382652 -0.686732 0.545703 1.326346 0.154753 -3.264551 1.126633 -1.969114 -0.800301 -1.436766 3.728197 -1.038718 -2.327168 -1.817844 -1.522537 3.301526 -0.516965 -1.374094 -0.051603 -1.351815 -0.389973 -0.502437 0.25835 0.846892 1.917309 -2.564942 1.743738 0.299837 -0.077633 -0.203545 -1.348593 -0.075214 -1.608776 -1.418613 -1.239597 1.346437 1.05542 -0.955862 -1.024128 -0.739272 -1.267341 -0.406832 -0.563292 1.91249 -0.495804 -1.8464 -2.951108 -2.501113 -2.256394 0.158864 1.280809 0.511105 1.438967 -1.170372 -0.297717 -2.259045 1.504669 -0.129935 2.657114 -0.654912 -1.802167 1.676283 -1.228934 1.0964 1.563019 0.572077 -0.396552 -2.394884 0.52895 2.143209 0.307586 -0.887167 -1.371926 0.836945 0.408248 -0.956246 -1.326029 0.678732 3.122775 -1.439952 -0.709464 -1.94331 -0.773044 1.524834 1.347463 -1.037819 -0.217821 2.595661
0.0 0.0 0.0 0.0 0.0 0.0 0.0 0.0 0.0 0.0 0.0 0.0 0.0 0.0 0.0 0.0 0.0 0.0 0.0 0.0 0.0 0.0 0.0 0.0 0.0 0.0 0.0 0.0 0.0 0.0 0.0 0.0 0.0 0.0 0.0 0.0 0.0 0.0 0.0 0.0 0.0 0.0 0.0 0.0 0.0 0.0 0.0 0.0 0.0 0.0 0.0 0.0 0.0 0.0 0.0 0.0 0.0 0.0 0.0 0.0 0.0 0.0 0.0 0.0 0.0 0.0 0.0 0.0 0.0 0.0 0.0 0.0 0.0 0.0 0.0 0.0 0.0 0.0 0.0 0.0 0.0 0.0 0.0 0.0 0.0 0.0 0.0 0.0 0.0 0.0 0.0 0.0 0.0 0.0 0.0 0.0 0.0 0.0 0.0 0.0
-0.042225 -0.123878 0.125812 -0.047339 -0.043893 -0.067406 -0.063603 -0.10189 -0.028328 0.036493 0.152855 0.161033 0.032743 -0.056383 0.157935 0.224784 0.010838 0.195228 0.043328 0.066917 -0.074349 0.032456 0.214519 0.096556 -0.206686 -0.097539 -0.094037 -0.102439 0.066109 -0.117315 0.013221 0.067975 0.008616 -0.007637 -0.136152 -0.05413 -0.018231 -0.04308 -0.02102 0.116415 -0.09375 0.161338 -0.011309 -0.051762 0.036639 -0.024574 0.04156 0.02676 -0.089675 0.070729 0.191144 -0.085661 -0.054507 0.112093 0.009062 -0.145219 -0.00307 0.010653 0.037101 -0.125722 0.14252 -0.133977 -0.027117 -0.112734 -0.030975 0.052046 0.01503 0.057026 0.056914 -0.072049 -0.082323 0.033054 0.001461 -0.010256 0.009267 -0.052061 -0.046628 -0.017218 -0.083728 -0.084692 -0.0952 0.009953 0.170115 -0.125396 0.101383 -0.038261 0.088777 -0.065338 0.1458 0.053409 -0.020734 0.061477 -0.048933 0.153098 -0.110562 -0.126244 0.047701 0.013307 0.0409 -0.008462
-0.127289 -0.033535 -0.002654 0.021356 0.003834 -0.072479 0.040649 -0.10071 -0.035915 -0.016152 0.052938 0.203389 -0.006705 0.088955 0.019089 0.19442 0.022009 0.125704 0.062436 0.048246 0.024704 -0.036144 0.251523 0.085013 -0.238506 -0.169494 -0.007207 0.08153 0.313826 -0.245214 0.024599 0.018135 -0.049687 0.07095 -0.036985 -0.048098 0.217191 0.015423 0.059857 0.065984 -6.99E-4 -0.162974 0.03122 0.153743 -0.105147 -0.032629 -0.005784 -0.009523 -0.031866 0.017145 0.100365 -0.099224 0.0071 0.080369 0.115431 -0.088047 -0.206371 -0.076003 0.038441 -0.233953 -0.030688 -0.101956 0.050931 -0.034584 -0.04582 -0.035907 -0.053458 -0.052091 0.005392 -0.036388 -0.038292 -0.147517 0.083808 0.031172 0.08733 0.00766 -0.045876 -0.203356 -0.172851 -0.11001 0.097199 0.066178 0.163895 0.092716 -0.091375 0.111047 0.088126 0.067545 7.7E-4 0.064595 -0.108282 -0.015357 -0.117401 0.107263 -0.065776 -0.074334 -0.002595 -0.082235 -0.016136 0.039314
-0.107498 0.117848 0.083289 0.125068 0.045669 0.022418 -0.24977 -0.069849 -0.061984 0.017399 0.25896 0.023702 0.001144 -0.045188 0.038874 0.303414 0.112414 0.261177 0.30196 0.262823 0.013144 0.220772 0.221666 -0.110805 -0.08897 -0.018547 -0.001258 -0.226826 -0.063975 0.018271 -0.316945 -0.171263 0.223337 -0.082051 -0.03959 0.006883 0.195572 0.090945 -0.048319 -0.163717 -0.030263 0.231778 0.03927 -0.00118 -0.023112 -0.051879 0.222828 -0.093248 -0.102521 -0.191186 -0.108831 -0.129211 -0.11988 0.039986 0.148122 -0.142623 -0.004603 0.234446 0.13187 -0.052539 0.096996 -0.10231 0.117925 -0.036838 -0.0503 -0.012238 0.136587 0.153292 -0.035015 -0.099232 -0.354003 -0.17786 -0.080277 0.014788 0.001528 -0.124697 0.068116 -0.266346 0.12417 -0.115608 -0.089143 0.108099 0.104349 -0.204106 0.073091 0.049788 -0.188705 -0.14486 -0.034416 -0.141263 -0.015741 -0.058231 0.081251 0.149655 0.144057 -0.140527 0.111125 -0.017445 -0.062456 0.102946
1.519526 1.445578 -1.609499 2.582747 2.460795 3.529971 0.431498 -0.524736 0.238502 0.565084 -2.150664 2.607871 -3.578636 0.22885 1.205379 0.400126 -2.365878 -2.228676 -0.500047 -1.958516 -2.734259 -2.028213 -0.339577 -2.726884 0.003785 -1.85554 -0.90189 1.042933 0.930181 0.561229 0.956561 0.220468 -1.219533 -0.188243 -0.649085 -0.117874 2.101841 -0.317004 1.300647 -1.49228 0.533457 -2.976113 -0.635474 -1.431524 -0.943268 0.543614 -2.072507 -1.004219 4.072807 -1.496014 2.612373 2.458477 -0.120651 0.418572 -2.53177 0.646754 2.04053 2.0667 -2.403623 -3.037353 -1.289071 1.269349 0.447478 0.512568 0.464348 -0.142416 -1.155552 0.32258 -0.986119 3.909852 3.839548 0.865499 -1.089316 -1.400134 0.517204 -3.398406 -0.576028 -0.612853 -0.573641 -1.979957 1.278503 1.159562 0.583915 -0.210028 0.851463 1.075476 2.276915 0.114312 2.2836 1.968815 1.899569 0.001135 -2.286771 -2.666814 -1.408445 1.975128 -0.085175 1.44887 -1.994305 2.796178
0.142855 2.096782 -0.44488 -0.186519 4.581101 0.368552 1.025096 -0.312802 -2.617651 -0.157005 2.963322 2.120705 -1.775955 -0.565663 0.972057 2.924774 -3.483148 -0.388176 -2.731071 -0.326463 1.005034 -0.173592 0.985748 -2.472826 -0.247049 -1.602126 -2.48254 -0.015307 0.921201 -0.634243 -0.734395 -4.469334 -2.338912 -3.86095 -2.404253 -1.170435 3.191081 0.66076 0.725646 -0.864367 -2.371157 -0.851367 -3.29822 -1.074393 -2.64488 2.784424 -0.996674 2.506345 2.15789 -2.159862 -0.441733 -0.926918 -0.098512 0.757891 -1.999629 -4.007104 0.387073 -3.003765 1.204233 -2.431844 -2.281004 -0.27222 1.915759 2.567541 -2.305997 0.668549 -1.469449 -4.443738 -0.244681 3.958085 3.663286 2.390184 0.145926 -1.914193 1.202993 0.085106 1.119028 1.764289 0.413107 1.270882 2.30135 -2.063297 -0.209725 -0.837978 1.54811 -1.075222 1.662849 3.024555 -0.817108 2.02425 0.827332 0.999754 -2.964958 -4.68355 2.112919 1.12159 -1.379614 1.011169 -1.034187 2.880255
2.287246 1.348758 3.3385 2.602799 3.711394 3.218853 -0.524456 -3.657739 -1.573267 0.987608 -3.184489 1.384671 -3.538349 1.211226 0.750504 -1.295874 -2.609782 -3.147296 -0.76006 0.390781 1.0986 0.839353 1.158657 -3.37151 -0.879594 1.187636 0.364224 2.784636 -0.705562 0.894783 0.88998 4.349974 1.68888 -0.57355 -1.522712 -1.123405 0.85469 1.082108 -1.61492 -0.493637 -0.603678 -1.48823 -0.616673 -0.95748 -2.446304 0.605044 -1.414548 -0.802802 0.289357 2.507977 1.455585 1.863811 -0.043311 2.03494 -3.395566 2.412908 -0.639311 0.816903 1.516479 -1.539687 0.663988 -0.196985 -1.850495 0.679603 -1.41325 -1.457098 -1.919837 -1.78985 1.120989 0.490522 2.477452 -2.814121 0.436716 1.47804 -0.149065 3.691156 -0.722253 0.827798 -0.202554 1.625855 1.340821 -3.007125 0.388472 -2.418846 -0.09649 2.03459 0.728771 -0.038473 -2.169551 1.169802 -2.112678 -2.021338 -3.645785 -0.662445 -2.658048 0.494165 -1.374901 1.4498 -2.703903 1.716418
-0.068454 -0.122863 0.134262 0.083716 -0.146457 -0.05854 -0.046249 0.145899 -0.070309 0.010732 0.090118 0.029646 -0.134044 0.011502 0.13797 0.056779 -0.07073 0.176961 0.006425 -0.153893 -0.009753 0.0856 0.130737 0.060926 -0.08509 -0.0078 0.032945 0.025603 0.032755 -0.111281 4.93E-4 -0.017962 0.032708 0.128146 -0.085697 0.05081 0.0276 0.03696 0.01402 0.060028 -0.124086 0.028109 -0.015197 0.122354 0.089105 -0.142934 -0.046646 -0.03136 -0.088624 -0.018623 0.176395 0.059223 -0.037748 0.092775 0.211408 -0.085361 -0.007459 -0.099707 -0.09085 0.010112 0.047779 -0.174533 -0.067544 -0.18185 0.006312 -0.081968 0.046034 -0.073605 -0.048238 -0.084453 0.091696 0.038272 0.057807 0.027356 0.14928 -0.024513 -0.009631 -0.031003 -0.064339 0.046794 -0.17687 0.056175 -0.018763 -0.084626 0.021903 -0.031887 -0.026426 -0.017246 0.052909 -0.04163 -0.017914 -0.010917 -0.015599 0.164133 -0.056038 -0.053381 0.088108 0.022985 -0.007861 -0.03771
-0.066823 -0.017142 0.0523 0.092548 -0.039119 -0.010943 -0.053737 -0.192297 0.050838 0.049836 0.056518 0.157734 -0.108507 -0.176479 0.036669 0.062554 -0.13196 0.135974 -0.111394 -0.04297 -0.001547 -0.068272 0.116062 0.094671 0.068441 0.040409 -0.086919 0.115866 0.168843 -0.011926 0.005905 0.03948 -0.041808 0.115919 0.003035 -0.077711 0.089349 -0.011996 0.041559 0.18562 0.028084 0.11994 -0.081577 -0.002622 -0.093965 -0.120879 0.061963 -0.019557 -0.068786 -0.112915 -0.044802 0.030656 -0.049303 0.206536 -0.103625 -0.017283 -0.041546 -0.072882 -0.101859 -0.093491 0.045271 -0.061434 0.016355 -0.101155 -0.130641 0.234137 0.031243 -0.00882 -0.004563 -0.151118 0.053724 0.102054 0.16206 -0.032238 -0.021279 -0.007049 -0.119114 0.038615 -0.206072 0.088167 -0.00419 -0.00541 -0.06305 -0.021561 0.125689 0.067121 0.16526 0.003779 0.031548 -0.02448 -0.125407 -0.016753 -0.084773 0.095383 -0.027877 0.076647 0.052092 0.167173 0.019382 0.075152
