-1.230496 -1.784998 -2.701176 0.758382 1.022601 0.134257 -0.985047 1.562518 0.310835 -0.272668 -2.093218 0.576908 2.040189 3.9509 0.774258 -3.034902 0.015918 3.094607 -0.955282 -0.161599 1.346793 -0.427151 2.407651 2.929724 -1.837484 3.452367 0.53745 -0.982041 -0.926567 -0.170227 1.02313 -0.319885 0.057295 -0.759491 -3.167264 0.215212 0.199355 2.17803 -2.880665 -3.126606 1.987815 -0.672563 -1.358064 -0.033815 -0.248648 -1.018406 0.174184 0.367458 2.183337 2.743262 -1.304921 3.026151 -0.376082 1.947597 -1.255474 -1.064786 1.087376 -2.089309 0.970619 0.252176 5.222122 -0.33553 0.351429 0.429232 -0.472527 -0.662081 -0.365277 -1.304831 1.49886 -2.889978 0.333237 -0.579763 2.984992 1.952844 2.048453 -0.167153 0.122451 0.366104 2.33386 4.508055 2.013939 1.926481 3.227053 4.010036 0.598998 -2.80402 1.407855 2.476772 -2.103011 3.048537 -0.582139 -2.261293 -0.407356 -1.748715 -0.955609 0.330801 0.787854 1.235672 2.16538 0.751083
-1.043594 0.564065 0.524278 -0.957258 -0.76116 -0.499662 -0.550912 1.534171 -0.993088 -0.394988 -0.453645 0.350152 -1.094974 1.301966 0.508251 1.61815 0.345656 1.20092 0.746338 -0.314014 0.704864 0.556214 0.541936 0.700519 -0.280154 -0.231357 0.866523 -1.915521 -0.557395 -0.92517 -1.226443 1.054299 -0.482076 -1.385502 -1.450816 -1.248846 -0.851759 1.146535 0.497675 -0.660184 1.305915 0.762418 0.438627 0.910695 0.921262 -0.067785 0.00722 0.706199 0.168705 0.673449 -1.140838 -1.590811 -0.570004 0.788977 0.691438 0.538512 0.105497 0.422308 0.893084 0.674771 1.0333 -0.356335 1.652339 -0.94309 -0.259857 0.501605 1.892719 0.798309 0.864987 -0.800346 -0.395937 -0.882069 -1.700042 0.371836 0.726289 -0.013409 -0.691633 0.098548 2.358457 -0.314017 -0.339484 1.494624 0.149212 -1.267926 -0.177978 0.044523 0.555137 -1.299514 -0.209797 -0.642762 -0.828676 1.141613 0.587751 -0.184327 0.482119 -0.135236 1.374577 -0.728714 0.070205 -1.558527
-0.040309 0.043747 0.021812 -0.020986 0.012733 -0.353851 -0.029565 0.18486 0.134745 0.112039 -0.117966 0.019609 0.123805 -0.157964 0.113398 -0.1022 -0.061786 0.250076 0.025898 0.060394 -0.123589 0.418365 0.11641 0.048151 -0.257948 -0.171926 -0.100951 -0.072989 -0.0102 -0.00378 -0.126599 0.064276 -0.18615 0.038078 0.05951 -0.089017 -0.220823 -0.051619 -0.284083 0.098446 -0.079555 0.211347 0.098754 0.102871 -0.035686 -0.09597 0.122006 -0.255539 0.002709 0.241019 0.178151 0.318696 0.032184 0.009883 0.397362 -0.136477 -0.114093 0.123766 0.201092 -0.150845 -0.00942 0.095571 0.318708 0.027216 -0.22393 -0.043287 0.045985 0.009469 0.0394 -0.239234 -0.026113 -0.109955 0.15072 0.061431 -0.005291 -0.018975 -0.040518 -0.036943 -0.140422 0.010178 0.077095 0.026597 0.165013 -0.11038 -0.024105 -0.01972 -0.015392 0.189893 0.075863 0.012744 -0.177262 -0.182534 0.111335 0.078528 -0.041681 -0.237575 0.087754 -0.164246 -0.03451 0.083775
-0.023268 -0.198653 0.080259 -0.033119 -0.009743 -0.077713 -0.122981 -0.032361 -0.011665 0.125902 0.163899 0.139932 -0.018659 -0.058227 0.110694 0.117736 -0.045761 0.207168 0.079638 0.004144 -0.095891 0.025603 0.182632 0.144277 -0.051799 -0.022182 -0.087243 -0.005502 0.110512 -0.224808 -0.007787 0.053096 -0.085415 0.106602 -0.140467 -0.132593 -0.064546 -0.018292 0.102037 -0.025144 0.053432 -0.005489 -0.062178 0.060401 0.07321 -0.115869 -0.091859 0.033327 -0.098097 -0.015728 0.249048 -0.222925 -0.182726 0.086475 0.147986 -0.172737 0.025388 -0.1178 0.021929 -0.02277 7.85E-4 -0.052999 -0.03631 -0.156838 3.0E-6 0.036481 0.046044 -0.071523 0.221617 -0.076884 -0.132658 -0.022169 -0.091823 -0.115637 0.042923 -0.159996 -0.226336 -0.049036 -0.00876 -0.097735 -0.049872 -0.037068 0.087594 -0.221507 -0.187444 0.202736 -0.08508 0.009997 0.012409 0.006737 -0.068729 0.049978 -0.029349 -0.049498 0.081399 -0.06883 -0.072567 -0.089351 0.081084 0.039825
-0.075138 -0.114767 0.129646 0.070167 -0.07396 -0.013865 -0.115319 -0.046365 -0.061541 0.101712 0.141584 0.110896 0.048996 -0.031127 0.087308 0.154179 0.009367 0.167195 0.088685 0.004029 -0.144732 0.068908 0.200047 0.116098 -0.116548 -0.104587 -0.123352 0.014012 0.099512 -0.154894 0.001527 -0.089702 -0.210021 0.060465 -0.061138 -0.057201 -0.022288 3.66E-4 0.016612 0.131987 -0.08515 0.015274 0.082771 0.017383 0.008517 -0.077565 -0.033856 0.051557 -0.153587 0.020789 0.093491 -0.081138 -0.076696 0.112574 0.104429 -0.036084 -0.052131 0.023872 0.046265 -0.070325 0.12429 -0.160954 -0.029477 -0.208802 -0.107368 -0.068658 0.093702 0.009288 0.017221 -0.077046 -0.096595 0.019892 -0.054245 -0.066319 0.046999 -0.080308 -0.120846 0.002199 -0.029593 -0.150493 -0.052544 0.127066 0.122215 -0.167507 0.015492 0.059554 0.032982 0.015838 0.121315 0.064966 -0.225844 -0.007801 -0.029213 0.193596 -0.08166 -0.179803 0.013584 0.01922 0.016334 -0.050899
-0.087475 0.186701 -0.046917 -0.041847 -0.059088 -0.013273 -0.073892 0.233091 -0.003596 -0.039339 0.066277 0.094805 0.150238 -0.09346 -0.021952 -0.202147 0.117833 8.46E-4 -0.091551 -0.028534 -0.237071 0.054316 -0.011612 -0.160773 0.222265 0.005336 0.12038 0.033854 -0.004107 0.003107 0.168426 0.016482 -0.08677 -0.113422 0.086407 0.106075 -0.149861 0.126073 -0.0634 0.062826 -0.083977 -0.145637 0.061467 -0.051229 0.204229 -0.17109 0.026782 -0.001161 -0.009186 0.041333 0.019968 0.012454 -0.139774 0.27773 0.102443 0.019878 -0.056911 0.009365 0.008677 0.008326 -0.019961 -0.155983 0.037278 0.082971 0.091306 -0.05795 -0.070034 -0.19837 -0.104056 0.119097 0.096727 0.077648 -0.004616 -0.085341 -0.201546 0.033147 -0.083137 -0.088842 -0.009531 0.066588 -0.075343 -0.080456 -0.068234 -0.087612 -0.042374 -0.007313 -0.137535 0.008539 0.080121 0.119683 -0.07983 0.023474 -0.158168 0.093865 -0.115452 -0.038433 0.056332 0.205291 -0.056107 -0.130454
0.11314 0.001009 0.021432 0.20432 -0.12848 0.016568 0.095837 -0.04367 0.139745 0.08952 0.136884 0.013893 -0.119799 -0.04637 0.067489 0.115129 0.001362 0.099708 -0.028047 0.080237 -0.120235 0.082914 0.013552 0.18102 -0.075938 0.072209 0.050915 -0.134416 0.050956 -0.080941 0.00705 -0.023393 0.038109 0.059736 0.050849 0.01822 -0.115557 0.074263 0.079457 0.083023 -0.032143 0.048059 -0.03032 -0.104919 -0.048841 -0.18136 0.024342 0.141714 -0.186671 -0.051114 0.05153 0.045296 -0.095164 0.201716 -0.019454 -0.16266 0.043589 -0.067523 0.017436 -0.042699 -0.028043 -0.008444 -0.094182 -0.135344 -0.101679 -0.012744 -0.01294 -0.005312 0.226124 0.004253 -0.024652 -0.036625 -0.089652 -0.006793 0.099358 -0.072025 -0.03678 -0.135353 0.168544 -0.018466 -0.150751 -0.018603 0.074589 -0.126909 0.03409 0.149404 0.073952 -0.031809 -0.053837 -0.01229 0.001795 -0.038312 0.048765 0.090386 0.169855 -0.085273 0.051153 0.123312 -0.01941 0.023992
0.037311 0.069098 0.146051 0.245319 -0.220586 0.149353 -0.154392 -0.046366 -0.177821 -0.134713 -0.0835 0.215419 -0.020545 0.155818 5.45E-4 0.045456 -0.192701 0.089427 -0.017666 -0.104382 0.086163 0.049242 0.153222 0.098115 0.079776 0.066198 -0.020967 0.201605 0.125661 -0.055015 -0.200601 -0.188661 0.051858 0.114433 0.066955 0.07807 0.096275 -0.029986 -0.083555 0.03171 -0.089357 0.008298 0.138861 0.005332 -0.036957 0.070235 0.024555 -0.277248 -0.115429 -0.046333 -0.080208 -0.004651 0.013615 -0.198257 0.170783 -0.05279 0.070781 -0.1826 -0.11547 -0.076415 -0.049058 -0.092461 -0.098914 -0.14922 0.136904 -0.256722 -0.052938 0.130647 0.009491 -0.021192 -0.175015 0.067034 -0.001401 0.111063 -0.026165 0.065045 4.48E-4 0.027764 -0.054708 -0.049767 -0.011957 0.137961 0.08663 -0.068711 -0.090447 -0.068702 -0.007911 -0.035437 0.051932 -0.034323 0.050828 -0.073514 -0.125312 0.153466 0.124654 0.089508 -0.015814 -0.066212 -0.060318 0.022966
0.042972 -0.120468 -0.0576 0.005483 -0.048617 0.091848 0.059634 0.135324 -0.146856 0.099732 0.011059 0.233954 0.115863 0.109023 0.068866 0.004321 0.176306 -0.082271 -0.042549 -0.045839 -0.08566 -0.088387 0.17311 -0.022605 0.062451 0.089927 -0.11804 0.083192 0.039948 -0.099346 0.120283 -0.040128 -0.031076 -0.211229 0.082965 -0.12951 0.07174 -0.007847 -0.151264 -0.074315 -0.149136 0.007329 -0.022931 0.093417 0.083015 0.087318 0.008178 -0.089016 0.018711 0.002745 0.013652 -0.051799 0.140554 0.103567 -0.058467 -0.134798 0.124183 -0.020736 -0.079752 -0.151235 0.017588 -0.088585 0.055007 -0.083945 0.032265 -0.078764 0.138213 0.082684 0.103816 0.009769 0.081199 0.058854 0.07946 0.042701 -0.069041 0.053516 -0.021882 -0.055763 -0.082959 -0.083753 -0.155397 0.163072 0.141451 -0.009051 0.041648 -0.060297 -0.103185 0.09481 -0.0526 0.02639 -0.051569 -0.016764 -0.082699 0.048327 -0.020918 0.091513 0.001052 -0.007687 -0.067816 0.092671
-0.040309 0.043747 0.021812 -0.020986 0.012733 -0.353851 -0.029565 0.18486 0.134745 0.112039 -0.117966 0.019609 0.123805 -0.157964 0.113398 -0.1022 -0.061786 0.250076 0.025898 0.060394 -0.123589 0.418365 0.11641 0.048151 -0.257948 -0.171926 -0.100951 -0.072989 -0.0102 -0.00378 -0.126599 0.064276 -0.18615 0.038078 0.05951 -0.089017 -0.220823 -0.051619 -0.284083 0.098446 -0.079555 0.211347 0.098754 0.102871 -0.035686 -0.09597 0.122006 -0.255539 0.002709 0.241019 0.178151 0.318696 0.032184 0.009883 0.397362 -0.136477 -0.114093 0.123766 0.201092 -0.150845 -0.00942 0.095571 0.318708 0.027216 -0.22393 -0.043287 0.045985 0.009469 0.0394 -0.239234 -0.026113 -0.109955 0.15072 0.061431 -0.005291 -0.018975 -0.040518 -0.036943 -0.140422 0.010178 0.077095 0.026597 0.165013 -0.11038 -0.024105 -0.01972 -0.015392 0.189893 0.075863 0.012744 -0.177262 -0.182534 0.111335 0.078528 -0.041681 -0.237575 0.087754 -0.164246 -0.03451 0.083775
2.591633 1.608701 -2.087245 2.00752 3.012652 4.995656 0.847355 -1.594905 -0.365708 -1.629805 -1.650237 3.712017 -0.231463 -0.537534 -2.036098 2.002639 -0.696666 -4.310136 -1.477319 -1.356504 -0.581823 -1.830239 -0.272773 -1.648095 0.090509 0.008711 0.330842 0.396714 2.341035 -0.526067 1.155793 -1.730906 -1.010387 -1.342646 -1.939355 0.734869 0.727366 0.700702 1.516974 -2.133831 -0.280653 -3.051674 0.017123 0.532043 1.478449 0.375441 0.920129 1.548929 1.087478 0.668327 0.707416 3.249232 -0.362503 1.273221 -2.929682 -0.245389 1.633444 -0.119836 0.103459 -3.445175 0.513245 0.427807 0.738792 1.448203 0.501908 0.362882 -0.731533 -0.391201 0.037778 3.053553 4.030229 1.793904 1.24136 0.081706 -1.401954 -0.638804 -0.487445 -0.267924 0.012844 0.538179 -0.241935 -0.068756 1.351665 -0.112558 0.001814 0.447262 0.833441 -0.023876 1.212707 1.514635 -0.568611 0.376173 -3.663739 -4.345135 -0.444319 2.139788 -2.53093 0.92131 -1.399435 1.763954
-0.055587 -0.024879 -0.095132 -0.105576 0.144029 0.076057 -0.061821 -0.015695 -0.148082 0.124611 0.15281 0.088171 0.026963 0.027312 0.085004 0.14632 -0.087824 0.229277 0.083812 -0.022445 0.047327 0.107496 0.190865 0.124383 0.037662 -0.290207 -0.042369 -0.050937 -0.007265 0.024754 -0.144668 -0.221973 -0.119292 0.162604 -0.147821 -0.159178 0.204559 -0.052188 0.196134 0.029413 -0.206649 0.038471 0.046959 0.245755 -0.20909 -0.21628 0.007198 0.100133 0.024292 0.018504 0.098815 0.136439 -0.246285 0.05936 0.041581 -0.011614 -0.101398 0.085889 0.04437 -0.047023 0.105535 0.119098 0.050504 -0.060198 -0.06233 -0.037827 0.141918 -0.030907 0.045634 -0.165694 0.104298 -0.061929 0.062084 -0.124255 0.118497 -0.04962 -0.137357 -0.16921 -0.097154 0.021473 0.105708 0.244284 0.067069 -0.25576 -0.005835 0.204486 0.121989 -0.042621 0.016268 0.115758 -0.004702 -0.106193 -0.056468 -0.075591 0.04228 -0.208913 0.051416 -0.1362 0.042066 -0.010223
1.166535 0.571929 -2.296376 2.672156 -0.836627 -0.08581 -1.487717 0.680374 -1.051267 1.860963 -0.259307 -0.30104 -0.791023 3.516942 -3.423764 -1.714332 1.810032 0.385578 -0.596675 -0.336783 -0.307858 1.439698 3.283819 1.759804 -1.324751 3.053141 1.546661 -0.869133 -0.988947 -2.841006 -0.807501 0.71782 1.020934 -2.112568 -3.849263 -0.088448 -0.204372 0.604028 -2.055051 -0.926484 2.240313 0.079563 1.47677 -1.077266 2.965209 -1.837141 -0.07257 0.520574 2.179644 1.024933 -3.643406 1.180127 0.780232 2.966327 1.259519 -1.287425 1.510162 -2.776232 -1.020438 -2.465755 2.42826 -1.10543 1.35111 -0.106856 0.198081 -0.329907 0.006786 -1.935482 -0.023294 -0.879974 -0.607877 1.109545 2.518159 1.083583 0.067156 -1.138621 -2.607427 1.556449 0.183065 4.80035 -0.619828 0.54766 3.136885 4.279558 1.376504 -1.614635 3.284498 2.685056 0.304438 4.452716 -1.6901 -1.877963 1.03142 -2.114648 2.29784 0.653892 0.564788 1.18588 0.542849 1.578378
-0.831422 0.820201 1.918744 0.173848 1.202477 3.114323 -1.244614 -3.06662 -0.8675 2.530345 -3.244575 -1.885855 -4.202791 -0.088948 1.070472 0.816576 -1.054699 0.836567 -2.372425 -0.842292 0.921053 -1.61215 0.247092 -2.169506 1.642169 0.265385 0.32697 1.692391 -0.69904 0.387159 -0.41111 1.702335 0.473485 -1.153289 -2.610381 -0.906779 0.196243 0.514665 -0.463618 -1.392682 1.238387 0.707657 -0.523627 -0.175751 -0.935626 -0.957541 0.543168 0.683775 2.504259 2.499696 -0.592851 1.974532 -0.242293 0.485571 0.846266 -1.040339 0.025139 -0.141385 0.848378 -0.750471 1.579274 0.480761 -0.846211 0.134478 -1.312766 0.985334 3.102983 2.106215 1.036943 0.884116 -0.55565 0.777345 -0.896647 1.064755 1.232566 0.189554 0.329149 -1.190472 0.22029 0.93054 1.234365 -2.534141 0.008203 -0.160071 -0.412383 1.332729 0.501854 -1.118409 0.572278 2.391352 -0.396041 -0.157179 -1.055603 -1.466479 -1.853228 -1.429192 -0.457013 0.289789 -3.613319 -1.79339
-0.671963 -1.356401 3.602218 0.823366 -0.502176 -0.026847 2.688116 0.953721 0.412325 -0.074957 -2.563688 0.379861 -0.279054 0.512633 -0.426346 -0.669122 -2.193019 -1.985633 1.195718 -0.843091 -3.07709 -2.336138 0.676971 -1.157188 0.84245 -0.067074 1.662677 -0.902702 0.573933 0.762577 1.605777 -0.494156 -0.764054 -4.857189 1.199538 0.081996 1.582965 -1.800896 1.133021 -2.874443 -0.067305 0.527258 -0.963475 2.056148 -0.810059 -2.590427 0.192699 -0.925293 0.533123 0.50128 0.198265 1.047486 -1.15476 -0.133629 -3.660616 2.9145 0.67414 -1.747608 -1.472014 0.506851 -0.089567 -1.009712 -0.989767 -0.231732 -1.20197 -0.899847 -0.180586 -0.280434 1.214359 0.601947 3.002038 1.452004 1.898121 0.64863 -0.773459 -0.546508 1.482508 0.349815 -0.022055 1.977613 1.349274 -0.187718 2.026595 2.419264 -2.256871 -0.764584 -0.110956 2.609596 -0.511332 0.497735 1.205947 -0.553892 0.146347 -2.201324 -0.117853 -0.193777 0.312823 3.388883 -4.036498 2.412019
0.171593 -0.085188 -0.005011 0.309169 -0.152905 0.00381 -0.249387 -0.038448 -0.157923 0.037731 0.104605 0.346345 0.244978 0.024678 0.032649 0.310071 -0.065622 0.036396 0.052969 0.124156 -0.043828 -0.06566 0.269065 -0.177152 0.005016 0.077923 -0.302495 0.040821 0.286835 0.001567 0.013001 -0.230026 -0.074903 -0.033747 -0.205199 -0.039013 0.158052 -0.224509 -0.025489 -0.047903 -0.192269 0.165546 0.069635 -0.04257 0.06969 0.085811 0.04252 -0.017744 -0.24138 0.017786 0.049939 -0.111088 -0.074083 -0.048444 0.073146 -0.056241 -0.005692 0.009777 -0.018746 -0.086046 -0.136093 -0.368411 0.058549 -0.057995 0.004658 -0.164634 0.183809 -0.114823 0.198303 -0.19652 -0.183127 0.044565 -0.09434 -0.054044 0.105077 -0.030626 0.03893 -2.26E-4 -0.247097 0.052807 0.04372 0.275303 -0.041172 0.004343 0.04562 -0.052336 0.091936 -0.411318 0.007728 0.266991 0.171496 0.069051 0.089662 0.12008 0.01404 0.091993 0.086905 0.02851 -0.047985 -0.099695
-0.013006 -0.118379 0.033248 -0.086703 -0.122945 0.054024 -0.105954 0.086953 -0.008314 0.037737 0.026517 0.202887 0.057473 0.10463 0.060993 0.164488 0.280731 0.235639 0.060156 0.073235 -0.105967 0.095067 0.21609 0.159707 -0.247029 -0.053178 0.213588 -0.163418 0.172043 -0.043476 0.005781 0.076681 0.0549 0.065827 -0.131163 -0.008544 0.018881 -0.024295 0.029425 0.145305 -0.053472 0.092048 -0.040266 0.194685 0.051225 -0.056091 0.052884 -0.035118 -0.044842 0.033586 0.030209 -0.225483 0.071924 -0.138642 0.181913 -0.179615 0.121881 -0.129775 -0.069768 -0.016177 0.31128 -0.011069 0.071507 -0.269585 -0.039461 -0.20419 0.164372 0.040425 -0.144214 0.019767 -0.143172 0.054418 -0.140112 0.15995 0.007503 -0.086442 -0.073308 0.181186 0.068323 0.055373 0.063983 0.035385 0.17434 -0.02698 0.121368 -0.207728 0.02406 0.033372 0.03302 0.306965 -0.173081 -0.053316 -0.094297 0.09213 -0.07528 -0.11779 0.025709 -0.15948 0.064401 0.00683
-0.026685 0.0866 0.05487 0.090826 0.051355 -0.027675 -0.196085 -0.047209 -0.081572 -0.153136 0.175466 0.043877 -0.234067 0.023018 0.240191 0.320881 0.20667 0.112317 0.055138 -0.204196 0.169621 0.179387 0.166329 0.05632 0.093688 0.123919 0.057902 0.07809 0.171148 -0.156478 -0.060776 0.272115 0.027888 0.018771 -0.137668 -0.092567 -0.019599 -0.065783 -0.015628 -0.066206 -0.04316 -0.237484 0.006772 -0.053595 -0.024984 -0.093609 0.004866 0.130332 -0.079459 -0.02189 0.133471 -0.020485 -0.244128 -0.076587 0.111065 0.067942 0.084123 0.006587 -0.123502 -0.048393 0.057668 0.12904 -0.123412 -0.100437 0.074851 -0.103877 -0.036398 -0.090972 -0.028638 0.141155 -0.136351 0.098958 -0.127259 -0.055576 -0.157074 -1.81E-4 0.157701 -0.078633 0.106904 -0.058824 0.065053 -0.145793 -0.012256 -0.13478 -0.159003 0.082978 -0.100576 0.040053 -0.171682 0.185011 0.076201 -0.071853 -0.076196 0.145754 -0.001288 -0.109301 -0.114087 0.071603 -0.072253 0.085956
-0.003094 -0.167835 0.414167 0.20214 0.021192 0.110874 -0.142571 -0.037466 0.106848 0.210642 -0.104314 0.368307 -0.180382 0.077357 0.178098 0.279879 0.11783 0.088282 -0.24772 -0.115248 -0.054334 0.134777 0.26336 0.082243 -0.293855 -0.028461 3.44E-4 -0.063758 0.311569 -0.233804 0.127595 -0.011127 -0.128887 0.041042 -0.086175 -0.074408 0.088104 0.068682 0.046454 -0.047408 -0.036691 -0.110982 -0.019407 -0.186861 0.082029 -0.006638 -0.113443 -0.147593 -0.01641 0.094933 0.118614 -0.043671 0.018239 -0.413848 0.281094 0.152042 -0.042809 0.166658 -0.018005 -0.05191 -0.023496 0.119143 -0.092649 -0.042531 0.058689 -0.124429 -0.030609 0.011888 -0.002563 0.032041 0.205577 0.076755 0.032821 0.085427 -0.127106 -0.219912 -0.095765 0.089966 -0.089799 -0.123091 -0.053708 0.014194 0.133849 -0.209805 -0.029523 0.050832 -0.087862 -0.109852 0.313246 0.164122 -0.114575 0.04465 0.051932 -0.079995 -0.022854 -0.28581 -0.010104 0.221313 -0.025797 -0.064144
-0.144336 0.074372 0.113318 0.085118 -0.148613 0.116197 -0.043826 0.097308 0.028569 0.0599 0.122926 0.129504 -0.202531 -0.024615 -0.184827 0.130076 -0.320919 0.065363 0.003498 0.051718 -0.144357 -0.139014 -0.049753 0.108518 -0.082871 0.171983 0.073164 -0.210686 -0.009667 0.210213 0.060274 0.046079 -0.075353 -0.162488 0.155761 -0.129948 -0.292558 -0.091019 -0.218721 0.241112 -0.031704 0.071499 0.229555 0.017352 -0.080441 0.02619 0.111902 -0.063922 0.15966 0.018002 0.091424 -0.033691 -0.13884 -0.017261 0.032462 0.057671 0.059981 0.008869 0.121346 -0.080853 0.079416 0.001784 0.19468 -0.254343 -0.090097 -0.09996 0.234742 -0.05806 -0.035704 -0.10223 -0.09253 0.014641 0.023658 0.024081 0.087838 0.004814 -0.031244 0.126039 -0.042851 0.057792 0.054989 0.062025 0.114046 -0.024096 0.166209 -0.182425 0.030826 0.162165 0.294079 0.052697 -0.053533 0.047016 -0.011732 0.117571 0.109081 -0.155768 -0.001293 -0.333485 -0.017285 0.020007
-1.043594 0.564065 0.524278 -0.957258 -0.76116 -0.499662 -0.550912 1.534171 -0.993088 -0.394988 -0.453645 0.350152 -1.094974 1.301966 0.508251 1.61815 0.345656 1.20092 0.746338 -0.314014 0.704864 0.556214 0.541936 0.700519 -0.280154 -0.231357 0.866523 -1.915521 -0.557395 -0.92517 -1.226443 1.054299 -0.482076 -1.385502 -1.450816 -1.248846 -0.851759 1.146535 0.497675 -0.660184 1.305915 0.762418 0.438627 0.910695 0.921262 -0.067785 0.00722 0.706199 0.168705 0.673449 -1.140838 -1.590811 -0.570004 0.788977 0.691438 0.538512 0.105497 0.422308 0.893084 0.674771 1.0333 -0.356335 1.652339 -0.94309 -0.259857 0.501605 1.892719 0.798309 0.864987 -0.800346 -0.395937 -0.882069 -1.700042 0.371836 0.726289 -0.013409 -0.691633 0.098548 2.358457 -0.314017 -0.339484 1.494624 0.149212 -1.267926 -0.177978 0.044523 0.555137 -1.299514 -0.209797 -0.642762 -0.828676 1.141613 0.587751 -0.184327 0.482119 -0.135236 1.374577 -0.728714 0.070205 -1.558527
0.0 0.0 0.0 0.0 0.0 0.0 0.0 0.0 0.0 0.0 0.0 0.0 0.0 0.0 0.0 0.0 0.0 0.0 0.0 0.0 0.0 0.0 0.0 0.0 0.0 0.0 0.0 0.0 0.0 0.0 0.0 0.0 0.0 0.0 0.0 0.0 0.0 0.0 0.0 0.0 0.0 0.0 0.0 0.0 0.0 0.0 0.0 0.0 0.0 0.0 0.0 0.0 0.0 0.0 0.0 0.0 0.0 0.0 0.0 0.0 0.0 0.0 0.0 0.0 0.0 0.0 0.0 0.0 0.0 0.0 0.0 0.0 0.0 0.0 0.0 0.0 0.0 0.0 0.0 0.0 0.0 0.0 0.0 0.0 0.0 0.0 0.0 0.0 0.0 0.0 0.0 0.0 0.0 0.0 0.0 0.0 0.0 0.0 0.0 0.0
1.155368 3.302179 -0.818617 0.201583 -0.372035 -0.220049 -2.421694 1.24088 1.022918 0.281963 -0.56672 0.218504 -2.654141 0.687099 1.426786 -2.744465 -2.044989 -0.49789 -1.769702 -2.328375 -1.105508 0.104665 -0.061522 -2.669585 1.369504 1.778184 -0.869744 -1.441309 0.051265 1.116249 1.903031 -0.163683 1.731475 -0.652558 -1.459245 -0.212579 0.382415 1.861636 -0.394668 -0.423196 -0.983827 -1.176007 1.844253 0.853456 0.976233 -0.076248 -1.490589 -0.553926 0.506191 0.326236 0.251095 1.038919 -0.803142 0.658979 -3.236482 -1.07965 1.27678 -0.350029 -1.778651 0.292774 0.002745 0.267431 1.072933 -0.321661 -1.19536 -1.465055 -2.523761 -3.574044 -0.123843 -0.515256 3.2036 -0.08683 1.099575 -0.639959 -1.310584 0.629968 -0.142079 0.66081 -1.289981 -0.152693 -0.105374 0.388507 -1.068849 2.207516 -1.516502 0.618648 0.057959 1.61471 0.888036 -0.337188 -0.73306 -0.809614 -1.409634 -0.094797 -0.938314 1.210802 1.47048 2.210952 -1.933366 0.819087
0.185938 -0.089624 0.093234 0.147536 -0.11459 -0.129008 -0.09481 -0.008017 -0.075406 0.0206 0.119411 0.100719 -0.033793 -0.109748 0.239836 0.145497 0.032362 0.132324 -0.001636 0.056896 -0.207768 0.14385 0.103415 -0.067541 -0.08987 -0.002098 0.003064 0.060203 0.149974 -0.225837 0.178074 0.043982 0.12233 0.044586 -0.058302 0.17733 -0.198181 0.002445 -0.169354 0.158764 -0.047726 -0.005613 -0.108721 -0.188066 0.076265 -0.007771 -0.001382 -0.030905 0.0393 0.141754 0.159115 -0.006548 -0.01495 -0.030699 0.059923 0.007514 -0.081255 0.014984 -0.157812 -0.086708 0.051821 -0.228048 -0.183213 -0.164892 0.021959 -0.050445 -0.007444 -0.141708 -0.039219 -0.202261 0.013122 0.23699 -0.082318 0.070748 0.231225 0.002655 -0.105667 -0.196822 0.099719 0.039002 -0.142883 0.048344 0.164295 -0.164501 0.042459 0.006267 0.221968 0.201626 0.073428 0.235844 -0.12395 -0.056444 0.124315 0.063309 -0.00743 0.033688 0.071343 0.150496 0.072951 -0.079105
-0.040309 0.043747 0.021812 -0.020986 0.012733 -0.353851 -0.029565 0.18486 0.134745 0.112039 -0.117966 0.019609 0.123805 -0.157964 0.113398 -0.1022 -0.061786 0.250076 0.025898 0.060394 -0.123589 0.418365 0.11641 0.048151 -0.257948 -0.171926 -0.100951 -0.072989 -0.0102 -0.00378 -0.126599 0.064276 -0.18615 0.038078 0.05951 -0.089017 -0.220823 -0.051619 -0.284083 0.098446 -0.079555 0.211347 0.098754 0.102871 -0.035686 -0.09597 0.122006 -0.255539 0.002709 0.241019 0.178151 0.318696 0.032184 0.009883 0.397362 -0.136477 -0.114093 0.123766 0.201092 -0.150845 -0.00942 0.095571 0.318708 0.027216 -0.22393 -0.043287 0.045985 0.009469 0.0394 -0.239234 -0.026113 -0.109955 0.15072 0.061431 -0.005291 -0.018975 -0.040518 -0.036943 -0.140422 0.010178 0.077095 0.026597 0.165013 -0.11038 -0.024105 -0.01972 -0.015392 0.189893 0.075863 0.012744 -0.177262 -0.182534 0.111335 0.078528 -0.041681 -0.237575 0.087754 -0.164246 -0.03451 0.083775
-0.170163 -0.1391 -0.079012 0.005268 -0.094018 -0.053022 -0.069923 0.024442 -0.147247 -0.015283 -0.143139 -0.178203 -0.209665 -0.00195 -0.047362 -0.202495 -0.083103 -0.02712 -0.06583 -0.022112 -0.014009 0.095235 -0.062443 -0.044983 -0.056473 -0.084117 0.026402 -0.08506 -0.051853 0.016297 0.152646 0.18958 0.041863 0.083695 -0.090639 -0.124066 0.10696 -0.125698 -0.018959 -0.09863 0.02937 0.06348 0.015851 0.213451 0.124565 0.18488 -0.028208 0.127578 -0.010856 -0.093273 -0.054867 0.156122 0.193466 0.056149 0.089713 -0.062826 0.098994 0.036704 -0.111995 0.024634 0.15968 -0.081518 0.143721 -0.064551 0.011831 -0.05391 0.220703 -0.170704 0.170879 0.041949 -0.060333 -0.052761 -0.134636 -0.031083 0.171892 -0.086808 0.055442 0.040859 0.011875 -0.072226 -0.050752 -0.091756 0.228172 0.230627 -0.059527 0.077519 0.295913 0.110297 -0.166141 0.022747 -0.101961 0.219823 0.017465 0.105255 0.036847 -0.098064 0.020913 0.017994 -0.007343 -0.018839
-0.119372 -0.068759 -0.108561 -0.055093 -0.112816 0.453972 -0.317022 0.253818 0.011719 -0.088059 0.148838 -0.069513 0.004628 0.173291 1.54E-4 0.111131 0.188631 0.134092 0.036015 -0.084164 -0.106711 -0.035739 0.028814 0.023326 0.01999 -0.198892 -0.030232 0.051839 -0.258229 0.112846 0.084836 0.298396 0.029219 0.043966 -0.225462 0.006466 0.244968 0.051966 0.074849 0.26271 0.066372 0.068438 0.198251 -0.034208 0.178366 -0.299652 0.065119 -4.39E-4 0.145767 -0.2929 -0.003657 -0.238219 0.105684 0.30954 -0.235585 -0.249445 0.17934 0.02842 0.037272 -0.555815 -0.256042 -0.149079 0.233633 -0.022079 -0.318392 0.233058 -0.208127 -0.166141 0.084468 -0.068355 -0.044104 -0.130958 -0.121893 -0.079624 -0.054059 -0.103288 0.046481 -0.100456 -0.089759 0.296615 0.067951 -0.115557 0.223948 0.00268 0.441995 0.098939 0.137599 0.167826 -0.199653 -0.011526 0.020429 -0.029572 -0.180594 0.122656 -0.129688 -0.35049 -0.037878 -0.112969 -0.014621 0.108976
2.591633 1.608701 -2.087245 2.00752 3.012652 4.995656 0.847355 -1.594905 -0.365708 -1.629805 -1.650237 3.712017 -0.231463 -0.537534 -2.036098 2.002639 -0.696666 -4.310136 -1.477319 -1.356504 -0.581823 -1.830239 -0.272773 -1.648095 0.090509 0.008711 0.330842 0.396714 2.341035 -0.526067 1.155793 -1.730906 -1.010387 -1.342646 -1.939355 0.734869 0.727366 0.700702 1.516974 -2.133831 -0.280653 -3.051674 0.017123 0.532043 1.478449 0.375441 0.920129 1.548929 1.087478 0.668327 0.707416 3.249232 -0.362503 1.273221 -2.929682 -0.245389 1.633444 -0.119836 0.103459 -3.445175 0.513245 0.427807 0.738792 1.448203 0.501908 0.362882 -0.731533 -0.391201 0.037778 3.053553 4.030229 1.793904 1.24136 0.081706 -1.401954 -0.638804 -0.487445 -0.267924 0.012844 0.538179 -0.241935 -0.068756 1.351665 -0.112558 0.001814 0.447262 0.833441 -0.023876 1.212707 1.514635 -0.568611 0.376173 -3.663739 -4.345135 -0.444319 2.139788 -2.53093 0.92131 -1.399435 1.763954
-0.144336 0.074372 0.113318 0.085118 -0.148613 0.116197 -0.043826 0.097308 0.028569 0.0599 0.122926 0.129504 -0.202531 -0.024615 -0.184827 0.130076 -0.320919 0.065363 0.003498 0.051718 -0.144357 -0.139014 -0.049753 0.108518 -0.082871 0.171983 0.073164 -0.210686 -0.009667 0.210213 0.060274 0.046079 -0.075353 -0.162488 0.155761 -0.129948 -0.292558 -0.091019 -0.218721 0.241112 -0.031704 0.071499 0.229555 0.017352 -0.080441 0.02619 0.111902 -0.063922 0.15966 0.018002 0.091424 -0.033691 -0.13884 -0.017261 0.032462 0.057671 0.059981 0.008869 0.121346 -0.080853 0.079416 0.001784 0.19468 -0.254343 -0.090097 -0.09996 0.234742 -0.05806 -0.035704 -0.10223 -0.09253 0.014641 0.023658 0.024081 0.087838 0.004814 -0.031244 0.126039 -0.042851 0.057792 0.054989 0.062025 0.114046 -0.024096 0.166209 -0.182425 0.030826 0.162165 0.294079 0.052697 -0.053533 0.047016 -0.011732 0.117571 0.109081 -0.155768 -0.001293 -0.333485 -0.017285 0.020007
-1.230496 -1.784998 -2.701176 0.758382 1.022601 0.134257 -0.985047 1.562518 0.310835 -0.272668 -2.093218 0.576908 2.040189 3.9509 0.774258 -3.034902 0.015918 3.094607 -0.955282 -0.161599 1.346793 -0.427151 2.407651 2.929724 -1.837484 3.452367 0.53745 -0.982041 -0.926567 -0.170227 1.02313 -0.319885 0.057295 -0.759491 -3.167264 0.215212 0.199355 2.17803 -2.880665 -3.126606 1.987815 -0.672563 -1.358064 -0.033815 -0.248648 -1.018406 0.174184 0.367458 2.183337 2.743262 -1.304921 3.026151 -0.376082 1.947597 -1.255474 -1.064786 1.087376 -2.089309 0.970619 0.252176 5.222122 -0.33553 0.351429 0.429232 -0.472527 -0.662081 -0.365277 -1.304831 1.49886 -2.889978 0.333237 -0.579763 2.984992 1.952844 2.048453 -0.167153 0.122451 0.366104 2.33386 4.508055 2.013939 1.926481 3.227053 4.010036 0.598998 -2.80402 1.407855 2.476772 -2.103011 3.048537 -0.582139 -2.261293 -0.407356 -1.748715 -0.955609 0.330801 0.787854 1.235672 2.16538 0.751083
0.352905 0.550922 -1.128945 -0.511125 0.774489 1.405335 -0.371647 0.106012 -0.779785 -0.640302 -0.68578 1.570717 -0.712288 -0.706705 -0.789609 -0.045278 -1.599722 -2.840112 -0.089543 -1.158838 -1.862605 -0.62748 -0.063542 -0.468696 0.750564 0.033551 -0.772222 -0.188991 -0.163115 0.455978 0.038455 -0.779588 0.172303 -1.114448 -0.548246 -0.008155 1.66721 -0.744821 -0.15746 -2.668482 -0.304702 -0.905716 0.479063 0.151803 -0.94063 -0.044338 -0.906122 -0.456182 0.281891 0.268287 0.47007 0.628019 0.328428 1.471286 -2.345457 0.072073 -0.345477 -0.998199 -1.496897 -0.053061 0.351206 -0.934426 0.295591 0.07336 0.24092 0.486976 0.390085 -0.621556 0.375246 -0.02625 1.957847 1.014101 0.004675 0.08874 -0.900479 -0.462149 0.922254 1.355385 -1.048724 0.105897 1.254466 0.410718 0.321258 1.066395 -0.171761 -0.128774 0.315556 0.697301 -0.180925 0.555334 1.005586 -0.891677 -1.232923 -1.994189 -0.567812 0.204184 -0.947385 -0.051526 -0.987029 0.725141
1.166535 0.571929 -2.296376 2.672156 -0.836627 -0.08581 -1.487717 0.680374 -1.051267 1.860963 -0.259307 -0.30104 -0.791023 3.516942 -3.423764 -1.714332 1.810032 0.385578 -0.596675 -0.336783 -0.307858 1.439698 3.283819 1.759804 -1.324751 3.053141 1.546661 -0.869133 -0.988947 -2.841006 -0.807501 0.71782 1.020934 -2.112568 -3.849263 -0.088448 -0.204372 0.604028 -2.055051 -0.926484 2.240313 0.079563 1.47677 -1.077266 2.965209 -1.837141 -0.07257 0.520574 2.179644 1.024933 -3.643406 1.180127 0.780232 2.966327 1.259519 -1.287425 1.510162 -2.776232 -1.020438 -2.465755 2.42826 -1.10543 1.35111 -0.106856 0.198081 -0.329907 0.006786 -1.935482 -0.023294 -0.879974 -0.607877 1.109545 2.518159 1.083583 0.067156 -1.138621 -2.607427 1.556449 0.183065 4.80035 -0.619828 0.54766 3.136885 4.279558 1.376504 -1.614635 3.284498 2.685056 0.304438 4.452716 -1.6901 -1.877963 1.03142 -2.114648 2.29784 0.653892 0.564788 1.18588 0.542849 1.578378
-0.671963 -1.356401 3.602218 0.823366 -0.502176 -0.026847 2.688116 0.953721 0.412325 -0.074957 -2.563688 0.379861 -0.279054 0.512633 -0.426346 -0.669122 -2.193019 -1.985633 1.195718 -0.843091 -3.07709 -2.336138 0.676971 -1.157188 0.84245 -0.067074 1.662677 -0.902702 0.573933 0.762577 1.605777 -0.494156 -0.764054 -4.857189 1.199538 0.081996 1.582965 -1.800896 1.133021 -2.874443 -0.067305 0.527258 -0.963475 2.056148 -0.810059 -2.590427 0.192699 -0.925293 0.533123 0.50128 0.198265 1.047486 -1.15476 -0.133629 -3.660616 2.9145 0.67414 -1.747608 -1.472014 0.506851 -0.089567 -1.009712 -0.989767 -0.231732 -1.20197 -0.899847 -0.180586 -0.280434 1.214359 0.601947 3.002038 1.452004 1.898121 0.64863 -0.773459 -0.546508 1.482508 0.349815 -0.022055 1.977613 1.349274 -0.187718 2.026595 2.419264 -2.256871 -0.764584 -0.110956 2.609596 -0.511332 0.497735 1.205947 -0.553892 0.146347 -2.201324 -0.117853 -0.193777 0.312823 3.388883 -4.036498 2.412019
0.171593 -0.085188 -0.005011 0.309169 -0.152905 0.00381 -0.249387 -0.038448 -0.157923 0.037731 0.104605 0.346345 0.244978 0.024678 0.032649 0.310071 -0.065622 0.036396 0.052969 0.124156 -0.043828 -0.06566 0.269065 -0.177152 0.005016 0.077923 -0.302495 0.040821 0.286835 0.001567 0.013001 -0.230026 -0.074903 -0.033747 -0.205199 -0.039013 0.158052 -0.224509 -0.025489 -0.047903 -0.192269 0.165546 0.069635 -0.04257 0.06969 0.085811 0.04252 -0.017744 -0.24138 0.017786 0.049939 -0.111088 -0.074083 -0.048444 0.073146 -0.056241 -0.005692 0.009777 -0.018746 -0.086046 -0.136093 -0.368411 0.058549 -0.057995 0.004658 -0.164634 0.183809 -0.114823 0.198303 -0.19652 -0.183127 0.044565 -0.09434 -0.054044 0.105077 -0.030626 0.03893 -2.26E-4 -0.247097 0.052807 0.04372 0.275303 -0.041172 0.004343 0.04562 -0.052336 0.091936 -0.411318 0.007728 0.266991 0.171496 0.069051 0.089662 0.12008 0.01404 0.091993 0.086905 0.02851 -0.047985 -0.099695
-0.013006 -0.118379 0.033248 -0.086703 -0.122945 0.054024 -0.105954 0.086953 -0.008314 0.037737 0.026517 0.202887 0.057473 0.10463 0.060993 0.164488 0.280731 0.235639 0.060156 0.073235 -0.105967 0.095067 0.21609 0.159707 -0.247029 -0.053178 0.213588 -0.163418 0.172043 -0.043476 0.005781 0.076681 0.0549 0.065827 -0.131163 -0.008544 0.018881 -0.024295 0.029425 0.145305 -0.053472 0.092048 -0.040266 0.194685 0.051225 -0.056091 0.052884 -0.035118 -0.044842 0.033586 0.030209 -0.225483 0.071924 -0.138642 0.181913 -0.179615 0.121881 -0.129775 -0.069768 -0.016177 0.31128 -0.011069 0.071507 -0.269585 -0.039461 -0.20419 0.164372 0.040425 -0.144214 0.019767 -0.143172 0.054418 -0.140112 0.15995 0.007503 -0.086442 -0.073308 0.181186 0.068323 0.055373 0.063983 0.035385 0.17434 -0.02698 0.121368 -0.207728 0.02406 0.033372 0.03302 0.306965 -0.173081 -0.053316 -0.094297 0.09213 -0.07528 -0.11779 0.025709 -0.15948 0.064401 0.00683
-0.089712 0.007848 0.012629 0.065429 0.041631 0.100514 -0.034368 -0.111556 0.106337 -0.092196 -0.21623 0.010814 0.081395 0.084733 0.265044 -0.073327 0.079481 0.078686 0.304876 0.109826 -0.10464 0.035457 -0.111935 -0.039079 -0.081577 -0.154843 -0.146263 -0.077171 0.345002 -0.14379 0.044819 -0.05014 0.016006 -0.055961 -0.005092 -0.109836 -0.018816 0.074496 0.072223 -0.115007 0.065996 0.005896 0.024485 0.059913 0.223341 -0.110677 -0.038621 -0.048468 -0.092362 0.158544 0.175042 -0.03226 -0.150672 -0.003421 0.221171 0.223929 -0.114552 0.119556 0.003761 -0.002178 0.06602 -0.095944 -0.072484 -0.121138 -0.035258 -0.007152 -0.137867 -0.013036 0.117318 -0.086232 -0.20318 0.033402 0.02138 -0.070048 0.08982 -0.045666 0.064289 -0.110156 0.167763 -0.291921 0.08956 0.131763 -0.047938 -0.187648 -0.12642 0.030396 -0.09325 0.17436 0.169548 0.050727 -0.165986 0.033857 -0.008825 0.154651 -0.140299 -0.115698 -0.209645 -0.209293 0.091343 -0.017085
-0.048771 0.132753 0.024048 -0.076643 0.166618 0.053868 -0.205246 0.036165 -0.078375 0.23478 0.006834 0.142829 -0.075373 -0.048276 -0.007731 0.113161 0.02204 0.04367 0.104666 0.063959 -0.103128 -0.003193 0.029824 -0.023708 -0.070394 -0.11512 0.007454 -0.07298 0.151622 -0.128596 -0.138112 -0.073654 -0.067674 -0.070157 0.052068 -0.054247 -0.064488 0.028522 0.071791 0.099918 -0.114585 0.209658 0.021903 0.21185 -0.181114 0.067647 0.03444 -0.010243 0.019028 0.108334 -0.082434 -0.04143 -0.190414 -0.012283 0.139354 0.003876 -0.128894 -0.0353 -0.089636 -0.144303 0.025736 0.030499 0.013257 0.004041 0.104583 0.00369 0.20961 -0.110834 -0.151907 -0.096751 -0.224916 -0.160446 -0.009549 0.088571 0.023015 0.081399 -0.091814 0.06464 0.033242 -0.044935 0.136369 0.062411 -0.028452 -0.145091 0.190342 0.012344 -0.206232 0.142037 -0.011887 0.105324 -0.072762 0.01011 -0.069437 0.036847 -0.010984 -0.090185 0.052305 -0.124779 -0.044613 -0.001501
-1.275536 -1.281929 -0.463237 2.699644 -0.645875 2.640992 0.961305 0.582886 -0.672334 1.360849 -0.333453 3.992448 1.123013 0.374126 -0.252312 0.151205 -1.821476 -0.207511 0.203405 -1.518552 -3.121689 2.466672 0.97234 0.863965 -1.752438 0.427496 -0.509847 3.605552 4.122119 -0.052238 2.370827 -1.294104 3.780569 1.178191 -1.108811 1.583644 -0.667633 1.027611 -5.915376 -1.906127 -1.56767 -1.214264 -0.520216 -3.533015 -0.486944 0.809016 -2.730947 3.276162 2.76669 0.577576 1.931897 3.959487 4.681581 1.184889 2.417045 1.303401 0.161892 -0.347975 -0.370636 1.772526 -2.834385 -1.983054 1.445873 0.545318 0.361843 -0.462996 -1.67054 1.658669 0.440469 -1.682852 2.162866 1.327141 -0.172637 -0.762823 -0.992963 1.614042 -0.278546 -0.914956 -0.79594 4.619251 0.606545 0.439854 -0.001831 3.652837 -1.555069 -0.516525 -0.146979 3.974346 -1.326965 0.55832 -0.944627 -2.45469 0.462401 -0.624459 -0.856527 -2.207243 1.739594 -0.340885 1.476906 1.850745
0.036055 -0.091672 0.070591 -0.083561 -0.060147 -0.108044 -0.117442 -0.093856 -0.135925 0.047813 0.204944 0.106446 0.086305 -0.052912 0.099857 0.133186 0.003063 0.102866 0.117174 -0.0341 -0.109476 0.045345 0.210008 0.158381 -0.096517 -0.261498 0.095121 0.13241 0.176794 0.064439 0.043277 0.02221 -0.08566 0.098445 -0.05943 -0.039396 -0.085156 0.055979 0.197455 0.163305 -0.213438 -0.002923 -0.010747 -0.029881 -0.064531 -0.091298 0.042295 0.038368 -0.107648 6.6E-4 0.144575 -0.08549 -0.261079 -0.05049 0.045964 -0.010371 -0.028598 -0.074556 0.018547 -0.088037 0.178719 -0.213459 0.05996 -0.057269 -0.159645 -0.018275 0.06246 -0.026922 0.061343 -0.058212 -5.5E-5 -0.018345 -0.057027 -0.016119 -0.026888 -0.031948 0.036979 -0.05861 0.024301 -0.031389 -0.125226 0.131511 0.167786 -0.188848 0.028291 -0.038956 -0.096827 0.039341 0.174685 0.125041 -0.153008 0.020542 0.049273 0.04293 0.002824 -0.085652 0.122763 0.035452 0.036301 0.072441
1.243502 1.134391 0.590862 1.996977 -0.962336 -0.661334 -0.266456 -0.127768 -2.444398 -0.206732 0.159857 0.567773 1.173683 2.792565 1.528644 0.200187 -1.456383 -0.054034 -3.834816 -0.264404 -0.383984 2.292137 -0.696916 3.749931 1.830361 1.59989 0.30863 -1.254181 -3.259688 0.94782 4.632703 -3.694376 -1.030734 -2.774173 -2.810608 -1.229032 -0.416032 -1.761895 -5.715088 -0.637618 -0.374351 -3.341895 2.349411 -1.224849 -1.040741 0.561559 -2.067217 -0.851357 0.11916 -0.328686 1.783671 0.306888 -1.463329 -1.416554 -2.271013 0.339539 -1.105978 -3.114801 -1.215474 -0.616442 -2.96255 -2.333351 0.596112 0.579091 1.016681 -1.657275 0.333222 -3.11828 0.449948 2.317412 3.116959 -4.062879 -0.695936 2.18573 1.152799 -0.142887 -0.55314 0.003107 -1.005673 1.720349 1.582172 0.572102 -1.442146 -0.198333 0.721274 -1.548869 0.557982 1.526505 0.840405 2.554603 0.385489 1.23189 -2.861935 -0.445422 2.396136 -1.341517 -0.027667 2.335921 -1.30239 0.433287
0.11314 0.001009 0.021432 0.20432 -0.12848 0.016568 0.095837 -0.04367 0.139745 0.08952 0.136884 0.013893 -0.119799 -0.04637 0.067489 0.115129 0.001362 0.099708 -0.028047 0.080237 -0.120235 0.082914 0.013552 0.18102 -0.075938 0.072209 0.050915 -0.134416 0.050956 -0.080941 0.00705 -0.023393 0.038109 0.059736 0.050849 0.01822 -0.115557 0.074263 0.079457 0.083023 -0.032143 0.048059 -0.03032 -0.104919 -0.048841 -0.18136 0.024342 0.141714 -0.186671 -0.051114 0.05153 0.045296 -0.095164 0.201716 -0.019454 -0.16266 0.043589 -0.067523 0.017436 -0.042699 -0.028043 -0.008444 -0.094182 -0.135344 -0.101679 -0.012744 -0.01294 -0.005312 0.226124 0.004253 -0.024652 -0.036625 -0.089652 -0.006793 0.099358 -0.072025 -0.03678 -0.135353 0.168544 -0.018466 -0.150751 -0.018603 0.074589 -0.126909 0.03409 0.149404 0.073952 -0.031809 -0.053837 -0.01229 0.001795 -0.038312 0.048765 0.090386 0.169855 -0.085273 0.051153 0.123312 -0.01941 0.023992
-3.060694 3.944421 0.594395 1.240519 1.590252 0.14086 1.977822 -1.320438 -0.270145 0.078415 -0.701518 1.503149 -0.076238 -2.322129 0.931707 3.88907 -3.637779 -0.838586 -1.742846 2.10774 -2.123302 -1.885707 0.932712 -2.723 0.485457 2.251003 4.293851 -0.391725 -2.075526 -0.488557 -1.044331 -0.26396 1.474149 -0.157668 -2.630993 1.287193 -0.137211 0.421578 -0.682735 0.452479 0.737949 -3.602325 -1.109492 0.349809 0.166071 2.790299 -1.836968 0.494303 1.963397 2.876652 -0.591136 1.408314 2.428555 -1.471396 -0.844206 0.295759 -2.874214 -2.033604 -4.020904 -4.00203 2.947384 0.731884 -4.388597 0.269191 -2.977119 -1.540478 -0.323891 -0.519491 -0.317246 0.923041 3.533086 -2.016659 -0.762293 0.095485 0.345023 -4.959274 -1.321462 -2.068345 -1.326342 0.167266 0.679792 0.27268 -0.137474 1.347941 -2.850258 -0.209478 1.285648 2.430632 -0.273237 2.092334 2.765925 -2.461446 -2.912329 2.326273 -1.407489 3.059108 -0.769401 -1.631398 -0.113494 1.288471
0.010077 -0.155802 0.178722 -0.001628 -0.067409 -0.064968 0.05184 -0.211631 0.064299 -0.201316 0.057165 0.017665 -0.042084 0.134631 -0.069189 0.047701 0.147824 0.207333 -0.00954 0.163539 0.037763 0.245524 0.31064 0.025084 -0.122628 -0.212208 0.077928 -0.01343 0.149273 -0.258703 0.018442 -0.07492 -0.119044 0.139346 0.005724 -0.213504 0.119676 -0.016133 0.036093 0.019248 0.036751 -0.065877 -0.107539 0.122955 -0.036027 -0.18144 0.041885 0.061827 -0.026456 0.017353 0.208994 -0.19028 -0.039842 -0.133823 0.191117 -0.0371 0.04947 -0.165489 0.052687 -0.009816 0.170674 -0.187905 -0.265046 -0.039671 -0.066443 0.044166 -0.1232 0.122265 -0.071944 -0.099553 -0.119805 -0.074657 -0.143921 0.06789 0.144643 -0.159516 -0.091717 -0.058324 0.054411 -0.152105 -0.05951 0.181208 -0.006929 -0.159585 0.035469 0.125528 -0.013375 0.085162 0.216109 0.019441 -0.171912 0.071287 -0.154361 0.240744 -0.11293 -0.094915 -0.028304 -0.070019 -0.061244 -0.06866
0.042972 -0.120468 -0.0576 0.005483 -0.048617 0.091848 0.059634 0.135324 -0.146856 0.099732 0.011059 0.233954 0.115863 0.109023 0.068866 0.004321 0.176306 -0.082271 -0.042549 -0.045839 -0.08566 -0.088387 0.17311 -0.022605 0.062451 0.089927 -0.11804 0.083192 0.039948 -0.099346 0.120283 -0.040128 -0.031076 -0.211229 0.082965 -0.12951 0.07174 -0.007847 -0.151264 -0.074315 -0.149136 0.007329 -0.022931 0.093417 0.083015 0.087318 0.008178 -0.089016 0.018711 0.002745 0.013652 -0.051799 0.140554 0.103567 -0.058467 -0.134798 0.124183 -0.020736 -0.079752 -0.151235 0.017588 -0.088585 0.055007 -0.083945 0.032265 -0.078764 0.138213 0.082684 0.103816 0.009769 0.081199 0.058854 0.07946 0.042701 -0.069041 0.053516 -0.021882 -0.055763 -0.082959 -0.083753 -0.155397 0.163072 0.141451 -0.009051 0.041648 -0.060297 -0.103185 0.09481 -0.0526 0.02639 -0.051569 -0.016764 -0.082699 0.048327 -0.020918 0.091513 0.001052 -0.007687 -0.067816 0.092671
0.034733 -0.047239 0.146198 0.07865 -0.106409 -0.077535 -0.019588 -0.016829 -0.066054 0.223105 0.111722 0.224105 0.141952 -0.12976 0.046701 0.064269 -0.183748 0.21341 -0.061861 0.127766 0.038256 0.019132 0.17944 -0.002331 -0.097874 0.087884 -0.177085 -0.098658 0.183255 -0.263653 3.6E-5 -0.155376 -0.096569 0.226488 -0.004206 -0.065823 -0.005457 -0.107038 -0.005512 0.128521 -0.133505 0.10497 0.003064 -0.249338 0.022386 0.241815 -0.04324 -0.188904 -0.013142 0.067457 -0.075317 -0.091254 -0.026665 -0.062898 0.168704 -0.046895 0.049197 -0.00872 0.111297 -0.166359 0.151071 -0.209862 -0.087078 0.013302 -0.054052 -0.045986 0.174819 -0.150406 0.177557 -0.055979 -0.010461 0.056778 -0.018561 -0.047682 -0.027504 -0.03564 -0.156768 -0.105095 0.023277 -0.007893 -0.048374 0.100354 0.220367 -0.081184 -0.101513 0.201738 -0.075197 0.094998 0.149967 -0.051212 -0.118531 -0.119864 -0.062471 0.015945 -0.101983 -0.196547 1.96E-4 -0.198289 0.002339 -0.282652
1.035361 1.319725 0.388011 1.220811 -0.236045 1.447081 -1.78193 3.520004 0.063077 -1.681862 0.545208 0.767849 -1.479444 -1.152839 0.669301 0.685509 -2.946755 -2.239533 -1.187422 -1.793336 0.607402 0.130687 0.296681 -1.569517 1.825066 1.715849 -1.639836 0.849724 -1.742086 0.427502 3.84844 -1.377145 0.671096 -1.312902 -1.152387 0.705431 2.180344 2.97496 1.402098 -0.909545 -1.649212 -0.253421 1.186817 1.193823 3.167747 -0.387379 -0.12198 0.872223 0.13285 0.490844 0.029473 1.345032 0.297008 2.724698 -1.656047 -0.109585 1.500583 -1.148555 -3.658389 1.022988 -1.211381 0.342059 -0.023586 1.22536 -1.874871 -1.957746 -0.188066 -0.235303 -0.067175 1.107354 1.448404 0.838301 1.67396 -0.238039 -0.504146 -1.334739 0.688005 0.37731 -2.953094 0.650433 0.307563 -0.457962 -1.694326 2.40152 -0.816994 0.208705 1.853393 0.15935 -0.989952 1.089235 1.087388 -2.786835 -2.248864 -0.788939 0.405791 0.907533 -1.516669 1.970717 -0.345554 -0.134731
-1.230496 -1.784998 -2.701176 0.758382 1.022601 0.134257 -0.985047 1.562518 0.310835 -0.272668 -2.093218 0.576908 2.040189 3.9509 0.774258 -3.034902 0.015918 3.094607 -0.955282 -0.161599 1.346793 -0.427151 2.407651 2.929724 -1.837484 3.452367 0.53745 -0.982041 -0.926567 -0.170227 1.02313 -0.319885 0.057295 -0.759491 -3.167264 0.215212 0.199355 2.17803 -2.880665 -3.126606 1.987815 -0.672563 -1.358064 -0.033815 -0.248648 -1.018406 0.174184 0.367458 2.183337 2.743262 -1.304921 3.026151 -0.376082 1.947597 -1.255474 -1.064786 1.087376 -2.089309 0.970619 0.252176 5.222122 -0.33553 0.351429 0.429232 -0.472527 -0.662081 -0.365277 -1.304831 1.49886 -2.889978 0.333237 -0.579763 2.984992 1.952844 2.048453 -0.167153 0.122451 0.366104 2.33386 4.508055 2.013939 1.926481 3.227053 4.010036 0.598998 -2.80402 1.407855 2.476772 -2.103011 3.048537 -0.582139 -2.261293 -0.407356 -1.748715 -0.955609 0.330801 0.787854 1.235672 2.16538 0.751083
-0.671963 -1.356401 3.602218 0.823366 -0.502176 -0.026847 2.688116 0.953721 0.412325 -0.074957 -2.563688 0.379861 -0.279054 0.512633 -0.426346 -0.669122 -2.193019 -1.985633 1.195718 -0.843091 -3.07709 -2.336138 0.676971 -1.157188 0.84245 -0.067074 1.662677 -0.902702 0.573933 0.762577 1.605777 -0.494156 -0.764054 -4.857189 1.199538 0.081996 1.582965 -1.800896 1.133021 -2.874443 -0.067305 0.527258 -0.963475 2.056148 -0.810059 -2.590427 0.192699 -0.925293 0.533123 0.50128 0.198265 1.047486 -1.15476 -0.133629 -3.660616 2.9145 0.67414 -1.747608 -1.472014 0.506851 -0.089567 -1.009712 -0.989767 -0.231732 -1.20197 -0.899847 -0.180586 -0.280434 1.214359 0.601947 3.002038 1.452004 1.898121 0.64863 -0.773459 -0.546508 1.482508 0.349815 -0.022055 1.977613 1.349274 -0.187718 2.026595 2.419264 -2.256871 -0.764584 -0.110956 2.609596 -0.511332 0.497735 1.205947 -0.553892 0.146347 -2.201324 -0.117853 -0.193777 0.312823 3.388883 -4.036498 2.412019
-0.132812 0.139556 0.048597 -0.018647 0.118408 0.00247 -0.067271 0.095907 -0.081878 -0.091832 -0.001812 0.057942 -0.014087 -0.00986 -0.069185 0.188377 -0.021068 0.076926 0.254723 -0.248385 -0.080721 -0.117294 -0.027162 0.065033 -0.143138 0.09449 -0.062873 0.012455 -0.115085 -0.011352 0.037397 0.054183 0.069252 0.06757 -0.067839 0.049231 -0.00707 0.081329 0.143743 0.05676 0.004699 0.191203 -0.07709 -0.013433 -0.090536 -0.038912 -0.08486 -0.164565 -0.080733 -0.096047 -0.094106 0.077144 0.063995 0.070608 -0.063214 -0.219161 -0.013689 0.092466 -0.155988 0.032974 -0.019331 -0.044742 -0.109981 -0.082229 0.089341 0.060836 -0.060764 0.00179 -0.039211 -0.069223 -0.037374 0.018909 -0.059089 -0.066894 0.039494 0.021798 -0.084994 -2.04E-4 -0.14342 0.063634 -0.048142 0.00607 0.012367 0.200435 -0.023967 0.015599 0.077542 -0.039174 -0.128248 -0.083469 0.005174 -0.008694 -0.008888 0.03434 -0.011309 0.126286 -0.1118 9.13E-4 0.052469 -0.078198
0.11314 0.001009 0.021432 0.20432 -0.12848 0.016568 0.095837 -0.04367 0.139745 0.08952 0.136884 0.013893 -0.119799 -0.04637 0.067489 0.115129 0.001362 0.099708 -0.028047 0.080237 -0.120235 0.082914 0.013552 0.18102 -0.075938 0.072209 0.050915 -0.134416 0.050956 -0.080941 0.00705 -0.023393 0.038109 0.059736 0.050849 0.01822 -0.115557 0.074263 0.079457 0.083023 -0.032143 0.048059 -0.03032 -0.104919 -0.048841 -0.18136 0.024342 0.141714 -0.186671 -0.051114 0.05153 0.045296 -0.095164 0.201716 -0.019454 -0.16266 0.043589 -0.067523 0.017436 -0.042699 -0.028043 -0.008444 -0.094182 -0.135344 -0.101679 -0.012744 -0.01294 -0.005312 0.226124 0.004253 -0.024652 -0.036625 -0.089652 -0.006793 0.099358 -0.072025 -0.03678 -0.135353 0.168544 -0.018466 -0.150751 -0.018603 0.074589 -0.126909 0.03409 0.149404 0.073952 -0.031809 -0.053837 -0.01229 0.001795 -0.038312 0.048765 0.090386 0.169855 -0.085273 0.051153 0.123312 -0.01941 0.023992
-0.051783 0.108937 0.231379 0.182121 -0.006821 0.071168 -0.049853 -0.128687 0.111999 -0.08916 -0.234616 0.067633 0.158279 0.0577 0.17022 0.163762 -0.135463 0.13095 0.004936 0.170924 0.022808 0.082541 -0.12179 0.108387 -0.110215 -0.115583 0.073963 0.132547 0.113731 -0.176583 -0.185194 -0.221464 0.018968 -0.112513 -0.114131 0.053599 0.130261 -0.034306 -0.08431 -0.035119 -0.092746 0.010898 -0.196916 -0.051015 0.016472 0.172692 -0.140889 -0.090469 -0.035583 -0.136071 0.146463 -0.162718 -0.084016 -0.133122 0.063065 -0.189671 -0.181631 -0.063891 -0.086186 0.072505 -0.089536 0.034427 0.119912 0.184007 0.093234 -0.066662 -0.006857 0.088026 -0.116681 0.134064 0.137552 0.013994 0.117712 0.115345 0.133336 -0.142702 0.119209 0.052641 -0.053779 -0.12146 0.204655 0.127625 -0.105728 -0.022685 -0.056315 -0.005917 0.040197 -0.032136 0.177735 0.0331 -0.140758 -0.008698 -0.020509 0.159676 0.135142 -0.023693 -0.019821 -0.149445 0.015906 -0.119505
0.201522 -0.038247 0.199364 0.232119 0.335323 0.294617 -0.319506 -0.087817 0.073441 0.199354 0.130732 0.035695 -0.152396 0.114294 0.148531 0.201758 -0.382773 -0.008134 -0.218538 -0.225887 -0.038921 -0.042941 0.172595 -0.043109 -0.166686 -0.018235 0.043095 -0.147864 0.086438 -0.125118 0.024659 -0.135408 0.121817 -0.104121 -0.214651 -0.072714 -0.045089 -0.150489 0.108806 0.11444 0.021035 -0.040482 0.030944 -0.132224 -0.058658 0.117341 0.083027 -0.020076 0.302271 0.055671 0.04098 0.142556 -0.135397 0.198693 0.325696 0.331319 -0.007252 0.034834 0.328798 -0.110615 0.065567 0.017401 0.027532 0.095048 0.262877 -0.033632 0.324186 -0.018797 -0.078261 0.082797 0.082349 -0.035289 0.057175 0.112314 0.038199 0.439272 0.104365 0.160945 0.088402 0.049369 -0.214149 -0.158766 -0.286513 -0.270742 0.118211 0.021953 -0.154609 -0.042126 -0.022771 0.233359 -0.315244 -0.073453 -0.107278 -0.095932 0.044489 -0.362543 0.032558 0.270737 -0.116556 -0.035789
0.035383 -0.164998 0.090449 0.280547 -0.115185 0.052324 -0.033498 0.032398 0.051416 -0.116734 0.013492 -0.008862 -0.153742 0.05129 0.035752 0.061681 -0.03735 0.132439 0.021308 -0.145713 0.052689 0.099361 0.170176 -0.122464 -0.083669 0.096051 -0.133162 -0.060633 0.128481 -0.056609 0.050374 -0.033011 0.061302 -0.025334 -0.137175 -0.137691 0.12511 -0.058717 0.142376 0.045533 -0.118527 -0.116518 0.054774 0.019069 -0.021576 -0.077299 -0.168628 -0.173539 -0.099854 0.07679 0.205415 -0.030033 0.057061 0.136404 -0.026938 0.034452 0.021303 -0.073512 0.011759 -0.127336 -0.06313 -0.157206 0.052962 -0.104557 -0.034202 -0.036611 0.141877 0.005674 0.064679 -0.021441 0.156258 0.049987 -0.077389 -0.060609 0.034554 -0.008766 -0.028947 -0.137797 -0.118871 -0.182372 0.013622 0.063905 0.070384 0.064434 0.095806 0.020792 0.013453 0.060489 0.063512 0.043622 0.055647 0.059402 -0.07428 0.034029 -0.071599 -0.186608 -0.025654 -0.100153 -0.090121 -0.101208
0.048949 -0.102106 0.087806 0.199128 -0.03256 0.051251 -0.217152 0.054209 0.021156 0.066248 0.176039 0.112191 -0.132812 0.048788 0.082918 -0.181956 -0.28431 -0.106178 0.028045 0.072406 -0.159328 -0.078363 0.115999 -0.072393 0.020292 0.00947 -0.170255 0.028752 -0.100706 0.200487 -0.073792 0.118654 -0.152016 0.049443 -0.064554 -0.016068 -0.017218 -0.073466 0.00454 -0.096463 -0.109893 0.025903 0.134575 0.08427 -0.169321 0.029113 -0.067857 0.129433 -0.28105 0.094777 0.132377 0.017028 0.159704 0.02165 -0.064001 -0.14096 -0.092508 -0.145873 0.082946 -0.022296 0.01414 -0.043837 0.113805 -0.09854 0.176128 0.106663 -0.02413 -0.152784 0.217531 -0.124818 -0.064871 0.091805 -0.029807 -0.228287 0.00546 0.047808 -0.06736 -0.010596 0.181071 0.001556 0.107357 -0.203798 -0.019202 -0.221787 0.019724 -0.035069 -0.047429 0.001399 -0.105992 -0.052897 -0.232508 -0.188132 -0.012877 -0.066275 -0.146623 -0.002361 0.01456 0.006038 0.026643 -0.064951
-0.119372 -0.068759 -0.108561 -0.055093 -0.112816 0.453972 -0.317022 0.253818 0.011719 -0.088059 0.148838 -0.069513 0.004628 0.173291 1.54E-4 0.111131 0.188631 0.134092 0.036015 -0.084164 -0.106711 -0.035739 0.028814 0.023326 0.01999 -0.198892 -0.030232 0.051839 -0.258229 0.112846 0.084836 0.298396 0.029219 0.043966 -0.225462 0.006466 0.244968 0.051966 0.074849 0.26271 0.066372 0.068438 0.198251 -0.034208 0.178366 -0.299652 0.065119 -4.39E-4 0.145767 -0.2929 -0.003657 -0.238219 0.105684 0.30954 -0.235585 -0.249445 0.17934 0.02842 0.037272 -0.555815 -0.256042 -0.149079 0.233633 -0.022079 -0.318392 0.233058 -0.208127 -0.166141 0.084468 -0.068355 -0.044104 -0.130958 -0.121893 -0.079624 -0.054059 -0.103288 0.046481 -0.100456 -0.089759 0.296615 0.067951 -0.115557 0.223948 0.00268 0.441995 0.098939 0.137599 0.167826 -0.199653 -0.011526 0.020429 -0.029572 -0.180594 0.122656 -0.129688 -0.35049 -0.037878 -0.112969 -0.014621 0.108976
-0.156132 -0.087009 0.184057 -0.064291 0.025926 -0.140273 0.153118 0.011303 -0.120193 -0.051684 -0.148623 0.32417 0.008043 -0.0575 0.098355 0.172891 -0.213084 0.217379 -0.092906 -0.032151 -0.129642 -0.155223 0.29281 -0.02845 -0.281571 -0.053774 0.133214 -0.273369 -0.051298 0.091218 -0.066916 0.178554 -0.064064 -0.004631 0.051336 -0.106444 0.182168 0.006947 0.079249 -0.161683 -0.273434 -0.019243 0.119573 -0.054022 0.021513 -0.022141 -0.044654 -0.006673 0.021181 0.006375 -0.118817 0.051245 -0.095237 -0.058976 0.00512 -0.273265 0.036794 -0.106845 -0.010845 -0.008263 -0.067046 -0.210741 -0.286682 -0.167816 0.112543 -0.067089 0.027545 -0.019236 0.178136 -0.045337 -0.137948 0.227984 0.082 -0.194051 -0.116966 -0.061753 0.033496 -0.205845 0.062885 -0.122352 -4.59E-4 -0.090407 0.065653 -0.066077 -0.228103 -0.26281 0.136919 0.197287 0.10598 -0.055988 0.084248 -0.199512 0.042654 -0.216336 -0.05094 -0.048441 0.111954 -0.05957 -0.144613 0.068956
0.042972 -0.120468 -0.0576 0.005483 -0.048617 0.091848 0.059634 0.135324 -0.146856 0.099732 0.011059 0.233954 0.115863 0.109023 0.068866 0.004321 0.176306 -0.082271 -0.042549 -0.045839 -0.08566 -0.088387 0.17311 -0.022605 0.062451 0.089927 -0.11804 0.083192 0.039948 -0.099346 0.120283 -0.040128 -0.031076 -0.211229 0.082965 -0.12951 0.07174 -0.007847 -0.151264 -0.074315 -0.149136 0.007329 -0.022931 0.093417 0.083015 0.087318 0.008178 -0.089016 0.018711 0.002745 0.013652 -0.051799 0.140554 0.103567 -0.058467 -0.134798 0.124183 -0.020736 -0.079752 -0.151235 0.017588 -0.088585 0.055007 -0.083945 0.032265 -0.078764 0.138213 0.082684 0.103816 0.009769 0.081199 0.058854 0.07946 0.042701 -0.069041 0.053516 -0.021882 -0.055763 -0.082959 -0.083753 -0.155397 0.163072 0.141451 -0.009051 0.041648 -0.060297 -0.103185 0.09481 -0.0526 0.02639 -0.051569 -0.016764 -0.082699 0.048327 -0.020918 0.091513 0.001052 -0.007687 -0.067816 0.092671
0.034733 -0.047239 0.146198 0.07865 -0.106409 -0.077535 -0.019588 -0.016829 -0.066054 0.223105 0.111722 0.224105 0.141952 -0.12976 0.046701 0.064269 -0.183748 0.21341 -0.061861 0.127766 0.038256 0.019132 0.17944 -0.002331 -0.097874 0.087884 -0.177085 -0.098658 0.183255 -0.263653 3.6E-5 -0.155376 -0.096569 0.226488 -0.004206 -0.065823 -0.005457 -0.107038 -0.005512 0.128521 -0.133505 0.10497 0.003064 -0.249338 0.022386 0.241815 -0.04324 -0.188904 -0.013142 0.067457 -0.075317 -0.091254 -0.026665 -0.062898 0.168704 -0.046895 0.049197 -0.00872 0.111297 -0.166359 0.151071 -0.209862 -0.087078 0.013302 -0.054052 -0.045986 0.174819 -0.150406 0.177557 -0.055979 -0.010461 0.056778 -0.018561 -0.047682 -0.027504 -0.03564 -0.156768 -0.105095 0.023277 -0.007893 -0.048374 0.100354 0.220367 -0.081184 -0.101513 0.201738 -0.075197 0.094998 0.149967 -0.051212 -0.118531 -0.119864 -0.062471 0.015945 -0.101983 -0.196547 1.96E-4 -0.198289 0.002339 -0.282652
2.639274 0.860779 1.914535 0.075096 -2.067821 0.868151 2.41574 -0.571041 1.339049 -1.281174 -0.433602 0.871327 -1.548308 0.966946 -0.786386 -0.714393 -0.087621 -1.306236 -1.047139 -0.923836 -2.264294 -2.588521 -1.458217 -1.134626 3.310679 -0.54589 2.199729 -1.371259 0.466074 -3.369755 1.958229 3.033066 0.421195 1.634074 1.586538 1.129434 3.1813 -0.503733 0.596682 -1.070617 2.576208 -4.845244 0.269594 -0.305141 -0.001004 0.927763 -1.411168 -0.369687 5.073754 1.296224 2.814874 2.86693 1.155716 1.341413 0.524913 -2.458242 1.601557 1.575213 -1.137998 -0.420681 -0.255038 -1.034292 0.758403 1.042079 -2.456706 0.577587 2.169803 -0.212162 -0.74104 -0.859061 4.336587 1.523722 -1.638986 -0.00237 0.544093 -2.246276 -2.027173 0.113195 -2.980508 2.742148 0.260742 0.054881 -3.011818 -0.787116 2.629465 2.104289 4.309555 2.458298 -0.916654 -0.451662 0.519842 0.217335 -1.218073 1.333352 0.545333 1.80372 -1.063515 1.367284 -4.092412 2.91449
0.034136 0.046872 0.016641 0.202472 0.02537 -0.064842 0.115922 -0.007168 -0.009713 0.057521 -0.081086 0.208964 0.098502 -0.118805 -0.025917 0.05046 -0.040454 0.104153 0.268172 0.183412 -0.02203 0.157171 0.050878 -0.069328 0.030391 -0.174403 0.101489 0.06837 -0.056331 -0.158702 -0.111167 0.037614 -0.063554 0.0883 -0.100356 -0.108982 0.078346 -0.114704 0.125183 -0.022266 -0.010301 -0.156715 -0.175471 0.037376 0.002694 -0.01119 0.052507 0.042965 -0.013061 -0.097124 0.064106 -0.003468 -0.160328 -0.051226 -0.12157 -0.14226 -0.198879 -0.066679 0.17893 -0.025369 -0.024116 -0.065352 -0.140229 -0.124269 -0.075748 -0.006479 -0.073276 0.102798 0.1358 -0.149217 -0.096654 -0.006198 -0.152249 -0.041235 -0.065819 -0.169572 -0.108368 0.028666 -0.056662 0.036007 -0.071629 0.002587 0.016046 -0.230547 0.170996 -0.036906 0.03982 0.020226 0.198149 -0.049448 0.077857 -0.064451 -0.017618 0.073363 0.060449 -0.192465 0.135527 0.093848 -0.016098 -0.073968
-2.648351 -0.794316 -2.108887 0.20446 0.883061 0.242784 1.848653 1.149137 -4.975573 0.237654 -1.499665 2.924494 0.344217 -1.640431 0.763777 0.138944 -3.029439 -2.813434 -0.761102 -1.057557 -1.373735 -0.870599 1.234095 0.127805 -1.372618 1.35802 -1.501738 0.80945 0.172993 -0.484995 1.783363 -0.047587 0.483285 -1.526831 2.103549 2.116639 4.583491 -4.022388 -0.843817 0.361243 -0.546655 -2.301259 -2.000973 2.64631 -1.604053 -1.914206 -1.581895 -0.464185 1.757769 1.056301 0.263866 -0.904419 -0.422466 0.007824 -1.651553 0.7499 1.638666 -0.336108 -3.288466 -2.953238 -1.135414 1.165223 -1.047256 -0.821696 -0.135806 0.434207 -2.389307 -3.56953 -0.656773 0.578325 3.337902 0.782195 -1.250815 2.925509 -1.981492 0.121786 0.836257 1.710923 -2.640405 -0.628995 0.247469 0.863847 1.749171 -0.214156 -0.274807 2.192709 -0.892334 -1.614644 -1.225919 -0.042182 2.51632 3.464583 -3.591523 -2.506587 0.990426 1.8843 -2.460629 0.953462 0.359605 2.267383
0.11314 0.001009 0.021432 0.20432 -0.12848 0.016568 0.095837 -0.04367 0.139745 0.08952 0.136884 0.013893 -0.119799 -0.04637 0.067489 0.115129 0.001362 0.099708 -0.028047 0.080237 -0.120235 0.082914 0.013552 0.18102 -0.075938 0.072209 0.050915 -0.134416 0.050956 -0.080941 0.00705 -0.023393 0.038109 0.059736 0.050849 0.01822 -0.115557 0.074263 0.079457 0.083023 -0.032143 0.048059 -0.03032 -0.104919 -0.048841 -0.18136 0.024342 0.141714 -0.186671 -0.051114 0.05153 0.045296 -0.095164 0.201716 -0.019454 -0.16266 0.043589 -0.067523 0.017436 -0.042699 -0.028043 -0.008444 -0.094182 -0.135344 -0.101679 -0.012744 -0.01294 -0.005312 0.226124 0.004253 -0.024652 -0.036625 -0.089652 -0.006793 0.099358 -0.072025 -0.03678 -0.135353 0.168544 -0.018466 -0.150751 -0.018603 0.074589 -0.126909 0.03409 0.149404 0.073952 -0.031809 -0.053837 -0.01229 0.001795 -0.038312 0.048765 0.090386 0.169855 -0.085273 0.051153 0.123312 -0.01941 0.023992
-0.156395 -0.088264 0.218672 0.095291 0.031175 -0.001513 -0.026612 -0.056331 -0.224326 -0.099901 0.171914 0.119564 -0.093202 0.038472 0.157455 0.112429 0.062768 0.080053 -0.0579 0.061649 -0.114842 0.042352 0.132236 0.12508 -0.070129 -0.099022 -0.166113 -0.02363 0.101162 -0.007962 -0.03187 0.052431 -0.029177 0.081729 0.032327 0.006671 0.034142 -0.089674 -0.146572 0.157991 -0.123038 -0.008064 0.028668 0.113213 0.226655 -0.128657 0.030738 -0.008133 -0.074107 0.084524 0.083086 -0.237052 0.04468 -0.096021 0.074825 -0.039984 -0.116822 0.040583 0.01887 0.10639 0.002391 -0.067288 0.003431 -0.10066 0.013005 0.037501 -0.003139 -0.046743 -0.055271 0.202338 -0.061293 -0.18516 0.169416 -0.069197 0.10632 -0.317033 0.015569 0.001528 0.152538 -0.041115 0.160448 -0.080879 0.123602 -0.192065 0.015185 -0.019892 0.323304 -9.59E-4 -0.059707 0.033319 -0.160527 0.032366 0.145848 0.031096 0.096739 0.01073 -0.102998 -0.064497 0.081 -0.012625
-0.144336 0.074372 0.113318 0.085118 -0.148613 0.116197 -0.043826 0.097308 0.028569 0.0599 0.122926 0.129504 -0.202531 -0.024615 -0.184827 0.130076 -0.320919 0.065363 0.003498 0.051718 -0.144357 -0.139014 -0.049753 0.108518 -0.082871 0.171983 0.073164 -0.210686 -0.009667 0.210213 0.060274 0.046079 -0.075353 -0.162488 0.155761 -0.129948 -0.292558 -0.091019 -0.218721 0.241112 -0.031704 0.071499 0.229555 0.017352 -0.080441 0.02619 0.111902 -0.063922 0.15966 0.018002 0.091424 -0.033691 -0.13884 -0.017261 0.032462 0.057671 0.059981 0.008869 0.121346 -0.080853 0.079416 0.001784 0.19468 -0.254343 -0.090097 -0.09996 0.234742 -0.05806 -0.035704 -0.10223 -0.09253 0.014641 0.023658 0.024081 0.087838 0.004814 -0.031244 0.126039 -0.042851 0.057792 0.054989 0.062025 0.114046 -0.024096 0.166209 -0.182425 0.030826 0.162165 0.294079 0.052697 -0.053533 0.047016 -0.011732 0.117571 0.109081 -0.155768 -0.001293 -0.333485 -0.017285 0.020007
1.712598 0.277264 0.411079 -0.241499 -0.935393 1.40536 1.228539 1.399085 0.716063 -0.896747 -2.481361 -3.134534 0.543574 -1.602328 -1.908679 -0.096926 0.596786 -2.783856 -2.527641 1.407987 -2.858746 -2.482969 -1.284209 -0.534158 1.736176 -1.36792 1.614575 0.734303 -0.915146 -0.516233 3.090628 -1.362958 0.396535 -0.858695 -0.803276 1.394256 -0.705281 1.113412 -0.015583 2.615127 -0.116898 -1.518665 1.76046 -1.061116 0.240051 -0.825438 -0.555148 -1.888499 4.10476 0.81274 0.094125 2.482819 -0.014775 1.295676 0.990469 -2.110191 -1.750038 2.858354 -1.038153 -3.641521 -0.183371 -0.031844 -1.173565 0.358213 -0.4125 0.399201 -1.264336 -3.023668 1.096278 -1.151985 2.299933 -0.385198 0.067523 -0.105792 0.301481 -2.063802 0.009593 -2.514295 0.146633 0.56579 -2.863848 -0.226809 1.140698 0.155914 3.112365 3.262719 3.611383 0.53507 0.799208 1.610409 -0.68259 -1.366508 -0.797061 1.387145 -1.183758 -0.398168 -2.351417 2.161542 -1.403292 1.950354
0.028812 -0.193874 -0.069568 0.131632 0.050237 0.262048 -0.047718 -0.105232 0.015209 0.090714 -0.072417 0.019536 0.113702 0.057842 0.071468 0.173262 -0.074898 0.254407 0.008235 -0.020778 -0.131273 0.026184 0.102019 -0.061661 -0.065665 -0.133121 -0.007978 0.075843 0.047351 -0.225679 -0.015061 -0.28821 -0.04973 0.175841 -0.010909 -0.119084 0.136613 -0.019625 0.217581 0.036251 0.024136 0.061726 0.10502 0.010018 -0.062541 -0.034684 -0.039222 -0.078534 -0.228461 0.088693 0.169479 -0.080341 -0.156163 0.014456 0.060386 -0.071811 0.113755 -0.200075 0.08294 -0.100734 -0.074062 -0.039789 0.142205 -1.65E-4 -0.009906 -0.097965 -0.030123 -0.008877 0.141071 -0.038744 -0.03783 -0.130836 0.055966 0.043303 0.101372 0.003917 -0.166536 0.004383 -0.112085 0.041792 -0.010952 0.125705 0.004544 -0.081338 -0.047733 0.033946 -0.066874 -0.006354 0.028629 -0.031288 -0.081645 -0.043436 0.022948 -0.061105 0.066518 0.021813 0.00237 0.040275 -0.084011 0.004719
0.171593 -0.085188 -0.005011 0.309169 -0.152905 0.00381 -0.249387 -0.038448 -0.157923 0.037731 0.104605 0.346345 0.244978 0.024678 0.032649 0.310071 -0.065622 0.036396 0.052969 0.124156 -0.043828 -0.06566 0.269065 -0.177152 0.005016 0.077923 -0.302495 0.040821 0.286835 0.001567 0.013001 -0.230026 -0.074903 -0.033747 -0.205199 -0.039013 0.158052 -0.224509 -0.025489 -0.047903 -0.192269 0.165546 0.069635 -0.04257 0.06969 0.085811 0.04252 -0.017744 -0.24138 0.017786 0.049939 -0.111088 -0.074083 -0.048444 0.073146 -0.056241 -0.005692 0.009777 -0.018746 -0.086046 -0.136093 -0.368411 0.058549 -0.057995 0.004658 -0.164634 0.183809 -0.114823 0.198303 -0.19652 -0.183127 0.044565 -0.09434 -0.054044 0.105077 -0.030626 0.03893 -2.26E-4 -0.247097 0.052807 0.04372 0.275303 -0.041172 0.004343 0.04562 -0.052336 0.091936 -0.411318 0.007728 0.266991 0.171496 0.069051 0.089662 0.12008 0.01404 0.091993 0.086905 0.02851 -0.047985 -0.099695
-3.060694 3.944421 0.594395 1.240519 1.590252 0.14086 1.977822 -1.320438 -0.270145 0.078415 -0.701518 1.503149 -0.076238 -2.322129 0.931707 3.88907 -3.637779 -0.838586 -1.742846 2.10774 -2.123302 -1.885707 0.932712 -2.723 0.485457 2.251003 4.293851 -0.391725 -2.075526 -0.488557 -1.044331 -0.26396 1.474149 -0.157668 -2.630993 1.287193 -0.137211 0.421578 -0.682735 0.452479 0.737949 -3.602325 -1.109492 0.349809 0.166071 2.790299 -1.836968 0.494303 1.963397 2.876652 -0.591136 1.408314 2.428555 -1.471396 -0.844206 0.295759 -2.874214 -2.033604 -4.020904 -4.00203 2.947384 0.731884 -4.388597 0.269191 -2.977119 -1.540478 -0.323891 -0.519491 -0.317246 0.923041 3.533086 -2.016659 -0.762293 0.095485 0.345023 -4.959274 -1.321462 -2.068345 -1.326342 0.167266 0.679792 0.27268 -0.137474 1.347941 -2.850258 -0.209478 1.285648 2.430632 -0.273237 2.092334 2.765925 -2.461446 -2.912329 2.326273 -1.407489 3.059108 -0.769401 -1.631398 -0.113494 1.288471
-0.122631 0.128558 0.101251 0.101383 0.343641 -0.055849 -0.044729 -0.121503 0.162618 0.017017 0.00479 0.217074 -0.048278 -0.032868 -0.090584 0.071937 -0.146233 0.206465 -0.087447 0.010113 -0.101711 -0.082134 -0.042429 0.107218 -0.024382 -0.101942 0.046599 0.081553 -0.096163 -0.250086 -0.066914 0.045742 0.021268 0.14729 -0.186661 -0.030936 -0.043628 0.037247 -0.095854 -0.06126 -0.018754 0.066711 -0.132918 0.080139 -0.128483 0.117759 -0.006704 -0.117809 0.045961 -0.035101 -0.147484 0.045484 0.075963 -0.088211 0.263026 0.032648 -0.083645 -0.062752 0.002264 -0.067673 -0.006515 0.03846 -0.074372 -0.074802 0.045112 -0.111391 -0.045047 -0.023662 -0.20015 -0.020857 0.179506 0.02836 -0.018229 0.124193 -0.032268 -0.001133 -0.064416 -0.060862 -0.126574 -0.045871 0.073595 0.04722 0.035658 -0.09287 -0.137881 0.035751 -0.048815 -0.097574 0.045039 0.08144 0.107296 0.026119 0.132943 0.187861 0.159077 -0.163619 -0.106516 -0.204832 0.010503 0.121659
-0.38434 -0.570338 -3.334123 -0.990325 -0.281295 3.633702 1.320934 0.804616 -0.499895 -0.831205 0.460112 1.388349 -2.264975 3.215568 -3.90167 1.353361 -1.448904 -2.546085 -1.024352 -1.734034 -1.344124 0.93203 0.532723 0.23208 -0.507331 0.823317 0.659701 0.36019 1.191168 -0.162178 -0.263719 -1.148898 -0.733443 1.049014 -0.463284 0.424462 1.721949 -2.279087 -0.239497 -3.509027 0.274708 -0.478871 -0.254635 1.092364 -0.333634 -0.504492 -0.065145 -0.538987 0.565458 0.780359 -0.571438 2.952173 0.370658 -0.759209 -2.924849 1.720769 0.511283 1.62778 2.047539 0.727555 2.155394 -1.325505 -0.576841 2.155423 -1.025197 1.359344 -0.744288 -2.504187 -1.775349 1.348846 2.846446 1.640962 1.869469 1.38429 0.797755 -0.790083 2.739745 1.110482 1.051984 -1.114181 2.453474 -0.002451 -1.249565 3.986771 0.736882 -1.32782 1.044597 0.12676 2.039398 0.327395 0.179204 -1.66492 -0.55174 -2.138355 -3.629091 -1.09422 -3.320013 0.282001 -1.758182 -2.017416
0.042972 -0.120468 -0.0576 0.005483 -0.048617 0.091848 0.059634 0.135324 -0.146856 0.099732 0.011059 0.233954 0.115863 0.109023 0.068866 0.004321 0.176306 -0.082271 -0.042549 -0.045839 -0.08566 -0.088387 0.17311 -0.022605 0.062451 0.089927 -0.11804 0.083192 0.039948 -0.099346 0.120283 -0.040128 -0.031076 -0.211229 0.082965 -0.12951 0.07174 -0.007847 -0.151264 -0.074315 -0.149136 0.007329 -0.022931 0.093417 0.083015 0.087318 0.008178 -0.089016 0.018711 0.002745 0.013652 -0.051799 0.140554 0.103567 -0.058467 -0.134798 0.124183 -0.020736 -0.079752 -0.151235 0.017588 -0.088585 0.055007 -0.083945 0.032265 -0.078764 0.138213 0.082684 0.103816 0.009769 0.081199 0.058854 0.07946 0.042701 -0.069041 0.053516 -0.021882 -0.055763 -0.082959 -0.083753 -0.155397 0.163072 0.141451 -0.009051 0.041648 -0.060297 -0.103185 0.09481 -0.0526 0.02639 -0.051569 -0.016764 -0.082699 0.048327 -0.020918 0.091513 0.001052 -0.007687 -0.067816 0.092671
0.034733 -0.047239 0.146198 0.07865 -0.106409 -0.077535 -0.019588 -0.016829 -0.066054 0.223105 0.111722 0.224105 0.141952 -0.12976 0.046701 0.064269 -0.183748 0.21341 -0.061861 0.127766 0.038256 0.019132 0.17944 -0.002331 -0.097874 0.087884 -0.177085 -0.098658 0.183255 -0.263653 3.6E-5 -0.155376 -0.096569 0.226488 -0.004206 -0.065823 -0.005457 -0.107038 -0.005512 0.128521 -0.133505 0.10497 0.003064 -0.249338 0.022386 0.241815 -0.04324 -0.188904 -0.013142 0.067457 -0.075317 -0.091254 -0.026665 -0.062898 0.168704 -0.046895 0.049197 -0.00872 0.111297 -0.166359 0.151071 -0.209862 -0.087078 0.013302 -0.054052 -0.045986 0.174819 -0.150406 0.177557 -0.055979 -0.010461 0.056778 -0.018561 -0.047682 -0.027504 -0.03564 -0.156768 -0.105095 0.023277 -0.007893 -0.048374 0.100354 0.220367 -0.081184 -0.101513 0.201738 -0.075197 0.094998 0.149967 -0.051212 -0.118531 -0.119864 -0.062471 0.015945 -0.101983 -0.196547 1.96E-4 -0.198289 0.002339 -0.282652
0.127562 0.126777 0.109766 0.188158 -0.155575 -0.031873 -0.108265 -0.117906 0.139016 0.167494 0.027182 0.03272 -0.213548 -0.207611 -0.049334 0.102244 -0.249865 0.134433 -0.035542 0.125479 -0.002085 0.081458 -0.01325 -0.06115 -0.011645 0.10632 -0.108895 0.212048 0.048391 0.039626 0.14956 -0.001545 0.136653 -0.143183 -0.012496 0.155947 -0.055609 0.061141 -0.033287 -0.019948 -0.114016 -0.085848 0.016373 -0.09375 -0.119007 0.237021 -0.021449 -0.00812 0.137854 -0.097096 0.179015 -0.151113 -0.070912 0.115661 -0.011515 0.046384 0.058698 0.089331 0.011395 0.045242 -0.155992 0.002457 -0.042458 -0.106543 -0.145773 0.090295 0.043075 0.101465 0.220083 0.014286 0.08947 0.035282 0.142415 0.188392 0.049469 0.005141 0.149438 -0.127686 -0.218303 0.077345 -0.042054 -0.133834 -0.056502 -0.134421 -0.171466 0.179921 -0.01008 0.010931 0.232039 0.220086 -0.125946 -0.086242 0.027143 -0.180221 0.045105 -0.127972 -2.45E-4 -0.059906 -0.14766 0.015604
0.047752 -0.011346 0.0923 -0.029609 0.057311 -0.018942 0.101697 -0.008816 0.160723 0.047691 0.071984 0.076167 -0.075283 -0.019033 0.020958 0.126101 -0.130388 0.006598 -0.014525 0.04765 -0.051593 0.1344 -0.019667 0.017882 0.076152 -0.006446 0.103046 0.003142 0.050101 -0.034555 0.102535 -0.03113 -0.059746 -0.06714 0.009189 -0.056583 -0.121006 -0.048071 -0.068459 0.107579 -0.067348 -0.079693 -0.025409 -0.126253 0.011246 0.093704 0.001957 -0.055331 0.072705 0.08961 0.033024 -0.078931 -0.030987 -0.136595 0.078724 -0.06895 -0.159063 -0.014373 -0.09182 -0.019845 0.021328 0.038025 -0.035713 -0.219075 -0.179694 0.088581 0.019521 0.046478 -0.034868 -0.055462 0.066894 0.044192 -0.038243 -0.03165 -0.04116 0.112415 -0.038024 -0.034903 -0.099677 -0.034058 -0.072879 0.11684 -0.027534 -0.060155 0.022785 -0.180086 0.147153 -0.028915 0.09839 0.09891 0.033324 -0.024952 -0.007763 0.133121 -0.043308 -0.063667 -0.016107 0.045521 -0.041694 0.037351
-0.068454 -0.122863 0.134262 0.083716 -0.146457 -0.05854 -0.046249 0.145899 -0.070309 0.010732 0.090118 0.029646 -0.134044 0.011502 0.13797 0.056779 -0.07073 0.176961 0.006425 -0.153893 -0.009753 0.0856 0.130737 0.060926 -0.08509 -0.0078 0.032945 0.025603 0.032755 -0.111281 4.93E-4 -0.017962 0.032708 0.128146 -0.085697 0.05081 0.0276 0.03696 0.01402 0.060028 -0.124086 0.028109 -0.015197 0.122354 0.089105 -0.142934 -0.046646 -0.03136 -0.088624 -0.018623 0.176395 0.059223 -0.037748 0.092775 0.211408 -0.085361 -0.007459 -0.099707 -0.09085 0.010112 0.047779 -0.174533 -0.067544 -0.18185 0.006312 -0.081968 0.046034 -0.073605 -0.048238 -0.084453 0.091696 0.038272 0.057807 0.027356 0.14928 -0.024513 -0.009631 -0.031003 -0.064339 0.046794 -0.17687 0.056175 -0.018763 -0.084626 0.021903 -0.031887 -0.026426 -0.017246 0.052909 -0.04163 -0.017914 -0.010917 -0.015599 0.164133 -0.056038 -0.053381 0.088108 0.022985 -0.007861 -0.03771
0.171593 -0.085188 -0.005011 0.309169 -0.152905 0.00381 -0.249387 -0.038448 -0.157923 0.037731 0.104605 0.346345 0.244978 0.024678 0.032649 0.310071 -0.065622 0.036396 0.052969 0.124156 -0.043828 -0.06566 0.269065 -0.177152 0.005016 0.077923 -0.302495 0.040821 0.286835 0.001567 0.013001 -0.230026 -0.074903 -0.033747 -0.205199 -0.039013 0.158052 -0.224509 -0.025489 -0.047903 -0.192269 0.165546 0.069635 -0.04257 0.06969 0.085811 0.04252 -0.017744 -0.24138 0.017786 0.049939 -0.111088 -0.074083 -0.048444 0.073146 -0.056241 -0.005692 0.009777 -0.018746 -0.086046 -0.136093 -0.368411 0.058549 -0.057995 0.004658 -0.164634 0.183809 -0.114823 0.198303 -0.19652 -0.183127 0.044565 -0.09434 -0.054044 0.105077 -0.030626 0.03893 -2.26E-4 -0.247097 0.052807 0.04372 0.275303 -0.041172 0.004343 0.04562 -0.052336 0.091936 -0.411318 0.007728 0.266991 0.171496 0.069051 0.089662 0.12008 0.01404 0.091993 0.086905 0.02851 -0.047985 -0.099695
-0.013006 -0.118379 0.033248 -0.086703 -0.122945 0.054024 -0.105954 0.086953 -0.008314 0.037737 0.026517 0.202887 0.057473 0.10463 0.060993 0.164488 0.280731 0.235639 0.060156 0.073235 -0.105967 0.095067 0.21609 0.159707 -0.247029 -0.053178 0.213588 -0.163418 0.172043 -0.043476 0.005781 0.076681 0.0549 0.065827 -0.131163 -0.008544 0.018881 -0.024295 0.029425 0.145305 -0.053472 0.092048 -0.040266 0.194685 0.051225 -0.056091 0.052884 -0.035118 -0.044842 0.033586 0.030209 -0.225483 0.071924 -0.138642 0.181913 -0.179615 0.121881 -0.129775 -0.069768 -0.016177 0.31128 -0.011069 0.071507 -0.269585 -0.039461 -0.20419 0.164372 0.040425 -0.144214 0.019767 -0.143172 0.054418 -0.140112 0.15995 0.007503 -0.086442 -0.073308 0.181186 0.068323 0.055373 0.063983 0.035385 0.17434 -0.02698 0.121368 -0.207728 0.02406 0.033372 0.03302 0.306965 -0.173081 -0.053316 -0.094297 0.09213 -0.07528 -0.11779 0.025709 -0.15948 0.064401 0.00683
-0.020122 -0.129551 0.079111 0.044247 2.7E-4 -0.085409 0.019656 0.046379 -0.021388 0.122181 0.116338 0.061277 0.152274 -0.07715 0.124793 0.199206 0.0521 0.201831 0.234933 0.152275 -0.031276 -0.011689 0.100916 -0.039356 -0.008555 -0.035747 0.110653 -0.111704 0.084497 -0.082074 -0.101207 0.004416 -0.090269 0.158027 -0.045056 -0.008315 0.146116 -0.110983 -0.2082 -0.037338 -0.132452 0.150695 -0.066258 -0.003108 0.035437 0.142012 0.091725 0.095529 -0.18968 -0.046861 0.036816 -0.115391 -0.138596 -0.023145 0.05101 0.073666 -0.145695 -0.028714 -0.028434 -0.056494 -0.107789 -0.209914 -0.079517 -0.293056 0.030036 0.258249 0.01353 -0.03007 0.208269 -0.095619 -0.104322 -0.068665 -0.06787 0.021478 -0.009794 -0.174201 -0.131599 0.160091 -0.003468 -0.094913 -0.198302 0.090664 0.031848 -0.341998 0.008816 -0.022153 -0.015105 -0.016854 0.170241 -0.016689 -0.147599 -0.039071 0.118536 0.075877 0.031159 -0.249255 0.093822 0.077269 -0.021608 -0.074188
-0.058488 -0.128206 0.226812 0.01957 -0.015679 0.198432 -0.033719 0.01031 0.08858 0.084122 0.065234 0.174699 -0.115774 -0.166792 0.166205 0.01482 -0.181565 0.079631 0.020639 -0.005477 -0.075673 -0.11855 0.037942 0.086904 -0.057394 -0.09221 0.076278 0.083261 0.060987 -0.129159 -0.076956 0.119694 -0.039107 0.113165 -0.084008 -0.143939 0.084848 -0.112696 -0.265772 0.082036 0.116166 -0.10622 0.042605 -0.052686 0.041788 0.072304 0.022143 0.111461 -0.247706 -0.072874 0.16652 -0.075431 -0.016153 -0.042745 0.072708 -0.007479 -0.093147 0.010078 -0.098548 -0.009567 -0.185784 -0.048014 0.029533 0.016838 -0.007121 -0.087393 -0.178166 0.043206 5.68E-4 0.03761 -0.047408 0.088074 0.168599 0.034339 -0.072391 0.071417 -0.085363 -8.69E-4 -0.038666 -0.098226 0.116488 -0.059277 0.203249 0.067789 0.162273 -0.01442 0.01482 -0.051441 -0.081006 0.108997 0.089447 -0.105196 -0.036458 0.126448 0.076881 -0.131828 -0.022909 -0.051369 -0.061009 -0.007787
