-0.168631 -0.089595 0.011991 -0.005304 -0.267941 0.341409 -0.194132 -0.058201 -0.156575 0.05071 -0.059155 0.075102 0.135391 -0.004462 0.066882 0.068116 0.012071 0.170454 -0.134738 0.140507 0.005634 0.010388 0.134862 0.017758 -0.18941 0.209607 0.119138 -0.237609 0.13406 -0.206885 9.44E-4 0.052742 0.183296 0.108229 -0.184049 -0.070524 0.024551 -0.050457 0.050876 0.082595 0.076609 0.223814 0.244736 -0.069416 0.07009 -0.129473 0.101764 -0.021935 0.194342 -0.129411 -0.11923 0.069977 -0.044857 0.172147 0.07958 -0.196898 -0.064904 -0.063972 -0.243273 -0.154043 0.12755 -0.148255 0.084846 -0.119713 0.182931 -0.002366 0.152376 0.222759 0.212647 -0.089368 0.1758 -0.144392 -0.023349 -0.020253 -0.318209 0.054924 -0.155534 0.023197 0.012765 0.215197 -0.106138 -0.02251 0.321975 -0.020247 0.041553 -0.020427 0.119465 0.182535 0.107185 0.081442 -0.007473 0.071174 0.130018 0.174101 0.157566 -0.009147 0.064335 0.124664 -0.019704 0.113819
-0.377632 -0.202202 0.245016 -0.145246 -0.020685 0.356599 -0.085466 0.044193 -0.108785 -0.035523 0.041519 0.033289 0.00771 -0.140328 -0.171437 0.075682 -0.161466 0.29231 0.055743 0.098856 -0.315791 -0.17522 0.215252 0.180073 0.270119 -0.239861 0.054511 -0.04142 0.129744 -0.058333 0.01506 -0.019843 0.009681 -0.039286 -0.146391 -0.203264 -0.148613 -0.141177 0.13257 0.054182 -0.04144 -0.054351 -0.043897 0.080184 -0.039384 -0.130076 0.199701 -0.09311 -0.125218 0.127678 0.086235 -0.085789 -0.354932 -0.012572 -0.121836 -0.186826 -0.045325 -0.057901 0.003151 -0.013058 -0.139435 0.085182 -0.009057 -0.055709 -0.078343 0.153071 0.184781 0.043532 0.121952 -0.093315 0.10717 -0.056127 0.032062 0.097613 -0.101782 -0.009841 -0.457723 0.001699 0.081868 -0.325031 -0.062004 0.083082 0.260778 0.205639 0.170539 -0.06042 -0.137662 -0.023964 -0.080638 0.09795 0.106331 0.181121 -0.01395 -0.046636 0.119227 -0.12953 0.155758 -0.038421 -0.081307 -0.03247
2.085649 -2.66565 1.005181 -0.91708 -0.867388 -0.600351 -0.577158 2.269467 1.22878 -0.555551 2.396344 0.747401 -0.479669 0.291456 0.455476 -1.0586 0.845808 0.369596 -0.41777 1.206955 -2.725564 1.121304 2.377656 -1.295825 -1.380381 0.554651 -0.076354 3.274502 -0.323878 0.927954 1.117231 -0.64792 0.933768 1.06258 -3.808306 1.72674 -1.893354 0.738804 0.174169 -1.184344 1.361639 0.563347 0.425585 -2.297181 0.127795 0.516276 1.331414 0.766875 -0.421406 0.79114 -1.085041 1.491397 0.289058 2.939185 -0.562374 -0.566229 -0.425151 0.423987 -1.027497 0.8375 1.947439 -1.811611 -1.107938 2.690367 1.972075 -0.963076 0.798717 -2.325777 1.228227 0.993453 0.899298 0.844218 -2.638254 0.129598 -1.273239 0.350017 -1.047041 0.577212 1.177559 1.711791 -0.704186 -2.039394 0.380434 0.119203 0.540652 1.026338 1.006174 1.542342 -1.324905 2.072319 -2.535352 0.996856 0.084132 0.577743 -0.102676 2.909314 -3.082454 0.307587 -1.710451 1.99895
0.046388 -0.164417 0.054138 -0.203604 -0.527236 0.069999 -0.59801 0.312587 -0.213166 0.182326 0.472747 -0.180961 -0.11613 0.266851 -0.412124 -0.375019 0.241826 -0.093938 0.204779 0.552241 -0.485591 0.431159 0.624505 -0.149505 0.027312 0.284387 -0.011935 0.337329 0.229908 -0.238998 -0.502447 -0.338441 0.101503 0.035852 -0.607622 0.278817 -0.310739 -0.006057 -0.086991 -0.007398 -0.132223 0.147556 0.426191 -0.636444 0.646068 -0.275961 -0.16908 -0.077308 -0.506414 -0.057163 -0.335891 -0.305032 0.31866 0.602435 -0.088872 -0.181209 0.026734 -0.211666 -0.124605 0.290989 0.587702 -0.566818 -0.302469 0.287777 0.630832 -0.555679 0.439833 -0.429788 0.070774 0.165661 -0.02763 0.286947 -0.200171 0.214827 -0.161421 -0.291093 -0.263722 0.575363 0.490953 0.194618 -0.152388 -0.205074 0.640795 0.033292 -0.073815 0.033802 0.0087 0.382807 -0.344153 0.452731 -0.808096 0.050682 0.113092 0.371501 0.136056 0.468073 -0.373102 -0.346874 -0.436354 0.150733
-3.226372 2.35793 1.664933 -1.397699 -0.234855 -0.138337 -0.786836 3.052228 -1.912656 -2.288018 0.272869 0.686397 0.2917 -2.094967 0.778459 -0.548405 -1.623165 2.350118 -1.015525 -0.523839 0.183519 -0.720216 0.263201 -2.16175 0.200218 0.644647 0.756321 0.253837 -0.045955 0.28891 1.613614 0.371453 0.146853 -2.289302 -0.986374 -1.112786 1.670519 4.453649 -1.658838 0.813042 -0.460591 -0.304772 -3.040875 -1.116784 -0.784115 0.515472 -0.614797 -0.201762 0.401762 3.016205 -2.359239 1.027612 -0.966129 -2.379973 0.070658 -0.942173 0.612885 -0.996605 -3.107552 -0.778567 -0.428629 1.095795 1.545351 3.769541 -1.909436 -2.319132 3.61937 2.028855 0.425952 0.828503 2.429835 1.415599 0.923454 0.915926 0.180415 0.050319 -0.425423 0.782893 0.185119 1.505182 -0.135842 -2.328051 0.355633 -0.25528 -0.832806 -3.50412 0.979211 2.874325 2.1097 3.403118 -0.333939 -0.600789 0.217467 -0.270183 1.730934 -0.50835 -2.995152 -0.718419 -1.697193 -1.174484
0.067365 -0.098234 -0.087276 0.094984 -0.016626 0.332459 -0.07222 0.121676 -0.031477 0.14974 0.243532 -0.094988 -0.09894 0.20782 -0.007434 0.059112 -0.183023 0.126756 -0.015388 0.019289 0.193392 0.252587 0.249131 0.168913 -0.049026 0.13608 0.04419 -0.036512 -0.084217 -0.184984 0.046543 -0.297416 -0.155453 -0.100258 0.179937 -0.444897 -0.114554 -0.037583 0.164788 -0.060788 -0.105272 -0.041323 0.084466 0.178411 -0.182368 -0.315266 0.162192 -0.065039 -0.280966 -0.058211 0.103369 0.03917 -0.34387 0.092852 -0.126362 -0.030967 -0.080224 -0.374896 0.404137 -0.045019 0.169645 0.177729 -0.019474 -0.242705 -0.103578 -0.046288 -0.297823 -0.049549 -0.100837 0.102079 0.043778 0.192599 0.026613 0.048479 0.284639 -0.171068 -0.227212 0.006306 0.074202 0.025097 0.023176 0.370704 0.061126 0.164567 0.3824 -0.356018 0.022405 0.177539 0.19105 0.024056 -0.155907 0.119275 0.056992 -0.014233 0.052606 0.065523 0.024943 -0.183555 0.066572 -0.056079
-0.087255 -0.05591 0.054305 -0.024922 0.12279 0.041971 0.011628 -0.098172 0.13061 0.088978 0.139548 0.154385 0.10967 -0.074364 0.077608 0.342633 -0.019875 0.008986 0.121981 0.055307 -0.003396 0.250389 -0.003606 -0.027202 -0.077535 -1.16E-4 -0.00206 0.156913 0.196292 -0.041947 -0.256602 -0.075561 -0.331833 -0.028169 -0.227118 -0.023069 -0.031505 -0.123196 0.067817 0.109003 -0.150311 -0.176863 -0.003222 0.297853 0.06886 0.054723 0.197442 -0.009663 0.124548 -0.115984 -0.107457 -0.134223 -0.057877 0.014351 -0.020055 -0.038021 0.086742 0.251573 0.36257 0.003758 0.053095 -0.086013 -0.02227 -0.136233 -0.017961 0.053643 0.053971 -0.264445 0.141244 -0.001727 0.102822 -0.045402 0.072919 -0.05572 -0.011331 -0.015733 -0.123198 -0.088768 0.042072 -0.014455 -0.084923 -0.030051 0.101633 -0.145179 0.084003 0.006179 0.137993 -0.044962 0.159725 0.029218 -0.030525 -0.103093 -0.1477 -0.002794 0.039423 -0.078334 0.05768 0.210979 -0.090714 -0.257268
0.224322 0.026041 0.119035 -0.212654 -0.052496 -0.005889 -0.054726 0.070513 -0.197368 0.024052 -0.040175 -0.176148 0.221802 -0.008208 -0.09657 0.284997 0.131404 0.074054 0.136277 -0.078509 -0.054914 0.004454 0.100542 0.156374 -0.011827 -0.072642 0.129486 -0.064483 -0.214243 -0.166785 0.154249 -0.011974 0.169651 0.157497 0.193036 -0.2317 0.206964 -0.361371 -0.052434 0.095758 0.111001 -0.214849 0.065087 -0.061162 0.136199 -0.202935 -0.052513 -0.151282 0.099013 0.05255 0.246204 0.21412 0.02101 0.059076 0.133261 0.130987 0.213465 0.248925 -0.053888 0.049354 0.121262 -0.236629 0.100028 -0.064201 -0.199748 -0.091796 0.097941 0.216713 -0.085725 -0.183508 -0.058171 -0.040841 -0.097749 0.061598 0.017593 -0.084736 -0.091004 0.127172 -0.334624 -0.004825 0.284427 0.083649 -0.186327 0.043407 0.151367 -0.127758 -0.036925 0.198468 0.218694 -0.265854 -0.069016 -0.215849 -0.028524 0.090182 0.165753 -0.065182 0.004417 -0.252214 -0.183965 -0.349074
-0.119372 -0.068759 -0.108561 -0.055093 -0.112816 0.453972 -0.317022 0.253818 0.011719 -0.088059 0.148838 -0.069513 0.004628 0.173291 1.54E-4 0.111131 0.188631 0.134092 0.036015 -0.084164 -0.106711 -0.035739 0.028814 0.023326 0.01999 -0.198892 -0.030232 0.051839 -0.258229 0.112846 0.084836 0.298396 0.029219 0.043966 -0.225462 0.006466 0.244968 0.051966 0.074849 0.26271 0.066372 0.068438 0.198251 -0.034208 0.178366 -0.299652 0.065119 -4.39E-4 0.145767 -0.2929 -0.003657 -0.238219 0.105684 0.30954 -0.235585 -0.249445 0.17934 0.02842 0.037272 -0.555815 -0.256042 -0.149079 0.233633 -0.022079 -0.318392 0.233058 -0.208127 -0.166141 0.084468 -0.068355 -0.044104 -0.130958 -0.121893 -0.079624 -0.054059 -0.103288 0.046481 -0.100456 -0.089759 0.296615 0.067951 -0.115557 0.223948 0.00268 0.441995 0.098939 0.137599 0.167826 -0.199653 -0.011526 0.020429 -0.029572 -0.180594 0.122656 -0.129688 -0.35049 -0.037878 -0.112969 -0.014621 0.108976
-2.648351 -0.794316 -2.108887 0.20446 0.883061 0.242784 1.848653 1.149137 -4.975573 0.237654 -1.499665 2.924494 0.344217 -1.640431 0.763777 0.138944 -3.029439 -2.813434 -0.761102 -1.057557 -1.373735 -0.870599 1.234095 0.127805 -1.372618 1.35802 -1.501738 0.80945 0.172993 -0.484995 1.783363 -0.047587 0.483285 -1.526831 2.103549 2.116639 4.583491 -4.022388 -0.843817 0.361243 -0.546655 -2.301259 -2.000973 2.64631 -1.604053 -1.914206 -1.581895 -0.464185 1.757769 1.056301 0.263866 -0.904419 -0.422466 0.007824 -1.651553 0.7499 1.638666 -0.336108 -3.288466 -2.953238 -1.135414 1.165223 -1.047256 -0.821696 -0.135806 0.434207 -2.389307 -3.56953 -0.656773 0.578325 3.337902 0.782195 -1.250815 2.925509 -1.981492 0.121786 0.836257 1.710923 -2.640405 -0.628995 0.247469 0.863847 1.749171 -0.214156 -0.274807 2.192709 -0.892334 -1.614644 -1.225919 -0.042182 2.51632 3.464583 -3.591523 -2.506587 0.990426 1.8843 -2.460629 0.953462 0.359605 2.267383
0.0 0.0 0.0 0.0 0.0 0.0 0.0 0.0 0.0 0.0 0.0 0.0 0.0 0.0 0.0 0.0 0.0 0.0 0.0 0.0 0.0 0.0 0.0 0.0 0.0 0.0 0.0 0.0 0.0 0.0 0.0 0.0 0.0 0.0 0.0 0.0 0.0 0.0 0.0 0.0 0.0 0.0 0.0 0.0 0.0 0.0 0.0 0.0 0.0 0.0 0.0 0.0 0.0 0.0 0.0 0.0 0.0 0.0 0.0 0.0 0.0 0.0 0.0 0.0 0.0 0.0 0.0 0.0 0.0 0.0 0.0 0.0 0.0 0.0 0.0 0.0 0.0 0.0 0.0 0.0 0.0 0.0 0.0 0.0 0.0 0.0 0.0 0.0 0.0 0.0 0.0 0.0 0.0 0.0 0.0 0.0 0.0 0.0 0.0 0.0
0.0 0.0 0.0 0.0 0.0 0.0 0.0 0.0 0.0 0.0 0.0 0.0 0.0 0.0 0.0 0.0 0.0 0.0 0.0 0.0 0.0 0.0 0.0 0.0 0.0 0.0 0.0 0.0 0.0 0.0 0.0 0.0 0.0 0.0 0.0 0.0 0.0 0.0 0.0 0.0 0.0 0.0 0.0 0.0 0.0 0.0 0.0 0.0 0.0 0.0 0.0 0.0 0.0 0.0 0.0 0.0 0.0 0.0 0.0 0.0 0.0 0.0 0.0 0.0 0.0 0.0 0.0 0.0 0.0 0.0 0.0 0.0 0.0 0.0 0.0 0.0 0.0 0.0 0.0 0.0 0.0 0.0 0.0 0.0 0.0 0.0 0.0 0.0 0.0 0.0 0.0 0.0 0.0 0.0 0.0 0.0 0.0 0.0 0.0 0.0
0.311386 -0.088869 -0.104218 0.130087 0.183488 0.022315 -0.082123 0.133895 -0.162771 -0.035674 0.062013 0.068237 0.160958 0.027073 -0.100362 0.167218 -0.042139 -0.102363 0.051867 0.210541 -0.049528 0.077626 -0.081211 0.124142 0.154735 -0.092879 -0.098679 -0.086667 -0.09524 -0.180662 -0.069217 0.051259 -0.163076 0.09531 -0.210824 0.131975 0.024457 0.009266 -0.002694 -0.037793 0.025627 -0.095514 0.10237 0.054793 -0.091383 -0.032542 0.037963 0.051818 0.04797 0.108934 0.299935 0.148108 0.02485 -0.041405 -0.014041 -0.079868 0.124825 0.082945 0.208714 -0.190215 0.089154 0.032792 -0.228709 -0.080581 0.121245 0.103708 0.242305 -0.127837 -0.008612 0.049873 0.151503 0.011067 0.006107 0.092054 -0.034946 0.223306 -0.336444 0.025374 0.022252 -0.069033 -0.231604 0.066545 0.052049 0.116581 -0.120114 -0.1049 0.217058 0.061186 0.084725 0.124448 0.085271 0.223431 0.029766 0.067547 -0.155722 -0.157657 0.230428 0.145588 0.022589 -0.06954
-0.087323 -0.203796 0.173805 0.024737 -0.035205 0.073274 -0.137768 0.036439 -0.152124 0.132581 0.105789 0.132055 0.029627 -0.034392 0.127427 0.214244 0.049695 0.290208 0.062719 0.059336 -0.140329 0.101387 0.200937 0.132508 -0.19155 -0.024987 -0.175546 -0.097125 0.188416 -0.080222 0.00629 0.00237 -0.106947 0.073194 -0.172807 -0.040484 -0.079119 0.010507 -0.009228 0.030314 -0.11581 0.171034 -0.074118 0.044576 0.115353 -0.176161 0.029042 -0.01219 -0.211933 0.138472 0.164058 -0.102662 -0.013068 0.086444 -0.002266 -0.152945 -0.037877 -0.050164 0.012446 -0.135175 0.039387 -0.108502 -0.031684 -0.211472 -0.08627 0.036564 0.093485 0.058549 0.146074 -0.126168 -0.078596 -0.031646 -0.042983 -0.100275 0.057208 0.037885 -0.218377 -0.062115 -0.069864 -0.015924 -0.066974 0.119901 0.042105 -0.143539 0.022912 0.081101 0.135746 0.105535 0.2396 0.185103 -0.188455 -0.013954 0.038955 0.10415 -0.053561 -0.039811 0.024291 -0.016648 -0.069467 -0.056162
0.051291 0.06851 0.027582 0.239183 0.018501 -1.52E-4 -0.135178 0.093644 -0.068995 -0.041446 0.063077 0.096514 -0.147289 0.002354 0.207852 0.197497 -0.035426 0.062474 -0.006527 0.154151 0.005815 -0.022838 0.293104 -0.018056 -0.150262 -0.133158 0.053472 0.095309 0.170489 -0.206265 -0.069174 -0.100183 -0.094217 -0.097791 -0.048306 0.07165 0.153065 -0.015046 -0.192078 -0.054468 -0.178403 -0.096648 0.006464 -0.013429 0.069479 0.070083 -0.085317 0.009406 0.093283 0.037493 -0.029593 -0.036329 -0.013041 -0.122656 0.034383 0.015012 0.077428 -0.113685 -0.162871 -0.069247 0.010149 0.012601 -0.039505 0.044952 -0.051143 -0.13493 -0.004492 0.070249 0.068684 0.022318 0.216416 -0.072871 -0.079571 0.070057 -0.071804 -0.053408 0.012885 0.081932 -0.03996 -0.144363 0.218654 0.087658 -0.045175 -0.148405 0.055723 0.017647 0.086705 9.7E-4 0.089516 0.095528 0.043603 -0.015505 -0.01922 -0.002554 0.104157 0.050367 -0.131297 0.10684 -0.029541 0.166272
-0.009984 -0.1169 0.033725 0.026284 -0.087794 -0.128294 -0.081 0.039571 -0.044431 0.147856 0.134742 -0.003666 0.057848 -0.100072 0.071258 0.137418 -0.043589 0.222568 0.0705 0.129815 -0.030738 0.141323 0.175885 0.031798 -0.145891 -0.042642 0.015382 -0.085158 0.146845 -0.169088 -0.051307 0.038654 -0.139609 -0.004629 0.056533 -0.123969 -0.110962 -0.05249 0.086181 0.063252 -0.198005 0.107907 0.026291 -0.073299 0.082376 0.033897 0.115565 -0.043946 -0.092134 0.086738 0.08876 -0.123463 -0.001527 0.060335 0.116434 -0.171742 0.098584 -0.061797 0.141028 -0.151729 0.071044 -0.190019 0.048432 -0.015987 -0.059781 -0.012155 0.173239 -0.049124 0.195156 -0.121223 -0.034683 -0.077619 -0.024945 0.024689 0.067614 -0.080854 -0.15272 -0.080173 0.013227 -0.057967 0.055989 0.166832 0.159342 -0.134244 -0.004654 -0.006241 -0.074871 -0.158092 0.140327 0.072048 -0.166941 0.042083 -0.144216 0.295987 0.010772 -0.093545 0.024989 -0.072625 -0.04203 -0.090022
-0.034355 -0.032624 0.199767 0.005333 -0.017739 0.056352 0.029424 -0.030199 0.021501 -0.058459 0.007633 0.035986 -0.019477 -0.066338 0.122967 0.109226 0.019004 0.106931 -0.021536 0.088322 -0.146882 0.060271 -0.048463 0.045495 -0.071025 -0.098507 0.019002 0.035445 0.148947 -0.236889 0.031148 -0.108787 -0.034147 -0.086219 0.067012 -0.055364 0.080612 -0.007981 -0.045472 0.064676 -0.109496 0.060769 0.041785 -0.009122 0.044502 -0.088972 0.049544 0.038709 -0.028194 -0.033044 0.020137 -0.100587 0.087732 0.023429 0.131458 -0.257082 -0.013136 -0.208503 0.050067 -0.141838 0.147681 -0.008098 -0.012417 -0.073334 -0.157796 -0.104002 0.021573 -0.049296 -0.140103 -0.104901 -0.037706 0.087579 -0.036719 0.004416 0.079762 -0.175127 -0.116852 -9.54E-4 -0.001441 -0.018956 0.049765 -0.094634 -0.056623 -0.059285 0.103667 -0.086029 0.041032 -0.055263 0.035383 0.097164 -0.162184 0.094111 -0.037403 0.121801 -0.145614 -0.0602 0.033289 -0.037582 0.038226 -0.090747
2.228393 0.34685 -0.205175 0.82637 0.289877 -2.298858 0.681781 1.239856 -0.707785 -0.608658 -0.290369 -0.876865 0.099785 1.166189 -0.473867 -1.227859 -0.269474 0.198573 -3.08047 0.854924 0.123546 0.462013 -1.0203 1.068178 0.821477 1.275464 -0.337148 -1.261662 -3.037685 -0.774771 2.00484 -1.162408 -1.237125 -0.677399 -1.214062 0.652619 1.411875 -0.462005 -1.911843 0.064866 0.505802 -1.85091 2.147551 0.364446 0.751133 -0.179934 -0.471851 0.506221 0.639084 0.916085 0.439025 0.008913 -0.331632 -0.485567 0.24824 1.093501 -0.356465 1.132369 -0.456586 -0.346699 -1.606035 -1.179737 0.21645 0.197727 0.333372 -0.60164 -1.595328 -1.041308 -1.539244 -0.337694 0.658138 0.67983 -0.87268 -0.124004 1.315665 -1.347592 -2.326769 -0.243804 -2.005278 0.148622 -1.967384 0.500666 -0.677995 -0.176367 0.196794 -0.460945 -0.058576 1.807961 1.980513 1.165275 0.048983 -0.547535 -0.918819 0.778197 -0.2067 -0.593413 -0.3427 1.449719 0.132054 -1.22163
0.048641 -0.048904 -0.052028 0.040326 -0.01953 0.07227 -0.225733 -0.046058 -0.092473 -0.00595 0.05768 0.023525 -0.030774 0.021165 0.087826 0.222476 -0.020419 0.07715 0.095969 0.023468 -0.032765 0.167672 0.0731 0.012218 -0.116884 -0.008011 -0.148303 0.138317 0.051145 -0.19949 -0.112662 -0.032864 -0.040966 0.112232 -0.026968 -0.026969 0.053304 -0.06558 -0.036088 0.013998 -0.124834 -0.026905 -0.04019 -0.024457 0.065401 -0.037182 -0.041806 -0.009138 -0.044295 -0.043913 -0.0283 -0.076608 -0.088993 0.246511 0.03223 -0.068305 -0.039718 -0.062783 -0.088534 -0.026121 0.040711 -0.037212 0.043106 -0.029609 0.011388 0.177724 0.096599 -0.043965 0.020229 -0.051067 0.021334 -0.032811 0.145669 -0.136425 0.019435 -0.148494 -0.095391 -0.080402 0.174929 -0.105428 -0.014982 0.029902 0.096101 -0.016547 -0.018786 0.052479 0.137423 0.03564 0.078262 0.057416 0.023979 0.097028 0.075148 0.028269 -0.152987 -0.096916 0.009752 -0.058592 0.016126 -0.005683
-0.120275 -0.076624 0.060001 0.16806 -0.099074 -0.179 -0.138545 -0.046315 -0.153346 -0.013029 0.06142 0.100548 -0.052307 -0.083166 0.098766 0.303514 0.078996 0.09986 -0.114068 -0.063848 -0.002261 0.297448 0.251458 0.137863 -0.068201 -0.015344 -0.004984 -0.065486 0.205865 -0.073548 0.131509 0.089437 -0.064868 -0.074377 -0.033386 -0.048961 0.13246 0.014515 -0.140166 0.058029 -0.057859 0.061261 -0.025467 -0.037082 0.041226 -0.122018 -0.082621 -0.012521 0.038862 0.110036 0.17262 -0.110084 0.001906 -0.259051 0.146055 -0.013699 0.034776 0.073848 -0.020211 -0.078644 0.032437 -0.212562 -0.079578 -0.174384 -0.06224 -5.31E-4 -0.125005 -0.085579 0.122879 -0.004955 -0.219484 -0.163308 -0.336882 0.086699 -0.014117 -0.105441 -0.110134 -0.021006 -0.038278 -0.097487 -0.135202 0.045969 0.166956 -0.171197 -0.14435 0.013855 -0.032949 -0.034161 -0.050665 0.034896 -0.09674 0.05297 -0.165976 0.174622 -0.149682 -0.092368 0.033895 0.02091 -0.035898 -0.080623
0.0 0.0 0.0 0.0 0.0 0.0 0.0 0.0 0.0 0.0 0.0 0.0 0.0 0.0 0.0 0.0 0.0 0.0 0.0 0.0 0.0 0.0 0.0 0.0 0.0 0.0 0.0 0.0 0.0 0.0 0.0 0.0 0.0 0.0 0.0 0.0 0.0 0.0 0.0 0.0 0.0 0.0 0.0 0.0 0.0 0.0 0.0 0.0 0.0 0.0 0.0 0.0 0.0 0.0 0.0 0.0 0.0 0.0 0.0 0.0 0.0 0.0 0.0 0.0 0.0 0.0 0.0 0.0 0.0 0.0 0.0 0.0 0.0 0.0 0.0 0.0 0.0 0.0 0.0 0.0 0.0 0.0 0.0 0.0 0.0 0.0 0.0 0.0 0.0 0.0 0.0 0.0 0.0 0.0 0.0 0.0 0.0 0.0 0.0 0.0
-0.823131 -1.023308 0.884635 -1.093384 0.983531 -0.252699 0.839106 1.888251 -0.955241 -0.992839 1.961678 -1.695571 1.341648 -0.018718 -0.549291 1.518488 1.273107 -0.518222 -2.148148 0.770641 -0.224304 -3.382461 -1.399365 -1.353276 3.925797 2.048541 -0.703294 1.941583 -2.644916 0.246529 2.72973 0.008376 1.347655 3.024793 -0.183643 -0.594391 1.306028 -2.755511 -1.744167 -0.310881 -1.068375 0.300061 0.546042 0.766783 1.263751 1.566303 0.21455 1.471169 -0.065317 4.600112 0.281187 -2.236434 1.071779 0.175401 -0.500119 -4.528957 0.009232 -3.094671 1.682876 -1.285303 2.565601 2.248572 -0.225446 3.393453 -0.114392 -1.8898 1.242886 -3.750703 1.459859 -1.176709 -1.001627 2.893075 -1.658397 -3.933074 0.080749 -0.464044 -1.033859 3.397002 1.65854 -2.210519 -2.105376 0.744618 0.99801 -1.743527 1.105461 -0.513941 -0.910932 -0.211871 1.117954 4.463613 -0.121247 0.168629 -1.938142 0.489942 0.01062 -0.899084 3.327071 2.315846 0.827572 2.879698
-0.06583 -0.22552 0.01727 0.011724 0.058642 0.048091 0.085541 -0.076712 -0.1348 0.054475 0.146513 0.053409 -0.024379 0.256087 -0.013025 0.004575 -0.264844 0.052009 0.059988 -0.013629 0.216591 0.103449 0.297255 0.124458 0.146011 0.028068 0.012468 0.086669 -0.203467 -0.42 0.243491 -0.134547 -0.129524 2.15E-4 -0.046122 -0.012116 0.032605 -0.00453 -0.050289 -0.076488 0.071211 -0.345013 0.226192 -0.072875 -0.074486 -0.08038 -0.046684 -0.178828 -0.050649 0.014131 -0.068447 0.030138 -0.203824 -0.099399 -0.078293 0.018454 -0.017997 -0.217149 0.192538 -0.035284 0.027904 0.013869 -0.164478 -0.086286 -0.115851 -0.025857 -0.113248 -0.252455 -0.103066 -0.014769 0.096346 -0.034821 0.016478 0.205536 0.167105 -0.040707 -0.021126 0.214731 -0.01373 0.169297 0.054049 0.095003 0.139171 -0.132953 0.15614 -0.242937 0.06109 0.004167 0.184597 0.151248 0.055445 0.014003 -0.252558 -0.331437 0.119729 -0.052785 0.110388 0.228981 -0.068822 0.052204
-0.141735 -0.027872 0.09452 0.003413 0.059076 0.156868 -0.058411 -0.067813 -0.19242 0.006516 0.034811 0.126347 0.250093 0.030392 -0.151342 0.004812 -0.139806 0.141648 0.088007 0.267747 -0.022016 -0.036974 0.284786 0.014954 -0.107623 -0.096656 -0.057293 0.07725 -0.138222 -0.096544 -0.107288 -0.05273 0.065099 0.014741 -0.126854 -0.155058 0.10156 0.011281 0.21299 0.13288 0.180644 -0.212141 -0.014523 0.041835 -0.173971 -0.218906 0.172395 0.102318 -0.180247 0.178271 0.273705 0.082843 -0.01894 -0.173341 0.162613 -0.174057 -0.161384 -0.138868 0.16228 -0.216267 -0.02778 0.149042 -0.058335 -0.327922 0.021497 -0.060646 8.42E-4 0.148827 0.113429 -0.063505 0.050432 0.064966 -0.127406 -0.094458 -0.350119 -0.054338 -0.053567 -0.112331 -0.1996 -0.027936 -0.163759 0.14158 -0.071156 0.027327 -0.04434 -0.003528 0.108451 0.123163 0.326407 -0.012515 0.135187 -0.013262 -0.077869 0.105092 -0.100443 -0.127938 -0.006557 0.206681 -0.014108 0.148888
0.352905 0.550922 -1.128945 -0.511125 0.774489 1.405335 -0.371647 0.106012 -0.779785 -0.640302 -0.68578 1.570717 -0.712288 -0.706705 -0.789609 -0.045278 -1.599722 -2.840112 -0.089543 -1.158838 -1.862605 -0.62748 -0.063542 -0.468696 0.750564 0.033551 -0.772222 -0.188991 -0.163115 0.455978 0.038455 -0.779588 0.172303 -1.114448 -0.548246 -0.008155 1.66721 -0.744821 -0.15746 -2.668482 -0.304702 -0.905716 0.479063 0.151803 -0.94063 -0.044338 -0.906122 -0.456182 0.281891 0.268287 0.47007 0.628019 0.328428 1.471286 -2.345457 0.072073 -0.345477 -0.998199 -1.496897 -0.053061 0.351206 -0.934426 0.295591 0.07336 0.24092 0.486976 0.390085 -0.621556 0.375246 -0.02625 1.957847 1.014101 0.004675 0.08874 -0.900479 -0.462149 0.922254 1.355385 -1.048724 0.105897 1.254466 0.410718 0.321258 1.066395 -0.171761 -0.128774 0.315556 0.697301 -0.180925 0.555334 1.005586 -0.891677 -1.232923 -1.994189 -0.567812 0.204184 -0.947385 -0.051526 -0.987029 0.725141
-0.005265 0.165613 -0.088965 -0.0971 -0.142828 -0.196245 -0.084368 0.207897 0.257693 -0.042297 -0.103907 -0.012205 0.182594 0.045423 0.01871 -0.259488 -0.153064 0.232623 0.07726 0.11457 0.054285 0.076086 -0.001241 0.098323 0.230123 -0.030692 -0.126018 -0.035172 -0.100041 -0.105766 0.063701 -0.142821 -0.11652 -0.13442 0.030169 0.115127 0.001126 0.209421 -0.005197 0.106316 -0.1316 0.044148 0.085699 0.139701 0.182865 0.095002 -0.157175 0.047664 0.124528 0.143474 -0.087709 -0.076853 -0.13707 0.023058 0.079239 2.58E-4 -0.07407 0.078409 -0.06397 0.174735 0.14676 -0.230924 0.054548 -0.031608 0.158565 -0.123513 -0.152195 0.040427 0.002682 -0.069785 -0.119857 -0.007011 -0.111804 -0.165811 0.15201 -0.092337 0.048336 0.076244 0.009564 8.12E-4 -0.043513 0.052071 0.049709 0.139899 0.128798 -0.008313 -0.010745 0.174128 0.101252 0.123819 -0.132806 -0.028287 -0.248663 0.381969 -0.052871 -0.122188 0.109638 0.13306 0.118574 -0.12173
0.041182 -0.071701 -0.007566 -0.111173 0.078129 -0.015794 0.102992 0.084804 -0.294614 0.062785 -0.224475 0.044822 -0.054604 0.018822 -0.254624 0.187632 0.057536 -0.04948 0.077868 0.052887 -0.065284 -0.04327 -0.015092 0.035227 -0.120777 -0.01384 0.019468 0.133926 -0.002242 0.025286 0.056421 -0.140413 -0.062551 0.118069 0.067541 0.127629 -0.190311 0.209374 0.192921 0.054712 -0.148947 0.032204 -0.170128 -0.03032 -0.002925 0.169345 0.085453 -0.024603 -0.011659 -0.145112 -0.290293 -0.065943 -0.09053 -0.275955 0.113964 -0.118032 -0.172779 -0.215132 0.00824 0.127013 -0.169866 0.062208 0.042766 -0.087616 -0.10884 0.286924 0.050741 0.130539 0.292731 0.017204 -0.096873 -0.187146 0.25168 0.10377 0.08209 -0.05794 0.019952 -0.023549 -0.204179 -0.090327 0.135311 0.171028 -0.109687 0.012397 -0.001672 0.281126 0.051025 0.031007 0.309401 0.149164 -0.249441 -0.005679 -0.012549 0.20681 0.267068 -0.060891 -0.256129 0.182048 0.03837 0.01928
-0.341617 1.271173 -0.130955 0.795787 -2.761413 -0.037935 -2.08451 -0.749854 0.456374 0.189509 -1.784466 1.321352 -0.024572 0.775721 0.351052 -0.494201 0.597239 -2.035014 -1.822623 -1.26338 -1.852038 -3.261221 1.17085 -0.884857 0.341201 1.056519 -0.475283 -0.906839 -0.359697 -0.03678 0.485601 -0.573014 1.410657 0.602444 -0.65226 0.019708 2.334166 -4.120307 2.452699 0.37493 -0.43807 -0.885798 -0.909782 -0.866844 0.863746 -0.109914 -1.745782 -0.759427 1.102647 -0.229513 0.72866 5.020656 0.453599 0.948257 -0.341321 1.003234 1.507241 0.335139 -0.119095 -0.324834 2.432309 -1.518503 1.178541 1.207634 -1.537357 0.986701 1.190043 1.531747 -0.881239 0.152745 2.223002 -0.773424 1.003136 -1.671927 1.512302 -1.435468 2.471683 -0.288325 -0.945258 1.550236 1.231926 -1.03075 -3.561653 2.778667 1.207369 -1.904946 0.700824 -0.061776 -1.652007 -1.511937 -0.523117 -3.702699 1.471395 1.453605 -0.015539 0.288359 -0.016453 0.953476 -0.698522 -1.664865
-0.085278 -0.018944 -0.018746 -7.03E-4 0.08832 -0.182068 0.290569 0.093646 -0.017135 -0.058322 -0.140375 0.077983 0.016417 -0.04475 -0.168853 -0.055557 -0.052735 0.204794 0.088352 0.039963 0.090231 -0.063101 -0.008704 0.127473 -0.212389 -0.086864 0.124021 -0.131936 -0.113201 -0.067735 0.05398 -0.209241 -0.040763 0.194405 -0.056455 -0.001775 0.070776 -0.160011 0.025764 -0.034007 -0.075067 0.115191 -0.053995 0.087008 -0.030357 0.019601 0.15326 -0.033681 0.039396 -0.031019 -0.058718 -0.112758 -0.254805 -0.291083 -0.031067 0.198396 -0.01979 -0.184313 -0.129462 -0.187633 0.006889 -0.139059 -0.186474 -0.083367 -0.028212 0.006819 0.061482 0.047077 -0.148715 -0.13979 0.076212 0.313443 0.092854 0.005716 -0.020368 0.045753 0.079849 0.135681 -0.109056 0.040038 -0.102562 0.080771 0.049139 -0.117191 -0.041379 0.208405 -0.148055 0.059879 0.100362 0.4754 -0.194538 -0.042426 -0.159608 -0.017552 0.076351 -0.176571 0.221784 0.468253 0.019092 0.154989
-0.03734 -0.134387 -0.101558 0.039962 -0.090274 -0.165337 -0.033574 -0.094488 0.005318 0.084802 0.09789 0.16338 -0.11799 -0.075408 0.166999 0.245264 0.147879 0.166978 0.106614 0.02358 -0.127978 0.071469 0.197507 0.111895 -0.083646 -0.061961 -0.09338 -0.055126 0.120611 -0.133231 -0.059146 -0.00745 -0.054762 0.090634 -0.035851 -0.173588 0.008311 -0.085917 -0.038265 0.0455 -0.018654 0.132518 -0.083835 0.001072 -0.010491 -0.308809 -0.013982 0.016134 -0.279098 -0.081584 0.064586 -0.186375 0.080354 0.023376 0.136723 -0.013516 0.038251 0.09672 -0.077553 -0.082424 0.07994 -0.134538 0.160088 -0.23723 -0.002978 -0.014843 0.040835 -0.020867 0.038462 -0.109646 -0.03435 0.056719 -0.055228 -0.02507 0.083543 -0.016481 0.071122 -0.036731 0.067727 -0.054098 0.011492 0.089237 0.216616 -0.161973 -0.046082 -0.008067 0.050372 0.159675 0.054507 -0.034927 -0.088065 0.0282 0.099391 -0.017908 -0.072471 0.067582 0.100622 -0.180538 0.028355 -0.030095
2.085649 -2.66565 1.005181 -0.91708 -0.867388 -0.600351 -0.577158 2.269467 1.22878 -0.555551 2.396344 0.747401 -0.479669 0.291456 0.455476 -1.0586 0.845808 0.369596 -0.41777 1.206955 -2.725564 1.121304 2.377656 -1.295825 -1.380381 0.554651 -0.076354 3.274502 -0.323878 0.927954 1.117231 -0.64792 0.933768 1.06258 -3.808306 1.72674 -1.893354 0.738804 0.174169 -1.184344 1.361639 0.563347 0.425585 -2.297181 0.127795 0.516276 1.331414 0.766875 -0.421406 0.79114 -1.085041 1.491397 0.289058 2.939185 -0.562374 -0.566229 -0.425151 0.423987 -1.027497 0.8375 1.947439 -1.811611 -1.107938 2.690367 1.972075 -0.963076 0.798717 -2.325777 1.228227 0.993453 0.899298 0.844218 -2.638254 0.129598 -1.273239 0.350017 -1.047041 0.577212 1.177559 1.711791 -0.704186 -2.039394 0.380434 0.119203 0.540652 1.026338 1.006174 1.542342 -1.324905 2.072319 -2.535352 0.996856 0.084132 0.577743 -0.102676 2.909314 -3.082454 0.307587 -1.710451 1.99895
0.046388 -0.164417 0.054138 -0.203604 -0.527236 0.069999 -0.59801 0.312587 -0.213166 0.182326 0.472747 -0.180961 -0.11613 0.266851 -0.412124 -0.375019 0.241826 -0.093938 0.204779 0.552241 -0.485591 0.431159 0.624505 -0.149505 0.027312 0.284387 -0.011935 0.337329 0.229908 -0.238998 -0.502447 -0.338441 0.101503 0.035852 -0.607622 0.278817 -0.310739 -0.006057 -0.086991 -0.007398 -0.132223 0.147556 0.426191 -0.636444 0.646068 -0.275961 -0.16908 -0.077308 -0.506414 -0.057163 -0.335891 -0.305032 0.31866 0.602435 -0.088872 -0.181209 0.026734 -0.211666 -0.124605 0.290989 0.587702 -0.566818 -0.302469 0.287777 0.630832 -0.555679 0.439833 -0.429788 0.070774 0.165661 -0.02763 0.286947 -0.200171 0.214827 -0.161421 -0.291093 -0.263722 0.575363 0.490953 0.194618 -0.152388 -0.205074 0.640795 0.033292 -0.073815 0.033802 0.0087 0.382807 -0.344153 0.452731 -0.808096 0.050682 0.113092 0.371501 0.136056 0.468073 -0.373102 -0.346874 -0.436354 0.150733
1.519526 1.445578 -1.609499 2.582747 2.460795 3.529971 0.431498 -0.524736 0.238502 0.565084 -2.150664 2.607871 -3.578636 0.22885 1.205379 0.400126 -2.365878 -2.228676 -0.500047 -1.958516 -2.734259 -2.028213 -0.339577 -2.726884 0.003785 -1.85554 -0.90189 1.042933 0.930181 0.561229 0.956561 0.220468 -1.219533 -0.188243 -0.649085 -0.117874 2.101841 -0.317004 1.300647 -1.49228 0.533457 -2.976113 -0.635474 -1.431524 -0.943268 0.543614 -2.072507 -1.004219 4.072807 -1.496014 2.612373 2.458477 -0.120651 0.418572 -2.53177 0.646754 2.04053 2.0667 -2.403623 -3.037353 -1.289071 1.269349 0.447478 0.512568 0.464348 -0.142416 -1.155552 0.32258 -0.986119 3.909852 3.839548 0.865499 -1.089316 -1.400134 0.517204 -3.398406 -0.576028 -0.612853 -0.573641 -1.979957 1.278503 1.159562 0.583915 -0.210028 0.851463 1.075476 2.276915 0.114312 2.2836 1.968815 1.899569 0.001135 -2.286771 -2.666814 -1.408445 1.975128 -0.085175 1.44887 -1.994305 2.796178
1.51713 0.950998 -0.43035 1.410565 1.027436 -0.021932 -0.446363 2.014639 -1.367287 -0.918352 -0.238369 -0.583637 1.276085 2.410767 0.73524 -0.15024 -0.680788 0.540768 -4.791297 -0.527541 -1.792397 2.281269 -1.972297 1.909008 0.906279 -0.575539 -1.816574 -2.135859 -3.533016 2.209813 2.599934 -3.737719 -1.60086 -3.001603 -3.728525 -0.759598 0.009888 -1.240785 -3.960285 -0.934149 1.498481 -3.789986 0.521224 -1.196375 -1.411245 -1.454399 -1.089609 -0.558878 1.182928 -0.369626 3.654269 1.714898 -0.545065 -1.442425 -3.594375 -1.122622 0.863868 -1.031306 -1.259423 -1.192458 -1.02248 -0.593149 -0.642908 1.307686 -0.362551 -1.302147 0.495603 -2.945837 -1.743057 1.619189 2.335525 -3.309908 -1.940478 2.695575 0.207934 0.223261 -2.343333 -0.356945 -1.7503 1.252601 1.358825 -1.229506 -1.651647 -0.467668 0.469764 -3.772937 1.519435 1.437086 0.207474 1.961345 0.765705 -0.622458 -2.069355 1.397011 1.495126 -1.007558 -0.943656 2.980306 -2.320673 0.76536
-0.163277 0.076686 0.112111 0.05244 -0.183941 0.217988 -0.02059 -0.096797 -0.090173 0.089789 -0.229592 0.088339 -0.044216 0.082547 -0.031816 0.085445 -0.095316 0.057866 -0.19791 -0.158896 -0.024833 0.053132 0.107729 0.043659 0.024945 0.034456 -0.018754 -0.24355 0.011721 0.062636 0.054046 0.006557 0.13147 -0.086898 -3.6E-5 -0.019005 -0.027431 0.104249 -0.176051 -0.184885 0.081575 0.09695 -0.044702 -0.044943 0.024384 -0.1404 -0.089474 0.048682 0.014823 0.062049 0.046434 0.047795 0.070375 0.092717 0.039007 -0.081625 -0.089906 -0.184656 0.016678 -0.036232 0.079896 -0.077232 0.051417 -0.061114 -0.037219 -0.201518 -0.088165 -0.007223 0.156874 0.018748 -0.002624 0.063955 -0.069887 0.101881 0.014766 0.08769 -0.127042 0.144712 -0.096802 0.001795 -0.148186 0.212992 -0.197717 -0.011825 0.070912 -0.092115 -0.038068 -0.057104 0.128432 0.032119 0.038265 0.06996 0.098505 0.02678 -0.107814 -0.119337 0.168073 0.048082 -0.088037 0.101097
-0.195532 -0.028347 0.158611 0.373898 0.101151 0.08466 0.1359 -0.095891 -0.120212 0.571661 0.260899 0.164165 -0.152295 0.222132 0.137767 0.344642 0.050327 -0.242739 0.30106 0.195119 -0.089901 0.27893 0.249494 -0.366344 0.392177 -0.04024 0.049262 0.246917 0.057968 -0.248636 -0.403349 -0.179828 -0.142261 0.152513 -0.200748 -0.219331 -0.084549 -0.166376 0.192293 -0.037258 -0.114452 -0.06918 0.179016 0.165051 0.147692 0.185313 -0.003204 0.197475 -0.225704 0.240832 -0.319968 0.149556 -0.284221 0.030804 -0.182722 -0.094924 0.135127 -0.015831 0.207891 -0.199154 -0.090297 0.364814 -0.281087 -0.179074 -0.121827 -0.012161 0.21697 -0.027075 0.41018 -0.402328 -0.138421 0.032027 -0.184499 -0.17026 -0.131253 -0.330734 -0.615389 0.224428 -0.340828 0.045558 0.021155 0.30591 0.009042 -0.021907 0.261319 -0.050778 0.07314 -0.07502 0.073293 0.084025 0.308571 0.139821 -0.160494 0.026402 -0.044303 -0.463138 0.188344 -0.054118 -0.3853 -0.16608
8.02E-4 0.113274 0.239955 0.019791 0.060822 0.066653 -0.18803 -0.181455 -0.172442 0.189579 -0.125915 0.276009 0.017447 0.067658 -0.043124 0.001115 0.132286 -0.117185 -0.127121 0.037512 -0.218123 0.075745 -0.019897 -0.383425 0.114211 -0.069044 -0.272139 0.315528 0.056189 -0.038968 -0.009863 0.164082 0.025665 -0.070743 -0.211674 -0.098686 0.134056 -0.119225 0.026682 -0.109437 0.167262 -0.023575 -0.163514 0.172072 0.027348 0.124248 0.033429 0.048972 -0.074829 0.256247 -0.053352 0.012185 0.022959 -0.10847 0.074909 -0.163196 0.077026 0.002255 0.260031 -0.002612 0.025774 0.078423 -0.074255 -0.170231 -0.051747 -0.063842 0.220663 0.048441 0.103424 0.084555 -0.234035 0.140251 -0.268317 0.064311 0.067096 -0.104447 -0.083611 -0.00378 -0.056012 -0.058461 -0.018809 0.095198 -0.019901 -0.023341 0.10944 -0.095852 0.098267 -0.054978 0.152886 0.266627 -0.011102 0.002504 -0.061412 0.234565 -0.129707 -0.026828 -0.141976 0.094846 -0.131828 -0.05952
-0.105988 0.031855 0.005939 -0.039274 -0.005731 -0.093847 -0.039286 -0.157823 -0.097337 0.049918 -0.040679 0.096208 -0.069877 -0.073057 0.004303 0.064172 0.015135 0.124306 0.077773 0.025433 7.52E-4 0.065444 0.047516 -0.045022 -0.151977 0.03351 0.054767 0.008717 0.108976 -0.021715 0.065799 0.233536 -0.053442 0.084592 -0.150569 0.148868 0.180353 0.110203 -0.051285 0.037935 0.009227 0.007792 0.089305 0.011351 -0.075385 0.072956 -0.101744 -0.11912 -0.012429 0.149686 0.120916 -0.029297 0.094703 0.143437 -0.116787 -0.117037 0.060894 -0.017854 -0.02067 -0.143812 -6.01E-4 0.014297 0.023963 0.038914 0.042695 0.066635 0.011537 -0.136807 -0.155453 0.017983 -0.042129 -0.005463 0.087709 0.115145 0.046497 0.028707 -0.121481 0.003932 0.069623 -0.049665 0.106226 0.060274 0.049838 -0.071274 -0.061178 -0.035997 0.069745 0.256352 -0.109334 0.138892 -0.163249 -0.244116 -0.12318 0.001865 -0.080454 -0.017466 0.07915 -0.078504 0.091102 0.085421
-3.060694 3.944421 0.594395 1.240519 1.590252 0.14086 1.977822 -1.320438 -0.270145 0.078415 -0.701518 1.503149 -0.076238 -2.322129 0.931707 3.88907 -3.637779 -0.838586 -1.742846 2.10774 -2.123302 -1.885707 0.932712 -2.723 0.485457 2.251003 4.293851 -0.391725 -2.075526 -0.488557 -1.044331 -0.26396 1.474149 -0.157668 -2.630993 1.287193 -0.137211 0.421578 -0.682735 0.452479 0.737949 -3.602325 -1.109492 0.349809 0.166071 2.790299 -1.836968 0.494303 1.963397 2.876652 -0.591136 1.408314 2.428555 -1.471396 -0.844206 0.295759 -2.874214 -2.033604 -4.020904 -4.00203 2.947384 0.731884 -4.388597 0.269191 -2.977119 -1.540478 -0.323891 -0.519491 -0.317246 0.923041 3.533086 -2.016659 -0.762293 0.095485 0.345023 -4.959274 -1.321462 -2.068345 -1.326342 0.167266 0.679792 0.27268 -0.137474 1.347941 -2.850258 -0.209478 1.285648 2.430632 -0.273237 2.092334 2.765925 -2.461446 -2.912329 2.326273 -1.407489 3.059108 -0.769401 -1.631398 -0.113494 1.288471
-0.122631 0.128558 0.101251 0.101383 0.343641 -0.055849 -0.044729 -0.121503 0.162618 0.017017 0.00479 0.217074 -0.048278 -0.032868 -0.090584 0.071937 -0.146233 0.206465 -0.087447 0.010113 -0.101711 -0.082134 -0.042429 0.107218 -0.024382 -0.101942 0.046599 0.081553 -0.096163 -0.250086 -0.066914 0.045742 0.021268 0.14729 -0.186661 -0.030936 -0.043628 0.037247 -0.095854 -0.06126 -0.018754 0.066711 -0.132918 0.080139 -0.128483 0.117759 -0.006704 -0.117809 0.045961 -0.035101 -0.147484 0.045484 0.075963 -0.088211 0.263026 0.032648 -0.083645 -0.062752 0.002264 -0.067673 -0.006515 0.03846 -0.074372 -0.074802 0.045112 -0.111391 -0.045047 -0.023662 -0.20015 -0.020857 0.179506 0.02836 -0.018229 0.124193 -0.032268 -0.001133 -0.064416 -0.060862 -0.126574 -0.045871 0.073595 0.04722 0.035658 -0.09287 -0.137881 0.035751 -0.048815 -0.097574 0.045039 0.08144 0.107296 0.026119 0.132943 0.187861 0.159077 -0.163619 -0.106516 -0.204832 0.010503 0.121659
0.201522 -0.038247 0.199364 0.232119 0.335323 0.294617 -0.319506 -0.087817 0.073441 0.199354 0.130732 0.035695 -0.152396 0.114294 0.148531 0.201758 -0.382773 -0.008134 -0.218538 -0.225887 -0.038921 -0.042941 0.172595 -0.043109 -0.166686 -0.018235 0.043095 -0.147864 0.086438 -0.125118 0.024659 -0.135408 0.121817 -0.104121 -0.214651 -0.072714 -0.045089 -0.150489 0.108806 0.11444 0.021035 -0.040482 0.030944 -0.132224 -0.058658 0.117341 0.083027 -0.020076 0.302271 0.055671 0.04098 0.142556 -0.135397 0.198693 0.325696 0.331319 -0.007252 0.034834 0.328798 -0.110615 0.065567 0.017401 0.027532 0.095048 0.262877 -0.033632 0.324186 -0.018797 -0.078261 0.082797 0.082349 -0.035289 0.057175 0.112314 0.038199 0.439272 0.104365 0.160945 0.088402 0.049369 -0.214149 -0.158766 -0.286513 -0.270742 0.118211 0.021953 -0.154609 -0.042126 -0.022771 0.233359 -0.315244 -0.073453 -0.107278 -0.095932 0.044489 -0.362543 0.032558 0.270737 -0.116556 -0.035789
0.038879 -0.189124 -0.004296 -0.071356 0.059909 0.019719 -0.084446 -0.086602 -0.091351 0.27392 0.268827 0.197099 -0.061725 -0.099979 0.032393 0.122435 -0.026355 0.205966 0.127768 -0.040536 -0.247468 0.126229 0.225568 -0.004792 -0.189948 -0.049082 0.006028 -0.032572 0.206358 -0.159202 -0.170065 -1.47E-4 -0.016746 0.021821 -0.230161 -0.051813 -0.022108 -0.130553 0.098463 -0.061701 -0.167863 0.153139 0.091029 -0.036506 0.184478 -0.114265 0.043978 -0.088294 -0.114218 0.037599 -0.036793 -0.21311 0.05194 0.122841 0.045239 -0.032822 0.137219 -0.044966 0.098979 -0.042508 -0.060284 -0.063579 0.065456 -0.199353 -0.064369 -0.036195 0.043013 -0.033746 0.272411 -0.183746 -0.038987 0.042465 0.022818 -0.028009 0.001901 -0.101135 -0.276581 0.062028 -0.105651 -0.018709 -0.056702 0.278082 0.156567 -0.267429 -0.119503 0.077102 0.06595 0.048358 0.089367 0.133218 -0.277736 -0.086071 0.029656 0.123684 -0.079591 -0.206988 -0.007119 0.087389 -0.06197 0.004951
0.0 0.0 0.0 0.0 0.0 0.0 0.0 0.0 0.0 0.0 0.0 0.0 0.0 0.0 0.0 0.0 0.0 0.0 0.0 0.0 0.0 0.0 0.0 0.0 0.0 0.0 0.0 0.0 0.0 0.0 0.0 0.0 0.0 0.0 0.0 0.0 0.0 0.0 0.0 0.0 0.0 0.0 0.0 0.0 0.0 0.0 0.0 0.0 0.0 0.0 0.0 0.0 0.0 0.0 0.0 0.0 0.0 0.0 0.0 0.0 0.0 0.0 0.0 0.0 0.0 0.0 0.0 0.0 0.0 0.0 0.0 0.0 0.0 0.0 0.0 0.0 0.0 0.0 0.0 0.0 0.0 0.0 0.0 0.0 0.0 0.0 0.0 0.0 0.0 0.0 0.0 0.0 0.0 0.0 0.0 0.0 0.0 0.0 0.0 0.0
2.986683 0.891048 0.502242 2.563102 -0.833594 1.074317 3.695644 -0.777531 2.188026 -0.699979 0.036443 0.733135 -1.432868 -0.891451 -1.142959 -0.942936 1.068958 -1.874863 -5.092594 -1.1966 -1.959903 -2.195483 -2.042068 -1.143233 -1.459129 -1.317735 2.335449 -2.434227 0.201016 -0.60309 3.022425 -0.350954 -0.742291 -3.692008 -0.428454 2.260322 1.299332 2.709176 1.349321 -0.696621 1.114271 -3.635821 0.008208 1.672507 -0.838007 2.333875 -2.054475 0.380345 1.490836 -0.726134 0.769087 3.405334 -1.16381 3.050478 -0.068498 -4.041586 4.555243 -0.814241 -1.668317 0.224789 -0.566141 -0.288359 0.917884 0.934006 -3.229766 1.334999 2.586487 0.072999 0.113326 0.865491 3.495866 2.934418 -0.434585 -2.448313 -1.514856 -0.37738 0.862876 1.158082 -2.049671 3.100108 -0.871714 -1.041083 -2.50899 0.427097 1.673651 2.875635 3.071153 2.417479 -1.666681 -0.917672 -0.608627 3.287783 -1.69514 -2.40585 -1.155071 1.198252 -1.330375 1.26239 -2.958205 2.412288
-0.895303 -0.502746 0.147086 2.904988 -0.675229 1.477504 -0.211327 1.51698 -2.147745 0.077825 0.657474 0.336427 -0.182904 2.021077 1.53094 0.325635 -0.047374 -2.785726 -1.39518 -0.637063 1.116796 -2.131305 0.770024 -0.805966 0.153579 -0.018533 2.44098 0.274999 2.270784 3.614658 -0.441323 -1.945492 -0.62354 -1.969077 1.187036 0.839384 0.164427 -1.148598 -1.252852 -0.377287 -4.000254 -4.203346 -0.586959 2.467858 -2.415704 0.576514 -2.688904 4.370127 1.506845 2.96571 3.338651 1.26166 2.386784 0.372135 -1.799138 0.595625 -3.029104 3.108212 0.190521 -2.252167 3.892553 0.691249 -0.469749 0.767359 2.533747 1.575118 1.805351 -3.822411 1.665001 1.26934 4.12885 1.705492 0.020874 0.84653 -2.29268 -0.52015 0.773216 -1.309162 2.02159 3.238193 0.049248 0.063972 2.777138 0.104812 -1.695828 0.423193 0.046516 2.836035 -2.161154 -1.835464 2.061084 -4.626534 -2.674416 -0.353638 -1.614879 0.743406 -2.551022 1.850807 1.280547 -1.626849
-0.178361 0.023108 0.030516 -0.00779 -0.127135 0.033774 -0.058489 0.108023 -0.081989 0.181792 0.15754 -0.042374 0.022531 0.074904 0.06134 0.212379 0.125077 0.182368 0.042925 0.141779 -0.175989 0.068378 0.056694 0.173894 -0.156246 -0.052193 0.009312 0.006255 0.137546 -0.101633 -0.01366 -4.65E-4 -0.057965 0.105498 0.088793 -0.099231 -0.069107 0.033709 -0.094455 0.070188 0.08289 0.088396 0.081002 -0.251021 0.005646 -0.147359 -0.131828 0.036224 -0.096342 -0.051767 -0.006245 -0.057025 -0.177246 0.121287 0.13194 -0.054862 -1.47E-4 -0.090271 0.044172 -0.094164 0.068466 0.014386 0.044188 0.055794 -0.294903 -0.052435 0.071505 -0.126545 0.164685 -0.079436 -0.032483 0.014316 0.023237 0.036095 -0.003958 -0.126208 -0.175707 0.050816 0.018969 -0.135684 -0.112811 0.192106 0.262908 -0.161332 0.045463 -0.091907 -0.012066 -0.066752 -0.01573 0.008406 -0.178769 -0.032234 0.170579 0.307644 -0.092665 -0.064283 -0.192889 -0.104724 0.032471 -0.060748
0.305527 -0.089901 0.107797 0.039249 0.080543 -0.023639 0.207728 0.316006 0.062313 0.128192 -0.09655 0.015669 -0.085788 0.055051 0.099828 -0.055451 -0.218524 0.16158 -0.016715 0.057037 -0.057567 -0.065178 -0.041134 0.298791 0.017763 0.224407 0.090732 -0.21472 -0.073612 0.03252 -0.184468 0.022568 -0.069446 -0.002326 0.062874 0.231417 0.044785 0.206157 0.081316 0.087334 0.031843 -0.067334 0.027586 -0.37006 -0.10362 0.09155 -0.124738 0.289558 -0.115339 -0.19118 -0.250696 0.401061 0.082603 -0.037928 -0.238239 0.089904 0.150108 -0.014525 -0.153926 -0.173213 0.024685 -9.48E-4 0.317706 0.067231 -0.115319 -0.12783 -0.084165 0.053238 -0.150689 0.17368 0.220611 -0.050532 0.050236 0.075959 0.042327 -0.081907 0.077509 0.092859 -0.070242 -0.047681 -0.021035 -0.118216 -0.033067 -0.05355 0.004375 -0.419499 0.081192 0.070665 0.176036 -0.029294 0.056977 0.065751 -0.094644 0.194289 -0.140604 -0.025403 0.035903 0.198845 0.138674 0.048332
0.0 0.0 0.0 0.0 0.0 0.0 0.0 0.0 0.0 0.0 0.0 0.0 0.0 0.0 0.0 0.0 0.0 0.0 0.0 0.0 0.0 0.0 0.0 0.0 0.0 0.0 0.0 0.0 0.0 0.0 0.0 0.0 0.0 0.0 0.0 0.0 0.0 0.0 0.0 0.0 0.0 0.0 0.0 0.0 0.0 0.0 0.0 0.0 0.0 0.0 0.0 0.0 0.0 0.0 0.0 0.0 0.0 0.0 0.0 0.0 0.0 0.0 0.0 0.0 0.0 0.0 0.0 0.0 0.0 0.0 0.0 0.0 0.0 0.0 0.0 0.0 0.0 0.0 0.0 0.0 0.0 0.0 0.0 0.0 0.0 0.0 0.0 0.0 0.0 0.0 0.0 0.0 0.0 0.0 0.0 0.0 0.0 0.0 0.0 0.0
-0.105988 0.031855 0.005939 -0.039274 -0.005731 -0.093847 -0.039286 -0.157823 -0.097337 0.049918 -0.040679 0.096208 -0.069877 -0.073057 0.004303 0.064172 0.015135 0.124306 0.077773 0.025433 7.52E-4 0.065444 0.047516 -0.045022 -0.151977 0.03351 0.054767 0.008717 0.108976 -0.021715 0.065799 0.233536 -0.053442 0.084592 -0.150569 0.148868 0.180353 0.110203 -0.051285 0.037935 0.009227 0.007792 0.089305 0.011351 -0.075385 0.072956 -0.101744 -0.11912 -0.012429 0.149686 0.120916 -0.029297 0.094703 0.143437 -0.116787 -0.117037 0.060894 -0.017854 -0.02067 -0.143812 -6.01E-4 0.014297 0.023963 0.038914 0.042695 0.066635 0.011537 -0.136807 -0.155453 0.017983 -0.042129 -0.005463 0.087709 0.115145 0.046497 0.028707 -0.121481 0.003932 0.069623 -0.049665 0.106226 0.060274 0.049838 -0.071274 -0.061178 -0.035997 0.069745 0.256352 -0.109334 0.138892 -0.163249 -0.244116 -0.12318 0.001865 -0.080454 -0.017466 0.07915 -0.078504 0.091102 0.085421
0.102519 0.028331 -0.323752 -0.030371 0.104924 -0.018281 0.016625 0.097465 0.083907 0.042919 0.182849 0.180972 0.021027 0.084685 -0.03502 0.052915 0.021381 0.027639 0.138573 -0.029942 -0.076517 0.082537 0.147973 0.028719 -0.012541 -0.183043 0.099658 0.245425 0.125143 -0.016801 -0.126491 -0.088197 -0.059153 0.181222 0.004954 -0.021093 0.093898 0.1473 0.037113 -0.041264 0.084385 -0.277585 0.046048 0.123366 -0.1312 0.057693 0.07317 0.075514 -0.00736 0.022486 -0.064039 -0.104485 -0.129569 0.008917 -0.043765 -0.031673 -0.224168 -0.125023 -0.181158 -0.020923 0.007337 -0.03322 -0.003247 -0.016517 0.027804 0.039792 -0.112792 -0.066678 0.060736 -0.02802 0.020393 -0.090665 0.047658 -0.069936 -0.048246 0.009147 0.079742 -0.184286 -0.059049 -0.151283 0.087534 -0.067633 0.062004 -0.075468 -0.186111 0.007025 -0.104962 0.126863 -0.105695 0.040183 -0.148772 0.00369 -0.055889 -0.114913 -0.007486 -0.011989 -0.054275 0.092619 0.014127 0.185005
2.591633 1.608701 -2.087245 2.00752 3.012652 4.995656 0.847355 -1.594905 -0.365708 -1.629805 -1.650237 3.712017 -0.231463 -0.537534 -2.036098 2.002639 -0.696666 -4.310136 -1.477319 -1.356504 -0.581823 -1.830239 -0.272773 -1.648095 0.090509 0.008711 0.330842 0.396714 2.341035 -0.526067 1.155793 -1.730906 -1.010387 -1.342646 -1.939355 0.734869 0.727366 0.700702 1.516974 -2.133831 -0.280653 -3.051674 0.017123 0.532043 1.478449 0.375441 0.920129 1.548929 1.087478 0.668327 0.707416 3.249232 -0.362503 1.273221 -2.929682 -0.245389 1.633444 -0.119836 0.103459 -3.445175 0.513245 0.427807 0.738792 1.448203 0.501908 0.362882 -0.731533 -0.391201 0.037778 3.053553 4.030229 1.793904 1.24136 0.081706 -1.401954 -0.638804 -0.487445 -0.267924 0.012844 0.538179 -0.241935 -0.068756 1.351665 -0.112558 0.001814 0.447262 0.833441 -0.023876 1.212707 1.514635 -0.568611 0.376173 -3.663739 -4.345135 -0.444319 2.139788 -2.53093 0.92131 -1.399435 1.763954
2.509146 -0.552161 1.034535 1.378933 0.121525 1.267112 -0.264166 1.44874 -0.585351 0.814742 -0.556444 -0.769829 0.721693 3.504652 2.522097 0.698651 -2.00194 1.27341 -3.938691 -1.249814 1.206217 2.236896 -2.105178 2.803302 0.476807 1.734094 -0.304557 -1.727252 -6.730148 2.015861 7.327693 -2.709538 -0.991304 -4.232084 -1.93599 -1.471528 -0.332715 -1.233527 -6.406514 0.046641 0.97283 -0.994667 1.86544 -0.041745 -2.464909 -0.251897 -0.88735 0.232848 -2.86783 -0.039329 0.834739 1.260419 0.129091 -0.430997 -3.704259 -2.831278 0.963296 -3.750342 -1.569821 1.286868 -3.171957 -2.014259 1.227737 0.595818 0.410501 1.398568 -0.483599 -3.157001 2.474234 2.699517 2.327858 -3.891064 -0.294445 1.084606 0.59068 -0.277707 -0.669147 2.024913 0.165398 2.562466 2.359209 -3.092515 -1.052526 -1.255511 1.589703 -4.733644 -0.797907 -0.877859 -0.593432 1.52866 -0.748336 2.11786 -1.366948 -0.910751 -0.194893 -2.824154 0.189273 2.667272 -0.730916 1.569461
1.520346 0.582521 -0.566722 0.672926 -3.445116 1.658963 2.198538 -0.08167 -0.989839 -2.163993 -0.863694 -0.894638 -0.578166 1.188526 1.959891 2.365635 -0.395062 -0.02765 -2.108514 1.120336 -1.88414 -1.013965 -1.787603 -1.997053 1.760792 -1.333675 -0.293454 -0.726163 0.094776 -2.284538 2.504797 0.565388 0.023872 3.085597 0.307704 1.998303 -0.147506 -0.366739 0.412013 0.195531 3.729466 -3.013559 0.931348 0.951273 -1.43188 -0.104025 0.084536 2.305703 1.677983 0.995194 -0.107804 0.131143 0.786624 1.309492 -1.77684 -3.353511 -0.959324 -1.494036 0.632148 -1.541332 -0.766978 0.940467 -1.987767 -0.154009 0.217205 -2.748383 1.682925 -1.945856 0.627521 -0.213196 4.809887 -0.44873 -2.747047 -1.212698 -0.173429 -2.488667 -2.686184 0.463817 0.770117 0.806446 1.328574 -2.189878 -0.813051 -1.256556 0.334516 -1.78635 2.290336 -0.57806 -0.393639 0.185468 1.580344 -2.354734 -0.027256 0.145929 3.273494 -0.079207 -1.113277 1.959356 -1.42397 1.465904
0.05445 -0.154969 0.166303 0.137215 0.054534 -0.055247 -0.03007 -0.029194 -0.041704 -0.03219 -0.044052 0.158211 0.018569 0.079159 0.222411 0.273041 -0.05517 -0.059452 -0.007637 0.024361 -0.107348 -0.155667 -0.01122 0.058027 -0.020956 0.012614 -0.01486 -0.08957 0.081073 -0.10561 0.00956 -0.119328 -0.026298 -0.131649 -0.027708 -0.09139 0.06201 -0.094384 0.097205 -0.077073 -0.004379 -0.069626 -0.063017 0.080011 0.22157 0.049305 0.03294 -0.067514 0.024777 -0.01973 -0.072228 0.017215 -0.080971 -0.199317 0.122434 0.071172 -0.015927 -0.089741 -0.041939 -0.042975 -0.040509 -0.103942 -0.055095 0.049877 -0.117821 -0.027318 -0.08616 0.028884 0.057418 -0.024416 0.027208 0.016066 0.100084 -0.222348 0.114991 -0.195646 -0.06204 0.048645 0.029994 -0.086205 0.067047 -0.099119 0.080772 0.025108 -0.152555 -0.096488 -0.11049 0.005272 0.068805 -0.128175 0.034361 0.18292 0.060455 0.147935 0.109379 -0.042941 -0.120867 -0.12911 0.044019 0.177504
0.0 0.0 0.0 0.0 0.0 0.0 0.0 0.0 0.0 0.0 0.0 0.0 0.0 0.0 0.0 0.0 0.0 0.0 0.0 0.0 0.0 0.0 0.0 0.0 0.0 0.0 0.0 0.0 0.0 0.0 0.0 0.0 0.0 0.0 0.0 0.0 0.0 0.0 0.0 0.0 0.0 0.0 0.0 0.0 0.0 0.0 0.0 0.0 0.0 0.0 0.0 0.0 0.0 0.0 0.0 0.0 0.0 0.0 0.0 0.0 0.0 0.0 0.0 0.0 0.0 0.0 0.0 0.0 0.0 0.0 0.0 0.0 0.0 0.0 0.0 0.0 0.0 0.0 0.0 0.0 0.0 0.0 0.0 0.0 0.0 0.0 0.0 0.0 0.0 0.0 0.0 0.0 0.0 0.0 0.0 0.0 0.0 0.0 0.0 0.0
2.986683 0.891048 0.502242 2.563102 -0.833594 1.074317 3.695644 -0.777531 2.188026 -0.699979 0.036443 0.733135 -1.432868 -0.891451 -1.142959 -0.942936 1.068958 -1.874863 -5.092594 -1.1966 -1.959903 -2.195483 -2.042068 -1.143233 -1.459129 -1.317735 2.335449 -2.434227 0.201016 -0.60309 3.022425 -0.350954 -0.742291 -3.692008 -0.428454 2.260322 1.299332 2.709176 1.349321 -0.696621 1.114271 -3.635821 0.008208 1.672507 -0.838007 2.333875 -2.054475 0.380345 1.490836 -0.726134 0.769087 3.405334 -1.16381 3.050478 -0.068498 -4.041586 4.555243 -0.814241 -1.668317 0.224789 -0.566141 -0.288359 0.917884 0.934006 -3.229766 1.334999 2.586487 0.072999 0.113326 0.865491 3.495866 2.934418 -0.434585 -2.448313 -1.514856 -0.37738 0.862876 1.158082 -2.049671 3.100108 -0.871714 -1.041083 -2.50899 0.427097 1.673651 2.875635 3.071153 2.417479 -1.666681 -0.917672 -0.608627 3.287783 -1.69514 -2.40585 -1.155071 1.198252 -1.330375 1.26239 -2.958205 2.412288
0.0 0.0 0.0 0.0 0.0 0.0 0.0 0.0 0.0 0.0 0.0 0.0 0.0 0.0 0.0 0.0 0.0 0.0 0.0 0.0 0.0 0.0 0.0 0.0 0.0 0.0 0.0 0.0 0.0 0.0 0.0 0.0 0.0 0.0 0.0 0.0 0.0 0.0 0.0 0.0 0.0 0.0 0.0 0.0 0.0 0.0 0.0 0.0 0.0 0.0 0.0 0.0 0.0 0.0 0.0 0.0 0.0 0.0 0.0 0.0 0.0 0.0 0.0 0.0 0.0 0.0 0.0 0.0 0.0 0.0 0.0 0.0 0.0 0.0 0.0 0.0 0.0 0.0 0.0 0.0 0.0 0.0 0.0 0.0 0.0 0.0 0.0 0.0 0.0 0.0 0.0 0.0 0.0 0.0 0.0 0.0 0.0 0.0 0.0 0.0
-0.090259 -0.111699 0.083007 0.104922 -0.080552 -0.006465 -0.14193 0.039366 -0.146482 0.130596 0.105667 0.199219 0.101208 -0.079571 0.059198 0.168784 0.02329 0.110313 0.183734 0.104524 -0.023881 0.096599 0.154057 -0.080851 -0.077254 -0.141371 -0.027262 0.051471 0.102135 -0.018877 -0.003377 0.049428 -0.041053 -0.014493 -0.153185 -0.133243 0.030612 0.026585 0.08876 0.038483 -0.08583 0.258507 0.102897 0.024986 0.011393 -0.050879 -0.043492 -0.02353 -0.13523 0.046787 -0.073767 -0.15082 -0.101347 0.063944 0.136658 -0.157006 0.152878 -0.006232 0.055142 -0.071172 0.174401 -0.080674 -0.038343 -0.049721 -0.088275 -0.062091 0.097766 -0.033624 -0.022131 -0.103829 -0.102216 -0.084123 -0.085962 0.069345 0.079485 -0.118701 -0.068718 0.006739 0.006746 -0.005817 -0.10041 0.098122 0.026274 -0.050652 0.189374 -0.033988 0.020398 -0.167017 0.114344 0.014605 -0.040773 0.047098 -0.024072 0.072108 -0.023711 -0.111105 0.186536 -0.038203 -0.054163 -0.19053
0.087407 -0.074739 0.15548 0.138427 0.04851 0.108997 -0.047644 0.061208 0.073629 -0.035779 -0.106798 0.091208 -0.31849 0.298016 -0.001202 0.110709 -0.023806 0.012085 0.06896 -0.126588 -0.159285 -0.062579 0.148485 0.02435 0.130048 -0.149802 0.30686 0.143438 -0.008516 -0.159257 0.083013 0.109087 -0.033037 0.048248 -0.174182 0.100896 -0.023083 -0.111031 -0.106088 -0.111106 0.022356 -0.11061 -0.049105 0.047016 0.135183 -0.155443 0.016955 0.237714 0.156987 0.084049 -0.017164 -0.293514 -0.064818 0.126201 -0.208988 -0.002571 0.225002 -0.139372 0.041365 -0.007754 -0.055565 0.142384 -0.03457 -0.088803 0.051846 -0.20627 0.113224 0.041716 0.139147 0.128995 0.179614 0.006199 -0.005498 0.067822 -0.03012 0.110529 -0.12879 0.11787 -0.027882 0.19285 0.015908 -0.116332 0.173904 -0.039132 -0.066701 -0.061702 0.030888 0.121366 -0.128278 0.133686 0.230226 0.062427 -0.103048 0.121529 0.169998 0.027668 -0.148747 0.172019 -0.115675 0.159339
0.0 0.0 0.0 0.0 0.0 0.0 0.0 0.0 0.0 0.0 0.0 0.0 0.0 0.0 0.0 0.0 0.0 0.0 0.0 0.0 0.0 0.0 0.0 0.0 0.0 0.0 0.0 0.0 0.0 0.0 0.0 0.0 0.0 0.0 0.0 0.0 0.0 0.0 0.0 0.0 0.0 0.0 0.0 0.0 0.0 0.0 0.0 0.0 0.0 0.0 0.0 0.0 0.0 0.0 0.0 0.0 0.0 0.0 0.0 0.0 0.0 0.0 0.0 0.0 0.0 0.0 0.0 0.0 0.0 0.0 0.0 0.0 0.0 0.0 0.0 0.0 0.0 0.0 0.0 0.0 0.0 0.0 0.0 0.0 0.0 0.0 0.0 0.0 0.0 0.0 0.0 0.0 0.0 0.0 0.0 0.0 0.0 0.0 0.0 0.0
-0.125144 -0.158948 0.091684 -0.157286 0.066171 -0.108144 -0.096822 -0.056129 -0.081101 -0.10023 0.014525 0.071175 -0.271198 -0.092976 -0.029796 -0.016928 -0.069417 0.059588 0.054888 -0.010131 -0.180352 -0.046434 0.08412 0.014304 0.051672 0.084128 0.016825 0.069831 0.05317 0.058233 0.109435 -0.17378 0.05513 0.045983 -0.032178 0.020164 -0.115437 0.081811 0.08048 0.106166 0.155473 -0.099408 -0.117696 -0.093772 -0.098312 -0.028728 -0.034999 0.085492 -0.174785 0.105393 -0.161457 -0.151559 -0.013178 -0.059038 0.002871 0.089313 0.011785 0.171333 0.108788 -0.105656 -0.035055 -0.079991 -0.115181 -0.186735 -0.174895 -0.037437 0.079235 -0.05327 0.051566 0.124279 -0.225945 0.177817 -0.122796 -0.060085 -0.145227 -0.090818 -0.07703 -0.022586 0.015024 -0.07153 0.053853 0.142397 0.125016 -0.012601 -0.047492 -0.083281 0.086202 0.016004 0.265312 0.237397 0.048997 0.150743 0.125117 -0.024911 0.024697 0.098768 -0.03483 -0.092231 0.09009 -0.034095
-2.648351 -0.794316 -2.108887 0.20446 0.883061 0.242784 1.848653 1.149137 -4.975573 0.237654 -1.499665 2.924494 0.344217 -1.640431 0.763777 0.138944 -3.029439 -2.813434 -0.761102 -1.057557 -1.373735 -0.870599 1.234095 0.127805 -1.372618 1.35802 -1.501738 0.80945 0.172993 -0.484995 1.783363 -0.047587 0.483285 -1.526831 2.103549 2.116639 4.583491 -4.022388 -0.843817 0.361243 -0.546655 -2.301259 -2.000973 2.64631 -1.604053 -1.914206 -1.581895 -0.464185 1.757769 1.056301 0.263866 -0.904419 -0.422466 0.007824 -1.651553 0.7499 1.638666 -0.336108 -3.288466 -2.953238 -1.135414 1.165223 -1.047256 -0.821696 -0.135806 0.434207 -2.389307 -3.56953 -0.656773 0.578325 3.337902 0.782195 -1.250815 2.925509 -1.981492 0.121786 0.836257 1.710923 -2.640405 -0.628995 0.247469 0.863847 1.749171 -0.214156 -0.274807 2.192709 -0.892334 -1.614644 -1.225919 -0.042182 2.51632 3.464583 -3.591523 -2.506587 0.990426 1.8843 -2.460629 0.953462 0.359605 2.267383
0.017574 0.004931 0.008852 0.042663 -0.05245 -0.103217 0.022983 -0.003596 0.002604 -0.023687 0.100161 -0.062004 0.039631 -0.150562 0.033326 0.080619 -0.017243 0.016865 0.153043 0.0061 0.033301 0.190159 0.043639 0.05849 -0.119939 -0.032959 -0.03831 -0.027619 0.162034 0.079964 -0.077567 -0.008715 -0.016569 -0.018201 -0.088746 -0.096439 -0.09309 0.019224 0.058108 0.227541 0.091428 0.167027 0.001394 0.117524 -0.043803 -0.115947 0.076484 0.054121 -0.138193 0.093002 0.053738 -0.099317 -0.002538 -0.007342 0.003777 -0.061984 -0.025348 0.027947 0.092256 0.006636 -0.117904 0.131821 0.027054 -0.084609 -0.135263 -0.050123 0.059548 0.043115 0.01929 -0.159054 -0.052231 0.084935 -0.023026 -0.052215 0.051755 -0.181738 -0.097808 -0.038372 -0.05602 0.017319 0.049916 0.136693 0.067813 -0.06907 -0.006535 0.050171 -0.065445 -0.040955 0.021718 -0.043895 0.034161 0.017508 -0.050957 -0.037046 0.065807 -0.022895 0.01811 -0.104883 -0.13134 -0.062432
-0.028706 0.033732 -0.114421 -0.07457 0.127383 -0.072256 0.225561 0.060203 0.083158 -0.055015 -0.008016 -0.013805 -0.051516 0.044168 0.111501 0.025036 -0.238953 0.036993 0.171614 -0.137027 -0.117078 -0.077618 -0.049104 -0.008848 0.057426 -0.057326 0.059874 0.011163 0.064202 0.02249 0.115982 -0.050116 -0.037287 0.022451 0.317696 0.035591 0.023828 -0.193618 -0.051534 -0.084514 -0.011266 -0.085479 -0.049087 0.026278 0.053149 0.155973 -0.017962 0.090405 0.046952 -0.046551 0.079632 -0.054336 -0.079931 -0.02083 -0.19082 0.195755 -0.172548 -0.076107 -0.039663 -0.041625 -9.09E-4 -0.037134 -0.03562 -0.121145 -1.21E-4 -0.01738 0.076054 0.018905 0.018724 -0.037724 0.134652 -0.041302 0.140077 -0.048912 -0.024278 0.051511 -0.020874 0.112695 -0.215306 0.087446 0.074303 -0.127096 0.103432 -0.089674 -0.052799 0.058982 -0.081369 0.292689 -0.046317 0.05673 -0.017009 0.029554 -0.09257 0.016177 0.031009 -0.141385 -0.131271 0.186623 0.243762 0.077857
-0.381942 0.419451 2.91118 1.554282 0.339688 -1.059015 -0.23695 0.602868 0.298338 0.093422 -2.347402 2.418144 -0.760002 0.564907 -1.670043 1.490947 1.529706 -1.36524 -2.03336 0.270498 0.272872 1.86235 1.200626 2.455814 -0.15024 0.117662 -0.500185 2.887234 0.591562 -3.590729 -1.054297 -1.824039 2.752198 -0.014303 1.038277 -1.528728 1.708633 1.038767 -1.061714 -2.474322 -1.563136 -0.260453 -0.69772 0.548771 2.370975 0.859176 0.382772 -1.737677 0.306711 -2.813199 0.116738 1.070591 2.24396 -1.486294 -0.690088 -0.827935 -0.883192 -2.732692 -1.376869 1.816375 -1.564445 -0.103833 -4.123384 -1.368839 -0.393497 -0.378246 -0.666206 0.040357 -2.653495 -0.996699 1.516556 0.99716 -0.336344 -0.318816 -1.285292 -0.937978 0.315021 0.518467 1.04085 -1.814163 1.619764 1.234333 1.885368 1.318006 -0.37472 2.802294 1.652627 1.231103 0.778357 -0.75677 -0.877808 -1.213753 -1.666971 1.85002 0.481737 0.774098 -2.925129 0.197679 1.130372 -0.609641
2.174546 0.839277 0.053674 -0.70617 -0.201142 -1.36884 3.046614 -1.81939 -0.571499 -2.146105 2.398192 -3.212801 0.324658 1.983374 -1.267279 2.189345 -2.198303 1.389423 0.170601 2.174585 -3.344255 -0.469351 -0.162392 1.21042 4.011686 1.274478 1.216451 0.988687 -2.070765 0.453329 0.707236 0.114953 -3.074452 3.545354 -0.498811 -0.9241 -0.795483 0.16204 -1.770728 -0.183006 1.123212 -1.728186 0.177395 1.27155 0.602779 0.857352 -5.161198 5.368242 2.89051 2.731278 -0.079885 -2.920901 4.133426 1.927927 -0.882299 -2.268217 3.138875 -2.238427 4.068031 -0.585244 -2.740566 2.70546 1.735492 -2.375272 -0.035117 -3.996313 1.488321 -1.358982 0.427254 2.150983 4.218776 -0.351139 0.135569 -1.465569 2.427535 -1.632687 -4.883166 2.009376 2.15406 -2.250604 -1.271555 0.184093 0.374956 -0.75456 3.694378 -0.129805 -0.54946 -0.237188 -1.510777 1.706751 -2.633371 0.274782 -1.201073 0.448455 0.015946 0.311567 0.174641 -1.763391 -1.292767 -0.568384
-0.088393 -0.146106 0.217346 0.013461 0.14206 0.112249 -0.131849 -0.026853 -0.105337 0.070846 0.068113 0.073003 0.065748 0.034382 0.150759 0.189027 0.037061 0.218421 0.012166 0.012416 0.016741 0.082563 0.134716 0.079045 0.003767 -0.080953 0.032409 0.061713 0.057373 -0.119377 -0.069885 0.007188 -0.080992 0.279457 -0.048062 -0.100737 0.082162 -0.078683 0.098924 0.003596 -0.078868 0.123608 -0.160253 0.086996 0.116536 -0.085338 0.106765 -0.109479 -0.176457 -0.012875 0.05623 -0.004932 -0.127514 -0.0154 0.026224 -0.089977 0.071541 -0.083851 0.032595 -0.005932 0.078327 0.020204 0.024084 -0.197656 0.1245 0.150092 -0.04379 -0.057668 0.095754 -0.243341 -0.053762 0.100638 0.041679 0.198625 0.140688 -0.137497 0.097823 0.115471 -0.035016 -0.122948 -0.069367 0.0144 0.026779 -0.187272 0.017289 0.060159 0.015718 -0.046635 0.208143 0.02484 0.033166 -0.104856 0.084273 0.020137 0.05623 -0.188608 0.185021 0.060612 -0.05721 0.040974
-0.020892 -0.118995 0.162166 0.122723 0.280551 0.110134 -0.170222 -0.094985 0.022663 -0.096152 0.256238 -0.100829 -0.080812 0.117885 0.071203 0.073747 -0.283052 -0.00865 0.053285 -0.06135 -0.20049 0.113432 0.184392 0.098893 -0.302982 -0.092137 -0.052162 -0.023556 0.127995 -0.164167 -0.093513 -0.20606 -0.112134 0.15593 -0.102057 -0.290756 0.094313 -0.190004 0.126246 0.124971 -0.067207 -0.022883 0.192596 -0.017167 -0.098132 -0.002793 0.073871 0.015025 0.144251 0.159564 0.152852 0.142563 -0.127496 0.218968 -0.01863 0.108195 -0.06489 0.056022 0.330959 -0.233376 0.163535 0.057803 -0.20535 -0.22593 -0.210829 0.059133 0.062431 -0.070913 -0.219805 -0.068653 -0.086861 0.008006 0.08474 0.025432 0.120814 0.095618 -0.093603 0.083745 -0.08213 -0.029395 0.019301 0.048208 -0.091801 -0.138467 0.030923 0.071388 -0.098868 0.17327 0.148358 0.232573 -0.143218 -0.030999 -0.127425 0.038931 -0.186786 -0.121369 0.048425 -0.0115 -0.055581 -0.050098
-1.482363 1.198757 -2.795043 4.105337 -0.505949 1.000841 -1.353562 3.555108 -2.45069 2.79382 -0.919809 0.93274 0.684084 2.558134 -2.615721 -1.252693 1.459412 0.172322 -1.468399 -2.51459 -0.540749 3.031043 -0.0363 1.98412 -1.12275 3.951102 -1.137981 -1.932574 -1.797927 -4.762658 1.537316 0.135806 1.639663 -1.590274 -2.206267 -1.268076 0.736708 1.798377 -4.134606 -0.954425 1.50566 -0.38337 1.635739 -0.997211 -0.073292 -0.940158 -0.069585 1.948804 2.71211 1.050769 -0.475509 2.857272 0.811727 1.930054 1.717178 -0.169999 1.080929 -2.035098 0.879811 -2.555648 -0.335963 -0.226552 0.742867 0.445288 -1.10652 -0.983096 0.183443 -1.280834 -0.378664 -3.331041 -1.033956 2.531596 2.087368 0.625961 -0.03295 -0.897418 -0.79729 0.618051 -0.84824 2.206427 0.46944 1.120584 2.752258 5.112256 0.900844 -2.315369 3.242269 3.898458 0.535597 3.744396 -1.994592 -4.003265 1.879596 -1.416936 3.000749 -0.911197 2.187157 -0.077727 -0.628997 1.9995
0.352905 0.550922 -1.128945 -0.511125 0.774489 1.405335 -0.371647 0.106012 -0.779785 -0.640302 -0.68578 1.570717 -0.712288 -0.706705 -0.789609 -0.045278 -1.599722 -2.840112 -0.089543 -1.158838 -1.862605 -0.62748 -0.063542 -0.468696 0.750564 0.033551 -0.772222 -0.188991 -0.163115 0.455978 0.038455 -0.779588 0.172303 -1.114448 -0.548246 -0.008155 1.66721 -0.744821 -0.15746 -2.668482 -0.304702 -0.905716 0.479063 0.151803 -0.94063 -0.044338 -0.906122 -0.456182 0.281891 0.268287 0.47007 0.628019 0.328428 1.471286 -2.345457 0.072073 -0.345477 -0.998199 -1.496897 -0.053061 0.351206 -0.934426 0.295591 0.07336 0.24092 0.486976 0.390085 -0.621556 0.375246 -0.02625 1.957847 1.014101 0.004675 0.08874 -0.900479 -0.462149 0.922254 1.355385 -1.048724 0.105897 1.254466 0.410718 0.321258 1.066395 -0.171761 -0.128774 0.315556 0.697301 -0.180925 0.555334 1.005586 -0.891677 -1.232923 -1.994189 -0.567812 0.204184 -0.947385 -0.051526 -0.987029 0.725141
-1.230496 -1.784998 -2.701176 0.758382 1.022601 0.134257 -0.985047 1.562518 0.310835 -0.272668 -2.093218 0.576908 2.040189 3.9509 0.774258 -3.034902 0.015918 3.094607 -0.955282 -0.161599 1.346793 -0.427151 2.407651 2.929724 -1.837484 3.452367 0.53745 -0.982041 -0.926567 -0.170227 1.02313 -0.319885 0.057295 -0.759491 -3.167264 0.215212 0.199355 2.17803 -2.880665 -3.126606 1.987815 -0.672563 -1.358064 -0.033815 -0.248648 -1.018406 0.174184 0.367458 2.183337 2.743262 -1.304921 3.026151 -0.376082 1.947597 -1.255474 -1.064786 1.087376 -2.089309 0.970619 0.252176 5.222122 -0.33553 0.351429 0.429232 -0.472527 -0.662081 -0.365277 -1.304831 1.49886 -2.889978 0.333237 -0.579763 2.984992 1.952844 2.048453 -0.167153 0.122451 0.366104 2.33386 4.508055 2.013939 1.926481 3.227053 4.010036 0.598998 -2.80402 1.407855 2.476772 -2.103011 3.048537 -0.582139 -2.261293 -0.407356 -1.748715 -0.955609 0.330801 0.787854 1.235672 2.16538 0.751083
-0.671963 -1.356401 3.602218 0.823366 -0.502176 -0.026847 2.688116 0.953721 0.412325 -0.074957 -2.563688 0.379861 -0.279054 0.512633 -0.426346 -0.669122 -2.193019 -1.985633 1.195718 -0.843091 -3.07709 -2.336138 0.676971 -1.157188 0.84245 -0.067074 1.662677 -0.902702 0.573933 0.762577 1.605777 -0.494156 -0.764054 -4.857189 1.199538 0.081996 1.582965 -1.800896 1.133021 -2.874443 -0.067305 0.527258 -0.963475 2.056148 -0.810059 -2.590427 0.192699 -0.925293 0.533123 0.50128 0.198265 1.047486 -1.15476 -0.133629 -3.660616 2.9145 0.67414 -1.747608 -1.472014 0.506851 -0.089567 -1.009712 -0.989767 -0.231732 -1.20197 -0.899847 -0.180586 -0.280434 1.214359 0.601947 3.002038 1.452004 1.898121 0.64863 -0.773459 -0.546508 1.482508 0.349815 -0.022055 1.977613 1.349274 -0.187718 2.026595 2.419264 -2.256871 -0.764584 -0.110956 2.609596 -0.511332 0.497735 1.205947 -0.553892 0.146347 -2.201324 -0.117853 -0.193777 0.312823 3.388883 -4.036498 2.412019
0.171593 -0.085188 -0.005011 0.309169 -0.152905 0.00381 -0.249387 -0.038448 -0.157923 0.037731 0.104605 0.346345 0.244978 0.024678 0.032649 0.310071 -0.065622 0.036396 0.052969 0.124156 -0.043828 -0.06566 0.269065 -0.177152 0.005016 0.077923 -0.302495 0.040821 0.286835 0.001567 0.013001 -0.230026 -0.074903 -0.033747 -0.205199 -0.039013 0.158052 -0.224509 -0.025489 -0.047903 -0.192269 0.165546 0.069635 -0.04257 0.06969 0.085811 0.04252 -0.017744 -0.24138 0.017786 0.049939 -0.111088 -0.074083 -0.048444 0.073146 -0.056241 -0.005692 0.009777 -0.018746 -0.086046 -0.136093 -0.368411 0.058549 -0.057995 0.004658 -0.164634 0.183809 -0.114823 0.198303 -0.19652 -0.183127 0.044565 -0.09434 -0.054044 0.105077 -0.030626 0.03893 -2.26E-4 -0.247097 0.052807 0.04372 0.275303 -0.041172 0.004343 0.04562 -0.052336 0.091936 -0.411318 0.007728 0.266991 0.171496 0.069051 0.089662 0.12008 0.01404 0.091993 0.086905 0.02851 -0.047985 -0.099695
-0.013006 -0.118379 0.033248 -0.086703 -0.122945 0.054024 -0.105954 0.086953 -0.008314 0.037737 0.026517 0.202887 0.057473 0.10463 0.060993 0.164488 0.280731 0.235639 0.060156 0.073235 -0.105967 0.095067 0.21609 0.159707 -0.247029 -0.053178 0.213588 -0.163418 0.172043 -0.043476 0.005781 0.076681 0.0549 0.065827 -0.131163 -0.008544 0.018881 -0.024295 0.029425 0.145305 -0.053472 0.092048 -0.040266 0.194685 0.051225 -0.056091 0.052884 -0.035118 -0.044842 0.033586 0.030209 -0.225483 0.071924 -0.138642 0.181913 -0.179615 0.121881 -0.129775 -0.069768 -0.016177 0.31128 -0.011069 0.071507 -0.269585 -0.039461 -0.20419 0.164372 0.040425 -0.144214 0.019767 -0.143172 0.054418 -0.140112 0.15995 0.007503 -0.086442 -0.073308 0.181186 0.068323 0.055373 0.063983 0.035385 0.17434 -0.02698 0.121368 -0.207728 0.02406 0.033372 0.03302 0.306965 -0.173081 -0.053316 -0.094297 0.09213 -0.07528 -0.11779 0.025709 -0.15948 0.064401 0.00683
-0.089712 0.007848 0.012629 0.065429 0.041631 0.100514 -0.034368 -0.111556 0.106337 -0.092196 -0.21623 0.010814 0.081395 0.084733 0.265044 -0.073327 0.079481 0.078686 0.304876 0.109826 -0.10464 0.035457 -0.111935 -0.039079 -0.081577 -0.154843 -0.146263 -0.077171 0.345002 -0.14379 0.044819 -0.05014 0.016006 -0.055961 -0.005092 -0.109836 -0.018816 0.074496 0.072223 -0.115007 0.065996 0.005896 0.024485 0.059913 0.223341 -0.110677 -0.038621 -0.048468 -0.092362 0.158544 0.175042 -0.03226 -0.150672 -0.003421 0.221171 0.223929 -0.114552 0.119556 0.003761 -0.002178 0.06602 -0.095944 -0.072484 -0.121138 -0.035258 -0.007152 -0.137867 -0.013036 0.117318 -0.086232 -0.20318 0.033402 0.02138 -0.070048 0.08982 -0.045666 0.064289 -0.110156 0.167763 -0.291921 0.08956 0.131763 -0.047938 -0.187648 -0.12642 0.030396 -0.09325 0.17436 0.169548 0.050727 -0.165986 0.033857 -0.008825 0.154651 -0.140299 -0.115698 -0.209645 -0.209293 0.091343 -0.017085
0.046388 -0.164417 0.054138 -0.203604 -0.527236 0.069999 -0.59801 0.312587 -0.213166 0.182326 0.472747 -0.180961 -0.11613 0.266851 -0.412124 -0.375019 0.241826 -0.093938 0.204779 0.552241 -0.485591 0.431159 0.624505 -0.149505 0.027312 0.284387 -0.011935 0.337329 0.229908 -0.238998 -0.502447 -0.338441 0.101503 0.035852 -0.607622 0.278817 -0.310739 -0.006057 -0.086991 -0.007398 -0.132223 0.147556 0.426191 -0.636444 0.646068 -0.275961 -0.16908 -0.077308 -0.506414 -0.057163 -0.335891 -0.305032 0.31866 0.602435 -0.088872 -0.181209 0.026734 -0.211666 -0.124605 0.290989 0.587702 -0.566818 -0.302469 0.287777 0.630832 -0.555679 0.439833 -0.429788 0.070774 0.165661 -0.02763 0.286947 -0.200171 0.214827 -0.161421 -0.291093 -0.263722 0.575363 0.490953 0.194618 -0.152388 -0.205074 0.640795 0.033292 -0.073815 0.033802 0.0087 0.382807 -0.344153 0.452731 -0.808096 0.050682 0.113092 0.371501 0.136056 0.468073 -0.373102 -0.346874 -0.436354 0.150733
-0.079441 -0.063325 0.116947 -0.074651 -0.106199 -0.072005 -0.168463 0.018149 -0.050268 0.135308 0.159879 0.244269 0.002207 -0.119637 0.075673 0.083115 -0.201057 0.264741 0.028275 0.04528 -0.058184 0.24853 0.185013 0.22989 -0.285272 -0.001767 -0.098363 -0.004139 0.156595 -0.21182 0.054473 0.071502 -0.126726 0.096022 -0.052417 -0.082404 0.115809 0.174854 0.100031 0.011359 -0.067266 0.179584 0.056598 0.092668 -0.033155 -0.20829 0.054365 0.075184 -0.147786 0.139231 0.167699 -0.031023 -0.162884 0.041242 0.08023 -0.110317 0.030233 -0.020195 0.039391 0.051831 0.118646 -0.10574 -0.047147 -0.167779 -0.107026 -0.084261 0.095154 0.064455 0.088588 -0.061782 -0.011269 -0.082441 -0.253701 -0.047595 0.094602 -0.12685 -0.107218 -0.021364 -6.83E-4 -0.047492 0.048771 -0.049262 0.109809 -0.166067 0.150811 0.118259 0.095759 0.046766 0.288716 0.13852 -0.139425 -0.071342 -0.1287 0.232919 -0.043719 -0.082844 0.126398 0.015469 -0.013364 -0.20499
-0.087475 0.186701 -0.046917 -0.041847 -0.059088 -0.013273 -0.073892 0.233091 -0.003596 -0.039339 0.066277 0.094805 0.150238 -0.09346 -0.021952 -0.202147 0.117833 8.46E-4 -0.091551 -0.028534 -0.237071 0.054316 -0.011612 -0.160773 0.222265 0.005336 0.12038 0.033854 -0.004107 0.003107 0.168426 0.016482 -0.08677 -0.113422 0.086407 0.106075 -0.149861 0.126073 -0.0634 0.062826 -0.083977 -0.145637 0.061467 -0.051229 0.204229 -0.17109 0.026782 -0.001161 -0.009186 0.041333 0.019968 0.012454 -0.139774 0.27773 0.102443 0.019878 -0.056911 0.009365 0.008677 0.008326 -0.019961 -0.155983 0.037278 0.082971 0.091306 -0.05795 -0.070034 -0.19837 -0.104056 0.119097 0.096727 0.077648 -0.004616 -0.085341 -0.201546 0.033147 -0.083137 -0.088842 -0.009531 0.066588 -0.075343 -0.080456 -0.068234 -0.087612 -0.042374 -0.007313 -0.137535 0.008539 0.080121 0.119683 -0.07983 0.023474 -0.158168 0.093865 -0.115452 -0.038433 0.056332 0.205291 -0.056107 -0.130454
1.035361 1.319725 0.388011 1.220811 -0.236045 1.447081 -1.78193 3.520004 0.063077 -1.681862 0.545208 0.767849 -1.479444 -1.152839 0.669301 0.685509 -2.946755 -2.239533 -1.187422 -1.793336 0.607402 0.130687 0.296681 -1.569517 1.825066 1.715849 -1.639836 0.849724 -1.742086 0.427502 3.84844 -1.377145 0.671096 -1.312902 -1.152387 0.705431 2.180344 2.97496 1.402098 -0.909545 -1.649212 -0.253421 1.186817 1.193823 3.167747 -0.387379 -0.12198 0.872223 0.13285 0.490844 0.029473 1.345032 0.297008 2.724698 -1.656047 -0.109585 1.500583 -1.148555 -3.658389 1.022988 -1.211381 0.342059 -0.023586 1.22536 -1.874871 -1.957746 -0.188066 -0.235303 -0.067175 1.107354 1.448404 0.838301 1.67396 -0.238039 -0.504146 -1.334739 0.688005 0.37731 -2.953094 0.650433 0.307563 -0.457962 -1.694326 2.40152 -0.816994 0.208705 1.853393 0.15935 -0.989952 1.089235 1.087388 -2.786835 -2.248864 -0.788939 0.405791 0.907533 -1.516669 1.970717 -0.345554 -0.134731
2.591633 1.608701 -2.087245 2.00752 3.012652 4.995656 0.847355 -1.594905 -0.365708 -1.629805 -1.650237 3.712017 -0.231463 -0.537534 -2.036098 2.002639 -0.696666 -4.310136 -1.477319 -1.356504 -0.581823 -1.830239 -0.272773 -1.648095 0.090509 0.008711 0.330842 0.396714 2.341035 -0.526067 1.155793 -1.730906 -1.010387 -1.342646 -1.939355 0.734869 0.727366 0.700702 1.516974 -2.133831 -0.280653 -3.051674 0.017123 0.532043 1.478449 0.375441 0.920129 1.548929 1.087478 0.668327 0.707416 3.249232 -0.362503 1.273221 -2.929682 -0.245389 1.633444 -0.119836 0.103459 -3.445175 0.513245 0.427807 0.738792 1.448203 0.501908 0.362882 -0.731533 -0.391201 0.037778 3.053553 4.030229 1.793904 1.24136 0.081706 -1.401954 -0.638804 -0.487445 -0.267924 0.012844 0.538179 -0.241935 -0.068756 1.351665 -0.112558 0.001814 0.447262 0.833441 -0.023876 1.212707 1.514635 -0.568611 0.376173 -3.663739 -4.345135 -0.444319 2.139788 -2.53093 0.92131 -1.399435 1.763954
-0.098389 -0.096893 -0.077237 0.036968 -0.031453 -0.128401 -0.201742 -0.124489 0.221506 0.035649 0.155408 -0.081859 0.012803 -0.26374 0.08621 0.192492 0.02959 0.16208 0.01052 0.134687 0.124177 0.250011 -0.094643 0.152951 -0.004557 0.070481 -0.055673 -0.152366 0.031647 -0.040854 0.101086 0.036788 -0.005676 0.134194 -0.040703 -0.03461 0.049643 0.017076 0.133914 0.236731 -0.040427 0.002383 -0.043853 -0.154493 0.24496 -0.028639 -0.239555 -0.079778 -0.210664 0.018336 0.028756 -0.006505 0.055481 0.06932 -0.147877 -0.153433 -0.04725 -0.101515 0.089189 -0.004806 -0.009616 -0.146244 -0.24941 0.199065 -0.006107 -0.089878 0.052757 -0.145255 0.22938 -0.216267 -0.218587 -0.05224 0.09485 0.050469 0.067819 -0.145165 0.088673 0.120063 0.157248 -0.039366 -0.009665 0.210493 0.161281 -0.030194 -0.113 0.191373 -0.144517 -0.115702 -0.099164 -0.103893 -0.142294 -0.049918 -0.018548 0.219829 -0.031536 -0.038589 0.112003 -0.10621 -0.008975 -0.069164
-0.069638 0.142514 -0.085005 0.286756 -0.032831 0.1106 0.073872 -0.03348 0.09683 0.079032 0.141962 0.072417 -0.11857 -0.078346 -0.011364 -0.056318 -0.158081 -0.07611 -0.030351 -0.072555 0.051284 -0.16829 -0.031324 -0.100892 0.065211 0.189519 0.029572 -0.002181 0.072864 -0.016327 0.033684 -0.049275 0.133783 0.121586 -0.080114 0.086016 0.090597 -0.1183 -0.091872 0.012407 0.060097 0.046986 -0.07333 -0.171319 -0.129451 0.054173 -0.092466 0.069931 0.293228 0.08009 -0.259713 0.12065 0.101593 0.068501 0.102075 -0.113492 0.106031 -0.06774 0.197958 -0.14894 -0.074143 -0.180783 0.021141 -0.064426 -0.066646 0.181073 -0.022597 0.162334 -0.100701 0.327621 0.127801 -0.081733 0.321949 -0.163545 -0.095937 -0.219937 -0.021077 -0.014516 0.053306 -3.0E-4 -0.019533 0.112421 0.012147 -0.027 0.164577 0.145669 0.160901 -0.026587 0.140947 -0.083748 -0.006883 -0.163622 0.25762 0.14083 0.004719 0.059392 -0.040315 0.087861 0.151838 0.029162
-2.648351 -0.794316 -2.108887 0.20446 0.883061 0.242784 1.848653 1.149137 -4.975573 0.237654 -1.499665 2.924494 0.344217 -1.640431 0.763777 0.138944 -3.029439 -2.813434 -0.761102 -1.057557 -1.373735 -0.870599 1.234095 0.127805 -1.372618 1.35802 -1.501738 0.80945 0.172993 -0.484995 1.783363 -0.047587 0.483285 -1.526831 2.103549 2.116639 4.583491 -4.022388 -0.843817 0.361243 -0.546655 -2.301259 -2.000973 2.64631 -1.604053 -1.914206 -1.581895 -0.464185 1.757769 1.056301 0.263866 -0.904419 -0.422466 0.007824 -1.651553 0.7499 1.638666 -0.336108 -3.288466 -2.953238 -1.135414 1.165223 -1.047256 -0.821696 -0.135806 0.434207 -2.389307 -3.56953 -0.656773 0.578325 3.337902 0.782195 -1.250815 2.925509 -1.981492 0.121786 0.836257 1.710923 -2.640405 -0.628995 0.247469 0.863847 1.749171 -0.214156 -0.274807 2.192709 -0.892334 -1.614644 -1.225919 -0.042182 2.51632 3.464583 -3.591523 -2.506587 0.990426 1.8843 -2.460629 0.953462 0.359605 2.267383
-0.03775 -0.045189 -0.060291 0.134295 -0.003207 0.062289 -0.078351 0.02355 -0.053404 -0.082608 -0.061607 -0.083912 -0.034287 -0.082939 -0.016265 0.172227 -0.046081 0.026844 -0.011842 -0.007016 0.008117 0.065924 0.120548 0.003868 -0.119273 -0.088644 -0.053405 -0.008472 0.017343 -0.137967 -0.070084 -0.022232 -0.073335 0.019585 -0.039957 0.015347 -0.071716 0.00595 0.131123 0.067266 -0.051133 0.028183 0.096726 0.05461 -0.168897 -0.011818 0.037597 -0.116289 -0.003777 0.015193 -0.063949 -0.13811 -0.111024 0.045668 0.062119 -0.192548 -0.125013 -0.035553 0.027043 -0.059782 -0.129038 -0.040008 0.001205 -0.245976 -0.177694 0.05044 -0.037468 -0.074963 0.095049 -0.091363 0.01123 0.013718 -0.016442 0.023413 -0.022946 -0.114364 -0.037468 -0.033343 -0.012063 0.037921 0.015263 0.165762 0.091704 -0.079186 -0.181496 0.054291 -0.018815 -0.028951 0.096925 0.025481 -0.085816 0.037162 0.074933 0.087228 0.204239 -0.09967 -0.022057 -0.04458 -0.00484 -0.072207
0.016761 -0.116603 -0.128803 -0.085956 -0.331505 -0.005635 -0.24598 -0.189948 -0.156206 -0.002443 0.075572 -0.008364 -0.139675 0.126897 -0.004456 0.057895 -0.088723 0.174266 0.085188 -0.085007 -0.075556 0.123927 0.088185 0.026955 -0.130153 0.076374 0.0957 -0.25201 0.003484 -0.238015 -0.036255 0.039226 -0.015772 -0.079196 -0.335473 0.006978 0.172757 -0.121315 -0.06076 -0.098614 -0.100969 0.179943 -0.134157 -0.075677 0.053369 -0.162456 0.128946 0.087226 -0.11526 0.126585 0.04661 -0.14619 0.024327 0.220343 0.068667 -0.090185 0.082926 -0.065364 0.019387 0.003375 0.059688 0.017492 -0.074307 -0.126323 -0.142204 0.029827 -0.080282 -0.049183 0.133455 0.03925 0.081019 0.02228 -0.085705 0.010979 0.090813 -0.218384 -0.081749 0.05013 0.043586 0.112995 0.092207 0.051805 0.232937 0.013064 -0.138894 0.218488 0.139092 0.161748 0.127503 -0.165375 -0.172091 -0.015813 -0.013581 0.0414 -0.044944 -0.06549 -0.065871 -0.026492 -0.022413 -0.13116
-0.189698 -0.126829 -1.552827 2.007634 1.247403 2.074458 -0.551409 0.033064 -0.260919 -0.296733 1.267305 0.742622 -1.526934 -0.639655 -0.777228 1.177873 -0.376543 -2.360103 -0.828636 -0.887908 -1.119275 0.670319 0.931109 0.660938 -0.056125 0.597793 -0.078277 2.723215 0.80009 -1.534897 1.308024 -1.248106 1.22451 1.183059 -0.544014 -2.022383 0.949364 -0.832479 1.855064 -0.684968 -1.670062 -4.091836 0.017011 -0.720441 -0.438788 -0.66981 0.249525 -1.104537 0.57952 -0.440921 0.735605 0.786704 -0.646571 -0.893016 -0.884238 0.842692 0.421295 0.567679 0.100259 -1.492122 -0.181713 -0.239903 -0.67284 -1.153006 -0.573705 -0.170612 -1.09194 -1.228299 -1.705407 1.206428 2.19578 0.06887 0.432121 -0.905134 0.122829 -0.12188 0.644376 -0.16026 -0.895465 -0.066555 -0.749288 -0.18668 0.617227 -0.618033 0.836151 0.730517 0.108191 -0.06764 -0.063918 1.233178 1.844517 -0.329792 -1.588793 -2.872869 -0.175834 -0.567866 -1.250778 -0.032607 -0.909713 1.479944
0.0 0.0 0.0 0.0 0.0 0.0 0.0 0.0 0.0 0.0 0.0 0.0 0.0 0.0 0.0 0.0 0.0 0.0 0.0 0.0 0.0 0.0 0.0 0.0 0.0 0.0 0.0 0.0 0.0 0.0 0.0 0.0 0.0 0.0 0.0 0.0 0.0 0.0 0.0 0.0 0.0 0.0 0.0 0.0 0.0 0.0 0.0 0.0 0.0 0.0 0.0 0.0 0.0 0.0 0.0 0.0 0.0 0.0 0.0 0.0 0.0 0.0 0.0 0.0 0.0 0.0 0.0 0.0 0.0 0.0 0.0 0.0 0.0 0.0 0.0 0.0 0.0 0.0 0.0 0.0 0.0 0.0 0.0 0.0 0.0 0.0 0.0 0.0 0.0 0.0 0.0 0.0 0.0 0.0 0.0 0.0 0.0 0.0 0.0 0.0
-0.168631 -0.089595 0.011991 -0.005304 -0.267941 0.341409 -0.194132 -0.058201 -0.156575 0.05071 -0.059155 0.075102 0.135391 -0.004462 0.066882 0.068116 0.012071 0.170454 -0.134738 0.140507 0.005634 0.010388 0.134862 0.017758 -0.18941 0.209607 0.119138 -0.237609 0.13406 -0.206885 9.44E-4 0.052742 0.183296 0.108229 -0.184049 -0.070524 0.024551 -0.050457 0.050876 0.082595 0.076609 0.223814 0.244736 -0.069416 0.07009 -0.129473 0.101764 -0.021935 0.194342 -0.129411 -0.11923 0.069977 -0.044857 0.172147 0.07958 -0.196898 -0.064904 -0.063972 -0.243273 -0.154043 0.12755 -0.148255 0.084846 -0.119713 0.182931 -0.002366 0.152376 0.222759 0.212647 -0.089368 0.1758 -0.144392 -0.023349 -0.020253 -0.318209 0.054924 -0.155534 0.023197 0.012765 0.215197 -0.106138 -0.02251 0.321975 -0.020247 0.041553 -0.020427 0.119465 0.182535 0.107185 0.081442 -0.007473 0.071174 0.130018 0.174101 0.157566 -0.009147 0.064335 0.124664 -0.019704 0.113819
-0.377632 -0.202202 0.245016 -0.145246 -0.020685 0.356599 -0.085466 0.044193 -0.108785 -0.035523 0.041519 0.033289 0.00771 -0.140328 -0.171437 0.075682 -0.161466 0.29231 0.055743 0.098856 -0.315791 -0.17522 0.215252 0.180073 0.270119 -0.239861 0.054511 -0.04142 0.129744 -0.058333 0.01506 -0.019843 0.009681 -0.039286 -0.146391 -0.203264 -0.148613 -0.141177 0.13257 0.054182 -0.04144 -0.054351 -0.043897 0.080184 -0.039384 -0.130076 0.199701 -0.09311 -0.125218 0.127678 0.086235 -0.085789 -0.354932 -0.012572 -0.121836 -0.186826 -0.045325 -0.057901 0.003151 -0.013058 -0.139435 0.085182 -0.009057 -0.055709 -0.078343 0.153071 0.184781 0.043532 0.121952 -0.093315 0.10717 -0.056127 0.032062 0.097613 -0.101782 -0.009841 -0.457723 0.001699 0.081868 -0.325031 -0.062004 0.083082 0.260778 0.205639 0.170539 -0.06042 -0.137662 -0.023964 -0.080638 0.09795 0.106331 0.181121 -0.01395 -0.046636 0.119227 -0.12953 0.155758 -0.038421 -0.081307 -0.03247
