-0.011302 -0.132885 -0.036323 -0.099834 -0.005009 -0.120098 -0.26289 0.177461 0.003507 0.116428 0.021992 -0.001749 -0.010536 -0.092489 0.09155 0.115349 0.184984 0.355098 0.127873 0.053592 -0.073914 0.058597 0.079031 0.035779 0.050481 -0.250929 -0.146241 -0.022102 0.141682 -0.057937 -0.207099 0.12945 -0.093388 0.049583 -0.062341 0.03519 0.001128 0.103982 0.093326 0.063547 -0.021109 0.154313 -0.088111 -0.110132 0.066939 0.006118 -0.133302 -0.007983 -0.069915 0.101304 0.036683 -0.242197 0.038273 -0.016706 0.018142 -0.118462 0.045602 0.004765 0.017042 0.047815 0.131534 -0.056111 -0.103349 -0.0199 0.04804 -0.188286 -0.011453 0.04221 -0.056229 -0.186722 -0.156038 -0.013004 -0.029985 -0.071439 -0.06411 -0.14826 -0.096673 -0.038759 -0.094731 -0.035488 -0.074785 0.111674 -0.092885 -0.175068 0.037918 -0.077097 0.061633 -0.17331 0.087723 0.199649 -0.125962 0.082017 -0.041407 0.13087 9.61E-4 -0.129317 0.060028 0.135273 -0.151351 -0.167024
-0.027327 -1.656293 -0.524866 0.110664 -0.52026 1.009198 -2.599292 -0.294518 -0.511318 -0.148872 0.087494 0.397531 -0.003431 -1.676265 0.201561 -0.886061 2.981727 0.22742 0.889621 -1.194339 1.452378 3.588093 2.769029 -0.962405 0.001316 -0.138177 3.026214 -1.796844 -0.483259 -0.61188 -1.098622 -1.414737 -1.520669 -0.879894 -1.546779 -0.422098 -0.279168 -2.061329 -0.361026 -1.492839 0.526139 1.077681 -0.597791 0.602604 0.126602 -0.997847 -0.462697 -0.197263 1.432676 0.261468 -1.869515 0.147071 2.428037 1.210075 0.461999 0.215687 2.891937 -0.350382 -0.80721 -0.629124 0.583999 -0.552563 -0.067719 0.017494 1.379828 -0.52037 1.879248 -0.428807 0.118807 0.317664 3.420135 -0.893076 0.630781 1.700192 -2.120375 -0.87662 -0.013817 1.232316 0.555405 3.743715 1.435807 -1.289039 -0.462914 -0.452432 1.310413 -0.656088 0.446135 0.818541 -0.079719 1.434994 -1.967841 0.326504 0.344169 -0.277143 0.051434 1.448153 -0.248723 1.417056 -1.920541 1.488037
0.141196 0.052599 -0.138805 -0.092562 -0.063775 0.069336 -0.095249 0.054086 -0.118826 0.032599 -0.034501 0.175105 0.089501 0.009795 -0.009168 -0.110243 -0.087625 0.010161 -0.040562 -0.11574 -0.010395 0.053945 0.037378 -0.1893 -0.015621 0.060434 0.055667 -0.145474 0.120003 -0.073547 -0.004778 0.083865 -0.025539 -0.046744 -0.15314 0.167842 -0.053871 -0.056327 0.300596 -0.02341 -0.195746 -0.066088 0.008622 -0.075516 0.213425 -0.075668 0.014573 -0.019897 -0.05888 0.068081 0.073767 0.110934 0.173758 0.10975 -0.223197 0.08056 0.061138 -0.096377 -0.046019 4.87E-4 0.024952 0.053067 -0.100264 -0.045818 -0.048836 0.046037 0.069794 -0.061396 0.223469 0.004213 0.175924 0.094241 0.079344 0.094925 0.019199 -0.123294 0.103848 -0.195709 -0.053408 0.182218 0.023207 -0.064607 0.015341 0.046131 0.279467 0.025191 0.004044 0.065727 0.068104 0.047568 -0.007126 0.001787 0.097351 -0.182288 -0.119327 -0.058741 0.135422 0.090671 -0.071509 0.201578
-1.371364 -0.905838 -2.28994 -1.283174 -1.310577 -1.606454 0.910305 1.305647 -4.371454 0.628874 1.806303 0.828653 -2.382652 -0.686732 0.545703 1.326346 0.154753 -3.264551 1.126633 -1.969114 -0.800301 -1.436766 3.728197 -1.038718 -2.327168 -1.817844 -1.522537 3.301526 -0.516965 -1.374094 -0.051603 -1.351815 -0.389973 -0.502437 0.25835 0.846892 1.917309 -2.564942 1.743738 0.299837 -0.077633 -0.203545 -1.348593 -0.075214 -1.608776 -1.418613 -1.239597 1.346437 1.05542 -0.955862 -1.024128 -0.739272 -1.267341 -0.406832 -0.563292 1.91249 -0.495804 -1.8464 -2.951108 -2.501113 -2.256394 0.158864 1.280809 0.511105 1.438967 -1.170372 -0.297717 -2.259045 1.504669 -0.129935 2.657114 -0.654912 -1.802167 1.676283 -1.228934 1.0964 1.563019 0.572077 -0.396552 -2.394884 0.52895 2.143209 0.307586 -0.887167 -1.371926 0.836945 0.408248 -0.956246 -1.326029 0.678732 3.122775 -1.439952 -0.709464 -1.94331 -0.773044 1.524834 1.347463 -1.037819 -0.217821 2.595661
0.077315 0.094458 -0.007108 -0.173733 -0.124016 0.10268 -0.147921 -0.038812 -0.110229 0.125727 0.078715 0.103655 -0.14702 0.038875 0.173455 0.029172 0.085332 0.02049 0.028974 0.209103 -0.048985 0.096129 0.022119 0.051125 -0.02515 0.079908 0.031651 0.190444 0.035202 -0.042677 -0.105544 -0.140258 -0.017468 -0.128506 -0.137886 -0.069351 -0.162297 -0.091859 -0.189312 0.107815 0.219664 0.041735 -0.07544 -0.084491 -0.059106 -0.063775 -0.109205 0.196058 0.051562 -0.084445 -0.072622 -0.069628 -0.035997 -0.118006 0.208404 -0.229657 -0.07943 -0.150258 0.011007 0.191667 0.083006 -0.084947 0.014942 0.17921 -0.015157 0.068533 0.004176 0.048989 0.028669 0.143713 0.076645 0.028479 -0.023023 0.029246 -0.099158 0.02435 -0.105521 0.100665 0.051662 -0.025748 0.125299 -0.043305 0.202724 -0.034303 0.013237 -0.157912 0.118345 0.092195 -0.004208 0.186132 -0.235138 0.02556 0.023231 0.199088 -0.027192 0.068552 0.0464 0.132222 -0.011505 0.162654
-0.011967 -0.140539 -0.083309 -0.266793 -0.213019 0.12815 0.041323 0.149801 -0.080132 -0.123987 -0.010083 -0.039693 -0.195397 0.112641 0.034688 -0.130519 0.006009 -0.040525 0.069575 -0.051989 0.025678 0.131214 -0.10214 -0.020226 -7.9E-5 0.076942 0.101075 -0.020054 -0.172699 0.091884 -0.111585 0.093234 0.093469 -0.162548 -0.090439 -0.020282 -0.059616 0.148852 0.009081 -1.63E-4 -0.024568 0.190272 -0.001452 -0.044105 0.09646 0.002277 -0.070202 0.098554 0.120066 0.081977 -0.10499 0.196738 0.177352 0.1218 0.078468 -0.0267 -0.026588 0.031778 0.049074 -0.009756 0.049227 0.009765 0.228009 -0.126561 -0.183057 0.026335 -0.023649 -0.066046 0.063928 0.184542 0.140535 -0.136899 -0.159438 0.064735 0.143465 -0.075401 -0.062013 -0.003831 -0.013213 -0.096598 0.173761 0.023655 0.060273 0.045337 -0.009105 -0.022583 0.091951 0.087101 -0.15747 -0.109593 -0.178296 0.023781 0.009996 -0.025706 0.092245 0.012864 0.109269 -0.189518 0.025182 -0.004577
-0.076891 -0.152332 -0.066875 0.080656 -0.008325 -0.154952 -0.121434 -0.093893 -0.134236 0.07552 -5.82E-4 -0.056536 0.008124 0.014572 -0.164846 -0.029011 0.168473 -0.031401 0.055927 0.064426 -0.147838 -0.003921 0.112145 0.016308 -0.035264 0.059701 0.112931 0.012705 0.160328 -0.038078 -0.055541 -0.023079 -0.126188 0.048314 -0.264741 -0.114727 -0.085151 -0.240784 0.017099 -0.002572 0.075996 0.043146 -0.038261 -0.038881 0.135867 -0.155055 0.0274 -3.27E-4 -0.154791 0.132318 -0.158574 -0.06809 0.196731 -0.062646 0.016207 0.055904 -0.010827 -0.122775 -0.225219 -0.071204 0.095091 -0.110865 0.066373 -0.039906 -0.157667 -0.007445 0.031975 -0.076154 -0.024025 -0.075961 -0.023644 -0.081732 0.066713 0.069527 -0.024634 0.204045 -0.055128 0.108008 -0.188484 0.086729 0.106969 0.157107 -0.015935 -0.096377 0.192389 0.097088 0.094306 0.064784 0.03425 0.070042 -0.180201 0.041285 0.029886 0.048405 0.058656 -0.070639 -0.09552 -0.13238 -0.022017 -0.097907
0.233485 -0.169544 -0.176879 -0.264085 -0.107436 0.057878 -0.060163 0.020134 -0.075479 0.113908 -0.09997 -0.174725 -0.252921 -0.122678 -0.035219 -0.077484 0.037537 -0.037793 0.129264 -0.099879 0.019875 -0.018207 0.00781 -0.131311 -0.122916 0.092196 -0.101513 -0.137821 -0.180387 0.028172 0.152386 0.192303 -0.095574 -0.106227 0.072159 0.021054 0.055603 -0.084775 0.048133 -0.033319 -0.145469 -0.052611 0.055902 0.169461 -0.069542 -0.067575 -0.154715 -0.139578 0.004359 -0.018258 0.099611 -0.130799 0.00714 -0.072897 0.088522 -0.010623 -0.01831 -0.120719 -0.232138 0.024499 0.020253 0.024691 -0.092193 -0.006159 -0.073972 0.145627 -0.15225 -0.053373 0.093501 -0.006107 0.04413 0.186046 -0.098408 0.199472 0.186096 0.163884 0.172805 0.064425 -0.04161 0.131829 0.010201 -0.12358 0.009225 -0.16262 -0.009664 -0.110038 0.19284 0.088062 0.137671 -0.018017 -0.1722 -0.015099 -0.007537 0.047423 -0.025555 0.128165 -0.06147 -0.007149 0.227166 0.114048
0.01138 -0.138514 0.226323 0.132162 0.07805 0.00343 0.083845 -0.09138 0.079482 0.022071 -0.002286 -0.006272 -0.055472 -0.054731 0.078293 -0.140183 0.15088 0.013218 0.007411 0.046312 0.0286 0.219363 -0.011629 -0.130226 -0.150721 -0.283571 -0.028629 0.067705 0.135719 -0.132972 -0.094048 -0.072213 -0.023802 0.214469 -0.250461 -0.012114 0.041212 -0.012535 0.09064 -0.133034 -0.062136 0.154734 -0.068564 -0.062881 0.080259 0.063067 0.019327 0.00957 0.032935 0.016774 -0.050169 0.059704 -0.009306 -0.012702 0.179211 -0.043178 0.076398 0.018125 0.206446 -0.090811 -0.158088 -0.04166 -0.027056 -0.161963 0.015678 0.034851 0.035571 0.172649 -0.019972 -0.118805 -0.018352 -0.127559 -0.069902 -0.121 0.06276 -0.072027 -0.084075 -0.076834 -0.049779 0.009668 -0.106123 0.128864 0.067299 -0.113024 -0.033589 0.034719 -0.040078 0.084181 0.070565 0.001174 0.182729 -0.016327 0.065474 0.261385 -0.113425 -0.125606 -0.105792 0.112522 0.014332 -0.110195
0.100195 -0.080192 0.098636 -0.002196 0.010816 -0.057799 -0.189106 0.035665 -0.158401 0.017096 0.057723 -0.073496 -0.154333 -0.058186 0.055717 0.179485 -0.09119 0.047592 -1.1E-5 -0.036447 0.069542 -0.026364 0.113772 0.231986 -0.134337 -0.215597 0.010651 -0.012594 -0.064549 -0.007239 -0.011789 -0.096077 0.077943 -0.071619 -8.0E-5 -0.047155 0.073651 0.037863 -0.040627 0.055824 0.044377 0.007974 0.031266 0.114302 -0.02862 -0.031345 -0.079388 -0.051952 -0.221712 0.085653 0.037433 -0.19096 0.086855 -0.018699 -0.0544 0.140116 -0.057536 -0.02972 0.014695 -0.057303 -0.13393 -0.114809 -0.125779 -0.174829 0.064946 0.061459 0.014127 -0.050541 0.147494 -0.078643 -0.089289 0.069975 -0.046343 0.105745 0.018637 0.028574 -0.076456 -0.003611 -0.026723 -0.119504 0.041653 -0.081001 0.007688 -0.065893 0.117237 -0.046508 -0.04831 0.071317 0.133236 0.021252 0.027556 0.093483 -0.054558 0.072389 -0.048773 -0.055195 -0.030206 -0.077247 -0.105549 -0.120534
-0.011302 -0.132885 -0.036323 -0.099834 -0.005009 -0.120098 -0.26289 0.177461 0.003507 0.116428 0.021992 -0.001749 -0.010536 -0.092489 0.09155 0.115349 0.184984 0.355098 0.127873 0.053592 -0.073914 0.058597 0.079031 0.035779 0.050481 -0.250929 -0.146241 -0.022102 0.141682 -0.057937 -0.207099 0.12945 -0.093388 0.049583 -0.062341 0.03519 0.001128 0.103982 0.093326 0.063547 -0.021109 0.154313 -0.088111 -0.110132 0.066939 0.006118 -0.133302 -0.007983 -0.069915 0.101304 0.036683 -0.242197 0.038273 -0.016706 0.018142 -0.118462 0.045602 0.004765 0.017042 0.047815 0.131534 -0.056111 -0.103349 -0.0199 0.04804 -0.188286 -0.011453 0.04221 -0.056229 -0.186722 -0.156038 -0.013004 -0.029985 -0.071439 -0.06411 -0.14826 -0.096673 -0.038759 -0.094731 -0.035488 -0.074785 0.111674 -0.092885 -0.175068 0.037918 -0.077097 0.061633 -0.17331 0.087723 0.199649 -0.125962 0.082017 -0.041407 0.13087 9.61E-4 -0.129317 0.060028 0.135273 -0.151351 -0.167024
0.0 0.0 0.0 0.0 0.0 0.0 0.0 0.0 0.0 0.0 0.0 0.0 0.0 0.0 0.0 0.0 0.0 0.0 0.0 0.0 0.0 0.0 0.0 0.0 0.0 0.0 0.0 0.0 0.0 0.0 0.0 0.0 0.0 0.0 0.0 0.0 0.0 0.0 0.0 0.0 0.0 0.0 0.0 0.0 0.0 0.0 0.0 0.0 0.0 0.0 0.0 0.0 0.0 0.0 0.0 0.0 0.0 0.0 0.0 0.0 0.0 0.0 0.0 0.0 0.0 0.0 0.0 0.0 0.0 0.0 0.0 0.0 0.0 0.0 0.0 0.0 0.0 0.0 0.0 0.0 0.0 0.0 0.0 0.0 0.0 0.0 0.0 0.0 0.0 0.0 0.0 0.0 0.0 0.0 0.0 0.0 0.0 0.0 0.0 0.0
-0.027327 -1.656293 -0.524866 0.110664 -0.52026 1.009198 -2.599292 -0.294518 -0.511318 -0.148872 0.087494 0.397531 -0.003431 -1.676265 0.201561 -0.886061 2.981727 0.22742 0.889621 -1.194339 1.452378 3.588093 2.769029 -0.962405 0.001316 -0.138177 3.026214 -1.796844 -0.483259 -0.61188 -1.098622 -1.414737 -1.520669 -0.879894 -1.546779 -0.422098 -0.279168 -2.061329 -0.361026 -1.492839 0.526139 1.077681 -0.597791 0.602604 0.126602 -0.997847 -0.462697 -0.197263 1.432676 0.261468 -1.869515 0.147071 2.428037 1.210075 0.461999 0.215687 2.891937 -0.350382 -0.80721 -0.629124 0.583999 -0.552563 -0.067719 0.017494 1.379828 -0.52037 1.879248 -0.428807 0.118807 0.317664 3.420135 -0.893076 0.630781 1.700192 -2.120375 -0.87662 -0.013817 1.232316 0.555405 3.743715 1.435807 -1.289039 -0.462914 -0.452432 1.310413 -0.656088 0.446135 0.818541 -0.079719 1.434994 -1.967841 0.326504 0.344169 -0.277143 0.051434 1.448153 -0.248723 1.417056 -1.920541 1.488037
0.141196 0.052599 -0.138805 -0.092562 -0.063775 0.069336 -0.095249 0.054086 -0.118826 0.032599 -0.034501 0.175105 0.089501 0.009795 -0.009168 -0.110243 -0.087625 0.010161 -0.040562 -0.11574 -0.010395 0.053945 0.037378 -0.1893 -0.015621 0.060434 0.055667 -0.145474 0.120003 -0.073547 -0.004778 0.083865 -0.025539 -0.046744 -0.15314 0.167842 -0.053871 -0.056327 0.300596 -0.02341 -0.195746 -0.066088 0.008622 -0.075516 0.213425 -0.075668 0.014573 -0.019897 -0.05888 0.068081 0.073767 0.110934 0.173758 0.10975 -0.223197 0.08056 0.061138 -0.096377 -0.046019 4.87E-4 0.024952 0.053067 -0.100264 -0.045818 -0.048836 0.046037 0.069794 -0.061396 0.223469 0.004213 0.175924 0.094241 0.079344 0.094925 0.019199 -0.123294 0.103848 -0.195709 -0.053408 0.182218 0.023207 -0.064607 0.015341 0.046131 0.279467 0.025191 0.004044 0.065727 0.068104 0.047568 -0.007126 0.001787 0.097351 -0.182288 -0.119327 -0.058741 0.135422 0.090671 -0.071509 0.201578
0.237634 0.109306 -0.041507 -0.201799 -0.149374 0.089779 -0.158518 -0.160494 -0.10045 0.139645 -0.078359 -0.155787 0.095709 0.083922 3.7E-4 0.109712 0.110221 -0.135581 0.234728 -0.052115 0.041085 -0.103376 0.237218 0.1233 -0.012453 -0.048067 0.138511 -0.135972 -0.036411 -0.107397 0.071741 0.157296 0.078333 0.032471 0.097229 -0.083432 0.037941 -0.071868 -0.073983 -0.062846 0.002712 -0.02559 -0.132649 0.048527 0.143802 -0.145214 -0.124616 0.044458 0.230509 0.081613 0.043638 0.28979 6.87E-4 -0.128232 0.105152 -0.075264 0.258126 0.025548 0.092303 -0.081444 0.053322 -0.407514 0.213285 -0.036615 -0.132724 0.099077 -0.017887 0.139513 0.092207 -0.253351 -0.224958 0.063673 0.08363 0.119876 0.188093 0.006222 -0.108333 0.106555 -0.254995 0.071608 0.201145 0.095737 0.012383 -0.016244 0.127919 0.013806 -0.029543 0.161299 0.071132 -0.180434 -0.017303 -0.118944 0.078936 0.328372 0.100792 0.139749 0.016598 -0.03948 -0.041089 -0.302976
2.591633 1.608701 -2.087245 2.00752 3.012652 4.995656 0.847355 -1.594905 -0.365708 -1.629805 -1.650237 3.712017 -0.231463 -0.537534 -2.036098 2.002639 -0.696666 -4.310136 -1.477319 -1.356504 -0.581823 -1.830239 -0.272773 -1.648095 0.090509 0.008711 0.330842 0.396714 2.341035 -0.526067 1.155793 -1.730906 -1.010387 -1.342646 -1.939355 0.734869 0.727366 0.700702 1.516974 -2.133831 -0.280653 -3.051674 0.017123 0.532043 1.478449 0.375441 0.920129 1.548929 1.087478 0.668327 0.707416 3.249232 -0.362503 1.273221 -2.929682 -0.245389 1.633444 -0.119836 0.103459 -3.445175 0.513245 0.427807 0.738792 1.448203 0.501908 0.362882 -0.731533 -0.391201 0.037778 3.053553 4.030229 1.793904 1.24136 0.081706 -1.401954 -0.638804 -0.487445 -0.267924 0.012844 0.538179 -0.241935 -0.068756 1.351665 -0.112558 0.001814 0.447262 0.833441 -0.023876 1.212707 1.514635 -0.568611 0.376173 -3.663739 -4.345135 -0.444319 2.139788 -2.53093 0.92131 -1.399435 1.763954
-0.100288 -0.111105 0.206443 0.033412 -0.066884 0.100828 -0.064615 -0.085362 -0.058774 0.130339 0.211631 0.129352 0.056046 0.098238 0.156927 0.062911 -0.005382 0.139617 -0.091052 0.029705 -0.022385 0.098777 0.020594 0.088931 0.005636 0.04387 -4.86E-4 -0.086953 0.004079 -0.071992 -0.165984 -0.060284 0.093826 0.17862 -0.040951 0.087199 -0.033991 -0.060627 -0.040434 0.136882 0.005093 0.146668 0.045263 -0.179404 0.119535 -0.011513 0.042678 -0.042196 -0.040801 -0.118926 0.1685 -0.026788 0.067633 0.105703 0.006956 -0.096793 -0.138029 0.091982 0.115815 0.078945 -0.043292 -0.010631 -0.039234 -0.062858 0.118401 0.002457 0.105973 0.04478 0.1032 -0.229885 -0.078058 -0.095281 0.129148 -0.122918 -0.028429 0.141629 0.001219 -0.12479 0.017319 -0.02817 -0.180985 0.005269 -0.103234 -0.271084 0.030072 0.051254 -0.037186 0.164287 0.160256 -0.021997 -0.07636 -0.023494 0.05185 -0.011499 -0.113033 0.048588 0.087071 0.147721 0.082771 0.007058
0.077315 0.094458 -0.007108 -0.173733 -0.124016 0.10268 -0.147921 -0.038812 -0.110229 0.125727 0.078715 0.103655 -0.14702 0.038875 0.173455 0.029172 0.085332 0.02049 0.028974 0.209103 -0.048985 0.096129 0.022119 0.051125 -0.02515 0.079908 0.031651 0.190444 0.035202 -0.042677 -0.105544 -0.140258 -0.017468 -0.128506 -0.137886 -0.069351 -0.162297 -0.091859 -0.189312 0.107815 0.219664 0.041735 -0.07544 -0.084491 -0.059106 -0.063775 -0.109205 0.196058 0.051562 -0.084445 -0.072622 -0.069628 -0.035997 -0.118006 0.208404 -0.229657 -0.07943 -0.150258 0.011007 0.191667 0.083006 -0.084947 0.014942 0.17921 -0.015157 0.068533 0.004176 0.048989 0.028669 0.143713 0.076645 0.028479 -0.023023 0.029246 -0.099158 0.02435 -0.105521 0.100665 0.051662 -0.025748 0.125299 -0.043305 0.202724 -0.034303 0.013237 -0.157912 0.118345 0.092195 -0.004208 0.186132 -0.235138 0.02556 0.023231 0.199088 -0.027192 0.068552 0.0464 0.132222 -0.011505 0.162654
0.088772 0.227648 0.645108 0.434378 -0.243151 -0.040049 -0.016955 -0.186482 -0.243454 -0.011658 -0.170757 0.307434 0.155039 0.590964 0.715907 0.089986 0.023204 0.257033 -0.271767 0.0692 -0.09477 0.240812 0.379263 0.505281 -0.339511 -0.009876 -0.042679 0.446568 -0.111281 0.244453 -0.116041 -0.236728 -0.393171 0.162376 -0.553446 -0.038502 -0.122133 0.188986 -0.080075 -0.076548 0.01302 -0.024604 0.067212 0.343348 0.526428 0.015066 0.39223 -0.300346 0.246259 0.06669 -0.912414 -0.019555 0.24795 0.467452 0.139582 -0.338128 -0.292361 0.351121 0.545239 -0.157694 -0.191688 0.091052 -0.30973 -0.547202 -0.233031 -0.070914 0.37128 0.109254 0.108005 -0.166358 0.468735 0.476852 -0.518703 -0.251771 -0.047346 -0.206413 -0.175103 -0.076058 0.218106 0.502379 0.176227 0.456128 -0.199103 -0.051907 -0.307186 -0.247612 -0.407138 -0.031402 0.12009 0.093785 0.734784 0.480816 -0.672125 -0.024673 0.292148 0.281378 -0.40699 -0.045138 0.197444 0.043362
-0.036157 0.029923 -0.059051 0.222571 0.190384 0.089232 0.00797 0.098254 0.116007 0.005512 0.016203 -0.038497 0.063888 0.014149 0.056918 -0.06141 -0.05482 0.004891 0.0766 -0.043315 -0.099448 0.179971 0.037428 -0.041935 -0.122265 0.019025 0.044381 0.052439 0.04326 0.05791 -0.054667 0.089822 0.034819 0.144717 0.144736 -0.090294 0.023082 0.033569 -0.06615 0.030633 -6.69E-4 0.169486 0.112604 0.179381 0.003288 -0.044064 0.096546 -0.008775 0.029733 0.157309 0.010413 0.158294 -0.028939 -0.036392 0.103602 0.009006 -0.04648 0.082429 0.069825 0.095429 -0.103322 0.164302 0.215778 -0.004495 -0.033209 -0.055946 0.11351 -0.027444 0.024345 -0.043163 -0.059721 -0.010425 5.81E-4 -0.062552 0.041839 0.003624 0.050288 0.018208 -0.122475 -0.049348 -0.008685 -0.130293 0.060142 0.074175 0.144324 0.055121 -0.127841 0.023841 -0.046036 -0.048554 -0.300507 -0.077731 -0.120687 -0.078402 -0.038707 -0.093141 0.079979 -0.115757 -0.156959 0.190437
-0.132305 -0.102792 -0.029859 -0.230099 -0.140204 -0.06014 -0.139605 0.185472 -0.132566 0.268057 0.023545 0.005611 -0.115685 0.04014 -0.056793 0.208309 0.117472 -0.010778 0.07504 0.010637 -0.234487 0.062758 0.012634 -0.306911 0.015636 0.068398 -0.07477 0.009131 0.082013 0.051221 -0.409628 0.023654 -0.159268 -0.062993 -0.266755 -0.192722 0.097041 -0.088024 0.008244 0.129273 -0.061962 0.221187 0.052459 0.21719 -0.036604 -0.117766 -0.128405 0.099118 -0.221794 0.264003 0.003464 -0.287465 -0.002661 0.111597 0.117668 -0.250604 0.265661 -0.045292 0.194242 0.121126 0.064685 -0.004625 0.227673 -0.255845 0.115699 0.023479 0.14117 0.031377 0.117975 -0.050365 -0.108587 -0.022828 -0.083246 0.25073 0.026593 0.109797 -0.015274 0.094582 0.086989 -0.025321 -0.121404 0.200354 0.05791 -0.110193 -0.236108 0.036072 0.165525 -0.135961 -0.00669 0.038856 -0.071017 0.188259 0.03218 0.110362 0.015492 -0.332605 -0.012613 -0.160166 0.151398 -0.143801
-0.671963 -1.356401 3.602218 0.823366 -0.502176 -0.026847 2.688116 0.953721 0.412325 -0.074957 -2.563688 0.379861 -0.279054 0.512633 -0.426346 -0.669122 -2.193019 -1.985633 1.195718 -0.843091 -3.07709 -2.336138 0.676971 -1.157188 0.84245 -0.067074 1.662677 -0.902702 0.573933 0.762577 1.605777 -0.494156 -0.764054 -4.857189 1.199538 0.081996 1.582965 -1.800896 1.133021 -2.874443 -0.067305 0.527258 -0.963475 2.056148 -0.810059 -2.590427 0.192699 -0.925293 0.533123 0.50128 0.198265 1.047486 -1.15476 -0.133629 -3.660616 2.9145 0.67414 -1.747608 -1.472014 0.506851 -0.089567 -1.009712 -0.989767 -0.231732 -1.20197 -0.899847 -0.180586 -0.280434 1.214359 0.601947 3.002038 1.452004 1.898121 0.64863 -0.773459 -0.546508 1.482508 0.349815 -0.022055 1.977613 1.349274 -0.187718 2.026595 2.419264 -2.256871 -0.764584 -0.110956 2.609596 -0.511332 0.497735 1.205947 -0.553892 0.146347 -2.201324 -0.117853 -0.193777 0.312823 3.388883 -4.036498 2.412019
0.092506 -0.190181 -0.169651 -0.176859 -0.157274 0.117434 -0.246053 -0.095055 -0.226845 0.056095 -0.066084 0.025004 -0.043226 -0.06793 -0.068137 0.165682 0.061116 0.071951 0.064888 0.034774 -0.026295 0.078465 0.039067 -0.01204 -0.068662 -0.153453 0.017397 -0.052319 0.055524 -0.091639 0.124383 0.018886 -0.198151 0.077424 -0.103548 0.018512 -0.201059 0.101664 0.168027 0.022853 0.047591 -0.143808 -0.088134 0.074183 -0.119839 -0.069799 -0.289185 -0.063018 -0.136762 0.08873 0.186365 0.03422 -0.076668 -0.108907 0.163803 0.019469 -0.087732 -0.04543 1.34E-4 -0.053077 -0.090084 -0.032118 0.017588 -0.110636 0.093312 0.082828 -0.008866 -0.122675 0.005555 -0.156537 0.059343 0.058546 0.136846 -0.008335 0.094648 -0.058541 0.079997 0.127917 -0.051985 -0.109897 0.141124 -0.007186 0.001759 0.100589 -0.004111 0.049543 -0.027096 0.154899 0.081346 0.093517 -0.033063 -0.068032 0.135419 7.35E-4 -0.010201 0.097192 -0.043545 -0.058325 0.031733 0.071254
-0.02411 -0.113287 0.012927 0.008523 0.003203 -0.061237 0.053149 -0.026061 0.096906 -0.021641 0.06203 0.119702 -0.023728 -0.0635 0.162825 0.027231 0.080991 -0.082863 -0.181524 0.105534 -0.072181 -0.005108 0.224287 0.04102 -0.219453 -0.015901 -0.026112 0.035309 0.268677 -0.142163 -0.19887 -0.087429 -0.07284 -0.030197 0.161728 0.017645 0.068097 0.070652 -0.023857 0.068927 0.034929 -0.159089 -0.061718 0.024064 0.09175 -0.032761 -0.059706 -0.120615 0.059499 -0.081097 0.065175 -0.152432 -0.019417 -0.040145 0.235609 0.007868 -0.023216 0.028662 -0.05629 -0.068712 0.036874 -0.109318 -0.102825 -0.02904 0.007036 -0.106253 -0.142844 -0.069766 0.008238 -7.73E-4 -0.027074 -0.085451 -0.152677 -0.077408 0.083296 0.039383 -0.051962 -0.027803 -0.09514 -0.130585 0.128459 -0.067148 0.039323 -0.136819 0.027863 -0.019008 -0.035644 0.033131 0.043352 -0.021024 -0.096692 -0.151372 0.001272 0.210076 -0.181758 0.028939 0.008564 0.07768 -0.057384 -0.04657
0.016761 -0.116603 -0.128803 -0.085956 -0.331505 -0.005635 -0.24598 -0.189948 -0.156206 -0.002443 0.075572 -0.008364 -0.139675 0.126897 -0.004456 0.057895 -0.088723 0.174266 0.085188 -0.085007 -0.075556 0.123927 0.088185 0.026955 -0.130153 0.076374 0.0957 -0.25201 0.003484 -0.238015 -0.036255 0.039226 -0.015772 -0.079196 -0.335473 0.006978 0.172757 -0.121315 -0.06076 -0.098614 -0.100969 0.179943 -0.134157 -0.075677 0.053369 -0.162456 0.128946 0.087226 -0.11526 0.126585 0.04661 -0.14619 0.024327 0.220343 0.068667 -0.090185 0.082926 -0.065364 0.019387 0.003375 0.059688 0.017492 -0.074307 -0.126323 -0.142204 0.029827 -0.080282 -0.049183 0.133455 0.03925 0.081019 0.02228 -0.085705 0.010979 0.090813 -0.218384 -0.081749 0.05013 0.043586 0.112995 0.092207 0.051805 0.232937 0.013064 -0.138894 0.218488 0.139092 0.161748 0.127503 -0.165375 -0.172091 -0.015813 -0.013581 0.0414 -0.044944 -0.06549 -0.065871 -0.026492 -0.022413 -0.13116
0.0 0.0 0.0 0.0 0.0 0.0 0.0 0.0 0.0 0.0 0.0 0.0 0.0 0.0 0.0 0.0 0.0 0.0 0.0 0.0 0.0 0.0 0.0 0.0 0.0 0.0 0.0 0.0 0.0 0.0 0.0 0.0 0.0 0.0 0.0 0.0 0.0 0.0 0.0 0.0 0.0 0.0 0.0 0.0 0.0 0.0 0.0 0.0 0.0 0.0 0.0 0.0 0.0 0.0 0.0 0.0 0.0 0.0 0.0 0.0 0.0 0.0 0.0 0.0 0.0 0.0 0.0 0.0 0.0 0.0 0.0 0.0 0.0 0.0 0.0 0.0 0.0 0.0 0.0 0.0 0.0 0.0 0.0 0.0 0.0 0.0 0.0 0.0 0.0 0.0 0.0 0.0 0.0 0.0 0.0 0.0 0.0 0.0 0.0 0.0
-0.100288 -0.111105 0.206443 0.033412 -0.066884 0.100828 -0.064615 -0.085362 -0.058774 0.130339 0.211631 0.129352 0.056046 0.098238 0.156927 0.062911 -0.005382 0.139617 -0.091052 0.029705 -0.022385 0.098777 0.020594 0.088931 0.005636 0.04387 -4.86E-4 -0.086953 0.004079 -0.071992 -0.165984 -0.060284 0.093826 0.17862 -0.040951 0.087199 -0.033991 -0.060627 -0.040434 0.136882 0.005093 0.146668 0.045263 -0.179404 0.119535 -0.011513 0.042678 -0.042196 -0.040801 -0.118926 0.1685 -0.026788 0.067633 0.105703 0.006956 -0.096793 -0.138029 0.091982 0.115815 0.078945 -0.043292 -0.010631 -0.039234 -0.062858 0.118401 0.002457 0.105973 0.04478 0.1032 -0.229885 -0.078058 -0.095281 0.129148 -0.122918 -0.028429 0.141629 0.001219 -0.12479 0.017319 -0.02817 -0.180985 0.005269 -0.103234 -0.271084 0.030072 0.051254 -0.037186 0.164287 0.160256 -0.021997 -0.07636 -0.023494 0.05185 -0.011499 -0.113033 0.048588 0.087071 0.147721 0.082771 0.007058
-2.648351 -0.794316 -2.108887 0.20446 0.883061 0.242784 1.848653 1.149137 -4.975573 0.237654 -1.499665 2.924494 0.344217 -1.640431 0.763777 0.138944 -3.029439 -2.813434 -0.761102 -1.057557 -1.373735 -0.870599 1.234095 0.127805 -1.372618 1.35802 -1.501738 0.80945 0.172993 -0.484995 1.783363 -0.047587 0.483285 -1.526831 2.103549 2.116639 4.583491 -4.022388 -0.843817 0.361243 -0.546655 -2.301259 -2.000973 2.64631 -1.604053 -1.914206 -1.581895 -0.464185 1.757769 1.056301 0.263866 -0.904419 -0.422466 0.007824 -1.651553 0.7499 1.638666 -0.336108 -3.288466 -2.953238 -1.135414 1.165223 -1.047256 -0.821696 -0.135806 0.434207 -2.389307 -3.56953 -0.656773 0.578325 3.337902 0.782195 -1.250815 2.925509 -1.981492 0.121786 0.836257 1.710923 -2.640405 -0.628995 0.247469 0.863847 1.749171 -0.214156 -0.274807 2.192709 -0.892334 -1.614644 -1.225919 -0.042182 2.51632 3.464583 -3.591523 -2.506587 0.990426 1.8843 -2.460629 0.953462 0.359605 2.267383
0.0 0.0 0.0 0.0 0.0 0.0 0.0 0.0 0.0 0.0 0.0 0.0 0.0 0.0 0.0 0.0 0.0 0.0 0.0 0.0 0.0 0.0 0.0 0.0 0.0 0.0 0.0 0.0 0.0 0.0 0.0 0.0 0.0 0.0 0.0 0.0 0.0 0.0 0.0 0.0 0.0 0.0 0.0 0.0 0.0 0.0 0.0 0.0 0.0 0.0 0.0 0.0 0.0 0.0 0.0 0.0 0.0 0.0 0.0 0.0 0.0 0.0 0.0 0.0 0.0 0.0 0.0 0.0 0.0 0.0 0.0 0.0 0.0 0.0 0.0 0.0 0.0 0.0 0.0 0.0 0.0 0.0 0.0 0.0 0.0 0.0 0.0 0.0 0.0 0.0 0.0 0.0 0.0 0.0 0.0 0.0 0.0 0.0 0.0 0.0
-0.110142 -0.138733 0.052139 -0.176781 -0.116365 0.017821 -0.011755 2.45E-4 -0.017109 0.191863 0.231784 0.230544 0.09841 0.029382 0.009015 0.221647 -0.02335 0.121875 0.074668 0.037647 -0.084047 0.159779 0.103959 -0.041343 -0.102526 -0.195034 -0.018776 -0.058916 0.351885 -0.041301 -0.020543 -0.155754 -0.204395 0.14389 -0.190464 -0.121767 -0.032053 0.047393 0.12928 0.041547 -0.158481 0.056697 0.062111 -0.009165 -0.002775 -0.02592 -0.011892 -0.017878 -0.202271 0.120456 0.007204 -0.064358 0.012328 0.07233 0.006464 -0.08165 0.105491 0.138968 0.21518 -0.077728 0.213769 -0.043824 -0.035678 0.005465 -0.064464 -0.064671 0.176783 -0.059261 0.026136 -0.111703 0.056701 0.006467 0.048545 0.032773 -0.054741 -0.058911 -0.175139 -0.075584 -0.010727 0.208908 0.016014 0.204822 0.055492 -0.177868 -0.045545 0.160796 0.064855 -0.085847 0.272859 0.104412 -0.099487 -0.140577 3.94E-4 0.028107 -0.090122 -0.106669 0.212794 -0.009233 -0.03869 0.027175
-0.077844 -0.095127 -0.111959 0.065958 -0.003771 0.093852 0.030974 -0.075409 -0.074892 0.013177 0.101977 0.027327 0.05946 -0.080095 0.014705 -0.09859 -0.026689 -0.016633 0.072144 -0.081778 -0.183838 -0.047565 0.085606 -0.003651 -0.043222 -0.020795 -0.160589 -0.241323 0.016205 0.120565 -0.038762 -0.067004 0.088518 0.04372 -0.238674 -0.048688 -0.014105 -0.036928 0.075668 0.128212 0.086474 0.036517 0.061158 0.039984 -0.204918 -0.122368 -0.096009 0.158666 -0.065896 -0.183033 0.022882 0.070648 -0.007476 0.140778 -0.201101 -0.0146 0.029869 -0.115793 0.095508 -0.088153 -0.144524 -0.009662 0.146956 -0.009012 -0.014679 0.241462 0.004318 0.068123 -0.001405 -0.04821 0.082995 -0.007983 -0.078808 0.002809 0.119805 -0.099238 -0.095953 -0.219711 -0.150567 -0.004243 0.020732 0.186372 0.011305 0.018282 0.091077 0.140092 0.023684 -0.071639 0.082287 0.007248 -0.029663 0.080984 -0.017821 -0.128594 0.126463 0.063795 -0.218613 0.051722 -3.48E-4 -0.033175
2.591633 1.608701 -2.087245 2.00752 3.012652 4.995656 0.847355 -1.594905 -0.365708 -1.629805 -1.650237 3.712017 -0.231463 -0.537534 -2.036098 2.002639 -0.696666 -4.310136 -1.477319 -1.356504 -0.581823 -1.830239 -0.272773 -1.648095 0.090509 0.008711 0.330842 0.396714 2.341035 -0.526067 1.155793 -1.730906 -1.010387 -1.342646 -1.939355 0.734869 0.727366 0.700702 1.516974 -2.133831 -0.280653 -3.051674 0.017123 0.532043 1.478449 0.375441 0.920129 1.548929 1.087478 0.668327 0.707416 3.249232 -0.362503 1.273221 -2.929682 -0.245389 1.633444 -0.119836 0.103459 -3.445175 0.513245 0.427807 0.738792 1.448203 0.501908 0.362882 -0.731533 -0.391201 0.037778 3.053553 4.030229 1.793904 1.24136 0.081706 -1.401954 -0.638804 -0.487445 -0.267924 0.012844 0.538179 -0.241935 -0.068756 1.351665 -0.112558 0.001814 0.447262 0.833441 -0.023876 1.212707 1.514635 -0.568611 0.376173 -3.663739 -4.345135 -0.444319 2.139788 -2.53093 0.92131 -1.399435 1.763954
-0.075677 -0.102597 0.084449 0.001146 -0.107687 0.018397 -0.104487 0.054325 -0.189182 0.019413 0.124626 0.089478 -0.133804 0.206899 -0.002144 0.195373 0.076855 0.118614 0.186572 -0.033133 0.047151 0.100249 0.060759 0.073985 -0.0498 -0.1979 0.127451 0.118576 -0.050228 -0.228623 -0.112861 -0.10485 -0.204727 0.198856 -0.175688 -0.143099 0.005708 -0.048797 0.036382 -0.104848 -0.233 0.058448 0.086919 0.073111 -0.024038 -0.048792 -0.030349 -0.051261 0.001278 0.019489 0.268476 -0.090533 -0.242128 -0.11913 -0.049764 -0.098197 0.084777 -0.011997 0.127781 -0.145529 0.018303 -0.09823 -0.022329 0.014355 -0.135725 0.050814 0.101133 0.135312 0.135262 0.128487 0.044607 -0.05772 0.061343 -0.20129 0.147641 -0.010198 -0.207526 0.065835 -0.148188 -0.16481 0.178853 -0.054851 0.090044 -0.073413 -0.138759 -0.13852 0.128027 0.100866 0.101283 -0.113527 0.003262 -0.111685 -0.100998 0.211075 -0.123315 -0.149002 -0.017135 -0.029072 0.033094 0.054007
0.002907 0.002678 -0.001772 -0.140016 0.11827 0.062336 -0.055585 0.132028 -0.180458 -0.058103 -0.102556 0.176134 0.215651 0.053836 0.014059 -0.138125 0.262088 -0.066797 0.021895 -0.014445 -0.243554 0.133797 0.124502 -0.170376 0.103209 -0.152492 -0.016444 0.065873 0.075093 -0.141008 0.010351 -0.211274 0.030078 0.128053 -0.097595 0.008865 -0.034934 0.100454 0.057446 -0.169281 -0.039609 0.071303 0.04587 -0.093623 0.099306 -0.005902 0.141862 0.010969 -0.154949 -0.064934 0.028127 0.031589 0.150995 -0.21482 0.066392 -0.050602 -0.004588 -0.151036 0.022639 -0.045599 -0.219673 -0.065413 -0.053623 -0.151171 0.160451 0.090112 -0.003565 -0.041657 0.056882 -0.064843 0.126542 0.061254 -0.05811 0.046613 -0.114844 -0.027552 -0.034189 0.092488 0.058434 -0.057169 -0.037973 0.081291 -0.199 0.11889 -0.233506 -0.058448 0.015945 -0.036632 0.08356 0.02663 -0.012953 0.036208 0.126122 0.020492 0.085884 0.009103 0.062719 0.130323 0.0799 0.210031
0.352905 0.550922 -1.128945 -0.511125 0.774489 1.405335 -0.371647 0.106012 -0.779785 -0.640302 -0.68578 1.570717 -0.712288 -0.706705 -0.789609 -0.045278 -1.599722 -2.840112 -0.089543 -1.158838 -1.862605 -0.62748 -0.063542 -0.468696 0.750564 0.033551 -0.772222 -0.188991 -0.163115 0.455978 0.038455 -0.779588 0.172303 -1.114448 -0.548246 -0.008155 1.66721 -0.744821 -0.15746 -2.668482 -0.304702 -0.905716 0.479063 0.151803 -0.94063 -0.044338 -0.906122 -0.456182 0.281891 0.268287 0.47007 0.628019 0.328428 1.471286 -2.345457 0.072073 -0.345477 -0.998199 -1.496897 -0.053061 0.351206 -0.934426 0.295591 0.07336 0.24092 0.486976 0.390085 -0.621556 0.375246 -0.02625 1.957847 1.014101 0.004675 0.08874 -0.900479 -0.462149 0.922254 1.355385 -1.048724 0.105897 1.254466 0.410718 0.321258 1.066395 -0.171761 -0.128774 0.315556 0.697301 -0.180925 0.555334 1.005586 -0.891677 -1.232923 -1.994189 -0.567812 0.204184 -0.947385 -0.051526 -0.987029 0.725141
0.08663 -0.089349 0.061914 0.15281 0.057001 -0.020268 -0.045239 0.008382 -0.064741 0.1971 0.079209 0.089568 -0.055233 -0.086365 0.047407 0.057845 0.006038 0.118478 0.055141 -0.018281 -0.073745 -0.046145 -0.021323 -0.187421 0.090458 -9.0E-5 -0.036437 0.074916 0.04541 0.014026 -2.57E-4 -0.071082 -0.025625 0.124592 -0.0331 -0.08694 0.106656 -0.093199 -0.021217 -0.066537 -0.184774 0.092346 0.011484 0.056025 0.019109 0.121266 0.006253 0.006119 -0.013505 -0.020603 -0.01595 -0.010852 -0.123464 0.008833 0.025778 -0.146755 0.064106 0.13092 0.101283 0.133284 0.055213 -0.165458 0.051027 0.029321 -0.007771 0.059088 0.130454 -0.049053 0.056771 -0.126263 -0.043378 0.148147 -0.015594 -0.02978 -0.150433 -0.170976 -0.126467 -0.017516 0.093437 0.076199 -0.087022 0.078013 0.051417 -0.088354 0.187977 0.04285 0.043696 0.061102 0.245104 -0.060219 0.178628 -0.025416 0.119125 0.014069 -0.114115 -3.54E-4 0.157045 -0.009211 -0.016578 0.041273
2.23963 0.995628 -0.629034 0.970743 -0.151304 -1.96745 -0.479836 2.267731 -0.157376 0.465989 0.513555 0.488054 2.996192 -0.904071 -0.915406 1.346912 1.146353 1.727496 -2.60228 -1.215756 -0.434332 1.072045 -0.031494 -2.752753 0.294804 0.296318 1.791723 1.776268 3.46874 0.840429 0.941054 -2.382837 -0.135839 -0.728136 -3.082037 -1.038549 1.328007 0.538977 1.154596 -2.291875 -0.311445 -2.365236 -0.610554 0.007739 -0.971215 -0.569865 -2.075689 2.02562 1.929249 -0.55151 0.92286 -1.314289 1.642206 -0.793862 -1.181066 2.102758 0.659225 2.784402 1.027376 -0.851722 -2.487188 -2.729335 -1.400466 1.721308 1.380498 -0.610845 3.400507 -1.775656 -1.261482 0.762666 2.270924 0.448103 0.177186 0.859562 -1.014886 -1.690158 -0.270738 -0.050104 0.567753 1.903913 0.306567 0.679853 0.554423 -1.777509 1.112761 -0.924584 0.492472 -2.030836 0.293535 0.548002 1.376982 1.321037 -0.583766 0.683336 -1.368104 0.430677 1.268813 2.888813 -1.415538 -1.982777
-0.090948 -0.08306 0.176342 0.16125 -0.023708 -0.085015 -0.219096 0.06927 -0.105558 -0.078932 -0.069518 -0.030339 0.182963 -0.078126 -0.065131 -0.122441 0.102091 -0.064382 -0.050327 -0.045548 -0.238931 -0.013807 0.080997 -0.031433 -0.048329 -0.141765 0.147592 0.130112 0.024827 -0.078885 -0.029862 0.132099 -0.005956 0.147619 -0.358566 -0.027381 0.154402 -0.11775 -0.011812 -0.182049 -0.079839 -0.007366 -0.093024 -0.088961 -0.005736 -0.113245 0.056822 0.178621 0.007479 -0.05182 -0.08051 -0.080453 0.092853 0.062126 0.028831 0.079223 0.021924 0.123511 -0.224922 -0.014866 -0.094919 -0.211336 -0.240959 0.224064 0.125659 -0.031666 0.177253 -0.148643 0.107903 -0.066362 0.149491 -0.036252 -0.037056 0.143522 -0.17556 -0.112106 0.017605 0.02288 -0.230457 0.002042 0.127383 0.168671 0.095976 -0.227144 0.169042 0.047952 0.065028 -0.083179 0.04532 9.65E-4 0.090809 -0.028896 -0.042588 0.038239 0.050725 -0.048462 -0.059772 0.061277 -0.066654 -0.053033
-0.081886 0.08331 -0.028382 0.124027 -0.036617 -0.043156 0.009069 0.134815 -0.09018 -0.041327 -0.033041 0.045117 0.055155 -0.009991 -0.124044 -0.188976 0.104629 0.110813 -0.06637 0.155515 0.061604 0.079554 0.076605 -0.126117 -0.053801 0.009985 -0.071253 -0.014116 -0.099278 -0.056385 -0.107187 -0.152096 0.036669 0.012115 0.090789 -0.092586 -0.017654 0.077995 -0.037351 0.030685 -0.009524 0.066678 -0.091618 -0.033864 -0.096038 -0.056734 -0.054848 -0.009941 0.097215 0.068939 -0.170422 0.005656 0.015225 -0.030557 -0.016547 -0.057579 -0.197706 0.045143 -0.022137 -0.012842 -0.007553 0.160793 0.171306 0.045646 0.007079 0.192991 0.013734 0.059926 -0.121218 -0.016479 0.059871 -0.021013 0.115005 -0.022912 -0.048291 0.175074 0.016307 0.020637 0.061035 -0.210906 0.10931 2.84E-4 -0.03172 -0.017428 3.65E-4 -0.081142 0.047955 0.200429 -0.201312 0.028431 -0.024579 -0.114419 0.022804 0.00838 0.158407 0.256447 -0.02784 0.037138 0.02529 -0.009391
0.0 0.0 0.0 0.0 0.0 0.0 0.0 0.0 0.0 0.0 0.0 0.0 0.0 0.0 0.0 0.0 0.0 0.0 0.0 0.0 0.0 0.0 0.0 0.0 0.0 0.0 0.0 0.0 0.0 0.0 0.0 0.0 0.0 0.0 0.0 0.0 0.0 0.0 0.0 0.0 0.0 0.0 0.0 0.0 0.0 0.0 0.0 0.0 0.0 0.0 0.0 0.0 0.0 0.0 0.0 0.0 0.0 0.0 0.0 0.0 0.0 0.0 0.0 0.0 0.0 0.0 0.0 0.0 0.0 0.0 0.0 0.0 0.0 0.0 0.0 0.0 0.0 0.0 0.0 0.0 0.0 0.0 0.0 0.0 0.0 0.0 0.0 0.0 0.0 0.0 0.0 0.0 0.0 0.0 0.0 0.0 0.0 0.0 0.0 0.0
-0.062338 -0.124399 0.222502 0.171342 -0.145245 -0.032374 -0.075462 -0.014118 0.083902 0.152422 0.152625 0.053222 -0.063609 -0.082105 0.127556 0.341953 -0.049064 0.121494 0.092791 0.172334 -0.126053 0.107444 0.313795 0.085774 -0.123598 -0.150989 -0.029682 0.011488 0.204145 -0.156859 -0.024337 -0.141687 0.016288 0.098427 -0.027396 -0.049221 -0.008055 -0.103217 0.057424 0.098527 0.004836 0.07801 -0.003217 -0.10341 -0.001169 -0.174447 0.083729 0.010583 -0.164549 0.126125 0.094658 -0.137487 -0.018932 0.032768 0.076673 -0.158112 -0.001802 0.083678 0.140364 -0.133812 0.057549 -0.038643 0.08358 -0.11427 -0.128801 -0.039315 0.124813 -0.06215 0.054214 -0.076049 -0.02626 -0.035573 -0.123242 0.049204 -0.070051 -0.034477 -0.199232 -0.09361 -0.0969 0.015546 -0.131448 0.173865 0.129118 -0.219474 0.044803 0.08539 0.023968 0.035078 0.253595 -0.091363 -0.141844 0.030406 -0.021609 0.091249 -0.051436 -0.181611 0.025554 0.023735 -0.077116 6.83E-4
0.0 0.0 0.0 0.0 0.0 0.0 0.0 0.0 0.0 0.0 0.0 0.0 0.0 0.0 0.0 0.0 0.0 0.0 0.0 0.0 0.0 0.0 0.0 0.0 0.0 0.0 0.0 0.0 0.0 0.0 0.0 0.0 0.0 0.0 0.0 0.0 0.0 0.0 0.0 0.0 0.0 0.0 0.0 0.0 0.0 0.0 0.0 0.0 0.0 0.0 0.0 0.0 0.0 0.0 0.0 0.0 0.0 0.0 0.0 0.0 0.0 0.0 0.0 0.0 0.0 0.0 0.0 0.0 0.0 0.0 0.0 0.0 0.0 0.0 0.0 0.0 0.0 0.0 0.0 0.0 0.0 0.0 0.0 0.0 0.0 0.0 0.0 0.0 0.0 0.0 0.0 0.0 0.0 0.0 0.0 0.0 0.0 0.0 0.0 0.0
-0.056914 -0.217986 0.089741 -0.202397 -0.111876 3.58E-4 0.103781 -0.078983 -0.099879 0.03409 0.115647 -0.083219 0.256699 0.026267 -0.111952 0.097758 0.004936 0.113418 0.025651 -0.017128 -0.105235 -0.11542 0.271633 0.177784 -0.248305 -0.234808 0.002026 -0.153928 0.140914 -0.155503 0.235502 -0.105196 -0.070666 -0.039014 -0.132116 0.003968 -0.030979 -0.191948 0.123079 0.086435 -0.09775 -0.039066 0.045015 0.073815 -0.033826 -0.005732 -0.035222 -0.192003 -0.080778 0.134891 0.20254 -0.040938 -0.007388 0.037378 -0.093975 -0.057653 0.130649 -0.005688 0.003766 0.071896 0.209541 -0.105452 0.018233 -0.043691 -0.105979 -0.022797 0.053277 -0.036101 0.080818 -0.043414 0.018528 0.04212 -0.047058 -0.165309 -0.022808 0.045116 -0.228238 0.047629 -0.110446 -0.106899 0.031418 0.093544 0.152496 -0.22961 -0.013462 0.057347 -0.079868 0.055385 0.208318 0.035764 -0.17485 -0.098348 0.087533 -0.033752 -0.078916 -0.125425 0.02397 -0.084893 0.164204 -0.189526
0.067377 0.167786 0.09896 0.017944 0.174549 0.126919 -0.084202 -0.149942 -0.064377 0.199455 0.089785 0.214208 -0.01322 0.189539 -0.090288 0.315172 -0.166759 -0.164355 0.077162 0.066694 -0.220616 0.092524 0.100813 -0.155512 0.121636 -0.207084 -0.149325 0.242827 0.118428 -0.043008 0.150932 -0.035871 -0.187139 0.054318 -0.178495 -0.085548 0.18211 -0.217777 -0.134172 -0.170366 0.078932 0.032621 -0.058585 0.015263 -0.127023 -0.079414 0.088013 0.046081 0.062006 0.039061 0.078228 0.024263 -0.114188 -0.057203 -0.071457 -0.062522 -0.024913 -0.057083 0.092081 -0.131139 -0.00464 -0.051475 -0.139331 -0.041082 -0.122161 -0.049017 0.316582 -0.033459 -0.053022 0.025468 0.027665 0.030294 -0.154841 0.04007 -0.081974 0.117357 0.057589 -0.05762 -0.224865 -0.01433 -0.004588 0.050466 -0.143762 -0.086275 0.143041 0.062615 0.107825 -0.140153 0.053746 0.159044 -0.001637 -0.015863 -0.142074 -0.189474 -0.022071 0.169778 0.122445 0.068262 -0.016883 -0.021302
0.028566 0.135166 0.096699 0.105631 0.036535 -0.143409 0.086774 0.050924 0.108259 0.038707 0.117569 0.277209 0.088768 0.147454 0.049805 0.209769 -0.140023 -0.044747 -0.020261 -0.095157 -0.074908 0.102905 -0.115126 -0.068426 -0.035475 -0.030235 0.033792 0.211817 0.155358 -0.029238 -0.010171 0.055346 0.068868 0.040866 0.062192 -0.061423 0.004606 -0.055839 -0.122253 0.018865 -0.086782 0.075329 -0.011442 0.05577 -0.021768 0.044243 0.281932 -0.256007 -0.140494 0.150427 0.058319 -0.089054 0.082799 -0.168304 0.13356 -0.027805 -0.071835 -0.091562 -0.174502 6.17E-4 0.007892 -0.017618 -0.104252 0.034519 0.092304 -0.251686 -0.163454 -0.087788 -0.003563 -0.032691 -0.144932 0.063617 -0.009836 -0.079796 0.008017 0.176916 -0.038438 -6.72E-4 -0.038006 -0.181938 0.179608 0.090493 -0.040085 0.056412 0.111268 -0.150258 -0.01833 0.036197 0.285553 0.145815 0.031913 0.030398 0.078263 0.123398 -7.05E-4 -0.102937 0.152214 0.03334 0.09407 -0.022901
0.007246 0.053204 0.100928 0.006342 -0.101763 -0.085197 -0.083461 -0.123321 -0.100071 -0.042788 -0.155182 0.073053 -0.120455 0.059108 0.2188 0.103057 0.06081 0.00949 -0.182921 0.034294 -0.122566 -0.124692 0.14027 0.020579 -0.119203 -0.013958 -0.156626 0.105013 0.218325 -0.087863 -0.012293 -0.149912 -0.102018 0.191563 0.052477 0.053501 0.163665 0.035356 0.069416 0.115013 -0.105517 0.133498 0.044305 0.046916 -0.031637 0.092181 -0.128598 0.004537 -0.117556 -0.017436 0.142292 -0.170739 -0.094203 -0.159656 0.003728 0.017704 -0.079291 -0.10274 0.020011 -0.019057 -0.097359 -0.03764 -0.0914 -0.086059 0.119906 0.067012 0.096686 0.157964 0.068966 -0.023785 0.046974 -0.008436 -0.065665 0.102192 0.01846 0.034072 0.013473 -0.054716 0.045957 -0.220794 -0.231742 0.033982 0.162247 0.016021 0.050697 0.09313 2.07E-4 -0.205807 -0.080609 0.012886 -0.152411 -0.018133 -0.019331 0.073492 -0.026605 -0.060685 -0.069619 0.142252 -0.100558 -0.024004
0.0 0.0 0.0 0.0 0.0 0.0 0.0 0.0 0.0 0.0 0.0 0.0 0.0 0.0 0.0 0.0 0.0 0.0 0.0 0.0 0.0 0.0 0.0 0.0 0.0 0.0 0.0 0.0 0.0 0.0 0.0 0.0 0.0 0.0 0.0 0.0 0.0 0.0 0.0 0.0 0.0 0.0 0.0 0.0 0.0 0.0 0.0 0.0 0.0 0.0 0.0 0.0 0.0 0.0 0.0 0.0 0.0 0.0 0.0 0.0 0.0 0.0 0.0 0.0 0.0 0.0 0.0 0.0 0.0 0.0 0.0 0.0 0.0 0.0 0.0 0.0 0.0 0.0 0.0 0.0 0.0 0.0 0.0 0.0 0.0 0.0 0.0 0.0 0.0 0.0 0.0 0.0 0.0 0.0 0.0 0.0 0.0 0.0 0.0 0.0
-0.132305 -0.102792 -0.029859 -0.230099 -0.140204 -0.06014 -0.139605 0.185472 -0.132566 0.268057 0.023545 0.005611 -0.115685 0.04014 -0.056793 0.208309 0.117472 -0.010778 0.07504 0.010637 -0.234487 0.062758 0.012634 -0.306911 0.015636 0.068398 -0.07477 0.009131 0.082013 0.051221 -0.409628 0.023654 -0.159268 -0.062993 -0.266755 -0.192722 0.097041 -0.088024 0.008244 0.129273 -0.061962 0.221187 0.052459 0.21719 -0.036604 -0.117766 -0.128405 0.099118 -0.221794 0.264003 0.003464 -0.287465 -0.002661 0.111597 0.117668 -0.250604 0.265661 -0.045292 0.194242 0.121126 0.064685 -0.004625 0.227673 -0.255845 0.115699 0.023479 0.14117 0.031377 0.117975 -0.050365 -0.108587 -0.022828 -0.083246 0.25073 0.026593 0.109797 -0.015274 0.094582 0.086989 -0.025321 -0.121404 0.200354 0.05791 -0.110193 -0.236108 0.036072 0.165525 -0.135961 -0.00669 0.038856 -0.071017 0.188259 0.03218 0.110362 0.015492 -0.332605 -0.012613 -0.160166 0.151398 -0.143801
-0.671963 -1.356401 3.602218 0.823366 -0.502176 -0.026847 2.688116 0.953721 0.412325 -0.074957 -2.563688 0.379861 -0.279054 0.512633 -0.426346 -0.669122 -2.193019 -1.985633 1.195718 -0.843091 -3.07709 -2.336138 0.676971 -1.157188 0.84245 -0.067074 1.662677 -0.902702 0.573933 0.762577 1.605777 -0.494156 -0.764054 -4.857189 1.199538 0.081996 1.582965 -1.800896 1.133021 -2.874443 -0.067305 0.527258 -0.963475 2.056148 -0.810059 -2.590427 0.192699 -0.925293 0.533123 0.50128 0.198265 1.047486 -1.15476 -0.133629 -3.660616 2.9145 0.67414 -1.747608 -1.472014 0.506851 -0.089567 -1.009712 -0.989767 -0.231732 -1.20197 -0.899847 -0.180586 -0.280434 1.214359 0.601947 3.002038 1.452004 1.898121 0.64863 -0.773459 -0.546508 1.482508 0.349815 -0.022055 1.977613 1.349274 -0.187718 2.026595 2.419264 -2.256871 -0.764584 -0.110956 2.609596 -0.511332 0.497735 1.205947 -0.553892 0.146347 -2.201324 -0.117853 -0.193777 0.312823 3.388883 -4.036498 2.412019
0.0 0.0 0.0 0.0 0.0 0.0 0.0 0.0 0.0 0.0 0.0 0.0 0.0 0.0 0.0 0.0 0.0 0.0 0.0 0.0 0.0 0.0 0.0 0.0 0.0 0.0 0.0 0.0 0.0 0.0 0.0 0.0 0.0 0.0 0.0 0.0 0.0 0.0 0.0 0.0 0.0 0.0 0.0 0.0 0.0 0.0 0.0 0.0 0.0 0.0 0.0 0.0 0.0 0.0 0.0 0.0 0.0 0.0 0.0 0.0 0.0 0.0 0.0 0.0 0.0 0.0 0.0 0.0 0.0 0.0 0.0 0.0 0.0 0.0 0.0 0.0 0.0 0.0 0.0 0.0 0.0 0.0 0.0 0.0 0.0 0.0 0.0 0.0 0.0 0.0 0.0 0.0 0.0 0.0 0.0 0.0 0.0 0.0 0.0 0.0
2.591633 1.608701 -2.087245 2.00752 3.012652 4.995656 0.847355 -1.594905 -0.365708 -1.629805 -1.650237 3.712017 -0.231463 -0.537534 -2.036098 2.002639 -0.696666 -4.310136 -1.477319 -1.356504 -0.581823 -1.830239 -0.272773 -1.648095 0.090509 0.008711 0.330842 0.396714 2.341035 -0.526067 1.155793 -1.730906 -1.010387 -1.342646 -1.939355 0.734869 0.727366 0.700702 1.516974 -2.133831 -0.280653 -3.051674 0.017123 0.532043 1.478449 0.375441 0.920129 1.548929 1.087478 0.668327 0.707416 3.249232 -0.362503 1.273221 -2.929682 -0.245389 1.633444 -0.119836 0.103459 -3.445175 0.513245 0.427807 0.738792 1.448203 0.501908 0.362882 -0.731533 -0.391201 0.037778 3.053553 4.030229 1.793904 1.24136 0.081706 -1.401954 -0.638804 -0.487445 -0.267924 0.012844 0.538179 -0.241935 -0.068756 1.351665 -0.112558 0.001814 0.447262 0.833441 -0.023876 1.212707 1.514635 -0.568611 0.376173 -3.663739 -4.345135 -0.444319 2.139788 -2.53093 0.92131 -1.399435 1.763954
-0.027327 -1.656293 -0.524866 0.110664 -0.52026 1.009198 -2.599292 -0.294518 -0.511318 -0.148872 0.087494 0.397531 -0.003431 -1.676265 0.201561 -0.886061 2.981727 0.22742 0.889621 -1.194339 1.452378 3.588093 2.769029 -0.962405 0.001316 -0.138177 3.026214 -1.796844 -0.483259 -0.61188 -1.098622 -1.414737 -1.520669 -0.879894 -1.546779 -0.422098 -0.279168 -2.061329 -0.361026 -1.492839 0.526139 1.077681 -0.597791 0.602604 0.126602 -0.997847 -0.462697 -0.197263 1.432676 0.261468 -1.869515 0.147071 2.428037 1.210075 0.461999 0.215687 2.891937 -0.350382 -0.80721 -0.629124 0.583999 -0.552563 -0.067719 0.017494 1.379828 -0.52037 1.879248 -0.428807 0.118807 0.317664 3.420135 -0.893076 0.630781 1.700192 -2.120375 -0.87662 -0.013817 1.232316 0.555405 3.743715 1.435807 -1.289039 -0.462914 -0.452432 1.310413 -0.656088 0.446135 0.818541 -0.079719 1.434994 -1.967841 0.326504 0.344169 -0.277143 0.051434 1.448153 -0.248723 1.417056 -1.920541 1.488037
0.141196 0.052599 -0.138805 -0.092562 -0.063775 0.069336 -0.095249 0.054086 -0.118826 0.032599 -0.034501 0.175105 0.089501 0.009795 -0.009168 -0.110243 -0.087625 0.010161 -0.040562 -0.11574 -0.010395 0.053945 0.037378 -0.1893 -0.015621 0.060434 0.055667 -0.145474 0.120003 -0.073547 -0.004778 0.083865 -0.025539 -0.046744 -0.15314 0.167842 -0.053871 -0.056327 0.300596 -0.02341 -0.195746 -0.066088 0.008622 -0.075516 0.213425 -0.075668 0.014573 -0.019897 -0.05888 0.068081 0.073767 0.110934 0.173758 0.10975 -0.223197 0.08056 0.061138 -0.096377 -0.046019 4.87E-4 0.024952 0.053067 -0.100264 -0.045818 -0.048836 0.046037 0.069794 -0.061396 0.223469 0.004213 0.175924 0.094241 0.079344 0.094925 0.019199 -0.123294 0.103848 -0.195709 -0.053408 0.182218 0.023207 -0.064607 0.015341 0.046131 0.279467 0.025191 0.004044 0.065727 0.068104 0.047568 -0.007126 0.001787 0.097351 -0.182288 -0.119327 -0.058741 0.135422 0.090671 -0.071509 0.201578
0.078167 -0.073333 -0.092109 -0.065243 0.119627 -0.058675 0.128436 0.020475 -0.01228 -0.090399 -0.347931 0.059294 -0.081813 0.077384 0.163592 0.108034 0.136083 0.129813 0.157539 0.039815 -0.094348 0.045872 0.019834 -0.094643 -0.178086 0.010657 0.036587 0.024584 0.125884 -0.197722 -0.103599 0.257331 0.10009 0.080706 -0.157509 -0.06166 -0.141348 0.073321 -0.069082 0.061784 0.083855 -0.133938 0.086678 -0.254293 0.140099 -0.136879 -0.042846 -0.012828 0.163501 0.188484 -0.009084 -0.024892 -0.013541 0.088367 0.084209 0.018297 -0.093453 0.030204 -0.184 -0.180824 0.009056 0.079662 0.112029 -0.32369 0.161488 0.053189 0.036678 -0.028272 -0.089101 0.012619 0.064379 -0.024677 0.184016 0.073272 -0.044837 0.089895 0.291571 0.060272 -0.027747 0.102382 0.038145 0.088176 0.077789 -0.106419 -0.0474 0.097354 -0.098132 0.091895 0.089876 0.140749 -0.165918 -0.04959 -0.023229 -0.041909 0.032437 -0.143261 -0.14711 -0.022768 -0.045811 0.090815
-0.137448 -0.165271 0.130333 -8.0E-6 0.050107 -0.043931 -0.171677 0.007721 0.007373 0.067054 0.148393 0.137749 0.003854 -0.074689 0.190885 0.206584 -0.06847 0.211763 0.104202 0.069106 -0.183194 0.157317 0.223718 0.072586 -0.222323 -0.06536 -0.116532 -0.05973 0.221449 -0.106996 -0.055916 0.001211 -0.118776 0.119528 -0.113563 -0.05341 -0.032128 -0.025061 0.007817 0.10942 0.0215 0.238177 -0.039143 0.010739 0.196476 0.042437 -0.095493 -0.02479 -0.193776 0.062079 0.183557 -0.080987 -0.050593 -0.021337 0.072036 -0.113533 -0.049801 0.001729 0.061789 -0.022361 0.167741 -0.147962 -0.057488 -0.106108 -0.12927 -0.015228 0.102432 0.131209 0.156765 -0.188598 -0.14315 -0.07012 -0.019995 0.004737 -0.03048 -0.033991 -0.211077 0.029496 -0.078768 -0.175085 -0.070657 0.10409 0.13433 -0.24066 -0.005294 0.139621 0.011315 -0.042964 0.232204 0.126593 -0.162153 -0.016772 0.01595 0.220821 -0.003108 -0.082105 0.143102 -0.084966 -0.08918 -0.066876
2.23963 0.995628 -0.629034 0.970743 -0.151304 -1.96745 -0.479836 2.267731 -0.157376 0.465989 0.513555 0.488054 2.996192 -0.904071 -0.915406 1.346912 1.146353 1.727496 -2.60228 -1.215756 -0.434332 1.072045 -0.031494 -2.752753 0.294804 0.296318 1.791723 1.776268 3.46874 0.840429 0.941054 -2.382837 -0.135839 -0.728136 -3.082037 -1.038549 1.328007 0.538977 1.154596 -2.291875 -0.311445 -2.365236 -0.610554 0.007739 -0.971215 -0.569865 -2.075689 2.02562 1.929249 -0.55151 0.92286 -1.314289 1.642206 -0.793862 -1.181066 2.102758 0.659225 2.784402 1.027376 -0.851722 -2.487188 -2.729335 -1.400466 1.721308 1.380498 -0.610845 3.400507 -1.775656 -1.261482 0.762666 2.270924 0.448103 0.177186 0.859562 -1.014886 -1.690158 -0.270738 -0.050104 0.567753 1.903913 0.306567 0.679853 0.554423 -1.777509 1.112761 -0.924584 0.492472 -2.030836 0.293535 0.548002 1.376982 1.321037 -0.583766 0.683336 -1.368104 0.430677 1.268813 2.888813 -1.415538 -1.982777
0.065222 0.211164 0.060405 -0.068479 0.106524 0.057011 0.009877 -0.080256 -0.036801 -0.042967 0.175546 -0.098641 -0.038055 0.155883 -0.004339 -0.085296 -0.224299 -0.131623 0.065235 0.060106 0.04491 -0.205677 -0.141289 -0.008696 -0.184013 -0.116937 -0.121551 -0.049128 -0.145272 -0.027616 -0.098388 -0.099583 0.043649 0.02329 -0.237462 -0.025872 0.069908 0.025347 0.108285 -0.194604 0.106578 -0.03696 0.068589 0.190001 -0.186572 0.207925 -0.045825 0.028484 -0.097446 -0.030718 -0.147722 -0.120271 0.099849 0.219412 -0.007244 -0.003571 -0.018849 0.029017 -9.03E-4 -0.390842 -0.25592 -0.003621 0.178069 -0.029014 0.027051 0.021481 -0.044595 -0.014981 0.076351 0.177248 0.112706 -0.074613 -0.296974 -0.261786 0.015011 -0.058235 0.188811 0.201168 -0.302075 -0.038216 -0.019218 0.136275 -0.109511 0.119639 0.046786 0.028381 0.033128 -0.053655 0.047019 -0.047804 0.203116 -0.171967 0.168386 0.246422 -0.131787 -0.010753 -0.031441 -0.018291 0.040192 -0.014846
-0.149681 0.068394 0.162776 -0.061269 0.057486 -0.067069 0.009098 0.160321 -0.152527 -0.097265 -0.141913 0.046103 -0.01545 0.096874 0.068099 0.003159 -0.104044 -0.108982 -0.115683 0.015673 0.084996 -0.107075 -0.065183 0.137921 -0.166173 -0.107533 -0.137193 0.005573 0.110514 -0.144375 0.026684 0.019524 0.118655 0.206282 -0.200681 0.122186 0.211041 0.045642 0.081684 0.080822 -0.057169 -0.037957 -0.186827 -0.017014 0.080616 0.064412 -0.018339 -0.092135 0.051688 0.006073 0.071722 -0.110578 -0.062785 -0.216584 -0.019128 -0.031832 0.021119 -0.129645 -0.113506 -0.058243 0.010242 -0.189891 0.044777 -0.047147 -0.017953 0.160458 -0.303998 0.113697 -0.048529 0.260775 -0.056202 0.115085 0.134086 0.193598 -3.47E-4 0.0181 0.096823 -0.130639 -0.263167 -0.189986 -0.107911 0.055959 0.147343 0.020094 -0.10175 -0.146844 0.03617 0.03618 -0.153064 0.060234 0.028268 0.006151 0.041029 -0.041744 0.224996 -0.072367 0.037797 -0.115339 0.081179 0.024268
-0.467921 -1.383882 -1.678015 -0.6027 3.767614 -0.759057 1.551067 0.1189 -0.383661 -0.155335 2.871233 3.546863 0.452564 0.299793 -0.29341 0.305229 1.039041 -3.758092 -1.477248 2.289557 -2.680408 2.540723 3.957598 -1.870584 1.94565 -2.847637 0.543211 0.956155 -1.138089 -0.766601 -0.912223 -2.438379 -0.746158 5.045136 0.992513 -0.727251 -2.731133 -0.089375 -1.075855 1.133576 -0.185849 -3.072574 -0.79421 -1.169097 0.463959 0.290789 -2.580767 0.367816 -0.346754 -2.590897 3.486596 -3.398266 1.741542 1.453118 -1.488942 0.85528 4.165485 1.465 -0.549161 -0.025481 -2.537666 -2.166763 -0.980953 -0.546525 -0.17285 -1.807029 0.842553 -1.804613 0.670838 1.058328 -0.756914 0.619763 3.227809 -1.314044 2.74459 3.224153 -1.151175 3.392939 0.040829 -0.76436 1.178459 3.638028 0.220292 -1.47041 -0.288354 1.37459 -1.243262 4.246599 1.391709 -0.206334 3.201069 2.321392 -5.056724 -1.519187 -0.993119 -0.140607 -1.227215 1.450035 3.334486 3.82919
-0.134479 -0.201092 0.102271 0.002669 0.120794 -0.087992 -0.031231 -0.040148 -0.159061 0.010352 0.041171 -0.002003 0.079042 0.280674 -0.029083 0.058437 -0.150388 0.035032 0.021108 0.233462 -0.217474 0.06723 0.276668 0.112478 -0.150351 -0.103645 0.070888 -0.143294 0.196721 -0.063561 -0.088609 0.11372 0.007442 0.106444 -0.198926 -0.102521 -0.004449 0.091836 -0.14093 0.151173 -0.151609 0.047041 -0.026158 0.004994 -0.030211 0.068682 0.04013 -0.118331 -0.004907 0.153485 -0.080778 0.014527 0.081006 0.004299 0.075357 -0.013429 -0.083725 -0.013959 0.060696 -0.088104 -0.09536 -0.072839 -0.114671 -0.219741 -0.02541 0.064584 0.048715 -0.077685 0.072836 0.015792 0.072638 -0.049939 0.013054 0.008565 -5.15E-4 -0.112807 0.013752 -0.013242 -0.028483 0.009564 -0.021688 0.212303 0.030531 0.025818 0.106601 0.099459 -0.024813 -0.061896 0.199817 -0.080639 -0.257613 -0.180528 0.006001 -0.099301 -0.090026 -0.414161 -0.130542 0.119803 -0.128566 0.103501
-0.101423 -0.111223 0.204943 0.132795 0.05788 0.002316 -0.036371 0.128742 -0.099987 -0.203751 -0.005747 -0.076661 0.061493 0.129923 0.03874 0.055627 -0.263836 -0.184604 0.011424 -0.007279 0.055684 -0.07375 0.014547 0.147661 -0.137906 -0.053606 -0.109156 0.116562 0.167124 -0.150614 0.060862 0.022001 -0.10916 0.25015 -0.078021 -0.006786 -0.141903 0.141898 -0.160938 -0.126208 0.099444 0.188346 -0.14893 0.061422 -0.089297 -0.141281 -0.053777 0.056071 -0.033157 -0.040216 0.128842 -0.039396 0.153451 -0.099596 0.009729 -0.066533 -0.087515 -0.014641 -0.090516 0.13632 -0.012204 -0.13469 0.080049 0.037476 -0.028325 0.033903 0.019994 0.045848 0.02642 0.068674 -0.091896 0.015101 0.058041 -0.015662 0.014985 0.073895 0.155834 -0.167799 -0.15315 0.063915 0.007151 -0.100262 0.020611 0.155 -0.277609 0.145833 0.11182 0.07878 -0.028091 -0.019437 0.04089 -0.021383 0.025695 0.057773 -0.115688 0.142605 -0.064814 -0.090623 0.132294 -0.086139
2.591633 1.608701 -2.087245 2.00752 3.012652 4.995656 0.847355 -1.594905 -0.365708 -1.629805 -1.650237 3.712017 -0.231463 -0.537534 -2.036098 2.002639 -0.696666 -4.310136 -1.477319 -1.356504 -0.581823 -1.830239 -0.272773 -1.648095 0.090509 0.008711 0.330842 0.396714 2.341035 -0.526067 1.155793 -1.730906 -1.010387 -1.342646 -1.939355 0.734869 0.727366 0.700702 1.516974 -2.133831 -0.280653 -3.051674 0.017123 0.532043 1.478449 0.375441 0.920129 1.548929 1.087478 0.668327 0.707416 3.249232 -0.362503 1.273221 -2.929682 -0.245389 1.633444 -0.119836 0.103459 -3.445175 0.513245 0.427807 0.738792 1.448203 0.501908 0.362882 -0.731533 -0.391201 0.037778 3.053553 4.030229 1.793904 1.24136 0.081706 -1.401954 -0.638804 -0.487445 -0.267924 0.012844 0.538179 -0.241935 -0.068756 1.351665 -0.112558 0.001814 0.447262 0.833441 -0.023876 1.212707 1.514635 -0.568611 0.376173 -3.663739 -4.345135 -0.444319 2.139788 -2.53093 0.92131 -1.399435 1.763954
2.23963 0.995628 -0.629034 0.970743 -0.151304 -1.96745 -0.479836 2.267731 -0.157376 0.465989 0.513555 0.488054 2.996192 -0.904071 -0.915406 1.346912 1.146353 1.727496 -2.60228 -1.215756 -0.434332 1.072045 -0.031494 -2.752753 0.294804 0.296318 1.791723 1.776268 3.46874 0.840429 0.941054 -2.382837 -0.135839 -0.728136 -3.082037 -1.038549 1.328007 0.538977 1.154596 -2.291875 -0.311445 -2.365236 -0.610554 0.007739 -0.971215 -0.569865 -2.075689 2.02562 1.929249 -0.55151 0.92286 -1.314289 1.642206 -0.793862 -1.181066 2.102758 0.659225 2.784402 1.027376 -0.851722 -2.487188 -2.729335 -1.400466 1.721308 1.380498 -0.610845 3.400507 -1.775656 -1.261482 0.762666 2.270924 0.448103 0.177186 0.859562 -1.014886 -1.690158 -0.270738 -0.050104 0.567753 1.903913 0.306567 0.679853 0.554423 -1.777509 1.112761 -0.924584 0.492472 -2.030836 0.293535 0.548002 1.376982 1.321037 -0.583766 0.683336 -1.368104 0.430677 1.268813 2.888813 -1.415538 -1.982777
0.08663 -0.089349 0.061914 0.15281 0.057001 -0.020268 -0.045239 0.008382 -0.064741 0.1971 0.079209 0.089568 -0.055233 -0.086365 0.047407 0.057845 0.006038 0.118478 0.055141 -0.018281 -0.073745 -0.046145 -0.021323 -0.187421 0.090458 -9.0E-5 -0.036437 0.074916 0.04541 0.014026 -2.57E-4 -0.071082 -0.025625 0.124592 -0.0331 -0.08694 0.106656 -0.093199 -0.021217 -0.066537 -0.184774 0.092346 0.011484 0.056025 0.019109 0.121266 0.006253 0.006119 -0.013505 -0.020603 -0.01595 -0.010852 -0.123464 0.008833 0.025778 -0.146755 0.064106 0.13092 0.101283 0.133284 0.055213 -0.165458 0.051027 0.029321 -0.007771 0.059088 0.130454 -0.049053 0.056771 -0.126263 -0.043378 0.148147 -0.015594 -0.02978 -0.150433 -0.170976 -0.126467 -0.017516 0.093437 0.076199 -0.087022 0.078013 0.051417 -0.088354 0.187977 0.04285 0.043696 0.061102 0.245104 -0.060219 0.178628 -0.025416 0.119125 0.014069 -0.114115 -3.54E-4 0.157045 -0.009211 -0.016578 0.041273
0.011731 -0.012532 0.057505 0.2249 0.010156 0.089872 -0.086282 -0.223708 -0.206625 0.045175 -0.12278 0.074778 0.020928 0.030843 -0.055338 0.051408 0.172709 -0.087003 0.002311 -0.056698 0.107215 0.019518 0.187634 0.031603 -0.016041 0.026827 0.046335 -0.037028 0.167542 -0.194812 -0.07084 -0.0362 -0.003893 -0.081785 0.034884 -0.002996 0.080163 -0.129802 -0.223331 -0.166814 -0.131867 -0.12698 -0.068436 -0.108013 0.080468 -0.074405 -0.233635 -0.013677 0.026452 0.040682 0.088768 -0.155173 0.031099 -0.010642 0.081225 0.078886 -0.099721 -0.081492 0.040277 0.043706 0.056127 -0.105044 -0.063814 0.112629 0.272181 0.0065 0.140232 0.002185 0.015269 0.258819 -0.079305 0.044783 0.055855 0.047094 -0.060803 -0.055537 -0.032138 0.043447 0.14452 -0.024301 -0.04632 -0.036365 0.0902 0.045114 0.058404 -0.096723 -0.117556 0.097728 0.096527 -0.080596 0.009404 0.103288 0.107683 0.084054 -0.027384 0.121095 -0.039501 -0.13376 0.05149 0.089026
1.035361 1.319725 0.388011 1.220811 -0.236045 1.447081 -1.78193 3.520004 0.063077 -1.681862 0.545208 0.767849 -1.479444 -1.152839 0.669301 0.685509 -2.946755 -2.239533 -1.187422 -1.793336 0.607402 0.130687 0.296681 -1.569517 1.825066 1.715849 -1.639836 0.849724 -1.742086 0.427502 3.84844 -1.377145 0.671096 -1.312902 -1.152387 0.705431 2.180344 2.97496 1.402098 -0.909545 -1.649212 -0.253421 1.186817 1.193823 3.167747 -0.387379 -0.12198 0.872223 0.13285 0.490844 0.029473 1.345032 0.297008 2.724698 -1.656047 -0.109585 1.500583 -1.148555 -3.658389 1.022988 -1.211381 0.342059 -0.023586 1.22536 -1.874871 -1.957746 -0.188066 -0.235303 -0.067175 1.107354 1.448404 0.838301 1.67396 -0.238039 -0.504146 -1.334739 0.688005 0.37731 -2.953094 0.650433 0.307563 -0.457962 -1.694326 2.40152 -0.816994 0.208705 1.853393 0.15935 -0.989952 1.089235 1.087388 -2.786835 -2.248864 -0.788939 0.405791 0.907533 -1.516669 1.970717 -0.345554 -0.134731
-0.030478 -0.029704 0.104285 0.158612 0.020246 -0.063034 0.009871 0.064611 -0.121423 0.066949 0.0209 0.062737 0.101253 -0.059448 0.119358 0.179413 0.033275 -0.051668 -0.069776 0.090521 -0.128209 0.118932 0.104775 0.01293 -0.069656 0.075942 0.028342 -0.08674 0.186082 -0.187311 0.030275 -0.100482 -0.124546 0.020271 -0.210359 -0.018412 -0.064155 -0.088003 -0.069519 -0.003666 -0.074133 -0.112309 0.040917 0.061785 0.075892 -0.061442 0.030421 0.032333 -0.01834 0.025634 0.048241 -0.161526 0.052645 -0.041627 -0.005925 0.039892 -0.070295 0.009903 0.130391 -0.095444 0.015975 -0.076308 0.07472 -0.089704 0.041168 -0.0812 0.091911 -0.052093 -0.068306 -0.007351 0.037662 -0.004718 -0.079382 0.155061 0.077288 -0.017812 -0.161587 -0.073944 -0.051831 -0.090756 -0.080309 -0.070434 0.040414 -0.026328 0.0049 0.048362 0.031225 -0.061932 0.127734 0.095872 -0.111956 -0.009301 0.014213 -0.012897 -0.006996 -0.058216 -0.031507 0.120228 -0.046411 -0.020919
0.0 0.0 0.0 0.0 0.0 0.0 0.0 0.0 0.0 0.0 0.0 0.0 0.0 0.0 0.0 0.0 0.0 0.0 0.0 0.0 0.0 0.0 0.0 0.0 0.0 0.0 0.0 0.0 0.0 0.0 0.0 0.0 0.0 0.0 0.0 0.0 0.0 0.0 0.0 0.0 0.0 0.0 0.0 0.0 0.0 0.0 0.0 0.0 0.0 0.0 0.0 0.0 0.0 0.0 0.0 0.0 0.0 0.0 0.0 0.0 0.0 0.0 0.0 0.0 0.0 0.0 0.0 0.0 0.0 0.0 0.0 0.0 0.0 0.0 0.0 0.0 0.0 0.0 0.0 0.0 0.0 0.0 0.0 0.0 0.0 0.0 0.0 0.0 0.0 0.0 0.0 0.0 0.0 0.0 0.0 0.0 0.0 0.0 0.0 0.0
0.114961 0.007576 -0.139177 0.226171 0.10055 -0.018039 -0.18493 0.098202 -0.180764 -0.008566 0.039229 0.129429 -0.002807 -0.141985 -0.069535 0.09265 0.123251 0.088229 0.114781 0.065095 -0.042475 0.00221 0.087122 -0.006901 -0.011373 -0.119747 -0.041457 0.090707 0.308519 -0.133112 -0.032162 0.005264 -0.028555 0.03241 -0.007394 -0.103908 0.093603 -0.143504 -0.008241 -0.0291 -0.015024 -0.166069 0.062695 -0.056455 0.116087 0.058955 0.004145 -0.180946 -0.089764 0.007827 -0.030518 -0.145909 0.127465 -0.069772 -0.005614 0.086573 0.11531 0.157962 0.074545 -0.020881 -3.75E-4 -0.237964 -0.071419 0.05895 0.002396 0.067221 0.02972 -0.012571 -0.099224 -0.089115 -0.162207 -0.188052 -0.023387 -0.048527 -0.078052 0.045607 -0.095186 -0.028109 -0.10879 -0.058955 0.048819 -0.051783 0.085727 -0.209653 -0.134566 -0.054361 -0.13626 -0.021627 0.045094 0.126841 -0.193036 -0.09246 -0.040221 -0.122464 -0.049848 0.0158 0.003101 -0.127742 -0.093458 -0.084606
-0.100288 -0.111105 0.206443 0.033412 -0.066884 0.100828 -0.064615 -0.085362 -0.058774 0.130339 0.211631 0.129352 0.056046 0.098238 0.156927 0.062911 -0.005382 0.139617 -0.091052 0.029705 -0.022385 0.098777 0.020594 0.088931 0.005636 0.04387 -4.86E-4 -0.086953 0.004079 -0.071992 -0.165984 -0.060284 0.093826 0.17862 -0.040951 0.087199 -0.033991 -0.060627 -0.040434 0.136882 0.005093 0.146668 0.045263 -0.179404 0.119535 -0.011513 0.042678 -0.042196 -0.040801 -0.118926 0.1685 -0.026788 0.067633 0.105703 0.006956 -0.096793 -0.138029 0.091982 0.115815 0.078945 -0.043292 -0.010631 -0.039234 -0.062858 0.118401 0.002457 0.105973 0.04478 0.1032 -0.229885 -0.078058 -0.095281 0.129148 -0.122918 -0.028429 0.141629 0.001219 -0.12479 0.017319 -0.02817 -0.180985 0.005269 -0.103234 -0.271084 0.030072 0.051254 -0.037186 0.164287 0.160256 -0.021997 -0.07636 -0.023494 0.05185 -0.011499 -0.113033 0.048588 0.087071 0.147721 0.082771 0.007058
-0.186541 -0.103562 0.084023 0.068019 -0.042658 0.054326 -0.089113 -0.0586 -0.025315 -0.00483 0.037133 -0.143385 0.173072 0.036562 0.055564 0.101954 0.116651 0.250489 -4.29E-4 0.128986 -0.083048 0.134853 0.021164 -0.044882 0.023076 -0.022995 0.005891 0.150916 0.099036 0.101321 -0.210468 -0.077551 -0.2085 0.03748 -0.099077 -0.230315 0.105746 0.0173 0.018374 0.002226 0.042904 0.004448 -0.065016 0.114949 -0.029602 -0.120527 0.170661 0.145994 -0.119024 0.034657 0.031884 0.088794 -0.236671 -0.086782 0.134083 -0.088449 0.009924 0.128028 0.028588 0.042431 -0.029266 0.238106 -0.114075 0.005546 -0.205787 -0.028912 -0.106685 -0.09506 0.073417 -0.110768 -0.143758 0.00801 0.015002 -0.05882 -0.073469 0.00593 0.022303 -0.037623 0.017789 -0.007934 0.081754 0.15582 0.049966 -0.037966 0.135168 0.012886 0.042194 -9.5E-5 0.229344 -0.123858 -0.051609 0.032549 -0.058954 0.110117 0.067044 -0.152377 0.082909 -0.154981 0.060898 0.14248
0.0 0.0 0.0 0.0 0.0 0.0 0.0 0.0 0.0 0.0 0.0 0.0 0.0 0.0 0.0 0.0 0.0 0.0 0.0 0.0 0.0 0.0 0.0 0.0 0.0 0.0 0.0 0.0 0.0 0.0 0.0 0.0 0.0 0.0 0.0 0.0 0.0 0.0 0.0 0.0 0.0 0.0 0.0 0.0 0.0 0.0 0.0 0.0 0.0 0.0 0.0 0.0 0.0 0.0 0.0 0.0 0.0 0.0 0.0 0.0 0.0 0.0 0.0 0.0 0.0 0.0 0.0 0.0 0.0 0.0 0.0 0.0 0.0 0.0 0.0 0.0 0.0 0.0 0.0 0.0 0.0 0.0 0.0 0.0 0.0 0.0 0.0 0.0 0.0 0.0 0.0 0.0 0.0 0.0 0.0 0.0 0.0 0.0 0.0 0.0
0.133848 -0.156941 -0.048561 0.093897 -0.045554 -0.043784 -0.17578 -0.038782 -0.076775 0.237607 0.069085 0.002961 0.056168 -0.037645 0.00236 0.068663 0.055367 0.026136 0.019503 -0.153383 -0.094238 0.226513 0.251542 0.003966 -0.177129 -0.115005 -0.089487 -0.035845 0.150102 -0.041113 -0.108236 -0.035685 -0.118816 0.08921 -0.09621 0.001957 0.006939 -0.125828 -0.083505 -0.109436 -7.15E-4 0.022143 0.042115 -0.076605 0.218226 -0.157431 0.039727 0.006018 0.103204 -7.46E-4 0.142208 0.031198 -0.055559 0.113147 0.148751 0.12824 0.08196 -0.142345 0.060477 0.008849 -0.242464 -0.151965 0.088807 0.016244 -0.023394 -0.169039 -0.053942 0.046332 0.142687 0.041864 0.087367 -0.181259 0.035775 -0.146292 0.04712 -0.053011 -0.005569 0.150311 0.085201 0.128715 -0.120246 0.13969 0.10285 -0.238074 -0.100309 0.1078 0.017132 0.083058 0.114369 0.18008 -0.036354 0.029528 0.086065 0.185533 -0.019606 -0.026607 0.019023 -0.118969 -0.063751 0.022988
-0.077844 -0.095127 -0.111959 0.065958 -0.003771 0.093852 0.030974 -0.075409 -0.074892 0.013177 0.101977 0.027327 0.05946 -0.080095 0.014705 -0.09859 -0.026689 -0.016633 0.072144 -0.081778 -0.183838 -0.047565 0.085606 -0.003651 -0.043222 -0.020795 -0.160589 -0.241323 0.016205 0.120565 -0.038762 -0.067004 0.088518 0.04372 -0.238674 -0.048688 -0.014105 -0.036928 0.075668 0.128212 0.086474 0.036517 0.061158 0.039984 -0.204918 -0.122368 -0.096009 0.158666 -0.065896 -0.183033 0.022882 0.070648 -0.007476 0.140778 -0.201101 -0.0146 0.029869 -0.115793 0.095508 -0.088153 -0.144524 -0.009662 0.146956 -0.009012 -0.014679 0.241462 0.004318 0.068123 -0.001405 -0.04821 0.082995 -0.007983 -0.078808 0.002809 0.119805 -0.099238 -0.095953 -0.219711 -0.150567 -0.004243 0.020732 0.186372 0.011305 0.018282 0.091077 0.140092 0.023684 -0.071639 0.082287 0.007248 -0.029663 0.080984 -0.017821 -0.128594 0.126463 0.063795 -0.218613 0.051722 -3.48E-4 -0.033175
