0.131091 0.040378 0.187753 -0.0136 -0.151112 -0.015483 -0.229911 -0.119415 -0.135619 0.206785 0.058313 0.203716 0.044907 0.002114 0.134741 0.317725 0.016305 0.240915 0.108114 -0.042891 -0.053838 0.043872 0.353852 0.033303 -0.206055 0.011541 -0.263719 -0.367923 0.093667 -0.134255 -0.024277 0.073892 -0.13228 0.236357 -0.089342 -0.100615 0.017162 -0.078197 -0.155731 0.186402 0.010776 0.126961 -0.046915 0.083543 0.092611 -0.179597 -0.043854 0.071314 -0.225823 0.132846 -0.006139 -0.08422 -0.065481 0.040719 0.092901 -0.096592 0.087253 0.050141 0.210442 -0.223603 0.159073 -0.189099 0.03539 -0.085086 -0.15492 -0.049877 0.024321 0.074458 0.081588 -0.232742 0.053911 0.031676 0.101916 -0.045063 0.152612 -0.156943 -0.010101 0.027036 0.025917 -1.63E-4 0.02858 0.113919 0.110167 -0.124989 0.153046 -0.035816 -0.051011 0.039916 0.053406 0.017487 -0.13414 -0.115926 0.060659 0.128598 -0.107206 -0.129645 0.219075 -0.041944 -0.151026 -0.169909
0.037311 0.069098 0.146051 0.245319 -0.220586 0.149353 -0.154392 -0.046366 -0.177821 -0.134713 -0.0835 0.215419 -0.020545 0.155818 5.45E-4 0.045456 -0.192701 0.089427 -0.017666 -0.104382 0.086163 0.049242 0.153222 0.098115 0.079776 0.066198 -0.020967 0.201605 0.125661 -0.055015 -0.200601 -0.188661 0.051858 0.114433 0.066955 0.07807 0.096275 -0.029986 -0.083555 0.03171 -0.089357 0.008298 0.138861 0.005332 -0.036957 0.070235 0.024555 -0.277248 -0.115429 -0.046333 -0.080208 -0.004651 0.013615 -0.198257 0.170783 -0.05279 0.070781 -0.1826 -0.11547 -0.076415 -0.049058 -0.092461 -0.098914 -0.14922 0.136904 -0.256722 -0.052938 0.130647 0.009491 -0.021192 -0.175015 0.067034 -0.001401 0.111063 -0.026165 0.065045 4.48E-4 0.027764 -0.054708 -0.049767 -0.011957 0.137961 0.08663 -0.068711 -0.090447 -0.068702 -0.007911 -0.035437 0.051932 -0.034323 0.050828 -0.073514 -0.125312 0.153466 0.124654 0.089508 -0.015814 -0.066212 -0.060318 0.022966
-0.109947 0.177819 -0.271922 0.17139 -0.252254 0.248268 -0.085819 -0.601878 0.2681 0.455242 0.104252 0.470786 -0.178932 0.293036 -0.381442 0.035653 0.094724 -0.03358 0.090034 -0.182071 0.337855 -0.439274 -0.237596 0.125672 -0.064478 0.174527 0.263846 -0.264409 -0.035043 -0.027374 0.097195 -0.081113 -0.1036 -0.261366 -0.138346 0.193291 0.305084 0.054731 0.114951 0.274787 0.168419 0.65994 0.057763 -0.186297 0.173147 -0.232944 0.01949 -0.090799 0.097891 0.193261 0.089779 0.181009 0.304273 -0.038212 -0.379367 -0.243253 0.031415 0.006126 -0.094031 0.390909 -0.033409 0.074594 -0.228887 0.135634 0.011728 0.207259 -0.395616 -0.098688 -0.056876 0.055104 -0.085067 -0.204547 0.210815 0.07453 -0.114244 -0.182802 -0.042405 0.061251 -0.177652 -0.10987 -0.043618 -0.058898 0.030366 0.218785 -0.399973 0.123387 0.402285 0.24709 0.009786 -0.270822 -0.027053 -0.302219 0.127909 -0.259745 -0.059222 -0.238107 -0.033703 0.202851 -0.008268 -0.166895
-0.188543 0.017771 0.050078 -0.019022 0.067915 -0.050248 -0.05468 -0.165245 -0.035507 0.06748 0.124413 0.087866 -0.058355 0.10052 0.335489 0.251005 -0.195963 0.197046 0.088944 -0.066602 -0.097833 -0.114229 0.242511 0.035995 -0.2628 -0.135388 -0.048616 -0.254144 0.311044 -0.194069 0.076527 -0.022915 -0.016608 0.028396 -0.11388 -0.035416 0.045782 -0.113824 -0.007515 0.007329 -0.040979 0.236881 0.177469 0.052145 0.069019 -0.060208 0.055744 -0.081964 -0.158538 0.097079 0.03354 -0.101216 -0.011486 0.011527 0.145792 -0.037211 -0.01137 -0.096938 -0.173194 -0.112519 0.003782 -2.88E-4 -0.036068 -0.169543 -0.070358 -0.022597 0.139725 0.014414 0.137222 -0.087438 0.06745 0.001409 0.016971 0.088049 -0.031347 0.127509 -0.063895 -0.082511 -0.097013 -0.095729 0.019906 0.041088 0.175584 -0.037753 -0.045355 0.153434 -0.13618 0.027283 0.13237 -0.013923 -0.119363 -0.23432 -0.068623 0.121777 -0.037598 -0.278362 0.114064 0.015815 0.01678 -0.010727
-0.747383 0.108068 0.520923 -0.248547 -0.096262 -0.239753 -0.384165 0.385615 0.070637 0.682605 0.287251 0.119985 0.576243 0.58976 0.122296 0.405583 1.161053 1.11901 0.120139 0.192951 -0.112766 0.316525 0.186397 -0.253142 0.135056 0.156252 -0.247267 -1.164883 0.168466 0.200623 -0.301506 0.039165 -0.727244 -0.227591 -0.249954 -0.062029 -0.373619 0.287934 -0.336073 -0.001775 0.119566 0.208939 0.421394 -0.315935 0.133348 -0.092056 0.357866 0.044172 0.135789 0.536792 0.155455 0.605211 -0.037558 0.686324 0.789312 -0.249018 -0.197509 0.412447 0.031069 0.362003 0.424807 0.173179 0.401972 -0.083511 -0.991081 -0.753265 -0.133983 0.18383 0.387685 -0.245508 -0.212255 0.116083 0.033902 0.702506 0.161094 -0.174626 0.368781 -0.544782 0.561224 -0.077653 0.171618 0.813768 0.596527 -0.005522 -0.099371 -0.377372 -0.295784 0.328589 -0.325691 0.097125 -0.181117 0.07116 -0.174475 0.226988 -0.210198 -1.117124 0.069449 -1.092387 -0.189536 0.52512
0.0 0.0 0.0 0.0 0.0 0.0 0.0 0.0 0.0 0.0 0.0 0.0 0.0 0.0 0.0 0.0 0.0 0.0 0.0 0.0 0.0 0.0 0.0 0.0 0.0 0.0 0.0 0.0 0.0 0.0 0.0 0.0 0.0 0.0 0.0 0.0 0.0 0.0 0.0 0.0 0.0 0.0 0.0 0.0 0.0 0.0 0.0 0.0 0.0 0.0 0.0 0.0 0.0 0.0 0.0 0.0 0.0 0.0 0.0 0.0 0.0 0.0 0.0 0.0 0.0 0.0 0.0 0.0 0.0 0.0 0.0 0.0 0.0 0.0 0.0 0.0 0.0 0.0 0.0 0.0 0.0 0.0 0.0 0.0 0.0 0.0 0.0 0.0 0.0 0.0 0.0 0.0 0.0 0.0 0.0 0.0 0.0 0.0 0.0 0.0
-0.671963 -1.356401 3.602218 0.823366 -0.502176 -0.026847 2.688116 0.953721 0.412325 -0.074957 -2.563688 0.379861 -0.279054 0.512633 -0.426346 -0.669122 -2.193019 -1.985633 1.195718 -0.843091 -3.07709 -2.336138 0.676971 -1.157188 0.84245 -0.067074 1.662677 -0.902702 0.573933 0.762577 1.605777 -0.494156 -0.764054 -4.857189 1.199538 0.081996 1.582965 -1.800896 1.133021 -2.874443 -0.067305 0.527258 -0.963475 2.056148 -0.810059 -2.590427 0.192699 -0.925293 0.533123 0.50128 0.198265 1.047486 -1.15476 -0.133629 -3.660616 2.9145 0.67414 -1.747608 -1.472014 0.506851 -0.089567 -1.009712 -0.989767 -0.231732 -1.20197 -0.899847 -0.180586 -0.280434 1.214359 0.601947 3.002038 1.452004 1.898121 0.64863 -0.773459 -0.546508 1.482508 0.349815 -0.022055 1.977613 1.349274 -0.187718 2.026595 2.419264 -2.256871 -0.764584 -0.110956 2.609596 -0.511332 0.497735 1.205947 -0.553892 0.146347 -2.201324 -0.117853 -0.193777 0.312823 3.388883 -4.036498 2.412019
-0.099089 -0.012167 -0.0533 0.179926 0.083152 -0.127338 -0.103597 -0.095865 -0.120632 0.254084 0.018158 -0.007653 -0.133219 -0.238306 -0.05746 0.136351 0.251311 0.149046 0.033287 -0.040672 -0.032791 0.075566 0.166212 0.014374 -0.027477 0.13003 -0.091303 -0.148947 -0.048907 0.076961 0.016877 0.095089 -0.081442 0.012266 -0.076622 -0.089659 -0.029875 0.087107 0.094711 0.196634 -0.115395 0.177122 0.084337 0.03752 0.033204 -0.168193 0.027805 0.006922 -0.193538 0.041453 0.008757 0.004179 -0.035606 0.019817 0.173102 -0.209725 0.184516 0.049609 -0.052798 -0.016175 0.199352 0.019765 0.044334 0.03559 -0.075511 0.042711 -0.017479 -0.003598 0.01691 -0.11944 -0.073789 -0.083508 0.03998 -0.005061 -1.34E-4 0.084038 -0.118106 -0.055108 0.038225 0.171682 -0.051163 0.098384 0.115779 0.005398 -0.018579 -0.00246 0.02534 -0.145236 0.023419 0.014054 0.047356 0.095037 -0.115228 0.064562 0.092746 -0.007692 0.173066 -0.115028 -0.213944 -0.020714
-2.293841 -0.063839 1.502226 -1.787108 -2.387732 -3.615677 -1.01683 -1.637208 1.895146 -0.371168 1.405541 -4.131696 1.340089 0.553417 -1.454912 2.021166 -0.958647 0.054548 1.601657 1.479063 -3.220596 1.855817 0.734321 -0.136382 0.33989 1.532551 -4.382755 0.107228 -2.372345 3.07024 2.89538 -0.809965 -1.560166 1.999588 -2.267416 -3.921189 -3.448612 2.79014 -3.417973 3.447599 0.247468 -0.01313 1.046494 0.38451 -0.0588 1.107715 2.417663 -2.847294 1.726037 -0.033198 0.846772 -2.067275 1.458735 2.569967 2.462899 -2.317184 0.733667 0.511865 3.305604 1.550639 1.909143 -2.669485 0.609168 1.314947 0.147831 0.201275 -0.023532 1.225589 0.914819 1.753266 -2.111929 -1.492776 0.206739 1.79841 -3.124551 1.441216 -2.100579 -0.294363 1.779962 -0.990128 -1.874387 -0.357261 -2.18847 -0.391934 0.479644 2.165513 -1.275048 1.72884 -2.030032 2.319509 0.464185 1.812755 0.993364 5.094563 -1.072429 2.247473 1.922965 -1.461109 -4.22556 1.062856
-0.109926 -0.084428 0.047943 -0.008976 -0.132905 -0.005591 -0.13407 -0.11237 -0.096941 0.198104 0.084828 0.19349 0.001426 -0.125691 0.055348 0.269538 -0.111106 0.208109 0.118494 0.003854 -0.113643 0.027825 0.299689 0.140198 -0.194833 -0.008053 0.018112 -0.036707 0.159713 -0.166048 -0.030452 -0.056178 -0.132537 0.092781 -0.201624 -0.131747 -0.00531 -0.015416 0.056176 0.049123 -0.109699 0.174583 0.042913 0.090842 0.0025 -0.03468 -0.086602 -0.071393 -0.129094 0.11572 0.161161 -0.123741 0.069082 0.154633 -0.002461 -0.066379 -0.020429 -0.099056 0.043424 -0.117887 0.074637 -0.194946 -0.057588 -0.096341 -0.05639 -0.057793 0.120293 0.074761 0.12848 -0.108285 -0.137278 0.039452 0.04525 -0.033395 0.014371 -0.016182 -0.122681 -0.100875 -0.093592 -0.089099 -0.007213 0.028835 0.082317 -0.161827 0.071975 -0.04066 0.047232 0.019921 0.084907 0.06279 -0.103997 0.021024 -0.027031 0.130637 -0.103562 -0.140753 0.120562 -0.005869 0.018811 -0.09791
-1.230496 -1.784998 -2.701176 0.758382 1.022601 0.134257 -0.985047 1.562518 0.310835 -0.272668 -2.093218 0.576908 2.040189 3.9509 0.774258 -3.034902 0.015918 3.094607 -0.955282 -0.161599 1.346793 -0.427151 2.407651 2.929724 -1.837484 3.452367 0.53745 -0.982041 -0.926567 -0.170227 1.02313 -0.319885 0.057295 -0.759491 -3.167264 0.215212 0.199355 2.17803 -2.880665 -3.126606 1.987815 -0.672563 -1.358064 -0.033815 -0.248648 -1.018406 0.174184 0.367458 2.183337 2.743262 -1.304921 3.026151 -0.376082 1.947597 -1.255474 -1.064786 1.087376 -2.089309 0.970619 0.252176 5.222122 -0.33553 0.351429 0.429232 -0.472527 -0.662081 -0.365277 -1.304831 1.49886 -2.889978 0.333237 -0.579763 2.984992 1.952844 2.048453 -0.167153 0.122451 0.366104 2.33386 4.508055 2.013939 1.926481 3.227053 4.010036 0.598998 -2.80402 1.407855 2.476772 -2.103011 3.048537 -0.582139 -2.261293 -0.407356 -1.748715 -0.955609 0.330801 0.787854 1.235672 2.16538 0.751083
0.172182 -0.927985 -0.3069 -2.554375 -2.79618 1.363816 1.356945 0.502677 -0.516686 -0.372718 -1.378709 -1.677741 -0.052827 0.583572 1.217042 -1.088009 -2.188723 0.854278 0.133146 0.289338 1.247215 2.214816 1.104756 -0.277867 -0.171038 -0.854656 0.814031 -1.497641 -0.636191 -2.749452 -0.857381 2.035266 -0.018168 -0.971957 -1.08979 0.021783 -1.502786 1.769581 1.655038 0.828555 -0.288891 -1.643319 1.296884 3.15964 4.71883 -1.848723 1.587916 1.522492 2.550763 -1.017008 -1.305344 -1.941113 -2.457606 1.203371 0.535347 -2.037774 2.337927 -1.425943 1.218833 -2.073365 1.513824 -0.780544 0.664985 1.607993 -0.932983 1.857969 2.017287 0.092268 -0.331977 1.780767 -1.10432 -0.044469 -0.61306 2.316769 0.450018 -2.903258 -2.582764 0.956272 2.401451 2.440768 -1.404724 1.83652 1.084831 0.48824 -0.713843 0.538634 -0.137298 1.038743 -1.172662 1.507114 0.384929 -1.064784 -0.892226 -0.592314 -0.782517 -1.110254 -0.524532 -3.038305 -0.880207 0.49063
-0.837475 2.021591 0.454619 -0.731166 -0.009294 0.903907 0.269246 0.360747 1.550349 1.873933 -0.111885 -3.392567 1.269405 0.650934 0.512189 -2.108618 3.246122 -0.577134 2.746684 -1.158658 0.338048 0.12636 0.031102 -0.57431 -2.554365 -0.830475 -0.051205 -2.638946 3.075983 1.326592 -2.794253 2.085887 3.528312 -2.695894 2.625871 0.117183 1.904795 0.42462 -3.830007 -0.012451 -2.168442 -0.046524 1.120835 -2.108012 -0.555094 -0.133413 2.663276 2.733912 -1.50117 1.703811 0.66693 0.093091 1.796756 1.563127 2.478059 -1.903467 2.543809 -1.699225 0.988948 -2.694806 -0.795428 -2.153064 -0.201298 0.621331 0.697925 -2.232625 1.863532 2.648745 -0.919645 -0.17515 2.018819 -2.930957 0.302458 -0.814695 1.570691 1.136577 -2.013949 1.240437 6.05574 -0.620268 0.747749 2.59576 -1.608303 0.586632 0.097825 0.300765 -0.768243 0.965719 1.189269 3.139158 -0.649936 0.504781 -2.840573 0.492435 -2.917522 -0.853264 2.923349 -0.745347 -2.217443 -2.602937
0.073151 -0.040022 0.010681 0.030608 -0.188925 -0.108955 -0.139206 0.083084 -0.098492 0.069319 0.071799 0.03194 -0.165471 0.026703 0.016137 0.052854 -0.071038 0.103119 -0.081018 0.049023 -0.048132 0.056398 0.125997 -0.005377 -0.136319 -0.049178 0.001157 -0.055707 0.036611 -0.10298 -0.0154 0.013137 -0.021383 -0.149884 -0.070406 -0.023534 0.024597 0.017686 0.087242 0.00827 -0.085137 -0.042724 0.05929 0.104917 -0.117878 -0.039846 0.064374 -0.040736 -0.013205 0.142928 -0.088033 0.03559 -0.153284 0.074557 0.090555 -0.162628 -0.036157 0.052746 0.164541 0.03732 0.160212 -0.143144 0.180599 -0.25422 -0.176999 -0.024379 0.19138 0.070096 0.035788 -0.153582 -8.7E-4 -9.85E-4 0.053394 0.038747 0.222662 -0.027617 -0.109486 -0.108868 0.107971 0.036016 0.085812 0.16612 0.112618 -0.080838 0.108246 0.008076 -0.018125 0.162443 0.081066 -0.011178 0.025554 -0.015189 0.032647 0.079756 -0.083735 -0.084409 0.119338 -0.051082 -0.008926 0.036359
-0.079125 0.165496 0.110897 -0.05513 -0.065724 -0.016421 -0.129675 -0.099214 0.02807 -0.013086 0.098924 0.006428 0.015865 0.019545 -0.032119 -0.00207 -0.045287 -0.050114 0.055247 0.03426 0.233659 0.072283 -0.012443 -0.03855 0.031879 -0.210001 -0.099797 -0.143277 0.004465 -0.144344 0.108815 0.013896 0.093599 -0.034792 0.068236 0.288351 0.068627 0.01563 0.272114 0.010639 -0.007226 -0.080718 -0.127818 -0.11284 -0.050929 -0.118455 0.067435 0.03741 -0.036989 -0.080063 0.041965 -0.124513 -0.086496 0.030034 0.236339 -0.182109 -0.019218 -0.122632 -0.245188 0.10252 0.060751 0.064868 -0.041636 -0.091022 0.104927 0.017689 0.096578 0.10721 0.097177 0.042127 0.07152 -0.005611 0.094549 0.007239 -0.062212 -0.051875 0.108705 0.011637 -0.124956 -0.015681 -0.121867 -0.007958 0.040644 0.024469 0.141174 0.121792 0.197302 -0.088771 0.159092 -0.241288 -0.069209 -0.034296 0.127442 -0.006425 -0.121656 -0.116899 0.054485 0.121344 0.041694 0.048051
-0.755456 -0.486842 -0.636761 1.007647 0.411575 1.911715 -0.567697 0.258283 0.27926 0.941215 -0.443203 -0.72611 0.926361 0.323373 0.228569 2.711518 1.402208 -0.378893 0.096004 -0.076658 -2.219521 -1.81994 2.531086 0.602017 0.774003 -0.869081 1.872485 2.369261 2.457754 2.059572 0.200768 -0.812932 1.056632 -1.058114 -0.369611 0.814726 -0.543104 0.916349 -1.516046 -2.380797 -0.779106 1.372211 0.244057 0.996867 -0.432122 0.227896 -2.773652 1.975727 1.488233 -1.054278 0.73044 0.035912 2.678513 -0.371952 -0.457132 2.126628 1.789241 1.814787 -0.387069 -1.477383 0.704505 0.315884 -0.509234 0.932451 1.224023 0.275019 -0.210255 0.197125 -2.887693 -1.399978 2.331163 -0.005377 -1.929671 0.53962 -2.409831 0.810552 1.80261 -0.496126 -1.375873 4.144521 1.08608 1.655903 0.16942 0.293835 2.249895 -0.667994 0.884882 -0.047375 0.645673 1.179637 -0.322902 -1.513284 -0.271224 0.39018 1.633259 0.989986 0.6289 2.579239 -2.66714 0.664074
0.452522 -4.212731 -2.889021 -1.034157 -2.115127 0.154812 -0.876594 0.853446 -3.246216 1.137174 1.026833 -0.171912 -1.543508 0.227388 -2.167365 -0.080943 1.310624 0.591761 -0.074736 0.07487 -0.831564 2.684372 2.331843 -2.189097 1.688449 -1.854038 0.740726 -0.057621 2.341676 -0.250312 0.842247 -1.451335 0.190076 -3.801278 -2.029019 -1.032522 -2.324909 0.240036 2.03283 -2.920727 -2.559943 -1.079627 -0.470073 0.983287 0.940347 -0.189187 -3.077867 -0.279714 1.773608 1.315261 -1.063278 -0.275736 0.102653 0.59545 -0.263881 -0.119251 3.383916 2.018622 0.545229 -0.412828 0.01992 -0.580904 -0.721883 0.456842 0.294408 -2.352029 0.839761 -0.193403 -1.56494 0.646455 1.398844 -1.364048 1.577054 -1.006835 -0.689596 2.489197 -0.202936 1.470756 -2.630015 2.717029 -0.079443 -0.757395 -0.002658 1.372895 -1.249433 1.029434 0.709506 0.099196 -1.019613 0.65155 -1.135597 1.551885 -3.771605 0.503132 1.648164 -0.08162 0.807132 1.769862 -1.885874 -1.545706
0.124394 -0.054266 0.096171 0.03621 0.047683 -0.075293 -0.242616 -0.010932 -0.006105 0.056326 0.0066 0.085532 0.025354 -0.15856 0.124284 0.028499 -0.029571 0.132485 0.016818 0.035598 -0.37406 0.0954 -0.049908 0.044249 0.009613 0.003188 0.058796 -0.012558 0.217599 0.004243 0.03097 -0.02975 -0.065474 -0.074289 -0.104249 -0.063749 0.019602 -0.070992 0.159923 0.106167 -0.110698 0.008057 0.007712 -0.120726 -0.014311 -0.069671 0.184811 -0.083112 -0.168686 0.086113 -0.07786 -0.078984 -0.029673 0.084605 0.295229 -0.008766 0.111538 -0.133809 -0.00309 0.038406 -0.138553 0.007256 -0.173582 0.267651 -0.004762 -0.199021 0.078719 -0.164491 0.009527 -0.029413 -0.047898 -0.080777 -0.036748 0.027862 -0.08931 -0.157689 -0.216606 0.06299 0.043587 0.180817 -0.05224 0.060538 0.127776 -0.122171 0.318221 0.208076 -0.182246 0.00551 0.167903 -0.144156 0.047214 -0.050375 0.276066 -0.088111 -0.023478 -0.226291 0.286207 -0.018129 -0.041324 -0.112617
-0.075426 -0.075105 0.193742 0.180949 -0.029135 0.156186 -0.189219 -0.049134 -0.006639 -0.157686 0.029279 -0.01027 -0.02494 -0.092018 -0.017753 0.083188 0.096164 0.04253 -0.056425 0.042708 -0.145806 0.093088 0.30713 0.040278 -0.127338 -0.132246 -0.146052 0.109533 -0.02824 -0.145375 0.097268 -0.162673 -0.252111 0.052631 -0.044236 -0.119663 -0.149141 -0.19387 0.007437 0.248378 0.041441 0.149073 0.031645 0.08471 0.110962 -0.079741 -0.042881 0.025033 0.018934 0.225989 -0.01815 -0.018661 0.010662 -0.032152 0.075004 0.093388 0.053522 -0.122315 -0.067338 -0.045551 0.15103 -0.090023 -0.088856 -0.032802 0.069265 -0.052922 -0.007135 0.141833 0.158261 0.050626 -0.061267 -0.009271 0.019279 -0.100305 -0.016125 -0.149336 0.206733 0.253078 0.04238 0.014155 0.149453 0.135752 0.174627 0.010949 0.060963 0.110666 0.030681 0.049513 0.045662 0.093266 0.013467 -0.001749 0.137106 0.007911 0.097675 0.172412 -0.140174 0.037412 0.021077 -0.100774
-0.068105 0.057237 0.070866 0.05373 -0.003941 -0.08651 0.017033 0.112962 0.238407 0.038327 -0.017675 0.083767 0.206155 0.054489 -0.028753 0.128266 0.050878 0.194653 0.071142 0.033408 -0.113644 0.116705 0.050537 -0.148958 0.124025 0.117311 0.075298 0.005352 0.080236 -0.156765 -0.029906 -0.004555 0.017032 0.017664 0.059945 0.093066 -0.133059 0.110377 -0.146383 0.031234 -0.058896 -0.04839 -0.093693 -0.237095 -0.016087 -0.025867 0.117389 -0.078465 0.015002 -0.013864 0.034387 0.094285 -0.02824 0.113394 0.194121 0.111633 -0.063858 0.071596 0.054361 0.143123 -0.154574 -0.05272 0.085481 0.05882 0.00774 -0.150699 0.005443 0.078771 0.050416 -0.025795 -0.201005 0.086822 -0.136799 -0.065465 -0.047896 0.012784 -0.053782 -0.166173 0.072936 -0.011467 0.059143 0.025011 0.007603 0.050581 -0.122112 -0.193371 -0.089002 0.047332 -0.070227 0.008569 -0.088575 -0.190693 -0.031023 0.029353 0.065397 -0.053644 0.014195 -0.031919 0.022766 0.056341
-1.128298 -0.293328 -0.370282 -0.692423 -0.480876 -0.486151 -0.143048 0.063746 0.406289 0.076976 0.532001 0.069979 0.349015 0.469056 0.409921 -0.66236 0.697984 1.2424 0.194041 0.54022 -0.860437 0.394647 0.594664 0.012655 -0.08189 -0.340339 -0.247436 0.236487 0.308771 0.123373 0.062499 0.028794 0.095313 0.049229 -0.411991 0.396939 -0.226403 0.702859 -0.787792 -0.130547 -0.327885 -0.171765 -0.049876 -1.693004 0.926844 -0.447073 -0.990948 -0.37312 -0.014915 -0.134824 -0.223932 0.247966 -1.124065 0.973102 0.601736 -0.059684 -1.245229 -0.440894 -0.438602 -0.255327 1.221922 -1.233595 -0.801042 0.544237 0.845632 -1.072532 0.373055 -0.306763 -0.092934 -0.065424 -0.083104 0.813497 -0.640559 0.618719 -0.258673 0.612249 -0.201152 -0.647059 0.086156 0.277313 -0.203331 -0.335973 0.446621 0.326761 -0.017742 0.042393 -0.281003 1.200521 0.970359 1.506171 -0.741357 -0.673305 0.945188 1.986112 1.382651 -0.328018 0.041133 0.72808 0.050963 0.173197
1.035361 1.319725 0.388011 1.220811 -0.236045 1.447081 -1.78193 3.520004 0.063077 -1.681862 0.545208 0.767849 -1.479444 -1.152839 0.669301 0.685509 -2.946755 -2.239533 -1.187422 -1.793336 0.607402 0.130687 0.296681 -1.569517 1.825066 1.715849 -1.639836 0.849724 -1.742086 0.427502 3.84844 -1.377145 0.671096 -1.312902 -1.152387 0.705431 2.180344 2.97496 1.402098 -0.909545 -1.649212 -0.253421 1.186817 1.193823 3.167747 -0.387379 -0.12198 0.872223 0.13285 0.490844 0.029473 1.345032 0.297008 2.724698 -1.656047 -0.109585 1.500583 -1.148555 -3.658389 1.022988 -1.211381 0.342059 -0.023586 1.22536 -1.874871 -1.957746 -0.188066 -0.235303 -0.067175 1.107354 1.448404 0.838301 1.67396 -0.238039 -0.504146 -1.334739 0.688005 0.37731 -2.953094 0.650433 0.307563 -0.457962 -1.694326 2.40152 -0.816994 0.208705 1.853393 0.15935 -0.989952 1.089235 1.087388 -2.786835 -2.248864 -0.788939 0.405791 0.907533 -1.516669 1.970717 -0.345554 -0.134731
-0.019201 0.028111 0.019217 0.052324 -0.012545 0.076041 0.041859 0.132425 -0.042682 -0.25324 0.153679 -0.052639 -0.234426 0.154245 0.001178 0.07083 0.073083 0.160228 0.024133 -0.054811 0.001969 0.005439 0.181016 0.099355 -0.126409 -0.051701 0.037309 -0.123638 0.247936 -0.162055 0.114555 0.125901 0.087982 0.08593 -0.090916 0.032607 0.058566 -0.084423 -0.083684 -0.120125 -0.142636 -0.134573 0.099572 -0.067549 0.144656 -0.140025 -0.119758 0.069446 0.087216 -0.032862 -0.006618 -0.111395 0.032981 -0.031112 -0.118341 0.110071 -0.111936 0.153878 0.041608 0.007703 0.064796 -0.130385 0.030277 0.045725 -0.1256 0.149386 -0.11782 -0.166733 0.122695 0.114102 -0.065025 -0.01284 -0.004014 -0.036946 -0.052576 0.183617 0.039352 -0.109896 0.002856 -0.049741 0.098582 -0.079185 0.058208 -0.092538 -0.020486 -0.024785 0.136707 0.03449 -0.090652 0.201497 -0.097455 0.025029 -0.120762 -0.013839 -0.051103 -0.067125 -0.00444 -0.252706 0.02388 -0.108891
-0.319847 0.069407 -0.010201 0.03449 -0.103224 -0.054339 -0.093449 0.078375 -0.17857 -0.016895 0.080433 0.151355 -0.066944 0.077672 -0.067038 0.271209 -0.004017 0.168122 0.121445 -0.131557 -0.114438 0.099574 0.227084 0.124257 -0.090482 -0.009609 0.149569 0.108596 0.198783 -0.162455 -0.026473 -0.006657 1.51E-4 0.280508 -0.133307 -0.192118 -0.09478 -0.061207 -0.098087 0.185337 -0.097027 -0.001109 -0.020836 -0.073411 -0.043469 -0.16391 -0.148138 -0.09885 -0.024817 -0.017077 0.146947 0.126237 -0.043762 -0.012308 0.076005 -0.037544 -0.089089 0.072003 -0.082444 -0.167248 0.148506 -0.141769 0.068794 -0.052399 -0.225965 -0.052871 0.099072 0.128414 -0.074425 -0.105582 -0.054899 0.132741 0.169536 -0.032551 0.064713 0.189595 -0.101181 0.054272 -0.079761 -0.263169 0.019755 0.112701 0.088978 -0.060104 0.017137 0.020268 0.140849 0.066357 0.161111 0.124882 -0.0938 -0.214652 -0.022234 0.004995 0.022074 -0.081345 0.047112 -0.055863 0.117254 -0.118511
-0.176803 -0.089627 0.081039 -0.010231 0.073297 -0.052973 -0.149716 0.013179 -0.02666 0.031833 -0.032669 0.02877 -0.057468 -0.05867 0.136312 0.013712 0.009557 -0.056668 -0.048016 0.062781 -0.067712 0.086391 0.090953 0.067611 -0.115329 -0.043725 -0.006618 0.147012 0.151577 -0.131064 0.001796 -0.101283 0.112699 0.046429 -0.011536 -0.009628 0.045665 -0.142356 0.103218 -0.03413 -0.206872 -0.10603 -0.251098 0.081128 0.088506 0.041975 -0.199377 -0.096467 -0.004632 -0.035162 0.122028 -0.08882 -0.011378 -0.148385 0.133486 0.120423 -0.055374 0.123165 0.030176 -0.175572 0.092321 -0.03572 -0.044897 -0.221843 0.01887 -0.04874 -0.048093 0.045394 -0.013758 -0.036734 -0.089425 -0.074869 -0.037387 0.003764 0.035655 -0.087188 0.016438 -0.08772 -0.109149 -0.252419 0.01939 -0.028784 0.267306 0.039749 0.16349 0.041344 0.106131 0.052394 0.150029 0.075017 -0.035052 0.039587 -0.106769 0.059972 -0.015365 -0.014134 -0.088367 0.010494 0.068234 -0.094448
-0.053014 -0.269291 0.126304 -0.117017 -0.051208 0.181754 0.117693 0.135195 0.040438 -0.098729 0.022071 0.018798 -0.127734 0.007401 -0.011899 0.107629 -0.001803 0.03386 0.224339 0.425991 -0.17025 0.175289 0.086865 0.269848 0.129839 -0.111524 -0.134885 0.076965 0.098649 -0.152769 -0.270847 -0.175883 0.108709 -0.004127 0.084566 -0.244252 0.035694 -0.057677 -0.057406 -0.149217 -0.062047 0.107933 0.268021 0.142955 0.193728 -0.052013 -0.088122 -0.26859 -0.080034 -0.052042 -0.19798 -0.283537 -0.02985 -0.082942 -0.049033 -0.150896 -0.13754 -0.095573 -0.153957 0.072352 0.066986 -0.018129 -0.03065 -0.223774 0.111988 -0.016928 0.132402 -0.003352 -0.222373 0.264691 -5.7E-5 0.025702 0.024626 0.013284 0.146999 -0.276376 -0.127271 -0.005684 0.123951 -0.184335 0.153192 0.188702 0.222342 0.03635 -0.182399 0.06429 -0.17255 -0.103048 -0.068562 -0.199826 0.027091 0.067974 -0.150903 -0.01647 0.0832 0.23776 -0.182793 0.018334 0.129066 0.022074
0.067365 -0.098234 -0.087276 0.094984 -0.016626 0.332459 -0.07222 0.121676 -0.031477 0.14974 0.243532 -0.094988 -0.09894 0.20782 -0.007434 0.059112 -0.183023 0.126756 -0.015388 0.019289 0.193392 0.252587 0.249131 0.168913 -0.049026 0.13608 0.04419 -0.036512 -0.084217 -0.184984 0.046543 -0.297416 -0.155453 -0.100258 0.179937 -0.444897 -0.114554 -0.037583 0.164788 -0.060788 -0.105272 -0.041323 0.084466 0.178411 -0.182368 -0.315266 0.162192 -0.065039 -0.280966 -0.058211 0.103369 0.03917 -0.34387 0.092852 -0.126362 -0.030967 -0.080224 -0.374896 0.404137 -0.045019 0.169645 0.177729 -0.019474 -0.242705 -0.103578 -0.046288 -0.297823 -0.049549 -0.100837 0.102079 0.043778 0.192599 0.026613 0.048479 0.284639 -0.171068 -0.227212 0.006306 0.074202 0.025097 0.023176 0.370704 0.061126 0.164567 0.3824 -0.356018 0.022405 0.177539 0.19105 0.024056 -0.155907 0.119275 0.056992 -0.014233 0.052606 0.065523 0.024943 -0.183555 0.066572 -0.056079
0.121733 0.053646 -0.15544 0.106433 -0.135759 0.019612 0.054153 -0.151473 0.005431 0.023473 -0.007909 -0.188981 0.183387 0.284423 -0.080472 0.196329 0.269745 -0.117484 0.017973 0.26046 0.185873 0.290429 0.011649 0.201769 -0.001069 -0.213618 0.072412 0.122381 0.005055 0.033868 0.035341 -0.053661 -0.095778 -0.044343 -0.025614 0.048081 -0.353645 0.025361 -0.0279 0.033866 -0.065103 0.295804 -0.090635 -0.035496 0.15356 -0.05524 -0.035598 0.061968 0.190476 0.069474 -0.136314 -0.02328 -0.122398 0.046134 -0.195597 0.124305 0.075533 -0.103539 -0.194726 0.244572 0.276593 0.158058 0.05366 -0.123829 -0.133646 0.120329 0.061931 -0.150664 -0.253234 0.106347 0.292983 0.063274 -0.004215 0.297781 0.002637 0.276827 -0.07177 0.099458 0.045496 -0.289078 -0.030452 -0.114557 0.258292 0.051021 0.104142 0.003915 -0.019431 -0.076821 -0.003402 0.006587 -0.055906 -0.315424 -0.103239 0.051093 0.046953 0.154624 -0.009213 -0.030596 -0.275698 -0.282966
0.051727 -0.163019 0.080513 0.007001 0.026981 -0.139648 -0.070711 0.028251 0.057919 0.015079 0.018688 0.080039 -0.013169 -0.169415 0.229306 0.146242 0.080152 -0.13523 0.071961 0.079063 -0.057927 0.1413 0.136064 0.077363 -0.086358 -0.181423 0.056878 0.077006 0.193802 -0.207265 -0.125262 0.068635 0.066314 0.143827 -0.011856 -0.090492 -0.167857 -0.142853 -0.140182 0.069166 0.015465 -0.037624 -0.138479 0.072324 0.02261 -0.053816 -0.043915 -0.138623 0.11636 -0.030628 0.085947 -0.022334 -0.061743 0.215037 0.147303 0.210964 -0.175339 -0.095672 -0.10277 -0.294775 0.041114 0.031241 0.16528 -0.101715 -0.101105 0.023033 -0.149807 -0.13894 -0.068447 0.12591 0.065311 0.055002 -0.051104 0.038142 0.131558 0.041642 0.016612 0.066537 -0.057153 -0.111632 -0.058681 -0.035739 0.113734 -0.180174 -0.124521 0.227101 0.034789 -0.045129 -0.055464 -0.002681 -0.183934 -0.050067 -0.23769 -0.095259 0.01562 -0.025612 -0.116113 -0.08813 -0.135294 -0.076746
2.591633 1.608701 -2.087245 2.00752 3.012652 4.995656 0.847355 -1.594905 -0.365708 -1.629805 -1.650237 3.712017 -0.231463 -0.537534 -2.036098 2.002639 -0.696666 -4.310136 -1.477319 -1.356504 -0.581823 -1.830239 -0.272773 -1.648095 0.090509 0.008711 0.330842 0.396714 2.341035 -0.526067 1.155793 -1.730906 -1.010387 -1.342646 -1.939355 0.734869 0.727366 0.700702 1.516974 -2.133831 -0.280653 -3.051674 0.017123 0.532043 1.478449 0.375441 0.920129 1.548929 1.087478 0.668327 0.707416 3.249232 -0.362503 1.273221 -2.929682 -0.245389 1.633444 -0.119836 0.103459 -3.445175 0.513245 0.427807 0.738792 1.448203 0.501908 0.362882 -0.731533 -0.391201 0.037778 3.053553 4.030229 1.793904 1.24136 0.081706 -1.401954 -0.638804 -0.487445 -0.267924 0.012844 0.538179 -0.241935 -0.068756 1.351665 -0.112558 0.001814 0.447262 0.833441 -0.023876 1.212707 1.514635 -0.568611 0.376173 -3.663739 -4.345135 -0.444319 2.139788 -2.53093 0.92131 -1.399435 1.763954
-0.055587 -0.024879 -0.095132 -0.105576 0.144029 0.076057 -0.061821 -0.015695 -0.148082 0.124611 0.15281 0.088171 0.026963 0.027312 0.085004 0.14632 -0.087824 0.229277 0.083812 -0.022445 0.047327 0.107496 0.190865 0.124383 0.037662 -0.290207 -0.042369 -0.050937 -0.007265 0.024754 -0.144668 -0.221973 -0.119292 0.162604 -0.147821 -0.159178 0.204559 -0.052188 0.196134 0.029413 -0.206649 0.038471 0.046959 0.245755 -0.20909 -0.21628 0.007198 0.100133 0.024292 0.018504 0.098815 0.136439 -0.246285 0.05936 0.041581 -0.011614 -0.101398 0.085889 0.04437 -0.047023 0.105535 0.119098 0.050504 -0.060198 -0.06233 -0.037827 0.141918 -0.030907 0.045634 -0.165694 0.104298 -0.061929 0.062084 -0.124255 0.118497 -0.04962 -0.137357 -0.16921 -0.097154 0.021473 0.105708 0.244284 0.067069 -0.25576 -0.005835 0.204486 0.121989 -0.042621 0.016268 0.115758 -0.004702 -0.106193 -0.056468 -0.075591 0.04228 -0.208913 0.051416 -0.1362 0.042066 -0.010223
-0.099089 -0.012167 -0.0533 0.179926 0.083152 -0.127338 -0.103597 -0.095865 -0.120632 0.254084 0.018158 -0.007653 -0.133219 -0.238306 -0.05746 0.136351 0.251311 0.149046 0.033287 -0.040672 -0.032791 0.075566 0.166212 0.014374 -0.027477 0.13003 -0.091303 -0.148947 -0.048907 0.076961 0.016877 0.095089 -0.081442 0.012266 -0.076622 -0.089659 -0.029875 0.087107 0.094711 0.196634 -0.115395 0.177122 0.084337 0.03752 0.033204 -0.168193 0.027805 0.006922 -0.193538 0.041453 0.008757 0.004179 -0.035606 0.019817 0.173102 -0.209725 0.184516 0.049609 -0.052798 -0.016175 0.199352 0.019765 0.044334 0.03559 -0.075511 0.042711 -0.017479 -0.003598 0.01691 -0.11944 -0.073789 -0.083508 0.03998 -0.005061 -1.34E-4 0.084038 -0.118106 -0.055108 0.038225 0.171682 -0.051163 0.098384 0.115779 0.005398 -0.018579 -0.00246 0.02534 -0.145236 0.023419 0.014054 0.047356 0.095037 -0.115228 0.064562 0.092746 -0.007692 0.173066 -0.115028 -0.213944 -0.020714
-0.170163 -0.1391 -0.079012 0.005268 -0.094018 -0.053022 -0.069923 0.024442 -0.147247 -0.015283 -0.143139 -0.178203 -0.209665 -0.00195 -0.047362 -0.202495 -0.083103 -0.02712 -0.06583 -0.022112 -0.014009 0.095235 -0.062443 -0.044983 -0.056473 -0.084117 0.026402 -0.08506 -0.051853 0.016297 0.152646 0.18958 0.041863 0.083695 -0.090639 -0.124066 0.10696 -0.125698 -0.018959 -0.09863 0.02937 0.06348 0.015851 0.213451 0.124565 0.18488 -0.028208 0.127578 -0.010856 -0.093273 -0.054867 0.156122 0.193466 0.056149 0.089713 -0.062826 0.098994 0.036704 -0.111995 0.024634 0.15968 -0.081518 0.143721 -0.064551 0.011831 -0.05391 0.220703 -0.170704 0.170879 0.041949 -0.060333 -0.052761 -0.134636 -0.031083 0.171892 -0.086808 0.055442 0.040859 0.011875 -0.072226 -0.050752 -0.091756 0.228172 0.230627 -0.059527 0.077519 0.295913 0.110297 -0.166141 0.022747 -0.101961 0.219823 0.017465 0.105255 0.036847 -0.098064 0.020913 0.017994 -0.007343 -0.018839
5.8E-4 -0.166282 -0.007142 0.030966 -0.002342 -0.003641 -0.208086 -0.102648 -0.088019 0.143738 0.203844 0.167444 -0.098228 -0.062454 0.054963 0.052161 0.134411 0.189531 0.001616 -0.055346 -0.06122 -0.037834 0.153142 0.078407 -0.245088 -0.048893 -0.077412 -0.202455 0.067537 -0.165299 0.004362 -0.002674 -0.195584 -0.051519 0.002983 -0.143993 -0.184044 0.001714 0.069729 0.039232 -0.087638 -0.054429 0.137845 -0.090005 -0.006268 0.026023 -0.061104 0.022408 -0.232451 0.274804 -0.020747 -0.181498 0.055366 -0.040905 0.066078 0.085578 -0.063706 -0.098234 0.128944 -0.235579 -0.012032 -0.251056 -0.118028 -0.034383 -0.062989 -0.036642 0.101305 0.007671 0.068913 -0.131371 -0.149438 -0.11061 0.008767 0.015464 0.042378 -0.320782 -0.191728 0.024424 0.052617 -0.055048 -0.025897 0.206257 0.097253 0.015978 -0.089612 0.194139 -0.06014 0.03642 0.179928 0.057093 -0.0174 0.021255 0.028493 0.073299 -0.02547 0.054872 0.048373 -0.011646 0.019997 -0.067056
-0.141735 -0.027872 0.09452 0.003413 0.059076 0.156868 -0.058411 -0.067813 -0.19242 0.006516 0.034811 0.126347 0.250093 0.030392 -0.151342 0.004812 -0.139806 0.141648 0.088007 0.267747 -0.022016 -0.036974 0.284786 0.014954 -0.107623 -0.096656 -0.057293 0.07725 -0.138222 -0.096544 -0.107288 -0.05273 0.065099 0.014741 -0.126854 -0.155058 0.10156 0.011281 0.21299 0.13288 0.180644 -0.212141 -0.014523 0.041835 -0.173971 -0.218906 0.172395 0.102318 -0.180247 0.178271 0.273705 0.082843 -0.01894 -0.173341 0.162613 -0.174057 -0.161384 -0.138868 0.16228 -0.216267 -0.02778 0.149042 -0.058335 -0.327922 0.021497 -0.060646 8.42E-4 0.148827 0.113429 -0.063505 0.050432 0.064966 -0.127406 -0.094458 -0.350119 -0.054338 -0.053567 -0.112331 -0.1996 -0.027936 -0.163759 0.14158 -0.071156 0.027327 -0.04434 -0.003528 0.108451 0.123163 0.326407 -0.012515 0.135187 -0.013262 -0.077869 0.105092 -0.100443 -0.127938 -0.006557 0.206681 -0.014108 0.148888
0.0 0.0 0.0 0.0 0.0 0.0 0.0 0.0 0.0 0.0 0.0 0.0 0.0 0.0 0.0 0.0 0.0 0.0 0.0 0.0 0.0 0.0 0.0 0.0 0.0 0.0 0.0 0.0 0.0 0.0 0.0 0.0 0.0 0.0 0.0 0.0 0.0 0.0 0.0 0.0 0.0 0.0 0.0 0.0 0.0 0.0 0.0 0.0 0.0 0.0 0.0 0.0 0.0 0.0 0.0 0.0 0.0 0.0 0.0 0.0 0.0 0.0 0.0 0.0 0.0 0.0 0.0 0.0 0.0 0.0 0.0 0.0 0.0 0.0 0.0 0.0 0.0 0.0 0.0 0.0 0.0 0.0 0.0 0.0 0.0 0.0 0.0 0.0 0.0 0.0 0.0 0.0 0.0 0.0 0.0 0.0 0.0 0.0 0.0 0.0
-0.130676 -0.199196 -0.035099 0.032604 -0.042615 -0.023303 0.060237 -0.076584 0.00545 -3.35E-4 0.118055 0.026695 0.105707 -0.087032 -0.074505 0.037002 0.065281 -0.0393 -0.02517 -0.164946 -0.046293 0.003275 0.142592 0.137317 -0.170921 -0.034709 -0.10291 0.048386 0.126692 -0.266657 -0.127747 -0.057535 0.122498 0.074111 0.291178 -0.160118 -0.075608 -0.043598 0.006866 0.015539 -0.137898 -0.115492 0.208727 -0.008284 0.052131 -0.116619 0.023857 0.210145 -0.047289 -0.018462 0.033972 0.011168 -0.074561 -0.257832 -0.0933 -0.024824 -0.097729 0.006717 0.038456 0.006223 -0.011547 0.063837 -0.152379 -0.094751 -0.137922 0.048831 1.73E-4 -0.012646 0.098069 0.060623 -0.129729 0.0301 -0.09719 -0.052737 0.068991 -0.122321 0.078189 -0.077004 0.078852 -0.080564 0.044351 0.069768 0.02003 -0.028151 -0.244601 0.090499 -0.068458 -0.008291 0.107898 -0.035807 -0.070642 0.014903 -0.141891 -0.031287 0.151151 -0.009146 -0.130039 -0.011589 0.097959 0.081507
-0.144336 0.074372 0.113318 0.085118 -0.148613 0.116197 -0.043826 0.097308 0.028569 0.0599 0.122926 0.129504 -0.202531 -0.024615 -0.184827 0.130076 -0.320919 0.065363 0.003498 0.051718 -0.144357 -0.139014 -0.049753 0.108518 -0.082871 0.171983 0.073164 -0.210686 -0.009667 0.210213 0.060274 0.046079 -0.075353 -0.162488 0.155761 -0.129948 -0.292558 -0.091019 -0.218721 0.241112 -0.031704 0.071499 0.229555 0.017352 -0.080441 0.02619 0.111902 -0.063922 0.15966 0.018002 0.091424 -0.033691 -0.13884 -0.017261 0.032462 0.057671 0.059981 0.008869 0.121346 -0.080853 0.079416 0.001784 0.19468 -0.254343 -0.090097 -0.09996 0.234742 -0.05806 -0.035704 -0.10223 -0.09253 0.014641 0.023658 0.024081 0.087838 0.004814 -0.031244 0.126039 -0.042851 0.057792 0.054989 0.062025 0.114046 -0.024096 0.166209 -0.182425 0.030826 0.162165 0.294079 0.052697 -0.053533 0.047016 -0.011732 0.117571 0.109081 -0.155768 -0.001293 -0.333485 -0.017285 0.020007
0.0 0.0 0.0 0.0 0.0 0.0 0.0 0.0 0.0 0.0 0.0 0.0 0.0 0.0 0.0 0.0 0.0 0.0 0.0 0.0 0.0 0.0 0.0 0.0 0.0 0.0 0.0 0.0 0.0 0.0 0.0 0.0 0.0 0.0 0.0 0.0 0.0 0.0 0.0 0.0 0.0 0.0 0.0 0.0 0.0 0.0 0.0 0.0 0.0 0.0 0.0 0.0 0.0 0.0 0.0 0.0 0.0 0.0 0.0 0.0 0.0 0.0 0.0 0.0 0.0 0.0 0.0 0.0 0.0 0.0 0.0 0.0 0.0 0.0 0.0 0.0 0.0 0.0 0.0 0.0 0.0 0.0 0.0 0.0 0.0 0.0 0.0 0.0 0.0 0.0 0.0 0.0 0.0 0.0 0.0 0.0 0.0 0.0 0.0 0.0
0.032396 -0.153017 0.013261 0.047099 -0.16096 -0.002847 -0.14501 0.068005 -0.149359 0.076423 0.087914 0.08774 -0.052729 0.078781 0.117473 0.074295 0.151985 0.072683 0.119518 0.122415 -0.135198 0.247231 0.180758 0.015866 -0.113795 -0.127057 -0.071395 0.168229 0.095199 -0.336627 -0.153192 -0.143154 -0.026817 0.033279 -0.138762 -0.11222 0.10966 -0.08999 0.082217 0.118244 -0.209306 -0.145128 0.075727 0.090038 -0.029107 0.029357 -0.046449 0.077719 -0.03284 -0.077257 -0.012984 -0.045672 -0.116 -0.276832 0.093682 -0.058702 0.12833 -0.142148 0.008875 0.083015 -0.016207 -0.124211 -0.089497 -0.070414 -0.053119 -0.049462 -0.046969 0.093573 -0.213675 0.119268 -0.018275 3.93E-4 0.116123 -0.134844 0.078802 -0.103423 -0.118698 -0.023437 0.037259 0.011934 0.026229 -0.010741 0.123861 -0.243128 -0.03501 -0.001409 -0.172359 -0.035735 0.189753 0.012574 -0.164292 0.135864 0.031712 0.210915 -0.032895 0.034045 -0.017284 -0.092774 0.076027 0.134429
-0.747383 0.108068 0.520923 -0.248547 -0.096262 -0.239753 -0.384165 0.385615 0.070637 0.682605 0.287251 0.119985 0.576243 0.58976 0.122296 0.405583 1.161053 1.11901 0.120139 0.192951 -0.112766 0.316525 0.186397 -0.253142 0.135056 0.156252 -0.247267 -1.164883 0.168466 0.200623 -0.301506 0.039165 -0.727244 -0.227591 -0.249954 -0.062029 -0.373619 0.287934 -0.336073 -0.001775 0.119566 0.208939 0.421394 -0.315935 0.133348 -0.092056 0.357866 0.044172 0.135789 0.536792 0.155455 0.605211 -0.037558 0.686324 0.789312 -0.249018 -0.197509 0.412447 0.031069 0.362003 0.424807 0.173179 0.401972 -0.083511 -0.991081 -0.753265 -0.133983 0.18383 0.387685 -0.245508 -0.212255 0.116083 0.033902 0.702506 0.161094 -0.174626 0.368781 -0.544782 0.561224 -0.077653 0.171618 0.813768 0.596527 -0.005522 -0.099371 -0.377372 -0.295784 0.328589 -0.325691 0.097125 -0.181117 0.07116 -0.174475 0.226988 -0.210198 -1.117124 0.069449 -1.092387 -0.189536 0.52512
0.0 0.0 0.0 0.0 0.0 0.0 0.0 0.0 0.0 0.0 0.0 0.0 0.0 0.0 0.0 0.0 0.0 0.0 0.0 0.0 0.0 0.0 0.0 0.0 0.0 0.0 0.0 0.0 0.0 0.0 0.0 0.0 0.0 0.0 0.0 0.0 0.0 0.0 0.0 0.0 0.0 0.0 0.0 0.0 0.0 0.0 0.0 0.0 0.0 0.0 0.0 0.0 0.0 0.0 0.0 0.0 0.0 0.0 0.0 0.0 0.0 0.0 0.0 0.0 0.0 0.0 0.0 0.0 0.0 0.0 0.0 0.0 0.0 0.0 0.0 0.0 0.0 0.0 0.0 0.0 0.0 0.0 0.0 0.0 0.0 0.0 0.0 0.0 0.0 0.0 0.0 0.0 0.0 0.0 0.0 0.0 0.0 0.0 0.0 0.0
0.0 0.0 0.0 0.0 0.0 0.0 0.0 0.0 0.0 0.0 0.0 0.0 0.0 0.0 0.0 0.0 0.0 0.0 0.0 0.0 0.0 0.0 0.0 0.0 0.0 0.0 0.0 0.0 0.0 0.0 0.0 0.0 0.0 0.0 0.0 0.0 0.0 0.0 0.0 0.0 0.0 0.0 0.0 0.0 0.0 0.0 0.0 0.0 0.0 0.0 0.0 0.0 0.0 0.0 0.0 0.0 0.0 0.0 0.0 0.0 0.0 0.0 0.0 0.0 0.0 0.0 0.0 0.0 0.0 0.0 0.0 0.0 0.0 0.0 0.0 0.0 0.0 0.0 0.0 0.0 0.0 0.0 0.0 0.0 0.0 0.0 0.0 0.0 0.0 0.0 0.0 0.0 0.0 0.0 0.0 0.0 0.0 0.0 0.0 0.0
2.591633 1.608701 -2.087245 2.00752 3.012652 4.995656 0.847355 -1.594905 -0.365708 -1.629805 -1.650237 3.712017 -0.231463 -0.537534 -2.036098 2.002639 -0.696666 -4.310136 -1.477319 -1.356504 -0.581823 -1.830239 -0.272773 -1.648095 0.090509 0.008711 0.330842 0.396714 2.341035 -0.526067 1.155793 -1.730906 -1.010387 -1.342646 -1.939355 0.734869 0.727366 0.700702 1.516974 -2.133831 -0.280653 -3.051674 0.017123 0.532043 1.478449 0.375441 0.920129 1.548929 1.087478 0.668327 0.707416 3.249232 -0.362503 1.273221 -2.929682 -0.245389 1.633444 -0.119836 0.103459 -3.445175 0.513245 0.427807 0.738792 1.448203 0.501908 0.362882 -0.731533 -0.391201 0.037778 3.053553 4.030229 1.793904 1.24136 0.081706 -1.401954 -0.638804 -0.487445 -0.267924 0.012844 0.538179 -0.241935 -0.068756 1.351665 -0.112558 0.001814 0.447262 0.833441 -0.023876 1.212707 1.514635 -0.568611 0.376173 -3.663739 -4.345135 -0.444319 2.139788 -2.53093 0.92131 -1.399435 1.763954
-0.17297 -0.036874 0.113785 -0.001624 0.10196 -0.062408 -0.071908 -0.075284 -0.193939 0.097459 0.092752 0.125623 0.131465 -0.079034 0.110188 0.134206 0.090849 0.096761 0.064371 0.109925 0.091948 0.001158 0.381424 0.254634 -0.128297 0.056034 0.032456 0.047597 0.012957 -0.133302 0.161489 -0.151031 -0.151224 0.164472 -0.144771 -0.218935 0.009352 -0.038294 -0.051873 -0.141886 -0.163665 0.195633 0.263164 0.087378 -0.091062 -0.0267 0.113741 -0.059396 -0.247343 0.169857 0.099448 -0.16532 -0.081405 0.043961 0.017513 -0.003716 -0.147047 -0.038343 0.106479 -0.035274 -0.147783 -0.213987 -0.017574 -0.001325 0.013525 0.165141 -0.020169 -0.219005 0.268084 -0.039445 -0.011853 -0.10075 -0.007607 0.188416 0.01196 0.105238 -0.245699 0.066376 0.003158 -0.093528 -0.076519 0.155115 0.139987 -0.072399 0.150872 0.027566 0.016541 -0.083107 0.221488 0.098611 -0.170901 0.033571 -0.181436 0.081538 -0.05878 -0.082054 0.024475 -0.026425 -0.111254 -0.015344
0.13461 -0.018743 -0.133243 0.181557 -0.064236 0.022473 0.119337 -0.144452 -0.154604 -0.095581 0.009183 0.26371 -0.084719 0.17026 -0.125843 0.202846 -0.070049 -0.110461 -0.140621 -0.040701 -0.040282 -0.233246 -0.08267 0.019587 -0.120893 -0.004829 -0.034794 0.184057 0.100964 -0.16575 -0.035406 -0.235881 -0.188763 0.011104 -0.028415 0.010372 0.05423 0.053406 -0.117225 -0.112898 -0.126839 -0.083084 -0.01629 0.241356 0.034154 0.05558 0.069429 -0.055773 4.65E-4 -0.082227 -0.050871 -0.071885 0.137888 -0.245076 0.082923 -0.002285 0.080467 -0.087513 1.92E-4 -0.029918 -0.077652 -0.132815 -0.016199 0.036113 0.167146 0.041565 -0.037133 -0.073887 -0.287359 0.198437 0.084825 0.146725 0.077877 -0.025393 -0.005538 -0.085779 0.082592 -0.195093 -0.09324 0.013339 -0.033636 0.120296 0.019878 -0.05133 -0.029063 -0.107705 0.024064 0.21668 0.065829 -0.175085 0.030211 -0.108216 0.009797 0.156711 -0.045103 0.326747 -0.005153 0.162653 0.098161 0.065969
-0.047421 -0.15849 0.107499 0.089927 0.167776 0.08617 -0.300314 -0.309623 0.108092 0.189928 0.056687 0.033222 -0.077897 -0.080874 0.159018 0.266839 -0.245001 0.016831 -0.085825 0.058383 -0.059198 -0.055262 0.240707 -0.12969 -0.22039 0.060318 -0.047124 -0.139865 0.089529 -0.172326 0.039714 -0.133083 -0.093917 0.050088 -0.217563 -0.099461 0.041898 -0.126919 0.020688 0.317283 0.16597 0.022872 0.046324 -0.073254 -0.180954 0.079862 0.019486 0.185367 0.118476 0.006355 -0.032953 -0.037425 0.063885 0.11699 0.184923 0.052025 0.128145 -0.13686 0.190992 -0.211976 0.013083 -0.015876 -0.029147 0.01214 -0.021098 0.071397 0.239282 -0.021331 -0.132596 -0.213218 -0.047197 -0.061747 0.108005 0.06585 0.170104 0.21 0.017802 0.149472 0.139998 -0.100998 0.016478 -0.071088 -0.215638 -0.123884 -0.172349 0.055991 -0.115719 -0.021301 0.071983 0.092645 -0.139537 0.078519 -0.099633 0.035876 -0.078405 -0.346964 0.042416 0.013565 -0.105723 -0.0419
-1.230496 -1.784998 -2.701176 0.758382 1.022601 0.134257 -0.985047 1.562518 0.310835 -0.272668 -2.093218 0.576908 2.040189 3.9509 0.774258 -3.034902 0.015918 3.094607 -0.955282 -0.161599 1.346793 -0.427151 2.407651 2.929724 -1.837484 3.452367 0.53745 -0.982041 -0.926567 -0.170227 1.02313 -0.319885 0.057295 -0.759491 -3.167264 0.215212 0.199355 2.17803 -2.880665 -3.126606 1.987815 -0.672563 -1.358064 -0.033815 -0.248648 -1.018406 0.174184 0.367458 2.183337 2.743262 -1.304921 3.026151 -0.376082 1.947597 -1.255474 -1.064786 1.087376 -2.089309 0.970619 0.252176 5.222122 -0.33553 0.351429 0.429232 -0.472527 -0.662081 -0.365277 -1.304831 1.49886 -2.889978 0.333237 -0.579763 2.984992 1.952844 2.048453 -0.167153 0.122451 0.366104 2.33386 4.508055 2.013939 1.926481 3.227053 4.010036 0.598998 -2.80402 1.407855 2.476772 -2.103011 3.048537 -0.582139 -2.261293 -0.407356 -1.748715 -0.955609 0.330801 0.787854 1.235672 2.16538 0.751083
0.172182 -0.927985 -0.3069 -2.554375 -2.79618 1.363816 1.356945 0.502677 -0.516686 -0.372718 -1.378709 -1.677741 -0.052827 0.583572 1.217042 -1.088009 -2.188723 0.854278 0.133146 0.289338 1.247215 2.214816 1.104756 -0.277867 -0.171038 -0.854656 0.814031 -1.497641 -0.636191 -2.749452 -0.857381 2.035266 -0.018168 -0.971957 -1.08979 0.021783 -1.502786 1.769581 1.655038 0.828555 -0.288891 -1.643319 1.296884 3.15964 4.71883 -1.848723 1.587916 1.522492 2.550763 -1.017008 -1.305344 -1.941113 -2.457606 1.203371 0.535347 -2.037774 2.337927 -1.425943 1.218833 -2.073365 1.513824 -0.780544 0.664985 1.607993 -0.932983 1.857969 2.017287 0.092268 -0.331977 1.780767 -1.10432 -0.044469 -0.61306 2.316769 0.450018 -2.903258 -2.582764 0.956272 2.401451 2.440768 -1.404724 1.83652 1.084831 0.48824 -0.713843 0.538634 -0.137298 1.038743 -1.172662 1.507114 0.384929 -1.064784 -0.892226 -0.592314 -0.782517 -1.110254 -0.524532 -3.038305 -0.880207 0.49063
-0.671963 -1.356401 3.602218 0.823366 -0.502176 -0.026847 2.688116 0.953721 0.412325 -0.074957 -2.563688 0.379861 -0.279054 0.512633 -0.426346 -0.669122 -2.193019 -1.985633 1.195718 -0.843091 -3.07709 -2.336138 0.676971 -1.157188 0.84245 -0.067074 1.662677 -0.902702 0.573933 0.762577 1.605777 -0.494156 -0.764054 -4.857189 1.199538 0.081996 1.582965 -1.800896 1.133021 -2.874443 -0.067305 0.527258 -0.963475 2.056148 -0.810059 -2.590427 0.192699 -0.925293 0.533123 0.50128 0.198265 1.047486 -1.15476 -0.133629 -3.660616 2.9145 0.67414 -1.747608 -1.472014 0.506851 -0.089567 -1.009712 -0.989767 -0.231732 -1.20197 -0.899847 -0.180586 -0.280434 1.214359 0.601947 3.002038 1.452004 1.898121 0.64863 -0.773459 -0.546508 1.482508 0.349815 -0.022055 1.977613 1.349274 -0.187718 2.026595 2.419264 -2.256871 -0.764584 -0.110956 2.609596 -0.511332 0.497735 1.205947 -0.553892 0.146347 -2.201324 -0.117853 -0.193777 0.312823 3.388883 -4.036498 2.412019
-0.08527 -0.011954 -0.008522 -0.070471 -0.027368 -0.034217 -0.154683 0.170025 -0.211351 0.005175 0.035054 0.061369 -0.05016 0.042209 -0.103162 0.026348 -0.113398 0.250342 0.37709 -0.140929 0.03508 0.14316 0.155727 0.199993 -0.055704 0.038226 -0.057878 -0.17484 -0.071578 -0.310512 -0.031749 -0.282726 -0.202981 0.040096 0.005533 -0.088928 -0.075045 0.079848 -0.186911 0.116578 0.097923 0.069315 0.293092 0.16102 -0.093612 -0.038429 0.253428 0.110811 -0.095616 0.076348 -0.077247 -0.117277 -0.007219 -0.015298 0.02128 -0.16697 0.077035 -0.250845 0.226215 -0.091739 0.065957 0.055509 0.058185 0.002781 -0.163207 0.072809 -0.02191 0.153176 0.112132 -0.189062 0.007301 0.122526 0.076668 0.120301 0.118231 -0.078156 -0.030493 0.179634 0.032708 0.039865 -0.070133 0.396054 0.247863 -0.05226 -0.019937 -0.18977 0.174569 0.286988 -0.121259 0.104363 -0.223968 0.007609 -0.014909 -0.062617 -0.202583 0.046452 0.124781 0.043147 -6.14E-4 -0.1257
-0.020122 -0.129551 0.079111 0.044247 2.7E-4 -0.085409 0.019656 0.046379 -0.021388 0.122181 0.116338 0.061277 0.152274 -0.07715 0.124793 0.199206 0.0521 0.201831 0.234933 0.152275 -0.031276 -0.011689 0.100916 -0.039356 -0.008555 -0.035747 0.110653 -0.111704 0.084497 -0.082074 -0.101207 0.004416 -0.090269 0.158027 -0.045056 -0.008315 0.146116 -0.110983 -0.2082 -0.037338 -0.132452 0.150695 -0.066258 -0.003108 0.035437 0.142012 0.091725 0.095529 -0.18968 -0.046861 0.036816 -0.115391 -0.138596 -0.023145 0.05101 0.073666 -0.145695 -0.028714 -0.028434 -0.056494 -0.107789 -0.209914 -0.079517 -0.293056 0.030036 0.258249 0.01353 -0.03007 0.208269 -0.095619 -0.104322 -0.068665 -0.06787 0.021478 -0.009794 -0.174201 -0.131599 0.160091 -0.003468 -0.094913 -0.198302 0.090664 0.031848 -0.341998 0.008816 -0.022153 -0.015105 -0.016854 0.170241 -0.016689 -0.147599 -0.039071 0.118536 0.075877 0.031159 -0.249255 0.093822 0.077269 -0.021608 -0.074188
0.042738 -0.084635 0.25918 0.04597 0.012433 0.259542 -0.144416 -0.007299 -0.057523 -0.027536 -0.095535 0.105845 -0.124473 -0.05655 0.174919 0.113363 -0.124699 0.038497 -0.041204 0.192746 -0.063625 -0.196461 -0.053362 0.075095 -0.19855 0.034971 0.12265 -0.029677 0.217734 -0.197108 -0.190874 0.158011 -0.069049 0.067984 -0.149562 -0.083955 0.079922 0.025325 -0.257813 0.028928 0.056451 -0.114001 0.022256 -0.02596 0.142912 0.066804 0.026155 0.172736 -0.104948 0.175957 0.176747 -0.169114 -0.227616 -0.124708 0.122113 -0.100054 -0.141451 0.266829 -0.059475 -0.012998 -0.205238 -0.050835 -0.027864 0.009316 -0.121875 0.10682 -0.209655 0.038476 -0.034115 0.145239 0.0764 -0.06325 0.200161 -0.075474 -0.092517 0.060149 0.087267 -0.08047 -0.007602 -0.129783 0.171047 -0.018375 0.171448 0.216411 0.142643 0.02747 0.168105 -0.046838 0.032408 0.169742 0.070969 -0.028215 -0.116882 -0.061203 0.159343 -0.135234 0.092112 0.047835 -0.146755 0.178946
-2.648351 -0.794316 -2.108887 0.20446 0.883061 0.242784 1.848653 1.149137 -4.975573 0.237654 -1.499665 2.924494 0.344217 -1.640431 0.763777 0.138944 -3.029439 -2.813434 -0.761102 -1.057557 -1.373735 -0.870599 1.234095 0.127805 -1.372618 1.35802 -1.501738 0.80945 0.172993 -0.484995 1.783363 -0.047587 0.483285 -1.526831 2.103549 2.116639 4.583491 -4.022388 -0.843817 0.361243 -0.546655 -2.301259 -2.000973 2.64631 -1.604053 -1.914206 -1.581895 -0.464185 1.757769 1.056301 0.263866 -0.904419 -0.422466 0.007824 -1.651553 0.7499 1.638666 -0.336108 -3.288466 -2.953238 -1.135414 1.165223 -1.047256 -0.821696 -0.135806 0.434207 -2.389307 -3.56953 -0.656773 0.578325 3.337902 0.782195 -1.250815 2.925509 -1.981492 0.121786 0.836257 1.710923 -2.640405 -0.628995 0.247469 0.863847 1.749171 -0.214156 -0.274807 2.192709 -0.892334 -1.614644 -1.225919 -0.042182 2.51632 3.464583 -3.591523 -2.506587 0.990426 1.8843 -2.460629 0.953462 0.359605 2.267383
0.131091 0.040378 0.187753 -0.0136 -0.151112 -0.015483 -0.229911 -0.119415 -0.135619 0.206785 0.058313 0.203716 0.044907 0.002114 0.134741 0.317725 0.016305 0.240915 0.108114 -0.042891 -0.053838 0.043872 0.353852 0.033303 -0.206055 0.011541 -0.263719 -0.367923 0.093667 -0.134255 -0.024277 0.073892 -0.13228 0.236357 -0.089342 -0.100615 0.017162 -0.078197 -0.155731 0.186402 0.010776 0.126961 -0.046915 0.083543 0.092611 -0.179597 -0.043854 0.071314 -0.225823 0.132846 -0.006139 -0.08422 -0.065481 0.040719 0.092901 -0.096592 0.087253 0.050141 0.210442 -0.223603 0.159073 -0.189099 0.03539 -0.085086 -0.15492 -0.049877 0.024321 0.074458 0.081588 -0.232742 0.053911 0.031676 0.101916 -0.045063 0.152612 -0.156943 -0.010101 0.027036 0.025917 -1.63E-4 0.02858 0.113919 0.110167 -0.124989 0.153046 -0.035816 -0.051011 0.039916 0.053406 0.017487 -0.13414 -0.115926 0.060659 0.128598 -0.107206 -0.129645 0.219075 -0.041944 -0.151026 -0.169909
0.037311 0.069098 0.146051 0.245319 -0.220586 0.149353 -0.154392 -0.046366 -0.177821 -0.134713 -0.0835 0.215419 -0.020545 0.155818 5.45E-4 0.045456 -0.192701 0.089427 -0.017666 -0.104382 0.086163 0.049242 0.153222 0.098115 0.079776 0.066198 -0.020967 0.201605 0.125661 -0.055015 -0.200601 -0.188661 0.051858 0.114433 0.066955 0.07807 0.096275 -0.029986 -0.083555 0.03171 -0.089357 0.008298 0.138861 0.005332 -0.036957 0.070235 0.024555 -0.277248 -0.115429 -0.046333 -0.080208 -0.004651 0.013615 -0.198257 0.170783 -0.05279 0.070781 -0.1826 -0.11547 -0.076415 -0.049058 -0.092461 -0.098914 -0.14922 0.136904 -0.256722 -0.052938 0.130647 0.009491 -0.021192 -0.175015 0.067034 -0.001401 0.111063 -0.026165 0.065045 4.48E-4 0.027764 -0.054708 -0.049767 -0.011957 0.137961 0.08663 -0.068711 -0.090447 -0.068702 -0.007911 -0.035437 0.051932 -0.034323 0.050828 -0.073514 -0.125312 0.153466 0.124654 0.089508 -0.015814 -0.066212 -0.060318 0.022966
0.047836 -0.260219 0.14638 0.007779 -0.104955 -0.050724 -0.319432 -0.027407 -0.104778 0.124311 0.14477 0.148278 -0.013076 -0.069917 0.254554 0.25292 0.091697 0.206138 0.168034 0.12307 -0.258927 -0.00695 0.102032 0.075771 -0.201948 -0.129118 -0.138297 -0.097396 0.264104 -0.141635 -0.00303 -0.004618 -0.171331 0.006413 -0.129962 -0.058793 -0.107657 -0.040955 0.117533 0.181708 -0.064138 0.225566 -0.062915 -0.035464 0.269723 -0.089994 -0.005719 -0.078063 -0.215832 0.079343 0.266575 -0.25419 -0.128297 0.038341 0.119308 -0.207662 -0.029523 0.019236 0.024436 -0.109361 0.007955 -0.078744 0.071111 -0.325345 -0.091151 0.006054 0.103893 0.156867 0.20827 -0.195221 -0.011492 -0.084134 -0.077224 -0.110934 0.098004 -0.068865 -0.108344 -0.153112 -0.094614 -0.187216 -0.01459 0.218526 0.241999 -0.141711 0.084584 0.252269 0.155438 -0.088298 0.260633 0.198838 -0.176457 -0.052125 -0.045839 0.131111 -0.115358 -0.197565 0.088973 -0.089591 0.060949 -0.086675
0.028566 0.135166 0.096699 0.105631 0.036535 -0.143409 0.086774 0.050924 0.108259 0.038707 0.117569 0.277209 0.088768 0.147454 0.049805 0.209769 -0.140023 -0.044747 -0.020261 -0.095157 -0.074908 0.102905 -0.115126 -0.068426 -0.035475 -0.030235 0.033792 0.211817 0.155358 -0.029238 -0.010171 0.055346 0.068868 0.040866 0.062192 -0.061423 0.004606 -0.055839 -0.122253 0.018865 -0.086782 0.075329 -0.011442 0.05577 -0.021768 0.044243 0.281932 -0.256007 -0.140494 0.150427 0.058319 -0.089054 0.082799 -0.168304 0.13356 -0.027805 -0.071835 -0.091562 -0.174502 6.17E-4 0.007892 -0.017618 -0.104252 0.034519 0.092304 -0.251686 -0.163454 -0.087788 -0.003563 -0.032691 -0.144932 0.063617 -0.009836 -0.079796 0.008017 0.176916 -0.038438 -6.72E-4 -0.038006 -0.181938 0.179608 0.090493 -0.040085 0.056412 0.111268 -0.150258 -0.01833 0.036197 0.285553 0.145815 0.031913 0.030398 0.078263 0.123398 -7.05E-4 -0.102937 0.152214 0.03334 0.09407 -0.022901
0.018692 0.003954 0.022335 0.025718 0.029087 0.030922 -0.159117 -0.044294 -0.112688 -0.153712 0.019668 0.068753 0.029738 0.104509 0.195846 -0.002162 -0.021842 0.078139 0.104668 0.197202 0.024446 0.061249 0.203252 0.172145 -0.12039 -0.218867 0.226797 0.09979 0.198439 0.002159 0.016553 0.094346 -0.047384 -0.092423 -0.109474 -0.009718 0.170276 -0.178404 0.167113 0.010431 -0.027972 -0.081173 0.178278 0.044115 -0.054898 0.063215 -0.013497 -0.11393 -0.022136 -0.095666 0.009994 -0.20733 0.116068 8.89E-4 -0.112751 0.005518 0.030859 -0.091761 0.101426 -0.083262 0.045508 -0.050281 -0.138675 -0.10701 -0.059554 -0.088416 -0.064642 -0.016221 -0.194429 0.112795 0.03088 0.185583 -0.133863 0.079567 0.262499 0.061436 -0.008268 0.028649 0.012374 -0.165398 -0.038884 -0.145965 0.131198 -0.004866 -0.211602 -0.045189 0.008805 -0.016737 0.056104 0.13973 -0.102532 -0.085471 -0.23902 0.228733 -0.078507 0.033288 -0.064665 0.050896 -0.004291 -0.078889
-0.017192 0.038072 0.078274 -0.08276 -0.061075 -0.058265 -0.062541 -0.010864 -0.02839 0.036857 -0.065934 0.026567 0.16297 0.08968 -0.231009 0.195012 0.106027 -0.062887 -0.094153 0.204311 -0.046677 -0.018209 0.05181 -0.07444 -0.08041 0.011311 0.077398 0.140241 -0.098074 0.191248 -0.114611 -0.046829 -0.1587 0.056043 -0.170527 -0.076889 0.056165 -0.013308 0.017711 -0.023604 -0.062157 0.116648 0.074426 -0.018889 -0.023115 0.115531 0.054866 0.250127 0.105349 0.009304 -0.013401 0.085527 -0.040693 -0.002661 -0.120645 -0.06392 -0.030727 -0.036367 0.022699 0.005514 0.147926 0.017609 -0.070382 0.050101 -0.053022 -0.028723 -0.123117 0.068039 0.039135 -0.021897 -0.019775 0.196094 -0.162142 -0.063631 -0.044439 0.002963 -0.026444 -0.036988 -0.125552 0.092275 0.038706 0.317793 -0.025372 -0.079123 0.064668 0.044586 0.197137 0.226686 0.05167 0.132003 -0.07313 -0.067594 -0.067258 -0.032555 0.158818 -0.043252 -0.008564 0.05941 0.161933 0.122587
-0.047791 -0.01586 0.136349 -0.071472 -0.072936 0.010214 -0.060863 0.045021 -0.065892 -0.1478 -0.246662 0.127526 0.019102 0.146041 0.024666 0.130264 0.036587 0.007167 -0.209307 -0.072544 0.077317 -0.097885 0.108168 0.170491 0.013483 -0.142968 -0.098047 0.102477 -0.17893 -0.205746 0.050783 -0.156142 -0.030859 0.091296 -0.147521 0.103405 -0.053098 0.012242 -0.057573 -0.234738 0.015418 -0.057832 0.125754 0.097961 0.014783 0.083253 0.062026 -0.021159 -0.097438 -0.237753 0.053044 0.102221 0.089903 -0.118828 0.041491 -0.111942 0.238227 -0.057862 0.026478 -0.064596 -0.086478 -0.02562 -0.134318 -0.026385 -0.035605 -0.084655 0.050744 -0.087363 -0.078623 0.084113 0.016848 -0.044371 0.017729 0.010248 0.080138 -0.076695 0.147322 -0.146504 -0.013437 0.207208 0.063039 0.053555 0.119785 0.012998 -0.111597 -0.140938 0.058745 -0.02609 -0.085383 0.106324 -0.198355 -0.061396 0.034793 -0.042911 -0.115731 0.014642 0.138176 -0.100483 0.093462 0.043227
0.0 0.0 0.0 0.0 0.0 0.0 0.0 0.0 0.0 0.0 0.0 0.0 0.0 0.0 0.0 0.0 0.0 0.0 0.0 0.0 0.0 0.0 0.0 0.0 0.0 0.0 0.0 0.0 0.0 0.0 0.0 0.0 0.0 0.0 0.0 0.0 0.0 0.0 0.0 0.0 0.0 0.0 0.0 0.0 0.0 0.0 0.0 0.0 0.0 0.0 0.0 0.0 0.0 0.0 0.0 0.0 0.0 0.0 0.0 0.0 0.0 0.0 0.0 0.0 0.0 0.0 0.0 0.0 0.0 0.0 0.0 0.0 0.0 0.0 0.0 0.0 0.0 0.0 0.0 0.0 0.0 0.0 0.0 0.0 0.0 0.0 0.0 0.0 0.0 0.0 0.0 0.0 0.0 0.0 0.0 0.0 0.0 0.0 0.0 0.0
0.124874 0.252766 0.953118 -2.284547 -0.583902 0.671506 1.15735 3.015288 -1.669376 -2.322406 -2.027383 -3.698528 -2.863919 -0.897368 1.253457 1.23725 1.02888 -0.513228 0.558377 -0.04351 -0.486591 1.427065 -0.995399 -1.763873 -3.222498 -0.900674 1.739355 -1.791669 -1.986915 -1.810192 1.498688 2.232445 -2.751145 -2.597629 -0.764309 -0.525913 -2.73562 2.27286 -0.352751 1.830976 0.654218 1.658364 0.579878 2.184189 2.87302 -2.217029 2.886238 0.828543 -0.505772 1.99815 0.33888 -0.637544 1.447772 -1.281645 3.627676 -0.257199 0.377946 -1.579825 2.068528 1.656569 1.966607 -0.101299 4.173716 -0.775516 -0.92564 0.086429 0.422687 -0.27623 1.825961 -2.866177 0.04988 -2.340811 -2.238017 1.620043 2.570037 1.497665 -1.692111 1.463927 0.245321 4.333104 -0.483718 0.870989 0.814089 -0.488624 -0.435714 3.916376 -1.943877 -2.323094 2.059109 -1.640684 -0.825976 2.297355 -0.296815 0.765962 1.211726 -0.387145 1.556778 -1.559945 -1.209666 0.964242
0.381889 -0.098151 -0.439391 -0.875689 -0.978077 -0.781923 -0.740817 0.354125 -0.255037 0.062044 0.538526 -0.603281 -0.700993 0.295324 -0.23994 -1.069985 -0.008437 0.479221 0.078161 -0.258336 0.526745 0.419782 -0.089181 -0.655643 -0.886241 -0.297871 0.849383 -1.409785 0.49895 0.432729 -0.522665 -0.915366 0.167299 -0.918036 0.031379 -0.552829 -0.931735 0.506648 0.06396 0.496446 -0.275607 0.407097 0.214833 0.740956 -0.255212 -0.920114 0.60925 0.776123 -0.425097 0.495572 -1.180033 -0.136121 -0.0049 0.345287 0.520238 0.14605 -0.02314 -0.410432 1.013489 -0.432628 0.207588 0.922333 0.860553 -0.732263 -0.384846 0.563531 0.769306 0.34157 0.839881 -0.198435 1.108734 -0.102945 0.369698 0.214878 0.480507 -0.57736 -0.361378 0.448586 0.273252 0.618376 -0.198708 1.325433 0.313411 -0.080128 0.181242 -0.231353 0.482344 -0.149245 -0.363539 0.497186 0.374849 0.433754 0.271244 0.860826 -0.288797 -0.068551 0.152051 -0.447623 0.173145 -0.637933
0.04665 0.247561 0.012255 0.033266 -0.065667 -0.108407 -0.158543 0.16002 0.187641 -0.087233 0.029704 0.296835 0.003581 0.012636 0.15301 -0.332599 -0.109141 0.108515 -0.020373 0.101028 0.114723 0.270144 0.124069 -0.006682 -0.222658 -0.026766 -0.058179 -0.101821 0.106923 0.226679 -0.196872 0.120708 -0.156446 -0.233007 0.081278 0.350311 0.004893 0.335333 -0.042679 0.012116 -0.212549 -0.308944 0.30137 0.104542 0.103503 -0.134556 0.136626 0.353957 0.014488 0.120985 -0.129611 -0.089382 -0.209828 -0.071352 0.283978 -0.196246 -0.015745 0.217248 -0.022126 0.130864 -0.120094 0.017467 0.014888 -0.071802 0.152431 -0.154494 -0.07409 0.058932 -0.071534 0.073571 -0.065177 0.02078 0.122311 -0.008256 0.164184 -0.108661 0.164649 0.187084 -0.30122 0.042648 0.274303 -0.086773 0.109234 0.310423 -0.094112 0.286664 -0.022339 0.065556 -0.114291 0.087315 -0.334114 -0.060845 -0.201847 0.307856 0.016811 -0.153234 0.133369 0.211283 0.071399 -0.042917
0.039422 0.027332 0.171333 -0.014155 -0.258756 -0.090491 -0.142109 -0.088623 -0.110642 -0.012717 -7.3E-5 0.105402 0.00979 -0.03819 -0.106604 0.019938 -0.051289 0.108184 -0.101218 -0.003737 0.073321 0.047311 0.085705 -0.033424 -0.184217 -0.083491 -0.206011 -0.198762 -0.032355 0.023617 -0.080235 -0.171978 -0.080337 -0.035016 -0.040282 -0.115946 -0.200941 0.021603 0.014769 0.113675 -0.205072 0.034478 -0.044066 0.018937 -0.053305 -0.062502 -0.030698 0.139357 -4.61E-4 0.108084 -0.04735 0.087379 0.062886 -0.093236 0.099579 -0.062881 0.02599 0.002869 0.109732 -0.061957 0.133389 -0.205661 0.121562 -0.011733 -0.098614 0.088798 0.022089 0.062519 0.216951 -0.210023 0.005293 0.011902 0.045688 -0.021167 0.081792 -0.168095 0.028158 0.149321 0.008826 -0.043864 0.016935 0.126937 -0.067703 -0.19379 0.06464 -0.010371 0.082121 -0.056673 0.170682 0.082664 -0.138756 0.02747 0.007113 0.190103 -0.014798 -0.050375 0.045164 0.020668 0.029685 -0.166179
-0.139637 -0.005138 -0.154169 0.239213 -0.012234 0.072123 -0.160022 -0.223094 -0.079946 -0.282433 0.003584 -0.122728 -0.010744 0.074641 0.040849 -0.079096 -0.166189 0.122894 0.051484 -0.214875 -0.084511 -0.21228 0.191895 0.204833 -0.163433 -0.187077 -0.203514 -0.02173 0.307476 -0.036334 0.172904 -0.065405 -0.144756 0.275393 0.047843 0.143986 -0.122042 0.001245 -0.071012 -0.05644 -0.039176 0.094247 0.073126 -0.07319 -0.102518 0.042427 0.009828 0.14242 -0.128574 -0.022846 0.088983 -0.111562 -0.061037 -0.018653 -0.149613 0.045456 -0.192784 -0.069054 0.090465 0.006165 0.153793 0.002709 -0.077441 -0.248557 0.10241 0.051543 0.19316 0.098745 0.173305 -0.087788 -0.02724 -0.103372 0.117791 -0.105608 -0.005043 0.133173 0.117524 -0.018326 0.059029 -0.116307 0.03489 0.084292 -0.04739 -0.011015 -0.291461 -0.115541 -0.013121 0.041993 0.01074 -0.242246 -0.237212 0.120803 -0.018038 0.254309 -0.423227 -0.250843 0.055429 0.093143 0.099716 -0.122767
-0.236244 -0.001076 0.002423 0.040057 -0.232205 -0.117315 0.044139 -0.076072 -0.193371 -0.027175 0.142028 -0.057997 0.128593 -0.006486 0.082974 -0.198631 -0.044977 0.145271 0.095218 0.060691 -0.116042 0.107253 -0.080375 -0.198438 -0.047876 0.044757 -0.098956 0.003481 -0.004971 -0.064893 -0.00479 0.081618 -0.027421 0.120028 -0.110185 -0.052119 -0.034392 0.077136 0.22603 -0.147918 -0.089305 0.049505 0.029614 0.042957 -0.037857 -0.162968 -0.151876 -0.062664 -0.004629 0.026596 -0.016461 -0.052156 0.030496 0.106709 -0.176175 -0.219214 -0.006586 0.012827 -0.164306 -0.053089 -0.01087 -0.294483 -0.069931 -0.086331 -0.079982 0.026852 0.176207 0.094267 0.069478 0.03202 -0.044739 0.023171 0.058971 0.009627 -0.046434 -0.219629 -0.214895 0.122356 0.101868 0.168911 -0.1254 0.25946 0.11079 -0.128535 -0.047819 0.006112 -0.017982 -0.045127 0.104151 0.13567 -0.114894 -0.039339 -0.17256 -0.015824 0.127119 -0.118224 0.029943 -0.042216 -0.150181 -0.063563
0.106946 0.068576 0.10898 0.055936 0.03988 0.086844 -0.2276 -0.070191 -0.099795 -0.003756 -0.11469 0.116476 -0.024124 -0.060249 0.059872 0.01849 0.034638 -0.003811 -0.057201 0.046446 -0.022031 -0.021121 0.221875 0.077367 -0.009835 -0.046357 0.062074 0.017759 0.229252 -0.013343 0.0392 0.02514 -0.150718 0.030972 -0.047172 -0.008401 -0.062442 -0.180378 -0.054148 -0.018389 -0.081278 -0.113555 -0.122591 -0.016346 0.073008 0.021915 -0.049716 -0.217704 0.072149 0.067883 -0.002744 0.067375 0.120751 -0.088345 0.134238 0.119644 -0.040718 0.071089 0.029262 -0.249557 -0.117757 -0.265442 0.010431 -0.118741 0.086219 -0.112688 -0.013633 0.004317 0.152236 0.146551 0.089969 0.026922 -0.02029 0.025282 -0.041502 0.005694 0.231153 0.123848 -0.043723 -0.054017 -0.014719 0.002401 0.030428 0.01927 -0.002661 -0.063309 -0.163069 -0.083055 0.113732 0.263919 -0.100407 -0.14246 0.15314 0.038893 0.021715 0.107908 -0.042892 -2.46E-4 0.185383 -0.122669
0.090703 0.097319 0.18022 0.137256 0.05621 -0.089797 -0.080962 -0.181281 -0.15295 -0.173722 -0.066619 0.330875 0.010223 0.215637 0.059436 0.164561 -0.254687 0.09048 0.223024 0.171171 0.09764 -0.008934 -0.208386 -0.165827 -0.254794 0.19283 0.066708 -0.097431 -0.012493 -0.184396 0.057795 -0.314864 -0.0502 -0.135361 -0.115216 -0.009262 0.063837 0.060549 -0.192989 -0.100661 -0.109818 0.150189 -0.188268 -0.019198 -0.035708 0.269096 -0.222055 0.065789 0.241738 0.171457 -0.094019 0.034312 -0.149009 -0.414119 0.106788 -0.084852 -0.068486 -0.192736 0.062223 -0.135124 0.086776 -0.194656 -0.023446 0.264209 -0.023272 0.046079 -0.002578 0.040678 0.086243 0.284185 -0.030996 0.023567 0.209496 -0.167947 0.176498 0.006931 0.148884 0.254464 -0.143715 0.016726 0.164218 0.125222 -0.010917 -0.068077 0.089615 -0.19479 0.042788 -0.057285 0.179624 0.101321 -0.058451 0.124437 0.080645 0.224686 0.032145 -0.02093 -0.033153 0.009891 0.024681 -0.153173
-2.648351 -0.794316 -2.108887 0.20446 0.883061 0.242784 1.848653 1.149137 -4.975573 0.237654 -1.499665 2.924494 0.344217 -1.640431 0.763777 0.138944 -3.029439 -2.813434 -0.761102 -1.057557 -1.373735 -0.870599 1.234095 0.127805 -1.372618 1.35802 -1.501738 0.80945 0.172993 -0.484995 1.783363 -0.047587 0.483285 -1.526831 2.103549 2.116639 4.583491 -4.022388 -0.843817 0.361243 -0.546655 -2.301259 -2.000973 2.64631 -1.604053 -1.914206 -1.581895 -0.464185 1.757769 1.056301 0.263866 -0.904419 -0.422466 0.007824 -1.651553 0.7499 1.638666 -0.336108 -3.288466 -2.953238 -1.135414 1.165223 -1.047256 -0.821696 -0.135806 0.434207 -2.389307 -3.56953 -0.656773 0.578325 3.337902 0.782195 -1.250815 2.925509 -1.981492 0.121786 0.836257 1.710923 -2.640405 -0.628995 0.247469 0.863847 1.749171 -0.214156 -0.274807 2.192709 -0.892334 -1.614644 -1.225919 -0.042182 2.51632 3.464583 -3.591523 -2.506587 0.990426 1.8843 -2.460629 0.953462 0.359605 2.267383
0.0 0.0 0.0 0.0 0.0 0.0 0.0 0.0 0.0 0.0 0.0 0.0 0.0 0.0 0.0 0.0 0.0 0.0 0.0 0.0 0.0 0.0 0.0 0.0 0.0 0.0 0.0 0.0 0.0 0.0 0.0 0.0 0.0 0.0 0.0 0.0 0.0 0.0 0.0 0.0 0.0 0.0 0.0 0.0 0.0 0.0 0.0 0.0 0.0 0.0 0.0 0.0 0.0 0.0 0.0 0.0 0.0 0.0 0.0 0.0 0.0 0.0 0.0 0.0 0.0 0.0 0.0 0.0 0.0 0.0 0.0 0.0 0.0 0.0 0.0 0.0 0.0 0.0 0.0 0.0 0.0 0.0 0.0 0.0 0.0 0.0 0.0 0.0 0.0 0.0 0.0 0.0 0.0 0.0 0.0 0.0 0.0 0.0 0.0 0.0
-0.062973 -0.138902 0.235685 0.194149 -0.068121 -0.113653 -0.13796 0.068323 0.218048 0.028006 -0.289057 0.118432 0.006078 0.136701 0.113046 0.164604 0.224797 -0.046458 0.003448 -0.05919 -0.010367 0.006933 0.275736 -0.00477 -7.19E-4 -0.067183 0.056959 0.090851 0.094525 0.045371 0.013768 -0.004005 -0.075937 0.062244 -0.169559 -0.201748 0.044578 -0.104347 0.015989 -0.087289 -0.067369 -0.249702 0.012874 0.031054 0.06515 0.127224 0.171681 -0.115564 0.12406 -0.077637 -0.173558 -0.158596 0.01566 0.019012 0.221188 -0.120712 -0.125181 -0.031153 -0.100039 -0.125418 -0.207395 0.004193 -0.015599 -0.074304 0.23947 0.1771 -0.046194 -0.018066 0.091575 -0.200072 0.002627 0.040955 -0.140358 0.026145 0.002527 0.094834 -0.066459 -0.015808 -0.05919 -0.218248 0.107559 0.363388 0.066652 -0.147082 0.035921 0.09702 0.093049 -0.254893 0.049421 0.006303 0.026698 0.221948 -0.008268 0.023985 0.176541 -0.111275 -0.144109 -0.015645 0.042591 -0.080037
0.0 0.0 0.0 0.0 0.0 0.0 0.0 0.0 0.0 0.0 0.0 0.0 0.0 0.0 0.0 0.0 0.0 0.0 0.0 0.0 0.0 0.0 0.0 0.0 0.0 0.0 0.0 0.0 0.0 0.0 0.0 0.0 0.0 0.0 0.0 0.0 0.0 0.0 0.0 0.0 0.0 0.0 0.0 0.0 0.0 0.0 0.0 0.0 0.0 0.0 0.0 0.0 0.0 0.0 0.0 0.0 0.0 0.0 0.0 0.0 0.0 0.0 0.0 0.0 0.0 0.0 0.0 0.0 0.0 0.0 0.0 0.0 0.0 0.0 0.0 0.0 0.0 0.0 0.0 0.0 0.0 0.0 0.0 0.0 0.0 0.0 0.0 0.0 0.0 0.0 0.0 0.0 0.0 0.0 0.0 0.0 0.0 0.0 0.0 0.0
-0.061232 -0.175539 0.068167 0.078252 0.06015 0.041012 -0.08028 -0.135502 0.039867 0.279087 0.114418 0.085253 -0.107152 -0.119972 -0.085854 -0.004415 -0.213228 0.264457 -0.050855 0.037778 -0.065963 0.018975 0.144769 0.110755 0.064418 -0.113654 0.008461 0.011742 -0.015715 0.087128 0.04396 -0.099337 0.052369 0.110204 0.086685 0.099776 -0.009413 -0.094261 0.051687 0.080911 0.009893 0.066628 0.058133 -0.308457 -0.09559 -0.078986 0.117073 0.007948 -0.126513 0.035061 0.109192 -0.021008 -0.066383 0.053904 -0.02513 0.227016 -0.216231 -0.117145 0.055456 -0.075415 0.035626 0.005437 -0.166101 -0.101927 -0.020228 0.062948 0.08615 0.038341 -0.022722 0.016005 0.005802 -0.012065 0.041851 0.009544 0.131418 0.049153 -0.041383 -0.055892 0.04277 0.01581 -0.153883 0.065008 -0.130744 -0.423106 0.209176 0.129291 0.123923 0.004876 0.116119 0.058703 0.182482 -0.010209 -0.031067 0.108716 -0.0321 -0.172509 0.079675 0.208561 -0.05406 -0.126631
0.058113 -2.25E-4 -0.117567 0.010157 -0.015687 0.051371 -0.059387 0.065436 -0.028277 -0.022974 0.122342 -0.027575 0.100933 -0.027437 -0.043358 -0.04003 -0.036861 0.091929 0.073089 -0.128308 -0.105732 -0.113578 -0.012704 0.085401 -0.295578 -0.076528 0.069711 -0.086891 -0.054981 0.139283 -0.018646 0.116929 -0.21393 0.063043 -0.165118 -0.118415 0.048087 0.111945 0.126242 0.010709 -0.125562 0.136312 0.060781 0.207041 -0.152376 -0.165605 0.002354 -0.093191 -0.125114 0.012905 0.154982 0.131122 -0.261767 0.176848 -0.030412 -0.127391 0.011386 -0.028318 0.076747 0.055527 0.024377 -0.004201 -0.053774 0.075478 -0.068302 0.188788 0.001512 0.07183 -0.017656 -0.16209 0.030296 0.160511 0.065709 -0.089946 -0.074933 0.022438 -0.063642 0.055952 0.045506 0.022569 -0.002272 0.076966 0.126455 -0.014502 -0.032401 0.157766 -0.049505 0.181375 0.086037 -0.016272 -0.144524 -0.091995 -0.034969 -0.033201 0.103627 -0.039234 -0.035661 -0.172962 -0.124295 0.031978
0.135717 -0.065497 0.02281 0.048052 -0.011836 -0.09375 0.0016 -0.035631 -0.026011 -0.016446 0.147576 0.093555 -0.033806 0.001119 0.136647 0.086354 -0.119676 0.293363 0.140583 -0.140273 0.092999 0.105554 0.007309 -0.047042 -0.138044 -0.144529 -0.090671 0.023305 0.042831 -0.089424 -0.009516 -0.050607 -0.11973 0.043476 -0.110033 -0.070775 0.210602 -0.044688 0.047415 0.07877 -0.058849 0.123783 -0.083304 0.146343 -0.016713 -0.014302 -0.083131 -0.029171 -0.052871 0.027786 -0.056479 -0.019677 -0.067362 0.060823 0.051262 -0.094924 0.099503 0.030649 0.106531 -0.086298 0.023543 -0.100214 0.036796 -0.033757 -0.018593 0.054249 -0.041703 -0.048402 0.151764 -0.052203 -0.028287 0.059596 0.03622 0.059919 0.042116 -0.083798 0.077838 -0.039275 -0.10326 -0.058138 -0.047792 -0.041267 0.071076 -0.034964 0.077873 0.115244 -0.016893 -0.059243 0.145701 -0.018047 -0.084552 -0.05323 0.136246 0.034465 0.051731 -0.033088 0.142559 -0.100828 -0.127029 -0.153227
0.041213 0.24341 -0.118018 0.015795 -0.055301 -0.320541 -0.387345 -0.033666 -0.101911 0.03091 0.031676 0.084458 -0.052621 -0.014098 0.009984 0.144349 0.108026 0.149883 0.030844 -0.255721 -0.066282 0.021357 0.235835 0.200302 -0.230624 -0.045328 0.14505 0.170985 0.144134 -0.227915 0.110593 0.178954 -0.180685 -0.108713 -0.214146 0.085644 -0.028458 0.12576 -0.004227 -0.016973 -0.068223 -0.254063 0.020034 0.211945 0.178148 0.002154 -0.175991 -0.099075 0.053941 -0.023837 -0.064756 -0.468751 0.068405 0.113353 -0.023715 0.186584 0.025881 -0.057785 -0.264409 -0.063727 -0.150862 -0.089569 -0.003124 -0.078544 0.111197 -0.176664 0.084256 -0.167129 -0.058499 0.061159 -0.083413 0.092413 -0.009924 0.064667 0.228416 0.128532 -0.0823 -0.064247 0.124494 0.108377 -0.003688 -0.071769 -0.151899 -0.191196 -0.414344 0.07317 0.019237 0.014416 0.084247 0.193081 -0.418844 0.127144 -0.035346 0.088643 -0.030165 -0.053497 -0.100981 -0.098221 -0.012565 0.026764
0.741146 8.583326 -1.393315 5.738402 0.872022 -2.459812 3.101496 -3.569 -1.361115 -2.282686 -1.976625 -0.956684 3.6661 3.522681 1.662995 2.335437 0.875984 1.49722 0.275535 0.867949 -0.136581 4.12743 -1.51294 0.975486 1.67988 -0.419251 -2.337015 2.343401 -1.306507 0.853429 2.215512 -4.032269 3.833903 -0.491189 -0.990703 -0.199692 -0.6515 2.790129 1.097169 -2.907926 -3.237546 0.691798 -3.254575 1.096435 -2.129913 -4.648927 -4.317081 -2.109983 4.746709 3.981817 -3.249265 -1.451338 4.183187 4.13484 0.974366 2.699773 2.734638 -1.194691 -1.749435 -2.817215 2.155997 -2.683492 -2.191882 0.490221 3.142872 1.776302 3.710712 -1.1973 0.132039 0.427646 -0.145471 -0.683268 4.512982 -1.137255 1.246802 -3.178876 3.727865 1.123292 -0.997979 0.956427 4.12254 2.226274 -2.876882 -2.504406 -5.099853 -2.223911 2.527457 0.203178 4.351973 -0.278247 -0.234169 -0.215946 -0.447575 -0.26779 -6.172118 0.520953 -1.239396 0.64833 -0.171807 1.59572
-0.138592 -0.271833 0.118814 -0.02021 -0.266493 0.161467 -0.265617 0.099836 -0.190334 -0.12667 -0.029054 0.221119 -0.033505 0.007077 0.069918 0.063172 -0.14928 0.075313 -0.078727 0.11767 0.040559 -0.062533 0.107711 -0.013662 -0.194602 -0.027123 0.02078 0.017081 0.202102 -0.175173 -0.177316 0.045238 -0.107053 -0.077784 -0.048914 -0.065415 -0.056133 -0.004421 -0.231409 0.146404 0.088599 -0.169967 0.130374 0.144953 0.227703 0.013735 0.014891 0.196793 0.203234 -0.115706 0.040348 -0.277525 -0.258434 -0.039265 0.049736 -0.159048 -0.261463 -0.061389 -0.116186 -0.065953 -0.020217 -0.015362 -0.005119 -0.077227 -0.193008 0.087169 0.104908 0.108972 -0.024335 0.003069 -0.0114 -0.07505 0.146028 0.092169 0.009984 0.009441 -0.089921 -0.076484 0.149382 -0.129716 -0.030101 0.241964 0.221506 0.163706 0.116518 0.157613 -0.029026 0.013605 -0.156119 0.108773 0.016597 -0.048682 -0.181749 0.07382 0.002511 -0.142316 -0.145874 -0.013444 -0.094413 -0.047403
