-0.023755 0.051972 -0.007188 0.105479 -0.141833 -0.082843 0.117073 0.084494 -0.219225 0.004785 -0.203062 0.096865 0.065565 -0.023369 0.031766 0.061172 0.012085 -0.138015 0.072798 -0.036723 -0.126576 0.183541 0.047308 -0.105031 -0.055933 -0.12209 -0.14559 -0.132331 0.151328 -0.125121 -0.275479 -0.013209 0.069005 -0.148483 -0.028455 -0.092634 -0.122573 -0.00528 -0.180261 -0.188332 0.082209 0.133885 0.054436 0.106687 -0.038541 0.0398 -0.144886 0.049544 0.082363 -0.081814 -0.048598 0.158324 0.092045 0.10566 -0.149735 -0.139272 -0.062151 0.017483 -0.040706 0.102474 -0.009691 0.123859 0.026649 -0.019861 -0.066816 -0.029965 0.07739 0.212853 0.010552 0.06297 0.189791 -0.012261 -0.139387 0.105506 0.22908 0.006611 -0.002996 -0.018959 -0.051487 0.008927 -0.052206 0.238563 0.011286 0.022975 0.025945 -0.019056 0.018264 0.114668 0.117257 0.083674 -0.139148 0.010212 -0.128137 0.112749 -0.109722 -0.222324 -0.064567 -0.165331 -0.040981 -0.072865
-0.15963 -0.218431 0.147546 0.108163 0.102086 0.046971 0.025164 -0.157548 -0.143776 -0.03236 -0.01201 0.015269 0.021579 -0.043612 -0.147741 0.17809 0.001873 0.164581 -0.085792 0.036463 -0.229336 0.0467 -0.212026 0.117717 -0.043353 -0.128366 -0.114664 -0.117671 0.117191 0.087906 -0.040028 -0.14659 -0.123584 0.25207 -0.109241 -0.038525 0.067459 -0.338763 -0.031088 0.010928 -0.102367 0.152835 -0.144104 -0.016656 0.049756 0.037519 0.159067 -0.272768 -0.166548 0.062284 -0.059956 0.046294 -0.071237 -0.118381 -0.046608 0.049732 -0.228347 -0.074361 -0.267276 -0.058856 -0.163605 0.052946 -0.076007 -0.168689 -0.191207 -0.043375 -0.238461 0.0818 0.133989 -0.12175 0.051293 0.153943 0.113501 -0.026741 -0.071602 0.043481 -0.074258 7.97E-4 -0.123691 -0.152833 -0.144456 0.249077 -0.088479 0.046188 0.153711 0.267089 0.118421 -0.012236 0.173396 0.362991 0.049852 -0.039294 -0.233046 -0.201781 0.213142 -0.005196 -0.123945 -0.027009 -0.220283 -0.039847
0.094813 0.117309 -0.001274 0.152066 -0.064586 -0.141143 -0.023825 0.02196 0.020262 -0.061845 -0.268483 0.077498 -0.008761 -0.09925 -0.096639 0.135279 -0.048213 0.033862 0.085887 0.109258 0.142124 -0.249674 -0.043441 -0.075167 -0.023964 0.143121 -0.041322 0.0441 0.167735 -0.156285 0.106829 0.180057 0.130779 -0.042515 -0.165895 0.058004 -0.066892 -0.087366 0.020009 -0.081486 -0.031855 0.097811 -0.017519 0.076865 0.111324 -0.089961 -0.150683 0.061799 0.078692 0.099306 0.098633 0.124768 -0.024231 0.032065 -0.052224 -0.222714 0.068721 0.137627 -0.222517 -0.092256 -0.033699 -0.205046 0.115193 -0.30744 0.051257 0.116453 0.045021 -0.105204 -0.010987 0.048304 0.049788 -0.047717 -0.221061 -0.021706 -0.009274 0.085995 0.025494 0.147942 -0.294596 -0.020253 -0.034498 0.070121 0.049284 -0.009881 0.02326 -0.072956 0.134654 -0.079613 -0.073377 0.042196 -0.017164 -0.072544 -0.014649 -0.066976 -0.026034 -0.058362 0.194931 0.16323 0.029312 -0.025253
-0.053061 0.037018 -0.169664 -0.054197 0.062199 -0.090493 0.168104 -0.215463 0.006664 0.060901 0.122024 -0.025368 0.148503 0.126963 0.136634 0.06143 -0.11128 0.158032 0.010059 -0.017682 0.003446 0.085946 0.100846 -0.01015 0.115594 -0.018042 -0.153679 -0.002623 0.138565 -0.093132 0.080173 -0.119201 -0.10393 0.230571 -0.146249 -0.081459 -0.081941 0.105891 0.040961 -0.089913 -0.259372 0.087867 0.05566 -0.085926 0.050779 -0.251592 -0.012656 -0.067027 0.028355 0.009977 -0.016877 -0.224582 0.006423 0.201346 -0.002869 0.056184 -0.012669 0.117249 -0.092271 -0.104519 0.02248 -0.052512 0.043657 -0.063265 0.046884 0.072546 0.153486 -0.057216 0.076468 -0.025795 0.076852 -0.025648 -0.034183 0.0973 0.071031 -0.038481 -0.15161 -0.002136 -0.014189 0.017172 -0.07907 0.090713 0.112909 -0.452928 -0.177323 0.138897 -0.073653 -0.050658 0.262098 -0.107029 -0.226713 0.024083 -0.098788 -0.099925 -0.004867 -0.228869 -0.074424 -0.028851 0.06492 0.023671
-0.192047 0.046634 -0.025507 -0.017735 -0.077364 -0.11422 -0.0034 -0.034042 -0.256144 -0.003132 -0.151935 0.203796 0.065871 0.024345 0.239676 -0.07121 -0.090976 0.062615 -0.098213 0.034355 -0.071763 0.003012 0.144503 0.011921 -0.201755 -0.16991 -0.025441 0.027094 0.220065 -0.112787 0.224746 -0.052433 0.025149 0.120856 -0.152425 0.071928 -0.033648 -0.072602 -0.06787 -0.181808 0.110906 0.138022 -0.107145 -0.09036 0.117089 0.049377 -0.102668 0.066023 -0.072763 -0.053975 -0.015716 -0.143952 -0.092685 0.145094 -0.03028 0.07168 -0.130559 -0.171083 -0.108527 0.097885 0.118666 -0.162538 -0.079745 -0.130957 0.235092 -0.235734 0.173992 0.091378 0.041473 0.159102 0.13515 0.178551 0.079093 -0.023142 -0.106257 0.171671 -0.116628 0.064079 0.137293 0.008595 0.123745 0.111024 0.007556 -0.110378 0.070343 0.143211 -0.183159 0.037262 -0.028518 -0.204046 0.162363 0.112246 -0.054051 0.014568 -0.093728 0.053761 -0.009016 -2.4E-5 -0.083554 -0.196086
0.092506 -0.190181 -0.169651 -0.176859 -0.157274 0.117434 -0.246053 -0.095055 -0.226845 0.056095 -0.066084 0.025004 -0.043226 -0.06793 -0.068137 0.165682 0.061116 0.071951 0.064888 0.034774 -0.026295 0.078465 0.039067 -0.01204 -0.068662 -0.153453 0.017397 -0.052319 0.055524 -0.091639 0.124383 0.018886 -0.198151 0.077424 -0.103548 0.018512 -0.201059 0.101664 0.168027 0.022853 0.047591 -0.143808 -0.088134 0.074183 -0.119839 -0.069799 -0.289185 -0.063018 -0.136762 0.08873 0.186365 0.03422 -0.076668 -0.108907 0.163803 0.019469 -0.087732 -0.04543 1.34E-4 -0.053077 -0.090084 -0.032118 0.017588 -0.110636 0.093312 0.082828 -0.008866 -0.122675 0.005555 -0.156537 0.059343 0.058546 0.136846 -0.008335 0.094648 -0.058541 0.079997 0.127917 -0.051985 -0.109897 0.141124 -0.007186 0.001759 0.100589 -0.004111 0.049543 -0.027096 0.154899 0.081346 0.093517 -0.033063 -0.068032 0.135419 7.35E-4 -0.010201 0.097192 -0.043545 -0.058325 0.031733 0.071254
0.10172 -0.184243 -0.056998 0.152055 -0.010233 -0.011357 0.067736 0.194677 0.086158 0.025891 -0.016066 0.102121 0.115142 -0.204895 -0.138761 -0.052574 -0.159465 -0.139484 -0.036052 -0.129787 -0.017856 -0.125077 0.054962 -0.143844 -0.312501 0.034763 0.017423 -0.024623 0.03789 0.112589 0.117075 0.102615 0.044372 -0.034167 -0.234444 -0.202862 0.009119 -0.12855 -0.020782 0.038571 -0.148205 -0.180848 0.078597 -0.165412 0.098032 -0.034597 0.070931 -0.203869 -0.119902 0.044815 -0.013493 -0.028134 -0.049975 0.39599 -0.106809 -0.154957 -0.042384 0.193631 0.070633 -0.092427 -0.022738 0.022111 -0.031601 -0.065058 -0.157408 -0.063514 -0.02985 -0.096427 -0.051467 -0.05027 0.231402 -0.058289 0.093162 -0.149154 0.006199 -0.017454 -0.103936 0.184137 -0.241753 0.01199 -0.031332 0.184973 0.218284 0.06676 0.129417 -0.041509 0.122549 -0.003687 -0.152562 -0.121416 -0.173885 -0.201471 -0.188556 -0.08444 -0.165187 -0.042656 0.010827 -0.125977 -0.020969 0.036883
0.018809 -0.056255 -0.003233 -0.103144 0.030368 -0.015657 0.103871 -0.015613 0.061763 -0.014888 0.013792 0.094581 -0.08777 -0.107114 0.148158 -0.057553 -0.005293 -0.024582 0.059479 0.001105 -0.153692 0.061426 0.071559 -0.030056 -0.028429 0.095042 -0.011028 -0.018911 0.124573 -0.023809 0.115208 -0.057434 0.019051 0.106982 0.003925 -0.011536 0.030194 0.068838 0.052337 -0.180459 -0.114091 0.075967 0.051985 -0.155532 0.080624 -0.045647 -0.071426 0.035519 -0.207887 0.101014 0.149129 -0.014963 0.057978 0.011141 0.233072 -0.082537 -0.038003 -0.09325 -0.016466 -0.017333 -0.005163 -0.004512 0.007591 -0.046044 -0.114609 -0.061183 -0.065239 -0.045402 -0.066933 -0.174851 0.033997 0.01436 0.035181 0.033644 -0.084292 0.021747 0.063019 -0.009097 0.060552 0.042109 -0.068724 0.133849 -0.053773 -0.072215 -0.103991 -0.153113 -0.016112 0.09342 0.074841 0.007762 -0.184422 -0.06462 0.188844 -0.109518 -0.087767 -0.037503 -0.12706 -0.01669 -0.06459 -0.074934
0.0 0.0 0.0 0.0 0.0 0.0 0.0 0.0 0.0 0.0 0.0 0.0 0.0 0.0 0.0 0.0 0.0 0.0 0.0 0.0 0.0 0.0 0.0 0.0 0.0 0.0 0.0 0.0 0.0 0.0 0.0 0.0 0.0 0.0 0.0 0.0 0.0 0.0 0.0 0.0 0.0 0.0 0.0 0.0 0.0 0.0 0.0 0.0 0.0 0.0 0.0 0.0 0.0 0.0 0.0 0.0 0.0 0.0 0.0 0.0 0.0 0.0 0.0 0.0 0.0 0.0 0.0 0.0 0.0 0.0 0.0 0.0 0.0 0.0 0.0 0.0 0.0 0.0 0.0 0.0 0.0 0.0 0.0 0.0 0.0 0.0 0.0 0.0 0.0 0.0 0.0 0.0 0.0 0.0 0.0 0.0 0.0 0.0 0.0 0.0
0.171593 -0.085188 -0.005011 0.309169 -0.152905 0.00381 -0.249387 -0.038448 -0.157923 0.037731 0.104605 0.346345 0.244978 0.024678 0.032649 0.310071 -0.065622 0.036396 0.052969 0.124156 -0.043828 -0.06566 0.269065 -0.177152 0.005016 0.077923 -0.302495 0.040821 0.286835 0.001567 0.013001 -0.230026 -0.074903 -0.033747 -0.205199 -0.039013 0.158052 -0.224509 -0.025489 -0.047903 -0.192269 0.165546 0.069635 -0.04257 0.06969 0.085811 0.04252 -0.017744 -0.24138 0.017786 0.049939 -0.111088 -0.074083 -0.048444 0.073146 -0.056241 -0.005692 0.009777 -0.018746 -0.086046 -0.136093 -0.368411 0.058549 -0.057995 0.004658 -0.164634 0.183809 -0.114823 0.198303 -0.19652 -0.183127 0.044565 -0.09434 -0.054044 0.105077 -0.030626 0.03893 -2.26E-4 -0.247097 0.052807 0.04372 0.275303 -0.041172 0.004343 0.04562 -0.052336 0.091936 -0.411318 0.007728 0.266991 0.171496 0.069051 0.089662 0.12008 0.01404 0.091993 0.086905 0.02851 -0.047985 -0.099695
-0.02951 -0.10093 -0.123216 -0.302362 -0.196236 0.042165 0.023508 -0.062289 -0.026636 0.183156 -0.044319 0.004399 0.064647 0.022353 -0.003475 0.050996 0.2705 0.205611 0.095731 -0.37856 -0.179047 0.182624 0.442037 -0.243417 -0.054766 -0.045367 -0.140801 0.204169 0.001776 -0.076517 0.062785 -0.407356 -0.039894 0.150269 -0.20229 -0.012589 0.108882 0.149502 -0.252643 0.266153 -0.143237 -0.020207 -0.108961 -0.148081 0.129883 0.029499 -0.014086 0.030034 -0.085399 0.052508 -0.122438 -0.025368 0.22147 0.092128 0.04232 0.079684 0.044989 0.070017 -0.020584 0.021227 -0.063883 2.3E-5 -0.260353 -0.227989 0.107689 -0.037163 -0.084378 0.08145 -0.077468 -0.122167 0.02928 0.214847 -0.033681 -0.028073 -0.012968 -0.073196 0.005089 0.004007 -0.048568 0.022159 -0.262071 -0.146007 0.031569 0.022726 0.113089 -0.349088 -0.021024 0.071374 0.094832 0.31796 -0.01226 -0.048493 0.019739 0.156768 -0.022196 -0.149034 0.152394 -0.136985 -0.191006 -0.039245
-0.186541 -0.103562 0.084023 0.068019 -0.042658 0.054326 -0.089113 -0.0586 -0.025315 -0.00483 0.037133 -0.143385 0.173072 0.036562 0.055564 0.101954 0.116651 0.250489 -4.29E-4 0.128986 -0.083048 0.134853 0.021164 -0.044882 0.023076 -0.022995 0.005891 0.150916 0.099036 0.101321 -0.210468 -0.077551 -0.2085 0.03748 -0.099077 -0.230315 0.105746 0.0173 0.018374 0.002226 0.042904 0.004448 -0.065016 0.114949 -0.029602 -0.120527 0.170661 0.145994 -0.119024 0.034657 0.031884 0.088794 -0.236671 -0.086782 0.134083 -0.088449 0.009924 0.128028 0.028588 0.042431 -0.029266 0.238106 -0.114075 0.005546 -0.205787 -0.028912 -0.106685 -0.09506 0.073417 -0.110768 -0.143758 0.00801 0.015002 -0.05882 -0.073469 0.00593 0.022303 -0.037623 0.017789 -0.007934 0.081754 0.15582 0.049966 -0.037966 0.135168 0.012886 0.042194 -9.5E-5 0.229344 -0.123858 -0.051609 0.032549 -0.058954 0.110117 0.067044 -0.152377 0.082909 -0.154981 0.060898 0.14248
-0.030975 -0.119828 -0.068391 0.036298 -0.149411 -0.197305 -0.115643 0.028745 -0.033085 0.132124 0.042883 -0.122216 0.238152 -0.021868 -0.197707 0.358728 0.178266 -0.023845 0.027921 0.025295 -0.183817 0.049074 0.259057 -0.131344 -0.026599 0.067541 -0.165656 0.045653 0.199034 0.067111 -0.244006 -0.11794 -0.020271 0.034598 -0.231226 -0.22714 -0.133673 -0.018567 0.110391 0.003405 0.002453 0.0463 -0.026556 0.074211 -0.048956 -0.152661 -0.099589 0.006096 -0.090507 0.305554 -0.014675 -0.165498 0.112265 -0.130296 -0.045954 -0.025105 0.037648 -0.247546 0.074419 -0.079131 0.179603 -0.239562 -0.091572 0.005192 -0.026277 -0.117931 -0.060854 -0.077251 0.117877 -0.120081 0.019705 0.027725 -0.216304 -0.025268 -0.015495 0.153288 -0.112605 0.02708 0.056958 0.083773 -0.014507 0.275444 -0.103032 -0.131826 0.081283 -0.007224 0.091304 -0.03891 0.251566 -0.036378 -0.047287 0.101568 -0.062319 -0.004334 0.06149 -0.027993 0.006234 0.060417 -0.06474 -0.008943
0.352905 0.550922 -1.128945 -0.511125 0.774489 1.405335 -0.371647 0.106012 -0.779785 -0.640302 -0.68578 1.570717 -0.712288 -0.706705 -0.789609 -0.045278 -1.599722 -2.840112 -0.089543 -1.158838 -1.862605 -0.62748 -0.063542 -0.468696 0.750564 0.033551 -0.772222 -0.188991 -0.163115 0.455978 0.038455 -0.779588 0.172303 -1.114448 -0.548246 -0.008155 1.66721 -0.744821 -0.15746 -2.668482 -0.304702 -0.905716 0.479063 0.151803 -0.94063 -0.044338 -0.906122 -0.456182 0.281891 0.268287 0.47007 0.628019 0.328428 1.471286 -2.345457 0.072073 -0.345477 -0.998199 -1.496897 -0.053061 0.351206 -0.934426 0.295591 0.07336 0.24092 0.486976 0.390085 -0.621556 0.375246 -0.02625 1.957847 1.014101 0.004675 0.08874 -0.900479 -0.462149 0.922254 1.355385 -1.048724 0.105897 1.254466 0.410718 0.321258 1.066395 -0.171761 -0.128774 0.315556 0.697301 -0.180925 0.555334 1.005586 -0.891677 -1.232923 -1.994189 -0.567812 0.204184 -0.947385 -0.051526 -0.987029 0.725141
0.782148 0.522092 0.388398 0.910101 -2.69545 -3.708773 -0.142187 1.316417 -0.473543 -0.430363 1.040311 -0.791252 -0.293084 -0.489302 -1.867248 -1.583134 -0.404347 0.060038 -2.51167 1.103277 2.042293 -0.278641 0.443791 -0.596846 0.08577 1.383039 -0.235977 -2.270094 0.694625 -0.570515 0.467186 -0.868606 -0.266274 0.214637 0.978822 -2.883188 -1.135823 2.511618 1.168302 1.092034 -2.181224 1.56829 -0.524395 -0.427157 1.268707 -0.856272 0.821841 2.201392 1.423815 -0.822434 -0.6781 -1.372734 0.839454 0.226434 -0.156925 0.961836 -0.295409 -1.692343 1.190234 1.303758 2.079341 -0.975949 1.041772 -1.894644 -0.914104 -1.777106 1.358504 1.149409 0.413955 -2.983788 0.308836 -1.583614 -0.622472 -0.184291 0.626314 -1.008195 1.606084 -0.26638 1.401086 -0.892237 -0.037542 1.765005 0.635169 -0.586176 -0.156388 -0.608291 1.565436 -3.38498 0.204289 -0.840589 1.212076 1.235364 -1.327618 2.511278 0.008752 -1.180587 1.805855 -0.250503 1.468355 -1.444725
-0.023299 -0.059558 0.020469 -0.086495 -0.014473 -0.138302 -0.099354 0.026067 -0.009335 0.161124 0.026556 -0.05745 -0.194786 -0.073646 -0.030664 -0.012444 0.1506 0.147447 0.095032 0.040854 0.121791 -0.00323 -0.063939 -0.017265 -0.114453 -0.101288 0.219831 -0.007122 0.03117 0.092351 -0.115109 0.024215 -0.220573 0.102365 0.081954 -0.012527 -0.1198 0.162827 0.140341 -0.041465 -0.014892 -0.01857 0.10617 0.103566 0.115402 -0.164955 0.052006 -0.178919 0.020774 0.027015 0.033882 0.0351 0.125165 -0.010412 0.002167 0.068858 -0.043557 0.066641 -0.019157 0.01184 0.033287 -0.040263 -0.007286 -0.095544 -0.120651 0.028981 -0.006284 0.070683 -0.036195 -0.005551 0.153976 0.081721 0.018687 -0.076935 0.040381 0.069793 -0.022882 0.025131 0.023094 0.09055 -0.010956 0.091614 0.001344 -0.025279 0.028124 -0.09985 0.072338 -0.062287 0.053289 -0.172007 -0.073753 0.123463 -0.08967 -0.022489 8.12E-4 -0.131099 0.06435 -0.113402 0.032862 -0.071147
1.155368 3.302179 -0.818617 0.201583 -0.372035 -0.220049 -2.421694 1.24088 1.022918 0.281963 -0.56672 0.218504 -2.654141 0.687099 1.426786 -2.744465 -2.044989 -0.49789 -1.769702 -2.328375 -1.105508 0.104665 -0.061522 -2.669585 1.369504 1.778184 -0.869744 -1.441309 0.051265 1.116249 1.903031 -0.163683 1.731475 -0.652558 -1.459245 -0.212579 0.382415 1.861636 -0.394668 -0.423196 -0.983827 -1.176007 1.844253 0.853456 0.976233 -0.076248 -1.490589 -0.553926 0.506191 0.326236 0.251095 1.038919 -0.803142 0.658979 -3.236482 -1.07965 1.27678 -0.350029 -1.778651 0.292774 0.002745 0.267431 1.072933 -0.321661 -1.19536 -1.465055 -2.523761 -3.574044 -0.123843 -0.515256 3.2036 -0.08683 1.099575 -0.639959 -1.310584 0.629968 -0.142079 0.66081 -1.289981 -0.152693 -0.105374 0.388507 -1.068849 2.207516 -1.516502 0.618648 0.057959 1.61471 0.888036 -0.337188 -0.73306 -0.809614 -1.409634 -0.094797 -0.938314 1.210802 1.47048 2.210952 -1.933366 0.819087
0.139155 -0.006959 -0.098373 0.237146 0.061082 -0.004976 -0.188049 0.155994 0.224115 -0.104159 0.207906 0.018883 -0.031667 -0.05553 -0.004094 0.242517 0.008059 0.202435 0.019894 -0.024434 -0.155577 -0.020203 0.134632 0.095315 -0.094298 -0.024208 -0.278715 0.023025 0.138888 0.152221 0.185256 -0.158067 -0.03301 -0.174787 0.035492 -0.270621 0.016283 -0.051667 0.072976 0.108714 0.003638 0.061163 0.056824 -0.09549 0.010137 0.142082 -0.025005 0.002989 -0.221001 0.15004 -0.132701 0.091827 -0.207305 0.044787 -0.063406 0.089853 -0.088587 0.127656 -0.034879 -0.025524 0.008866 -0.271755 -0.037642 0.022522 0.002913 0.155529 0.098031 -0.096358 0.013213 -0.083956 0.077928 -0.037786 -0.051574 0.045744 0.053957 -0.129998 -0.063296 -0.0873 -0.024022 -0.034172 -0.025208 0.174558 0.15367 0.016847 -0.021114 -0.113335 -0.064247 -0.139863 -0.107273 0.065314 0.047668 0.099183 0.064902 0.192991 -0.07193 0.066719 0.163521 -0.21608 0.087134 -0.037378
-0.022472 -0.0286 0.014651 0.037713 0.053146 0.080121 -0.093468 -0.250423 0.060869 -0.018404 0.192859 0.071127 -0.034619 0.120386 0.06543 -0.038705 -0.125265 -0.166616 0.026529 0.069964 -0.010113 0.047386 -0.105185 0.198162 0.105395 0.097151 0.118624 -0.100568 0.194718 0.16027 0.025583 -0.178672 -0.005309 -0.095614 0.112059 0.055169 0.103159 -0.104924 0.078805 0.116019 0.030468 -0.175176 -0.13289 0.10757 -0.15683 -0.049192 0.003908 0.191115 -0.135681 -0.02097 -0.011078 -0.097853 -0.009189 0.014958 0.104894 -0.038316 -0.070534 0.121314 0.178612 -0.052544 0.100195 0.127438 -0.089321 -0.009738 0.021255 0.030159 0.064451 0.063533 -0.16463 0.259147 0.058314 -0.092746 0.030844 -0.04324 0.101487 0.007273 -0.244303 0.100858 0.069425 -0.022574 -0.165127 0.008106 -0.238021 -0.217159 -0.039656 0.097376 -0.038173 -0.06334 0.028843 0.050891 0.004594 -0.251316 -0.050187 0.12119 -0.120483 0.042783 0.011264 -0.08886 0.109574 -0.057601
-0.019236 0.010195 0.119869 0.02573 0.05208 -0.045111 -0.078202 -0.068157 -0.221799 0.150946 0.193905 0.139753 0.128011 -0.11032 0.011874 0.125908 -0.148839 0.137891 0.046278 0.053088 -0.022235 0.07996 0.210199 0.214843 -0.027754 -0.068313 -0.012228 0.007004 0.037772 0.010274 0.020167 -0.113754 0.072997 0.096232 -0.080471 -0.122996 -0.015432 0.104647 0.128568 -0.056899 -0.042343 -0.024468 -0.030535 -0.133553 -0.048092 0.06776 0.12371 -0.303904 -0.072209 0.041287 -0.055716 -0.065615 -0.099988 0.026256 -0.020227 -0.107575 -0.048144 0.09488 0.093266 -0.004066 0.012095 -0.144815 0.067117 -0.165715 0.019478 0.008594 0.024861 0.113696 0.009007 -0.191102 0.069892 -0.071078 0.040005 0.053861 0.119723 -0.010147 -0.018676 -0.05125 0.00427 0.041599 -0.132122 0.131594 0.144055 -0.038736 0.042424 0.078996 -0.085279 0.016338 0.06823 0.122386 -0.199775 0.024053 0.031597 0.079029 8.08E-4 -0.121136 0.138087 0.047677 0.020086 -0.175292
0.154123 0.047563 0.040411 -0.025842 -0.179896 -0.010435 -0.050621 0.00237 -0.049744 0.07091 -0.041747 -0.012541 -0.048257 -0.090657 0.055859 0.186725 -0.004751 0.171183 0.001236 0.158634 -0.21469 -0.010507 0.102164 0.110818 -0.098456 -0.085806 0.017572 -0.096755 -0.147182 -0.186661 -0.039628 0.028152 -0.195531 0.01169 -0.167175 -0.030783 0.02964 -0.087287 -0.087261 -0.023518 0.047187 0.164952 0.016142 0.082714 0.017606 -0.118475 -0.053953 0.042236 -0.041302 -0.037061 0.072247 0.097291 -0.159811 -0.004034 0.05793 -0.045614 0.022116 -0.091234 -0.01504 3.98E-4 0.150496 -0.218684 -0.064446 -0.051485 0.07339 0.113821 0.042366 0.042209 0.178948 -0.005155 0.136168 -0.048544 -0.11089 -0.004225 -0.01148 -0.061701 -0.025146 0.12647 -0.124816 0.092732 -0.026414 0.003393 0.08225 -0.049433 0.086746 0.143483 -0.01664 -0.02826 0.209263 -0.049219 -0.221231 -0.093525 -0.091385 0.050663 -0.107876 -0.042471 -0.063453 0.067362 0.064494 -0.007492
2.01044 1.232296 -2.549912 -2.032197 2.108218 0.350754 3.984176 -0.781111 1.754388 -2.314295 2.355634 -1.525834 1.226472 -1.541329 -3.304575 2.991044 -1.391115 -2.323146 -2.15385 -2.980392 2.344315 -2.676041 1.909837 -5.523956 -1.061176 -1.804773 -0.560027 -2.255916 -1.094577 -1.063408 0.662731 -2.102897 -3.864523 -7.571391 -1.344896 0.094571 0.367136 1.570184 0.648031 -0.688728 -0.946578 -0.092235 -2.489474 -1.986418 -1.624544 2.498297 1.250083 -1.068359 1.883808 -2.927913 -1.745434 -2.058515 -0.512999 0.410537 1.644372 -2.957222 1.082306 2.233394 3.431873 -2.073999 1.844186 -1.494935 0.390434 1.564615 -2.929395 -0.086005 -1.048035 -6.680551 1.315066 2.524979 4.404657 4.649625 1.632009 -3.155071 -4.040797 -1.548602 1.77773 -0.139533 -0.426028 0.428942 0.053434 -1.593569 3.168037 1.766949 4.17124 2.646524 2.776018 3.211581 -0.17617 -0.149054 -1.677979 1.48727 -4.970527 -4.785122 -2.199308 0.014736 -3.178869 1.436958 -1.954018 -3.116458
3.635499 -2.667169 -0.727708 -3.593243 -0.549419 0.733175 0.172204 3.791371 0.328269 2.256884 -1.015368 -2.454698 -0.815327 0.355508 2.474531 -0.626027 0.396756 -3.61148 4.060195 3.372732 -1.01888 -1.349799 1.899754 -0.174013 0.991901 2.851184 0.899687 3.088529 -1.024262 -0.381274 3.254091 1.887557 1.562388 -0.149757 -0.764631 -2.263043 0.226559 -4.539397 -2.292776 2.572466 -0.324225 -7.833081 0.710472 4.044321 2.252584 -2.530319 -4.440532 0.373135 2.812138 2.085804 3.422953 2.060638 1.664619 3.298358 -2.076158 1.662752 3.041493 2.946475 0.282635 0.221192 1.692513 -2.742725 0.560522 -2.398551 -1.409133 1.550326 2.031772 3.358856 -0.618338 1.508416 0.222565 -0.139198 -1.081801 2.824209 0.08751 0.134733 -3.282505 -1.578565 -1.164992 0.083221 4.197984 0.047679 -1.182103 -2.255012 1.520627 0.216734 1.038363 0.444725 0.23736 -2.209961 0.307758 -1.676938 -0.71724 2.328923 3.411993 2.595394 1.158561 -1.974992 -3.019828 -1.602767
-0.00397 -0.116091 -7.03E-4 0.061997 0.271948 0.15061 -0.173451 0.08214 -0.142571 -0.202642 0.018008 0.117828 -0.117526 0.210818 0.247066 0.240019 -0.104516 -0.070086 0.062518 0.012108 -0.048313 -0.060647 0.015848 -0.099163 -0.113884 0.063599 0.105252 0.039637 -0.201674 -0.048668 0.235699 -0.335168 -0.164895 -0.065982 -0.203881 -0.12857 0.148143 0.148306 0.085578 0.12547 0.0087 -0.047522 -0.155058 -0.095733 -0.128435 -0.015083 -0.13132 0.020962 -0.087453 -0.071982 -0.0881 0.004916 -0.160117 -0.042069 -0.211708 -0.065974 0.07075 -0.104981 -0.035849 -0.163509 -0.084193 -0.109835 0.191047 -0.017055 -0.162289 0.050889 -0.079374 -0.111867 0.189218 -0.032333 0.072861 -0.095053 0.003551 0.00878 0.121661 -0.020358 0.028814 0.116086 -0.232007 0.133027 0.126475 0.203857 0.02352 0.019495 0.090913 -0.269693 0.134962 0.153146 0.273317 0.080559 -0.034421 -0.018324 -0.057265 0.119496 0.017715 -0.129447 -0.079652 -0.081637 -0.125905 0.123271
-0.098564 -0.056591 0.220803 -0.046001 -0.143761 0.023158 0.053046 0.09948 -0.179582 0.09998 -0.056015 0.215724 0.022069 -0.059447 0.052098 0.158993 0.086559 0.122407 -0.202606 0.161024 -0.127215 0.022381 -0.050027 -0.07539 0.073437 -0.17376 0.102397 0.050041 0.059284 0.104008 0.009377 -0.007839 -0.131921 0.26039 -0.162536 0.1774 0.126761 0.053917 0.09052 0.043896 -0.193771 0.082966 -0.077852 0.026777 0.220115 -0.063512 -0.041395 -0.102357 0.026766 0.07042 0.182145 -0.071965 -0.195057 0.087592 -0.128806 -0.138448 -0.023801 -0.105777 -0.0156 -0.088192 0.279893 -0.139041 -0.11725 -0.102332 0.051054 -0.012106 0.124854 -0.120349 0.310805 -0.175859 0.060949 0.009949 -0.04517 0.128468 0.073971 -0.060258 -0.016723 -0.018993 -0.103063 0.170775 0.009598 0.266281 -0.197733 -0.06584 0.050278 0.009491 0.07402 0.064039 0.117392 0.28362 0.046975 0.097076 0.020714 -0.094866 0.204986 -0.156493 0.257497 -0.085703 -0.083663 -0.288764
-2.648351 -0.794316 -2.108887 0.20446 0.883061 0.242784 1.848653 1.149137 -4.975573 0.237654 -1.499665 2.924494 0.344217 -1.640431 0.763777 0.138944 -3.029439 -2.813434 -0.761102 -1.057557 -1.373735 -0.870599 1.234095 0.127805 -1.372618 1.35802 -1.501738 0.80945 0.172993 -0.484995 1.783363 -0.047587 0.483285 -1.526831 2.103549 2.116639 4.583491 -4.022388 -0.843817 0.361243 -0.546655 -2.301259 -2.000973 2.64631 -1.604053 -1.914206 -1.581895 -0.464185 1.757769 1.056301 0.263866 -0.904419 -0.422466 0.007824 -1.651553 0.7499 1.638666 -0.336108 -3.288466 -2.953238 -1.135414 1.165223 -1.047256 -0.821696 -0.135806 0.434207 -2.389307 -3.56953 -0.656773 0.578325 3.337902 0.782195 -1.250815 2.925509 -1.981492 0.121786 0.836257 1.710923 -2.640405 -0.628995 0.247469 0.863847 1.749171 -0.214156 -0.274807 2.192709 -0.892334 -1.614644 -1.225919 -0.042182 2.51632 3.464583 -3.591523 -2.506587 0.990426 1.8843 -2.460629 0.953462 0.359605 2.267383
0.016761 -0.116603 -0.128803 -0.085956 -0.331505 -0.005635 -0.24598 -0.189948 -0.156206 -0.002443 0.075572 -0.008364 -0.139675 0.126897 -0.004456 0.057895 -0.088723 0.174266 0.085188 -0.085007 -0.075556 0.123927 0.088185 0.026955 -0.130153 0.076374 0.0957 -0.25201 0.003484 -0.238015 -0.036255 0.039226 -0.015772 -0.079196 -0.335473 0.006978 0.172757 -0.121315 -0.06076 -0.098614 -0.100969 0.179943 -0.134157 -0.075677 0.053369 -0.162456 0.128946 0.087226 -0.11526 0.126585 0.04661 -0.14619 0.024327 0.220343 0.068667 -0.090185 0.082926 -0.065364 0.019387 0.003375 0.059688 0.017492 -0.074307 -0.126323 -0.142204 0.029827 -0.080282 -0.049183 0.133455 0.03925 0.081019 0.02228 -0.085705 0.010979 0.090813 -0.218384 -0.081749 0.05013 0.043586 0.112995 0.092207 0.051805 0.232937 0.013064 -0.138894 0.218488 0.139092 0.161748 0.127503 -0.165375 -0.172091 -0.015813 -0.013581 0.0414 -0.044944 -0.06549 -0.065871 -0.026492 -0.022413 -0.13116
0.133658 0.009986 0.138952 -0.095045 -0.150601 0.033429 -0.157539 0.119307 -0.14746 -0.174664 0.05436 -0.064403 -0.251236 -0.01319 0.231859 0.256623 0.059431 0.043622 0.189471 0.107568 -9.43E-4 0.118534 0.178217 0.134863 -0.240821 -0.108322 -0.030546 -0.031988 0.28019 -0.204743 -0.015384 -0.023617 0.100566 0.067937 -0.017835 -0.045019 -0.015679 -0.052514 0.076652 0.140144 -0.013811 -0.128432 -0.008102 0.128145 0.067734 0.098241 -0.04858 -0.03594 -0.15693 -0.083071 -0.066534 -0.344305 -0.14579 0.128798 0.113175 0.11337 -0.069072 0.012222 -0.017767 -0.111976 -0.136179 -0.160598 -0.252375 -0.269066 -0.112411 -0.104676 -0.125442 -0.202172 -0.031036 0.060726 -0.154076 0.055114 -0.110781 -0.067322 0.019866 -0.053324 0.138083 -0.006563 -0.125187 -0.004538 0.005156 -0.049674 0.065453 -0.297967 -0.067816 0.207561 -0.017369 -0.090657 -4.77E-4 0.201038 -0.180319 -0.095071 -0.090069 0.025703 0.007828 -0.027208 -0.029666 -0.24264 0.016459 0.091212
-0.108733 -0.061423 -0.098863 -0.132174 0.184499 -0.159858 0.044677 0.091311 0.018223 0.206392 0.081431 0.184179 0.086857 -0.192188 0.062003 0.012817 -0.027886 0.136135 0.138969 -0.074148 0.157175 0.23459 0.08172 0.162628 -0.009311 0.056522 0.039702 0.086811 -0.104706 -0.112551 -0.082889 -0.070624 -0.169422 0.088699 -0.159366 0.019041 0.045287 0.042583 0.102902 -0.249259 -0.127177 0.005548 0.100066 0.140519 -0.113002 0.106162 -0.007585 -0.092711 -0.339348 -0.016454 0.327331 -0.065714 -0.053133 0.046734 -0.078521 -0.151404 -0.054898 0.120586 0.031034 -0.242538 -0.111968 0.087063 0.162687 -0.245404 -0.050231 -0.015502 -0.306047 -0.169036 -0.107036 0.126173 -0.088695 0.239271 -0.065743 0.175986 -0.147415 -0.182975 -0.107658 -0.289069 -0.144229 -0.006646 -0.025676 0.269919 0.169115 -0.18592 -0.171916 0.156869 0.058985 -0.044186 -0.091025 -0.205298 -0.183991 0.011627 0.369494 0.13835 0.141525 0.027377 -0.19293 0.150134 0.254698 -0.015459
0.018809 -0.056255 -0.003233 -0.103144 0.030368 -0.015657 0.103871 -0.015613 0.061763 -0.014888 0.013792 0.094581 -0.08777 -0.107114 0.148158 -0.057553 -0.005293 -0.024582 0.059479 0.001105 -0.153692 0.061426 0.071559 -0.030056 -0.028429 0.095042 -0.011028 -0.018911 0.124573 -0.023809 0.115208 -0.057434 0.019051 0.106982 0.003925 -0.011536 0.030194 0.068838 0.052337 -0.180459 -0.114091 0.075967 0.051985 -0.155532 0.080624 -0.045647 -0.071426 0.035519 -0.207887 0.101014 0.149129 -0.014963 0.057978 0.011141 0.233072 -0.082537 -0.038003 -0.09325 -0.016466 -0.017333 -0.005163 -0.004512 0.007591 -0.046044 -0.114609 -0.061183 -0.065239 -0.045402 -0.066933 -0.174851 0.033997 0.01436 0.035181 0.033644 -0.084292 0.021747 0.063019 -0.009097 0.060552 0.042109 -0.068724 0.133849 -0.053773 -0.072215 -0.103991 -0.153113 -0.016112 0.09342 0.074841 0.007762 -0.184422 -0.06462 0.188844 -0.109518 -0.087767 -0.037503 -0.12706 -0.01669 -0.06459 -0.074934
0.0 0.0 0.0 0.0 0.0 0.0 0.0 0.0 0.0 0.0 0.0 0.0 0.0 0.0 0.0 0.0 0.0 0.0 0.0 0.0 0.0 0.0 0.0 0.0 0.0 0.0 0.0 0.0 0.0 0.0 0.0 0.0 0.0 0.0 0.0 0.0 0.0 0.0 0.0 0.0 0.0 0.0 0.0 0.0 0.0 0.0 0.0 0.0 0.0 0.0 0.0 0.0 0.0 0.0 0.0 0.0 0.0 0.0 0.0 0.0 0.0 0.0 0.0 0.0 0.0 0.0 0.0 0.0 0.0 0.0 0.0 0.0 0.0 0.0 0.0 0.0 0.0 0.0 0.0 0.0 0.0 0.0 0.0 0.0 0.0 0.0 0.0 0.0 0.0 0.0 0.0 0.0 0.0 0.0 0.0 0.0 0.0 0.0 0.0 0.0
0.094813 0.117309 -0.001274 0.152066 -0.064586 -0.141143 -0.023825 0.02196 0.020262 -0.061845 -0.268483 0.077498 -0.008761 -0.09925 -0.096639 0.135279 -0.048213 0.033862 0.085887 0.109258 0.142124 -0.249674 -0.043441 -0.075167 -0.023964 0.143121 -0.041322 0.0441 0.167735 -0.156285 0.106829 0.180057 0.130779 -0.042515 -0.165895 0.058004 -0.066892 -0.087366 0.020009 -0.081486 -0.031855 0.097811 -0.017519 0.076865 0.111324 -0.089961 -0.150683 0.061799 0.078692 0.099306 0.098633 0.124768 -0.024231 0.032065 -0.052224 -0.222714 0.068721 0.137627 -0.222517 -0.092256 -0.033699 -0.205046 0.115193 -0.30744 0.051257 0.116453 0.045021 -0.105204 -0.010987 0.048304 0.049788 -0.047717 -0.221061 -0.021706 -0.009274 0.085995 0.025494 0.147942 -0.294596 -0.020253 -0.034498 0.070121 0.049284 -0.009881 0.02326 -0.072956 0.134654 -0.079613 -0.073377 0.042196 -0.017164 -0.072544 -0.014649 -0.066976 -0.026034 -0.058362 0.194931 0.16323 0.029312 -0.025253
1.155368 3.302179 -0.818617 0.201583 -0.372035 -0.220049 -2.421694 1.24088 1.022918 0.281963 -0.56672 0.218504 -2.654141 0.687099 1.426786 -2.744465 -2.044989 -0.49789 -1.769702 -2.328375 -1.105508 0.104665 -0.061522 -2.669585 1.369504 1.778184 -0.869744 -1.441309 0.051265 1.116249 1.903031 -0.163683 1.731475 -0.652558 -1.459245 -0.212579 0.382415 1.861636 -0.394668 -0.423196 -0.983827 -1.176007 1.844253 0.853456 0.976233 -0.076248 -1.490589 -0.553926 0.506191 0.326236 0.251095 1.038919 -0.803142 0.658979 -3.236482 -1.07965 1.27678 -0.350029 -1.778651 0.292774 0.002745 0.267431 1.072933 -0.321661 -1.19536 -1.465055 -2.523761 -3.574044 -0.123843 -0.515256 3.2036 -0.08683 1.099575 -0.639959 -1.310584 0.629968 -0.142079 0.66081 -1.289981 -0.152693 -0.105374 0.388507 -1.068849 2.207516 -1.516502 0.618648 0.057959 1.61471 0.888036 -0.337188 -0.73306 -0.809614 -1.409634 -0.094797 -0.938314 1.210802 1.47048 2.210952 -1.933366 0.819087
0.014401 0.056522 -0.067027 0.003451 -0.029767 0.073351 -0.024849 0.036841 0.040807 0.005458 0.13335 -0.120096 -0.117021 -0.119265 0.024171 -0.015156 0.05961 -0.1094 -0.023646 -0.066864 -0.026603 0.054721 0.037844 -0.047458 0.049247 0.214332 -0.031197 -0.081032 0.0982 -0.06176 -0.187928 0.07447 0.140843 0.089594 0.127182 -0.106684 -0.115247 0.047985 0.017104 -0.188258 0.201881 0.035723 0.17568 -0.081601 0.023983 0.109685 -0.107213 -0.203239 -0.014228 0.042078 0.128434 -0.15446 -0.162105 -0.057687 -0.123467 0.099686 -0.003883 0.05067 0.065316 -0.21982 0.00112 -0.059011 -0.046757 0.11549 0.023983 -0.006561 -0.066449 -0.189888 -0.017994 0.220568 0.052927 -0.029092 0.221103 -0.013212 3.38E-4 -0.022332 0.015746 0.1407 0.033685 0.174891 -0.062061 -0.068634 0.002461 -0.013492 0.017944 0.018135 0.023988 -0.324442 0.001304 0.173735 -0.02299 0.007869 0.154087 -0.09733 0.080793 0.236875 -0.030117 0.131032 0.157627 -0.019791
-0.023755 0.051972 -0.007188 0.105479 -0.141833 -0.082843 0.117073 0.084494 -0.219225 0.004785 -0.203062 0.096865 0.065565 -0.023369 0.031766 0.061172 0.012085 -0.138015 0.072798 -0.036723 -0.126576 0.183541 0.047308 -0.105031 -0.055933 -0.12209 -0.14559 -0.132331 0.151328 -0.125121 -0.275479 -0.013209 0.069005 -0.148483 -0.028455 -0.092634 -0.122573 -0.00528 -0.180261 -0.188332 0.082209 0.133885 0.054436 0.106687 -0.038541 0.0398 -0.144886 0.049544 0.082363 -0.081814 -0.048598 0.158324 0.092045 0.10566 -0.149735 -0.139272 -0.062151 0.017483 -0.040706 0.102474 -0.009691 0.123859 0.026649 -0.019861 -0.066816 -0.029965 0.07739 0.212853 0.010552 0.06297 0.189791 -0.012261 -0.139387 0.105506 0.22908 0.006611 -0.002996 -0.018959 -0.051487 0.008927 -0.052206 0.238563 0.011286 0.022975 0.025945 -0.019056 0.018264 0.114668 0.117257 0.083674 -0.139148 0.010212 -0.128137 0.112749 -0.109722 -0.222324 -0.064567 -0.165331 -0.040981 -0.072865
0.468124 0.05561 0.6261 1.431366 -0.197583 0.261863 0.949711 -3.133626 -1.283954 -1.550995 1.54988 -0.404773 0.077002 1.410362 -1.274238 1.349289 -1.164744 -0.546499 -5.12642 -0.118588 -0.753902 2.078658 -2.67347 0.617482 2.28507 -0.554645 0.926152 -0.73768 -0.327973 2.662122 0.778785 -3.956755 0.715716 -2.515779 -0.654362 -0.398897 -1.922042 -1.214916 -3.489688 0.008083 -0.182507 -3.230706 2.986844 -2.581722 -2.131293 0.550491 -0.575297 1.032858 0.033863 0.549328 2.158887 0.224631 -1.208955 -0.852245 -1.876035 -2.367234 -0.329535 0.060524 2.018398 -1.915078 -1.392324 -0.257994 -1.304255 3.323726 2.30374 -3.986873 0.797901 0.727501 0.402694 0.042771 1.508687 -3.866984 -3.05094 3.621505 0.522211 -0.933527 0.501158 0.930001 1.153842 -0.112792 0.981698 1.135506 -1.835513 -2.104743 -0.163192 2.676808 2.691545 1.172344 2.046042 0.48707 0.83416 -0.468312 -2.793722 0.817486 0.804553 -1.729648 -0.872203 3.345958 -2.165021 2.635121
0.146885 -0.025409 0.025856 0.149692 -0.052777 0.014264 -0.084931 -0.124387 0.009213 -0.165102 -0.117813 0.035542 -0.063082 0.256998 0.001919 -0.031406 -0.043491 -0.150821 -0.12736 -0.033635 0.004462 -0.264082 0.033412 -0.094102 -0.124519 0.036 -0.060673 -0.048225 -0.015602 0.115448 -0.013787 -0.092734 -0.017512 -0.049649 0.054233 -0.070909 0.116983 -0.054287 -0.076093 -0.085751 0.068322 0.006587 -0.1385 -0.002036 0.126233 -0.089004 -0.122407 -0.006145 0.017221 -0.01976 -0.066598 -0.061573 -0.057077 -0.19108 -0.147345 -0.126185 -0.049486 -0.038 -0.139597 -0.041644 0.031797 -0.119035 -0.033682 0.073474 0.224527 -0.03855 0.040607 0.013356 0.101852 -0.074129 -0.072849 0.058187 -0.178466 0.031397 -0.143181 -0.085768 0.03589 -0.024734 -0.009989 -0.154287 0.005794 0.223525 -0.036549 0.077318 0.024174 -0.032455 0.008205 -0.054616 -0.136274 -0.101586 0.070071 0.109909 0.025802 0.104074 0.048785 0.044388 -0.027116 -0.003886 0.08839 0.035067
4.088196 0.297704 -1.028615 4.747435 1.110235 3.134462 1.265814 0.610371 -0.19393 -2.629615 0.757407 2.031496 -1.681606 -0.750734 0.607439 1.730475 -0.575801 -4.9484 -3.106981 1.433708 -2.933383 -0.607278 0.21502 -0.936141 2.201521 -3.425759 0.586913 1.130422 0.587819 -0.544596 0.736509 0.737671 0.264796 0.179184 -4.64829 0.041762 0.734897 0.498987 2.005224 -0.478501 -0.946017 -3.056592 0.966226 -1.025565 0.551075 0.107511 -0.35197 -2.926284 3.608778 0.68242 1.34705 3.202598 -2.869086 -0.732502 -1.947601 1.534661 1.056872 2.271927 0.48151 -4.047965 -0.142861 1.538222 0.398362 -0.676201 0.098441 0.236745 -0.520654 -2.577075 -1.766508 3.842722 3.056848 1.899663 0.194581 1.398197 0.852022 -0.084509 -1.080607 0.04108 1.806659 -3.684653 -2.340004 0.651856 0.016765 1.240274 3.416146 5.020018 2.589897 0.918731 3.34579 -1.734813 2.131855 2.079846 1.246448 0.333801 -2.336565 1.727393 -1.314646 0.072673 -2.721992 3.204293
0.143827 -0.109827 0.034065 0.227088 -0.055472 0.197211 -0.263184 -0.105788 0.075174 0.037992 -0.02462 0.234734 -0.026546 -0.058231 0.124374 -0.05098 -0.044082 -0.076087 0.095286 -0.104294 -0.117871 0.037764 -0.128611 0.130376 -0.042743 -0.102692 0.001838 -0.001977 0.176824 -0.065073 0.146438 0.062689 -0.137862 -0.03456 -0.107469 0.048835 -0.033829 0.05883 -0.077667 -0.149738 -0.129411 -0.004244 0.096813 0.032204 0.019195 0.045283 -0.028667 -0.045173 0.146696 0.073569 0.077296 -0.035214 -0.06627 -0.173317 0.139935 -0.063089 -0.135907 0.058288 -0.023565 -0.189732 -0.026764 -0.060015 0.05455 -0.024232 -0.04955 -0.0857 -0.055489 -0.148741 -0.038161 0.081191 0.120172 0.098276 0.142734 -0.018801 -4.69E-4 -0.112375 -0.072463 0.107795 0.062915 -0.170122 0.094813 0.132555 -0.086554 -0.053139 -0.038224 0.136973 -0.133582 0.007514 0.140238 -0.028718 -0.112625 -0.020174 0.069623 0.179129 -0.123251 -0.323619 -0.004731 -0.144719 0.055472 -0.005833
-0.046453 -0.114089 0.048378 0.039697 0.205342 -0.134425 0.195579 -0.187425 0.012362 -0.056148 -0.131226 -0.036605 -0.166618 -0.005606 0.011423 -0.035289 0.073024 0.049955 -0.03056 -0.116564 -4.0E-4 0.248965 0.168589 -0.016666 -0.127127 -3.18E-4 0.127741 -0.107854 0.05539 -0.111124 -0.041902 -0.11626 0.086201 0.191946 -0.031307 -0.026238 0.135582 -0.138117 -0.118683 -0.205278 -0.118941 0.075416 -0.021621 -0.074612 0.105553 0.141257 -0.097239 0.031083 -0.191864 0.157126 0.157338 0.018714 -0.190255 -0.078835 0.160698 0.051121 -0.022634 0.282011 -0.210636 0.065967 0.011387 -0.10215 -0.014587 8.06E-4 -0.126806 0.10146 -0.051249 -0.166886 0.138311 -0.092453 -0.203714 0.163209 0.126385 -0.163049 0.060969 -0.136489 -0.119169 0.143901 -0.166778 -0.074124 -0.205023 0.138254 -0.069697 -0.023512 0.056226 -0.151985 0.057434 -0.163405 0.084998 0.19969 0.169875 -0.038445 0.015784 -0.127481 -0.113888 -0.245198 0.065981 0.165014 0.001608 -0.042748
0.021706 0.021625 0.111456 0.023793 -0.01029 0.008901 -0.078164 0.026564 -0.129947 0.131499 0.030114 0.097883 0.109326 -0.072325 -0.01257 -0.056466 0.054527 -0.081146 0.111882 0.17533 0.023769 0.125694 0.12886 0.066372 -0.078056 -0.076288 0.103175 -0.023166 0.056437 0.049875 0.033518 -0.096662 -8.36E-4 0.158212 -0.087449 -0.193856 -0.199349 0.100558 -0.037512 0.09588 0.118689 0.048038 0.105217 -0.248297 -0.177189 -0.104422 -0.063515 -0.097935 -0.158008 0.065324 0.174272 -0.131895 0.048048 -0.046464 0.061029 -0.085194 -0.23064 -0.082543 0.188453 0.029634 -0.027124 -0.04737 -0.084181 0.0158 0.168857 -0.01567 0.156627 -0.014486 0.153937 -0.121259 0.07684 -0.089571 -0.025851 -0.008319 -0.068308 -0.015067 -0.05269 0.029771 0.006255 0.041589 -0.007874 0.022162 0.128392 -0.108327 0.100771 0.086268 0.142637 0.082011 0.090645 -0.05768 0.016839 -0.121573 0.127172 0.044897 0.031913 0.097173 0.080675 0.046918 0.018692 -0.064539
0.0 0.0 0.0 0.0 0.0 0.0 0.0 0.0 0.0 0.0 0.0 0.0 0.0 0.0 0.0 0.0 0.0 0.0 0.0 0.0 0.0 0.0 0.0 0.0 0.0 0.0 0.0 0.0 0.0 0.0 0.0 0.0 0.0 0.0 0.0 0.0 0.0 0.0 0.0 0.0 0.0 0.0 0.0 0.0 0.0 0.0 0.0 0.0 0.0 0.0 0.0 0.0 0.0 0.0 0.0 0.0 0.0 0.0 0.0 0.0 0.0 0.0 0.0 0.0 0.0 0.0 0.0 0.0 0.0 0.0 0.0 0.0 0.0 0.0 0.0 0.0 0.0 0.0 0.0 0.0 0.0 0.0 0.0 0.0 0.0 0.0 0.0 0.0 0.0 0.0 0.0 0.0 0.0 0.0 0.0 0.0 0.0 0.0 0.0 0.0
0.094813 0.117309 -0.001274 0.152066 -0.064586 -0.141143 -0.023825 0.02196 0.020262 -0.061845 -0.268483 0.077498 -0.008761 -0.09925 -0.096639 0.135279 -0.048213 0.033862 0.085887 0.109258 0.142124 -0.249674 -0.043441 -0.075167 -0.023964 0.143121 -0.041322 0.0441 0.167735 -0.156285 0.106829 0.180057 0.130779 -0.042515 -0.165895 0.058004 -0.066892 -0.087366 0.020009 -0.081486 -0.031855 0.097811 -0.017519 0.076865 0.111324 -0.089961 -0.150683 0.061799 0.078692 0.099306 0.098633 0.124768 -0.024231 0.032065 -0.052224 -0.222714 0.068721 0.137627 -0.222517 -0.092256 -0.033699 -0.205046 0.115193 -0.30744 0.051257 0.116453 0.045021 -0.105204 -0.010987 0.048304 0.049788 -0.047717 -0.221061 -0.021706 -0.009274 0.085995 0.025494 0.147942 -0.294596 -0.020253 -0.034498 0.070121 0.049284 -0.009881 0.02326 -0.072956 0.134654 -0.079613 -0.073377 0.042196 -0.017164 -0.072544 -0.014649 -0.066976 -0.026034 -0.058362 0.194931 0.16323 0.029312 -0.025253
-0.193592 -0.143273 -0.026849 0.19856 -0.078763 0.017567 -0.087263 0.004275 -0.050853 -0.15331 0.010879 0.148095 -0.001045 0.060967 0.159534 0.009607 -0.060808 0.25066 -0.107173 -0.138917 -0.147372 0.141186 0.027115 -0.059931 -0.10419 0.024207 -0.025661 -0.053422 0.077077 -0.102633 0.105801 0.181785 0.137275 0.232523 0.029936 -0.024055 -0.085602 -0.046199 0.149154 0.15549 0.044198 -0.021355 0.097388 -0.059266 0.036966 -0.068208 -0.047304 0.075928 -0.239935 0.035605 0.153864 -0.072996 0.045731 0.094331 0.04585 0.063902 -0.228555 -0.002125 0.259378 0.048509 0.210225 -0.004787 0.044467 -0.013187 -0.045142 0.023232 0.409288 -0.047739 0.158645 0.079946 -0.011828 0.013932 -0.033402 0.02423 -0.01912 0.053226 -0.001828 0.014364 0.14763 -0.039512 -0.044668 -0.182176 0.143085 0.052911 0.015897 -0.014519 0.158233 -0.029646 0.140977 0.038634 -0.268536 0.187957 0.056743 0.29301 -0.003408 -0.065108 -0.01263 -0.009836 -0.023146 -0.123869
0.018809 -0.056255 -0.003233 -0.103144 0.030368 -0.015657 0.103871 -0.015613 0.061763 -0.014888 0.013792 0.094581 -0.08777 -0.107114 0.148158 -0.057553 -0.005293 -0.024582 0.059479 0.001105 -0.153692 0.061426 0.071559 -0.030056 -0.028429 0.095042 -0.011028 -0.018911 0.124573 -0.023809 0.115208 -0.057434 0.019051 0.106982 0.003925 -0.011536 0.030194 0.068838 0.052337 -0.180459 -0.114091 0.075967 0.051985 -0.155532 0.080624 -0.045647 -0.071426 0.035519 -0.207887 0.101014 0.149129 -0.014963 0.057978 0.011141 0.233072 -0.082537 -0.038003 -0.09325 -0.016466 -0.017333 -0.005163 -0.004512 0.007591 -0.046044 -0.114609 -0.061183 -0.065239 -0.045402 -0.066933 -0.174851 0.033997 0.01436 0.035181 0.033644 -0.084292 0.021747 0.063019 -0.009097 0.060552 0.042109 -0.068724 0.133849 -0.053773 -0.072215 -0.103991 -0.153113 -0.016112 0.09342 0.074841 0.007762 -0.184422 -0.06462 0.188844 -0.109518 -0.087767 -0.037503 -0.12706 -0.01669 -0.06459 -0.074934
0.0 0.0 0.0 0.0 0.0 0.0 0.0 0.0 0.0 0.0 0.0 0.0 0.0 0.0 0.0 0.0 0.0 0.0 0.0 0.0 0.0 0.0 0.0 0.0 0.0 0.0 0.0 0.0 0.0 0.0 0.0 0.0 0.0 0.0 0.0 0.0 0.0 0.0 0.0 0.0 0.0 0.0 0.0 0.0 0.0 0.0 0.0 0.0 0.0 0.0 0.0 0.0 0.0 0.0 0.0 0.0 0.0 0.0 0.0 0.0 0.0 0.0 0.0 0.0 0.0 0.0 0.0 0.0 0.0 0.0 0.0 0.0 0.0 0.0 0.0 0.0 0.0 0.0 0.0 0.0 0.0 0.0 0.0 0.0 0.0 0.0 0.0 0.0 0.0 0.0 0.0 0.0 0.0 0.0 0.0 0.0 0.0 0.0 0.0 0.0
-0.019236 0.010195 0.119869 0.02573 0.05208 -0.045111 -0.078202 -0.068157 -0.221799 0.150946 0.193905 0.139753 0.128011 -0.11032 0.011874 0.125908 -0.148839 0.137891 0.046278 0.053088 -0.022235 0.07996 0.210199 0.214843 -0.027754 -0.068313 -0.012228 0.007004 0.037772 0.010274 0.020167 -0.113754 0.072997 0.096232 -0.080471 -0.122996 -0.015432 0.104647 0.128568 -0.056899 -0.042343 -0.024468 -0.030535 -0.133553 -0.048092 0.06776 0.12371 -0.303904 -0.072209 0.041287 -0.055716 -0.065615 -0.099988 0.026256 -0.020227 -0.107575 -0.048144 0.09488 0.093266 -0.004066 0.012095 -0.144815 0.067117 -0.165715 0.019478 0.008594 0.024861 0.113696 0.009007 -0.191102 0.069892 -0.071078 0.040005 0.053861 0.119723 -0.010147 -0.018676 -0.05125 0.00427 0.041599 -0.132122 0.131594 0.144055 -0.038736 0.042424 0.078996 -0.085279 0.016338 0.06823 0.122386 -0.199775 0.024053 0.031597 0.079029 8.08E-4 -0.121136 0.138087 0.047677 0.020086 -0.175292
0.022391 0.019166 -0.051704 0.067116 0.02743 -0.327827 0.039367 -0.050414 -0.107231 0.031936 -0.079336 0.038906 -0.062243 -0.025728 0.06641 -0.07765 -0.326763 -0.262588 0.066986 -0.14605 0.118513 -0.236495 -0.011116 0.200652 -0.10876 -0.051685 0.028857 0.226599 0.062085 0.049652 -0.152593 -0.28984 -0.161943 0.274762 -0.145454 0.18719 -0.035853 0.006061 0.157221 0.063574 -0.017849 0.048067 0.05997 0.080145 -0.158375 0.173273 -0.030098 0.12586 0.117209 0.166331 -0.139459 0.096633 0.040125 -0.090946 -0.307326 -0.027985 0.031743 0.102075 0.184053 -0.081095 -0.093583 0.115082 0.005686 -0.027211 -0.060254 0.173122 0.062004 0.143666 0.161457 0.038951 0.172915 -0.011852 -0.101551 -0.002456 -0.209002 -0.021897 0.097033 0.073209 -0.248749 -0.013063 -0.048834 0.024507 -0.014225 -0.076426 -0.013915 -0.103499 0.070933 0.022141 0.16163 -0.154737 0.176431 0.153617 -0.155183 -0.049728 -0.009636 0.094398 0.087489 -0.118898 -0.163847 0.03652
0.014401 0.056522 -0.067027 0.003451 -0.029767 0.073351 -0.024849 0.036841 0.040807 0.005458 0.13335 -0.120096 -0.117021 -0.119265 0.024171 -0.015156 0.05961 -0.1094 -0.023646 -0.066864 -0.026603 0.054721 0.037844 -0.047458 0.049247 0.214332 -0.031197 -0.081032 0.0982 -0.06176 -0.187928 0.07447 0.140843 0.089594 0.127182 -0.106684 -0.115247 0.047985 0.017104 -0.188258 0.201881 0.035723 0.17568 -0.081601 0.023983 0.109685 -0.107213 -0.203239 -0.014228 0.042078 0.128434 -0.15446 -0.162105 -0.057687 -0.123467 0.099686 -0.003883 0.05067 0.065316 -0.21982 0.00112 -0.059011 -0.046757 0.11549 0.023983 -0.006561 -0.066449 -0.189888 -0.017994 0.220568 0.052927 -0.029092 0.221103 -0.013212 3.38E-4 -0.022332 0.015746 0.1407 0.033685 0.174891 -0.062061 -0.068634 0.002461 -0.013492 0.017944 0.018135 0.023988 -0.324442 0.001304 0.173735 -0.02299 0.007869 0.154087 -0.09733 0.080793 0.236875 -0.030117 0.131032 0.157627 -0.019791
0.114961 0.007576 -0.139177 0.226171 0.10055 -0.018039 -0.18493 0.098202 -0.180764 -0.008566 0.039229 0.129429 -0.002807 -0.141985 -0.069535 0.09265 0.123251 0.088229 0.114781 0.065095 -0.042475 0.00221 0.087122 -0.006901 -0.011373 -0.119747 -0.041457 0.090707 0.308519 -0.133112 -0.032162 0.005264 -0.028555 0.03241 -0.007394 -0.103908 0.093603 -0.143504 -0.008241 -0.0291 -0.015024 -0.166069 0.062695 -0.056455 0.116087 0.058955 0.004145 -0.180946 -0.089764 0.007827 -0.030518 -0.145909 0.127465 -0.069772 -0.005614 0.086573 0.11531 0.157962 0.074545 -0.020881 -3.75E-4 -0.237964 -0.071419 0.05895 0.002396 0.067221 0.02972 -0.012571 -0.099224 -0.089115 -0.162207 -0.188052 -0.023387 -0.048527 -0.078052 0.045607 -0.095186 -0.028109 -0.10879 -0.058955 0.048819 -0.051783 0.085727 -0.209653 -0.134566 -0.054361 -0.13626 -0.021627 0.045094 0.126841 -0.193036 -0.09246 -0.040221 -0.122464 -0.049848 0.0158 0.003101 -0.127742 -0.093458 -0.084606
-0.046453 -0.114089 0.048378 0.039697 0.205342 -0.134425 0.195579 -0.187425 0.012362 -0.056148 -0.131226 -0.036605 -0.166618 -0.005606 0.011423 -0.035289 0.073024 0.049955 -0.03056 -0.116564 -4.0E-4 0.248965 0.168589 -0.016666 -0.127127 -3.18E-4 0.127741 -0.107854 0.05539 -0.111124 -0.041902 -0.11626 0.086201 0.191946 -0.031307 -0.026238 0.135582 -0.138117 -0.118683 -0.205278 -0.118941 0.075416 -0.021621 -0.074612 0.105553 0.141257 -0.097239 0.031083 -0.191864 0.157126 0.157338 0.018714 -0.190255 -0.078835 0.160698 0.051121 -0.022634 0.282011 -0.210636 0.065967 0.011387 -0.10215 -0.014587 8.06E-4 -0.126806 0.10146 -0.051249 -0.166886 0.138311 -0.092453 -0.203714 0.163209 0.126385 -0.163049 0.060969 -0.136489 -0.119169 0.143901 -0.166778 -0.074124 -0.205023 0.138254 -0.069697 -0.023512 0.056226 -0.151985 0.057434 -0.163405 0.084998 0.19969 0.169875 -0.038445 0.015784 -0.127481 -0.113888 -0.245198 0.065981 0.165014 0.001608 -0.042748
0.014382 -0.093946 0.140955 0.015624 -0.023245 -0.034984 -0.043677 -0.04016 -0.100302 0.068495 0.027507 -0.026426 0.104751 -0.099108 0.055079 0.054909 -0.034032 0.020049 0.123874 0.076704 -0.144699 0.105177 0.137153 0.041132 -0.209822 -0.042153 0.004606 -0.029223 0.077699 -0.071829 -0.108993 0.04656 -0.152773 -0.102689 -0.109685 -0.101193 -0.050728 -0.113969 -0.005044 -0.01991 -0.040629 0.079337 -0.023788 -0.101409 -0.034834 -0.032994 -0.04602 -0.013718 -0.054647 0.037501 -0.019349 -0.049707 0.055505 0.028799 0.087843 -0.07561 0.135841 0.130808 0.039006 -0.145077 -0.121545 -0.081202 0.169931 -0.105688 -0.129311 -0.10812 -0.043334 0.112879 0.035576 -0.050256 -0.073203 0.174697 0.004292 -0.027321 0.07516 -0.0706 -0.218044 -0.064664 -0.087478 -0.152597 0.043047 0.136357 0.113074 -0.156009 0.064172 0.198659 0.046844 -0.062969 0.198725 -0.004941 -0.131566 -0.098932 -0.086117 0.019234 0.153024 -0.018368 0.058829 0.047895 0.086417 -0.006676
