1.519526 1.445578 -1.609499 2.582747 2.460795 3.529971 0.431498 -0.524736 0.238502 0.565084 -2.150664 2.607871 -3.578636 0.22885 1.205379 0.400126 -2.365878 -2.228676 -0.500047 -1.958516 -2.734259 -2.028213 -0.339577 -2.726884 0.003785 -1.85554 -0.90189 1.042933 0.930181 0.561229 0.956561 0.220468 -1.219533 -0.188243 -0.649085 -0.117874 2.101841 -0.317004 1.300647 -1.49228 0.533457 -2.976113 -0.635474 -1.431524 -0.943268 0.543614 -2.072507 -1.004219 4.072807 -1.496014 2.612373 2.458477 -0.120651 0.418572 -2.53177 0.646754 2.04053 2.0667 -2.403623 -3.037353 -1.289071 1.269349 0.447478 0.512568 0.464348 -0.142416 -1.155552 0.32258 -0.986119 3.909852 3.839548 0.865499 -1.089316 -1.400134 0.517204 -3.398406 -0.576028 -0.612853 -0.573641 -1.979957 1.278503 1.159562 0.583915 -0.210028 0.851463 1.075476 2.276915 0.114312 2.2836 1.968815 1.899569 0.001135 -2.286771 -2.666814 -1.408445 1.975128 -0.085175 1.44887 -1.994305 2.796178
2.509146 -0.552161 1.034535 1.378933 0.121525 1.267112 -0.264166 1.44874 -0.585351 0.814742 -0.556444 -0.769829 0.721693 3.504652 2.522097 0.698651 -2.00194 1.27341 -3.938691 -1.249814 1.206217 2.236896 -2.105178 2.803302 0.476807 1.734094 -0.304557 -1.727252 -6.730148 2.015861 7.327693 -2.709538 -0.991304 -4.232084 -1.93599 -1.471528 -0.332715 -1.233527 -6.406514 0.046641 0.97283 -0.994667 1.86544 -0.041745 -2.464909 -0.251897 -0.88735 0.232848 -2.86783 -0.039329 0.834739 1.260419 0.129091 -0.430997 -3.704259 -2.831278 0.963296 -3.750342 -1.569821 1.286868 -3.171957 -2.014259 1.227737 0.595818 0.410501 1.398568 -0.483599 -3.157001 2.474234 2.699517 2.327858 -3.891064 -0.294445 1.084606 0.59068 -0.277707 -0.669147 2.024913 0.165398 2.562466 2.359209 -3.092515 -1.052526 -1.255511 1.589703 -4.733644 -0.797907 -0.877859 -0.593432 1.52866 -0.748336 2.11786 -1.366948 -0.910751 -0.194893 -2.824154 0.189273 2.667272 -0.730916 1.569461
0.0 0.0 0.0 0.0 0.0 0.0 0.0 0.0 0.0 0.0 0.0 0.0 0.0 0.0 0.0 0.0 0.0 0.0 0.0 0.0 0.0 0.0 0.0 0.0 0.0 0.0 0.0 0.0 0.0 0.0 0.0 0.0 0.0 0.0 0.0 0.0 0.0 0.0 0.0 0.0 0.0 0.0 0.0 0.0 0.0 0.0 0.0 0.0 0.0 0.0 0.0 0.0 0.0 0.0 0.0 0.0 0.0 0.0 0.0 0.0 0.0 0.0 0.0 0.0 0.0 0.0 0.0 0.0 0.0 0.0 0.0 0.0 0.0 0.0 0.0 0.0 0.0 0.0 0.0 0.0 0.0 0.0 0.0 0.0 0.0 0.0 0.0 0.0 0.0 0.0 0.0 0.0 0.0 0.0 0.0 0.0 0.0 0.0 0.0 0.0
0.040639 0.081814 0.04287 0.062167 0.092794 0.114908 -5.3E-4 -0.061893 -0.128806 0.029658 -0.102642 0.050736 0.021353 0.278962 0.156361 -0.045776 -0.059025 0.007615 0.069272 0.03742 0.044666 -0.205296 -0.009373 0.060588 0.130976 -0.007905 -0.098053 0.083234 0.088487 0.073668 -0.063313 0.05638 -0.149995 0.040243 0.139103 0.120814 0.186168 0.077513 0.035539 -0.137722 0.149343 -0.011946 0.157701 0.051791 -0.073664 0.096946 -0.283681 0.058369 -0.065895 0.126711 -0.040991 -0.045914 -0.057224 -0.17697 0.066608 0.102407 -0.15335 -0.00258 -0.222251 -0.069709 -9.96E-4 0.033302 -0.223593 -0.01348 0.109527 0.085455 -0.086426 0.046289 0.047765 0.150103 -0.094972 -0.019492 -0.08396 0.061637 0.042416 0.083935 -0.175169 -0.031524 -0.150901 -0.072843 -0.056665 0.199748 0.160562 -0.070466 0.072887 0.025233 0.011767 0.031496 0.08045 -0.027642 0.037393 0.123465 -0.042501 0.013419 0.046506 -0.08898 -0.024989 -0.132646 0.135167 0.194549
-0.38434 -0.570338 -3.334123 -0.990325 -0.281295 3.633702 1.320934 0.804616 -0.499895 -0.831205 0.460112 1.388349 -2.264975 3.215568 -3.90167 1.353361 -1.448904 -2.546085 -1.024352 -1.734034 -1.344124 0.93203 0.532723 0.23208 -0.507331 0.823317 0.659701 0.36019 1.191168 -0.162178 -0.263719 -1.148898 -0.733443 1.049014 -0.463284 0.424462 1.721949 -2.279087 -0.239497 -3.509027 0.274708 -0.478871 -0.254635 1.092364 -0.333634 -0.504492 -0.065145 -0.538987 0.565458 0.780359 -0.571438 2.952173 0.370658 -0.759209 -2.924849 1.720769 0.511283 1.62778 2.047539 0.727555 2.155394 -1.325505 -0.576841 2.155423 -1.025197 1.359344 -0.744288 -2.504187 -1.775349 1.348846 2.846446 1.640962 1.869469 1.38429 0.797755 -0.790083 2.739745 1.110482 1.051984 -1.114181 2.453474 -0.002451 -1.249565 3.986771 0.736882 -1.32782 1.044597 0.12676 2.039398 0.327395 0.179204 -1.66492 -0.55174 -2.138355 -3.629091 -1.09422 -3.320013 0.282001 -1.758182 -2.017416
-0.070629 0.025587 0.070437 0.073477 -0.099652 -0.04362 -0.135792 -0.031465 -0.002146 0.083546 0.129894 0.031545 -0.017508 -0.138639 0.075902 0.046048 -0.048947 0.107141 0.052795 0.089052 -0.070432 -0.075302 0.229281 0.118674 -0.09226 0.040469 -0.158682 -0.091506 0.107081 -0.053378 -0.025309 0.005569 -0.029907 -0.131359 0.105339 -0.112555 -0.116443 -0.129364 0.156439 0.104934 0.002983 -0.025669 -0.077876 -0.112692 -0.070669 -0.139543 0.041041 0.060082 -0.233926 0.064725 0.07136 -0.026596 -0.088346 -0.055049 -0.066827 -0.111899 0.013371 -0.032084 0.029234 0.028485 0.084092 -0.087175 0.042775 -0.002206 0.005524 -0.114932 0.053665 -0.070221 -0.009042 -0.082806 -0.03314 -0.115304 -0.155047 -0.019634 0.124178 -0.105165 -0.066353 -0.041453 3.61E-4 -0.044656 -0.030358 0.096046 0.095907 0.035875 -0.071259 0.001121 -0.102366 0.008884 0.038852 -0.04181 -0.121518 -0.082199 0.085753 -0.101258 0.078681 -0.123082 -0.063609 0.045314 0.006957 -0.124088
-0.034355 -0.032624 0.199767 0.005333 -0.017739 0.056352 0.029424 -0.030199 0.021501 -0.058459 0.007633 0.035986 -0.019477 -0.066338 0.122967 0.109226 0.019004 0.106931 -0.021536 0.088322 -0.146882 0.060271 -0.048463 0.045495 -0.071025 -0.098507 0.019002 0.035445 0.148947 -0.236889 0.031148 -0.108787 -0.034147 -0.086219 0.067012 -0.055364 0.080612 -0.007981 -0.045472 0.064676 -0.109496 0.060769 0.041785 -0.009122 0.044502 -0.088972 0.049544 0.038709 -0.028194 -0.033044 0.020137 -0.100587 0.087732 0.023429 0.131458 -0.257082 -0.013136 -0.208503 0.050067 -0.141838 0.147681 -0.008098 -0.012417 -0.073334 -0.157796 -0.104002 0.021573 -0.049296 -0.140103 -0.104901 -0.037706 0.087579 -0.036719 0.004416 0.079762 -0.175127 -0.116852 -9.54E-4 -0.001441 -0.018956 0.049765 -0.094634 -0.056623 -0.059285 0.103667 -0.086029 0.041032 -0.055263 0.035383 0.097164 -0.162184 0.094111 -0.037403 0.121801 -0.145614 -0.0602 0.033289 -0.037582 0.038226 -0.090747
0.015872 0.117475 -0.164605 -0.044562 -1.68E-4 -0.078736 -0.014769 0.148055 0.024605 -0.051596 0.122847 -0.114196 -0.034196 -0.08628 0.041075 -0.12801 -0.140659 -0.106422 -0.075058 0.015382 0.047613 0.019425 -0.018779 0.096796 0.064069 0.195055 0.11645 -0.225899 0.055938 0.118386 -0.030051 0.075175 0.172643 -0.010721 0.012511 -0.007709 -0.097905 -0.042 -0.131495 0.032958 0.052204 0.110851 -0.128992 -0.203617 0.070093 0.013654 0.038703 0.008368 0.052076 -0.019311 0.05722 0.042832 0.026559 -0.012542 0.003995 -0.094257 0.148511 0.049346 -0.078435 -0.013606 -0.087522 0.231987 0.006039 -0.107406 -0.127821 -0.081953 0.021243 -0.020465 -0.007731 -0.121249 -0.084151 -0.278442 -0.035624 -0.10373 -0.049941 -0.062158 0.115939 -0.009107 0.002831 0.006272 0.035047 -0.144923 -0.111177 0.00897 0.063085 0.067298 -0.168059 0.008305 -0.158213 0.028688 -0.068434 0.117865 0.309336 -0.047789 -0.060615 -0.065124 -0.038478 -0.051154 -0.018319 0.001234
3.90875 -0.775872 -4.069722 -1.856369 -1.614063 2.231884 -0.163266 1.854242 -1.316526 1.741527 0.251237 -0.572977 0.507976 -1.427378 0.146712 1.43769 -1.736456 1.183988 -1.545016 0.843761 -1.041588 1.157047 0.274636 -2.003952 -1.371254 0.545484 3.236019 -3.339342 -1.679852 1.421753 3.28147 -1.619218 0.385373 -3.122856 -1.422223 0.723628 -3.071501 -0.124561 0.842527 2.134378 -1.016808 -2.779109 -0.206146 1.709793 1.02276 -0.806191 1.264282 -0.059605 -1.023988 1.290036 1.492276 -0.952164 3.855714 0.85805 0.713078 0.290677 1.571821 1.438561 0.52767 2.927897 2.927171 2.519514 -1.297348 0.520199 -0.319479 0.837937 -0.682799 -1.436541 2.950626 -0.585634 -0.320662 -1.788408 -0.543926 1.013817 0.829789 4.163737 0.9304 0.810282 0.521247 1.373348 4.028029 -0.302544 4.004861 0.962325 -0.539316 -0.144025 0.049979 1.262323 0.998084 2.443006 1.464235 2.757598 -0.54278 1.961658 2.722021 0.598959 1.591548 2.1234 -1.961742 0.038742
0.10851 -0.137909 0.137204 0.05177 0.025339 -0.10151 -0.0777 0.117007 -0.06625 0.030891 0.022181 0.088769 -0.003476 -0.115612 0.147725 0.045364 -0.083504 0.093948 0.021266 0.079575 -0.014882 0.005139 0.065359 0.129002 -0.087164 -0.025438 -0.10689 -0.121445 0.089371 0.002959 0.011415 0.031016 -0.150676 -0.056386 5.21E-4 0.094751 -0.076635 -0.014886 0.109174 0.093893 -0.052802 0.036597 0.056697 0.002213 0.070846 -0.233947 0.120023 -0.093508 -0.221889 -0.011528 0.159423 -0.087816 0.030855 -0.022287 0.090293 -0.041024 -0.057341 -0.010845 0.050348 -0.033832 0.052179 -0.096954 -0.070281 0.025521 -0.002212 0.004246 0.086185 0.027107 0.0674 -0.069461 0.094966 -0.066551 -0.059538 0.138164 0.009102 -0.112049 -0.140969 0.043562 0.015783 -0.008317 -0.043233 0.003908 -0.058191 -0.192244 0.020157 0.016629 0.016936 -0.085128 0.110509 0.001529 0.002127 0.093988 0.032075 0.08939 -0.023727 -0.027414 0.072937 0.032673 -0.003542 -0.092209
0.0 0.0 0.0 0.0 0.0 0.0 0.0 0.0 0.0 0.0 0.0 0.0 0.0 0.0 0.0 0.0 0.0 0.0 0.0 0.0 0.0 0.0 0.0 0.0 0.0 0.0 0.0 0.0 0.0 0.0 0.0 0.0 0.0 0.0 0.0 0.0 0.0 0.0 0.0 0.0 0.0 0.0 0.0 0.0 0.0 0.0 0.0 0.0 0.0 0.0 0.0 0.0 0.0 0.0 0.0 0.0 0.0 0.0 0.0 0.0 0.0 0.0 0.0 0.0 0.0 0.0 0.0 0.0 0.0 0.0 0.0 0.0 0.0 0.0 0.0 0.0 0.0 0.0 0.0 0.0 0.0 0.0 0.0 0.0 0.0 0.0 0.0 0.0 0.0 0.0 0.0 0.0 0.0 0.0 0.0 0.0 0.0 0.0 0.0 0.0
-0.032258 -0.018216 0.084218 0.137079 0.07494 0.010693 -0.06759 0.015317 -0.028708 0.011758 0.005003 0.100863 0.024456 -0.119398 0.024284 0.143376 0.075431 -0.069767 0.022475 -0.018492 -0.101328 0.026879 0.074612 0.151187 -0.048297 -0.022602 0.134806 0.103482 0.183131 -0.332765 -0.096346 -0.062758 0.04555 0.174304 0.033256 -0.061823 0.034594 0.059245 -0.028448 0.007123 0.027663 -0.097076 -0.119193 0.071519 0.152655 0.207365 0.133892 0.102038 -0.014352 -0.103142 0.196944 0.020007 -0.022444 0.205441 0.258657 -0.180489 0.017867 -0.180154 -0.005264 -0.139387 0.018772 -0.118449 -0.021569 -0.082867 -0.173894 0.028285 -0.02639 -0.068446 0.009798 0.071408 -0.107288 -0.030864 -0.105211 -0.055785 0.12737 -0.009214 0.164603 -0.008871 -0.06811 -0.033108 -0.154667 -0.033676 0.035083 -0.047649 0.045336 -0.070942 0.006486 -0.008822 0.165403 -0.12703 -0.068671 -0.090951 -0.089883 0.132506 -0.061187 -9.3E-5 0.001586 0.066745 -0.099408 0.075028
0.057851 -0.112333 0.152677 0.015354 -0.072163 0.067285 -0.147876 -0.074365 -0.153253 -0.110171 0.07493 0.063483 0.134801 0.083522 0.220312 0.013096 0.024994 0.10394 0.141498 -0.066545 0.042082 0.149376 0.210837 0.07758 -0.252652 0.020069 -0.068306 0.034 0.17204 -0.161005 -0.014845 -0.111505 0.168575 0.181876 -0.106426 0.071549 -7.12E-4 -0.06867 -0.096267 -0.021019 -0.044712 0.09787 0.049583 -0.169518 0.045439 -0.116576 -0.027082 -0.064112 -0.08411 0.032248 0.075853 -0.121975 -0.009974 0.018067 0.126962 0.235211 -0.085549 -0.143186 0.204696 -0.210897 -0.028384 -0.067682 -0.157452 -0.173626 0.008413 -0.185294 0.058415 -0.07428 0.067995 0.110689 0.035446 0.008946 -0.16012 0.010064 -0.030497 0.00692 -0.073523 -0.101156 0.069196 0.072953 0.030827 0.033325 -0.111168 -0.19431 0.088331 0.078878 -0.02618 0.253541 0.213063 0.143922 0.072956 0.155627 0.020277 0.091011 0.042992 -0.010879 -0.188462 0.022014 -0.070273 0.010734
-0.073843 -0.059589 0.02079 -0.003026 -0.015378 0.129731 -0.092164 -0.128453 0.1896 -0.04828 -0.073998 0.071628 -0.00721 0.119706 0.012321 0.106497 -0.154551 0.003301 0.279209 0.012427 -0.020755 0.182223 -0.205611 0.136663 -0.259656 -0.15838 0.01209 -0.025937 0.125639 -0.005184 6.03E-4 0.04732 -0.115644 0.096034 -0.125977 -0.056277 -0.095195 -0.082141 0.235645 -0.125572 -0.126572 -0.008714 0.101081 -0.073142 -0.126814 -0.137044 -0.11119 0.056072 -0.131195 -0.100049 0.136518 0.023079 -0.131634 0.030597 -0.094821 0.031327 -0.040237 0.159037 0.041189 0.071674 -0.008435 0.011013 -0.028878 -0.082541 -0.010232 -0.003002 -0.090612 0.033738 0.171709 0.052142 -0.022712 -0.031116 0.183779 -0.183957 0.129417 -0.062634 0.021567 -0.052125 -0.040465 0.11769 0.048514 -0.030506 -0.088549 0.068723 0.053593 -0.053114 0.163471 -0.136948 0.102235 -0.013556 -0.046679 -0.016717 0.033372 0.169048 -0.15101 -0.234252 0.192945 0.114441 0.021103 -0.032814
0.0 0.0 0.0 0.0 0.0 0.0 0.0 0.0 0.0 0.0 0.0 0.0 0.0 0.0 0.0 0.0 0.0 0.0 0.0 0.0 0.0 0.0 0.0 0.0 0.0 0.0 0.0 0.0 0.0 0.0 0.0 0.0 0.0 0.0 0.0 0.0 0.0 0.0 0.0 0.0 0.0 0.0 0.0 0.0 0.0 0.0 0.0 0.0 0.0 0.0 0.0 0.0 0.0 0.0 0.0 0.0 0.0 0.0 0.0 0.0 0.0 0.0 0.0 0.0 0.0 0.0 0.0 0.0 0.0 0.0 0.0 0.0 0.0 0.0 0.0 0.0 0.0 0.0 0.0 0.0 0.0 0.0 0.0 0.0 0.0 0.0 0.0 0.0 0.0 0.0 0.0 0.0 0.0 0.0 0.0 0.0 0.0 0.0 0.0 0.0
-0.851698 -2.263876 0.521924 -1.351271 0.198799 -1.078999 2.02674 -1.704353 -0.124474 -0.122478 2.146089 0.763223 1.489824 -1.877703 0.969321 -3.233799 1.080055 0.901786 -3.908927 1.414961 -1.345973 -0.803917 -4.977634 1.196067 -1.582725 1.955624 2.111703 1.320854 1.021375 0.326586 1.955397 -0.777726 -0.984626 -4.870052 1.857092 2.05206 -2.666668 1.538268 -1.698029 -0.159454 -0.311231 -0.299514 1.833908 -1.160975 0.661373 -1.121291 0.745426 0.229305 0.195671 0.561257 0.048986 0.638693 -1.110443 1.856876 -0.810721 -1.198633 -1.130824 2.420377 2.182724 -0.328252 2.735816 -0.626258 -1.907442 2.37984 -0.789126 -3.55233 -1.947494 0.564933 2.235105 -1.819414 -0.269165 -1.239803 -2.058256 2.362463 3.200882 0.592801 0.390384 0.198465 -0.998073 1.009871 1.502268 0.790292 -0.532606 -0.760169 -2.329911 -0.519084 2.221918 0.626699 -3.182074 -2.016915 -1.577538 -1.406021 -0.314161 -0.535305 0.60441 -1.306489 -1.427128 3.139142 -1.168541 0.161466
-0.217622 0.099551 -0.1788 0.148128 0.131541 -0.071998 -0.088706 -0.090213 -0.168853 0.151684 -0.04797 0.203297 0.0948 0.213809 -0.023789 0.042139 -0.078633 0.103449 0.00966 -0.202018 -0.011194 -0.127344 0.024803 0.126006 0.049995 -0.10908 -0.057699 -0.13152 -0.005173 -0.052793 0.151821 0.05043 -0.255439 -0.002872 -0.031667 -0.066219 0.074826 0.071271 0.11909 -0.088312 0.003708 0.038564 -0.001743 -0.010963 -0.007699 -0.029344 0.067294 0.051736 -0.248372 0.193963 0.186096 -0.014138 -0.039565 0.108706 0.102777 -0.19065 0.010801 0.089382 0.022675 -0.007416 0.008789 0.015136 -9.99E-4 -0.123342 -0.014369 0.187522 -0.141317 -0.041627 0.064227 -0.03007 -0.006382 0.177663 0.211161 0.041135 -0.041127 0.030943 -0.155315 -0.143258 -0.091196 0.125358 -0.120306 0.12258 0.039654 -0.05828 -0.018611 0.028777 -0.020865 0.14492 -0.031455 0.071133 -0.037407 -0.156116 0.031923 0.132171 -0.012344 -0.158414 0.054987 -0.121596 0.101989 0.032146
-0.079125 0.165496 0.110897 -0.05513 -0.065724 -0.016421 -0.129675 -0.099214 0.02807 -0.013086 0.098924 0.006428 0.015865 0.019545 -0.032119 -0.00207 -0.045287 -0.050114 0.055247 0.03426 0.233659 0.072283 -0.012443 -0.03855 0.031879 -0.210001 -0.099797 -0.143277 0.004465 -0.144344 0.108815 0.013896 0.093599 -0.034792 0.068236 0.288351 0.068627 0.01563 0.272114 0.010639 -0.007226 -0.080718 -0.127818 -0.11284 -0.050929 -0.118455 0.067435 0.03741 -0.036989 -0.080063 0.041965 -0.124513 -0.086496 0.030034 0.236339 -0.182109 -0.019218 -0.122632 -0.245188 0.10252 0.060751 0.064868 -0.041636 -0.091022 0.104927 0.017689 0.096578 0.10721 0.097177 0.042127 0.07152 -0.005611 0.094549 0.007239 -0.062212 -0.051875 0.108705 0.011637 -0.124956 -0.015681 -0.121867 -0.007958 0.040644 0.024469 0.141174 0.121792 0.197302 -0.088771 0.159092 -0.241288 -0.069209 -0.034296 0.127442 -0.006425 -0.121656 -0.116899 0.054485 0.121344 0.041694 0.048051
0.040639 0.081814 0.04287 0.062167 0.092794 0.114908 -5.3E-4 -0.061893 -0.128806 0.029658 -0.102642 0.050736 0.021353 0.278962 0.156361 -0.045776 -0.059025 0.007615 0.069272 0.03742 0.044666 -0.205296 -0.009373 0.060588 0.130976 -0.007905 -0.098053 0.083234 0.088487 0.073668 -0.063313 0.05638 -0.149995 0.040243 0.139103 0.120814 0.186168 0.077513 0.035539 -0.137722 0.149343 -0.011946 0.157701 0.051791 -0.073664 0.096946 -0.283681 0.058369 -0.065895 0.126711 -0.040991 -0.045914 -0.057224 -0.17697 0.066608 0.102407 -0.15335 -0.00258 -0.222251 -0.069709 -9.96E-4 0.033302 -0.223593 -0.01348 0.109527 0.085455 -0.086426 0.046289 0.047765 0.150103 -0.094972 -0.019492 -0.08396 0.061637 0.042416 0.083935 -0.175169 -0.031524 -0.150901 -0.072843 -0.056665 0.199748 0.160562 -0.070466 0.072887 0.025233 0.011767 0.031496 0.08045 -0.027642 0.037393 0.123465 -0.042501 0.013419 0.046506 -0.08898 -0.024989 -0.132646 0.135167 0.194549
0.10851 -0.137909 0.137204 0.05177 0.025339 -0.10151 -0.0777 0.117007 -0.06625 0.030891 0.022181 0.088769 -0.003476 -0.115612 0.147725 0.045364 -0.083504 0.093948 0.021266 0.079575 -0.014882 0.005139 0.065359 0.129002 -0.087164 -0.025438 -0.10689 -0.121445 0.089371 0.002959 0.011415 0.031016 -0.150676 -0.056386 5.21E-4 0.094751 -0.076635 -0.014886 0.109174 0.093893 -0.052802 0.036597 0.056697 0.002213 0.070846 -0.233947 0.120023 -0.093508 -0.221889 -0.011528 0.159423 -0.087816 0.030855 -0.022287 0.090293 -0.041024 -0.057341 -0.010845 0.050348 -0.033832 0.052179 -0.096954 -0.070281 0.025521 -0.002212 0.004246 0.086185 0.027107 0.0674 -0.069461 0.094966 -0.066551 -0.059538 0.138164 0.009102 -0.112049 -0.140969 0.043562 0.015783 -0.008317 -0.043233 0.003908 -0.058191 -0.192244 0.020157 0.016629 0.016936 -0.085128 0.110509 0.001529 0.002127 0.093988 0.032075 0.08939 -0.023727 -0.027414 0.072937 0.032673 -0.003542 -0.092209
0.0 0.0 0.0 0.0 0.0 0.0 0.0 0.0 0.0 0.0 0.0 0.0 0.0 0.0 0.0 0.0 0.0 0.0 0.0 0.0 0.0 0.0 0.0 0.0 0.0 0.0 0.0 0.0 0.0 0.0 0.0 0.0 0.0 0.0 0.0 0.0 0.0 0.0 0.0 0.0 0.0 0.0 0.0 0.0 0.0 0.0 0.0 0.0 0.0 0.0 0.0 0.0 0.0 0.0 0.0 0.0 0.0 0.0 0.0 0.0 0.0 0.0 0.0 0.0 0.0 0.0 0.0 0.0 0.0 0.0 0.0 0.0 0.0 0.0 0.0 0.0 0.0 0.0 0.0 0.0 0.0 0.0 0.0 0.0 0.0 0.0 0.0 0.0 0.0 0.0 0.0 0.0 0.0 0.0 0.0 0.0 0.0 0.0 0.0 0.0
0.908737 1.260486 0.369672 2.333147 2.429921 2.0421 0.040702 1.654609 0.879203 1.919293 -0.768962 0.003836 -1.338289 0.813395 0.102824 0.942356 2.318105 -1.581746 -1.812996 2.210738 1.735206 -3.452647 -0.894722 -0.019689 0.182852 1.424843 -0.83859 -0.671189 -0.798519 0.344869 1.196939 1.547267 2.881653 2.048093 -0.965959 -0.974364 1.700377 -2.694219 -0.18187 0.382699 -1.904246 1.224983 -1.207804 0.755174 2.329942 -2.809337 1.051861 -3.740076 -3.45616 -0.916009 0.072636 1.392802 1.841648 -1.618542 0.115594 -1.944877 0.688012 -0.463649 0.950538 1.502483 1.579273 1.073844 0.053756 0.602919 3.56743 -0.088036 1.867469 -2.158485 -0.640072 -3.265038 0.406793 1.323485 0.13549 -0.338223 1.772763 -0.323632 1.538733 -1.613102 -1.586129 -2.475495 -3.760771 3.237454 2.349916 0.215409 -0.547594 0.754637 0.902928 0.042095 0.659854 3.640863 -1.062175 -2.667816 0.755506 -1.2805 0.846225 -0.250583 2.195213 4.15003 -0.424023 0.193367
-0.39797 -1.444734 -2.831735 -0.181106 0.442841 2.028593 3.799973 1.379033 1.495462 0.381197 -0.602469 -0.436093 1.332963 0.929789 1.264977 -2.728593 0.61171 -0.13173 -0.65568 -0.797203 -3.02344 -0.025393 -0.049956 -0.787628 -1.388605 0.671142 1.104254 0.350164 -0.347972 3.172999 1.077843 2.010984 -0.206563 -0.785249 -3.669564 1.362548 -0.798299 0.465091 -2.273175 2.328016 -1.045639 0.061911 -0.39135 -0.835669 0.813904 -1.840904 0.424501 -0.657972 -1.271725 0.901115 0.924796 -0.920931 1.468172 2.34397 0.678111 1.731477 -0.244767 1.025694 -1.838128 1.312987 2.167592 -1.895639 -1.013034 0.76775 2.759258 -3.397446 1.412732 -1.735171 -0.277072 0.727481 1.806302 1.362548 0.025965 -0.112251 -1.992257 1.946593 0.861777 0.148871 -0.903384 -1.031749 0.311245 -1.413885 1.067664 -0.730887 1.02412 -0.072747 2.811688 2.535748 -2.157745 -0.164477 -0.73637 0.550253 -1.850437 2.330602 0.226314 -0.669653 -1.266909 1.695759 -0.004841 0.150991
0.17747 -0.220289 0.031353 -0.020959 0.050084 -0.051017 0.014017 -0.017541 -0.064952 0.041734 0.060409 0.00861 -0.120514 -0.044104 0.059365 0.168958 0.002777 0.173153 0.117301 0.123388 -0.100838 -0.074664 0.146404 0.062996 -0.091194 -0.032107 -0.110972 0.01407 0.078054 -0.285259 -0.053148 0.057787 -0.224479 0.074902 -0.097954 -0.023841 -0.038516 0.068986 -0.004296 0.195386 -0.106951 0.202273 -0.051893 0.060664 0.022487 -0.12069 0.006128 0.10992 -0.2191 0.30032 0.143765 -0.143438 0.122935 -0.101103 0.092339 -0.017765 -0.031392 -0.003762 0.19813 -0.044848 0.084127 -0.28034 0.059569 -0.131757 -0.033508 0.075196 0.133322 -0.034654 -0.027193 -0.036623 -0.078591 0.056722 -0.049747 0.10346 -0.202148 0.095829 -0.251867 -0.038727 -0.035482 -0.083671 -0.021972 -0.018875 0.03572 -0.204935 -0.061752 0.090259 0.034288 0.048901 0.183772 -0.166344 0.066346 -0.008524 -0.062297 -0.051929 -0.057081 -0.079366 0.032182 0.049482 0.070099 -0.008295
0.100692 -0.157131 0.139302 0.123578 0.151543 0.178422 -0.012679 -0.103362 0.233611 0.029945 -0.033496 -0.02353 -0.150988 -0.078962 0.230475 0.006161 -0.201667 0.084881 -0.295978 -0.216595 -0.152078 -0.096403 -0.182565 -0.034674 -0.008271 0.123985 -0.225344 0.060741 0.064737 -0.027452 -0.020276 -0.040379 -0.062847 -0.021902 -0.155636 0.098869 0.118253 -0.054786 -0.035252 0.089718 -0.093516 0.108242 -0.165133 -0.010665 -0.002421 -0.171869 -0.111112 -0.041381 -0.044332 -0.069941 -0.02046 0.052983 -0.30701 0.053758 -0.133805 0.122561 8.2E-4 0.037855 -0.034898 0.091687 -0.127096 0.09488 -0.140734 -0.009746 -0.040595 0.12427 0.130515 0.010606 0.177229 0.063676 0.149195 0.026542 -0.108012 0.401386 -0.015993 -0.159563 0.171247 0.017552 -0.091249 -0.185777 0.041517 -0.021989 -0.300138 0.0411 -0.232056 0.111526 -0.051533 0.011578 0.198834 -0.128702 0.184857 -0.029913 -0.123641 -0.092647 0.286203 -0.109599 0.093666 0.015337 -0.091583 0.060957
-0.098579 0.037895 0.029505 0.107919 -0.107165 -0.083915 -0.031971 0.008964 -0.130141 -0.050587 0.058329 0.090001 0.079625 -0.069295 0.132105 0.060159 -0.115757 0.039843 0.107284 -0.020555 -0.114113 0.126382 -0.096111 0.064696 0.018551 -0.043704 -0.095541 0.041784 -0.170711 -0.010632 0.041834 -0.006362 0.099369 0.038952 -0.190162 -0.178289 0.039979 0.071586 0.042588 0.010668 -0.123186 -0.071067 -0.089326 -0.003425 0.102168 -0.126246 -0.017797 -0.115304 0.058733 0.091982 -0.053397 -0.139613 0.111759 0.060072 0.094398 0.057938 0.091488 0.001491 -0.147827 -0.044759 0.183829 -0.004446 0.031331 0.124022 -0.088915 0.059039 0.119729 -0.098853 -0.092187 0.002683 -0.00522 0.076233 0.180656 0.078471 0.04179 -0.029184 0.030042 0.054256 -0.091572 0.022702 0.134871 0.057624 0.01461 -0.096763 -0.110188 -0.067874 0.003368 0.005887 -0.020179 0.003211 0.023744 0.064028 -0.040637 -0.037035 -0.044777 -0.154189 -0.08681 -0.09268 -0.054587 0.067891
0.009865 -0.108776 -0.005598 0.166527 -0.143641 0.090742 0.02741 -0.091958 -0.066164 0.044462 0.25598 0.224979 -0.039704 -0.191177 -0.060361 0.247843 -0.019377 0.118596 -0.022838 -0.144554 -0.102057 0.008502 0.057193 -0.051435 -0.234767 0.187017 0.012984 -0.157159 0.16887 -0.060629 -0.004587 -0.028762 -0.087689 0.255722 0.018986 -0.036885 -0.046209 0.001935 0.018177 0.128328 -0.203005 0.054583 -0.10605 0.047986 0.025944 -0.278394 -0.021704 0.042485 -0.137665 -0.103103 -0.017306 0.071985 0.065712 0.078072 -0.033046 0.094063 0.013427 0.08383 0.184665 -0.107849 0.160272 -0.174836 0.205316 0.008432 -0.00562 0.035308 0.113703 0.020887 0.164345 -0.108534 -0.089833 0.023907 0.182925 0.073619 -0.171143 -0.019821 0.023257 -0.056931 0.110183 0.006365 0.066331 -0.053359 -0.038477 -0.171175 0.313067 -0.021539 0.175138 0.051694 0.211802 -0.078038 -0.050046 -0.073879 0.061652 0.28324 -0.121307 -0.100654 0.123129 0.038072 0.056398 -0.34247
-0.145478 0.02607 0.042373 0.108905 -0.023098 0.066597 0.079398 0.045735 -0.058575 0.014037 0.023321 0.157025 0.102168 0.055741 0.0172 -0.023977 0.128918 0.020002 0.076711 -0.051272 0.079433 0.143267 0.031564 0.051833 0.044812 0.118861 0.103191 0.259286 0.059772 0.089282 -0.013365 -0.146921 0.176252 -0.058272 0.097168 0.071601 -0.009389 -0.147022 -0.091728 -0.028293 -0.010089 0.058024 -0.146158 -0.200037 0.04568 0.040017 0.071486 0.072552 -0.182412 0.094693 0.04818 0.057644 0.116105 -0.005796 0.331614 0.047669 -0.110225 -0.071768 0.083643 0.218617 -0.05945 0.004403 0.105708 0.083056 0.049446 -0.083515 0.219719 0.101856 0.061507 -0.035969 -0.089858 0.016935 -0.047526 -0.131563 -0.065376 0.241458 -0.197067 0.063594 0.10175 -0.026911 -0.030436 -0.072564 -0.148472 0.021765 -0.051381 0.057202 0.287415 0.171066 0.016618 0.153478 -0.041129 -0.295717 0.198646 -0.070807 0.118947 0.035472 -0.038943 0.051422 0.155009 -0.011119
-0.037757 -1.316323 -1.139101 0.764942 -1.62059 0.564671 -0.097922 1.066076 -0.841353 1.499947 -0.364481 -3.169297 0.662585 0.577062 0.164815 -2.3386 2.583928 2.828791 1.105483 0.780024 -1.906846 1.08844 1.55922 -2.252325 0.51803 1.674011 -0.149262 0.450117 1.752449 -1.32712 1.206114 -1.345317 0.784097 -0.302051 -2.182063 -0.455101 -0.90781 -2.312665 -1.212982 -0.575765 -0.247664 0.370618 -2.249834 -2.4655 -1.576437 -1.140976 -1.641728 0.266193 1.075877 0.481188 0.854956 1.195478 0.005881 0.409262 2.183138 0.792564 -0.358921 -0.697542 -0.661971 1.071947 0.055942 -2.64084 1.56259 0.082593 0.437084 -0.611124 2.240158 -0.403045 0.218304 -1.279675 0.833441 1.648559 -1.706344 0.270221 -0.209059 0.709746 2.173016 1.187591 1.244913 0.191605 0.525405 -0.415943 0.56693 0.244331 -0.183147 1.316965 1.778055 1.988501 -1.161363 2.159292 -3.157669 0.048975 1.111669 1.767069 0.208596 -0.556151 -1.110317 -0.215641 0.785435 0.590652
0.135717 -0.065497 0.02281 0.048052 -0.011836 -0.09375 0.0016 -0.035631 -0.026011 -0.016446 0.147576 0.093555 -0.033806 0.001119 0.136647 0.086354 -0.119676 0.293363 0.140583 -0.140273 0.092999 0.105554 0.007309 -0.047042 -0.138044 -0.144529 -0.090671 0.023305 0.042831 -0.089424 -0.009516 -0.050607 -0.11973 0.043476 -0.110033 -0.070775 0.210602 -0.044688 0.047415 0.07877 -0.058849 0.123783 -0.083304 0.146343 -0.016713 -0.014302 -0.083131 -0.029171 -0.052871 0.027786 -0.056479 -0.019677 -0.067362 0.060823 0.051262 -0.094924 0.099503 0.030649 0.106531 -0.086298 0.023543 -0.100214 0.036796 -0.033757 -0.018593 0.054249 -0.041703 -0.048402 0.151764 -0.052203 -0.028287 0.059596 0.03622 0.059919 0.042116 -0.083798 0.077838 -0.039275 -0.10326 -0.058138 -0.047792 -0.041267 0.071076 -0.034964 0.077873 0.115244 -0.016893 -0.059243 0.145701 -0.018047 -0.084552 -0.05323 0.136246 0.034465 0.051731 -0.033088 0.142559 -0.100828 -0.127029 -0.153227
-0.001889 -0.015376 0.011577 -0.079922 0.019615 0.005975 0.018085 -0.133459 0.07886 -0.019014 -0.010821 0.041669 -0.011128 0.097962 -0.060935 0.042309 0.015014 8.49E-4 -0.002449 0.038756 0.0685 -0.030124 0.021652 -0.079703 0.075875 -0.122727 0.144977 0.073106 0.120718 -0.115022 0.047765 0.225363 -0.061747 -0.035103 0.080005 0.064342 -0.011293 0.032618 0.076202 0.118833 0.299047 0.176216 0.148892 -0.105455 -0.022399 0.118571 -0.05437 -0.136016 -0.04767 0.112361 0.012505 0.001737 0.056998 -0.132972 0.205737 0.014869 0.130993 0.242588 0.100312 0.073252 -0.019374 -0.073147 -0.042245 -0.05193 0.119558 0.067972 -0.198268 0.013905 0.103121 -0.09962 -0.010563 -0.219254 -0.117595 0.0375 -0.028297 0.03039 -0.116152 0.021365 0.041774 -0.247365 -0.187561 -0.063496 -0.088808 -0.029223 0.057963 0.069802 -0.07258 -0.052825 0.064478 0.040761 0.149345 0.085248 0.239559 0.137326 -0.140966 0.005439 0.083517 -0.02486 -0.028184 0.111642
0.302939 0.367845 -0.193636 0.183722 0.148999 -0.429842 -0.653551 0.259723 -1.215052 -0.631011 0.310631 -0.400763 -0.759144 0.830715 0.449076 0.734997 0.260842 -0.18123 -0.121371 0.508328 0.690213 0.091855 1.285471 -0.539559 -0.124075 0.543859 -0.255162 0.309748 1.551882 -0.228248 0.353252 0.342963 0.390817 0.159973 0.191786 0.109699 -0.049554 -0.66867 0.2956 0.001251 -0.10601 -0.190786 0.340489 -0.157095 0.210697 -0.566434 -0.003848 -0.656894 0.180914 0.322368 0.769324 0.041881 -0.397057 -0.582796 0.209418 0.715069 0.164212 -0.026663 -0.227951 -0.927275 -0.339269 -0.1063 -0.292091 -0.521014 0.574641 -0.124707 -0.810559 -0.037941 0.048442 0.190895 0.369608 -0.463762 0.174069 0.35424 0.356622 0.115615 -0.077529 -0.537555 -0.405712 -0.411972 -0.20149 -0.097565 -0.306462 -0.18624 0.746551 -0.063348 -0.048079 -0.382091 0.114533 0.690127 0.171609 -0.197596 -0.396348 -0.91268 -0.224073 0.516181 -0.356464 0.771696 -0.802855 -0.300994
-0.144336 0.074372 0.113318 0.085118 -0.148613 0.116197 -0.043826 0.097308 0.028569 0.0599 0.122926 0.129504 -0.202531 -0.024615 -0.184827 0.130076 -0.320919 0.065363 0.003498 0.051718 -0.144357 -0.139014 -0.049753 0.108518 -0.082871 0.171983 0.073164 -0.210686 -0.009667 0.210213 0.060274 0.046079 -0.075353 -0.162488 0.155761 -0.129948 -0.292558 -0.091019 -0.218721 0.241112 -0.031704 0.071499 0.229555 0.017352 -0.080441 0.02619 0.111902 -0.063922 0.15966 0.018002 0.091424 -0.033691 -0.13884 -0.017261 0.032462 0.057671 0.059981 0.008869 0.121346 -0.080853 0.079416 0.001784 0.19468 -0.254343 -0.090097 -0.09996 0.234742 -0.05806 -0.035704 -0.10223 -0.09253 0.014641 0.023658 0.024081 0.087838 0.004814 -0.031244 0.126039 -0.042851 0.057792 0.054989 0.062025 0.114046 -0.024096 0.166209 -0.182425 0.030826 0.162165 0.294079 0.052697 -0.053533 0.047016 -0.011732 0.117571 0.109081 -0.155768 -0.001293 -0.333485 -0.017285 0.020007
0.028812 -0.193874 -0.069568 0.131632 0.050237 0.262048 -0.047718 -0.105232 0.015209 0.090714 -0.072417 0.019536 0.113702 0.057842 0.071468 0.173262 -0.074898 0.254407 0.008235 -0.020778 -0.131273 0.026184 0.102019 -0.061661 -0.065665 -0.133121 -0.007978 0.075843 0.047351 -0.225679 -0.015061 -0.28821 -0.04973 0.175841 -0.010909 -0.119084 0.136613 -0.019625 0.217581 0.036251 0.024136 0.061726 0.10502 0.010018 -0.062541 -0.034684 -0.039222 -0.078534 -0.228461 0.088693 0.169479 -0.080341 -0.156163 0.014456 0.060386 -0.071811 0.113755 -0.200075 0.08294 -0.100734 -0.074062 -0.039789 0.142205 -1.65E-4 -0.009906 -0.097965 -0.030123 -0.008877 0.141071 -0.038744 -0.03783 -0.130836 0.055966 0.043303 0.101372 0.003917 -0.166536 0.004383 -0.112085 0.041792 -0.010952 0.125705 0.004544 -0.081338 -0.047733 0.033946 -0.066874 -0.006354 0.028629 -0.031288 -0.081645 -0.043436 0.022948 -0.061105 0.066518 0.021813 0.00237 0.040275 -0.084011 0.004719
-0.032258 -0.018216 0.084218 0.137079 0.07494 0.010693 -0.06759 0.015317 -0.028708 0.011758 0.005003 0.100863 0.024456 -0.119398 0.024284 0.143376 0.075431 -0.069767 0.022475 -0.018492 -0.101328 0.026879 0.074612 0.151187 -0.048297 -0.022602 0.134806 0.103482 0.183131 -0.332765 -0.096346 -0.062758 0.04555 0.174304 0.033256 -0.061823 0.034594 0.059245 -0.028448 0.007123 0.027663 -0.097076 -0.119193 0.071519 0.152655 0.207365 0.133892 0.102038 -0.014352 -0.103142 0.196944 0.020007 -0.022444 0.205441 0.258657 -0.180489 0.017867 -0.180154 -0.005264 -0.139387 0.018772 -0.118449 -0.021569 -0.082867 -0.173894 0.028285 -0.02639 -0.068446 0.009798 0.071408 -0.107288 -0.030864 -0.105211 -0.055785 0.12737 -0.009214 0.164603 -0.008871 -0.06811 -0.033108 -0.154667 -0.033676 0.035083 -0.047649 0.045336 -0.070942 0.006486 -0.008822 0.165403 -0.12703 -0.068671 -0.090951 -0.089883 0.132506 -0.061187 -9.3E-5 0.001586 0.066745 -0.099408 0.075028
-0.38434 -0.570338 -3.334123 -0.990325 -0.281295 3.633702 1.320934 0.804616 -0.499895 -0.831205 0.460112 1.388349 -2.264975 3.215568 -3.90167 1.353361 -1.448904 -2.546085 -1.024352 -1.734034 -1.344124 0.93203 0.532723 0.23208 -0.507331 0.823317 0.659701 0.36019 1.191168 -0.162178 -0.263719 -1.148898 -0.733443 1.049014 -0.463284 0.424462 1.721949 -2.279087 -0.239497 -3.509027 0.274708 -0.478871 -0.254635 1.092364 -0.333634 -0.504492 -0.065145 -0.538987 0.565458 0.780359 -0.571438 2.952173 0.370658 -0.759209 -2.924849 1.720769 0.511283 1.62778 2.047539 0.727555 2.155394 -1.325505 -0.576841 2.155423 -1.025197 1.359344 -0.744288 -2.504187 -1.775349 1.348846 2.846446 1.640962 1.869469 1.38429 0.797755 -0.790083 2.739745 1.110482 1.051984 -1.114181 2.453474 -0.002451 -1.249565 3.986771 0.736882 -1.32782 1.044597 0.12676 2.039398 0.327395 0.179204 -1.66492 -0.55174 -2.138355 -3.629091 -1.09422 -3.320013 0.282001 -1.758182 -2.017416
-0.073843 -0.059589 0.02079 -0.003026 -0.015378 0.129731 -0.092164 -0.128453 0.1896 -0.04828 -0.073998 0.071628 -0.00721 0.119706 0.012321 0.106497 -0.154551 0.003301 0.279209 0.012427 -0.020755 0.182223 -0.205611 0.136663 -0.259656 -0.15838 0.01209 -0.025937 0.125639 -0.005184 6.03E-4 0.04732 -0.115644 0.096034 -0.125977 -0.056277 -0.095195 -0.082141 0.235645 -0.125572 -0.126572 -0.008714 0.101081 -0.073142 -0.126814 -0.137044 -0.11119 0.056072 -0.131195 -0.100049 0.136518 0.023079 -0.131634 0.030597 -0.094821 0.031327 -0.040237 0.159037 0.041189 0.071674 -0.008435 0.011013 -0.028878 -0.082541 -0.010232 -0.003002 -0.090612 0.033738 0.171709 0.052142 -0.022712 -0.031116 0.183779 -0.183957 0.129417 -0.062634 0.021567 -0.052125 -0.040465 0.11769 0.048514 -0.030506 -0.088549 0.068723 0.053593 -0.053114 0.163471 -0.136948 0.102235 -0.013556 -0.046679 -0.016717 0.033372 0.169048 -0.15101 -0.234252 0.192945 0.114441 0.021103 -0.032814
0.0 0.0 0.0 0.0 0.0 0.0 0.0 0.0 0.0 0.0 0.0 0.0 0.0 0.0 0.0 0.0 0.0 0.0 0.0 0.0 0.0 0.0 0.0 0.0 0.0 0.0 0.0 0.0 0.0 0.0 0.0 0.0 0.0 0.0 0.0 0.0 0.0 0.0 0.0 0.0 0.0 0.0 0.0 0.0 0.0 0.0 0.0 0.0 0.0 0.0 0.0 0.0 0.0 0.0 0.0 0.0 0.0 0.0 0.0 0.0 0.0 0.0 0.0 0.0 0.0 0.0 0.0 0.0 0.0 0.0 0.0 0.0 0.0 0.0 0.0 0.0 0.0 0.0 0.0 0.0 0.0 0.0 0.0 0.0 0.0 0.0 0.0 0.0 0.0 0.0 0.0 0.0 0.0 0.0 0.0 0.0 0.0 0.0 0.0 0.0
0.908737 1.260486 0.369672 2.333147 2.429921 2.0421 0.040702 1.654609 0.879203 1.919293 -0.768962 0.003836 -1.338289 0.813395 0.102824 0.942356 2.318105 -1.581746 -1.812996 2.210738 1.735206 -3.452647 -0.894722 -0.019689 0.182852 1.424843 -0.83859 -0.671189 -0.798519 0.344869 1.196939 1.547267 2.881653 2.048093 -0.965959 -0.974364 1.700377 -2.694219 -0.18187 0.382699 -1.904246 1.224983 -1.207804 0.755174 2.329942 -2.809337 1.051861 -3.740076 -3.45616 -0.916009 0.072636 1.392802 1.841648 -1.618542 0.115594 -1.944877 0.688012 -0.463649 0.950538 1.502483 1.579273 1.073844 0.053756 0.602919 3.56743 -0.088036 1.867469 -2.158485 -0.640072 -3.265038 0.406793 1.323485 0.13549 -0.338223 1.772763 -0.323632 1.538733 -1.613102 -1.586129 -2.475495 -3.760771 3.237454 2.349916 0.215409 -0.547594 0.754637 0.902928 0.042095 0.659854 3.640863 -1.062175 -2.667816 0.755506 -1.2805 0.846225 -0.250583 2.195213 4.15003 -0.424023 0.193367
-0.39797 -1.444734 -2.831735 -0.181106 0.442841 2.028593 3.799973 1.379033 1.495462 0.381197 -0.602469 -0.436093 1.332963 0.929789 1.264977 -2.728593 0.61171 -0.13173 -0.65568 -0.797203 -3.02344 -0.025393 -0.049956 -0.787628 -1.388605 0.671142 1.104254 0.350164 -0.347972 3.172999 1.077843 2.010984 -0.206563 -0.785249 -3.669564 1.362548 -0.798299 0.465091 -2.273175 2.328016 -1.045639 0.061911 -0.39135 -0.835669 0.813904 -1.840904 0.424501 -0.657972 -1.271725 0.901115 0.924796 -0.920931 1.468172 2.34397 0.678111 1.731477 -0.244767 1.025694 -1.838128 1.312987 2.167592 -1.895639 -1.013034 0.76775 2.759258 -3.397446 1.412732 -1.735171 -0.277072 0.727481 1.806302 1.362548 0.025965 -0.112251 -1.992257 1.946593 0.861777 0.148871 -0.903384 -1.031749 0.311245 -1.413885 1.067664 -0.730887 1.02412 -0.072747 2.811688 2.535748 -2.157745 -0.164477 -0.73637 0.550253 -1.850437 2.330602 0.226314 -0.669653 -1.266909 1.695759 -0.004841 0.150991
0.17747 -0.220289 0.031353 -0.020959 0.050084 -0.051017 0.014017 -0.017541 -0.064952 0.041734 0.060409 0.00861 -0.120514 -0.044104 0.059365 0.168958 0.002777 0.173153 0.117301 0.123388 -0.100838 -0.074664 0.146404 0.062996 -0.091194 -0.032107 -0.110972 0.01407 0.078054 -0.285259 -0.053148 0.057787 -0.224479 0.074902 -0.097954 -0.023841 -0.038516 0.068986 -0.004296 0.195386 -0.106951 0.202273 -0.051893 0.060664 0.022487 -0.12069 0.006128 0.10992 -0.2191 0.30032 0.143765 -0.143438 0.122935 -0.101103 0.092339 -0.017765 -0.031392 -0.003762 0.19813 -0.044848 0.084127 -0.28034 0.059569 -0.131757 -0.033508 0.075196 0.133322 -0.034654 -0.027193 -0.036623 -0.078591 0.056722 -0.049747 0.10346 -0.202148 0.095829 -0.251867 -0.038727 -0.035482 -0.083671 -0.021972 -0.018875 0.03572 -0.204935 -0.061752 0.090259 0.034288 0.048901 0.183772 -0.166344 0.066346 -0.008524 -0.062297 -0.051929 -0.057081 -0.079366 0.032182 0.049482 0.070099 -0.008295
-0.123977 -0.187806 0.059232 0.030674 0.14663 -0.07867 -0.149458 0.014287 -0.01939 -0.234636 0.032856 0.034609 -0.023778 0.059317 0.041653 0.219092 0.142722 0.100018 -0.050495 0.022858 0.04178 0.155428 -0.035489 0.185777 -0.151701 -0.062419 -0.034544 0.224779 0.082018 -0.113355 0.15641 0.001839 0.001633 0.045781 0.124025 -0.095196 0.119247 -0.05422 0.116371 0.03772 -0.136938 -0.08634 -0.101418 0.022389 -0.038069 -0.065277 -0.0493 -0.181613 -0.141171 0.15116 0.10473 -0.16423 -0.180438 -0.171753 -0.061134 -0.012839 0.051372 -0.177887 0.08643 -0.183701 0.044272 -0.117582 -0.056631 -0.23366 -0.021778 -0.023846 -0.064118 -0.11033 0.009705 -0.117356 -0.191877 -0.013263 -0.055368 0.04582 -0.03098 -0.070411 -0.153933 0.027833 -0.122288 -0.200859 -1.16E-4 0.107014 0.134832 -0.093276 0.022829 0.049128 -0.047484 -0.031402 0.125273 -0.033669 -0.193364 -0.048449 -0.025923 0.161865 -0.046173 -0.019403 -0.107897 -0.06998 -0.064944 -0.03221
0.12265 0.064346 -0.035767 -0.131981 -0.254046 -0.018383 -0.055587 -0.10433 -0.307608 0.188876 0.123128 0.155073 -0.054565 -0.170629 -0.153042 0.178613 0.158998 -0.129746 -0.09361 0.172725 -0.011243 0.021076 0.307526 0.087993 0.13198 0.020834 -0.070384 -0.016974 -0.15108 -0.129062 0.165461 -0.074792 -0.063073 0.024104 -0.25137 -0.19461 0.055187 -0.095484 -0.287886 0.044909 0.084435 -0.087824 -0.154994 -0.067809 0.062962 -0.293022 0.031904 0.069307 0.093386 -0.106389 0.016863 -0.132685 -0.3338 -0.274269 0.173391 -0.053247 0.055566 -0.177 0.148825 -0.13082 0.152513 -0.182134 -0.125633 -0.197569 0.043728 0.069283 -0.105015 -0.022049 0.140295 0.115797 -0.021467 0.128753 0.265591 0.019313 0.195826 0.226134 0.247457 -0.04134 -0.062141 -0.075173 -0.343441 0.060816 0.159822 -0.115261 -0.130165 -0.158183 0.102378 0.209814 -0.055852 -0.031654 0.244155 -0.039841 -0.093471 0.131378 0.047032 0.003137 0.109691 -0.044997 0.039501 0.334904
0.009865 -0.108776 -0.005598 0.166527 -0.143641 0.090742 0.02741 -0.091958 -0.066164 0.044462 0.25598 0.224979 -0.039704 -0.191177 -0.060361 0.247843 -0.019377 0.118596 -0.022838 -0.144554 -0.102057 0.008502 0.057193 -0.051435 -0.234767 0.187017 0.012984 -0.157159 0.16887 -0.060629 -0.004587 -0.028762 -0.087689 0.255722 0.018986 -0.036885 -0.046209 0.001935 0.018177 0.128328 -0.203005 0.054583 -0.10605 0.047986 0.025944 -0.278394 -0.021704 0.042485 -0.137665 -0.103103 -0.017306 0.071985 0.065712 0.078072 -0.033046 0.094063 0.013427 0.08383 0.184665 -0.107849 0.160272 -0.174836 0.205316 0.008432 -0.00562 0.035308 0.113703 0.020887 0.164345 -0.108534 -0.089833 0.023907 0.182925 0.073619 -0.171143 -0.019821 0.023257 -0.056931 0.110183 0.006365 0.066331 -0.053359 -0.038477 -0.171175 0.313067 -0.021539 0.175138 0.051694 0.211802 -0.078038 -0.050046 -0.073879 0.061652 0.28324 -0.121307 -0.100654 0.123129 0.038072 0.056398 -0.34247
0.081104 -0.078741 -0.071479 0.144282 0.085348 -0.055812 -0.133308 -0.123598 -0.062646 -0.063116 0.225419 0.168918 0.092072 -0.021744 -0.024099 0.296216 -0.161347 0.244024 0.190028 -0.011963 -0.214457 0.060921 0.112461 0.128279 -0.218217 -0.239137 -0.114801 0.037371 0.115855 -0.174781 -0.064358 0.010645 -0.223371 0.05662 -0.164958 -0.273794 0.01962 0.040289 0.147913 0.097098 -0.14874 0.08901 0.126602 0.099799 -0.021957 -0.224278 0.028218 0.13803 -0.30015 0.14974 0.143343 -0.085383 -0.210346 0.137521 0.120889 -0.143036 0.023445 -0.026208 0.029266 -0.082758 0.056946 -4.02E-4 0.13178 -0.123846 -0.123072 -0.142043 0.150369 -0.020764 0.048563 -0.015663 0.158775 0.045719 0.028246 0.037594 0.013385 0.048928 -0.103092 -0.034863 -0.129518 -0.079212 0.12852 0.073781 -0.034257 -0.044662 0.007231 0.246709 -0.071167 0.053704 0.081789 0.030983 -0.104473 -0.145513 -0.135064 0.047824 -0.112887 -0.243543 0.035432 0.073855 -0.054451 0.101571
