-0.043163 -0.023325 -0.002868 -0.033789 -0.088974 0.110443 -0.226321 0.045975 5.49E-4 -0.113345 0.077882 0.105333 0.104106 0.058212 0.167284 0.152175 -0.094547 0.05724 0.131491 -0.009023 -0.107836 0.172876 0.130675 0.047621 -0.260279 -0.121707 0.03441 0.06929 0.042768 -0.044831 0.03688 -0.075769 -0.130155 0.024265 0.007458 -0.188448 5.35E-4 -0.047939 0.12643 -0.004304 -0.054105 -0.038879 0.015605 -0.066426 0.091493 -0.140548 -0.038355 -0.232965 -0.239047 0.168821 0.03931 -0.040835 0.057783 0.13319 0.117682 -0.181186 -0.134013 -0.062949 0.027621 -0.039946 -0.065551 0.013397 0.084147 0.04291 0.06627 -0.111363 -0.102113 0.0969 0.190466 -0.209346 -0.148022 -0.07537 0.024403 -0.059759 0.013631 0.104909 -0.21405 0.004434 -0.068092 0.040767 -0.158787 0.06571 0.125625 -0.09626 -0.180604 -0.058908 0.099681 0.016789 -0.024659 0.026803 0.007862 -0.030119 0.075215 0.116603 -0.084114 -0.073587 0.025443 0.097848 0.025922 -0.074906
-0.165521 0.042976 0.033014 -0.137495 -0.069858 0.072639 0.152055 0.08049 0.165081 0.154921 -0.124362 -0.014908 0.368499 0.036266 0.083932 -0.24608 0.255973 0.036172 0.103737 0.159246 -0.363322 0.134262 0.033907 0.004205 0.063019 0.173968 -0.03251 0.12879 0.168897 0.140014 0.043821 -0.027212 0.0082 -0.028279 -0.088732 -0.045294 -0.030675 -0.221828 -0.210203 0.043706 -0.096411 0.275205 0.196616 -0.195477 -0.072148 -0.286011 0.05241 0.113127 0.258268 0.090601 0.125308 0.269625 -0.077367 -0.023621 0.204667 -0.102748 0.13514 0.301278 -0.143079 0.007682 0.115748 0.067842 0.036148 -0.28372 -0.111816 -0.285043 0.034882 -0.015797 0.083082 -3.92E-4 -0.220631 0.281909 -0.052763 0.034577 -0.106649 -0.17503 -0.064284 0.046242 -0.032489 -0.060259 0.067178 -0.166706 -0.134193 -0.054432 -0.046615 -0.193027 0.014448 0.060996 -0.046457 0.136908 -0.185947 -0.031812 0.117187 -0.086425 7.36E-4 -0.096326 -0.020833 -0.16343 0.102863 0.071425
0.835304 -0.646739 0.102902 0.155556 0.058856 0.061924 -0.078956 -0.267372 -0.341271 0.36641 -0.251416 -0.257148 0.798594 -0.03979 0.940833 -0.555048 -0.895068 -0.226533 -0.296182 -0.633952 -0.147161 0.154155 0.328877 -0.420381 -0.508097 -0.473762 -0.528435 -1.171852 0.090974 0.027816 -0.332683 0.428623 0.526709 0.589542 0.48585 0.75805 -0.046308 -0.042362 0.275326 -0.077253 -0.622048 0.610918 0.439277 -0.530676 0.346791 0.532 -0.434607 0.491486 -0.062396 -0.494553 0.417425 -0.237259 -0.463423 -0.471237 0.447048 -0.158506 -0.109885 -0.007809 -0.191009 -0.291433 -0.254372 -0.636567 0.243629 0.428578 0.702022 -0.610671 0.032556 -0.429094 0.90494 -0.022677 0.54661 -0.129108 0.202707 0.849087 -0.507924 -0.872896 0.133223 0.113342 0.497559 0.381989 -0.044746 0.134219 -0.261168 -0.270954 -0.315285 0.302892 0.63137 -0.337403 0.500444 -0.41706 0.296252 -0.187388 0.776267 0.039209 -0.634109 -0.469127 0.038142 0.29185 0.323758 0.574803
0.084615 -0.100983 -0.077252 -0.00857 -0.083105 -0.043618 -0.168173 -0.228958 0.134112 0.148922 0.168564 0.027701 -0.122347 -0.069962 0.11315 0.183531 0.086816 0.061725 -0.102413 -0.03521 -0.130767 0.035222 0.091802 -0.054623 -0.206202 -0.074205 0.082495 -0.119139 0.00788 -0.117476 0.218571 -0.05222 -0.045963 0.030744 -0.056251 0.132905 -0.156085 0.05777 0.039507 0.185266 -0.058276 0.23157 -0.016314 -0.011284 0.042162 -0.034993 -0.023659 0.063791 -0.161165 -0.045907 0.166117 0.020275 0.185259 -0.006863 -0.055735 -0.153928 0.027132 -0.056313 -0.147567 0.100502 0.098285 -0.092587 0.121226 -0.036776 -0.087609 0.085081 0.02178 0.109595 0.170108 0.044062 -0.125528 0.063558 -0.019402 0.122298 -0.006343 -0.089578 0.049386 0.09104 0.015228 -0.074264 0.112369 0.078687 0.066502 -0.070504 -0.037053 0.082083 0.053061 0.039413 0.013689 0.098915 -0.052518 -0.182716 0.208822 0.128168 0.024007 0.048919 0.150402 0.063116 0.156555 0.015596
0.057851 -0.112333 0.152677 0.015354 -0.072163 0.067285 -0.147876 -0.074365 -0.153253 -0.110171 0.07493 0.063483 0.134801 0.083522 0.220312 0.013096 0.024994 0.10394 0.141498 -0.066545 0.042082 0.149376 0.210837 0.07758 -0.252652 0.020069 -0.068306 0.034 0.17204 -0.161005 -0.014845 -0.111505 0.168575 0.181876 -0.106426 0.071549 -7.12E-4 -0.06867 -0.096267 -0.021019 -0.044712 0.09787 0.049583 -0.169518 0.045439 -0.116576 -0.027082 -0.064112 -0.08411 0.032248 0.075853 -0.121975 -0.009974 0.018067 0.126962 0.235211 -0.085549 -0.143186 0.204696 -0.210897 -0.028384 -0.067682 -0.157452 -0.173626 0.008413 -0.185294 0.058415 -0.07428 0.067995 0.110689 0.035446 0.008946 -0.16012 0.010064 -0.030497 0.00692 -0.073523 -0.101156 0.069196 0.072953 0.030827 0.033325 -0.111168 -0.19431 0.088331 0.078878 -0.02618 0.253541 0.213063 0.143922 0.072956 0.155627 0.020277 0.091011 0.042992 -0.010879 -0.188462 0.022014 -0.070273 0.010734
0.0 0.0 0.0 0.0 0.0 0.0 0.0 0.0 0.0 0.0 0.0 0.0 0.0 0.0 0.0 0.0 0.0 0.0 0.0 0.0 0.0 0.0 0.0 0.0 0.0 0.0 0.0 0.0 0.0 0.0 0.0 0.0 0.0 0.0 0.0 0.0 0.0 0.0 0.0 0.0 0.0 0.0 0.0 0.0 0.0 0.0 0.0 0.0 0.0 0.0 0.0 0.0 0.0 0.0 0.0 0.0 0.0 0.0 0.0 0.0 0.0 0.0 0.0 0.0 0.0 0.0 0.0 0.0 0.0 0.0 0.0 0.0 0.0 0.0 0.0 0.0 0.0 0.0 0.0 0.0 0.0 0.0 0.0 0.0 0.0 0.0 0.0 0.0 0.0 0.0 0.0 0.0 0.0 0.0 0.0 0.0 0.0 0.0 0.0 0.0
3.322062 -0.265634 -0.735154 2.489034 -1.549194 -0.370133 -2.85541 0.499724 -0.172708 -3.397511 0.143702 0.456534 -1.93133 1.644423 -0.23368 -0.12296 0.093273 -1.427844 -0.169109 -0.509316 -0.580429 0.786699 0.175151 -1.03489 0.337075 0.36145 -0.211685 0.21299 2.950213 -1.105234 -0.113019 -0.031153 -0.080691 0.990142 -0.445701 0.665022 0.019549 -1.90728 -0.505327 0.482388 -0.184872 -4.355522 0.03715 -1.044724 2.722995 0.318193 -0.279438 -2.660588 1.186675 -0.192276 1.613599 1.060277 -0.104392 -1.269176 0.756831 2.352934 0.202164 -0.616742 -2.141583 -1.126701 -1.132055 0.456225 -0.316684 1.434659 0.315292 -3.012048 0.10395 0.289529 2.018274 -1.852321 1.148049 -0.519265 -1.203755 1.144202 1.552803 1.064291 -0.586655 -0.588132 1.197221 0.825025 -0.481297 -0.345366 -1.794823 -2.117278 -0.459074 0.815676 0.137778 1.134037 -1.061045 1.852647 -2.738344 0.285432 -1.804952 1.025348 1.028271 1.79492 -2.875999 1.219375 -2.91363 -1.359497
0.0 0.0 0.0 0.0 0.0 0.0 0.0 0.0 0.0 0.0 0.0 0.0 0.0 0.0 0.0 0.0 0.0 0.0 0.0 0.0 0.0 0.0 0.0 0.0 0.0 0.0 0.0 0.0 0.0 0.0 0.0 0.0 0.0 0.0 0.0 0.0 0.0 0.0 0.0 0.0 0.0 0.0 0.0 0.0 0.0 0.0 0.0 0.0 0.0 0.0 0.0 0.0 0.0 0.0 0.0 0.0 0.0 0.0 0.0 0.0 0.0 0.0 0.0 0.0 0.0 0.0 0.0 0.0 0.0 0.0 0.0 0.0 0.0 0.0 0.0 0.0 0.0 0.0 0.0 0.0 0.0 0.0 0.0 0.0 0.0 0.0 0.0 0.0 0.0 0.0 0.0 0.0 0.0 0.0 0.0 0.0 0.0 0.0 0.0 0.0
-0.015649 -0.050324 0.021951 0.096281 -0.07189 -0.068802 -0.216424 -0.099506 -0.031397 0.070278 0.064869 0.155082 0.032315 -1.05E-4 -0.105823 0.219656 -0.131776 -0.020869 0.008622 0.021482 -0.163249 -0.125537 0.128792 0.160983 0.029466 0.038986 0.110505 -0.223479 0.096597 -0.094882 0.151638 0.216472 0.061479 -0.077788 0.071276 0.081067 0.265213 0.073712 -0.093377 0.007784 -0.049255 0.136228 -0.070004 -0.014392 0.059467 -0.267032 0.00813 -8.19E-4 -0.136789 0.18408 0.074518 0.063642 0.014646 0.078664 0.019878 0.143755 -0.098224 -0.135197 -0.051322 -0.114719 0.09055 -0.157802 -0.039861 -0.207446 0.026885 0.188557 -0.025436 0.139087 0.160811 0.038632 0.037505 0.176963 0.168487 0.166443 -0.065695 -3.52E-4 -0.030822 0.013078 -0.022148 -0.049754 -0.029561 0.079974 -2.54E-4 0.182068 -0.069246 -0.060911 -0.059438 0.126422 0.143427 -0.043146 -0.174824 -0.03281 -0.132818 0.083396 -0.108889 -0.059112 0.010673 -0.027338 0.06646 -0.071994
0.15872 -0.10579 0.008011 0.028514 -0.138982 -0.028274 -0.283429 -0.15822 -0.114863 0.240934 0.077219 -0.022855 -0.159727 -0.314794 0.12641 0.120993 0.083021 0.310182 0.10164 -0.2439 -2.12E-4 -0.020895 -0.005215 0.026252 0.099923 0.164531 -0.055348 0.096939 -0.02392 -0.053562 0.155607 0.029832 -0.132016 -0.05488 -0.118771 -0.151956 -0.256334 0.112199 0.077017 0.109035 0.011751 0.067575 -0.148111 0.110086 0.074001 -0.192483 0.14406 -0.145508 -0.237598 -0.164618 -0.021456 0.118542 0.121497 -0.048309 0.238778 -0.172012 -0.056957 0.07321 0.114453 -0.14798 0.149504 0.032904 -0.00657 -0.247385 -0.141109 -0.152406 -0.021217 -0.046616 0.121142 -0.213829 -0.087913 -0.098642 -0.294464 0.192017 0.021589 -0.049311 -0.191991 -0.097732 0.067114 0.074362 0.183316 0.151634 0.243749 0.013782 0.100278 0.047503 -0.050157 0.00357 0.249588 0.18976 -0.142632 0.247456 0.175788 0.128482 0.153196 0.022364 0.149812 -0.02271 0.063712 0.089117
-0.041077 -0.046971 0.12257 -0.040869 -0.082339 -0.073433 0.03466 0.022263 -0.168397 0.066255 -0.011146 0.060876 -0.130089 0.050535 -0.003479 0.17541 -0.041009 0.2033 0.038303 0.064522 -0.164091 0.174974 0.130191 0.049081 -0.108982 -0.050347 0.039878 0.064941 0.03257 -0.228331 0.135591 -0.074348 -0.068179 0.062799 -0.117356 -0.078491 0.00313 0.127379 0.134381 -0.010967 -0.169136 -0.04402 -0.05013 -0.035006 0.013893 -0.04264 0.119254 -0.043959 0.101737 -0.002023 0.164761 -0.065662 -0.184098 -0.07635 -0.095084 -0.099496 -0.014413 0.00761 0.055457 -0.124257 0.108216 0.037334 -0.141402 -0.278608 -0.139197 -0.073526 0.04865 0.094266 0.001292 -0.047586 0.112574 0.007568 -0.055103 0.031144 0.068608 -0.143775 -0.193248 -0.059545 -0.02459 -0.030364 -0.045168 0.243924 0.054219 -0.061257 0.160239 -0.077431 0.171155 0.04903 0.342964 0.041425 -0.042881 0.009159 -0.175121 0.026866 -0.086331 0.118966 0.100929 -0.095159 -0.101371 -0.069956
0.036055 -0.091672 0.070591 -0.083561 -0.060147 -0.108044 -0.117442 -0.093856 -0.135925 0.047813 0.204944 0.106446 0.086305 -0.052912 0.099857 0.133186 0.003063 0.102866 0.117174 -0.0341 -0.109476 0.045345 0.210008 0.158381 -0.096517 -0.261498 0.095121 0.13241 0.176794 0.064439 0.043277 0.02221 -0.08566 0.098445 -0.05943 -0.039396 -0.085156 0.055979 0.197455 0.163305 -0.213438 -0.002923 -0.010747 -0.029881 -0.064531 -0.091298 0.042295 0.038368 -0.107648 6.6E-4 0.144575 -0.08549 -0.261079 -0.05049 0.045964 -0.010371 -0.028598 -0.074556 0.018547 -0.088037 0.178719 -0.213459 0.05996 -0.057269 -0.159645 -0.018275 0.06246 -0.026922 0.061343 -0.058212 -5.5E-5 -0.018345 -0.057027 -0.016119 -0.026888 -0.031948 0.036979 -0.05861 0.024301 -0.031389 -0.125226 0.131511 0.167786 -0.188848 0.028291 -0.038956 -0.096827 0.039341 0.174685 0.125041 -0.153008 0.020542 0.049273 0.04293 0.002824 -0.085652 0.122763 0.035452 0.036301 0.072441
0.143827 -0.109827 0.034065 0.227088 -0.055472 0.197211 -0.263184 -0.105788 0.075174 0.037992 -0.02462 0.234734 -0.026546 -0.058231 0.124374 -0.05098 -0.044082 -0.076087 0.095286 -0.104294 -0.117871 0.037764 -0.128611 0.130376 -0.042743 -0.102692 0.001838 -0.001977 0.176824 -0.065073 0.146438 0.062689 -0.137862 -0.03456 -0.107469 0.048835 -0.033829 0.05883 -0.077667 -0.149738 -0.129411 -0.004244 0.096813 0.032204 0.019195 0.045283 -0.028667 -0.045173 0.146696 0.073569 0.077296 -0.035214 -0.06627 -0.173317 0.139935 -0.063089 -0.135907 0.058288 -0.023565 -0.189732 -0.026764 -0.060015 0.05455 -0.024232 -0.04955 -0.0857 -0.055489 -0.148741 -0.038161 0.081191 0.120172 0.098276 0.142734 -0.018801 -4.69E-4 -0.112375 -0.072463 0.107795 0.062915 -0.170122 0.094813 0.132555 -0.086554 -0.053139 -0.038224 0.136973 -0.133582 0.007514 0.140238 -0.028718 -0.112625 -0.020174 0.069623 0.179129 -0.123251 -0.323619 -0.004731 -0.144719 0.055472 -0.005833
-0.219936 -0.067721 -0.013209 -0.042437 0.04851 0.035264 -0.078125 -0.076667 -0.130761 0.155857 0.112074 0.060985 -0.004626 -0.015667 0.071499 0.061208 -0.026755 0.179012 0.143729 -0.076798 -0.098111 0.035587 0.150621 0.121856 -0.124475 -0.089416 -0.123457 0.074356 0.139182 0.038751 -0.005272 0.073431 -0.100427 0.012423 -0.013406 -0.001636 0.010209 -0.110047 -0.09609 0.127815 -0.068851 0.060821 -0.081765 -0.141657 -0.044266 -0.121606 0.033188 0.085272 -0.113091 -5.96E-4 0.115973 -0.104378 0.07202 -0.015882 0.021182 0.066903 -0.025513 -0.103935 0.05927 -0.067645 -0.109436 -0.005406 -0.03647 -0.030517 -0.005681 0.009377 0.152324 0.153507 -0.042793 -0.17006 -0.023583 0.061818 -0.040371 0.052568 -0.03188 0.088115 -0.095357 -0.016481 -0.012866 0.027737 -0.075782 0.044474 -0.031837 -0.07029 0.081726 -0.042527 0.086457 0.09411 0.192308 0.126992 -0.175601 -0.072075 0.023172 0.195318 0.039686 0.028802 0.013654 -0.023731 0.113933 -0.027616
-0.139317 -0.009371 -0.028151 0.036915 -0.055576 0.090543 -0.147803 -0.03474 -0.105272 0.049397 0.155709 0.06568 0.089065 -0.033869 0.002005 0.042549 0.005229 0.069269 0.044488 -0.182038 0.050676 -0.103826 0.126328 0.058779 -0.025353 0.012265 0.107735 -0.032984 -0.078561 -0.142448 0.16638 -0.081861 -0.176153 0.074434 -0.264439 0.051471 -0.018879 0.027034 0.186741 0.064192 -0.06129 0.130984 0.042491 -0.046865 -0.083863 -0.190235 -0.033406 -0.102875 0.050689 -0.079372 0.034195 -0.055176 0.184386 0.131465 0.239554 -0.013062 0.099503 0.20033 -0.127112 0.039814 0.033354 -0.149997 -0.048429 -0.005611 -0.079003 0.047648 0.035886 0.020768 -0.162132 -0.112492 -0.153627 0.052901 0.103225 0.05405 -0.01579 0.120816 -0.028836 -0.015699 -0.131037 -0.124569 -0.206756 -0.027073 0.146573 0.04428 -0.07035 -0.165261 0.047643 0.142992 -0.04341 0.191941 -0.166515 -0.004217 0.013068 0.060122 -0.112699 -0.030674 0.118752 -0.0864 0.001839 -0.126011
-0.135702 0.043751 0.032804 -0.020579 -0.007829 -0.166115 -0.209789 0.15092 -0.31674 -0.098127 0.394746 -0.233977 -0.119653 -0.267121 -0.316237 0.146744 0.258575 0.018494 -0.094254 -0.132751 -0.139285 0.078783 0.50302 -0.166479 -0.256169 0.076707 0.240777 0.087794 0.038576 -0.07359 -0.191616 -0.280197 0.223269 0.125938 -0.388596 -0.144834 -0.144359 -0.065261 0.194665 0.031892 -0.01527 0.241696 0.019354 -0.146625 -0.063709 -0.12684 0.18214 -0.122061 -0.223381 -0.027591 -0.143376 -0.036763 0.26809 -0.050507 0.033958 0.027746 -0.164085 0.239887 -0.264926 0.173173 -0.134172 -0.098725 -0.345108 0.35419 -0.07085 -0.143731 0.096652 0.015381 -0.102397 -0.543279 -0.023922 0.113767 -0.189926 0.151775 -0.140333 0.305524 -0.136513 0.007718 0.076042 0.296262 0.054803 0.06146 0.333584 -0.377067 0.104402 0.085976 0.184031 0.194269 0.168759 0.256285 -0.161478 -0.011838 0.047137 0.475885 0.347491 -9.69E-4 -0.206781 0.201177 -0.169856 0.264891
0.016313 -0.164527 -0.142471 -0.080689 -0.177254 -0.105356 -0.131054 -0.187753 -0.142989 0.102845 0.029679 0.001591 -0.08344 -0.026991 -0.052939 0.093486 -0.015723 0.095867 -0.015808 -0.06543 0.139916 0.01551 0.259923 0.051253 0.016375 -0.120555 0.111658 -0.120888 -0.085541 -0.140383 0.10185 0.075206 -0.0541 0.265871 -0.131984 0.030197 0.041873 0.016758 0.083466 0.132256 -0.103845 -0.017645 -0.088453 0.072347 -0.195315 -0.128617 0.06663 -0.132645 -0.042209 0.111689 -0.179312 -0.102953 0.056514 -0.053433 0.019583 0.110665 -0.021709 -0.045148 -0.243844 0.046082 0.013448 -0.084846 -0.123639 0.018025 0.076534 -0.018318 0.214709 -0.135104 -0.088227 -0.022157 0.105965 0.017725 0.205839 0.09537 -0.070169 0.146094 -0.146149 0.192206 -0.143199 0.010367 0.122289 -0.122076 0.054865 -0.153687 0.054284 -0.032032 0.139997 0.157859 0.052201 0.237216 -0.092809 -0.060089 0.05439 0.027733 0.170895 0.083322 -0.029835 -0.045614 0.112178 -0.201336
-0.140994 -0.213164 -0.003707 -0.150275 0.072805 0.106098 -0.143233 -0.049627 0.044448 -0.036264 0.188041 -0.064325 0.05105 -0.083352 0.058423 0.139049 -0.012512 0.1395 0.126161 0.124098 0.068192 0.043976 -0.102473 0.123467 -0.159535 -0.184289 0.027515 0.056257 0.003678 -0.045246 -0.122715 -0.074641 -0.064991 0.196756 -0.051245 -0.054032 0.048421 -0.001165 -0.009487 -0.049923 -0.199419 0.237189 0.166849 0.058964 -0.103449 -0.074673 0.039406 0.204778 -0.182466 0.001019 0.077456 0.087829 -0.15192 0.127246 -0.004779 0.055106 0.092189 0.113435 -0.021577 -0.040442 0.097343 0.160621 -0.096717 -0.127932 0.061346 -0.013302 0.188254 -0.019747 0.266527 -0.187155 -0.018775 -8.1E-5 -0.012723 -0.260696 -0.110506 -0.002447 -0.014171 0.160779 -0.194299 -0.120459 0.077372 0.214504 0.098833 -0.129691 -0.033683 0.01977 0.034355 0.075361 0.013598 0.143947 -0.090239 0.034877 -0.061902 0.130934 -0.110224 -0.227134 0.031311 -0.070434 -0.007299 0.058801
0.352905 0.550922 -1.128945 -0.511125 0.774489 1.405335 -0.371647 0.106012 -0.779785 -0.640302 -0.68578 1.570717 -0.712288 -0.706705 -0.789609 -0.045278 -1.599722 -2.840112 -0.089543 -1.158838 -1.862605 -0.62748 -0.063542 -0.468696 0.750564 0.033551 -0.772222 -0.188991 -0.163115 0.455978 0.038455 -0.779588 0.172303 -1.114448 -0.548246 -0.008155 1.66721 -0.744821 -0.15746 -2.668482 -0.304702 -0.905716 0.479063 0.151803 -0.94063 -0.044338 -0.906122 -0.456182 0.281891 0.268287 0.47007 0.628019 0.328428 1.471286 -2.345457 0.072073 -0.345477 -0.998199 -1.496897 -0.053061 0.351206 -0.934426 0.295591 0.07336 0.24092 0.486976 0.390085 -0.621556 0.375246 -0.02625 1.957847 1.014101 0.004675 0.08874 -0.900479 -0.462149 0.922254 1.355385 -1.048724 0.105897 1.254466 0.410718 0.321258 1.066395 -0.171761 -0.128774 0.315556 0.697301 -0.180925 0.555334 1.005586 -0.891677 -1.232923 -1.994189 -0.567812 0.204184 -0.947385 -0.051526 -0.987029 0.725141
-0.138273 -0.077536 0.052176 0.0744 -0.112715 -0.008936 -0.140889 -0.042083 -0.102469 0.185913 -0.101182 0.170739 -0.078938 -0.052385 -0.095548 0.211779 -0.076266 0.155868 -0.021663 0.038031 0.075307 0.059187 0.222935 0.078313 -0.005115 -0.020952 0.116844 0.008517 0.123233 -0.163247 0.076463 -0.017084 3.99E-4 -0.007981 -0.220713 0.055843 0.022238 -0.015995 -0.114069 -0.043132 0.015587 0.016348 -0.093367 -0.028594 0.078175 -0.072798 -0.049328 0.031192 0.147312 0.071563 -0.025372 -0.023884 1.0E-4 0.070963 0.084409 -0.02832 -0.010869 -0.108566 -0.071007 -0.112749 0.194238 -0.063794 0.18052 -0.104802 0.012674 -0.05619 -0.007129 -0.040487 0.136865 0.031441 0.074708 0.147891 -0.005521 0.096694 0.022164 0.04722 -0.089393 -0.100832 -0.04805 0.015697 0.048816 0.208058 0.078405 0.082761 -0.181463 -0.009777 0.086212 0.015165 0.106186 -0.04894 -0.157286 -0.016623 -0.094281 -0.035889 0.132547 -0.031976 0.121759 -0.021536 0.028497 0.022882
0.023642 -0.033418 -0.065368 -0.077237 -0.023131 -0.01666 0.109329 -0.071902 0.062801 0.039845 0.148795 0.022279 -0.033313 0.021808 0.239187 -0.08721 -0.175498 0.029081 -0.040827 -0.029276 -0.086098 -0.15902 -0.033398 0.042278 0.124981 -0.030765 0.028417 0.073894 0.00855 0.035667 0.163449 0.099048 0.038305 0.314216 -0.005392 0.066826 0.260304 -0.189638 0.116148 -0.02674 -0.202298 -0.147073 0.073175 0.053558 0.012863 -0.065298 -0.053548 0.046997 0.014493 -0.044561 0.024142 -0.019223 -0.004661 0.10688 -0.154323 -0.118686 -0.028957 0.035459 0.064979 -0.101714 -0.025905 0.022247 0.012568 -0.044777 0.097248 0.19805 0.003512 0.018858 -0.090285 -0.060881 0.118181 -0.047211 0.105442 -0.116777 0.073733 -0.093917 -0.004179 -0.060928 -0.124383 -0.099921 -0.177899 -0.120009 -0.020528 -0.038147 0.030294 -0.114024 0.168003 -0.110367 0.103009 0.112822 0.19629 -0.164199 -0.072139 0.020273 -0.021859 0.072884 0.002728 0.055319 0.086852 0.084518
0.0 0.0 0.0 0.0 0.0 0.0 0.0 0.0 0.0 0.0 0.0 0.0 0.0 0.0 0.0 0.0 0.0 0.0 0.0 0.0 0.0 0.0 0.0 0.0 0.0 0.0 0.0 0.0 0.0 0.0 0.0 0.0 0.0 0.0 0.0 0.0 0.0 0.0 0.0 0.0 0.0 0.0 0.0 0.0 0.0 0.0 0.0 0.0 0.0 0.0 0.0 0.0 0.0 0.0 0.0 0.0 0.0 0.0 0.0 0.0 0.0 0.0 0.0 0.0 0.0 0.0 0.0 0.0 0.0 0.0 0.0 0.0 0.0 0.0 0.0 0.0 0.0 0.0 0.0 0.0 0.0 0.0 0.0 0.0 0.0 0.0 0.0 0.0 0.0 0.0 0.0 0.0 0.0 0.0 0.0 0.0 0.0 0.0 0.0 0.0
0.352905 0.550922 -1.128945 -0.511125 0.774489 1.405335 -0.371647 0.106012 -0.779785 -0.640302 -0.68578 1.570717 -0.712288 -0.706705 -0.789609 -0.045278 -1.599722 -2.840112 -0.089543 -1.158838 -1.862605 -0.62748 -0.063542 -0.468696 0.750564 0.033551 -0.772222 -0.188991 -0.163115 0.455978 0.038455 -0.779588 0.172303 -1.114448 -0.548246 -0.008155 1.66721 -0.744821 -0.15746 -2.668482 -0.304702 -0.905716 0.479063 0.151803 -0.94063 -0.044338 -0.906122 -0.456182 0.281891 0.268287 0.47007 0.628019 0.328428 1.471286 -2.345457 0.072073 -0.345477 -0.998199 -1.496897 -0.053061 0.351206 -0.934426 0.295591 0.07336 0.24092 0.486976 0.390085 -0.621556 0.375246 -0.02625 1.957847 1.014101 0.004675 0.08874 -0.900479 -0.462149 0.922254 1.355385 -1.048724 0.105897 1.254466 0.410718 0.321258 1.066395 -0.171761 -0.128774 0.315556 0.697301 -0.180925 0.555334 1.005586 -0.891677 -1.232923 -1.994189 -0.567812 0.204184 -0.947385 -0.051526 -0.987029 0.725141
0.0 0.0 0.0 0.0 0.0 0.0 0.0 0.0 0.0 0.0 0.0 0.0 0.0 0.0 0.0 0.0 0.0 0.0 0.0 0.0 0.0 0.0 0.0 0.0 0.0 0.0 0.0 0.0 0.0 0.0 0.0 0.0 0.0 0.0 0.0 0.0 0.0 0.0 0.0 0.0 0.0 0.0 0.0 0.0 0.0 0.0 0.0 0.0 0.0 0.0 0.0 0.0 0.0 0.0 0.0 0.0 0.0 0.0 0.0 0.0 0.0 0.0 0.0 0.0 0.0 0.0 0.0 0.0 0.0 0.0 0.0 0.0 0.0 0.0 0.0 0.0 0.0 0.0 0.0 0.0 0.0 0.0 0.0 0.0 0.0 0.0 0.0 0.0 0.0 0.0 0.0 0.0 0.0 0.0 0.0 0.0 0.0 0.0 0.0 0.0
0.10139 0.068873 0.147976 0.00353 -0.174471 0.024519 -0.033053 -0.047629 -0.064484 0.129612 0.099776 0.047772 0.105331 0.132094 -0.063609 0.05362 -0.159655 0.065383 0.035102 -0.15129 -0.066128 -0.046079 0.038413 -0.059674 -0.056743 0.244685 -0.022607 -0.023572 0.0774 0.015552 0.144645 -0.150664 0.060218 -0.097619 -0.075966 0.176998 0.054409 -0.156015 -0.156475 -5.23E-4 -0.163084 0.127096 0.296095 0.240639 0.09654 -0.027204 0.203911 -0.051081 -0.01348 -0.001566 -0.111833 0.016615 -0.028599 -0.052275 6.18E-4 -0.110646 0.051564 -0.074074 -0.20786 0.02229 -0.125153 0.173984 -0.266842 0.051056 -0.216065 -0.092632 0.025627 -0.119144 0.151285 0.07958 0.083788 0.018087 -0.004724 0.109147 0.004077 0.007569 0.006455 -0.090762 0.14678 0.05137 -0.149194 0.045081 0.150498 -0.312461 -0.011093 -0.094081 -0.003273 -0.136612 0.080192 -0.090731 -0.026167 -0.123585 -0.113893 -0.067016 -0.050181 -0.218802 0.094765 -0.01753 -0.152036 0.009443
0.357307 -0.267067 -0.330443 1.443674 -1.811941 1.456843 -1.897286 0.30091 -1.519621 -3.121542 0.537737 4.639633 -0.342282 0.448352 -2.067859 1.190686 -0.290334 -1.895893 0.174952 -6.821774 -0.962555 -2.952836 1.130416 2.439852 -0.089505 -1.187497 -1.558091 2.151235 -0.588624 -1.852344 -0.904285 -1.090336 2.065849 1.103432 0.969843 1.252023 -1.933199 -0.890722 0.740971 1.27713 -2.239767 0.821539 0.855235 3.8869 2.673979 -1.413302 0.085133 -1.411693 -3.999054 -3.314299 -1.747906 0.562883 -0.400171 -2.935897 -1.460357 -1.618513 5.219 1.207752 -3.637277 -1.287495 -5.478665 -0.585946 0.331974 -1.846729 0.652564 -2.480196 1.748734 -0.9569 -2.746861 3.521045 1.333384 -1.28769 -1.516851 -2.651291 -1.360979 -2.075099 3.211571 -1.188224 0.178605 1.611881 0.177594 2.467363 1.06452 -1.027013 4.00513 -4.700041 1.584191 3.219263 -1.447187 -0.152946 2.991063 -1.91923 3.025061 1.881829 0.31103 4.229571 0.109104 -4.13003 7.443192 3.266112
0.070173 0.039308 0.107688 0.062789 0.15652 0.124082 -0.056432 -0.112537 0.025132 0.140503 0.126967 0.06071 -0.074298 -0.14931 0.052424 0.182899 -0.246843 0.13267 -0.060832 0.014249 -0.124324 -0.021889 0.167993 -0.041896 -0.118065 0.060061 0.024644 0.032088 -0.098378 -0.030464 0.132668 0.111752 -0.096096 -0.07199 -0.297173 -0.090519 -0.107836 -0.01026 -0.033938 0.139789 0.127173 0.008027 -0.077124 0.028844 -0.130697 0.091795 0.126437 -0.176726 -0.119183 0.06901 -0.076019 -0.118921 0.198999 0.162416 0.114462 -0.029789 0.075884 0.002354 0.191814 -0.180285 0.032249 -0.02917 -0.088008 -0.271657 -0.066763 -0.045206 0.183388 -0.151886 -0.047672 0.030697 0.168009 0.04855 -0.083223 0.016797 -0.059652 0.092677 -0.173666 0.089986 0.132784 0.016604 -0.157277 0.026626 9.7E-4 -0.212108 0.094052 0.06787 0.070273 -0.148841 0.03981 0.105973 -0.0732 0.025499 0.047122 -0.076291 -0.093202 -0.17149 0.085148 -0.038776 -0.170445 -0.100314
0.036737 -0.032921 0.024463 0.001525 -0.14953 -0.081921 0.05195 0.033054 0.042371 0.187633 -0.169856 -0.043431 -0.173636 0.224604 -0.099043 -0.052621 -0.094147 -0.087315 -0.205223 0.126826 -0.051988 0.057934 0.007092 0.028646 0.030134 0.006318 0.118765 0.00841 -0.042876 -0.067148 -0.15148 -0.042306 0.047684 0.10077 -0.040846 -0.155266 0.173754 7.38E-4 -0.149543 -0.155015 0.042332 1.9E-5 0.164393 -0.109523 -0.01025 0.019395 0.060378 0.084138 0.12078 -0.042878 0.08194 -0.06976 0.047308 0.056745 0.006819 -0.026824 -0.156007 0.042841 -0.214906 -0.100455 0.001679 0.056153 0.00309 0.056995 -0.027269 0.054063 -0.021361 -0.118937 -0.039109 0.253888 -0.099679 0.068347 0.024916 0.004649 0.026359 0.067277 0.089904 -0.116294 -0.057639 -0.070171 0.238942 -0.101354 -0.104886 -0.195107 -0.268537 -0.124495 -0.010152 -7.27E-4 0.045996 0.182311 -0.129108 -0.070264 -0.013 0.100287 -0.131971 0.14376 -0.073632 0.262197 -0.055353 0.017675
-0.042065 -0.297573 0.105165 0.149657 0.186036 -0.192577 -0.082718 -0.075199 -0.130869 0.306675 0.159511 0.276737 -0.094954 -0.161675 0.184693 0.22265 0.302202 -0.104104 0.144635 0.077524 -0.047818 0.168077 0.175165 -0.129996 -0.217774 0.040122 0.055525 -0.157204 0.255284 -0.173846 -0.242938 0.066936 -0.029032 0.037152 0.250073 -0.129897 -0.217497 -0.201463 -0.059377 0.073442 -0.247231 -0.15454 -0.113632 -0.00297 0.140442 -0.035773 -0.058489 -0.227573 -0.043846 0.046676 0.286239 -0.097723 0.0553 0.154734 0.141221 0.206316 -0.057019 0.045289 0.105617 0.033417 -0.117043 -0.223146 -0.156787 -0.220296 -0.079469 0.011906 0.071178 -0.215048 0.107097 -0.081476 -0.118923 0.077893 0.053697 6.75E-4 -0.031712 -0.132299 -0.247595 -0.103651 0.148808 -0.096705 0.041792 0.06838 0.238168 -0.392135 0.025544 0.129364 -0.04343 -0.014056 0.121047 -0.438729 -0.348926 -0.280873 0.115556 0.084291 0.01777 -0.043217 0.173334 -0.168305 -0.107068 -0.011674
0.086907 -0.131506 0.139674 -0.04117 0.380264 0.056617 0.306648 -0.09318 0.146475 0.130978 0.070514 -0.079385 0.122424 -0.133037 0.193298 -0.019464 0.031829 -0.254492 0.214216 0.236874 -0.07483 -0.109205 -0.075951 0.061352 0.139889 0.19528 -0.114155 0.220009 0.078016 -0.281501 0.187071 -0.002318 -0.014962 0.320968 0.044219 -0.126777 0.019012 -0.096482 0.182838 0.057653 0.183269 0.137193 -0.1396 -0.031069 0.061134 0.020339 -0.122941 -0.025332 -1.02E-4 0.109609 -0.028795 -0.251744 0.01114 -0.031784 -0.184373 -0.038041 -0.159717 0.128919 0.098926 0.068513 -0.153114 0.036273 0.166039 -0.301713 0.082272 -0.089392 -0.17252 0.049843 -0.250541 0.086442 0.220322 0.112848 0.191978 0.013881 0.057074 -0.061004 0.02504 -0.190384 0.1789 -0.17337 -0.196934 -0.129968 0.002266 0.048077 0.072385 -0.004377 0.303968 0.049065 -0.025255 0.014256 -0.059107 0.075701 -0.114667 0.046928 -0.236022 -0.023217 -0.117127 -0.155955 0.009279 0.043627
-0.066077 -0.04614 0.177105 0.014828 -0.224598 0.156356 -0.004028 -0.007531 -0.089205 0.028751 0.048576 0.148986 -0.014054 -0.167094 0.07888 0.286417 0.168158 0.125907 -0.00256 0.072251 -0.180823 0.195891 0.220981 1.61E-4 0.092377 -0.111037 0.037183 0.159373 0.115474 -0.107876 -0.034336 0.054294 0.073709 0.031907 -0.149478 -0.282266 -0.085972 -0.143729 0.088277 -0.091016 -0.101417 -0.193437 -0.068736 0.048832 0.079692 -0.219752 -0.076563 0.028148 0.112467 0.123575 0.054896 -0.144447 0.020002 -0.092077 -0.046204 -0.202982 -0.016351 -0.014284 -0.025389 -0.226911 -0.043733 -0.101362 0.021068 -0.219044 -0.134985 -0.073455 0.151863 -0.081384 0.059907 -0.118205 0.109246 0.06212 0.15729 0.025655 0.039673 -0.308074 -0.010718 0.0628 -0.013453 0.051374 0.110286 0.021042 0.042938 -0.12111 -0.059889 0.071295 0.013045 -0.111699 0.183925 0.143572 -0.171258 0.036566 -0.11123 0.166856 0.044894 -0.061448 0.014747 -0.005242 0.02121 -0.069617
-0.39797 -1.444734 -2.831735 -0.181106 0.442841 2.028593 3.799973 1.379033 1.495462 0.381197 -0.602469 -0.436093 1.332963 0.929789 1.264977 -2.728593 0.61171 -0.13173 -0.65568 -0.797203 -3.02344 -0.025393 -0.049956 -0.787628 -1.388605 0.671142 1.104254 0.350164 -0.347972 3.172999 1.077843 2.010984 -0.206563 -0.785249 -3.669564 1.362548 -0.798299 0.465091 -2.273175 2.328016 -1.045639 0.061911 -0.39135 -0.835669 0.813904 -1.840904 0.424501 -0.657972 -1.271725 0.901115 0.924796 -0.920931 1.468172 2.34397 0.678111 1.731477 -0.244767 1.025694 -1.838128 1.312987 2.167592 -1.895639 -1.013034 0.76775 2.759258 -3.397446 1.412732 -1.735171 -0.277072 0.727481 1.806302 1.362548 0.025965 -0.112251 -1.992257 1.946593 0.861777 0.148871 -0.903384 -1.031749 0.311245 -1.413885 1.067664 -0.730887 1.02412 -0.072747 2.811688 2.535748 -2.157745 -0.164477 -0.73637 0.550253 -1.850437 2.330602 0.226314 -0.669653 -1.266909 1.695759 -0.004841 0.150991
0.170746 -0.172022 -0.538179 -0.067925 0.172985 0.030057 0.245797 -0.095937 -0.161099 0.034808 0.09379 -0.105088 0.0727 0.050054 0.069859 -0.246943 0.005049 0.177189 0.229795 -0.172687 -0.212554 -0.190864 6.9E-4 -0.176168 -0.031311 0.054185 0.066514 0.146911 -0.194209 0.075545 -0.060206 0.07805 0.104878 0.077723 -0.305923 0.053847 0.223457 -0.125256 0.00128 0.125221 -0.066225 0.189058 0.030299 -0.054188 0.018158 -0.253769 -0.131039 -0.008649 -0.07863 0.200577 0.04373 -0.188238 0.129284 -0.056696 -0.009382 0.097627 -0.268672 -0.012055 -0.158322 0.130224 -0.084898 -0.169143 -0.175735 -0.038339 0.05328 -0.013461 0.135916 -0.183076 0.07351 -0.039438 0.326488 -0.135284 -0.195884 0.017057 -0.094017 0.098302 -0.161554 -0.060254 0.067937 -0.05409 -0.167802 -0.184133 0.00266 0.050808 0.34845 0.238628 0.215182 0.181068 -0.221291 -0.151106 0.095088 -0.010846 0.044111 0.176221 -0.266092 -0.044958 0.162689 0.23619 0.095681 0.026971
-0.118568 0.119966 0.116162 0.176312 0.03979 0.015532 0.126661 0.157862 0.297764 0.243904 0.05266 0.125807 0.018781 -0.059403 0.089667 0.076911 -0.276179 -0.184232 0.155934 -0.04783 -0.170488 -0.23796 -0.193273 0.136811 -0.116885 0.051971 0.146972 0.069293 -0.105728 0.041984 0.081035 0.02892 -0.007313 -0.019609 -0.103849 0.21031 0.06801 0.135225 -0.074246 -0.12696 0.100608 0.042202 -0.147024 0.021371 -0.114084 -0.052787 -0.166192 -0.148627 -0.165609 0.051817 0.2038 0.07248 0.132468 0.15045 -0.008228 -0.028751 -0.119328 -0.060512 -0.19302 -0.012606 -0.035081 -0.146926 0.045766 0.102824 -0.15868 -0.052538 -0.195506 -0.016695 0.042163 0.002849 -0.081905 0.06645 0.158825 -0.094623 0.062323 -0.123516 0.148665 -0.003338 0.039431 0.043523 0.097817 -0.117566 0.11102 0.02022 -0.197503 0.044267 0.024836 0.10786 -0.044645 0.030224 -0.015977 -0.266346 0.189246 0.034474 -0.064536 0.050731 0.106386 0.026964 0.063797 0.015515
-0.063705 -0.112366 -0.171847 0.173581 -0.054142 0.006658 0.04897 -0.029086 0.03938 -0.02875 -0.013973 -0.01465 0.0803 0.106175 -0.002963 -0.260838 -0.032879 0.114493 0.115139 0.080714 -0.127239 0.223355 0.056547 0.011039 0.042585 -0.017025 0.07367 0.207531 -0.064129 0.103342 0.023954 -0.089878 -0.092324 0.104712 -0.099792 0.058678 -0.122647 0.058054 -0.117518 -0.179272 0.037034 -0.071643 0.033935 -0.238703 -0.16004 -0.210038 -0.095797 0.102815 -0.097711 0.001488 -0.053935 0.047705 0.136085 -0.054313 0.021263 0.120506 -0.153546 0.147672 -0.104211 0.120862 -0.091836 -0.030286 -0.10046 0.075723 0.120922 -0.042602 0.169559 -0.005159 0.12025 -0.00437 -0.034897 0.074843 0.055009 -0.0224 -0.047444 0.027326 -0.059792 0.18922 0.028985 -0.011413 -0.055963 -0.083687 0.061419 -0.066391 0.080354 0.076563 0.016522 0.12044 -0.2118 0.040155 -0.01631 -0.174316 0.07256 0.105761 0.084492 0.149087 0.139174 -0.063534 -0.023656 -0.049687
0.117168 -0.081261 -0.21121 -0.066731 -0.275521 -0.130438 -0.046803 -0.273643 -0.150722 0.128034 0.022846 0.025637 0.017576 -0.037796 -0.006386 0.181461 0.040128 0.176475 0.001647 0.03528 0.070044 -0.024315 0.215394 -0.130377 -0.154997 0.123641 -0.07993 -0.058194 0.148347 -0.018316 0.156754 -0.072208 0.001166 -0.053391 0.028107 0.083249 0.022714 -0.070362 -0.004466 0.162951 0.050816 0.152059 -0.164474 -0.096015 0.09615 -0.187866 0.132109 -0.009701 -0.10345 -0.013038 -0.027891 0.111158 0.060939 0.107792 0.130701 -0.200889 0.071201 -0.114933 8.7E-5 0.031794 0.016418 -0.117627 -0.056679 -0.001196 0.089719 0.159084 0.137783 -0.070769 -0.035414 0.08029 -0.036544 0.101405 -0.025484 -0.201066 -0.02413 -0.047368 0.018007 -0.073843 0.064688 0.001593 0.200226 -0.006609 0.254566 0.024887 -0.033327 0.160618 -0.001714 0.167928 -0.14361 -0.241829 -0.169614 -0.106336 0.004607 -0.019156 0.065673 0.113677 0.125263 -0.012755 0.004842 0.018239
0.032396 -0.153017 0.013261 0.047099 -0.16096 -0.002847 -0.14501 0.068005 -0.149359 0.076423 0.087914 0.08774 -0.052729 0.078781 0.117473 0.074295 0.151985 0.072683 0.119518 0.122415 -0.135198 0.247231 0.180758 0.015866 -0.113795 -0.127057 -0.071395 0.168229 0.095199 -0.336627 -0.153192 -0.143154 -0.026817 0.033279 -0.138762 -0.11222 0.10966 -0.08999 0.082217 0.118244 -0.209306 -0.145128 0.075727 0.090038 -0.029107 0.029357 -0.046449 0.077719 -0.03284 -0.077257 -0.012984 -0.045672 -0.116 -0.276832 0.093682 -0.058702 0.12833 -0.142148 0.008875 0.083015 -0.016207 -0.124211 -0.089497 -0.070414 -0.053119 -0.049462 -0.046969 0.093573 -0.213675 0.119268 -0.018275 3.93E-4 0.116123 -0.134844 0.078802 -0.103423 -0.118698 -0.023437 0.037259 0.011934 0.026229 -0.010741 0.123861 -0.243128 -0.03501 -0.001409 -0.172359 -0.035735 0.189753 0.012574 -0.164292 0.135864 0.031712 0.210915 -0.032895 0.034045 -0.017284 -0.092774 0.076027 0.134429
2.97341 0.161242 -1.937182 -1.307326 -3.885065 -0.284546 -1.157127 0.42553 -1.013186 1.179272 -0.581091 -0.714868 -2.185194 1.672695 -1.391398 -1.037651 1.196406 -2.96516 -0.635853 -3.383435 0.046986 -1.255821 0.969843 -0.661149 -1.125116 -0.271296 1.83219 0.069772 -1.931542 2.519977 1.957097 -0.48734 0.335359 -1.193278 -2.473198 0.584076 1.73091 -2.272486 -0.290211 1.317563 -0.131725 -1.098918 0.083883 -0.465336 -0.47857 -2.002396 -2.296997 -0.042558 1.734407 1.111065 0.005386 3.166283 1.765083 3.202809 0.709851 1.838176 3.288872 -0.043149 -1.526029 1.78704 1.306553 -0.903646 3.887717 -0.474246 -1.388501 0.249082 1.99624 2.423378 0.733092 0.059142 1.366503 1.41855 -0.576889 0.148283 -1.205447 -1.078957 -0.20798 3.139495 0.219312 0.522817 2.917754 -0.030161 0.04369 1.623771 0.861606 -1.046964 -0.23819 1.808717 -0.735958 -2.214234 -2.038252 -4.211499 -0.994151 0.587211 -0.226849 0.561429 1.510372 -0.871251 -1.918795 -0.350556
-0.131222 -0.100399 -0.049454 -0.121113 -0.249018 -0.043564 0.043219 0.038417 0.084417 0.141995 -0.089339 0.214866 0.038589 0.004133 0.08406 -0.120358 0.010092 -0.050809 0.040181 0.192546 0.034476 -0.077181 -0.072528 -0.022107 0.003043 -0.049438 -0.041036 -0.033874 0.068311 -0.051468 -0.037795 -0.072045 0.111451 0.265496 0.025075 -0.097431 -0.177238 0.068924 0.333045 -0.02652 0.016917 0.316242 -0.251919 -0.097905 -0.001435 0.008732 -0.118823 0.118318 -0.178099 0.104739 0.123761 -0.076571 0.037145 0.059508 0.064858 -0.055 0.102636 -0.301211 0.004389 0.094053 0.119335 -0.056458 0.205499 -0.025947 9.82E-4 0.054909 -0.05994 -0.005196 0.200781 -0.04295 0.032252 0.088151 0.031038 -0.218592 -0.202523 0.181179 -0.053628 0.026347 0.147299 -0.114403 0.122901 0.119476 0.023108 -0.03929 -0.042758 0.149337 -0.085536 -0.019313 0.119813 0.038668 -0.173704 -0.023669 -0.011521 -0.066173 -0.094912 0.036774 0.052971 -0.089448 0.068936 -0.017275
0.120732 0.007504 -0.087567 -0.148377 -0.284252 -0.229504 -0.153718 0.054575 -0.224749 -0.053661 -0.021121 0.069541 0.095698 0.1299 -0.128413 -0.050072 -0.212525 0.05223 0.189025 0.078022 -0.100617 0.014181 0.033801 -0.090486 -0.334917 0.139401 0.014847 -0.065686 -0.054295 -0.173218 0.18932 -0.028443 -0.136003 0.241391 -0.137298 -0.050168 -0.118926 0.052965 -0.049548 0.056551 -0.078486 0.1673 -0.054737 0.188188 -0.045396 -0.073864 0.193246 0.057819 -0.177994 0.075315 -0.218292 -0.01868 -0.070418 0.099649 0.178672 -0.037228 -0.144667 0.07623 -0.038729 -0.139905 -0.030851 -0.063174 0.017224 -0.031452 0.074523 -0.068975 0.018812 0.167371 0.131011 -0.139335 0.14859 0.095278 -0.039755 0.048858 0.129489 -0.139739 -0.056555 0.062567 0.090397 0.015733 -0.038714 -0.021912 -0.057635 -0.108932 -0.01981 0.167866 -0.058528 0.019824 0.121809 0.061079 -0.117042 -0.130948 0.157179 -0.225849 -0.028841 -0.119327 0.058506 -0.115614 -0.190743 -0.062498
-0.11818 -0.094169 0.042134 0.131323 0.074672 -0.125425 -0.092011 0.019884 -0.023005 -0.008001 -0.074767 0.083786 -0.13913 0.004362 -0.115361 0.049278 -0.10314 -0.131012 0.106459 0.224951 -0.090589 -0.004508 -0.036415 0.133216 -0.231771 0.008733 -0.004388 0.060666 0.142764 -0.127191 -0.06321 0.246963 -0.180311 0.113239 -0.217562 0.01539 0.058227 0.047261 0.061581 -0.029267 0.092876 -0.029159 0.126133 0.002777 -0.115069 -0.069715 -0.07497 -0.063853 0.005547 0.09031 0.084357 -0.05437 -0.097253 -0.014346 -0.013414 0.016379 0.038794 0.01144 0.01274 -0.037038 0.049766 -0.162483 0.012544 -0.026886 -0.016851 0.00282 -0.137359 -0.097536 0.123409 0.05091 -0.123812 0.052164 -0.154958 -0.070971 -0.007713 0.055583 0.005327 0.13915 -0.110392 -0.139027 0.074866 0.038362 -0.097107 -0.032957 -0.021029 0.074549 0.068246 -0.04065 0.036656 -0.105409 -0.177827 -0.058489 -0.02558 -0.011362 -0.009015 -0.137861 0.012938 -0.07964 0.08104 -0.036975
-0.094406 -0.139216 0.085681 -0.062096 -0.094878 0.044201 -0.031581 -0.067712 0.076215 0.064504 0.114394 0.02458 0.105273 -0.07048 0.179159 0.149745 -0.040016 0.22155 0.156452 -0.006628 -0.017371 0.099903 0.198594 -0.052623 -0.074707 -0.065496 0.008111 -0.076206 0.131563 -0.139569 -0.049208 0.132898 -0.245712 0.076377 0.012358 -0.071079 -0.243379 0.004088 0.122749 0.190931 -0.044773 0.117755 -0.063711 -0.003411 0.018732 0.099042 -0.021431 0.06732 -0.04953 0.085499 0.120677 -0.147969 0.017857 -0.066396 0.12845 -0.136186 -0.122181 0.066881 -0.03371 -0.038167 0.032677 -0.199192 -0.154716 -0.24415 0.042089 0.018584 0.103344 0.08675 0.14335 -0.177821 -0.19928 -0.104486 -0.002838 0.148692 0.094253 -0.178816 -0.241778 -0.04838 -0.039702 -0.083254 -0.1525 0.132332 0.100286 -0.201796 0.016349 -0.036088 0.04249 0.016579 0.206146 -0.017167 -0.289566 0.075422 -0.034309 0.08303 -0.043005 -0.218297 0.036802 -0.130314 0.244719 -0.007823
0.0 0.0 0.0 0.0 0.0 0.0 0.0 0.0 0.0 0.0 0.0 0.0 0.0 0.0 0.0 0.0 0.0 0.0 0.0 0.0 0.0 0.0 0.0 0.0 0.0 0.0 0.0 0.0 0.0 0.0 0.0 0.0 0.0 0.0 0.0 0.0 0.0 0.0 0.0 0.0 0.0 0.0 0.0 0.0 0.0 0.0 0.0 0.0 0.0 0.0 0.0 0.0 0.0 0.0 0.0 0.0 0.0 0.0 0.0 0.0 0.0 0.0 0.0 0.0 0.0 0.0 0.0 0.0 0.0 0.0 0.0 0.0 0.0 0.0 0.0 0.0 0.0 0.0 0.0 0.0 0.0 0.0 0.0 0.0 0.0 0.0 0.0 0.0 0.0 0.0 0.0 0.0 0.0 0.0 0.0 0.0 0.0 0.0 0.0 0.0
0.051719 0.103287 0.123614 0.039259 0.016027 -0.037434 -0.00395 -0.030171 -0.090101 0.153414 0.123852 0.077088 0.16188 -0.076564 -0.355178 0.255981 -0.020921 -0.231407 -0.091181 -0.028987 -0.004558 -0.241368 0.169447 -0.096649 0.057667 0.113403 -0.149412 0.171051 0.186081 -0.001592 -0.110136 -0.223501 -0.037079 -0.091356 -0.024989 -0.007072 -0.045969 -0.064833 -0.069069 0.146367 0.03555 0.344153 0.248436 0.135483 -0.099956 -0.283471 0.029596 -0.07173 -0.196662 -0.035974 0.087065 0.012438 -0.055019 -0.004364 0.00682 -0.156897 0.027515 -0.159719 0.01997 -0.052474 0.067967 0.071186 0.030888 -0.017215 -0.137955 -0.015569 -0.08343 0.084613 0.189549 0.06002 0.08019 -0.021452 -0.11931 -0.098838 -0.027585 0.045577 -0.128832 -0.15835 -0.100232 -0.03983 -0.032055 0.161507 -0.018657 0.022548 0.11379 -0.035689 0.19622 0.15935 0.013521 0.03178 -0.195925 0.206072 -0.121526 0.074355 0.055346 0.136155 0.027872 -0.015476 -0.090424 0.016225
2.763139 -1.500145 -1.054949 0.108129 -2.441239 2.409272 -0.628655 2.54715 0.077627 -0.447567 0.838375 -0.585443 -4.814465 -0.839256 -0.044537 0.14507 1.902158 -0.088702 1.068148 -1.829617 0.774778 1.827085 -1.33367 -1.018203 -2.298032 0.806193 4.646079 0.435196 -0.767047 2.630828 3.288036 1.184743 -2.818143 -1.28687 -1.55878 1.998231 -2.645496 -1.070538 -0.272486 -0.592495 2.340952 2.298635 -2.254341 0.835384 0.76466 -0.233515 -0.589683 0.660476 -0.292724 0.196121 -1.743456 0.467143 -0.293524 -1.36158 -1.286497 -0.345213 1.68089 -2.735131 0.150425 -1.745792 0.999559 -1.352985 1.809873 0.524243 -0.542897 -0.451405 -0.850107 -0.394458 -1.819923 -1.793292 5.570456 0.433684 0.71208 0.305952 -0.312276 -0.536647 -0.100762 1.983368 1.605956 1.458349 1.519876 3.813322 -1.471682 -0.197783 -0.983431 1.355965 -2.265172 1.588993 -0.126059 0.738662 -0.823898 2.627036 3.975982 -0.745065 -1.519473 0.033927 -2.716809 -1.402747 -0.110809 0.28648
0.177323 0.063388 -0.243816 0.07496 0.039361 -0.041067 -0.13391 -0.035235 0.032993 -0.183193 -0.066452 -0.05193 -0.196903 0.084421 -0.129659 0.027433 0.080897 -0.124963 0.060974 -0.180669 0.08089 -0.138755 -0.015569 0.034695 -0.082998 0.006685 0.119482 0.254894 0.106402 -0.053961 -0.041938 0.063532 -0.083316 -0.195812 0.1857 -0.144881 0.114522 0.064214 0.034732 -0.059542 -0.079346 -0.160812 0.05892 -0.162738 0.225173 -0.247732 0.055358 0.016771 0.141294 0.062866 0.044578 -0.159633 0.008908 -0.097763 -0.076828 -0.059383 0.055006 -0.054209 0.061624 -0.073602 -0.158029 0.284968 -0.01252 -0.18942 0.048451 -0.085144 -0.287816 -0.164475 -0.057728 0.119746 0.05373 -0.239581 0.094961 -0.21023 0.100609 0.196808 0.283281 -0.01613 0.008364 0.00461 -0.239884 -0.092215 0.116236 0.10335 -0.252341 -0.123029 0.023334 0.109427 -0.167518 -0.060581 0.021717 -0.086191 0.060954 0.10029 0.111849 0.158504 -0.097294 -0.008695 -0.225293 0.194164
0.034255 -0.315786 0.094605 0.056831 -0.120542 -0.076697 -0.198856 -0.143043 -0.060388 -0.171834 -0.136771 -0.01829 0.022431 0.029469 0.106562 -0.081481 -0.029346 6.78E-4 -0.036645 0.255753 0.009655 0.009117 0.140755 0.008531 -0.179547 -0.089606 -0.117605 -0.078056 0.212259 -0.084464 0.042812 -0.040242 -0.112115 0.108219 0.080551 0.014924 0.058974 0.005785 -0.07862 0.032381 0.007699 0.020487 0.075502 0.137726 0.068566 -1.22E-4 -0.098891 0.268929 0.007051 0.040448 0.219272 -0.062542 -0.170091 -0.281305 0.307396 0.009126 0.035612 0.018463 -0.184689 0.093185 -0.110932 -0.057309 -0.109614 -0.026843 0.003451 -0.062377 -0.055369 -0.011872 0.127815 0.047397 0.149658 0.033176 0.201941 -0.068312 0.012635 0.021299 0.101746 -0.084304 0.118886 -0.202836 5.4E-4 0.001175 0.083171 -0.072934 -0.119739 -0.209422 0.029927 0.23594 0.055634 -0.128162 -0.130811 -0.148932 0.079795 0.161937 -0.230879 -0.099806 -0.085887 0.064212 -0.00553 -0.048507
0.036737 -0.032921 0.024463 0.001525 -0.14953 -0.081921 0.05195 0.033054 0.042371 0.187633 -0.169856 -0.043431 -0.173636 0.224604 -0.099043 -0.052621 -0.094147 -0.087315 -0.205223 0.126826 -0.051988 0.057934 0.007092 0.028646 0.030134 0.006318 0.118765 0.00841 -0.042876 -0.067148 -0.15148 -0.042306 0.047684 0.10077 -0.040846 -0.155266 0.173754 7.38E-4 -0.149543 -0.155015 0.042332 1.9E-5 0.164393 -0.109523 -0.01025 0.019395 0.060378 0.084138 0.12078 -0.042878 0.08194 -0.06976 0.047308 0.056745 0.006819 -0.026824 -0.156007 0.042841 -0.214906 -0.100455 0.001679 0.056153 0.00309 0.056995 -0.027269 0.054063 -0.021361 -0.118937 -0.039109 0.253888 -0.099679 0.068347 0.024916 0.004649 0.026359 0.067277 0.089904 -0.116294 -0.057639 -0.070171 0.238942 -0.101354 -0.104886 -0.195107 -0.268537 -0.124495 -0.010152 -7.27E-4 0.045996 0.182311 -0.129108 -0.070264 -0.013 0.100287 -0.131971 0.14376 -0.073632 0.262197 -0.055353 0.017675
0.0 0.0 0.0 0.0 0.0 0.0 0.0 0.0 0.0 0.0 0.0 0.0 0.0 0.0 0.0 0.0 0.0 0.0 0.0 0.0 0.0 0.0 0.0 0.0 0.0 0.0 0.0 0.0 0.0 0.0 0.0 0.0 0.0 0.0 0.0 0.0 0.0 0.0 0.0 0.0 0.0 0.0 0.0 0.0 0.0 0.0 0.0 0.0 0.0 0.0 0.0 0.0 0.0 0.0 0.0 0.0 0.0 0.0 0.0 0.0 0.0 0.0 0.0 0.0 0.0 0.0 0.0 0.0 0.0 0.0 0.0 0.0 0.0 0.0 0.0 0.0 0.0 0.0 0.0 0.0 0.0 0.0 0.0 0.0 0.0 0.0 0.0 0.0 0.0 0.0 0.0 0.0 0.0 0.0 0.0 0.0 0.0 0.0 0.0 0.0
-0.019706 -0.145242 -0.122787 -0.025671 0.145106 0.031524 -0.275041 -0.0709 -0.006053 0.073354 0.286241 0.343709 -0.212871 -0.07867 -0.045261 0.186722 0.170896 0.305223 0.354803 0.088141 -0.030515 0.042086 0.02879 0.169761 -0.133984 -0.226611 -0.123985 -0.004098 0.120111 -0.147155 -0.048636 -0.263586 -0.069398 0.071883 -0.039912 -0.213113 -0.020763 -0.006976 0.062398 0.013356 -0.004257 0.519273 -0.017954 0.199207 0.073616 -0.144031 -0.001655 -0.206376 -0.227646 -0.059971 -0.058292 -0.020765 -0.065085 -0.023748 0.090468 -0.073725 0.069063 0.114197 -0.326625 -0.26851 0.198798 -0.297594 -0.044988 -0.148157 -0.043126 -0.157496 0.180401 0.117417 0.023881 -0.20358 0.03505 -0.016076 -0.212179 0.099587 -0.052272 -0.092711 -0.058712 -0.012781 -0.036761 -0.098762 -0.078315 0.067382 0.034245 -0.093544 0.132454 -0.083435 0.121453 -0.149926 0.285521 0.124799 0.05276 0.04325 -0.05441 0.059682 -0.139771 0.157769 0.166039 0.23828 -0.0291 -0.129086
-0.015649 -0.050324 0.021951 0.096281 -0.07189 -0.068802 -0.216424 -0.099506 -0.031397 0.070278 0.064869 0.155082 0.032315 -1.05E-4 -0.105823 0.219656 -0.131776 -0.020869 0.008622 0.021482 -0.163249 -0.125537 0.128792 0.160983 0.029466 0.038986 0.110505 -0.223479 0.096597 -0.094882 0.151638 0.216472 0.061479 -0.077788 0.071276 0.081067 0.265213 0.073712 -0.093377 0.007784 -0.049255 0.136228 -0.070004 -0.014392 0.059467 -0.267032 0.00813 -8.19E-4 -0.136789 0.18408 0.074518 0.063642 0.014646 0.078664 0.019878 0.143755 -0.098224 -0.135197 -0.051322 -0.114719 0.09055 -0.157802 -0.039861 -0.207446 0.026885 0.188557 -0.025436 0.139087 0.160811 0.038632 0.037505 0.176963 0.168487 0.166443 -0.065695 -3.52E-4 -0.030822 0.013078 -0.022148 -0.049754 -0.029561 0.079974 -2.54E-4 0.182068 -0.069246 -0.060911 -0.059438 0.126422 0.143427 -0.043146 -0.174824 -0.03281 -0.132818 0.083396 -0.108889 -0.059112 0.010673 -0.027338 0.06646 -0.071994
-0.052316 -0.010874 -0.110556 0.00761 -0.305608 -0.168388 -0.067985 0.067928 -0.11633 0.116767 0.082966 0.128998 0.055875 -0.050558 -0.231306 0.132047 0.008822 0.229249 0.235053 0.180677 0.089126 0.038358 0.218923 -0.076274 -0.160313 -0.134362 0.257909 -0.004486 0.015689 0.041699 -0.156837 -0.058499 -0.102052 0.021954 -0.323938 0.148117 -0.230356 0.070977 0.157232 0.406969 -0.176168 0.295276 -0.061948 -0.199719 -0.013855 -0.116008 -0.010582 -0.316024 -0.137891 0.212461 0.037281 0.017018 -0.05251 -0.071648 -0.047067 -0.075397 0.21816 0.094134 0.090221 -0.054548 0.289513 -0.206986 -0.082197 -0.074851 -0.12378 -0.00679 0.095559 0.138556 -0.049307 -0.006431 -0.153405 0.228194 0.093411 -0.093004 -0.090987 -0.227182 -0.090376 0.178823 -0.307699 0.156209 0.109496 0.181571 0.168119 -0.077942 0.02624 0.106067 0.138495 0.197374 0.151756 0.023627 -0.124131 -0.337787 -0.038309 -0.165141 -0.072844 -0.267909 0.141759 -0.170707 -0.187173 -0.020178
-0.38434 -0.570338 -3.334123 -0.990325 -0.281295 3.633702 1.320934 0.804616 -0.499895 -0.831205 0.460112 1.388349 -2.264975 3.215568 -3.90167 1.353361 -1.448904 -2.546085 -1.024352 -1.734034 -1.344124 0.93203 0.532723 0.23208 -0.507331 0.823317 0.659701 0.36019 1.191168 -0.162178 -0.263719 -1.148898 -0.733443 1.049014 -0.463284 0.424462 1.721949 -2.279087 -0.239497 -3.509027 0.274708 -0.478871 -0.254635 1.092364 -0.333634 -0.504492 -0.065145 -0.538987 0.565458 0.780359 -0.571438 2.952173 0.370658 -0.759209 -2.924849 1.720769 0.511283 1.62778 2.047539 0.727555 2.155394 -1.325505 -0.576841 2.155423 -1.025197 1.359344 -0.744288 -2.504187 -1.775349 1.348846 2.846446 1.640962 1.869469 1.38429 0.797755 -0.790083 2.739745 1.110482 1.051984 -1.114181 2.453474 -0.002451 -1.249565 3.986771 0.736882 -1.32782 1.044597 0.12676 2.039398 0.327395 0.179204 -1.66492 -0.55174 -2.138355 -3.629091 -1.09422 -3.320013 0.282001 -1.758182 -2.017416
0.0 0.0 0.0 0.0 0.0 0.0 0.0 0.0 0.0 0.0 0.0 0.0 0.0 0.0 0.0 0.0 0.0 0.0 0.0 0.0 0.0 0.0 0.0 0.0 0.0 0.0 0.0 0.0 0.0 0.0 0.0 0.0 0.0 0.0 0.0 0.0 0.0 0.0 0.0 0.0 0.0 0.0 0.0 0.0 0.0 0.0 0.0 0.0 0.0 0.0 0.0 0.0 0.0 0.0 0.0 0.0 0.0 0.0 0.0 0.0 0.0 0.0 0.0 0.0 0.0 0.0 0.0 0.0 0.0 0.0 0.0 0.0 0.0 0.0 0.0 0.0 0.0 0.0 0.0 0.0 0.0 0.0 0.0 0.0 0.0 0.0 0.0 0.0 0.0 0.0 0.0 0.0 0.0 0.0 0.0 0.0 0.0 0.0 0.0 0.0
0.123314 0.024232 0.067758 -0.019176 0.04035 0.102721 0.022867 0.004876 -0.130388 -0.025998 -0.111174 -0.099004 0.08676 0.050864 -0.09914 -0.024014 -0.171609 -0.023554 -0.121212 -0.180475 0.179989 0.036153 -0.154862 -0.046345 0.094379 -0.14447 -0.041587 -0.048431 -0.136792 0.120946 0.186365 -0.07131 -0.07154 -0.104935 0.223496 -0.046738 -0.060067 -0.130754 -0.062099 -0.018454 0.144663 0.005022 0.142013 0.055336 -0.079464 0.134955 -0.01171 0.012333 -0.042385 0.102204 0.067493 0.045559 0.08181 -0.037308 -0.105499 0.04795 0.127704 0.287375 0.072091 0.04644 0.063593 0.228401 -0.07889 -0.03959 0.122115 0.054482 0.084107 0.013265 0.011559 -0.014696 0.109437 0.025601 -0.204002 0.310683 0.003437 0.019704 0.139319 0.086808 -0.081497 -0.018019 -0.014725 -0.169411 -0.017058 0.108817 -0.009525 -0.201578 -0.092985 0.072472 0.005488 0.045185 0.12776 0.042456 -0.19091 0.059921 -0.111423 0.013748 -0.096482 0.111096 0.034894 -0.026429
1.166535 0.571929 -2.296376 2.672156 -0.836627 -0.08581 -1.487717 0.680374 -1.051267 1.860963 -0.259307 -0.30104 -0.791023 3.516942 -3.423764 -1.714332 1.810032 0.385578 -0.596675 -0.336783 -0.307858 1.439698 3.283819 1.759804 -1.324751 3.053141 1.546661 -0.869133 -0.988947 -2.841006 -0.807501 0.71782 1.020934 -2.112568 -3.849263 -0.088448 -0.204372 0.604028 -2.055051 -0.926484 2.240313 0.079563 1.47677 -1.077266 2.965209 -1.837141 -0.07257 0.520574 2.179644 1.024933 -3.643406 1.180127 0.780232 2.966327 1.259519 -1.287425 1.510162 -2.776232 -1.020438 -2.465755 2.42826 -1.10543 1.35111 -0.106856 0.198081 -0.329907 0.006786 -1.935482 -0.023294 -0.879974 -0.607877 1.109545 2.518159 1.083583 0.067156 -1.138621 -2.607427 1.556449 0.183065 4.80035 -0.619828 0.54766 3.136885 4.279558 1.376504 -1.614635 3.284498 2.685056 0.304438 4.452716 -1.6901 -1.877963 1.03142 -2.114648 2.29784 0.653892 0.564788 1.18588 0.542849 1.578378
-0.150701 -0.132318 0.035536 -0.0229 0.011443 0.04804 -0.051146 0.059675 -0.151172 0.128609 0.082578 0.126801 0.001647 -0.146088 0.101505 0.099578 -0.032955 0.093689 0.077318 -0.031314 -0.036093 0.052276 0.123286 0.020646 -0.174718 -0.13348 0.007449 -0.147572 0.110774 0.008646 -0.017131 0.072664 -0.017199 -0.023759 -0.01075 -0.022553 -0.063979 0.038061 -5.22E-4 0.082707 -0.141665 0.133876 0.097817 0.09266 -0.075907 -0.069755 0.082304 0.087292 -0.06649 0.199805 0.042843 -0.014884 0.069305 0.028143 0.03378 -0.129355 -0.11846 -0.049161 0.066717 -0.025683 0.108611 -0.071938 -0.073119 -0.120443 -0.130332 0.026296 0.101211 0.115797 -0.024055 -0.087907 -0.040455 0.098306 0.02676 0.10984 0.116868 -0.209981 -0.18694 -0.004194 0.044355 -0.031957 -0.007749 0.169273 0.230922 -0.197795 -0.094506 0.098362 0.146297 -0.031295 -0.035825 0.132042 -0.08704 -0.044716 0.083213 -0.029115 -0.114575 -0.146811 0.131034 0.001517 0.008564 0.008438
-0.063705 -0.112366 -0.171847 0.173581 -0.054142 0.006658 0.04897 -0.029086 0.03938 -0.02875 -0.013973 -0.01465 0.0803 0.106175 -0.002963 -0.260838 -0.032879 0.114493 0.115139 0.080714 -0.127239 0.223355 0.056547 0.011039 0.042585 -0.017025 0.07367 0.207531 -0.064129 0.103342 0.023954 -0.089878 -0.092324 0.104712 -0.099792 0.058678 -0.122647 0.058054 -0.117518 -0.179272 0.037034 -0.071643 0.033935 -0.238703 -0.16004 -0.210038 -0.095797 0.102815 -0.097711 0.001488 -0.053935 0.047705 0.136085 -0.054313 0.021263 0.120506 -0.153546 0.147672 -0.104211 0.120862 -0.091836 -0.030286 -0.10046 0.075723 0.120922 -0.042602 0.169559 -0.005159 0.12025 -0.00437 -0.034897 0.074843 0.055009 -0.0224 -0.047444 0.027326 -0.059792 0.18922 0.028985 -0.011413 -0.055963 -0.083687 0.061419 -0.066391 0.080354 0.076563 0.016522 0.12044 -0.2118 0.040155 -0.01631 -0.174316 0.07256 0.105761 0.084492 0.149087 0.139174 -0.063534 -0.023656 -0.049687
-0.092351 -0.173013 -0.032869 -0.038189 0.122192 0.006959 -0.142324 -0.045749 -0.108781 0.079775 -0.132822 0.03523 0.058409 -0.050747 0.001907 0.066887 -0.052127 0.146395 0.074415 0.0076 -0.049304 0.099023 -0.001073 -0.00878 -0.07091 -0.016524 0.003075 -0.107091 0.095644 -0.007831 -0.178653 0.116991 -0.038439 0.027296 -0.129197 -0.048673 0.034912 0.054593 -0.024628 0.012573 -0.060962 0.079158 -0.012837 0.032858 0.001399 -0.096472 -0.087989 -0.021512 0.002318 -0.08542 -0.055582 0.06 -0.21468 -0.034412 -0.099734 -0.068742 0.071624 7.95E-4 -0.087185 -0.004417 0.15253 -0.09917 -0.147895 0.046097 -0.034833 -0.031938 0.134635 -0.081613 0.029506 -0.107655 -0.051716 0.036055 0.131919 0.163739 -0.040631 -0.015642 -0.068312 0.116802 -0.069749 -0.073149 0.092341 0.054418 0.094002 0.013123 0.050109 0.011936 0.016822 0.116827 0.130858 -0.041897 -0.103899 -0.069382 0.002978 -0.017898 0.081442 -0.175905 -0.025969 -0.013056 0.053732 -0.045794
0.070173 0.039308 0.107688 0.062789 0.15652 0.124082 -0.056432 -0.112537 0.025132 0.140503 0.126967 0.06071 -0.074298 -0.14931 0.052424 0.182899 -0.246843 0.13267 -0.060832 0.014249 -0.124324 -0.021889 0.167993 -0.041896 -0.118065 0.060061 0.024644 0.032088 -0.098378 -0.030464 0.132668 0.111752 -0.096096 -0.07199 -0.297173 -0.090519 -0.107836 -0.01026 -0.033938 0.139789 0.127173 0.008027 -0.077124 0.028844 -0.130697 0.091795 0.126437 -0.176726 -0.119183 0.06901 -0.076019 -0.118921 0.198999 0.162416 0.114462 -0.029789 0.075884 0.002354 0.191814 -0.180285 0.032249 -0.02917 -0.088008 -0.271657 -0.066763 -0.045206 0.183388 -0.151886 -0.047672 0.030697 0.168009 0.04855 -0.083223 0.016797 -0.059652 0.092677 -0.173666 0.089986 0.132784 0.016604 -0.157277 0.026626 9.7E-4 -0.212108 0.094052 0.06787 0.070273 -0.148841 0.03981 0.105973 -0.0732 0.025499 0.047122 -0.076291 -0.093202 -0.17149 0.085148 -0.038776 -0.170445 -0.100314
0.046317 -0.126587 0.012402 -0.066172 0.027254 0.093576 -0.222609 -0.065358 -0.113748 -0.259466 -0.157675 0.037755 0.266226 -0.162299 0.251941 0.246803 -0.043585 0.064018 0.134054 0.010222 -0.143391 0.205045 0.233797 0.117791 0.038659 -0.147336 0.090193 -0.203958 -0.016817 -0.073951 0.17975 0.122182 -0.1301 0.052488 -0.010771 -0.025002 -0.169101 -0.163732 0.102285 0.055056 0.002871 -0.153623 -0.059696 -0.036032 -0.108146 -0.018691 -0.114115 -0.147537 -0.113774 -0.028408 -0.106675 0.131275 0.052853 0.053166 -8.55E-4 0.073538 -0.115328 -0.135904 0.063095 -0.314444 -0.177854 -0.178155 0.127779 0.088498 0.109182 -0.074583 -0.060579 -0.047029 0.148082 -0.151252 0.188553 0.067389 0.140206 0.034924 -0.080207 0.026484 -0.152232 0.111596 0.138806 0.142344 -0.011098 0.049222 0.026639 -0.13757 -0.201469 0.013166 -0.157507 -0.009697 -0.09299 0.205978 -0.285651 0.112889 0.026141 0.150867 0.142022 -0.214194 -0.108088 -0.04006 -0.038756 -0.363712
-0.038626 0.039445 -0.026789 -0.179215 0.132791 0.006032 0.018645 0.095015 0.114287 -0.020689 -0.046721 0.075712 -0.004447 0.03578 0.249641 -0.038765 -0.135991 0.154525 0.296704 0.166314 -0.066031 -0.072977 0.181304 0.010852 0.073719 -0.112435 0.072673 -0.133779 0.104124 -0.036222 8.73E-4 -0.023392 -0.03544 0.078565 -0.167642 -0.03292 0.166525 0.05627 -0.165715 0.211041 -0.014734 0.057737 0.03826 0.118253 -0.033206 -0.032742 -0.108513 0.05169 -0.04313 0.09378 0.060891 0.015419 -0.245636 0.084133 -0.300616 0.038352 -0.067725 -0.036052 0.004653 0.004813 -0.075828 -0.076097 -0.026635 -0.123079 0.095858 0.196873 0.126273 -0.005125 0.138118 -0.039099 -0.120491 0.001509 0.19482 -0.103971 0.125492 0.155083 -0.062518 -0.150541 -0.139808 -0.052223 -0.269784 -0.017276 0.0108 -0.081076 -0.078294 0.112235 0.160014 0.1652 0.064887 0.110933 -0.204737 -0.180643 -0.061101 -0.032471 -0.17622 -0.121352 0.012358 0.062652 0.007143 -0.199798
0.0 0.0 0.0 0.0 0.0 0.0 0.0 0.0 0.0 0.0 0.0 0.0 0.0 0.0 0.0 0.0 0.0 0.0 0.0 0.0 0.0 0.0 0.0 0.0 0.0 0.0 0.0 0.0 0.0 0.0 0.0 0.0 0.0 0.0 0.0 0.0 0.0 0.0 0.0 0.0 0.0 0.0 0.0 0.0 0.0 0.0 0.0 0.0 0.0 0.0 0.0 0.0 0.0 0.0 0.0 0.0 0.0 0.0 0.0 0.0 0.0 0.0 0.0 0.0 0.0 0.0 0.0 0.0 0.0 0.0 0.0 0.0 0.0 0.0 0.0 0.0 0.0 0.0 0.0 0.0 0.0 0.0 0.0 0.0 0.0 0.0 0.0 0.0 0.0 0.0 0.0 0.0 0.0 0.0 0.0 0.0 0.0 0.0 0.0 0.0
0.039107 -0.02067 -0.10249 -0.024722 -0.063253 0.032916 -0.009982 0.08429 0.031646 0.103876 0.034398 0.092607 0.069173 0.12231 0.103 0.141929 -0.076041 0.117716 -0.001814 0.072521 -0.014655 0.077546 0.174733 0.066339 -0.03128 0.036747 -0.075198 0.10743 0.072084 -0.168768 -0.077598 0.057002 -0.334998 -0.024934 -0.04279 -0.09146 -0.035409 -0.065419 -0.123414 0.062626 0.058385 -0.073858 0.211725 -0.116346 -0.04965 -0.0644 -0.092243 0.024931 0.052204 0.045777 0.045302 -0.053679 -0.050616 0.055598 0.067058 -0.169554 0.080851 5.71E-4 0.066465 -0.022915 0.053478 -0.042859 -0.127706 -0.067637 0.114882 0.027241 0.079241 0.091277 0.176538 -0.034113 0.243043 -0.008071 0.126823 0.046193 -0.042251 -0.106003 -0.090478 1.19E-4 -0.120651 -0.054555 0.061744 0.216144 0.136283 -0.187366 0.100585 0.127902 0.104169 -7.8E-5 0.126204 -0.044382 -0.237683 0.023769 0.005389 0.244522 -0.066904 -0.121136 0.084758 0.058368 0.101701 0.004039
-0.046453 -0.114089 0.048378 0.039697 0.205342 -0.134425 0.195579 -0.187425 0.012362 -0.056148 -0.131226 -0.036605 -0.166618 -0.005606 0.011423 -0.035289 0.073024 0.049955 -0.03056 -0.116564 -4.0E-4 0.248965 0.168589 -0.016666 -0.127127 -3.18E-4 0.127741 -0.107854 0.05539 -0.111124 -0.041902 -0.11626 0.086201 0.191946 -0.031307 -0.026238 0.135582 -0.138117 -0.118683 -0.205278 -0.118941 0.075416 -0.021621 -0.074612 0.105553 0.141257 -0.097239 0.031083 -0.191864 0.157126 0.157338 0.018714 -0.190255 -0.078835 0.160698 0.051121 -0.022634 0.282011 -0.210636 0.065967 0.011387 -0.10215 -0.014587 8.06E-4 -0.126806 0.10146 -0.051249 -0.166886 0.138311 -0.092453 -0.203714 0.163209 0.126385 -0.163049 0.060969 -0.136489 -0.119169 0.143901 -0.166778 -0.074124 -0.205023 0.138254 -0.069697 -0.023512 0.056226 -0.151985 0.057434 -0.163405 0.084998 0.19969 0.169875 -0.038445 0.015784 -0.127481 -0.113888 -0.245198 0.065981 0.165014 0.001608 -0.042748
0.379933 -0.215157 -0.042934 -0.053589 -0.260142 -0.010638 -0.025616 -0.251936 -0.043911 0.07316 0.216253 -0.099595 0.09566 0.145202 0.023355 0.049386 -0.01089 0.107828 -0.079418 0.048182 0.059004 -0.004027 0.159351 -0.059501 0.014701 -0.016436 0.145211 -0.183233 0.033772 -0.115324 -0.037258 -0.048532 -0.16404 0.001443 0.134253 0.030993 -0.165181 -0.097362 0.216611 0.003612 0.139912 0.107312 -0.007047 0.024095 0.104701 -0.21016 -0.011143 0.120001 -0.018049 -0.05519 0.079817 -0.166685 0.051733 0.049791 0.014609 0.00461 0.017401 -0.195624 -0.058415 0.081117 -0.088663 0.013258 -0.029162 -0.039224 0.289884 0.061072 0.04634 -0.153511 0.047407 0.015314 0.168719 0.061538 -0.034508 0.124417 -0.106016 -0.122124 -0.038752 -0.002443 0.003429 0.036478 -0.152032 -0.019626 0.046667 -0.105051 -0.027461 0.040544 -0.125117 0.012494 0.040288 0.007864 -0.064554 0.13492 -0.055923 -0.01933 0.013934 0.146803 0.095124 -0.072099 0.081676 -0.018683
0.021227 0.256935 0.099547 0.348556 -0.127069 -0.050705 -0.102331 -0.256089 0.152229 0.055313 -0.026213 0.214663 0.009905 0.061829 0.043596 -0.00146 -0.075414 0.099793 -0.284019 -0.038673 -0.099342 -0.02743 -0.17003 0.340114 0.100317 0.133977 -0.190506 0.204493 0.089792 1.28E-4 -0.044372 -0.219502 0.0032 0.080611 -0.181975 0.043986 0.060562 0.15122 -0.026455 -0.110261 -0.043246 -0.022612 0.071106 0.09374 0.149408 0.098891 0.033777 -0.119526 -0.129595 0.02523 -0.128133 0.142963 0.116926 -0.128284 0.17142 0.120371 0.006182 -0.164726 0.075339 -0.214377 0.083519 0.099822 -0.014549 0.12349 0.129112 -0.177416 0.03806 0.155535 -0.004321 0.229976 0.11803 0.033793 0.201035 -0.178477 -0.08934 0.117569 -0.072554 -0.053581 0.134662 -0.110127 -0.084745 0.280266 -0.051032 0.175702 -0.029649 -0.026692 0.109934 0.178722 0.237877 -0.005253 0.028887 -0.003813 -0.03892 0.208035 0.026704 -0.020305 -0.099412 0.13161 0.252001 -0.14665
-0.118568 0.119966 0.116162 0.176312 0.03979 0.015532 0.126661 0.157862 0.297764 0.243904 0.05266 0.125807 0.018781 -0.059403 0.089667 0.076911 -0.276179 -0.184232 0.155934 -0.04783 -0.170488 -0.23796 -0.193273 0.136811 -0.116885 0.051971 0.146972 0.069293 -0.105728 0.041984 0.081035 0.02892 -0.007313 -0.019609 -0.103849 0.21031 0.06801 0.135225 -0.074246 -0.12696 0.100608 0.042202 -0.147024 0.021371 -0.114084 -0.052787 -0.166192 -0.148627 -0.165609 0.051817 0.2038 0.07248 0.132468 0.15045 -0.008228 -0.028751 -0.119328 -0.060512 -0.19302 -0.012606 -0.035081 -0.146926 0.045766 0.102824 -0.15868 -0.052538 -0.195506 -0.016695 0.042163 0.002849 -0.081905 0.06645 0.158825 -0.094623 0.062323 -0.123516 0.148665 -0.003338 0.039431 0.043523 0.097817 -0.117566 0.11102 0.02022 -0.197503 0.044267 0.024836 0.10786 -0.044645 0.030224 -0.015977 -0.266346 0.189246 0.034474 -0.064536 0.050731 0.106386 0.026964 0.063797 0.015515
-0.063705 -0.112366 -0.171847 0.173581 -0.054142 0.006658 0.04897 -0.029086 0.03938 -0.02875 -0.013973 -0.01465 0.0803 0.106175 -0.002963 -0.260838 -0.032879 0.114493 0.115139 0.080714 -0.127239 0.223355 0.056547 0.011039 0.042585 -0.017025 0.07367 0.207531 -0.064129 0.103342 0.023954 -0.089878 -0.092324 0.104712 -0.099792 0.058678 -0.122647 0.058054 -0.117518 -0.179272 0.037034 -0.071643 0.033935 -0.238703 -0.16004 -0.210038 -0.095797 0.102815 -0.097711 0.001488 -0.053935 0.047705 0.136085 -0.054313 0.021263 0.120506 -0.153546 0.147672 -0.104211 0.120862 -0.091836 -0.030286 -0.10046 0.075723 0.120922 -0.042602 0.169559 -0.005159 0.12025 -0.00437 -0.034897 0.074843 0.055009 -0.0224 -0.047444 0.027326 -0.059792 0.18922 0.028985 -0.011413 -0.055963 -0.083687 0.061419 -0.066391 0.080354 0.076563 0.016522 0.12044 -0.2118 0.040155 -0.01631 -0.174316 0.07256 0.105761 0.084492 0.149087 0.139174 -0.063534 -0.023656 -0.049687
0.0 0.0 0.0 0.0 0.0 0.0 0.0 0.0 0.0 0.0 0.0 0.0 0.0 0.0 0.0 0.0 0.0 0.0 0.0 0.0 0.0 0.0 0.0 0.0 0.0 0.0 0.0 0.0 0.0 0.0 0.0 0.0 0.0 0.0 0.0 0.0 0.0 0.0 0.0 0.0 0.0 0.0 0.0 0.0 0.0 0.0 0.0 0.0 0.0 0.0 0.0 0.0 0.0 0.0 0.0 0.0 0.0 0.0 0.0 0.0 0.0 0.0 0.0 0.0 0.0 0.0 0.0 0.0 0.0 0.0 0.0 0.0 0.0 0.0 0.0 0.0 0.0 0.0 0.0 0.0 0.0 0.0 0.0 0.0 0.0 0.0 0.0 0.0 0.0 0.0 0.0 0.0 0.0 0.0 0.0 0.0 0.0 0.0 0.0 0.0
-0.061018 0.157623 0.117298 -0.109258 0.01787 0.045393 -0.022422 -0.294216 0.022256 0.058558 0.038763 0.036359 0.07868 -0.152594 -0.142051 -0.006561 0.048106 -0.186814 -0.219902 -0.146332 -0.040248 0.162923 0.206328 0.008315 0.064041 -0.061214 0.088903 0.028344 0.024874 0.075935 -0.107993 -0.283393 0.084838 0.187131 0.046335 0.263285 0.01179 -0.091048 -0.068498 -0.122058 -0.038751 -0.129411 -0.058456 -0.131053 0.030694 -0.04914 0.090078 0.005105 0.098069 -0.099897 0.334519 -0.048818 0.274796 -0.137175 0.00266 0.139418 0.004345 0.119594 -0.040263 -0.21202 0.038889 -0.176923 0.158875 0.078129 0.025839 -0.016447 -0.02998 -0.060089 -0.040361 0.099583 -0.008088 -0.092105 -0.119375 0.043943 0.139698 -0.224044 0.190238 -0.066093 0.103458 -0.004324 -0.130908 0.064415 0.004283 -0.207982 0.059064 0.041556 -0.028417 0.088197 0.079813 -0.058325 -0.11522 -0.016049 -0.123872 0.006802 0.019293 0.070081 0.043632 0.294809 -0.077686 0.04626
-0.253313 -0.011669 0.118994 0.073782 -0.12197 0.082215 -0.091985 -0.145117 0.137304 0.05342 0.076411 0.184456 0.025223 -0.172177 0.096143 0.205529 0.012401 0.056904 -0.084749 0.015403 -0.063431 0.190379 0.100507 0.017202 -0.107924 0.054241 0.046193 0.142495 0.102504 0.08729 0.066586 -0.098855 0.023272 0.07352 -0.193009 -0.087837 0.040061 -0.01653 -0.099192 -0.102304 -6.51E-4 0.112913 0.021825 -0.055398 0.013775 -0.12491 -0.094102 0.057799 0.092422 0.025687 -0.009384 0.024817 -0.050939 0.159246 0.023134 0.007526 0.118953 -0.034079 0.141116 -0.245055 0.250452 0.062814 0.14196 -0.163914 0.07494 0.063559 0.142866 0.096105 0.155659 -0.112934 0.133719 0.028865 -0.150449 -0.080325 -0.030608 -0.007615 0.008917 0.137176 -0.204966 -0.018115 -0.059625 0.073389 0.182854 -0.077647 0.12814 -0.045901 0.055981 0.059072 0.139878 -0.075122 -0.034386 -0.109798 -0.179243 0.16043 -0.103287 -0.20537 -0.021451 0.093099 0.0021 -0.075002
0.1404 -0.218741 0.096227 -0.00666 0.23717 0.56786 -0.359266 -0.154189 -0.327342 -0.105065 -0.307007 0.038836 0.082977 0.308028 0.279529 0.112111 0.488148 0.296307 -0.054812 0.103427 -0.329277 0.261413 0.629696 0.154797 -0.161954 0.220039 -0.078621 -0.023406 0.076752 0.05018 -0.041588 0.284899 0.065491 0.01059 -0.612988 0.241527 -0.08147 -0.253064 0.14238 -0.0384 -0.086827 -0.183265 0.063885 -0.132237 0.682475 -0.033281 -0.07612 -0.369705 0.138663 0.162811 -0.241447 -0.328874 0.107294 -0.236524 0.295819 -0.071902 -0.357235 -0.025802 -0.016438 -0.193568 -0.115079 -0.041326 -0.196717 0.198939 0.197517 -0.275253 0.107962 -0.537993 0.012184 -0.177341 -0.135926 0.082012 -0.0649 0.156342 -0.106489 -0.148477 -0.183653 0.210243 -0.413369 -0.076193 0.396338 -0.17322 0.373677 -0.160738 -0.278003 -0.055068 -0.203753 0.390782 0.283991 0.310263 -0.529572 0.271184 0.241201 -0.145515 -0.009074 -0.016674 -0.193427 -0.132273 -0.036303 -0.270003
-0.150701 -0.132318 0.035536 -0.0229 0.011443 0.04804 -0.051146 0.059675 -0.151172 0.128609 0.082578 0.126801 0.001647 -0.146088 0.101505 0.099578 -0.032955 0.093689 0.077318 -0.031314 -0.036093 0.052276 0.123286 0.020646 -0.174718 -0.13348 0.007449 -0.147572 0.110774 0.008646 -0.017131 0.072664 -0.017199 -0.023759 -0.01075 -0.022553 -0.063979 0.038061 -5.22E-4 0.082707 -0.141665 0.133876 0.097817 0.09266 -0.075907 -0.069755 0.082304 0.087292 -0.06649 0.199805 0.042843 -0.014884 0.069305 0.028143 0.03378 -0.129355 -0.11846 -0.049161 0.066717 -0.025683 0.108611 -0.071938 -0.073119 -0.120443 -0.130332 0.026296 0.101211 0.115797 -0.024055 -0.087907 -0.040455 0.098306 0.02676 0.10984 0.116868 -0.209981 -0.18694 -0.004194 0.044355 -0.031957 -0.007749 0.169273 0.230922 -0.197795 -0.094506 0.098362 0.146297 -0.031295 -0.035825 0.132042 -0.08704 -0.044716 0.083213 -0.029115 -0.114575 -0.146811 0.131034 0.001517 0.008564 0.008438
1.035361 1.319725 0.388011 1.220811 -0.236045 1.447081 -1.78193 3.520004 0.063077 -1.681862 0.545208 0.767849 -1.479444 -1.152839 0.669301 0.685509 -2.946755 -2.239533 -1.187422 -1.793336 0.607402 0.130687 0.296681 -1.569517 1.825066 1.715849 -1.639836 0.849724 -1.742086 0.427502 3.84844 -1.377145 0.671096 -1.312902 -1.152387 0.705431 2.180344 2.97496 1.402098 -0.909545 -1.649212 -0.253421 1.186817 1.193823 3.167747 -0.387379 -0.12198 0.872223 0.13285 0.490844 0.029473 1.345032 0.297008 2.724698 -1.656047 -0.109585 1.500583 -1.148555 -3.658389 1.022988 -1.211381 0.342059 -0.023586 1.22536 -1.874871 -1.957746 -0.188066 -0.235303 -0.067175 1.107354 1.448404 0.838301 1.67396 -0.238039 -0.504146 -1.334739 0.688005 0.37731 -2.953094 0.650433 0.307563 -0.457962 -1.694326 2.40152 -0.816994 0.208705 1.853393 0.15935 -0.989952 1.089235 1.087388 -2.786835 -2.248864 -0.788939 0.405791 0.907533 -1.516669 1.970717 -0.345554 -0.134731
-0.253313 -0.011669 0.118994 0.073782 -0.12197 0.082215 -0.091985 -0.145117 0.137304 0.05342 0.076411 0.184456 0.025223 -0.172177 0.096143 0.205529 0.012401 0.056904 -0.084749 0.015403 -0.063431 0.190379 0.100507 0.017202 -0.107924 0.054241 0.046193 0.142495 0.102504 0.08729 0.066586 -0.098855 0.023272 0.07352 -0.193009 -0.087837 0.040061 -0.01653 -0.099192 -0.102304 -6.51E-4 0.112913 0.021825 -0.055398 0.013775 -0.12491 -0.094102 0.057799 0.092422 0.025687 -0.009384 0.024817 -0.050939 0.159246 0.023134 0.007526 0.118953 -0.034079 0.141116 -0.245055 0.250452 0.062814 0.14196 -0.163914 0.07494 0.063559 0.142866 0.096105 0.155659 -0.112934 0.133719 0.028865 -0.150449 -0.080325 -0.030608 -0.007615 0.008917 0.137176 -0.204966 -0.018115 -0.059625 0.073389 0.182854 -0.077647 0.12814 -0.045901 0.055981 0.059072 0.139878 -0.075122 -0.034386 -0.109798 -0.179243 0.16043 -0.103287 -0.20537 -0.021451 0.093099 0.0021 -0.075002
0.051719 0.103287 0.123614 0.039259 0.016027 -0.037434 -0.00395 -0.030171 -0.090101 0.153414 0.123852 0.077088 0.16188 -0.076564 -0.355178 0.255981 -0.020921 -0.231407 -0.091181 -0.028987 -0.004558 -0.241368 0.169447 -0.096649 0.057667 0.113403 -0.149412 0.171051 0.186081 -0.001592 -0.110136 -0.223501 -0.037079 -0.091356 -0.024989 -0.007072 -0.045969 -0.064833 -0.069069 0.146367 0.03555 0.344153 0.248436 0.135483 -0.099956 -0.283471 0.029596 -0.07173 -0.196662 -0.035974 0.087065 0.012438 -0.055019 -0.004364 0.00682 -0.156897 0.027515 -0.159719 0.01997 -0.052474 0.067967 0.071186 0.030888 -0.017215 -0.137955 -0.015569 -0.08343 0.084613 0.189549 0.06002 0.08019 -0.021452 -0.11931 -0.098838 -0.027585 0.045577 -0.128832 -0.15835 -0.100232 -0.03983 -0.032055 0.161507 -0.018657 0.022548 0.11379 -0.035689 0.19622 0.15935 0.013521 0.03178 -0.195925 0.206072 -0.121526 0.074355 0.055346 0.136155 0.027872 -0.015476 -0.090424 0.016225
0.0 0.0 0.0 0.0 0.0 0.0 0.0 0.0 0.0 0.0 0.0 0.0 0.0 0.0 0.0 0.0 0.0 0.0 0.0 0.0 0.0 0.0 0.0 0.0 0.0 0.0 0.0 0.0 0.0 0.0 0.0 0.0 0.0 0.0 0.0 0.0 0.0 0.0 0.0 0.0 0.0 0.0 0.0 0.0 0.0 0.0 0.0 0.0 0.0 0.0 0.0 0.0 0.0 0.0 0.0 0.0 0.0 0.0 0.0 0.0 0.0 0.0 0.0 0.0 0.0 0.0 0.0 0.0 0.0 0.0 0.0 0.0 0.0 0.0 0.0 0.0 0.0 0.0 0.0 0.0 0.0 0.0 0.0 0.0 0.0 0.0 0.0 0.0 0.0 0.0 0.0 0.0 0.0 0.0 0.0 0.0 0.0 0.0 0.0 0.0
0.0 0.0 0.0 0.0 0.0 0.0 0.0 0.0 0.0 0.0 0.0 0.0 0.0 0.0 0.0 0.0 0.0 0.0 0.0 0.0 0.0 0.0 0.0 0.0 0.0 0.0 0.0 0.0 0.0 0.0 0.0 0.0 0.0 0.0 0.0 0.0 0.0 0.0 0.0 0.0 0.0 0.0 0.0 0.0 0.0 0.0 0.0 0.0 0.0 0.0 0.0 0.0 0.0 0.0 0.0 0.0 0.0 0.0 0.0 0.0 0.0 0.0 0.0 0.0 0.0 0.0 0.0 0.0 0.0 0.0 0.0 0.0 0.0 0.0 0.0 0.0 0.0 0.0 0.0 0.0 0.0 0.0 0.0 0.0 0.0 0.0 0.0 0.0 0.0 0.0 0.0 0.0 0.0 0.0 0.0 0.0 0.0 0.0 0.0 0.0
0.123314 0.024232 0.067758 -0.019176 0.04035 0.102721 0.022867 0.004876 -0.130388 -0.025998 -0.111174 -0.099004 0.08676 0.050864 -0.09914 -0.024014 -0.171609 -0.023554 -0.121212 -0.180475 0.179989 0.036153 -0.154862 -0.046345 0.094379 -0.14447 -0.041587 -0.048431 -0.136792 0.120946 0.186365 -0.07131 -0.07154 -0.104935 0.223496 -0.046738 -0.060067 -0.130754 -0.062099 -0.018454 0.144663 0.005022 0.142013 0.055336 -0.079464 0.134955 -0.01171 0.012333 -0.042385 0.102204 0.067493 0.045559 0.08181 -0.037308 -0.105499 0.04795 0.127704 0.287375 0.072091 0.04644 0.063593 0.228401 -0.07889 -0.03959 0.122115 0.054482 0.084107 0.013265 0.011559 -0.014696 0.109437 0.025601 -0.204002 0.310683 0.003437 0.019704 0.139319 0.086808 -0.081497 -0.018019 -0.014725 -0.169411 -0.017058 0.108817 -0.009525 -0.201578 -0.092985 0.072472 0.005488 0.045185 0.12776 0.042456 -0.19091 0.059921 -0.111423 0.013748 -0.096482 0.111096 0.034894 -0.026429
-0.026322 -0.640035 -1.537299 1.340158 0.694771 0.835243 -1.613667 -0.181103 -3.452463 -2.314408 1.850918 -2.945756 -1.666114 1.291203 0.82952 2.562243 2.496186 -2.298866 -0.870633 0.627772 0.281137 -1.137072 3.006825 -1.022662 -1.699929 -1.217328 0.685401 2.260691 2.835918 0.170696 0.264508 -1.366315 -1.595127 -0.037783 0.934592 -0.706987 -0.914248 -1.807518 0.226718 0.32936 1.532153 -2.947052 1.545455 0.668951 1.722232 -3.435064 0.508747 0.259673 1.171282 -2.199981 0.865085 0.077168 -4.205463 -0.98895 -0.516663 1.918753 0.353127 0.587384 0.330394 -3.828172 -1.652598 -0.520788 -1.167826 0.204678 1.251467 -0.409897 -2.107682 -2.349408 0.743371 3.128268 -2.221559 -1.320344 -0.791105 -2.29654 -0.589578 1.874194 1.305863 0.030711 -0.827157 1.136406 0.306216 -5.233926 1.197229 -0.24067 0.497862 -1.66536 0.465458 0.967216 0.657564 0.826786 1.497677 0.631508 -0.420319 1.669665 -2.826245 0.595699 -0.718282 1.203997 -0.729074 2.510288
0.532101 1.067293 -0.370993 1.407497 -0.330157 2.69356 -1.596379 1.224888 -0.777453 -1.447759 2.708868 1.432587 -2.201023 0.747932 -0.390896 0.347214 0.962249 -2.434473 -1.451908 -0.147464 0.628674 1.131106 2.242546 0.333753 -0.999084 1.359851 -0.259701 3.373262 2.311226 0.324067 1.117902 -0.582175 -0.65634 -0.67975 -0.889411 0.685281 -0.89108 0.30655 1.889182 0.04229 -1.285846 -4.096092 1.123486 -0.946248 1.555015 -0.946876 -0.522417 -0.874161 1.121646 0.744352 1.553112 -1.765051 -0.586235 -0.226308 -1.835788 0.872136 -1.470252 0.508826 -1.080186 -0.84958 0.556991 0.510467 -1.976625 -0.84315 -1.378743 0.595988 -1.980901 -1.509742 -0.109124 1.045031 0.25013 -1.235136 -0.619176 -1.543821 0.085974 2.029974 0.210931 0.435059 -1.809242 1.35683 1.690481 -3.846748 1.608674 -0.948824 -1.394094 0.104068 0.396753 -2.121117 -1.460142 2.86385 -1.303549 -1.056409 -2.082684 -1.928092 1.445919 -0.185769 -1.472964 -0.055389 -1.034179 1.033979
1.519526 1.445578 -1.609499 2.582747 2.460795 3.529971 0.431498 -0.524736 0.238502 0.565084 -2.150664 2.607871 -3.578636 0.22885 1.205379 0.400126 -2.365878 -2.228676 -0.500047 -1.958516 -2.734259 -2.028213 -0.339577 -2.726884 0.003785 -1.85554 -0.90189 1.042933 0.930181 0.561229 0.956561 0.220468 -1.219533 -0.188243 -0.649085 -0.117874 2.101841 -0.317004 1.300647 -1.49228 0.533457 -2.976113 -0.635474 -1.431524 -0.943268 0.543614 -2.072507 -1.004219 4.072807 -1.496014 2.612373 2.458477 -0.120651 0.418572 -2.53177 0.646754 2.04053 2.0667 -2.403623 -3.037353 -1.289071 1.269349 0.447478 0.512568 0.464348 -0.142416 -1.155552 0.32258 -0.986119 3.909852 3.839548 0.865499 -1.089316 -1.400134 0.517204 -3.398406 -0.576028 -0.612853 -0.573641 -1.979957 1.278503 1.159562 0.583915 -0.210028 0.851463 1.075476 2.276915 0.114312 2.2836 1.968815 1.899569 0.001135 -2.286771 -2.666814 -1.408445 1.975128 -0.085175 1.44887 -1.994305 2.796178
0.040838 -0.132447 -0.063565 0.119079 0.061849 -0.060373 -0.306429 -0.048894 -0.064384 0.030683 0.062787 0.074519 -0.181296 0.075808 0.087375 0.275475 0.18352 0.096578 0.006525 -0.002998 -0.011258 0.102969 0.264615 0.167384 -0.152902 -0.012715 0.009892 0.075279 0.178967 -0.322481 -0.026233 0.06647 -0.06178 0.11107 7.98E-4 0.070868 0.020272 -0.006749 0.083981 0.069905 -0.02081 -0.257137 0.071802 0.009567 0.166763 -0.025862 -0.039908 -0.03351 0.017293 -0.014299 0.243136 -0.128145 -0.026804 -0.026521 0.138735 0.103179 0.065017 -0.062914 -0.055855 -0.06369 -0.002895 -0.076792 -0.072034 -0.11351 -0.02264 -0.103508 -0.086552 -0.194067 0.133599 -0.106813 0.09538 -0.023637 0.071248 0.025748 0.045538 -0.040562 -0.020244 -0.026053 -0.042617 -0.059071 -0.076453 -0.041351 -0.002608 -0.248566 -0.166121 -0.001564 -0.03448 -0.008835 0.026668 0.153911 -0.185944 -0.08549 -0.06484 -0.006671 0.012003 0.010339 -0.051739 0.01233 0.013695 0.08011
0.152478 -0.152491 0.00803 0.002448 -0.123332 0.125293 -7.79E-4 0.080695 0.04345 -0.103057 0.081918 -0.064073 -0.111116 -0.181144 0.170298 0.040327 -0.039976 0.046537 -0.065097 -0.064444 0.02471 0.171224 0.061655 0.089207 -0.043907 -0.050388 0.101778 0.121854 0.19363 -0.028963 0.096374 0.109572 0.130966 0.017735 -0.116066 -0.130475 -0.164208 -0.009917 0.102233 0.125379 0.029295 0.065856 0.018829 -0.220478 0.119374 -0.066762 -0.227646 0.118113 -0.066629 0.186873 0.153094 -0.104748 0.21281 -0.010062 0.15093 -0.042856 0.10393 0.073542 0.096839 -0.047601 0.113305 0.041497 0.023666 -0.112018 0.008764 -0.078337 0.164732 -0.143677 0.110053 -0.030129 -0.1096 -0.100565 0.076585 -0.158383 -0.0762 -0.193897 0.059768 -0.006444 -0.052979 -0.089313 0.144813 -0.065716 0.253582 -0.149142 0.052195 0.102886 -0.076105 0.097312 -0.004163 0.025375 -0.011692 0.290008 -0.010002 0.084467 0.151687 0.008418 -0.044983 0.110758 -0.089126 -0.010752
-1.371364 -0.905838 -2.28994 -1.283174 -1.310577 -1.606454 0.910305 1.305647 -4.371454 0.628874 1.806303 0.828653 -2.382652 -0.686732 0.545703 1.326346 0.154753 -3.264551 1.126633 -1.969114 -0.800301 -1.436766 3.728197 -1.038718 -2.327168 -1.817844 -1.522537 3.301526 -0.516965 -1.374094 -0.051603 -1.351815 -0.389973 -0.502437 0.25835 0.846892 1.917309 -2.564942 1.743738 0.299837 -0.077633 -0.203545 -1.348593 -0.075214 -1.608776 -1.418613 -1.239597 1.346437 1.05542 -0.955862 -1.024128 -0.739272 -1.267341 -0.406832 -0.563292 1.91249 -0.495804 -1.8464 -2.951108 -2.501113 -2.256394 0.158864 1.280809 0.511105 1.438967 -1.170372 -0.297717 -2.259045 1.504669 -0.129935 2.657114 -0.654912 -1.802167 1.676283 -1.228934 1.0964 1.563019 0.572077 -0.396552 -2.394884 0.52895 2.143209 0.307586 -0.887167 -1.371926 0.836945 0.408248 -0.956246 -1.326029 0.678732 3.122775 -1.439952 -0.709464 -1.94331 -0.773044 1.524834 1.347463 -1.037819 -0.217821 2.595661
0.237634 0.109306 -0.041507 -0.201799 -0.149374 0.089779 -0.158518 -0.160494 -0.10045 0.139645 -0.078359 -0.155787 0.095709 0.083922 3.7E-4 0.109712 0.110221 -0.135581 0.234728 -0.052115 0.041085 -0.103376 0.237218 0.1233 -0.012453 -0.048067 0.138511 -0.135972 -0.036411 -0.107397 0.071741 0.157296 0.078333 0.032471 0.097229 -0.083432 0.037941 -0.071868 -0.073983 -0.062846 0.002712 -0.02559 -0.132649 0.048527 0.143802 -0.145214 -0.124616 0.044458 0.230509 0.081613 0.043638 0.28979 6.87E-4 -0.128232 0.105152 -0.075264 0.258126 0.025548 0.092303 -0.081444 0.053322 -0.407514 0.213285 -0.036615 -0.132724 0.099077 -0.017887 0.139513 0.092207 -0.253351 -0.224958 0.063673 0.08363 0.119876 0.188093 0.006222 -0.108333 0.106555 -0.254995 0.071608 0.201145 0.095737 0.012383 -0.016244 0.127919 0.013806 -0.029543 0.161299 0.071132 -0.180434 -0.017303 -0.118944 0.078936 0.328372 0.100792 0.139749 0.016598 -0.03948 -0.041089 -0.302976
0.0 0.0 0.0 0.0 0.0 0.0 0.0 0.0 0.0 0.0 0.0 0.0 0.0 0.0 0.0 0.0 0.0 0.0 0.0 0.0 0.0 0.0 0.0 0.0 0.0 0.0 0.0 0.0 0.0 0.0 0.0 0.0 0.0 0.0 0.0 0.0 0.0 0.0 0.0 0.0 0.0 0.0 0.0 0.0 0.0 0.0 0.0 0.0 0.0 0.0 0.0 0.0 0.0 0.0 0.0 0.0 0.0 0.0 0.0 0.0 0.0 0.0 0.0 0.0 0.0 0.0 0.0 0.0 0.0 0.0 0.0 0.0 0.0 0.0 0.0 0.0 0.0 0.0 0.0 0.0 0.0 0.0 0.0 0.0 0.0 0.0 0.0 0.0 0.0 0.0 0.0 0.0 0.0 0.0 0.0 0.0 0.0 0.0 0.0 0.0
0.15849 -0.108446 0.060652 -0.008194 -0.052735 -0.14132 -0.064968 -0.131062 -0.176986 0.016132 0.146535 0.097815 -0.006962 0.031031 0.059471 0.228522 -0.072115 0.059189 -0.072778 0.016396 -0.179111 0.031434 0.186752 0.024644 -0.023998 -0.187947 0.062745 0.037207 0.009899 -0.073008 -0.052259 -0.02762 -0.137408 0.098595 -0.129036 -0.108954 0.203361 0.015456 0.063842 -0.078139 0.023904 0.165628 0.087652 0.091934 0.040288 -0.119348 -0.095886 0.086081 -0.017142 -0.01886 0.062085 0.007646 -0.071529 0.016292 0.071593 0.042954 0.010719 -0.144194 0.270578 -0.178196 -0.01856 0.046642 0.069962 -0.239681 -0.078538 -0.080061 0.116532 0.089446 0.187609 -0.137 0.088933 -0.032391 0.006936 0.020387 0.059 0.059742 -0.147257 0.00724 0.065396 -0.036561 -0.015099 -0.005432 0.025834 -0.088228 -0.013923 0.078631 -0.054426 0.14857 -0.045009 0.07035 0.058348 -0.097176 0.10859 0.187265 -0.00569 -0.139389 0.063445 -0.034281 0.047319 -0.08592
-1.371364 -0.905838 -2.28994 -1.283174 -1.310577 -1.606454 0.910305 1.305647 -4.371454 0.628874 1.806303 0.828653 -2.382652 -0.686732 0.545703 1.326346 0.154753 -3.264551 1.126633 -1.969114 -0.800301 -1.436766 3.728197 -1.038718 -2.327168 -1.817844 -1.522537 3.301526 -0.516965 -1.374094 -0.051603 -1.351815 -0.389973 -0.502437 0.25835 0.846892 1.917309 -2.564942 1.743738 0.299837 -0.077633 -0.203545 -1.348593 -0.075214 -1.608776 -1.418613 -1.239597 1.346437 1.05542 -0.955862 -1.024128 -0.739272 -1.267341 -0.406832 -0.563292 1.91249 -0.495804 -1.8464 -2.951108 -2.501113 -2.256394 0.158864 1.280809 0.511105 1.438967 -1.170372 -0.297717 -2.259045 1.504669 -0.129935 2.657114 -0.654912 -1.802167 1.676283 -1.228934 1.0964 1.563019 0.572077 -0.396552 -2.394884 0.52895 2.143209 0.307586 -0.887167 -1.371926 0.836945 0.408248 -0.956246 -1.326029 0.678732 3.122775 -1.439952 -0.709464 -1.94331 -0.773044 1.524834 1.347463 -1.037819 -0.217821 2.595661
-1.163584 2.788064 -0.265022 2.715334 -1.430881 1.3561 -1.469798 -1.802883 -0.306859 0.380015 -0.350476 2.511383 -0.072869 0.048909 1.854681 3.045587 -1.242957 -0.124414 -0.857334 -5.104525 -2.080495 -0.698662 -0.539654 0.084911 2.701092 -0.390268 -0.106953 2.87223 -0.965127 0.379973 3.081482 -0.257453 1.06227 1.243336 2.530607 -1.268802 -0.83475 1.807896 -0.883647 -0.759231 -0.845664 -3.273698 -1.128894 1.733061 -1.460704 -0.731717 0.647415 1.766774 -1.082837 0.39086 -0.630176 -0.622594 2.138654 0.828321 0.654567 0.743259 2.147877 3.840844 -2.819238 -0.955008 -2.978626 -1.12931 0.823356 -1.910744 1.792693 -0.774191 3.396943 -3.455747 2.843969 1.834693 -0.811823 1.409394 2.126751 1.337625 -0.357336 1.130007 -0.764787 0.564283 -0.286626 2.764354 1.657421 0.710472 3.638147 1.28787 1.677643 -0.747409 4.466346 -0.650329 -0.411659 -0.363267 2.714756 0.740023 -0.296626 -1.025723 -0.461947 -1.276023 -1.007379 -1.106085 0.773001 1.553295
0.106819 -0.155273 0.100262 -0.203633 -0.113744 0.111418 0.013196 -0.164598 -0.127185 -0.165083 0.089429 0.075216 -0.011487 -0.23205 0.00902 0.111355 0.055741 0.249202 0.068646 -0.188616 -0.022875 -0.045377 0.075285 0.094837 0.09953 0.08352 -0.221726 0.199086 0.073367 -0.079957 -0.048898 0.031393 -0.061042 0.051715 0.06043 -0.0634 -0.172957 -0.081083 0.176533 0.10955 0.064371 0.067772 0.099143 -0.044073 0.116149 -0.196917 -0.069986 0.02172 -0.076782 0.107784 0.067828 -0.091854 -0.184321 -0.05151 -0.09098 -0.21381 -0.083922 0.015174 0.184239 0.036793 0.024972 -0.180812 0.10811 -0.268639 -0.014862 0.177306 0.295233 -0.003502 0.025697 0.009478 -0.113488 -0.037256 -0.071333 -0.03362 -5.3E-4 -0.055012 -0.119723 -0.117096 0.029741 -0.076297 0.066154 0.110038 0.269759 0.077774 0.025025 -0.0144 0.07612 0.018105 0.064228 0.067635 0.176666 0.164935 -0.019551 0.050667 0.264672 0.021985 -0.100457 -0.019675 0.025597 -0.011342
0.101145 0.15669 -0.075216 -0.012965 -0.172593 0.136055 -0.047106 -0.020894 -0.098427 0.177657 -0.027954 -9.77E-4 0.043696 -0.22642 0.134993 0.140644 -0.045135 -0.03132 -0.080121 0.077997 -0.134766 0.026247 0.013715 0.213535 0.06562 -0.033739 -0.007785 0.04712 0.109525 -0.055996 0.136015 -0.064471 -0.044764 0.046263 -0.023127 -0.082655 0.063356 0.062081 -0.051216 0.0961 -0.049368 -0.057214 -0.006612 -0.033743 -0.065137 -0.134565 -0.027695 -0.017369 -0.121104 -0.05514 -6.36E-4 0.068777 -0.099201 0.169947 0.036692 -0.39044 -0.070153 -0.037257 -0.029524 -0.054187 0.21618 -0.056195 -0.032832 -0.146839 -0.157263 0.008963 0.049732 -0.009567 -0.044956 -0.030138 0.173045 0.008961 0.075994 -0.071525 0.012238 -0.042978 -0.147955 -0.077704 -0.032304 0.057836 -0.162122 0.027784 0.22098 -0.080807 0.037609 -0.107201 0.106444 0.03943 0.047755 0.027214 -0.148785 -0.049889 0.073268 0.231671 -0.065024 -0.01688 -0.008576 0.07637 0.13363 0.001287
0.140017 0.194763 -0.252194 0.15345 0.27017 0.006425 0.088573 -0.175828 0.007607 0.249812 0.113127 0.163154 -0.073779 0.181781 -0.158991 0.064287 -0.159112 -0.106828 -0.375612 -0.003312 -0.030533 0.065058 0.022897 0.010893 0.179419 -0.107462 0.044731 -0.030968 0.041769 0.16701 0.29008 0.24385 0.050391 -0.131484 0.042475 -0.206146 0.120345 -0.027786 -0.130295 -0.094028 0.177595 -0.039224 0.06621 -0.052538 0.079308 0.028988 0.073433 0.071492 0.266759 0.305735 0.095743 0.099544 0.080907 -0.042317 -0.080522 0.09549 -0.006863 0.14178 0.134805 -0.087633 -0.064335 -0.122537 -0.026549 -0.092801 0.027934 0.088571 0.020644 0.112831 0.067141 0.135207 -0.115622 0.123303 0.039848 -0.009658 0.183064 0.09458 -0.143351 0.004446 -0.096155 0.002804 0.051701 -0.147602 -0.165576 0.014012 0.014716 -0.060298 0.169416 0.074102 0.079488 -0.017642 -0.089116 0.114488 0.028223 -0.078219 -0.156821 0.032144 -0.06663 -0.072267 -0.07817 -0.133593
0.239331 -0.070715 -0.063166 0.157868 -0.028996 -0.025368 -0.345487 0.088801 -0.332137 0.245819 0.161163 -0.086277 -0.036025 0.262905 0.06702 0.153264 0.189274 0.138347 -0.141739 0.265197 0.008022 0.115073 0.281622 0.250971 -0.002463 0.012666 -0.029336 -0.172678 -0.063702 -0.064887 0.238782 0.00794 -0.103104 -0.066833 -0.128158 0.319013 -0.184198 -0.134042 -0.210354 -0.044481 0.10383 -0.291834 0.188463 -0.127577 -0.142331 -0.24729 -0.09699 -0.338827 -0.203225 0.013315 0.105101 0.102144 -0.229739 -0.333944 -0.036259 -0.0296 -0.049484 -0.176798 -0.259147 -0.196667 0.032375 -0.156482 -0.300251 -0.002895 0.145249 -0.130727 -0.031396 -0.021832 -0.117877 -0.014645 0.159098 0.044486 -0.149735 0.098084 -0.013864 -0.052268 -0.351148 -0.072916 -0.233924 -0.001515 -0.201342 -0.19317 -0.118772 -0.073071 -0.040524 -0.167977 0.160976 0.134375 0.233986 0.222527 -0.007061 -0.056483 0.011958 -0.133973 -0.051654 -0.063951 -0.009476 0.080895 -0.005337 0.016897
0.189881 -0.151462 -0.060496 0.109119 -0.156337 0.047512 -0.18848 -0.018679 -0.133102 0.067209 0.087448 -0.171788 -0.1063 -0.114152 0.135855 0.236382 0.166338 0.091626 0.042098 0.038595 -0.00945 0.176443 0.064622 0.04392 -0.187024 -0.014915 0.159268 0.022213 0.120624 0.013123 -0.062454 0.078519 0.377221 0.107304 -0.039088 -0.027291 0.020217 -0.027171 -0.007803 -0.029963 -0.193166 -0.057976 -0.282597 -0.158915 0.085684 0.037716 -0.163692 -0.220808 0.008755 -0.147357 0.128677 -0.173496 0.071444 -0.024489 0.106747 0.07791 -0.110209 -0.004397 -0.083192 0.006328 0.042057 0.007814 -0.160273 -0.097866 0.08863 -0.103706 -0.173675 -0.199165 0.083486 -0.1257 0.21646 -0.183358 0.029639 -0.173521 -0.176986 0.182546 -0.031088 0.063361 0.073759 -0.107395 0.148535 -0.054495 0.020233 -0.110781 -0.050482 0.085144 0.153469 0.022452 0.050605 0.321636 -0.088265 0.043483 -0.036235 -0.066362 0.110418 0.142103 -0.209676 0.083111 -0.100595 0.007508
