0.0 0.0 0.0 0.0 0.0 0.0 0.0 0.0 0.0 0.0 0.0 0.0 0.0 0.0 0.0 0.0 0.0 0.0 0.0 0.0 0.0 0.0 0.0 0.0 0.0 0.0 0.0 0.0 0.0 0.0 0.0 0.0 0.0 0.0 0.0 0.0 0.0 0.0 0.0 0.0 0.0 0.0 0.0 0.0 0.0 0.0 0.0 0.0 0.0 0.0 0.0 0.0 0.0 0.0 0.0 0.0 0.0 0.0 0.0 0.0 0.0 0.0 0.0 0.0 0.0 0.0 0.0 0.0 0.0 0.0 0.0 0.0 0.0 0.0 0.0 0.0 0.0 0.0 0.0 0.0 0.0 0.0 0.0 0.0 0.0 0.0 0.0 0.0 0.0 0.0 0.0 0.0 0.0 0.0 0.0 0.0 0.0 0.0 0.0 0.0
-0.125002 -0.066817 -0.180766 -0.059979 -0.092662 0.094897 -0.157281 0.149876 -0.054601 0.166557 -0.072196 0.088903 -0.020504 0.030954 0.011593 0.059236 -0.015654 0.027102 -0.072601 -6.44E-4 -0.078562 0.006416 0.115282 0.100459 -0.12915 0.113299 0.140987 -0.12095 -0.008716 -0.12589 0.203538 0.027711 -0.108113 0.027425 -0.207183 0.041097 0.067443 0.016476 0.109709 -0.043383 0.097247 0.087611 0.04971 0.11518 -0.029272 0.019313 0.044622 0.126768 0.085755 -0.041414 -0.035159 -0.020206 0.044492 -0.04271 0.164299 -0.173956 0.054438 -0.129314 0.01258 -0.154185 0.057271 -0.092325 0.08629 -0.193376 -0.149163 0.081389 0.135752 0.015912 3.93E-4 -0.028525 -0.160906 0.162119 0.114114 -0.051617 0.16827 -0.17756 -0.052901 0.055456 0.057253 -0.128881 0.052534 0.293794 0.215936 -0.042191 0.051492 -0.083139 -0.037911 0.10892 0.014079 0.182417 -0.069847 0.044903 -0.082355 0.156042 -0.11172 -0.100245 -0.050986 0.080645 -0.011823 0.110605
-0.207925 -0.031238 0.082163 0.179086 -0.011049 0.101676 -0.172497 0.031369 -0.036585 0.082538 0.010853 0.088945 0.073977 0.045206 -0.021791 0.150691 -0.036669 -0.025702 -0.064002 0.003069 0.02808 0.11103 -5.17E-4 0.128239 -0.074094 0.02344 -0.058141 0.004019 -0.022502 0.079552 -0.203532 0.009421 0.087308 -0.028827 0.034769 0.015613 0.043388 -0.139301 -0.025347 -0.0384 0.082153 0.116864 -0.017655 0.019318 -0.007335 -0.055005 -0.020556 -0.05292 -0.027509 0.075344 0.083221 0.021986 0.026952 -0.041735 0.015273 -0.086055 -0.133386 -0.026212 -0.026218 -0.063844 0.196772 0.06459 0.050209 0.139989 -0.01857 0.003146 -0.011515 -0.004013 -0.020224 -0.055746 -0.097654 -0.044181 0.013394 -0.071755 -0.120307 0.155758 -0.070199 -0.154657 0.094759 0.102938 0.007866 0.137307 -0.083226 -0.043489 0.113649 0.170538 -0.017505 0.142982 0.07524 -0.026108 -0.067334 0.055786 -0.029962 0.01172 0.107641 0.06595 0.011088 0.030178 -0.02023 0.029334
-0.045211 0.014213 -0.030664 -0.144567 -0.00734 0.225794 0.078761 0.092376 -0.209054 -0.122868 -0.092745 -0.16033 0.149108 0.226511 -0.031648 -0.005132 -0.171801 0.116384 -0.279793 0.131465 0.108694 0.164275 -0.225897 0.03616 -0.102505 0.002593 0.061665 -0.061985 -0.186964 -0.024995 0.115411 -0.236955 -0.07422 0.130713 -0.171287 0.141921 0.113712 0.123472 -0.114607 -0.216169 -0.126256 -0.069958 0.022172 -0.272346 0.077058 -0.003921 0.073145 0.068007 0.284403 -0.346856 0.333591 -0.060462 -0.25792 -0.275354 0.11349 -0.124382 0.021395 -0.107861 -0.033849 -0.273835 -0.164136 -0.044124 -0.059821 0.104387 -0.213184 -0.166626 0.158036 0.025855 0.136703 0.035782 0.344674 -0.067494 0.065122 0.121892 -0.018777 0.139681 0.023834 0.119691 0.009658 0.078589 -0.115786 0.040004 0.007271 0.003106 -0.043065 -0.259963 -0.009995 -0.079536 0.350469 0.039286 -0.201906 0.031409 -0.134432 0.063818 -0.021398 -0.143213 0.150573 -0.011952 0.105272 0.127069
-0.321051 -5.982152 3.681155 -4.050179 -2.948045 4.554063 -5.132358 0.736413 0.367667 -2.771314 -2.825014 0.475863 -3.005293 -0.321177 -3.429025 -2.26775 -2.479006 -0.386916 -2.050865 1.783429 0.144251 -4.718711 -2.02897 1.336526 -4.506418 -1.790883 3.300767 -1.385269 2.088806 -1.640267 -1.095156 0.700922 -3.002581 -1.810791 -1.619578 0.14697 3.522589 -0.331814 -9.544651 1.027236 5.690997 -1.261448 0.909086 2.917407 4.191034 6.321394 3.131102 5.874175 -3.331787 -2.400714 3.951603 0.684037 -4.159357 -3.109079 1.192322 -3.941014 -4.178263 -1.857713 -3.691467 4.819512 -1.872126 0.786209 -0.817229 1.874039 -1.645297 0.03793 -5.752268 2.43842 -1.164518 0.026441 0.007042 1.667224 1.225551 0.8295 -2.07549 1.759887 -0.379935 1.164948 -0.711065 -3.287236 0.845475 0.012777 4.062068 7.260866 3.119361 -0.968796 1.028001 -0.002188 -4.00993 0.766716 3.624426 -0.647796 -2.517512 5.454072 1.905255 -1.113396 -2.096104 -0.081185 -2.847684 -1.085913
0.0 0.0 0.0 0.0 0.0 0.0 0.0 0.0 0.0 0.0 0.0 0.0 0.0 0.0 0.0 0.0 0.0 0.0 0.0 0.0 0.0 0.0 0.0 0.0 0.0 0.0 0.0 0.0 0.0 0.0 0.0 0.0 0.0 0.0 0.0 0.0 0.0 0.0 0.0 0.0 0.0 0.0 0.0 0.0 0.0 0.0 0.0 0.0 0.0 0.0 0.0 0.0 0.0 0.0 0.0 0.0 0.0 0.0 0.0 0.0 0.0 0.0 0.0 0.0 0.0 0.0 0.0 0.0 0.0 0.0 0.0 0.0 0.0 0.0 0.0 0.0 0.0 0.0 0.0 0.0 0.0 0.0 0.0 0.0 0.0 0.0 0.0 0.0 0.0 0.0 0.0 0.0 0.0 0.0 0.0 0.0 0.0 0.0 0.0 0.0
-0.341617 1.271173 -0.130955 0.795787 -2.761413 -0.037935 -2.08451 -0.749854 0.456374 0.189509 -1.784466 1.321352 -0.024572 0.775721 0.351052 -0.494201 0.597239 -2.035014 -1.822623 -1.26338 -1.852038 -3.261221 1.17085 -0.884857 0.341201 1.056519 -0.475283 -0.906839 -0.359697 -0.03678 0.485601 -0.573014 1.410657 0.602444 -0.65226 0.019708 2.334166 -4.120307 2.452699 0.37493 -0.43807 -0.885798 -0.909782 -0.866844 0.863746 -0.109914 -1.745782 -0.759427 1.102647 -0.229513 0.72866 5.020656 0.453599 0.948257 -0.341321 1.003234 1.507241 0.335139 -0.119095 -0.324834 2.432309 -1.518503 1.178541 1.207634 -1.537357 0.986701 1.190043 1.531747 -0.881239 0.152745 2.223002 -0.773424 1.003136 -1.671927 1.512302 -1.435468 2.471683 -0.288325 -0.945258 1.550236 1.231926 -1.03075 -3.561653 2.778667 1.207369 -1.904946 0.700824 -0.061776 -1.652007 -1.511937 -0.523117 -3.702699 1.471395 1.453605 -0.015539 0.288359 -0.016453 0.953476 -0.698522 -1.664865
-0.064357 -0.033406 -0.006591 0.181457 0.041885 0.1408 -0.109843 0.016376 0.068228 -0.045519 0.005233 0.012036 0.05064 -0.052642 0.185426 0.139427 -0.155023 0.12963 0.063368 -0.055016 -0.054854 -0.018229 0.216037 -0.004417 -0.285826 -0.095238 -0.069825 -0.021777 0.187402 -0.130867 -0.00675 -0.075803 -0.044586 0.061098 0.044502 -0.138919 0.031721 -0.005549 0.063477 5.3E-5 0.101342 0.067759 0.180205 0.110423 -0.107152 0.014466 -0.095647 -0.001514 -0.13148 0.090497 0.038783 -0.236052 -0.139813 -0.061498 0.050517 -0.013343 -0.001507 0.083055 0.065801 -0.03321 0.124938 -0.104659 -0.042903 -0.049201 -0.088403 -0.030678 0.055664 0.085579 0.303591 -0.024133 0.025756 -0.085778 0.02809 -0.058313 0.028445 -0.065808 -0.182156 -0.019053 0.014958 -0.002839 -0.024485 0.159415 0.06125 -0.100844 0.111327 0.042033 0.023134 -0.078359 0.169092 -0.074151 -0.058673 0.083338 0.03916 0.23854 -0.125673 0.017002 0.129169 0.039082 0.127676 0.034378
0.0 0.0 0.0 0.0 0.0 0.0 0.0 0.0 0.0 0.0 0.0 0.0 0.0 0.0 0.0 0.0 0.0 0.0 0.0 0.0 0.0 0.0 0.0 0.0 0.0 0.0 0.0 0.0 0.0 0.0 0.0 0.0 0.0 0.0 0.0 0.0 0.0 0.0 0.0 0.0 0.0 0.0 0.0 0.0 0.0 0.0 0.0 0.0 0.0 0.0 0.0 0.0 0.0 0.0 0.0 0.0 0.0 0.0 0.0 0.0 0.0 0.0 0.0 0.0 0.0 0.0 0.0 0.0 0.0 0.0 0.0 0.0 0.0 0.0 0.0 0.0 0.0 0.0 0.0 0.0 0.0 0.0 0.0 0.0 0.0 0.0 0.0 0.0 0.0 0.0 0.0 0.0 0.0 0.0 0.0 0.0 0.0 0.0 0.0 0.0
0.002411 -0.061283 0.005403 0.31729 0.179115 0.077126 -0.126887 0.006237 -0.067546 0.096637 0.07544 0.132583 0.078708 -0.127422 -0.056132 0.059535 -0.080775 0.00544 0.08912 -0.05563 -0.174329 -0.06444 0.34682 0.007596 -0.206504 -0.032025 -0.014461 -0.091159 0.142572 -0.120876 0.081308 -0.012104 -0.002247 -0.004518 -0.132744 -0.029726 0.106592 0.005405 0.101004 0.039592 0.126098 -0.018725 0.122934 0.034863 -0.160926 -0.018821 -0.07645 -0.042698 0.022997 0.042284 0.209963 -0.05057 0.054768 0.119852 0.099358 -0.059253 -0.150289 -0.103834 0.022634 -0.045237 -0.002249 -0.060648 -0.01276 -0.206348 -0.077311 -0.002844 0.221262 -0.082753 0.064258 -0.117771 0.025033 -0.018819 0.079151 -0.064007 -0.051045 0.02566 -0.054688 0.180235 -0.014729 -0.191279 -0.003972 -0.027202 0.007259 -0.149416 -0.081278 5.47E-4 0.013531 0.022958 0.109237 0.022164 -0.124684 0.018473 -0.055419 0.045488 -0.133132 -0.050212 0.020749 -0.017885 0.034884 0.218133
0.352905 0.550922 -1.128945 -0.511125 0.774489 1.405335 -0.371647 0.106012 -0.779785 -0.640302 -0.68578 1.570717 -0.712288 -0.706705 -0.789609 -0.045278 -1.599722 -2.840112 -0.089543 -1.158838 -1.862605 -0.62748 -0.063542 -0.468696 0.750564 0.033551 -0.772222 -0.188991 -0.163115 0.455978 0.038455 -0.779588 0.172303 -1.114448 -0.548246 -0.008155 1.66721 -0.744821 -0.15746 -2.668482 -0.304702 -0.905716 0.479063 0.151803 -0.94063 -0.044338 -0.906122 -0.456182 0.281891 0.268287 0.47007 0.628019 0.328428 1.471286 -2.345457 0.072073 -0.345477 -0.998199 -1.496897 -0.053061 0.351206 -0.934426 0.295591 0.07336 0.24092 0.486976 0.390085 -0.621556 0.375246 -0.02625 1.957847 1.014101 0.004675 0.08874 -0.900479 -0.462149 0.922254 1.355385 -1.048724 0.105897 1.254466 0.410718 0.321258 1.066395 -0.171761 -0.128774 0.315556 0.697301 -0.180925 0.555334 1.005586 -0.891677 -1.232923 -1.994189 -0.567812 0.204184 -0.947385 -0.051526 -0.987029 0.725141
-0.01875 -0.285329 -0.002424 0.108049 -0.121485 0.011509 -0.309429 0.071278 0.030139 -0.09504 0.026686 -0.113073 0.095932 -0.179022 0.042966 0.129678 0.08961 0.196302 0.063608 0.023636 0.017566 0.282635 0.203737 -0.001727 -0.166336 0.016611 0.066798 0.070245 -0.044842 -0.010532 0.02894 0.068283 0.222737 -0.011348 -0.061199 -0.009894 -0.096135 0.074612 0.011411 0.061689 -0.114957 0.107116 0.054659 -0.135911 0.206663 -0.107839 -0.106604 0.14633 0.055843 0.071442 0.032643 -0.128132 0.097352 -0.140302 -0.003045 -0.183681 0.160041 -0.078107 0.0398 -0.116372 -0.065673 -0.00229 -0.127849 0.022587 0.141333 -0.050803 0.054219 -0.019527 0.040823 -0.187221 -0.087694 0.011191 -0.043953 -0.204306 0.081344 -0.016947 -0.105763 -0.100188 -0.004993 0.025402 0.12403 0.063183 0.003483 0.031502 -0.006452 0.015156 -0.143862 -0.149512 -0.053303 0.05853 -0.072347 -0.161299 0.009473 0.162584 0.023232 0.039946 -0.041596 -0.076351 -0.12545 -0.034996
0.0 0.0 0.0 0.0 0.0 0.0 0.0 0.0 0.0 0.0 0.0 0.0 0.0 0.0 0.0 0.0 0.0 0.0 0.0 0.0 0.0 0.0 0.0 0.0 0.0 0.0 0.0 0.0 0.0 0.0 0.0 0.0 0.0 0.0 0.0 0.0 0.0 0.0 0.0 0.0 0.0 0.0 0.0 0.0 0.0 0.0 0.0 0.0 0.0 0.0 0.0 0.0 0.0 0.0 0.0 0.0 0.0 0.0 0.0 0.0 0.0 0.0 0.0 0.0 0.0 0.0 0.0 0.0 0.0 0.0 0.0 0.0 0.0 0.0 0.0 0.0 0.0 0.0 0.0 0.0 0.0 0.0 0.0 0.0 0.0 0.0 0.0 0.0 0.0 0.0 0.0 0.0 0.0 0.0 0.0 0.0 0.0 0.0 0.0 0.0
-0.102512 -0.137975 -0.005604 0.242288 -0.142955 -0.058494 -0.204971 -0.171141 0.017741 0.033774 0.047629 0.201342 -0.122441 -0.04936 0.064534 0.115378 -0.00374 0.069758 0.065565 0.056957 0.083575 -0.100534 0.099924 0.25745 -0.141959 0.144956 -0.001332 -0.307599 0.033162 0.086502 -0.137898 0.159875 -0.268589 0.014961 -0.130899 -0.085488 -0.014699 0.125328 0.069008 -0.096135 -0.224001 0.138771 -0.217189 -0.192646 0.101742 -0.244453 0.057203 0.025029 -0.257823 0.276189 -0.001391 -0.017456 -0.044348 -0.089931 -0.021874 -0.024542 0.150338 -0.050178 -0.010381 0.093728 0.124586 0.142292 -0.013094 0.007065 -0.043516 0.062435 0.025189 0.076216 0.118479 -0.1482 -0.130158 0.161725 -0.051443 -0.051503 0.050845 -0.037333 -0.09139 -0.075807 0.088518 0.220332 -0.050065 0.085444 0.041319 0.013793 0.019875 0.032934 0.074062 -0.213363 0.048492 0.037202 0.003244 0.095669 -0.14965 0.185614 -0.062193 -0.199851 -0.022593 -0.160715 0.031865 0.035058
-0.064357 -0.033406 -0.006591 0.181457 0.041885 0.1408 -0.109843 0.016376 0.068228 -0.045519 0.005233 0.012036 0.05064 -0.052642 0.185426 0.139427 -0.155023 0.12963 0.063368 -0.055016 -0.054854 -0.018229 0.216037 -0.004417 -0.285826 -0.095238 -0.069825 -0.021777 0.187402 -0.130867 -0.00675 -0.075803 -0.044586 0.061098 0.044502 -0.138919 0.031721 -0.005549 0.063477 5.3E-5 0.101342 0.067759 0.180205 0.110423 -0.107152 0.014466 -0.095647 -0.001514 -0.13148 0.090497 0.038783 -0.236052 -0.139813 -0.061498 0.050517 -0.013343 -0.001507 0.083055 0.065801 -0.03321 0.124938 -0.104659 -0.042903 -0.049201 -0.088403 -0.030678 0.055664 0.085579 0.303591 -0.024133 0.025756 -0.085778 0.02809 -0.058313 0.028445 -0.065808 -0.182156 -0.019053 0.014958 -0.002839 -0.024485 0.159415 0.06125 -0.100844 0.111327 0.042033 0.023134 -0.078359 0.169092 -0.074151 -0.058673 0.083338 0.03916 0.23854 -0.125673 0.017002 0.129169 0.039082 0.127676 0.034378
-0.125002 -0.066817 -0.180766 -0.059979 -0.092662 0.094897 -0.157281 0.149876 -0.054601 0.166557 -0.072196 0.088903 -0.020504 0.030954 0.011593 0.059236 -0.015654 0.027102 -0.072601 -6.44E-4 -0.078562 0.006416 0.115282 0.100459 -0.12915 0.113299 0.140987 -0.12095 -0.008716 -0.12589 0.203538 0.027711 -0.108113 0.027425 -0.207183 0.041097 0.067443 0.016476 0.109709 -0.043383 0.097247 0.087611 0.04971 0.11518 -0.029272 0.019313 0.044622 0.126768 0.085755 -0.041414 -0.035159 -0.020206 0.044492 -0.04271 0.164299 -0.173956 0.054438 -0.129314 0.01258 -0.154185 0.057271 -0.092325 0.08629 -0.193376 -0.149163 0.081389 0.135752 0.015912 3.93E-4 -0.028525 -0.160906 0.162119 0.114114 -0.051617 0.16827 -0.17756 -0.052901 0.055456 0.057253 -0.128881 0.052534 0.293794 0.215936 -0.042191 0.051492 -0.083139 -0.037911 0.10892 0.014079 0.182417 -0.069847 0.044903 -0.082355 0.156042 -0.11172 -0.100245 -0.050986 0.080645 -0.011823 0.110605
0.299737 -0.389998 0.015769 -0.124908 -0.168507 0.250478 0.093391 -0.263376 -0.174406 0.122388 -0.005712 -0.111135 -0.106652 -0.391387 0.001315 -0.08006 0.536598 -0.079469 -0.216977 0.494945 -0.112553 -0.049516 -0.493867 -0.063266 0.134521 -0.203414 0.307472 0.205723 -0.230074 -0.889082 -0.088334 -0.038507 -0.404573 -0.09209 0.342813 -0.56062 -0.15589 0.19821 0.211674 -0.049018 0.121917 0.515247 -0.105835 0.020419 0.398359 -0.034959 -0.048886 0.372755 0.260531 -0.12446 0.262738 -0.095972 0.06116 -0.329681 -0.055211 -0.573624 0.079667 -0.364291 -0.011688 0.037255 0.564789 0.207677 -0.257548 0.162235 -0.243127 -0.055436 -0.06202 -0.122401 -0.204162 -0.045066 0.170565 0.118124 -0.320165 0.04813 0.132715 -0.086748 0.185541 -0.193944 -0.03233 0.013305 0.213068 0.255584 -0.167056 -0.014191 0.192256 0.14067 -0.031592 -0.005674 0.207725 0.009382 -0.319193 0.371025 0.313095 0.261327 0.154872 0.048883 -0.308929 0.266861 -0.067269 -0.124859
-0.207925 -0.031238 0.082163 0.179086 -0.011049 0.101676 -0.172497 0.031369 -0.036585 0.082538 0.010853 0.088945 0.073977 0.045206 -0.021791 0.150691 -0.036669 -0.025702 -0.064002 0.003069 0.02808 0.11103 -5.17E-4 0.128239 -0.074094 0.02344 -0.058141 0.004019 -0.022502 0.079552 -0.203532 0.009421 0.087308 -0.028827 0.034769 0.015613 0.043388 -0.139301 -0.025347 -0.0384 0.082153 0.116864 -0.017655 0.019318 -0.007335 -0.055005 -0.020556 -0.05292 -0.027509 0.075344 0.083221 0.021986 0.026952 -0.041735 0.015273 -0.086055 -0.133386 -0.026212 -0.026218 -0.063844 0.196772 0.06459 0.050209 0.139989 -0.01857 0.003146 -0.011515 -0.004013 -0.020224 -0.055746 -0.097654 -0.044181 0.013394 -0.071755 -0.120307 0.155758 -0.070199 -0.154657 0.094759 0.102938 0.007866 0.137307 -0.083226 -0.043489 0.113649 0.170538 -0.017505 0.142982 0.07524 -0.026108 -0.067334 0.055786 -0.029962 0.01172 0.107641 0.06595 0.011088 0.030178 -0.02023 0.029334
1.519526 1.445578 -1.609499 2.582747 2.460795 3.529971 0.431498 -0.524736 0.238502 0.565084 -2.150664 2.607871 -3.578636 0.22885 1.205379 0.400126 -2.365878 -2.228676 -0.500047 -1.958516 -2.734259 -2.028213 -0.339577 -2.726884 0.003785 -1.85554 -0.90189 1.042933 0.930181 0.561229 0.956561 0.220468 -1.219533 -0.188243 -0.649085 -0.117874 2.101841 -0.317004 1.300647 -1.49228 0.533457 -2.976113 -0.635474 -1.431524 -0.943268 0.543614 -2.072507 -1.004219 4.072807 -1.496014 2.612373 2.458477 -0.120651 0.418572 -2.53177 0.646754 2.04053 2.0667 -2.403623 -3.037353 -1.289071 1.269349 0.447478 0.512568 0.464348 -0.142416 -1.155552 0.32258 -0.986119 3.909852 3.839548 0.865499 -1.089316 -1.400134 0.517204 -3.398406 -0.576028 -0.612853 -0.573641 -1.979957 1.278503 1.159562 0.583915 -0.210028 0.851463 1.075476 2.276915 0.114312 2.2836 1.968815 1.899569 0.001135 -2.286771 -2.666814 -1.408445 1.975128 -0.085175 1.44887 -1.994305 2.796178
-0.134526 -0.126538 0.057262 0.054104 -0.198303 0.113411 -0.137567 -0.030855 -0.202571 0.256428 0.080528 0.151268 0.037782 2.9E-4 0.006527 0.342893 0.122472 0.136534 0.059851 0.169453 -0.197261 0.138052 0.144229 -0.009992 0.005875 -0.03048 -0.184923 -0.039721 0.26545 -0.279849 0.049031 -0.007935 -0.329573 0.005948 -0.337315 -0.015182 0.134071 -0.170318 0.002722 0.135194 -0.126943 0.111977 -0.080735 -0.126719 0.140135 -0.113153 -0.244083 0.057408 -0.176095 0.101106 -0.001943 -0.27393 0.008458 -0.01033 0.047556 -0.074919 0.189162 -0.156681 0.139442 -0.07898 0.065457 -0.116752 -0.105694 -0.199821 0.042658 -0.157013 0.075051 0.032388 0.190557 -0.109381 -0.035766 0.032865 0.051765 0.057016 0.050798 0.003351 -0.124699 0.03559 -0.039756 0.062156 -0.226327 0.327783 -0.01406 -0.167738 0.079277 0.171175 0.085667 -0.018549 0.151315 0.193594 -0.099691 0.013165 0.051784 0.085283 -0.118145 -0.121439 0.155424 -0.052657 0.048855 -0.190744
-0.028706 0.033732 -0.114421 -0.07457 0.127383 -0.072256 0.225561 0.060203 0.083158 -0.055015 -0.008016 -0.013805 -0.051516 0.044168 0.111501 0.025036 -0.238953 0.036993 0.171614 -0.137027 -0.117078 -0.077618 -0.049104 -0.008848 0.057426 -0.057326 0.059874 0.011163 0.064202 0.02249 0.115982 -0.050116 -0.037287 0.022451 0.317696 0.035591 0.023828 -0.193618 -0.051534 -0.084514 -0.011266 -0.085479 -0.049087 0.026278 0.053149 0.155973 -0.017962 0.090405 0.046952 -0.046551 0.079632 -0.054336 -0.079931 -0.02083 -0.19082 0.195755 -0.172548 -0.076107 -0.039663 -0.041625 -9.09E-4 -0.037134 -0.03562 -0.121145 -1.21E-4 -0.01738 0.076054 0.018905 0.018724 -0.037724 0.134652 -0.041302 0.140077 -0.048912 -0.024278 0.051511 -0.020874 0.112695 -0.215306 0.087446 0.074303 -0.127096 0.103432 -0.089674 -0.052799 0.058982 -0.081369 0.292689 -0.046317 0.05673 -0.017009 0.029554 -0.09257 0.016177 0.031009 -0.141385 -0.131271 0.186623 0.243762 0.077857
-0.01962 -0.05695 -0.107025 0.054649 0.052361 0.085034 0.024466 -0.158673 -0.158075 -0.116891 0.029933 0.047456 -0.118 -0.059339 -0.059388 0.061936 -0.143942 0.031008 0.086891 0.153955 -0.050165 0.024443 0.007827 0.124126 0.080677 -0.029323 0.091258 0.053866 0.081644 0.064287 -0.054257 -0.028253 -0.256732 0.081018 -0.088313 0.032974 0.042676 -0.117601 0.061631 -0.140403 -0.07452 -0.054501 0.032488 -4.88E-4 -0.002733 -0.172753 0.080065 0.080482 -0.078265 -0.007758 -0.006831 0.192073 -0.226863 -0.148704 -0.077058 0.095931 -0.101971 0.007738 0.002738 -0.183185 -0.078416 0.085421 0.059795 -0.001629 0.254022 0.097468 0.133822 -0.286067 -0.040077 -0.152735 -0.022574 -0.055336 0.070615 0.049166 -0.010149 0.124306 -0.200914 0.0219 -0.057625 -0.098357 0.051517 0.133641 0.087347 -0.228762 -0.142815 0.287694 0.017566 -0.007529 0.013309 0.111164 -0.041189 0.0265 -0.082694 0.06888 -0.005759 -0.144865 -0.019904 0.042003 -0.114617 -0.141964
-0.086374 -0.173713 -0.014181 0.081993 0.004904 0.078321 -0.28945 -0.097565 -0.026955 0.085276 0.058836 0.119839 0.049726 -0.110571 0.165079 0.105557 0.084291 0.108289 -0.007825 -0.049684 -0.121531 0.004278 0.060568 0.138684 -0.131083 -0.126079 0.020531 -0.162761 0.058521 -0.184569 0.14449 -0.06418 0.033442 0.071212 -0.165587 -0.208352 0.008254 -0.101255 0.135082 0.021349 0.092742 0.171699 -0.035255 -0.067157 0.015284 -0.142076 0.008836 -0.140133 -0.087679 -0.016177 0.103996 -0.010444 -0.001959 0.010209 0.171091 -0.002405 0.09676 -0.0519 -0.111366 -0.119709 0.072005 -0.074957 0.122007 -0.161659 0.098534 0.075551 0.148913 0.032398 0.11247 -0.114971 0.007797 -0.07144 0.088783 -0.122847 0.037456 -0.035748 0.048203 -0.092309 0.054347 -0.047935 0.024925 0.025881 0.081596 -0.133035 0.038881 0.078908 0.095957 0.033871 0.20492 -0.043074 -0.025419 0.028823 -0.104311 0.167427 -0.082055 -0.035152 0.124333 -0.211476 -0.141509 -0.040202
-0.207925 -0.031238 0.082163 0.179086 -0.011049 0.101676 -0.172497 0.031369 -0.036585 0.082538 0.010853 0.088945 0.073977 0.045206 -0.021791 0.150691 -0.036669 -0.025702 -0.064002 0.003069 0.02808 0.11103 -5.17E-4 0.128239 -0.074094 0.02344 -0.058141 0.004019 -0.022502 0.079552 -0.203532 0.009421 0.087308 -0.028827 0.034769 0.015613 0.043388 -0.139301 -0.025347 -0.0384 0.082153 0.116864 -0.017655 0.019318 -0.007335 -0.055005 -0.020556 -0.05292 -0.027509 0.075344 0.083221 0.021986 0.026952 -0.041735 0.015273 -0.086055 -0.133386 -0.026212 -0.026218 -0.063844 0.196772 0.06459 0.050209 0.139989 -0.01857 0.003146 -0.011515 -0.004013 -0.020224 -0.055746 -0.097654 -0.044181 0.013394 -0.071755 -0.120307 0.155758 -0.070199 -0.154657 0.094759 0.102938 0.007866 0.137307 -0.083226 -0.043489 0.113649 0.170538 -0.017505 0.142982 0.07524 -0.026108 -0.067334 0.055786 -0.029962 0.01172 0.107641 0.06595 0.011088 0.030178 -0.02023 0.029334
-2.648351 -0.794316 -2.108887 0.20446 0.883061 0.242784 1.848653 1.149137 -4.975573 0.237654 -1.499665 2.924494 0.344217 -1.640431 0.763777 0.138944 -3.029439 -2.813434 -0.761102 -1.057557 -1.373735 -0.870599 1.234095 0.127805 -1.372618 1.35802 -1.501738 0.80945 0.172993 -0.484995 1.783363 -0.047587 0.483285 -1.526831 2.103549 2.116639 4.583491 -4.022388 -0.843817 0.361243 -0.546655 -2.301259 -2.000973 2.64631 -1.604053 -1.914206 -1.581895 -0.464185 1.757769 1.056301 0.263866 -0.904419 -0.422466 0.007824 -1.651553 0.7499 1.638666 -0.336108 -3.288466 -2.953238 -1.135414 1.165223 -1.047256 -0.821696 -0.135806 0.434207 -2.389307 -3.56953 -0.656773 0.578325 3.337902 0.782195 -1.250815 2.925509 -1.981492 0.121786 0.836257 1.710923 -2.640405 -0.628995 0.247469 0.863847 1.749171 -0.214156 -0.274807 2.192709 -0.892334 -1.614644 -1.225919 -0.042182 2.51632 3.464583 -3.591523 -2.506587 0.990426 1.8843 -2.460629 0.953462 0.359605 2.267383
-0.061018 0.157623 0.117298 -0.109258 0.01787 0.045393 -0.022422 -0.294216 0.022256 0.058558 0.038763 0.036359 0.07868 -0.152594 -0.142051 -0.006561 0.048106 -0.186814 -0.219902 -0.146332 -0.040248 0.162923 0.206328 0.008315 0.064041 -0.061214 0.088903 0.028344 0.024874 0.075935 -0.107993 -0.283393 0.084838 0.187131 0.046335 0.263285 0.01179 -0.091048 -0.068498 -0.122058 -0.038751 -0.129411 -0.058456 -0.131053 0.030694 -0.04914 0.090078 0.005105 0.098069 -0.099897 0.334519 -0.048818 0.274796 -0.137175 0.00266 0.139418 0.004345 0.119594 -0.040263 -0.21202 0.038889 -0.176923 0.158875 0.078129 0.025839 -0.016447 -0.02998 -0.060089 -0.040361 0.099583 -0.008088 -0.092105 -0.119375 0.043943 0.139698 -0.224044 0.190238 -0.066093 0.103458 -0.004324 -0.130908 0.064415 0.004283 -0.207982 0.059064 0.041556 -0.028417 0.088197 0.079813 -0.058325 -0.11522 -0.016049 -0.123872 0.006802 0.019293 0.070081 0.043632 0.294809 -0.077686 0.04626
0.468124 0.05561 0.6261 1.431366 -0.197583 0.261863 0.949711 -3.133626 -1.283954 -1.550995 1.54988 -0.404773 0.077002 1.410362 -1.274238 1.349289 -1.164744 -0.546499 -5.12642 -0.118588 -0.753902 2.078658 -2.67347 0.617482 2.28507 -0.554645 0.926152 -0.73768 -0.327973 2.662122 0.778785 -3.956755 0.715716 -2.515779 -0.654362 -0.398897 -1.922042 -1.214916 -3.489688 0.008083 -0.182507 -3.230706 2.986844 -2.581722 -2.131293 0.550491 -0.575297 1.032858 0.033863 0.549328 2.158887 0.224631 -1.208955 -0.852245 -1.876035 -2.367234 -0.329535 0.060524 2.018398 -1.915078 -1.392324 -0.257994 -1.304255 3.323726 2.30374 -3.986873 0.797901 0.727501 0.402694 0.042771 1.508687 -3.866984 -3.05094 3.621505 0.522211 -0.933527 0.501158 0.930001 1.153842 -0.112792 0.981698 1.135506 -1.835513 -2.104743 -0.163192 2.676808 2.691545 1.172344 2.046042 0.48707 0.83416 -0.468312 -2.793722 0.817486 0.804553 -1.729648 -0.872203 3.345958 -2.165021 2.635121
0.0 0.0 0.0 0.0 0.0 0.0 0.0 0.0 0.0 0.0 0.0 0.0 0.0 0.0 0.0 0.0 0.0 0.0 0.0 0.0 0.0 0.0 0.0 0.0 0.0 0.0 0.0 0.0 0.0 0.0 0.0 0.0 0.0 0.0 0.0 0.0 0.0 0.0 0.0 0.0 0.0 0.0 0.0 0.0 0.0 0.0 0.0 0.0 0.0 0.0 0.0 0.0 0.0 0.0 0.0 0.0 0.0 0.0 0.0 0.0 0.0 0.0 0.0 0.0 0.0 0.0 0.0 0.0 0.0 0.0 0.0 0.0 0.0 0.0 0.0 0.0 0.0 0.0 0.0 0.0 0.0 0.0 0.0 0.0 0.0 0.0 0.0 0.0 0.0 0.0 0.0 0.0 0.0 0.0 0.0 0.0 0.0 0.0 0.0 0.0
0.0 0.0 0.0 0.0 0.0 0.0 0.0 0.0 0.0 0.0 0.0 0.0 0.0 0.0 0.0 0.0 0.0 0.0 0.0 0.0 0.0 0.0 0.0 0.0 0.0 0.0 0.0 0.0 0.0 0.0 0.0 0.0 0.0 0.0 0.0 0.0 0.0 0.0 0.0 0.0 0.0 0.0 0.0 0.0 0.0 0.0 0.0 0.0 0.0 0.0 0.0 0.0 0.0 0.0 0.0 0.0 0.0 0.0 0.0 0.0 0.0 0.0 0.0 0.0 0.0 0.0 0.0 0.0 0.0 0.0 0.0 0.0 0.0 0.0 0.0 0.0 0.0 0.0 0.0 0.0 0.0 0.0 0.0 0.0 0.0 0.0 0.0 0.0 0.0 0.0 0.0 0.0 0.0 0.0 0.0 0.0 0.0 0.0 0.0 0.0
-0.102512 -0.137975 -0.005604 0.242288 -0.142955 -0.058494 -0.204971 -0.171141 0.017741 0.033774 0.047629 0.201342 -0.122441 -0.04936 0.064534 0.115378 -0.00374 0.069758 0.065565 0.056957 0.083575 -0.100534 0.099924 0.25745 -0.141959 0.144956 -0.001332 -0.307599 0.033162 0.086502 -0.137898 0.159875 -0.268589 0.014961 -0.130899 -0.085488 -0.014699 0.125328 0.069008 -0.096135 -0.224001 0.138771 -0.217189 -0.192646 0.101742 -0.244453 0.057203 0.025029 -0.257823 0.276189 -0.001391 -0.017456 -0.044348 -0.089931 -0.021874 -0.024542 0.150338 -0.050178 -0.010381 0.093728 0.124586 0.142292 -0.013094 0.007065 -0.043516 0.062435 0.025189 0.076216 0.118479 -0.1482 -0.130158 0.161725 -0.051443 -0.051503 0.050845 -0.037333 -0.09139 -0.075807 0.088518 0.220332 -0.050065 0.085444 0.041319 0.013793 0.019875 0.032934 0.074062 -0.213363 0.048492 0.037202 0.003244 0.095669 -0.14965 0.185614 -0.062193 -0.199851 -0.022593 -0.160715 0.031865 0.035058
-0.134479 -0.201092 0.102271 0.002669 0.120794 -0.087992 -0.031231 -0.040148 -0.159061 0.010352 0.041171 -0.002003 0.079042 0.280674 -0.029083 0.058437 -0.150388 0.035032 0.021108 0.233462 -0.217474 0.06723 0.276668 0.112478 -0.150351 -0.103645 0.070888 -0.143294 0.196721 -0.063561 -0.088609 0.11372 0.007442 0.106444 -0.198926 -0.102521 -0.004449 0.091836 -0.14093 0.151173 -0.151609 0.047041 -0.026158 0.004994 -0.030211 0.068682 0.04013 -0.118331 -0.004907 0.153485 -0.080778 0.014527 0.081006 0.004299 0.075357 -0.013429 -0.083725 -0.013959 0.060696 -0.088104 -0.09536 -0.072839 -0.114671 -0.219741 -0.02541 0.064584 0.048715 -0.077685 0.072836 0.015792 0.072638 -0.049939 0.013054 0.008565 -5.15E-4 -0.112807 0.013752 -0.013242 -0.028483 0.009564 -0.021688 0.212303 0.030531 0.025818 0.106601 0.099459 -0.024813 -0.061896 0.199817 -0.080639 -0.257613 -0.180528 0.006001 -0.099301 -0.090026 -0.414161 -0.130542 0.119803 -0.128566 0.103501
0.032817 -0.089134 0.148761 0.025345 -0.01923 -0.148821 -0.205892 -0.112301 -0.237202 0.136287 0.134762 0.239492 0.128875 -0.183372 -0.040242 0.281763 -0.240697 0.347354 0.168752 0.047089 -0.180048 -8.65E-4 0.143859 0.078207 -0.204834 -0.147421 -0.064213 -0.052187 0.122064 -0.083446 0.001249 0.0749 -0.269208 0.095034 -0.185838 -0.031473 -0.047511 -0.052145 0.047224 0.114331 -0.122967 0.263975 -0.021193 0.034501 0.034191 -0.11869 0.125529 -0.031421 -0.229566 0.209471 0.051123 -0.197017 3.63E-4 -0.036714 0.266471 -0.174432 0.161867 -0.057331 0.167893 -0.052871 -0.059991 -0.070231 -0.143268 -0.104599 0.070071 0.004926 0.083664 -0.082291 0.204389 -0.107821 0.130021 0.012917 -4.5E-5 0.116778 -0.04665 0.060235 -0.244325 -0.149496 -0.014409 0.098801 -0.108386 0.101742 0.127589 -0.155718 -0.007094 0.228894 -0.07404 -0.030787 0.131071 -0.137504 -0.042937 0.107759 0.021141 0.202488 -0.106122 -0.297171 0.180313 -0.048691 0.07668 -0.105126
0.040639 0.081814 0.04287 0.062167 0.092794 0.114908 -5.3E-4 -0.061893 -0.128806 0.029658 -0.102642 0.050736 0.021353 0.278962 0.156361 -0.045776 -0.059025 0.007615 0.069272 0.03742 0.044666 -0.205296 -0.009373 0.060588 0.130976 -0.007905 -0.098053 0.083234 0.088487 0.073668 -0.063313 0.05638 -0.149995 0.040243 0.139103 0.120814 0.186168 0.077513 0.035539 -0.137722 0.149343 -0.011946 0.157701 0.051791 -0.073664 0.096946 -0.283681 0.058369 -0.065895 0.126711 -0.040991 -0.045914 -0.057224 -0.17697 0.066608 0.102407 -0.15335 -0.00258 -0.222251 -0.069709 -9.96E-4 0.033302 -0.223593 -0.01348 0.109527 0.085455 -0.086426 0.046289 0.047765 0.150103 -0.094972 -0.019492 -0.08396 0.061637 0.042416 0.083935 -0.175169 -0.031524 -0.150901 -0.072843 -0.056665 0.199748 0.160562 -0.070466 0.072887 0.025233 0.011767 0.031496 0.08045 -0.027642 0.037393 0.123465 -0.042501 0.013419 0.046506 -0.08898 -0.024989 -0.132646 0.135167 0.194549
-0.207925 -0.031238 0.082163 0.179086 -0.011049 0.101676 -0.172497 0.031369 -0.036585 0.082538 0.010853 0.088945 0.073977 0.045206 -0.021791 0.150691 -0.036669 -0.025702 -0.064002 0.003069 0.02808 0.11103 -5.17E-4 0.128239 -0.074094 0.02344 -0.058141 0.004019 -0.022502 0.079552 -0.203532 0.009421 0.087308 -0.028827 0.034769 0.015613 0.043388 -0.139301 -0.025347 -0.0384 0.082153 0.116864 -0.017655 0.019318 -0.007335 -0.055005 -0.020556 -0.05292 -0.027509 0.075344 0.083221 0.021986 0.026952 -0.041735 0.015273 -0.086055 -0.133386 -0.026212 -0.026218 -0.063844 0.196772 0.06459 0.050209 0.139989 -0.01857 0.003146 -0.011515 -0.004013 -0.020224 -0.055746 -0.097654 -0.044181 0.013394 -0.071755 -0.120307 0.155758 -0.070199 -0.154657 0.094759 0.102938 0.007866 0.137307 -0.083226 -0.043489 0.113649 0.170538 -0.017505 0.142982 0.07524 -0.026108 -0.067334 0.055786 -0.029962 0.01172 0.107641 0.06595 0.011088 0.030178 -0.02023 0.029334
-0.13354 -0.072754 -0.007195 0.179275 -0.013986 -0.015612 -0.056074 -0.057249 -0.020031 0.002666 0.055198 0.149266 0.181377 -0.055001 0.073616 0.033231 -0.058478 0.148101 -0.036411 0.150296 0.118337 0.031307 0.013423 0.004646 -0.039526 -0.082889 -0.074237 -0.092778 0.240521 -0.095478 -0.01374 -0.103553 0.122767 0.268229 -0.196032 0.092862 0.078208 -0.123231 0.026517 0.102546 -0.134965 0.140947 -0.048118 0.035173 -0.005344 -0.0791 -0.041948 0.193038 0.017944 0.171053 0.087434 -0.026544 -0.086944 0.075556 0.16496 -0.041385 0.165842 0.065898 -0.041054 -0.269939 0.087664 -0.166486 0.009718 -0.104804 0.030965 0.010436 0.222065 0.011496 0.124822 -0.050085 0.112975 -0.02506 0.038234 -0.181475 0.090691 -0.175996 -0.014729 0.052233 -0.107777 -0.033717 0.00807 0.029509 0.064998 0.010266 0.037016 -0.112709 0.07252 -0.075199 0.133232 0.09754 0.097934 -0.221872 -0.100128 0.296364 -0.185617 -0.209244 0.157865 0.017365 0.140593 -0.041874
3.64464 0.120737 0.234583 -0.047286 -2.44403 -1.5646 0.502477 -2.123885 -0.907352 -0.66465 -0.607587 1.265059 1.419313 1.261211 1.828819 -1.863068 -2.132535 -1.58331 -0.918094 0.403464 -1.024683 0.477185 0.352913 0.051351 -0.259953 -2.315706 -0.739288 -0.656564 -0.104557 0.5283 -1.628512 -2.186381 -2.084865 -0.963116 -1.66428 0.032482 0.910472 -1.621501 -2.742239 1.102564 -2.382405 -1.652111 0.608491 -2.941245 0.824031 2.176956 -0.65735 -0.257014 3.447926 1.132229 0.441598 0.195956 0.590327 -0.566671 -1.522722 1.811562 0.300597 -3.660629 1.054348 0.538979 -0.683409 0.021483 0.395053 1.978227 2.49301 -2.563801 1.607214 -1.281002 -1.244914 0.637996 4.236066 -0.305444 0.167391 1.44751 0.178217 -1.833969 -1.141988 0.861443 0.717557 1.571788 0.176346 0.586466 -1.05756 -0.884149 1.294284 2.356782 1.951907 1.384699 1.653598 -0.73366 1.768103 -2.35445 -1.991906 1.245281 -0.082094 -3.223882 -1.627845 1.992005 -1.372081 1.873966
0.074002 -0.063788 0.160293 0.194051 -0.024534 -0.030024 -0.187713 -0.044826 0.076949 0.095523 -0.137585 0.013852 -0.050179 0.048326 0.263667 0.085237 -0.165426 0.042254 -0.035459 0.055 -0.166614 -0.072184 0.088848 0.068027 -0.215575 -0.067813 -0.078024 -0.04475 0.154007 -0.017148 -0.056864 -0.051024 -0.049916 0.109646 0.002889 -0.039122 -0.078424 -0.011067 -0.119713 0.027515 -0.112816 0.103009 0.050107 -0.156814 0.111174 -0.129032 -0.038461 -0.159716 -0.036112 0.102498 0.080835 -0.013441 -6.26E-4 0.178404 -0.001746 0.123079 -0.103072 -0.105191 0.080667 -0.124167 -0.018573 -0.148246 0.026624 -0.195589 -0.084276 -0.066191 0.143754 0.117105 0.114259 -0.113821 0.089358 0.035148 -0.018761 -0.035304 0.08523 0.006602 -0.026959 0.024142 0.024419 0.070983 -0.100867 0.030023 -0.005167 -0.119567 -0.062776 0.099587 -0.017683 0.036127 0.122557 0.071333 -0.111727 -0.010973 -0.018033 0.08454 -0.001408 -0.132058 0.090106 0.141302 -0.036779 0.145349
0.041182 -0.071701 -0.007566 -0.111173 0.078129 -0.015794 0.102992 0.084804 -0.294614 0.062785 -0.224475 0.044822 -0.054604 0.018822 -0.254624 0.187632 0.057536 -0.04948 0.077868 0.052887 -0.065284 -0.04327 -0.015092 0.035227 -0.120777 -0.01384 0.019468 0.133926 -0.002242 0.025286 0.056421 -0.140413 -0.062551 0.118069 0.067541 0.127629 -0.190311 0.209374 0.192921 0.054712 -0.148947 0.032204 -0.170128 -0.03032 -0.002925 0.169345 0.085453 -0.024603 -0.011659 -0.145112 -0.290293 -0.065943 -0.09053 -0.275955 0.113964 -0.118032 -0.172779 -0.215132 0.00824 0.127013 -0.169866 0.062208 0.042766 -0.087616 -0.10884 0.286924 0.050741 0.130539 0.292731 0.017204 -0.096873 -0.187146 0.25168 0.10377 0.08209 -0.05794 0.019952 -0.023549 -0.204179 -0.090327 0.135311 0.171028 -0.109687 0.012397 -0.001672 0.281126 0.051025 0.031007 0.309401 0.149164 -0.249441 -0.005679 -0.012549 0.20681 0.267068 -0.060891 -0.256129 0.182048 0.03837 0.01928
-0.150785 -0.081011 -0.061871 0.266963 0.123219 -0.013375 0.08072 0.051106 -0.169758 0.128789 0.039297 -0.082919 0.143539 -0.046584 0.004741 -0.049257 0.090739 0.067428 -0.04246 0.015049 -0.214837 -0.005768 0.175041 0.091282 0.061826 0.021678 0.003198 -0.006624 0.07443 -0.079824 0.094131 -0.174896 -0.12778 0.033354 -0.049956 -0.058365 -0.133442 0.089648 -0.072845 -0.071167 -0.031689 0.220471 -0.147092 -0.063557 -0.117602 -0.004236 0.00852 -0.082039 -0.264681 0.186272 0.23906 -0.130856 0.043337 -0.002865 0.099129 0.019926 -0.156807 -0.087202 0.02784 0.006472 0.022519 -0.11337 -0.241594 -0.130686 0.002426 0.012162 -0.045928 0.130697 0.049801 -0.060679 -0.128187 0.200748 0.026667 0.040715 0.104184 0.134955 -0.163863 0.00163 0.073026 -0.079163 -0.07925 -0.037884 -0.107899 -0.138413 0.055179 -0.176505 0.291749 0.005834 -0.015985 0.15089 -0.026825 -0.089308 0.034124 0.269378 -0.015326 -0.08245 0.120742 -0.058267 0.109445 -0.124389
0.04549 -0.051785 0.174106 0.034199 -0.080868 -0.037415 0.05211 -0.026899 -0.021888 0.061626 0.149245 0.114315 0.018473 0.06264 0.030093 0.137472 -0.086845 0.057067 -0.031103 -0.068485 0.054243 0.073774 0.038683 0.033379 -0.119018 -0.072416 -0.165741 -0.016816 0.121598 -0.077073 0.099606 0.062103 -0.040035 0.068141 0.005477 0.132303 0.01272 0.05514 0.122993 0.051446 0.013353 0.019899 0.008173 -0.093342 -0.122565 -0.030433 -0.001395 0.049411 0.023408 0.134493 -0.05537 -0.111618 -0.046065 -0.194978 0.142434 0.042965 -0.046588 -0.197038 -0.057645 -0.049996 -0.135149 -0.189813 0.024843 -0.030328 -0.15667 -0.021638 -0.133393 0.057323 0.032384 -0.026734 0.009407 0.00478 0.093976 -0.036355 -0.074062 0.037496 -0.028338 -0.023725 -0.135321 -0.21834 -0.059628 0.06364 -0.09902 -0.090635 0.020864 -0.063638 -0.112708 -0.027789 -0.014143 0.137846 -0.066318 -0.040215 0.113535 0.180637 -0.052914 -0.069526 0.034951 0.03075 0.079559 -0.033956
2.13E-4 -0.049307 0.072899 0.006129 0.050615 0.012467 -0.097711 -0.035589 -0.162331 -0.140429 0.01302 0.084477 -0.060589 0.117149 -0.009214 0.06867 -0.092715 0.010699 -0.032614 -0.059592 0.03963 0.027581 0.02697 0.142012 -0.011719 -0.005771 0.020724 0.025448 0.197659 -0.084795 0.041242 -0.165967 -0.001382 0.137198 0.03344 -0.028928 0.093898 0.010328 0.149239 -0.003898 -0.009222 -0.160735 -2.63E-4 0.110294 -0.121119 0.0268 0.00304 -0.031128 -0.091666 -0.016481 0.046048 -0.0154 -0.232481 -0.085101 0.020624 -0.035974 -0.109907 -0.0055 -0.027902 -0.109031 -0.089104 -0.059246 -0.295593 -0.156424 0.026911 0.134819 -0.113929 0.001699 0.165319 0.079719 0.044356 0.022627 0.093824 -0.04391 0.133565 -0.129784 -0.059288 -0.109577 -0.071097 -0.034371 -0.020688 0.041542 0.074053 -0.074511 -0.04548 0.023734 0.014272 -0.034788 0.061586 -0.016588 -0.130291 0.073905 -0.061896 0.076689 -0.015738 -0.028718 0.026226 0.142794 0.038859 0.095937
-0.114376 0.190367 -0.085169 0.140458 0.001542 0.153638 -0.109023 0.068718 0.013477 0.131196 0.086964 0.060304 0.032839 -0.053869 0.084843 -0.128281 -0.055339 0.036939 -0.012242 0.065728 -0.089151 0.068414 0.066632 0.213579 0.088492 -0.025532 -0.030122 0.064068 0.023019 0.032063 -0.095119 0.040262 0.109431 -0.013202 -0.14028 -0.108669 0.028273 0.074112 -0.186072 -0.042131 -0.061392 -0.087595 -0.054971 0.034631 -0.002946 -0.119803 -0.072894 -0.085857 0.022441 -0.153217 -0.036583 0.100528 -0.108864 0.088881 0.034888 -0.095287 -0.00349 0.099044 0.017489 0.060897 0.104782 0.103129 0.035028 0.105341 0.008016 0.052301 0.045755 -0.001157 -0.0757 0.029447 0.033878 0.013445 -0.036319 -0.083518 -0.012151 -0.0495 -0.108775 0.003131 -0.042451 0.012068 0.001372 -0.053849 0.017563 0.054876 0.036072 -6.14E-4 0.01391 0.221451 0.053814 0.048663 -0.149017 -0.071268 -0.189548 0.029143 0.00622 0.028444 0.063316 0.045651 0.022505 -0.069051
2.137777 -0.974748 0.072652 2.098572 -0.678969 1.665627 -0.521455 -0.973408 0.909212 -1.050711 -2.824315 1.134052 0.625631 1.131462 0.714902 -0.472317 -0.013542 0.613974 -1.098939 0.687021 -0.682415 1.268699 -0.147631 -1.353892 -1.026762 -0.687672 -0.959907 0.3009 -0.09978 0.455798 0.096402 -1.162521 0.316029 2.091415 -0.492269 1.156199 -0.67755 -0.382533 -0.047855 0.159179 0.732501 0.890332 0.255977 -1.065735 0.561203 -0.134943 -0.20974 -0.699679 -0.11087 -0.227713 2.007648 -0.528998 1.091521 0.015548 1.731555 1.081908 1.160568 0.41392 -0.516722 -0.705984 0.416965 0.785667 1.044728 0.311198 -0.088564 -2.09848 0.710916 0.84738 1.43264 -0.591359 -0.409244 -0.227554 0.434697 -2.413202 -0.283258 0.934266 0.648165 1.496459 0.393841 0.713281 -1.038277 -0.274196 -0.995539 -1.127924 0.344616 -0.136349 1.888914 -0.2778 -0.118825 -0.243189 -0.939011 5.06E-4 -0.479629 0.474299 -0.076403 0.259018 -0.15572 1.205366 1.565774 -1.746225
-0.183128 -0.087107 0.031602 0.099018 0.021071 0.079998 -0.064354 0.076542 0.008966 0.003229 0.052935 0.045853 0.060945 0.019777 0.048584 0.170574 -0.109707 0.054505 0.172763 0.095302 0.013773 -0.112753 0.039878 0.158859 0.06016 -0.019411 0.074508 0.032466 0.170115 -0.091308 -0.200472 -0.028379 -0.097017 0.007897 0.055849 -0.077112 -0.001402 -0.035469 0.147883 -0.064111 0.087591 0.186928 -0.004454 -0.014993 0.068207 -0.206377 0.133724 -0.030723 -0.196554 0.020676 0.163017 0.07532 -0.055401 0.130117 -0.081786 0.219482 -0.029114 -0.097308 0.082428 -0.134385 -0.143951 -0.080913 0.011187 -0.024223 -0.014661 0.021482 -0.084808 -0.089789 0.158095 0.033389 0.126583 -0.04625 0.18094 -0.121442 0.04303 -0.034719 -0.034674 -0.123037 0.002637 0.043427 -0.065778 -0.134536 0.149485 -0.11202 -0.047233 0.078947 -0.111991 -0.079077 0.083711 0.081039 -0.029054 0.035974 -4.53E-4 -0.060803 -0.043175 -0.010376 0.007372 -0.057094 -0.061414 -0.045946
-0.00748 0.008934 0.084012 0.058355 0.014717 -0.007749 0.049191 -0.004629 -0.19388 0.002544 0.023517 -0.017794 -0.041612 0.118092 0.030013 0.06713 0.059148 -0.063731 0.026805 0.045672 0.091358 -0.026115 -0.012112 -0.084014 0.084465 0.046661 -0.046214 0.124803 0.169411 -0.120919 0.04224 -0.049386 0.002178 4.99E-4 -0.077977 0.099082 0.160779 0.015714 -0.038237 -0.038505 -0.15526 -0.029645 -0.016159 0.011524 -0.033447 0.234569 -0.117053 -0.152178 9.83E-4 0.032873 -0.170528 0.014042 -0.035236 -0.16959 -0.047424 0.118509 0.01316 0.012827 -0.022312 0.00153 0.028431 -0.301698 -0.098529 -0.119883 -0.007442 0.051439 0.016674 -0.135401 0.012726 0.116778 -0.153128 0.033551 0.020124 -0.034638 -0.081244 -0.019062 0.060226 0.199609 0.148264 0.174214 -0.052223 -0.009188 -0.005825 0.024146 0.228024 -0.050454 0.091037 0.028217 0.149879 0.17964 0.195036 0.033133 0.031735 -0.040466 -0.041427 -0.04243 -0.127373 0.015268 -0.053538 -0.07438
0.100692 -0.157131 0.139302 0.123578 0.151543 0.178422 -0.012679 -0.103362 0.233611 0.029945 -0.033496 -0.02353 -0.150988 -0.078962 0.230475 0.006161 -0.201667 0.084881 -0.295978 -0.216595 -0.152078 -0.096403 -0.182565 -0.034674 -0.008271 0.123985 -0.225344 0.060741 0.064737 -0.027452 -0.020276 -0.040379 -0.062847 -0.021902 -0.155636 0.098869 0.118253 -0.054786 -0.035252 0.089718 -0.093516 0.108242 -0.165133 -0.010665 -0.002421 -0.171869 -0.111112 -0.041381 -0.044332 -0.069941 -0.02046 0.052983 -0.30701 0.053758 -0.133805 0.122561 8.2E-4 0.037855 -0.034898 0.091687 -0.127096 0.09488 -0.140734 -0.009746 -0.040595 0.12427 0.130515 0.010606 0.177229 0.063676 0.149195 0.026542 -0.108012 0.401386 -0.015993 -0.159563 0.171247 0.017552 -0.091249 -0.185777 0.041517 -0.021989 -0.300138 0.0411 -0.232056 0.111526 -0.051533 0.011578 0.198834 -0.128702 0.184857 -0.029913 -0.123641 -0.092647 0.286203 -0.109599 0.093666 0.015337 -0.091583 0.060957
