-0.027751 -0.236417 0.035329 -0.015178 0.085594 0.115009 -0.256773 -0.207905 -0.036317 0.205622 0.307445 0.068497 0.1779 0.00518 0.225303 0.282446 -0.094408 0.034572 0.063258 0.03769 -0.133753 0.069426 0.338632 0.045353 -0.072922 -0.216289 0.042021 -0.220968 -0.025668 0.009022 0.093263 -0.104672 0.082561 0.155492 -0.03495 -0.085293 -0.0462 -0.07143 0.077188 0.062255 0.005506 0.084593 0.044633 0.016101 -0.060731 -0.014676 0.10661 -0.033706 -0.199983 0.299911 0.054336 -0.057527 -0.116818 0.097577 0.186033 -0.054987 0.077285 0.071407 0.200615 -0.057269 -0.008148 0.063125 -0.017685 -0.160977 -0.085853 -0.129897 0.239829 -0.137082 0.035124 -0.04857 0.042273 -0.219691 0.086647 -0.076075 0.260529 0.02115 -0.013517 0.124725 -0.046989 0.020679 0.013599 0.084107 0.021875 -0.22103 -0.140909 0.028579 -0.132448 -0.260188 -0.107119 0.099412 -0.217944 0.142839 -0.171686 -0.089725 -0.078693 -0.113678 0.308513 -0.040371 -0.024131 -0.151473
0.040605 -0.122513 0.0133 -0.014846 0.097934 0.005269 0.001168 0.026936 0.0137 -0.050717 -0.029762 0.026296 -0.123507 -0.058953 0.233202 0.169967 -0.070421 0.047084 -0.010955 0.12221 0.062894 0.152738 0.18115 -0.03879 -0.224771 -0.068218 -0.094537 -0.044041 -0.009634 -0.046667 -0.098465 0.083138 -0.072031 0.19798 0.002016 -0.153018 -0.075386 0.020654 -0.037364 0.127048 -0.183547 0.088872 -0.028551 0.105256 0.034935 -0.113322 -0.001606 0.121235 -0.118221 0.166055 0.035004 0.081893 -0.121582 -0.099498 0.120378 -0.016534 -0.15856 -0.031555 0.155184 0.009563 0.027574 -0.146988 0.129285 -0.061186 -0.032453 0.007123 0.094789 -0.061724 -0.056433 -0.181504 -0.012694 -0.090566 0.011397 0.083173 0.062284 -0.071866 -0.005043 -0.002711 -0.084026 -0.048686 -0.063399 0.162056 0.108399 -0.104081 0.007232 -0.004962 0.018736 0.015003 0.103073 0.023795 0.002341 0.008611 0.047705 -0.014164 0.007996 -0.20082 0.069452 -0.050441 -0.046158 -0.011962
-0.449514 -3.024607 0.042243 3.170194 1.759797 0.480987 1.094201 -0.006971 -0.96569 -0.148805 0.074175 1.323791 1.601697 -0.182129 0.004981 -1.567737 -0.30301 -1.872759 -3.417228 0.292079 1.703661 2.472165 0.819165 -2.151629 -0.208184 -0.947938 0.682635 0.138823 -2.589027 2.815107 -1.707123 -0.129851 -0.983082 2.177892 0.513827 1.524093 0.822677 1.027723 0.358639 0.508083 -4.146419 -1.23733 2.234925 2.690175 -1.456747 0.77654 -1.609197 1.134338 0.013176 1.826823 4.684102 3.468463 -1.309593 2.678628 -0.428876 -1.133013 0.756475 1.092979 -0.348727 2.212611 2.709875 -1.239361 -0.496404 0.193646 -0.606807 -1.115968 -0.453025 -1.717158 1.698369 -1.037762 0.290947 -1.747664 2.845743 -1.212974 -4.08707 2.867995 -0.758131 2.278133 0.214241 1.298188 1.004863 0.428493 -0.303549 0.242569 -3.655884 0.665608 1.570781 1.198643 -0.849665 -2.542761 0.498335 -2.32423 3.072325 -0.219302 -1.015446 -0.671457 -1.032226 -0.648929 -0.552722 -1.748002
0.074806 -0.038576 -0.19448 0.057255 0.068691 -0.04782 0.097058 0.059842 -0.140072 0.036235 -0.071102 0.068001 -0.084525 0.047549 0.031564 -0.049135 -0.026441 -0.012505 -0.004134 -0.129028 0.099372 0.068768 0.101173 -0.099885 -0.158092 0.071568 -0.063264 0.101806 -0.192624 -0.041044 -0.027601 -0.058429 -0.244386 0.072137 -2.34E-4 -0.083803 0.063738 -0.183304 0.036749 0.081024 -0.003629 0.150352 0.252911 0.076102 0.019521 0.00279 0.086612 -0.017451 -0.346163 -0.105909 -0.060365 0.067532 -0.021869 0.020855 0.109852 -0.007202 -0.015689 -0.08068 -0.097143 0.009575 -0.039112 -0.051496 0.035157 -0.018552 -0.033947 0.227269 -0.104073 -0.12691 0.18334 -0.202402 0.043572 0.144463 0.165425 -0.046803 -0.094491 0.063399 -0.016576 0.106637 0.116613 -0.164999 -0.138085 0.017731 0.109944 -0.035171 0.03135 -0.076046 0.067352 0.207258 0.01746 -0.059428 -0.219544 -0.009751 -0.011739 -0.074095 -0.021344 -0.099332 -0.108782 0.040108 -0.196528 -0.087025
-0.13768 -0.201571 0.054502 -0.142465 -0.108255 0.07065 -0.009103 -0.092458 0.215488 0.07777 0.029032 0.268355 0.090532 -0.596123 0.294971 -0.090119 -0.394769 0.311767 0.009669 0.111242 -0.038815 0.307783 0.300829 -0.379539 -0.048049 -0.124994 -0.146036 -0.243153 -9.51E-4 0.017561 0.100612 0.071606 -0.187089 0.033611 0.027216 0.194418 -0.053427 0.085618 -0.121294 0.105338 0.00947 0.091219 0.307293 -0.150568 -0.479276 0.065271 0.047155 0.213855 -0.010311 0.241173 -0.278427 0.197087 -0.370024 -0.026054 0.040041 0.069136 0.035544 -0.024511 -0.164429 -0.388282 0.170408 -0.166917 -0.047778 -0.288538 -0.328958 -0.049496 0.012893 0.176116 -0.041817 -0.165991 0.038232 -0.088596 -0.154954 0.203231 0.014575 -0.258465 -0.08697 -0.121795 0.05038 0.002782 0.098946 -0.099675 -0.11013 -0.219221 -0.329511 -0.028427 -0.123925 -0.124214 0.240438 0.073896 -0.379397 -0.096192 0.038104 0.155094 -0.077469 -0.36243 0.186912 -0.334019 -0.34295 -0.251195
-0.140785 -0.14728 -0.027616 0.08445 -0.152002 0.023071 0.025384 -0.125483 -0.174535 0.123511 0.183223 0.057582 -0.114695 -0.126659 0.312273 0.107716 0.076027 -0.022061 -0.033984 -0.035121 -0.196234 0.084876 0.242653 0.041485 -0.033119 0.006834 0.068452 0.09493 -0.009738 -0.022149 0.04009 0.025885 -0.102782 0.076223 -0.119503 -0.163882 0.006091 -0.143649 0.042611 0.081483 -0.033372 0.179769 0.068813 -0.090208 0.071727 -0.153766 0.05288 0.091442 0.004049 0.058936 0.088653 -0.241223 0.034444 0.149167 -0.015737 -0.019929 0.114689 0.067139 -0.021938 -0.176811 0.159565 -0.13655 -0.091767 -0.318583 -0.315485 -0.007252 0.060879 0.042017 0.030844 -0.125873 0.016578 0.08261 -0.159142 0.013366 -0.060969 -0.012505 -0.13003 0.010829 -0.002904 -0.100702 -0.084819 0.117446 0.074885 -0.146817 0.13477 -0.058325 0.044237 -0.04391 0.144159 -0.039606 0.042236 -0.111675 -0.092263 0.084575 -0.225227 -0.206438 0.308123 -0.030676 -0.100911 0.028808
0.0 0.0 0.0 0.0 0.0 0.0 0.0 0.0 0.0 0.0 0.0 0.0 0.0 0.0 0.0 0.0 0.0 0.0 0.0 0.0 0.0 0.0 0.0 0.0 0.0 0.0 0.0 0.0 0.0 0.0 0.0 0.0 0.0 0.0 0.0 0.0 0.0 0.0 0.0 0.0 0.0 0.0 0.0 0.0 0.0 0.0 0.0 0.0 0.0 0.0 0.0 0.0 0.0 0.0 0.0 0.0 0.0 0.0 0.0 0.0 0.0 0.0 0.0 0.0 0.0 0.0 0.0 0.0 0.0 0.0 0.0 0.0 0.0 0.0 0.0 0.0 0.0 0.0 0.0 0.0 0.0 0.0 0.0 0.0 0.0 0.0 0.0 0.0 0.0 0.0 0.0 0.0 0.0 0.0 0.0 0.0 0.0 0.0 0.0 0.0
0.0 0.0 0.0 0.0 0.0 0.0 0.0 0.0 0.0 0.0 0.0 0.0 0.0 0.0 0.0 0.0 0.0 0.0 0.0 0.0 0.0 0.0 0.0 0.0 0.0 0.0 0.0 0.0 0.0 0.0 0.0 0.0 0.0 0.0 0.0 0.0 0.0 0.0 0.0 0.0 0.0 0.0 0.0 0.0 0.0 0.0 0.0 0.0 0.0 0.0 0.0 0.0 0.0 0.0 0.0 0.0 0.0 0.0 0.0 0.0 0.0 0.0 0.0 0.0 0.0 0.0 0.0 0.0 0.0 0.0 0.0 0.0 0.0 0.0 0.0 0.0 0.0 0.0 0.0 0.0 0.0 0.0 0.0 0.0 0.0 0.0 0.0 0.0 0.0 0.0 0.0 0.0 0.0 0.0 0.0 0.0 0.0 0.0 0.0 0.0
-2.86487 -1.146279 -0.566163 -0.990477 -1.618847 2.036339 0.555441 1.704816 0.688908 -2.292091 -0.235217 0.077252 -0.854118 0.263668 -0.381255 -0.161042 1.999406 1.996135 -0.839026 1.052402 -5.886361 -0.212864 -0.18879 -1.915675 -1.055145 0.549492 -0.965512 -0.667464 -0.422146 1.332942 0.570087 -0.513753 1.360729 -2.76108 -3.519346 0.103601 -1.589563 -1.859558 -0.653219 -1.646626 -0.259637 -0.525693 0.009921 -2.682042 -1.009454 0.233616 -0.266877 0.713851 -1.947569 0.160659 -1.722403 1.417455 -0.162932 1.28665 0.829504 0.760028 -1.776738 -0.908803 -0.171827 2.360478 2.300165 -2.504569 -0.540763 2.192286 0.455256 0.03588 1.836919 -0.552985 2.900806 -0.096961 0.902859 1.918201 -2.990417 -3.584651 -2.513965 1.482526 0.164583 0.220168 -1.88604 -0.367759 0.127158 -2.034246 0.625244 -1.149215 0.047415 0.686924 1.786414 1.342871 -3.244648 2.829941 -2.32806 1.961059 2.623209 1.06738 0.630689 0.876015 -2.542246 1.242328 0.912035 -0.23115
0.061618 -0.084804 0.017171 0.001671 -0.02128 -0.002998 -0.076087 0.006964 -0.082538 -0.013171 0.038778 0.009566 0.07227 -0.007531 0.079512 0.084291 -0.010692 0.040041 0.026516 -0.065386 -0.098247 -0.005097 0.085413 0.032953 -0.032067 -0.030741 -0.014846 -0.013908 0.085158 -0.018904 0.050455 -0.041206 -0.119717 0.00381 -0.080553 -0.007816 -0.023771 0.048007 0.061321 0.034487 -0.037376 0.05589 0.071543 0.00239 0.023685 -0.067461 -0.018301 -2.62E-4 -0.090765 0.105829 0.002854 -0.113866 -0.015003 0.07953 0.080154 -0.00901 0.014921 -0.042097 0.017232 0.010061 0.02612 -0.099584 0.078323 -0.102921 -0.044924 -0.047323 0.119792 0.055589 0.061809 -0.052072 -0.013531 0.010311 0.053329 0.069202 0.059055 -0.02725 -0.034648 -0.031556 0.044102 -0.003554 0.021234 0.049019 0.093016 -0.028378 0.019717 0.035279 0.047285 0.016462 0.127791 0.099933 -0.044888 -0.054611 -0.024683 0.101597 -0.110842 -0.060721 0.023732 0.030292 -0.025025 -0.045851
-0.11719 0.157112 -0.014117 -0.088458 -0.080283 0.118121 -0.031509 -0.018573 -0.083695 0.070928 0.089856 0.085562 0.01686 -0.109276 0.14001 0.040275 -0.128641 0.025602 -0.042511 -0.070822 -0.095003 0.099692 0.143652 0.141249 -0.040176 0.080077 -0.08681 0.030607 -0.020226 0.142357 0.07923 0.088488 -0.322635 0.060545 0.157514 -0.083109 0.042134 0.069799 0.002264 -0.247601 -0.0496 -0.088127 -0.00728 0.14979 -0.12509 -0.133064 -0.160255 0.02237 -0.08645 0.070527 0.143149 0.137326 -0.054762 0.137942 -0.195493 -0.06551 -0.154348 0.135263 -0.161696 -0.042704 -0.006986 0.099685 0.061137 -0.044457 -0.059555 0.216352 0.054275 -0.015218 0.045034 -0.014972 -0.007714 -0.012673 0.066129 0.02302 -0.013105 0.013703 -0.197739 0.021511 0.056039 -0.097501 -0.128551 0.359602 0.084534 -0.132362 -0.049248 0.040423 -0.009948 0.066171 0.073117 -0.121229 -0.056422 0.103031 -0.047446 -0.131591 -0.061782 0.034015 -0.026256 0.001815 -0.010916 0.008569
0.166865 -0.033351 -0.013364 -0.059014 -0.095169 -0.021507 -0.126788 0.103728 -0.200711 -0.063152 0.044354 0.134222 0.002393 0.071524 0.209815 0.100187 0.025401 0.083631 0.120448 0.173878 -0.091184 0.033918 0.054121 0.121356 -0.168415 -0.048991 -0.209931 -0.016042 0.202225 -0.007166 -0.110802 -0.028926 -0.11468 0.016808 -0.064513 -0.05835 -0.015135 0.093734 0.167046 -0.014056 0.02555 -0.101082 -0.016676 -0.00246 -0.017495 0.184926 -0.038011 -0.106257 0.001132 0.03659 0.080797 -0.16487 -0.164051 -0.024617 0.144233 0.037146 0.064814 -0.135114 0.218106 -0.087954 0.024218 -0.008723 0.020657 -0.10933 -0.0401 -0.009808 -0.283523 0.179888 -0.016468 0.100665 -0.045627 0.125868 0.040189 0.113707 0.238166 -0.079786 0.009467 -0.061173 -0.064632 -0.277119 0.084403 -0.091058 0.212317 -0.16461 -0.095926 -0.049768 -0.09268 0.023356 0.096515 0.010373 -0.174271 -0.082788 -0.155016 0.104184 0.044246 0.051147 0.02525 -0.044468 -0.064392 -0.011243
-0.020291 -0.078982 0.103547 -0.149984 0.254967 0.01435 0.038621 0.005906 0.024726 0.077699 0.043 -0.049641 -0.082927 -0.050978 0.082935 -0.093065 -0.184395 -0.017854 -0.053342 -0.028176 -0.029195 -0.153984 0.019889 0.181048 -0.058189 0.063653 -0.161541 -0.00174 0.033358 -0.123348 0.070983 0.004741 0.101675 0.198518 0.118754 0.004218 0.186596 -0.119807 -0.153255 -0.142196 0.163862 0.021624 -0.164297 0.053947 -0.13113 -0.085746 0.002529 0.02774 -0.064514 0.045825 -0.047978 -0.094305 -0.027934 -0.038012 0.006109 0.074306 0.016115 -0.02377 -0.121417 -0.053733 0.205385 -0.013584 0.013277 -0.077959 0.168715 0.056688 0.092666 -0.080663 0.088818 0.009786 -0.053742 0.128487 -0.043222 -0.022282 -0.087541 0.158933 0.255464 -0.081204 -0.088342 -0.043353 -0.017576 -0.012415 0.177839 0.086675 -0.114006 0.032893 0.067989 -0.002605 -0.069521 0.122596 0.041654 -0.006527 -0.029684 -0.004282 -0.059009 -0.209141 0.049743 0.051203 0.100544 0.096933
2.591633 1.608701 -2.087245 2.00752 3.012652 4.995656 0.847355 -1.594905 -0.365708 -1.629805 -1.650237 3.712017 -0.231463 -0.537534 -2.036098 2.002639 -0.696666 -4.310136 -1.477319 -1.356504 -0.581823 -1.830239 -0.272773 -1.648095 0.090509 0.008711 0.330842 0.396714 2.341035 -0.526067 1.155793 -1.730906 -1.010387 -1.342646 -1.939355 0.734869 0.727366 0.700702 1.516974 -2.133831 -0.280653 -3.051674 0.017123 0.532043 1.478449 0.375441 0.920129 1.548929 1.087478 0.668327 0.707416 3.249232 -0.362503 1.273221 -2.929682 -0.245389 1.633444 -0.119836 0.103459 -3.445175 0.513245 0.427807 0.738792 1.448203 0.501908 0.362882 -0.731533 -0.391201 0.037778 3.053553 4.030229 1.793904 1.24136 0.081706 -1.401954 -0.638804 -0.487445 -0.267924 0.012844 0.538179 -0.241935 -0.068756 1.351665 -0.112558 0.001814 0.447262 0.833441 -0.023876 1.212707 1.514635 -0.568611 0.376173 -3.663739 -4.345135 -0.444319 2.139788 -2.53093 0.92131 -1.399435 1.763954
-0.045549 -0.019643 0.046605 0.01937 -0.048165 0.002386 0.133692 -0.105972 -0.036092 0.01926 -0.041897 0.101992 -0.024171 -0.015948 -0.078548 0.018259 -0.021959 -6.9E-5 0.068206 0.037825 0.056655 -0.263488 0.019989 0.022684 -0.095743 0.148716 0.020395 0.005975 0.24558 -0.064396 -0.038624 0.103727 -0.009889 0.096239 -0.304886 0.02822 0.080687 0.038994 0.079709 -0.050449 0.091042 0.026191 0.163824 -0.046615 -0.100267 0.010837 -0.087407 0.084683 -0.041542 -0.01353 0.034989 -0.127666 0.142675 -0.144064 -0.010746 0.042543 -0.055325 -0.066353 -0.06669 -0.203929 0.043696 -0.15489 0.225267 -0.112238 -0.083936 0.01865 0.080721 -0.045273 0.053165 0.012791 -0.251947 -0.087307 -0.030465 0.051097 -0.029058 -0.055214 -0.077598 -0.017701 0.140202 -0.094673 -0.079917 0.236495 -0.033887 0.011453 -0.003383 0.141896 -0.034788 -0.14658 0.023186 0.099968 -0.072668 -0.031315 -0.073928 0.05957 0.035095 -0.094544 -4.16E-4 0.006228 0.001092 -0.050299
0.065293 0.125328 0.047517 0.101579 0.239204 -0.032909 0.091249 -0.268676 -0.200299 -0.062418 -0.148884 0.200596 -0.164423 0.086752 -0.004277 -0.003788 -0.210687 0.021066 -0.059793 0.070649 -0.086241 0.093167 0.26656 -0.38652 0.040532 -0.033728 0.061649 0.349691 0.098071 0.155348 0.007041 0.029216 0.030356 0.121543 -0.116491 -0.049152 0.340361 -0.092031 0.067232 -0.082542 0.19359 -0.082622 0.020129 0.017139 -0.088447 -0.125735 0.097803 -0.133369 0.071885 0.136886 -0.099415 0.151644 -0.143832 0.165491 -0.184189 -0.034039 -0.062455 -0.052868 0.190477 -0.140846 -0.053768 0.126428 -0.238267 -0.137597 -0.04409 0.084917 0.16301 0.246386 0.216856 -0.087721 -0.063226 0.101558 -0.368357 0.146025 -0.152885 -0.042397 -0.264961 -0.079635 -0.144328 0.019048 0.035422 -0.03887 -0.05916 -0.136405 -0.027318 0.017228 0.044776 0.025228 0.158469 0.158712 0.042441 -0.012794 -0.301657 0.070901 0.041701 0.041495 0.138091 0.357448 -0.283685 -0.258274
-0.316658 0.212028 -0.059977 0.132011 0.37033 0.703501 0.083389 -0.046105 -0.037642 0.139821 0.493519 0.170884 0.133771 0.016472 -0.095247 0.199701 -0.142871 0.161396 0.535879 0.440796 -0.179019 0.319009 -0.103375 -0.043141 0.265523 -0.717818 -0.272466 0.135264 -0.26464 -0.142482 -0.589032 -0.500419 -0.140646 0.330328 0.305613 -0.096397 -0.376476 -0.466524 0.872597 -0.125965 0.10416 0.334707 0.022555 0.399478 -0.438641 -0.267255 0.143383 -0.040206 -0.365472 -0.155641 -0.349142 0.388656 -0.606691 0.096789 -0.408327 -0.30946 -0.345966 -0.273992 0.378019 -0.443979 -0.002402 0.027216 -0.268289 -0.736972 -0.080534 0.019459 -0.038355 0.030362 0.468755 -0.623643 0.020619 0.109842 -0.366401 -0.542532 -0.258902 -0.761914 -0.499557 0.575092 -0.165105 -0.397185 0.002199 0.574478 -0.159968 0.396524 0.750811 0.320227 -0.208562 -0.196729 -0.033467 0.388672 0.545084 0.035616 0.021351 -0.077257 -0.060122 -0.242944 0.298754 -0.086518 -0.394661 -0.349588
-0.030305 -0.086207 -0.17482 -0.214962 0.107996 0.167696 -0.109574 -0.009227 0.133174 0.056259 0.239405 0.148482 0.032517 -0.135072 0.001941 0.102406 -0.001066 0.006701 0.191638 -0.12517 -0.266031 -0.20022 0.172366 0.003835 0.02928 0.0083 -0.133356 0.052814 0.244244 -0.277273 -0.118515 -0.041032 -0.17371 -0.112214 -0.102664 -0.180486 -0.124755 0.124232 -0.155425 -0.03034 0.03451 0.116482 0.034996 0.036234 -0.004745 -0.171005 -0.062025 0.037084 -0.109243 -0.00455 0.007714 -0.004571 0.103462 0.05499 -0.031422 -0.17446 -0.059431 -0.064688 0.096695 0.065931 0.029682 -0.079837 -0.069316 -0.1414 0.132742 0.202505 -0.091125 -0.050372 0.126015 -0.056049 -0.049156 -0.049931 0.06987 -0.085604 0.089822 -0.060363 0.143636 -0.170348 -0.020026 -0.198879 -0.051678 0.078707 0.08747 -0.191747 -0.118135 0.177043 -0.024627 -0.051342 -0.035965 0.168964 -0.139358 -0.135296 -0.014475 0.00144 -0.043108 -0.043513 -0.238457 -0.060262 -0.005668 0.039556
0.021801 0.047767 0.03396 0.045414 -0.116247 -0.055074 -0.024745 -0.074947 -4.79E-4 0.04414 0.181623 -0.224626 -0.073607 -0.060446 0.011759 -0.063758 -0.009581 -0.110683 -0.021059 -0.021534 -0.180234 0.032658 0.048933 0.018761 -0.03702 0.149393 0.035452 -0.019397 0.338091 -0.067393 -0.029922 0.053453 0.202563 0.139385 0.139224 0.024787 0.11352 0.091446 -0.017206 0.079608 -0.082898 0.043839 0.087418 0.1131 -0.026485 0.055588 -0.016671 -0.153957 0.296557 0.090681 -0.146927 -0.104523 -0.076023 -0.013352 0.168942 -0.123345 -0.015107 0.009174 -0.023022 -0.070333 0.100208 -0.195211 -0.036155 -0.079596 -0.209194 0.025225 -0.104081 -0.068625 0.096678 0.046218 0.046445 0.075604 0.059536 0.022914 -0.147549 -0.341762 0.078235 0.099777 -0.027845 0.151788 -0.205136 -0.039023 0.169104 0.026798 0.082909 0.008252 0.059797 -0.212183 0.046873 0.038391 0.033162 -0.112818 0.107139 -0.090984 0.104094 -0.085878 0.006286 0.16308 0.060007 -0.056075
-0.108733 -0.061423 -0.098863 -0.132174 0.184499 -0.159858 0.044677 0.091311 0.018223 0.206392 0.081431 0.184179 0.086857 -0.192188 0.062003 0.012817 -0.027886 0.136135 0.138969 -0.074148 0.157175 0.23459 0.08172 0.162628 -0.009311 0.056522 0.039702 0.086811 -0.104706 -0.112551 -0.082889 -0.070624 -0.169422 0.088699 -0.159366 0.019041 0.045287 0.042583 0.102902 -0.249259 -0.127177 0.005548 0.100066 0.140519 -0.113002 0.106162 -0.007585 -0.092711 -0.339348 -0.016454 0.327331 -0.065714 -0.053133 0.046734 -0.078521 -0.151404 -0.054898 0.120586 0.031034 -0.242538 -0.111968 0.087063 0.162687 -0.245404 -0.050231 -0.015502 -0.306047 -0.169036 -0.107036 0.126173 -0.088695 0.239271 -0.065743 0.175986 -0.147415 -0.182975 -0.107658 -0.289069 -0.144229 -0.006646 -0.025676 0.269919 0.169115 -0.18592 -0.171916 0.156869 0.058985 -0.044186 -0.091025 -0.205298 -0.183991 0.011627 0.369494 0.13835 0.141525 0.027377 -0.19293 0.150134 0.254698 -0.015459
-0.098404 -0.092019 -0.176187 0.032712 0.049707 -0.030956 -0.091912 0.134224 -0.146579 0.017725 0.022746 0.057536 -0.287703 0.061561 0.084539 0.125652 0.142267 -0.011271 0.167804 0.061673 -0.212739 -0.116748 -0.09634 0.067089 0.029368 -0.147142 0.056875 -0.06948 0.014244 0.05351 -0.055951 -0.021928 -0.013493 0.145251 0.061199 -0.131191 0.109559 0.075543 0.052423 0.123074 -0.098416 -0.032614 0.019172 0.002749 -0.118727 0.023699 -0.09421 0.138589 -0.089739 0.040103 -0.009055 0.101395 -0.273044 -0.098874 -0.211187 -0.124934 -0.102274 0.006405 -0.109826 -0.094551 0.014572 -0.013857 0.00782 -0.118722 0.096017 0.172045 -0.019846 -0.064968 -0.055594 -0.119587 -0.09438 0.005036 0.219564 -0.038809 0.174684 -0.053167 -0.014943 -0.029397 0.03666 -0.164544 0.208597 -0.076378 -0.071843 -0.059879 0.107336 0.256068 0.164719 7.57E-4 -0.150156 0.059683 -0.013761 -0.252905 -6.8E-5 -0.161514 -0.024741 -0.065036 -0.159186 -0.056223 0.213883 0.1029
-0.052909 0.025143 0.068653 0.007157 0.011234 0.036372 0.043707 0.054511 -0.053174 -0.043019 0.060511 -0.048646 -0.067574 0.073135 0.180058 -0.067954 0.056104 0.048957 -0.026837 0.017887 -0.066345 0.111809 0.008814 0.042789 -0.081723 -0.231614 -0.054533 -0.042471 0.174947 0.003484 0.075105 -0.05242 -0.102105 0.069054 -0.041269 0.032313 0.116635 5.57E-4 0.085291 0.110494 0.108896 0.042603 -0.056126 0.017715 0.092263 0.169691 0.112594 0.041834 0.060141 0.041644 0.04647 0.064717 -9.63E-4 -0.13351 0.063508 -0.237244 0.079755 -0.099942 0.051928 -0.116207 -0.026734 -0.055449 0.042605 -0.042566 0.040305 0.049141 0.103737 0.088645 -0.117647 -0.164979 -0.036473 -0.052894 0.086874 0.089989 0.129154 -0.122938 -0.022409 -0.039708 -0.120727 -0.078467 -0.016841 0.107075 0.039005 -0.061214 0.127975 0.050425 -0.016271 -0.057088 -0.083193 0.066411 -0.123916 0.0576 0.073208 0.049729 -0.145444 -0.117469 0.03845 -0.056778 -0.005137 0.081234
-0.120655 -0.114704 0.047374 -0.021404 -0.020639 0.003545 0.177667 -0.074412 -0.066059 0.014933 0.163225 0.19313 0.004229 0.016872 -0.089871 0.137059 0.096737 0.138408 0.112671 0.106812 0.118944 -0.01752 0.135427 -0.03879 -0.060091 -0.160195 0.094608 -0.089187 0.086864 -0.025281 -0.013101 -0.151751 0.006302 0.093827 -0.133803 0.002126 -0.012279 -0.017964 0.090803 0.030773 -0.024686 0.069793 -0.035981 -0.034237 0.06671 -0.072007 -0.122216 -0.018611 -0.041648 0.042362 0.07829 0.010489 -0.102132 -0.108514 -0.066325 -0.056311 -0.005367 0.10405 0.041188 -0.095706 0.188794 -0.087041 0.048294 -0.107356 -0.166789 -0.019761 0.119193 -0.058649 0.068182 -0.017909 -0.159888 0.076396 -0.03347 -0.019074 -0.031097 0.013053 -0.110123 0.041476 -0.183647 -0.089816 0.138328 0.176621 0.017551 -0.018536 0.116938 -0.065693 0.252981 0.023448 0.16063 0.081983 -0.042583 0.011384 -0.03832 0.052992 -0.046198 -0.184429 -0.010455 -0.050771 -0.113179 -0.166056
0.197396 0.141707 0.092534 0.199804 -0.123191 -0.049013 0.00895 -0.047513 -0.013472 0.194544 0.057977 0.048498 -0.140137 0.129346 -0.018031 0.165885 0.041469 0.014493 0.066819 -0.010592 0.113097 0.094493 0.03256 0.196491 -0.062141 -0.1798 0.122765 0.21521 0.02735 0.170695 -0.203144 -0.157013 -0.145758 0.081939 -0.233847 -0.005719 0.022763 -0.118856 0.055909 -0.078697 -0.158785 0.023631 -0.064007 0.091202 -0.141197 0.066174 -0.11737 -0.121205 0.133161 -0.108418 -0.093529 0.05574 0.071134 0.134457 -0.167821 -0.10948 0.002601 0.018946 -0.010482 -0.065612 -0.090661 -0.144696 -0.108259 -0.097218 0.10514 0.049914 0.130105 0.009021 -0.009061 -0.070899 0.191656 -0.028143 -0.075195 -0.13224 -0.02753 -0.025296 -0.100562 -0.015778 -0.03129 -0.143999 0.048102 -0.013685 -0.062666 0.214093 0.01729 7.0E-4 0.185379 -0.133721 0.172389 0.185067 0.017544 -0.018556 -0.183061 -0.020559 0.115014 -0.067889 -0.060251 -0.040384 0.01641 -0.114698
-0.047421 -0.15849 0.107499 0.089927 0.167776 0.08617 -0.300314 -0.309623 0.108092 0.189928 0.056687 0.033222 -0.077897 -0.080874 0.159018 0.266839 -0.245001 0.016831 -0.085825 0.058383 -0.059198 -0.055262 0.240707 -0.12969 -0.22039 0.060318 -0.047124 -0.139865 0.089529 -0.172326 0.039714 -0.133083 -0.093917 0.050088 -0.217563 -0.099461 0.041898 -0.126919 0.020688 0.317283 0.16597 0.022872 0.046324 -0.073254 -0.180954 0.079862 0.019486 0.185367 0.118476 0.006355 -0.032953 -0.037425 0.063885 0.11699 0.184923 0.052025 0.128145 -0.13686 0.190992 -0.211976 0.013083 -0.015876 -0.029147 0.01214 -0.021098 0.071397 0.239282 -0.021331 -0.132596 -0.213218 -0.047197 -0.061747 0.108005 0.06585 0.170104 0.21 0.017802 0.149472 0.139998 -0.100998 0.016478 -0.071088 -0.215638 -0.123884 -0.172349 0.055991 -0.115719 -0.021301 0.071983 0.092645 -0.139537 0.078519 -0.099633 0.035876 -0.078405 -0.346964 0.042416 0.013565 -0.105723 -0.0419
-0.120655 -0.114704 0.047374 -0.021404 -0.020639 0.003545 0.177667 -0.074412 -0.066059 0.014933 0.163225 0.19313 0.004229 0.016872 -0.089871 0.137059 0.096737 0.138408 0.112671 0.106812 0.118944 -0.01752 0.135427 -0.03879 -0.060091 -0.160195 0.094608 -0.089187 0.086864 -0.025281 -0.013101 -0.151751 0.006302 0.093827 -0.133803 0.002126 -0.012279 -0.017964 0.090803 0.030773 -0.024686 0.069793 -0.035981 -0.034237 0.06671 -0.072007 -0.122216 -0.018611 -0.041648 0.042362 0.07829 0.010489 -0.102132 -0.108514 -0.066325 -0.056311 -0.005367 0.10405 0.041188 -0.095706 0.188794 -0.087041 0.048294 -0.107356 -0.166789 -0.019761 0.119193 -0.058649 0.068182 -0.017909 -0.159888 0.076396 -0.03347 -0.019074 -0.031097 0.013053 -0.110123 0.041476 -0.183647 -0.089816 0.138328 0.176621 0.017551 -0.018536 0.116938 -0.065693 0.252981 0.023448 0.16063 0.081983 -0.042583 0.011384 -0.03832 0.052992 -0.046198 -0.184429 -0.010455 -0.050771 -0.113179 -0.166056
-0.044168 -0.117803 0.268406 0.010394 -0.149524 -0.089151 -0.06082 -0.197596 0.008691 0.156768 0.181038 0.129038 0.016221 -0.036438 0.194856 -0.04805 0.086882 0.14071 -0.021328 0.144548 -0.099619 -0.027536 0.077552 -0.019067 -0.056166 -0.122477 0.067205 -0.063809 0.187353 -0.209682 0.11108 -0.107491 0.084212 -0.087898 0.010019 -0.056394 -0.044743 0.025779 0.023802 0.038703 -0.179303 0.15181 0.12928 -0.192353 0.002072 0.008051 0.024824 -0.054588 -0.226083 0.028261 0.088953 -0.086445 -0.123716 -0.111986 -0.012371 -0.125387 0.024884 -0.062936 -0.040219 -0.03747 -0.025231 -0.013628 -0.059983 0.0825 -0.06748 -0.038068 -0.013155 0.017313 -0.01329 0.044503 -0.040359 -0.077016 -0.036321 0.045117 -0.028982 0.049528 -0.052906 0.034939 -0.175837 -0.0236 -0.138658 -0.086626 0.101315 -0.13255 -0.104777 0.066496 -0.031145 0.053452 0.179524 -0.073092 -0.135615 0.088795 0.116699 0.049621 -0.055746 -0.032017 0.133126 0.150626 0.036434 -0.185126
0.002669 -0.136152 0.120362 -0.025489 -0.123647 0.02383 -0.299117 -0.06627 -0.257766 0.103751 0.0257 -0.16431 0.077251 -0.155444 -0.239708 0.070301 0.134982 -0.122485 0.123043 0.18565 0.063211 -0.067251 0.061393 -0.096512 -0.055264 -0.198959 -0.064673 -0.120393 -0.010448 -0.059046 -0.124392 -0.063258 -0.171692 0.220531 -0.063766 -0.125999 -0.219022 -0.078763 0.140173 0.096522 0.183389 0.084007 -0.154929 0.234779 -0.128593 -0.222878 0.003616 0.083055 -0.203421 0.202123 0.041036 -0.164817 -0.122245 -0.160123 0.035796 -0.171513 0.084471 -0.031749 0.069126 0.105453 0.01721 -0.09386 -0.059826 -0.031889 -0.098679 0.004698 0.145194 0.059828 0.046352 -0.245583 0.071653 0.010931 -0.043641 0.070103 0.213674 0.005337 -0.237953 -0.004743 0.025134 -0.04438 0.081199 0.05809 0.087886 0.027854 0.037401 -0.038923 0.097963 -0.070694 0.274176 0.018577 -0.240571 0.249204 -0.061368 0.041103 0.211347 -0.054991 0.125559 -0.082803 0.140017 -0.095663
0.352905 0.550922 -1.128945 -0.511125 0.774489 1.405335 -0.371647 0.106012 -0.779785 -0.640302 -0.68578 1.570717 -0.712288 -0.706705 -0.789609 -0.045278 -1.599722 -2.840112 -0.089543 -1.158838 -1.862605 -0.62748 -0.063542 -0.468696 0.750564 0.033551 -0.772222 -0.188991 -0.163115 0.455978 0.038455 -0.779588 0.172303 -1.114448 -0.548246 -0.008155 1.66721 -0.744821 -0.15746 -2.668482 -0.304702 -0.905716 0.479063 0.151803 -0.94063 -0.044338 -0.906122 -0.456182 0.281891 0.268287 0.47007 0.628019 0.328428 1.471286 -2.345457 0.072073 -0.345477 -0.998199 -1.496897 -0.053061 0.351206 -0.934426 0.295591 0.07336 0.24092 0.486976 0.390085 -0.621556 0.375246 -0.02625 1.957847 1.014101 0.004675 0.08874 -0.900479 -0.462149 0.922254 1.355385 -1.048724 0.105897 1.254466 0.410718 0.321258 1.066395 -0.171761 -0.128774 0.315556 0.697301 -0.180925 0.555334 1.005586 -0.891677 -1.232923 -1.994189 -0.567812 0.204184 -0.947385 -0.051526 -0.987029 0.725141
-0.064357 -0.033406 -0.006591 0.181457 0.041885 0.1408 -0.109843 0.016376 0.068228 -0.045519 0.005233 0.012036 0.05064 -0.052642 0.185426 0.139427 -0.155023 0.12963 0.063368 -0.055016 -0.054854 -0.018229 0.216037 -0.004417 -0.285826 -0.095238 -0.069825 -0.021777 0.187402 -0.130867 -0.00675 -0.075803 -0.044586 0.061098 0.044502 -0.138919 0.031721 -0.005549 0.063477 5.3E-5 0.101342 0.067759 0.180205 0.110423 -0.107152 0.014466 -0.095647 -0.001514 -0.13148 0.090497 0.038783 -0.236052 -0.139813 -0.061498 0.050517 -0.013343 -0.001507 0.083055 0.065801 -0.03321 0.124938 -0.104659 -0.042903 -0.049201 -0.088403 -0.030678 0.055664 0.085579 0.303591 -0.024133 0.025756 -0.085778 0.02809 -0.058313 0.028445 -0.065808 -0.182156 -0.019053 0.014958 -0.002839 -0.024485 0.159415 0.06125 -0.100844 0.111327 0.042033 0.023134 -0.078359 0.169092 -0.074151 -0.058673 0.083338 0.03916 0.23854 -0.125673 0.017002 0.129169 0.039082 0.127676 0.034378
-0.049467 -0.21716 0.090937 0.090442 0.039471 -0.158319 -0.11269 -0.069629 -0.152616 -0.168774 0.174922 -0.001446 -0.103807 0.051497 0.194559 0.131969 0.040381 0.032635 -0.067156 -0.025622 -0.010711 -0.020901 0.119984 0.244719 -0.109187 0.082315 -0.135338 -0.023344 0.21433 -0.064577 -0.064485 0.074849 0.149247 -0.027656 0.004969 0.03268 0.06585 -0.057646 0.153199 -0.005728 -0.022326 -0.274079 0.004042 0.014306 0.05418 -0.043258 -0.168469 -0.040621 -0.157761 -0.0691 0.094353 0.072912 -0.075834 -0.197271 0.168871 0.117121 -0.136197 -0.055852 -0.009409 -0.089041 -0.057739 -0.071827 -0.092378 -0.079523 -0.113948 -0.038776 0.031106 -0.010216 0.104807 -0.099296 -0.017116 -0.076253 -0.094261 0.043236 -0.070148 -0.074738 -0.099196 -0.105257 -0.096505 -0.240964 -0.008615 -0.07672 0.040914 0.071479 -0.071285 0.055601 0.005485 -0.102117 0.010954 0.072108 0.050477 0.154822 -0.090926 0.117414 0.012584 0.026602 -0.071613 -0.136944 0.106969 0.012461
-0.068474 0.132419 0.068608 0.090824 0.009502 -0.067947 -0.12035 0.052225 -0.108893 0.151192 0.047761 -0.101342 -0.127042 -0.13063 0.128093 0.136644 0.152975 -0.175506 0.065973 -0.00768 -0.180514 0.021211 -0.014535 0.028334 -0.047524 -0.168209 -0.187306 0.18602 0.034558 -0.038297 -0.150219 -0.08871 -0.064397 0.043842 0.08464 0.192125 0.099175 -0.137855 0.088353 5.98E-4 -0.091159 0.016021 -0.076457 0.081786 0.096131 -0.07083 0.11987 -0.172771 2.95E-4 0.016656 -0.109606 0.032586 0.147825 -0.058483 0.022291 0.121757 -0.114089 -0.01205 0.033206 -0.181093 0.061608 0.026203 -0.12639 0.021183 -0.030546 -0.029077 0.080697 -0.212033 0.028632 0.089363 0.142243 0.072414 -0.189566 -0.115876 0.112778 -0.108685 -0.015584 0.08593 0.008376 -0.027875 0.149377 0.068237 0.202915 -0.048944 -0.009077 0.008906 0.161549 -0.03613 0.148289 0.016174 -0.011854 0.007219 -0.01213 -0.069928 -0.078864 0.162983 -0.00798 -0.17884 -0.015138 0.074843
-0.020291 -0.078982 0.103547 -0.149984 0.254967 0.01435 0.038621 0.005906 0.024726 0.077699 0.043 -0.049641 -0.082927 -0.050978 0.082935 -0.093065 -0.184395 -0.017854 -0.053342 -0.028176 -0.029195 -0.153984 0.019889 0.181048 -0.058189 0.063653 -0.161541 -0.00174 0.033358 -0.123348 0.070983 0.004741 0.101675 0.198518 0.118754 0.004218 0.186596 -0.119807 -0.153255 -0.142196 0.163862 0.021624 -0.164297 0.053947 -0.13113 -0.085746 0.002529 0.02774 -0.064514 0.045825 -0.047978 -0.094305 -0.027934 -0.038012 0.006109 0.074306 0.016115 -0.02377 -0.121417 -0.053733 0.205385 -0.013584 0.013277 -0.077959 0.168715 0.056688 0.092666 -0.080663 0.088818 0.009786 -0.053742 0.128487 -0.043222 -0.022282 -0.087541 0.158933 0.255464 -0.081204 -0.088342 -0.043353 -0.017576 -0.012415 0.177839 0.086675 -0.114006 0.032893 0.067989 -0.002605 -0.069521 0.122596 0.041654 -0.006527 -0.029684 -0.004282 -0.059009 -0.209141 0.049743 0.051203 0.100544 0.096933
0.0 0.0 0.0 0.0 0.0 0.0 0.0 0.0 0.0 0.0 0.0 0.0 0.0 0.0 0.0 0.0 0.0 0.0 0.0 0.0 0.0 0.0 0.0 0.0 0.0 0.0 0.0 0.0 0.0 0.0 0.0 0.0 0.0 0.0 0.0 0.0 0.0 0.0 0.0 0.0 0.0 0.0 0.0 0.0 0.0 0.0 0.0 0.0 0.0 0.0 0.0 0.0 0.0 0.0 0.0 0.0 0.0 0.0 0.0 0.0 0.0 0.0 0.0 0.0 0.0 0.0 0.0 0.0 0.0 0.0 0.0 0.0 0.0 0.0 0.0 0.0 0.0 0.0 0.0 0.0 0.0 0.0 0.0 0.0 0.0 0.0 0.0 0.0 0.0 0.0 0.0 0.0 0.0 0.0 0.0 0.0 0.0 0.0 0.0 0.0
-0.465906 0.380237 2.955231 -0.641332 1.703506 1.274065 0.614869 -0.388253 -0.483191 -1.525362 1.791122 0.748693 1.298677 2.526211 -1.583696 -2.022184 -0.442596 0.257682 -1.300191 -1.45471 -1.22567 1.62549 0.314727 -3.154971 0.020432 -1.808782 0.56598 0.538008 -1.442781 2.535718 2.001812 0.171267 0.680013 -1.267781 -1.831292 0.41963 -1.106608 1.094234 -1.820117 0.055891 -0.044779 1.427648 1.578977 -0.262322 1.518724 0.655274 -1.20698 1.578241 0.816309 -1.818096 1.359535 0.877619 1.173758 0.708417 -0.843792 1.979035 -0.027229 -1.442777 -2.120033 -1.395126 1.620329 -0.997686 1.677775 2.16253 -1.297951 -2.21927 -2.136251 0.692389 -2.670938 -4.508798 -1.502671 -0.61064 1.291434 -2.420351 -3.925102 -0.201389 -0.507131 -0.459183 -0.799805 -1.322351 0.691853 0.243859 2.150351 -1.311522 0.641236 0.785931 0.371272 0.721744 0.684043 -1.72734 0.77082 0.14291 1.919871 -0.175717 -2.705438 -2.627413 -3.117654 -2.031219 -2.448384 1.744579
-0.045549 -0.019643 0.046605 0.01937 -0.048165 0.002386 0.133692 -0.105972 -0.036092 0.01926 -0.041897 0.101992 -0.024171 -0.015948 -0.078548 0.018259 -0.021959 -6.9E-5 0.068206 0.037825 0.056655 -0.263488 0.019989 0.022684 -0.095743 0.148716 0.020395 0.005975 0.24558 -0.064396 -0.038624 0.103727 -0.009889 0.096239 -0.304886 0.02822 0.080687 0.038994 0.079709 -0.050449 0.091042 0.026191 0.163824 -0.046615 -0.100267 0.010837 -0.087407 0.084683 -0.041542 -0.01353 0.034989 -0.127666 0.142675 -0.144064 -0.010746 0.042543 -0.055325 -0.066353 -0.06669 -0.203929 0.043696 -0.15489 0.225267 -0.112238 -0.083936 0.01865 0.080721 -0.045273 0.053165 0.012791 -0.251947 -0.087307 -0.030465 0.051097 -0.029058 -0.055214 -0.077598 -0.017701 0.140202 -0.094673 -0.079917 0.236495 -0.033887 0.011453 -0.003383 0.141896 -0.034788 -0.14658 0.023186 0.099968 -0.072668 -0.031315 -0.073928 0.05957 0.035095 -0.094544 -4.16E-4 0.006228 0.001092 -0.050299
0.030314 -0.266002 0.267053 0.042665 -0.05776 -0.052156 -0.193202 -0.022096 -0.081127 0.083599 0.0643 0.097716 0.045248 -0.102585 0.212471 0.357778 0.007454 0.269023 0.064881 -0.011333 -0.18249 0.253761 0.136797 0.161067 -0.093454 -0.044624 -0.041584 0.226163 0.092843 -0.072365 -0.191371 0.028895 -0.044431 0.121632 0.009474 -0.066927 -0.076171 0.023601 0.09479 0.159145 0.05448 -0.026491 -0.04977 0.14934 0.130487 0.057823 -0.040843 -0.046246 -0.049903 -0.090916 0.006222 -0.077285 0.193614 -0.081384 0.190982 -7.79E-4 0.014974 -0.033881 -0.032857 -0.201532 0.125835 -0.032788 0.017147 -0.282294 -0.171141 -0.169224 0.025273 -0.028397 -0.114722 -0.047014 0.042417 -0.038027 0.166932 0.047536 0.149743 -0.155482 -0.009919 -0.028088 -0.071314 -0.116479 0.006613 0.057351 0.08008 -0.264041 0.14102 0.02246 -0.089951 -0.030699 0.062839 -0.009335 -0.050098 -0.027073 0.011925 0.117155 0.007855 -0.085227 0.100415 -0.254602 0.045801 0.062245
-0.174596 0.042237 0.029378 0.144608 -0.143694 0.220433 0.097481 -0.077324 -0.074367 -0.155416 0.051585 0.123088 -0.145041 0.066892 0.144458 0.021207 -0.008966 0.041688 -0.155599 0.062556 0.02672 0.340693 0.251846 0.026713 -0.205085 -0.188037 0.08723 -0.087665 0.136478 -0.17854 -0.161791 -0.033438 0.007381 0.085569 -0.235092 -0.114827 0.033443 -0.026906 0.084493 0.00386 -0.059148 -0.128343 -0.006031 0.084857 0.009366 0.028422 -0.069897 -0.089022 0.145352 0.072656 0.045806 -0.071943 -0.047279 0.121694 -0.06004 0.078412 0.014155 0.00172 -0.088362 -0.24933 0.067504 0.04782 -0.007094 -0.088446 -0.14935 0.063683 0.007989 -0.002109 -0.157301 0.189646 0.038592 0.013846 0.226156 0.094574 0.046972 -0.03868 0.034843 0.131358 -0.165334 0.059048 0.192934 0.087395 0.097785 -0.191127 -0.016787 0.105338 -0.091555 0.171515 -0.054174 0.147277 -0.085246 0.039402 -0.097694 0.204332 0.102649 -0.240054 0.044449 -0.007943 0.007376 0.00738
0.061618 -0.084804 0.017171 0.001671 -0.02128 -0.002998 -0.076087 0.006964 -0.082538 -0.013171 0.038778 0.009566 0.07227 -0.007531 0.079512 0.084291 -0.010692 0.040041 0.026516 -0.065386 -0.098247 -0.005097 0.085413 0.032953 -0.032067 -0.030741 -0.014846 -0.013908 0.085158 -0.018904 0.050455 -0.041206 -0.119717 0.00381 -0.080553 -0.007816 -0.023771 0.048007 0.061321 0.034487 -0.037376 0.05589 0.071543 0.00239 0.023685 -0.067461 -0.018301 -2.62E-4 -0.090765 0.105829 0.002854 -0.113866 -0.015003 0.07953 0.080154 -0.00901 0.014921 -0.042097 0.017232 0.010061 0.02612 -0.099584 0.078323 -0.102921 -0.044924 -0.047323 0.119792 0.055589 0.061809 -0.052072 -0.013531 0.010311 0.053329 0.069202 0.059055 -0.02725 -0.034648 -0.031556 0.044102 -0.003554 0.021234 0.049019 0.093016 -0.028378 0.019717 0.035279 0.047285 0.016462 0.127791 0.099933 -0.044888 -0.054611 -0.024683 0.101597 -0.110842 -0.060721 0.023732 0.030292 -0.025025 -0.045851
-0.020291 -0.078982 0.103547 -0.149984 0.254967 0.01435 0.038621 0.005906 0.024726 0.077699 0.043 -0.049641 -0.082927 -0.050978 0.082935 -0.093065 -0.184395 -0.017854 -0.053342 -0.028176 -0.029195 -0.153984 0.019889 0.181048 -0.058189 0.063653 -0.161541 -0.00174 0.033358 -0.123348 0.070983 0.004741 0.101675 0.198518 0.118754 0.004218 0.186596 -0.119807 -0.153255 -0.142196 0.163862 0.021624 -0.164297 0.053947 -0.13113 -0.085746 0.002529 0.02774 -0.064514 0.045825 -0.047978 -0.094305 -0.027934 -0.038012 0.006109 0.074306 0.016115 -0.02377 -0.121417 -0.053733 0.205385 -0.013584 0.013277 -0.077959 0.168715 0.056688 0.092666 -0.080663 0.088818 0.009786 -0.053742 0.128487 -0.043222 -0.022282 -0.087541 0.158933 0.255464 -0.081204 -0.088342 -0.043353 -0.017576 -0.012415 0.177839 0.086675 -0.114006 0.032893 0.067989 -0.002605 -0.069521 0.122596 0.041654 -0.006527 -0.029684 -0.004282 -0.059009 -0.209141 0.049743 0.051203 0.100544 0.096933
-0.107659 -0.319304 0.30337 -0.100607 0.056185 -0.08464 -0.031212 0.054478 -0.043547 -0.163298 -0.029843 0.035751 -0.279163 0.250783 0.225696 0.087792 0.074383 0.226497 -0.092175 -0.17231 -0.343754 0.103911 0.080472 0.225902 -0.688829 -0.090236 0.212908 -0.398094 0.031123 -0.013861 0.045521 -0.050966 -0.122041 0.151419 -0.277962 -0.397082 0.160715 0.12669 -0.057202 0.032458 0.442319 0.011847 -0.044637 -0.040552 0.017247 -0.131105 0.302512 0.166157 -0.110448 -0.146588 -0.364441 -0.238594 0.044463 0.299917 0.349985 -0.116641 0.316005 0.167943 0.441369 -0.407953 0.03986 0.03292 -0.002899 -0.377593 -0.426011 0.070407 -0.001673 0.099632 -0.012907 -0.288183 0.066874 0.171626 -0.474238 -0.202811 0.261273 -0.283854 -0.136874 -0.11605 0.019811 0.458929 -0.177981 0.378946 -0.020164 -0.193932 0.256146 -0.157164 -0.252443 0.087928 0.15498 -0.16174 -0.203178 0.276391 0.280433 0.231445 -0.157496 -0.154487 0.017125 0.0552 -0.087905 0.109489
0.060844 -0.157373 0.147216 -0.058715 -0.187715 -0.054274 0.111305 -0.034031 0.217236 0.140222 0.108788 -0.186443 0.317578 -0.01451 -0.005237 -0.052431 0.142546 0.211626 0.156345 0.041149 -0.083073 -0.04481 -0.013838 -0.06121 -0.046506 0.275502 0.004294 0.003152 0.03737 -0.162186 0.009689 -0.09405 -0.158936 0.165207 -0.058728 -0.146662 -0.10335 -0.015109 -0.126737 0.120328 -0.090862 0.146911 0.022881 0.014263 -0.039328 -0.054947 -0.035163 0.02099 0.011235 0.161465 -0.120165 0.02322 -0.025224 9.08E-4 0.074267 -0.005764 -0.075548 -0.103828 -0.00235 0.052235 -0.093538 -0.026053 -0.039465 0.036221 0.111119 -0.137701 0.099207 -0.073387 0.050349 0.039746 -0.023304 -0.028414 -0.124096 0.097133 0.052392 -0.014481 -0.093149 0.093071 0.131573 -0.088417 -0.16181 -0.017239 0.113044 0.004628 -0.009013 -0.076878 0.139531 -0.004285 0.136727 -0.003794 -0.10091 -0.013625 -0.08589 -0.039343 -0.042342 -0.063669 -0.016771 0.011874 0.026479 -0.121649
-0.214786 -0.184578 0.086753 0.102754 -0.069699 0.072722 -0.096503 0.122645 -0.05629 0.102723 0.073523 0.217852 0.022806 -0.1314 0.091245 0.057136 -0.244828 0.178323 0.0103 0.132321 0.020062 -0.003931 0.222212 0.003953 -0.066869 0.044077 0.016953 0.031516 0.114034 -0.078932 -0.147773 -0.207484 -0.073712 0.132272 -0.153987 0.08113 -0.078742 0.071932 0.184961 0.100602 -0.22179 0.077837 0.00906 0.031095 0.027002 -0.234333 -0.027043 -0.00907 -0.267578 0.073776 0.156574 -0.088419 -0.232172 -0.04565 0.055069 -0.043481 0.028807 -0.098592 0.081664 -0.234911 0.046858 -0.134655 -0.152846 -0.196551 -0.146272 0.076532 0.134454 -0.024282 0.198071 -0.099424 -0.083404 0.149022 -0.02605 -0.02251 -0.109806 -0.092488 -0.238877 -0.085192 -0.136777 -0.034988 -0.119774 0.189159 0.014591 -0.185996 -0.084138 0.018556 -0.097732 -0.155777 0.136643 0.023121 -0.089901 -0.10196 0.058039 0.073261 -0.019193 -0.165643 0.128138 -0.097803 0.042103 -0.027534
-0.034355 -0.032624 0.199767 0.005333 -0.017739 0.056352 0.029424 -0.030199 0.021501 -0.058459 0.007633 0.035986 -0.019477 -0.066338 0.122967 0.109226 0.019004 0.106931 -0.021536 0.088322 -0.146882 0.060271 -0.048463 0.045495 -0.071025 -0.098507 0.019002 0.035445 0.148947 -0.236889 0.031148 -0.108787 -0.034147 -0.086219 0.067012 -0.055364 0.080612 -0.007981 -0.045472 0.064676 -0.109496 0.060769 0.041785 -0.009122 0.044502 -0.088972 0.049544 0.038709 -0.028194 -0.033044 0.020137 -0.100587 0.087732 0.023429 0.131458 -0.257082 -0.013136 -0.208503 0.050067 -0.141838 0.147681 -0.008098 -0.012417 -0.073334 -0.157796 -0.104002 0.021573 -0.049296 -0.140103 -0.104901 -0.037706 0.087579 -0.036719 0.004416 0.079762 -0.175127 -0.116852 -9.54E-4 -0.001441 -0.018956 0.049765 -0.094634 -0.056623 -0.059285 0.103667 -0.086029 0.041032 -0.055263 0.035383 0.097164 -0.162184 0.094111 -0.037403 0.121801 -0.145614 -0.0602 0.033289 -0.037582 0.038226 -0.090747
-0.181113 -0.085139 0.120497 0.04297 -0.025252 -0.091204 -0.044943 -0.03741 -0.042415 -0.024572 0.104008 0.088577 -0.103495 0.080433 0.178625 0.110388 -0.186293 0.214163 -0.031039 -0.030849 3.5E-5 -0.040918 0.200431 0.052983 -0.106761 -0.008215 -0.085676 0.059947 0.215463 -0.111122 -0.019986 0.044281 -0.118992 -0.055364 0.118484 0.085733 -0.017199 -0.001632 0.118218 0.198893 -0.038273 -0.046421 0.088348 0.032641 -0.047017 -0.112731 -0.048459 0.183985 -0.082244 0.01863 0.144509 -0.102822 -0.18289 -0.124319 -0.223957 -0.013982 -0.209708 -0.013779 -0.124182 -0.136856 0.041579 -0.199334 -0.0106 -0.250446 -0.085957 0.113736 -0.093515 -0.07282 0.095803 0.053325 -0.098377 -0.185079 -0.090678 0.127159 -0.048492 -0.010372 -0.126244 -0.118682 -0.010703 -0.071063 -0.091404 0.070653 0.163052 -0.025235 -0.1335 -0.096313 0.266958 0.009826 0.189944 0.187557 -0.020195 0.009831 -0.051354 -0.045057 -0.249629 -0.153915 0.028899 -0.164427 0.001917 0.082332
-0.26639 -0.104912 0.180519 0.043667 0.041207 -0.008381 0.035828 -0.02579 0.038929 0.035407 -0.045987 0.093855 0.05433 0.066768 0.181295 0.016569 -0.262033 0.088718 -0.019571 0.052693 0.009422 0.007749 -0.062198 0.035078 -0.170783 -0.109887 -0.051371 0.088142 0.135591 -0.010743 0.025514 -0.009047 -0.121579 0.186548 0.022521 0.036774 0.17183 0.066132 0.09254 0.082441 -0.088491 -0.081832 0.017962 -0.036285 -0.059927 0.038842 -0.0052 0.081773 -0.050056 0.091032 0.203915 -0.091347 -0.101425 -0.177557 -0.044136 0.113395 0.140815 -0.005832 0.068476 -0.192456 0.057304 -0.102904 -0.094204 -0.199142 -0.166277 -0.01435 2.05E-4 0.073523 0.121399 0.031439 0.010424 -0.100921 0.049779 0.0731 0.03039 -0.023583 -0.137003 -0.08019 -0.121996 -0.288955 -0.041308 0.110603 0.155086 -0.11951 -0.218402 -0.075287 0.015009 -0.113641 0.196042 0.012681 -0.131442 0.013214 0.01092 0.144369 0.024212 -0.179417 -0.032645 -0.112605 0.114788 0.0294
-0.020291 -0.078982 0.103547 -0.149984 0.254967 0.01435 0.038621 0.005906 0.024726 0.077699 0.043 -0.049641 -0.082927 -0.050978 0.082935 -0.093065 -0.184395 -0.017854 -0.053342 -0.028176 -0.029195 -0.153984 0.019889 0.181048 -0.058189 0.063653 -0.161541 -0.00174 0.033358 -0.123348 0.070983 0.004741 0.101675 0.198518 0.118754 0.004218 0.186596 -0.119807 -0.153255 -0.142196 0.163862 0.021624 -0.164297 0.053947 -0.13113 -0.085746 0.002529 0.02774 -0.064514 0.045825 -0.047978 -0.094305 -0.027934 -0.038012 0.006109 0.074306 0.016115 -0.02377 -0.121417 -0.053733 0.205385 -0.013584 0.013277 -0.077959 0.168715 0.056688 0.092666 -0.080663 0.088818 0.009786 -0.053742 0.128487 -0.043222 -0.022282 -0.087541 0.158933 0.255464 -0.081204 -0.088342 -0.043353 -0.017576 -0.012415 0.177839 0.086675 -0.114006 0.032893 0.067989 -0.002605 -0.069521 0.122596 0.041654 -0.006527 -0.029684 -0.004282 -0.059009 -0.209141 0.049743 0.051203 0.100544 0.096933
0.0 0.0 0.0 0.0 0.0 0.0 0.0 0.0 0.0 0.0 0.0 0.0 0.0 0.0 0.0 0.0 0.0 0.0 0.0 0.0 0.0 0.0 0.0 0.0 0.0 0.0 0.0 0.0 0.0 0.0 0.0 0.0 0.0 0.0 0.0 0.0 0.0 0.0 0.0 0.0 0.0 0.0 0.0 0.0 0.0 0.0 0.0 0.0 0.0 0.0 0.0 0.0 0.0 0.0 0.0 0.0 0.0 0.0 0.0 0.0 0.0 0.0 0.0 0.0 0.0 0.0 0.0 0.0 0.0 0.0 0.0 0.0 0.0 0.0 0.0 0.0 0.0 0.0 0.0 0.0 0.0 0.0 0.0 0.0 0.0 0.0 0.0 0.0 0.0 0.0 0.0 0.0 0.0 0.0 0.0 0.0 0.0 0.0 0.0 0.0
-0.008669 -0.229246 0.189963 0.048845 -0.133395 -4.6E-5 -0.138716 -0.039364 0.07175 0.095436 -0.137652 -0.06984 0.052616 -0.221318 -0.166033 0.066599 0.07533 -0.054589 0.145034 0.034516 -0.147365 -0.034071 0.159581 -0.103541 0.016169 -0.11673 0.080792 0.081277 0.033224 0.135623 0.092017 -0.090511 -0.138035 -0.039174 -0.183239 0.027183 0.06047 0.07377 0.041046 -0.318568 -0.171442 0.038484 -0.105016 -0.042667 0.100483 0.087436 -0.085439 -0.004464 0.013478 -0.066136 -0.008922 0.014575 0.087507 -0.054213 -0.013586 0.169823 0.19531 -0.032426 -0.019564 0.136323 -0.020112 -0.183034 -0.09735 0.110653 -0.054443 -0.16485 -0.139053 0.194848 -0.06618 -0.112837 0.057203 0.115823 0.006534 0.138208 -0.081954 -0.030436 0.124576 0.002714 0.052048 0.037635 0.052587 -0.242957 0.233652 0.020586 -0.223455 -0.002372 -0.007554 0.098878 0.120208 0.066024 0.080021 -0.089175 0.105273 -0.016804 0.088061 -0.100005 -0.062054 -0.111029 -0.17244 0.245366
0.336134 0.124703 -0.009751 0.133516 -0.073336 0.27325 -0.124179 -0.023362 -0.107742 -0.076454 0.212142 0.127983 -0.035027 -0.172089 0.176358 -0.246276 -0.197404 -0.14574 0.260424 0.018771 -0.088137 -0.069551 0.194732 0.087727 0.059845 0.049241 -0.134851 -0.106428 0.184852 0.052054 -0.029191 0.043848 -0.259227 -0.004712 -0.089142 -0.115866 0.351943 -0.233385 0.01979 0.333106 -0.200125 -0.07867 0.196278 -1.24E-4 -0.098793 -0.100038 0.046777 -0.26631 0.00126 -0.054711 -0.152629 0.072711 -0.015531 0.12861 0.108522 -0.043637 0.055711 -0.071205 -0.238285 -0.099384 -0.033788 -0.038414 -0.111603 0.45271 0.234187 0.028597 0.01391 -0.176477 0.055368 0.129475 -0.346695 -0.094727 0.220593 -0.101311 -0.126673 0.338689 -0.193584 0.090209 -0.138524 0.03135 -0.248219 -0.024647 0.018691 -0.189023 0.278229 -0.09332 -0.168284 0.104349 0.014243 -0.188956 0.202506 0.065042 0.056037 -0.199432 -0.114656 -0.147651 0.034707 0.04367 0.199883 -0.255246
-0.169842 0.080407 0.153019 -0.018565 -0.183597 0.040453 -0.082737 0.015125 0.131354 0.282227 0.010908 0.054471 0.029308 -0.134433 -0.073925 0.157372 -0.156993 0.242637 -0.077709 -0.139229 0.083974 0.154015 0.105343 -0.098821 -0.073325 -0.067449 -0.033872 -0.177977 0.144484 0.024553 0.024257 0.054449 0.001354 0.043051 -0.177425 0.106574 -0.084402 0.127405 0.168477 -0.004012 -0.170851 0.335137 -0.034999 0.015662 -0.01314 -0.090341 0.00508 -0.068416 -0.180747 0.232244 0.17792 -0.153271 0.102265 0.185318 -0.089198 0.003388 -0.081161 -0.021165 0.091918 -0.184042 0.109363 0.037199 0.06357 -0.104073 -0.0713 -0.158562 0.149748 -0.011469 0.130453 -0.042453 0.00704 0.119191 -0.278549 -0.081246 0.00871 0.005145 -0.205888 0.088866 -0.100261 -0.109255 -0.005899 0.210158 -0.021919 0.088161 0.075792 -0.013778 0.009285 -0.15737 0.089366 -0.027851 0.046837 0.03111 0.021349 -0.052052 -0.017949 -0.027575 0.090226 0.029139 -0.011871 -0.206352
3.229447 1.832686 -0.196265 -0.303454 -0.824437 2.082854 1.150219 -0.493805 -3.50143 -0.594107 2.103319 2.396154 1.056781 -0.578498 -1.172209 3.210305 -0.978008 -1.908997 -0.472705 -1.788789 -2.346806 -2.098664 -0.288581 -2.078696 0.41261 0.520842 -1.276654 0.578767 1.70845 -0.136278 -1.41294 0.371846 1.173228 1.232021 0.598135 -3.597398 4.723318 -0.907374 3.160397 -2.027976 1.188048 -5.433854 0.01906 -0.240727 2.932695 1.836205 0.69537 0.647449 5.328198 0.625981 0.041762 2.070653 0.300511 1.656161 -2.571092 0.908767 3.294905 2.941907 -1.065341 -2.086696 -0.817265 -1.894089 0.299235 -1.879644 0.485823 1.848637 -0.344618 -2.532108 2.074767 0.482597 3.034693 1.42216 0.457834 2.431775 -0.318071 1.666885 -1.364005 1.576786 -1.71492 -0.790398 2.548478 -2.38312 -0.502643 1.256626 0.730181 1.714355 1.091085 4.672542 0.202716 -0.959086 0.774024 -2.161259 -1.810393 -2.763748 0.167227 4.207294 2.675714 0.636561 -0.117425 -0.284099
2.564838 2.944327 -0.46659 1.214122 1.53197 0.925082 -0.519545 0.281412 -2.545102 1.74456 1.849219 -0.89195 1.120815 0.973538 2.022879 4.666583 -0.394636 -3.850543 -1.742644 0.448864 -0.08918 -2.463011 0.239167 0.588363 3.019687 -0.308986 0.272118 0.946405 1.144827 0.360637 2.711016 0.593794 2.900948 1.982387 0.31 -3.654342 5.381555 -3.934709 0.486999 0.215398 -0.246637 -6.495167 1.059066 -0.229008 4.361426 0.276029 0.54648 1.193341 3.179735 2.481158 3.911246 4.590344 -1.450665 0.158972 -2.655237 0.021886 2.84179 3.244385 -0.149399 -2.663898 -1.455794 -3.00571 0.746429 -1.790654 -0.577277 0.16391 0.328085 2.127652 0.032985 -0.051354 -0.62155 0.535529 -1.387627 2.982611 0.997136 -0.035349 -2.882978 0.962121 -1.46305 -0.076119 1.850097 -0.905466 -2.447642 0.61366 2.354732 -1.94614 0.762202 0.884332 0.478735 -1.656505 2.364273 -0.454621 1.060318 -0.264898 1.934866 2.928277 2.64633 0.135086 -1.211353 -0.59279
-0.171129 -0.183751 -0.280006 -0.098475 -0.002649 0.007031 -0.046684 0.033797 -0.26182 -0.003287 0.057701 -0.193314 0.035161 0.196493 -0.156292 0.050198 -0.1285 0.179022 0.156613 0.118726 0.094326 0.045987 0.211923 -0.103139 0.101146 0.002762 -0.066446 0.180745 0.202259 -0.217734 -0.056331 0.006862 -0.058947 0.14287 -0.004855 0.082315 0.289697 -0.232422 0.252004 -0.202735 -0.04871 -0.249027 0.148504 0.028118 -0.087942 -0.180392 0.030974 0.024668 -0.143914 0.09131 0.106392 -0.182723 -0.243695 0.006025 -0.031008 0.04626 0.17857 0.095084 0.03285 -0.122756 0.202878 -0.068013 -0.15904 -0.108114 -0.101932 -0.152004 0.069359 -0.214315 0.182759 -0.077459 -0.036966 0.217034 -0.149955 -0.117118 -0.12184 -0.063371 -0.001131 0.024247 -0.075818 -0.149184 -0.090126 0.004849 0.040365 0.055184 -0.020575 0.002586 0.039609 0.121717 0.110054 0.118729 0.282815 0.382055 -0.018657 -0.138789 -0.201594 0.137088 0.308259 -0.167908 -0.008229 -0.101103
-0.016672 -0.137914 0.081114 -0.028074 0.036595 0.081272 -0.152732 0.125571 -0.270483 0.137667 0.137165 -0.030972 0.02822 -0.05111 0.023443 0.246441 -0.031816 0.033096 0.021416 -0.070674 0.060012 0.052728 0.21245 -0.087068 -0.104256 -0.313336 0.06521 -0.050585 0.072473 -0.068441 -0.07617 -0.032219 0.217185 0.081607 -0.061857 -0.126666 0.265734 -0.052143 -0.103999 -0.114218 0.045942 0.118175 0.118942 0.108693 -0.04971 0.056366 0.070248 -0.127804 -0.131569 0.021773 -0.005549 -0.088095 0.004141 -0.007387 0.012503 0.080274 -0.068202 -0.010454 -0.251333 0.119371 -0.016998 -0.081337 0.010725 -0.174513 -0.102339 0.050037 -0.045232 -0.063232 0.058359 0.10512 -0.075165 -0.029417 0.095034 0.032147 -0.067948 0.029551 -0.111013 -0.083959 -0.253517 -0.247842 -0.013886 0.029356 0.024077 -0.070031 0.066264 0.028394 -0.056185 -0.062806 0.110498 0.055892 -0.101187 -0.009016 -0.044409 0.203581 -0.071003 -0.050335 -0.02921 0.028152 -0.155379 -0.110703
2.591633 1.608701 -2.087245 2.00752 3.012652 4.995656 0.847355 -1.594905 -0.365708 -1.629805 -1.650237 3.712017 -0.231463 -0.537534 -2.036098 2.002639 -0.696666 -4.310136 -1.477319 -1.356504 -0.581823 -1.830239 -0.272773 -1.648095 0.090509 0.008711 0.330842 0.396714 2.341035 -0.526067 1.155793 -1.730906 -1.010387 -1.342646 -1.939355 0.734869 0.727366 0.700702 1.516974 -2.133831 -0.280653 -3.051674 0.017123 0.532043 1.478449 0.375441 0.920129 1.548929 1.087478 0.668327 0.707416 3.249232 -0.362503 1.273221 -2.929682 -0.245389 1.633444 -0.119836 0.103459 -3.445175 0.513245 0.427807 0.738792 1.448203 0.501908 0.362882 -0.731533 -0.391201 0.037778 3.053553 4.030229 1.793904 1.24136 0.081706 -1.401954 -0.638804 -0.487445 -0.267924 0.012844 0.538179 -0.241935 -0.068756 1.351665 -0.112558 0.001814 0.447262 0.833441 -0.023876 1.212707 1.514635 -0.568611 0.376173 -3.663739 -4.345135 -0.444319 2.139788 -2.53093 0.92131 -1.399435 1.763954
-0.16526 -0.125759 0.086172 -0.073618 0.100657 -0.043946 -0.089765 -0.076099 -0.135857 0.009636 -0.036465 0.227507 0.217747 -0.088453 0.031326 0.039479 -0.087813 0.090354 0.120262 -0.064597 0.011322 0.016658 0.27265 0.023239 0.036419 -0.183944 0.015295 -0.0989 0.067202 0.081155 -0.163607 -0.048144 -0.03524 0.119859 -0.216774 -0.097933 -0.058858 0.028692 0.093401 -0.015126 -0.170494 0.084354 0.063872 0.04883 -0.003724 -0.13525 0.122728 0.06947 -0.130152 -0.048315 0.150119 -0.022637 -0.047962 0.067457 -0.09483 -0.035406 0.14301 -0.059777 0.194492 -0.045509 0.031342 0.118222 -0.01021 -0.137844 -0.007796 0.083188 0.182567 0.029889 0.00348 -0.106126 0.055999 -0.015482 0.179231 0.006781 0.148907 -0.071332 -0.043417 0.07997 -0.151633 0.038319 -0.127367 0.119224 -0.121719 -0.175823 0.009264 0.044314 0.120565 0.090613 0.116276 -0.009916 -0.039233 -0.103821 -0.117814 0.084605 -0.052042 -0.132151 0.061747 0.018746 -0.101982 0.016663
0.074105 -0.146444 0.228501 0.007171 0.131324 0.08682 0.187224 0.162158 0.095958 -0.187497 -0.041485 0.08472 0.03655 0.142501 0.079381 0.163159 -0.165551 -0.085792 -0.066235 -0.173735 -0.016171 0.113537 0.199985 0.009495 0.186782 -0.06194 0.081643 0.126242 0.097041 -0.156974 -0.055219 -0.029844 0.119493 -0.056483 -0.239271 -0.197421 0.119839 -0.050158 0.126067 0.189621 -0.134534 -0.017843 0.1067 0.119839 -0.060704 -0.062101 0.001881 -0.015871 -0.12417 -0.194816 0.13012 0.019066 -0.141998 -0.034839 -0.16931 0.093132 -0.072259 -0.157908 -0.059764 -0.091188 -0.075386 -0.096239 0.035815 -0.22734 0.001195 0.002145 -0.244166 0.019022 -0.10149 -0.055995 0.070745 -0.096875 -0.001714 0.054813 0.143909 0.094266 0.187761 0.013183 0.105059 -0.028974 0.029342 -0.154683 -0.029637 -0.033394 -0.150826 0.084688 0.068953 0.120493 0.04429 -0.121641 -0.215088 -0.09875 -0.011332 0.082761 0.044459 -0.105065 -0.228603 0.036651 -0.029934 0.049592
-0.172636 0.01033 0.161959 -0.183546 0.084826 0.001454 -0.012333 0.025399 -0.140257 -0.043156 0.065558 -0.05232 0.099666 0.00853 0.143223 0.114338 0.12441 0.125198 0.033525 0.036631 -0.100414 0.095781 0.079415 0.218911 -0.202953 -0.176273 0.003928 -0.080203 0.064255 -0.151939 -0.015762 -0.091797 0.058406 0.259075 0.142232 0.005009 -0.027051 -0.151772 -0.009225 0.087933 -0.047953 0.058876 -0.00632 0.200481 -0.051352 -0.062672 -0.004913 0.138106 0.006286 0.095799 0.155862 0.073325 -0.063141 -0.126818 0.080382 -0.03216 0.029759 0.0419 0.073559 0.032012 0.00921 -0.174483 -0.047889 -0.051292 -0.092714 0.114818 -0.104232 -0.056323 -0.006118 -0.033086 -0.071821 -0.058985 -0.082653 -0.01357 0.127079 -0.029265 0.032993 0.09375 -0.047027 -0.121647 0.078634 0.058114 0.019442 1.0E-5 0.027019 0.006064 0.011752 0.078438 0.206987 0.051293 -0.026753 -0.10776 0.076365 -7.58E-4 -0.123035 -0.129837 -0.027931 -0.05268 0.159075 3.06E-4
0.0 0.0 0.0 0.0 0.0 0.0 0.0 0.0 0.0 0.0 0.0 0.0 0.0 0.0 0.0 0.0 0.0 0.0 0.0 0.0 0.0 0.0 0.0 0.0 0.0 0.0 0.0 0.0 0.0 0.0 0.0 0.0 0.0 0.0 0.0 0.0 0.0 0.0 0.0 0.0 0.0 0.0 0.0 0.0 0.0 0.0 0.0 0.0 0.0 0.0 0.0 0.0 0.0 0.0 0.0 0.0 0.0 0.0 0.0 0.0 0.0 0.0 0.0 0.0 0.0 0.0 0.0 0.0 0.0 0.0 0.0 0.0 0.0 0.0 0.0 0.0 0.0 0.0 0.0 0.0 0.0 0.0 0.0 0.0 0.0 0.0 0.0 0.0 0.0 0.0 0.0 0.0 0.0 0.0 0.0 0.0 0.0 0.0 0.0 0.0
0.0 0.0 0.0 0.0 0.0 0.0 0.0 0.0 0.0 0.0 0.0 0.0 0.0 0.0 0.0 0.0 0.0 0.0 0.0 0.0 0.0 0.0 0.0 0.0 0.0 0.0 0.0 0.0 0.0 0.0 0.0 0.0 0.0 0.0 0.0 0.0 0.0 0.0 0.0 0.0 0.0 0.0 0.0 0.0 0.0 0.0 0.0 0.0 0.0 0.0 0.0 0.0 0.0 0.0 0.0 0.0 0.0 0.0 0.0 0.0 0.0 0.0 0.0 0.0 0.0 0.0 0.0 0.0 0.0 0.0 0.0 0.0 0.0 0.0 0.0 0.0 0.0 0.0 0.0 0.0 0.0 0.0 0.0 0.0 0.0 0.0 0.0 0.0 0.0 0.0 0.0 0.0 0.0 0.0 0.0 0.0 0.0 0.0 0.0 0.0
0.061618 -0.084804 0.017171 0.001671 -0.02128 -0.002998 -0.076087 0.006964 -0.082538 -0.013171 0.038778 0.009566 0.07227 -0.007531 0.079512 0.084291 -0.010692 0.040041 0.026516 -0.065386 -0.098247 -0.005097 0.085413 0.032953 -0.032067 -0.030741 -0.014846 -0.013908 0.085158 -0.018904 0.050455 -0.041206 -0.119717 0.00381 -0.080553 -0.007816 -0.023771 0.048007 0.061321 0.034487 -0.037376 0.05589 0.071543 0.00239 0.023685 -0.067461 -0.018301 -2.62E-4 -0.090765 0.105829 0.002854 -0.113866 -0.015003 0.07953 0.080154 -0.00901 0.014921 -0.042097 0.017232 0.010061 0.02612 -0.099584 0.078323 -0.102921 -0.044924 -0.047323 0.119792 0.055589 0.061809 -0.052072 -0.013531 0.010311 0.053329 0.069202 0.059055 -0.02725 -0.034648 -0.031556 0.044102 -0.003554 0.021234 0.049019 0.093016 -0.028378 0.019717 0.035279 0.047285 0.016462 0.127791 0.099933 -0.044888 -0.054611 -0.024683 0.101597 -0.110842 -0.060721 0.023732 0.030292 -0.025025 -0.045851
0.0 0.0 0.0 0.0 0.0 0.0 0.0 0.0 0.0 0.0 0.0 0.0 0.0 0.0 0.0 0.0 0.0 0.0 0.0 0.0 0.0 0.0 0.0 0.0 0.0 0.0 0.0 0.0 0.0 0.0 0.0 0.0 0.0 0.0 0.0 0.0 0.0 0.0 0.0 0.0 0.0 0.0 0.0 0.0 0.0 0.0 0.0 0.0 0.0 0.0 0.0 0.0 0.0 0.0 0.0 0.0 0.0 0.0 0.0 0.0 0.0 0.0 0.0 0.0 0.0 0.0 0.0 0.0 0.0 0.0 0.0 0.0 0.0 0.0 0.0 0.0 0.0 0.0 0.0 0.0 0.0 0.0 0.0 0.0 0.0 0.0 0.0 0.0 0.0 0.0 0.0 0.0 0.0 0.0 0.0 0.0 0.0 0.0 0.0 0.0
4.088196 0.297704 -1.028615 4.747435 1.110235 3.134462 1.265814 0.610371 -0.19393 -2.629615 0.757407 2.031496 -1.681606 -0.750734 0.607439 1.730475 -0.575801 -4.9484 -3.106981 1.433708 -2.933383 -0.607278 0.21502 -0.936141 2.201521 -3.425759 0.586913 1.130422 0.587819 -0.544596 0.736509 0.737671 0.264796 0.179184 -4.64829 0.041762 0.734897 0.498987 2.005224 -0.478501 -0.946017 -3.056592 0.966226 -1.025565 0.551075 0.107511 -0.35197 -2.926284 3.608778 0.68242 1.34705 3.202598 -2.869086 -0.732502 -1.947601 1.534661 1.056872 2.271927 0.48151 -4.047965 -0.142861 1.538222 0.398362 -0.676201 0.098441 0.236745 -0.520654 -2.577075 -1.766508 3.842722 3.056848 1.899663 0.194581 1.398197 0.852022 -0.084509 -1.080607 0.04108 1.806659 -3.684653 -2.340004 0.651856 0.016765 1.240274 3.416146 5.020018 2.589897 0.918731 3.34579 -1.734813 2.131855 2.079846 1.246448 0.333801 -2.336565 1.727393 -1.314646 0.072673 -2.721992 3.204293
0.01311 0.015671 0.00258 0.09233 0.103911 0.110864 -0.10345 0.07571 0.098338 -0.030733 -0.045411 0.012706 0.013709 0.091777 0.070384 0.058979 -0.017217 -0.075754 0.068011 0.072781 -0.079931 0.049377 -0.154103 -0.116595 0.03733 -0.19922 0.004127 0.244322 -0.054259 -0.112059 -0.248714 -0.076475 0.017997 -0.00193 0.176984 -0.029667 0.284106 -0.107067 0.102519 0.040856 0.020503 0.144263 -0.154718 -0.095764 -0.088298 0.060758 0.015756 -0.063484 -0.012318 0.053913 0.038077 -0.010774 -0.082531 0.126004 -0.258754 -0.072877 0.034672 0.110869 -0.038917 0.068934 -0.088919 0.122152 0.008501 -0.189812 -0.06087 -0.24792 -0.119461 0.064257 0.058593 -0.149586 -0.01034 0.084163 -0.039608 -0.278786 -0.100584 -0.087164 -0.031502 0.009479 -0.137992 0.057594 -3.44E-4 -0.174483 -0.052999 0.082566 0.109182 0.04298 -0.020371 -0.086603 0.1497 -0.060451 -0.065248 0.193108 -0.05159 0.115135 -0.206461 0.085769 0.04425 -0.01644 -0.13164 -0.091822
-0.016672 -0.137914 0.081114 -0.028074 0.036595 0.081272 -0.152732 0.125571 -0.270483 0.137667 0.137165 -0.030972 0.02822 -0.05111 0.023443 0.246441 -0.031816 0.033096 0.021416 -0.070674 0.060012 0.052728 0.21245 -0.087068 -0.104256 -0.313336 0.06521 -0.050585 0.072473 -0.068441 -0.07617 -0.032219 0.217185 0.081607 -0.061857 -0.126666 0.265734 -0.052143 -0.103999 -0.114218 0.045942 0.118175 0.118942 0.108693 -0.04971 0.056366 0.070248 -0.127804 -0.131569 0.021773 -0.005549 -0.088095 0.004141 -0.007387 0.012503 0.080274 -0.068202 -0.010454 -0.251333 0.119371 -0.016998 -0.081337 0.010725 -0.174513 -0.102339 0.050037 -0.045232 -0.063232 0.058359 0.10512 -0.075165 -0.029417 0.095034 0.032147 -0.067948 0.029551 -0.111013 -0.083959 -0.253517 -0.247842 -0.013886 0.029356 0.024077 -0.070031 0.066264 0.028394 -0.056185 -0.062806 0.110498 0.055892 -0.101187 -0.009016 -0.044409 0.203581 -0.071003 -0.050335 -0.02921 0.028152 -0.155379 -0.110703
2.591633 1.608701 -2.087245 2.00752 3.012652 4.995656 0.847355 -1.594905 -0.365708 -1.629805 -1.650237 3.712017 -0.231463 -0.537534 -2.036098 2.002639 -0.696666 -4.310136 -1.477319 -1.356504 -0.581823 -1.830239 -0.272773 -1.648095 0.090509 0.008711 0.330842 0.396714 2.341035 -0.526067 1.155793 -1.730906 -1.010387 -1.342646 -1.939355 0.734869 0.727366 0.700702 1.516974 -2.133831 -0.280653 -3.051674 0.017123 0.532043 1.478449 0.375441 0.920129 1.548929 1.087478 0.668327 0.707416 3.249232 -0.362503 1.273221 -2.929682 -0.245389 1.633444 -0.119836 0.103459 -3.445175 0.513245 0.427807 0.738792 1.448203 0.501908 0.362882 -0.731533 -0.391201 0.037778 3.053553 4.030229 1.793904 1.24136 0.081706 -1.401954 -0.638804 -0.487445 -0.267924 0.012844 0.538179 -0.241935 -0.068756 1.351665 -0.112558 0.001814 0.447262 0.833441 -0.023876 1.212707 1.514635 -0.568611 0.376173 -3.663739 -4.345135 -0.444319 2.139788 -2.53093 0.92131 -1.399435 1.763954
-0.16526 -0.125759 0.086172 -0.073618 0.100657 -0.043946 -0.089765 -0.076099 -0.135857 0.009636 -0.036465 0.227507 0.217747 -0.088453 0.031326 0.039479 -0.087813 0.090354 0.120262 -0.064597 0.011322 0.016658 0.27265 0.023239 0.036419 -0.183944 0.015295 -0.0989 0.067202 0.081155 -0.163607 -0.048144 -0.03524 0.119859 -0.216774 -0.097933 -0.058858 0.028692 0.093401 -0.015126 -0.170494 0.084354 0.063872 0.04883 -0.003724 -0.13525 0.122728 0.06947 -0.130152 -0.048315 0.150119 -0.022637 -0.047962 0.067457 -0.09483 -0.035406 0.14301 -0.059777 0.194492 -0.045509 0.031342 0.118222 -0.01021 -0.137844 -0.007796 0.083188 0.182567 0.029889 0.00348 -0.106126 0.055999 -0.015482 0.179231 0.006781 0.148907 -0.071332 -0.043417 0.07997 -0.151633 0.038319 -0.127367 0.119224 -0.121719 -0.175823 0.009264 0.044314 0.120565 0.090613 0.116276 -0.009916 -0.039233 -0.103821 -0.117814 0.084605 -0.052042 -0.132151 0.061747 0.018746 -0.101982 0.016663
-0.045549 -0.019643 0.046605 0.01937 -0.048165 0.002386 0.133692 -0.105972 -0.036092 0.01926 -0.041897 0.101992 -0.024171 -0.015948 -0.078548 0.018259 -0.021959 -6.9E-5 0.068206 0.037825 0.056655 -0.263488 0.019989 0.022684 -0.095743 0.148716 0.020395 0.005975 0.24558 -0.064396 -0.038624 0.103727 -0.009889 0.096239 -0.304886 0.02822 0.080687 0.038994 0.079709 -0.050449 0.091042 0.026191 0.163824 -0.046615 -0.100267 0.010837 -0.087407 0.084683 -0.041542 -0.01353 0.034989 -0.127666 0.142675 -0.144064 -0.010746 0.042543 -0.055325 -0.066353 -0.06669 -0.203929 0.043696 -0.15489 0.225267 -0.112238 -0.083936 0.01865 0.080721 -0.045273 0.053165 0.012791 -0.251947 -0.087307 -0.030465 0.051097 -0.029058 -0.055214 -0.077598 -0.017701 0.140202 -0.094673 -0.079917 0.236495 -0.033887 0.011453 -0.003383 0.141896 -0.034788 -0.14658 0.023186 0.099968 -0.072668 -0.031315 -0.073928 0.05957 0.035095 -0.094544 -4.16E-4 0.006228 0.001092 -0.050299
-2.120847 2.749144 0.620953 0.448727 4.645135 2.560189 -0.62711 -3.199059 0.06569 3.481896 0.009702 0.324668 -2.907677 0.444894 1.399152 3.198224 -3.29334 -1.072626 -0.301005 -1.522442 -1.459817 0.034404 1.508929 -4.41458 -0.5999 2.348293 0.005751 0.757117 -0.297867 -0.91362 -0.764523 1.011673 0.697412 -3.060911 -2.409397 -1.17756 0.083965 -1.779228 1.920408 -0.113308 0.434802 -0.384948 0.381268 -0.58926 -1.087416 0.689473 -2.225714 3.254371 3.73998 -0.823669 2.933674 2.185937 -1.622748 3.377758 1.044186 3.815302 1.067205 1.30464 -0.784387 -4.70747 -2.088846 0.466766 -0.653828 -0.308432 0.60762 -0.115073 0.778797 -1.358876 -1.483209 1.12585 2.575259 1.145022 1.725113 2.669754 2.114418 1.468883 -2.866826 2.62544 -0.76222 -0.310068 1.668538 -1.244435 -3.668862 0.78977 -1.746979 2.597904 -0.196177 -3.037062 0.999192 1.503946 2.350767 -1.435414 -2.951469 -4.051059 -0.716532 -3.474195 0.202724 3.327394 -1.681497 1.965648
-0.065568 -0.286034 0.613531 0.247477 -0.1377 0.221666 -0.084568 0.215658 0.194011 0.048161 0.266482 0.186722 0.008711 0.119612 0.138626 0.312885 0.090219 0.106363 0.186086 0.231583 -0.222912 0.191192 0.370993 0.041 -0.064269 -0.238319 -0.102954 -0.006241 0.259923 -0.023815 -0.133548 -0.076276 0.185863 -0.261558 -0.171001 -0.114672 0.049181 0.018469 0.064027 -0.092168 -0.293231 0.04854 0.202608 0.231409 0.337374 -0.220403 0.048326 -0.099408 -0.167228 -0.050672 0.002695 -0.208571 0.113248 -0.118258 -0.170098 -0.119444 0.301342 -0.225016 0.043156 0.068382 -0.085473 -0.090316 -0.14611 -0.014334 -0.097567 -0.237874 -0.201336 0.084013 0.209107 0.006859 -0.061697 0.073931 0.069423 -0.074008 -0.089548 -0.327706 -0.013078 0.010215 0.157775 0.066492 0.021497 0.232394 0.014946 -0.012462 -0.005706 0.122408 0.288675 0.112259 -0.032615 -0.15542 -0.002035 -0.148773 -0.126414 0.410482 0.004096 -0.149664 -0.080397 -0.198003 -0.055172 0.072145
-0.119681 0.068069 0.246949 -0.059686 -0.119053 -0.110872 -0.273599 -0.038201 0.032179 0.287669 0.239634 0.163096 0.068708 -0.075913 0.152506 0.149291 -3.87E-4 0.25082 0.104131 0.172022 -0.142018 0.106355 0.294278 0.102721 -0.046014 -0.082732 -0.055084 -0.175309 0.17668 -0.05482 -0.158366 -0.00983 -0.169687 0.173153 -0.090958 -0.01696 0.018452 0.181801 -0.017899 0.194799 -0.107168 0.078743 0.12219 0.063242 0.222869 -0.241571 0.009385 0.036585 -0.166774 0.057124 -0.003219 -0.075677 -0.183852 0.034208 0.100921 -0.157935 0.017689 -0.028223 0.058073 0.00519 0.175671 -0.132746 -0.061234 -0.235727 -0.048019 -0.195558 0.022475 -0.129385 0.222726 -0.164704 -0.119632 0.013991 -0.121707 -0.065653 0.115738 -0.18363 -0.118475 -0.051856 -0.065521 -0.095954 -0.089329 0.173505 0.138095 -0.223016 -0.041774 0.164028 0.136999 0.011656 0.271245 0.120667 -0.290948 -0.018164 -0.066253 0.175646 -0.113909 -0.290208 0.083774 0.013831 -0.038354 -0.15581
-0.119374 -0.049552 0.030089 -0.066749 0.083034 -0.004057 -0.031374 -0.038534 -0.115404 0.140281 0.116849 -0.00785 -0.009694 -0.025351 0.051632 0.019363 0.132343 -0.022169 0.063264 0.003265 -0.0713 0.043074 7.04E-4 -0.027799 -0.007461 -0.02818 -0.143586 0.035053 0.063391 0.018966 -0.010756 -0.071073 -0.085091 3.53E-4 -0.073738 -0.005043 0.022126 0.061307 -0.080645 0.063801 0.113239 -0.027964 0.01339 0.081224 0.050031 0.164784 0.063244 0.118633 -0.081634 -0.026458 -0.084623 0.017156 0.031751 -0.027181 -0.064776 0.005522 0.02186 0.022514 0.030524 0.005834 -0.003827 -0.0074 -0.001276 -0.057325 0.075874 0.109614 -0.008968 -0.039154 -0.010056 -4.1E-4 -0.076911 0.102322 -0.132657 0.004315 -0.183641 -0.074941 0.013678 -0.025606 -0.086126 9.07E-4 -0.01062 0.081594 0.046148 0.05871 0.020378 -0.101995 0.045935 -0.015456 0.029576 0.045189 0.012672 -0.043419 -0.02156 0.028119 -0.071401 0.127258 -0.059919 -0.021166 -0.114768 -0.053734
0.036886 -0.063413 0.060788 -0.116523 0.038098 -0.051833 -0.145288 0.01639 0.011425 -0.097261 0.024519 -0.081873 -0.082704 0.028115 0.120961 0.17711 0.120931 0.050477 0.233508 0.141537 -0.009739 -0.070988 0.184611 0.153421 -0.218752 -0.248357 0.152261 0.027857 0.105089 -0.113351 -0.210093 -0.168103 0.057275 0.023933 0.039289 -0.078598 -0.097853 0.054205 -0.049021 0.037984 -0.116467 0.064976 0.142777 0.01698 0.059788 -0.045849 -0.070846 0.042077 -0.020469 0.096248 0.085967 -0.011366 0.064763 0.0457 -0.021432 0.01841 0.054091 -0.029973 0.049334 -0.049258 0.040737 -0.102204 -7.94E-4 -0.23507 -0.081318 0.074597 -0.115363 0.131179 0.047397 0.03019 -0.079559 -0.03547 -0.054993 -0.119544 -0.008772 -0.20626 0.075806 0.093131 -0.14782 -0.148556 0.070437 0.173464 0.052329 -0.086268 0.039954 0.004279 0.038242 -0.079561 0.270357 0.141883 -0.147943 -0.044018 -0.008979 0.074623 -0.176568 -0.016623 0.001573 -0.057928 -0.034058 -0.042251
0.01311 0.015671 0.00258 0.09233 0.103911 0.110864 -0.10345 0.07571 0.098338 -0.030733 -0.045411 0.012706 0.013709 0.091777 0.070384 0.058979 -0.017217 -0.075754 0.068011 0.072781 -0.079931 0.049377 -0.154103 -0.116595 0.03733 -0.19922 0.004127 0.244322 -0.054259 -0.112059 -0.248714 -0.076475 0.017997 -0.00193 0.176984 -0.029667 0.284106 -0.107067 0.102519 0.040856 0.020503 0.144263 -0.154718 -0.095764 -0.088298 0.060758 0.015756 -0.063484 -0.012318 0.053913 0.038077 -0.010774 -0.082531 0.126004 -0.258754 -0.072877 0.034672 0.110869 -0.038917 0.068934 -0.088919 0.122152 0.008501 -0.189812 -0.06087 -0.24792 -0.119461 0.064257 0.058593 -0.149586 -0.01034 0.084163 -0.039608 -0.278786 -0.100584 -0.087164 -0.031502 0.009479 -0.137992 0.057594 -3.44E-4 -0.174483 -0.052999 0.082566 0.109182 0.04298 -0.020371 -0.086603 0.1497 -0.060451 -0.065248 0.193108 -0.05159 0.115135 -0.206461 0.085769 0.04425 -0.01644 -0.13164 -0.091822
-0.027896 -0.019093 -0.034457 -0.078163 -0.167076 0.115956 -0.186329 0.05536 -0.055112 0.103882 0.094649 0.163971 -0.088725 0.009795 0.161438 0.029007 -0.062467 -0.04891 0.095775 0.193819 0.001652 -0.039977 0.173739 0.00573 -0.037175 -0.107089 -0.100737 -0.004281 0.045245 -0.096282 0.086364 -0.001352 -0.030561 0.080076 -0.025341 -0.137624 -0.109956 -0.052665 -0.010268 -0.066069 -0.004867 -4.88E-4 0.016019 -0.115033 0.008303 -0.104857 -0.054944 0.018619 -0.076986 -5.44E-4 0.135814 -0.096128 -0.238706 0.142484 0.007357 0.028825 -0.026523 -0.039515 -0.002187 -0.046166 -0.062173 -0.003047 0.086245 -0.048192 0.114891 0.197496 -0.08057 -0.02998 0.096844 0.074645 0.115964 0.042015 0.00242 -0.063127 -0.002218 -0.116162 -0.043868 0.086594 0.018077 -0.065813 0.05948 0.074725 0.097874 0.008783 0.237895 0.094609 0.084205 -0.06586 0.051176 0.16762 0.065514 -0.119153 -0.219671 -0.029169 -0.001281 -0.040701 0.053746 0.010648 -0.025552 0.159184
0.201716 0.02966 0.230205 0.029343 0.047907 0.225281 0.167009 0.09591 -0.06199 -0.059223 -0.06306 0.198513 -0.228719 -0.034225 0.030914 -0.041831 -0.158104 -0.19753 0.019925 -0.18049 -0.186919 -0.055901 0.169435 -0.040243 0.300135 -0.183502 0.045035 -0.086649 -0.116651 0.110316 0.005464 0.056193 -0.160381 0.060909 0.052599 -0.090921 0.012533 0.14663 0.457658 -0.372677 -0.286369 0.151071 0.046263 0.255034 0.130215 -0.27941 0.085886 0.132777 0.167935 -0.037018 -0.084164 0.189215 -0.4268 0.200722 -0.226722 -0.172837 -0.015294 0.021273 -0.056398 -0.187813 -0.126059 -0.085313 0.009501 -0.220719 -0.121281 0.188557 -0.169435 0.07999 0.062881 0.088546 -0.001629 0.209341 0.22164 -0.027289 -0.219038 0.056969 -0.28793 -0.001265 -0.181968 0.037535 -0.134621 -0.103219 0.116987 -0.16521 0.06118 0.085948 -0.114216 0.13284 -0.201073 0.007949 0.041684 -0.151751 -0.09168 -0.314112 -0.104332 0.055958 0.202038 0.257452 -0.00957 0.18672
0.0 0.0 0.0 0.0 0.0 0.0 0.0 0.0 0.0 0.0 0.0 0.0 0.0 0.0 0.0 0.0 0.0 0.0 0.0 0.0 0.0 0.0 0.0 0.0 0.0 0.0 0.0 0.0 0.0 0.0 0.0 0.0 0.0 0.0 0.0 0.0 0.0 0.0 0.0 0.0 0.0 0.0 0.0 0.0 0.0 0.0 0.0 0.0 0.0 0.0 0.0 0.0 0.0 0.0 0.0 0.0 0.0 0.0 0.0 0.0 0.0 0.0 0.0 0.0 0.0 0.0 0.0 0.0 0.0 0.0 0.0 0.0 0.0 0.0 0.0 0.0 0.0 0.0 0.0 0.0 0.0 0.0 0.0 0.0 0.0 0.0 0.0 0.0 0.0 0.0 0.0 0.0 0.0 0.0 0.0 0.0 0.0 0.0 0.0 0.0
-0.124276 -2.054402 -0.343635 1.81865 -2.16991 1.782205 0.82505 0.982572 -2.067194 -1.156199 0.298204 0.610046 -4.440783 -0.456446 1.442584 1.853605 -0.146562 2.077692 0.195573 -0.915147 0.599326 0.594442 1.900077 -1.11832 -0.711089 1.802311 -0.934321 4.923428 0.778654 -0.69484 -0.912197 0.151877 -0.031909 -0.121674 -3.551828 0.057548 0.447763 -0.623346 2.678004 -1.345078 -3.955954 -4.075293 -1.036935 -1.334541 -0.166985 -0.129224 -1.031956 -2.988586 3.17002 0.328676 1.405671 0.778493 -1.163548 2.145235 -1.779305 1.663516 1.887483 0.848116 -1.423908 -2.594846 -0.535155 -0.166339 0.121853 -0.577388 -1.832659 -2.926389 -3.361567 0.159506 -0.752505 4.326194 2.90284 -1.469079 -0.616227 0.788738 -0.806913 2.13246 1.096647 1.237584 -0.288162 0.179698 1.570163 0.091941 -1.524701 -1.102449 -1.615839 -0.364109 -2.101004 -0.663784 -0.318699 0.051272 0.686067 -1.094801 1.568548 -3.03993 1.893188 -1.377119 -2.094228 3.564402 -2.235058 -0.581437
-0.063002 -0.234083 0.048008 -0.021485 0.118425 -0.069097 -0.089614 0.015575 -0.088887 0.008327 0.207637 0.145627 0.039454 -0.145483 0.089805 0.196481 -0.026693 0.037297 0.038377 -0.023252 -0.091593 0.155254 0.091762 0.050857 -0.144125 -0.075574 0.049194 -0.032084 0.088898 -0.067973 -0.157209 -0.065605 -0.063939 0.138195 -0.158256 -0.04692 0.110173 -0.083955 0.114583 -0.018865 -0.089491 -0.035668 -0.039526 -0.115205 0.064068 0.002368 -0.123687 -0.024408 -0.086747 -0.035676 0.106402 -0.137065 -0.237056 -0.05544 0.044405 -0.024529 -0.050672 -0.058347 0.091211 -0.044203 0.049511 -0.047131 -0.007296 -0.041396 -0.197592 0.039256 0.094077 0.002507 0.045318 -0.030448 -0.002259 0.129894 0.004666 -0.055742 0.17851 -0.088069 -0.097555 -0.041865 -0.069832 -0.013662 0.134387 0.047405 0.029899 -0.225063 -0.109655 -0.168055 0.098443 0.06128 0.226794 0.174187 -0.15428 5.93E-4 -0.052234 -0.024077 0.128116 -0.13384 -0.03913 0.070803 -0.065908 0.038777
0.061618 -0.084804 0.017171 0.001671 -0.02128 -0.002998 -0.076087 0.006964 -0.082538 -0.013171 0.038778 0.009566 0.07227 -0.007531 0.079512 0.084291 -0.010692 0.040041 0.026516 -0.065386 -0.098247 -0.005097 0.085413 0.032953 -0.032067 -0.030741 -0.014846 -0.013908 0.085158 -0.018904 0.050455 -0.041206 -0.119717 0.00381 -0.080553 -0.007816 -0.023771 0.048007 0.061321 0.034487 -0.037376 0.05589 0.071543 0.00239 0.023685 -0.067461 -0.018301 -2.62E-4 -0.090765 0.105829 0.002854 -0.113866 -0.015003 0.07953 0.080154 -0.00901 0.014921 -0.042097 0.017232 0.010061 0.02612 -0.099584 0.078323 -0.102921 -0.044924 -0.047323 0.119792 0.055589 0.061809 -0.052072 -0.013531 0.010311 0.053329 0.069202 0.059055 -0.02725 -0.034648 -0.031556 0.044102 -0.003554 0.021234 0.049019 0.093016 -0.028378 0.019717 0.035279 0.047285 0.016462 0.127791 0.099933 -0.044888 -0.054611 -0.024683 0.101597 -0.110842 -0.060721 0.023732 0.030292 -0.025025 -0.045851
-0.020291 -0.078982 0.103547 -0.149984 0.254967 0.01435 0.038621 0.005906 0.024726 0.077699 0.043 -0.049641 -0.082927 -0.050978 0.082935 -0.093065 -0.184395 -0.017854 -0.053342 -0.028176 -0.029195 -0.153984 0.019889 0.181048 -0.058189 0.063653 -0.161541 -0.00174 0.033358 -0.123348 0.070983 0.004741 0.101675 0.198518 0.118754 0.004218 0.186596 -0.119807 -0.153255 -0.142196 0.163862 0.021624 -0.164297 0.053947 -0.13113 -0.085746 0.002529 0.02774 -0.064514 0.045825 -0.047978 -0.094305 -0.027934 -0.038012 0.006109 0.074306 0.016115 -0.02377 -0.121417 -0.053733 0.205385 -0.013584 0.013277 -0.077959 0.168715 0.056688 0.092666 -0.080663 0.088818 0.009786 -0.053742 0.128487 -0.043222 -0.022282 -0.087541 0.158933 0.255464 -0.081204 -0.088342 -0.043353 -0.017576 -0.012415 0.177839 0.086675 -0.114006 0.032893 0.067989 -0.002605 -0.069521 0.122596 0.041654 -0.006527 -0.029684 -0.004282 -0.059009 -0.209141 0.049743 0.051203 0.100544 0.096933
-0.16526 -0.125759 0.086172 -0.073618 0.100657 -0.043946 -0.089765 -0.076099 -0.135857 0.009636 -0.036465 0.227507 0.217747 -0.088453 0.031326 0.039479 -0.087813 0.090354 0.120262 -0.064597 0.011322 0.016658 0.27265 0.023239 0.036419 -0.183944 0.015295 -0.0989 0.067202 0.081155 -0.163607 -0.048144 -0.03524 0.119859 -0.216774 -0.097933 -0.058858 0.028692 0.093401 -0.015126 -0.170494 0.084354 0.063872 0.04883 -0.003724 -0.13525 0.122728 0.06947 -0.130152 -0.048315 0.150119 -0.022637 -0.047962 0.067457 -0.09483 -0.035406 0.14301 -0.059777 0.194492 -0.045509 0.031342 0.118222 -0.01021 -0.137844 -0.007796 0.083188 0.182567 0.029889 0.00348 -0.106126 0.055999 -0.015482 0.179231 0.006781 0.148907 -0.071332 -0.043417 0.07997 -0.151633 0.038319 -0.127367 0.119224 -0.121719 -0.175823 0.009264 0.044314 0.120565 0.090613 0.116276 -0.009916 -0.039233 -0.103821 -0.117814 0.084605 -0.052042 -0.132151 0.061747 0.018746 -0.101982 0.016663
0.021801 0.047767 0.03396 0.045414 -0.116247 -0.055074 -0.024745 -0.074947 -4.79E-4 0.04414 0.181623 -0.224626 -0.073607 -0.060446 0.011759 -0.063758 -0.009581 -0.110683 -0.021059 -0.021534 -0.180234 0.032658 0.048933 0.018761 -0.03702 0.149393 0.035452 -0.019397 0.338091 -0.067393 -0.029922 0.053453 0.202563 0.139385 0.139224 0.024787 0.11352 0.091446 -0.017206 0.079608 -0.082898 0.043839 0.087418 0.1131 -0.026485 0.055588 -0.016671 -0.153957 0.296557 0.090681 -0.146927 -0.104523 -0.076023 -0.013352 0.168942 -0.123345 -0.015107 0.009174 -0.023022 -0.070333 0.100208 -0.195211 -0.036155 -0.079596 -0.209194 0.025225 -0.104081 -0.068625 0.096678 0.046218 0.046445 0.075604 0.059536 0.022914 -0.147549 -0.341762 0.078235 0.099777 -0.027845 0.151788 -0.205136 -0.039023 0.169104 0.026798 0.082909 0.008252 0.059797 -0.212183 0.046873 0.038391 0.033162 -0.112818 0.107139 -0.090984 0.104094 -0.085878 0.006286 0.16308 0.060007 -0.056075
-0.112949 -0.040227 0.149991 0.093918 -0.098587 -0.052732 -0.001312 -0.035771 -0.052248 0.052683 0.011256 0.19327 -0.022769 0.141105 0.148505 0.106607 0.005952 0.077827 -0.054171 0.15456 0.015987 0.178934 0.114665 0.070503 -0.010172 -0.043615 -0.083799 0.00558 0.206988 0.006026 -0.050646 -0.063117 -0.0647 0.138432 -0.103472 -0.060165 0.051065 -0.150562 -0.151495 -0.007589 -0.166533 0.024291 0.169605 0.009836 0.028472 -0.096138 -0.072626 0.114724 -0.136683 0.131426 0.136616 -0.099006 -0.346403 -0.047017 0.140062 -0.065067 -0.077356 0.051822 0.086749 -0.107502 0.120706 -0.24487 -0.037913 -0.170894 -0.09467 -0.124023 -0.066744 -0.049919 0.222363 -0.110741 -0.017665 0.128537 0.093628 -0.030577 0.019193 0.01908 -0.254149 0.01555 -0.128696 -0.122681 -0.114133 0.266489 0.008423 -0.039817 -0.152075 -0.075249 0.191997 0.096767 0.13664 0.249043 -0.128316 0.091709 -0.033373 0.179848 -0.013211 -0.211341 0.176711 -0.051792 0.094239 0.018276
-0.051565 -0.143869 -0.112678 -0.049669 -0.072342 0.183595 0.114558 0.082895 -0.090215 -0.134049 -0.119117 0.056434 0.084021 0.110026 0.097312 -0.279117 0.219137 0.107387 -0.102304 0.066718 -0.080322 0.005736 -0.046094 0.176178 -0.035814 -0.109418 0.239905 -0.043441 0.07928 -0.024387 0.019514 -0.099927 0.086904 0.030167 -0.107172 0.078633 -0.105512 0.011528 -0.005244 -0.177731 -0.006989 0.117309 -0.112103 -0.141809 0.045234 0.117822 -0.156297 0.172787 0.083312 -0.073652 -0.013921 0.123587 -0.11378 -0.039851 0.093872 0.375333 0.042014 -0.030276 -0.012147 -0.051428 -0.005371 -0.161906 -0.141773 -0.033245 0.116834 0.071804 0.06179 0.059648 -0.134645 -0.039497 0.064495 0.498212 -0.083131 0.039436 0.222702 0.178868 -0.076686 -0.092234 0.080077 0.01701 -0.181407 -0.206039 -0.026267 -0.070103 -0.029019 -0.085507 -0.121895 0.08698 -0.171504 0.223913 0.043992 0.113168 -0.039278 -0.015012 0.097057 0.241848 0.109387 -0.013825 -0.058187 -0.036969
-0.080399 -0.169294 0.087497 -0.031704 0.09678 0.15892 -0.108997 -0.163519 -0.181183 0.11933 0.145423 0.130087 0.079904 -0.145864 -0.07498 0.343008 -0.175806 0.199156 -0.057972 0.127526 0.0255 0.271007 0.184627 -0.065619 -0.115495 -0.224778 -0.030758 -0.148559 0.212127 -0.110619 -0.024503 -0.173466 -0.209352 -0.06742 -0.129905 -0.24377 0.107915 -0.012283 -0.012584 0.015797 0.107046 0.252002 -0.101071 0.010813 -0.08252 -0.226533 0.126962 0.221158 0.077059 0.223741 0.100493 0.001645 -0.002851 0.006394 0.256981 -0.173676 -0.080831 -0.056145 0.183683 -0.146119 0.04917 -0.001494 0.061505 -0.072365 0.113267 0.037794 0.143835 -0.048725 0.017265 0.009973 0.10889 0.20554 0.072198 -0.057574 -0.050995 0.033114 -0.178501 -0.140151 -0.008452 -0.098625 -0.109184 -0.002429 0.086047 -0.094866 0.031709 0.072247 -0.049651 0.120671 0.163088 0.27325 -0.250025 0.108883 -0.165391 0.012244 -0.045922 -0.102298 0.207298 -0.053531 -0.206022 -0.220062
0.352905 0.550922 -1.128945 -0.511125 0.774489 1.405335 -0.371647 0.106012 -0.779785 -0.640302 -0.68578 1.570717 -0.712288 -0.706705 -0.789609 -0.045278 -1.599722 -2.840112 -0.089543 -1.158838 -1.862605 -0.62748 -0.063542 -0.468696 0.750564 0.033551 -0.772222 -0.188991 -0.163115 0.455978 0.038455 -0.779588 0.172303 -1.114448 -0.548246 -0.008155 1.66721 -0.744821 -0.15746 -2.668482 -0.304702 -0.905716 0.479063 0.151803 -0.94063 -0.044338 -0.906122 -0.456182 0.281891 0.268287 0.47007 0.628019 0.328428 1.471286 -2.345457 0.072073 -0.345477 -0.998199 -1.496897 -0.053061 0.351206 -0.934426 0.295591 0.07336 0.24092 0.486976 0.390085 -0.621556 0.375246 -0.02625 1.957847 1.014101 0.004675 0.08874 -0.900479 -0.462149 0.922254 1.355385 -1.048724 0.105897 1.254466 0.410718 0.321258 1.066395 -0.171761 -0.128774 0.315556 0.697301 -0.180925 0.555334 1.005586 -0.891677 -1.232923 -1.994189 -0.567812 0.204184 -0.947385 -0.051526 -0.987029 0.725141
0.195429 0.151721 0.048188 0.159024 0.008167 0.117501 0.248005 0.032278 0.00281 0.006955 -0.019392 0.2134 -0.030625 0.139044 -0.162526 -0.21656 0.093015 -0.232406 -0.074395 0.149078 0.107193 0.282487 -0.28274 -0.186167 0.265215 -0.222824 0.127491 0.090703 -0.034214 0.054806 -0.065208 -0.149448 -0.022505 0.015342 -0.108122 0.028698 0.156975 -0.039146 -0.047355 -0.04756 -0.14947 0.11037 0.192526 -0.136824 0.027522 -0.048311 0.032131 -0.001647 0.208381 0.193659 -0.017101 0.003732 -0.275641 -0.122236 -0.185903 0.095346 0.024874 -0.029132 -0.129691 -0.132201 0.031945 0.016857 -0.077905 -0.264534 -0.13559 -0.101227 -0.318347 -0.227998 0.225458 0.012067 0.131606 0.125731 0.123895 -0.14744 -0.210679 -0.100999 -0.180309 0.130682 -0.247062 0.020711 -0.096935 0.212048 -0.086339 0.092677 -0.161102 -0.043063 0.1028 0.033563 -0.052115 0.151419 0.128144 0.056149 -0.00727 -0.063511 -0.005947 0.066791 0.249916 0.127665 -0.151804 -0.063171
-0.199302 -0.027646 0.164205 0.004075 -0.114623 0.026021 -0.046199 0.149058 -0.143913 0.035337 -0.015195 0.185233 -0.078965 -0.031475 0.026493 0.296032 0.142665 0.083384 0.17048 0.17983 -0.242554 0.171273 0.134997 -0.034308 0.021898 -0.051295 -0.033599 -0.029347 0.181679 -0.149275 -0.141042 0.032901 -0.079821 -0.034457 -0.24595 -0.101617 0.093844 0.109315 0.170506 -0.114099 -0.062232 0.058992 -0.040662 -0.13204 0.085285 0.019389 -0.109116 -0.066343 -0.023458 0.061061 0.00218 -0.110391 0.011281 0.030029 -0.03906 -0.218372 0.079669 -0.00135 0.060251 -0.103982 0.123098 -0.179715 0.010453 -0.336432 -0.015294 -0.195645 0.036537 0.124707 0.116728 -0.157308 -0.081339 -0.0116 0.094273 -0.049719 0.063578 0.024291 -0.049279 0.094402 -0.125369 -0.064721 0.050579 0.196757 0.073249 -0.135505 -0.01699 0.1028 0.001619 -0.083208 0.030158 0.216446 -0.117102 -0.123013 0.013663 -0.024896 0.023931 -0.072083 -0.060391 -0.046094 -0.039282 0.015793
0.006599 -0.174628 0.02306 0.129584 -0.003864 0.146674 -0.252025 0.043441 0.135443 -0.064367 0.171663 0.162274 -0.102276 -0.054774 0.088218 0.018087 0.030148 0.21844 0.138798 0.023864 -0.193472 0.069383 0.126224 0.097154 -0.341254 -0.207503 0.025933 -0.149577 -0.119172 -0.199055 -0.066671 0.034846 -0.057776 0.272041 -0.140804 -0.143627 0.127502 -0.010386 -0.037882 0.046157 -0.038366 0.207984 -0.074969 -0.151288 0.048715 -0.230531 0.091726 -0.058676 -9.84E-4 0.206182 0.102563 0.116276 0.117333 0.162199 0.102654 -0.139353 -0.038066 -0.001987 0.044312 -0.032569 0.161357 -0.008608 -0.047107 -0.141086 -0.090385 -0.034727 0.139694 0.048075 0.008102 -0.234896 0.010922 0.00528 0.120597 -0.064936 0.026668 -0.088449 0.026203 -0.055617 0.006251 0.06188 0.028263 0.330223 0.237868 -0.142478 0.044972 0.175135 0.119707 0.095305 0.03396 -0.037129 -0.226777 -0.175262 -0.010989 0.03514 -0.283795 -0.372992 -0.073743 -0.056745 0.011102 0.061266
-0.146923 -0.086523 0.139554 -0.058793 -0.103729 -7.28E-4 -0.151138 -0.076536 -0.163527 0.04151 0.23966 0.144026 -0.005553 -0.027765 -0.113888 0.275682 0.031279 0.109198 0.156789 0.11658 0.015275 0.017859 0.30769 -0.06015 -0.003041 -0.115346 -0.127339 0.005773 0.220715 -0.139835 -0.139246 -0.060474 -0.065954 0.111245 -0.270323 -0.287499 0.122545 -0.057344 0.146182 -0.057474 -0.12236 0.002375 0.219496 0.090032 -0.021887 -0.175626 0.088167 -0.060378 -0.179956 0.144222 -0.024862 -0.01432 -0.121088 0.077654 0.09061 -0.175828 -0.158827 -0.113938 0.09303 -0.052254 0.04433 -0.172639 -0.248066 -0.198796 -0.091118 0.087582 -0.136861 -0.098317 0.167704 -0.088245 -0.05382 0.110025 -0.041731 0.112631 -0.066874 0.050673 -0.093651 -0.006012 -0.116647 -0.081235 0.110243 0.146173 -0.017939 -0.148981 -0.099161 -0.051983 0.071162 0.081146 0.149833 0.029866 -0.064162 0.027819 -0.119135 0.043803 0.114292 -0.14212 0.075904 0.119571 0.02832 -0.136258
0.15849 -0.108446 0.060652 -0.008194 -0.052735 -0.14132 -0.064968 -0.131062 -0.176986 0.016132 0.146535 0.097815 -0.006962 0.031031 0.059471 0.228522 -0.072115 0.059189 -0.072778 0.016396 -0.179111 0.031434 0.186752 0.024644 -0.023998 -0.187947 0.062745 0.037207 0.009899 -0.073008 -0.052259 -0.02762 -0.137408 0.098595 -0.129036 -0.108954 0.203361 0.015456 0.063842 -0.078139 0.023904 0.165628 0.087652 0.091934 0.040288 -0.119348 -0.095886 0.086081 -0.017142 -0.01886 0.062085 0.007646 -0.071529 0.016292 0.071593 0.042954 0.010719 -0.144194 0.270578 -0.178196 -0.01856 0.046642 0.069962 -0.239681 -0.078538 -0.080061 0.116532 0.089446 0.187609 -0.137 0.088933 -0.032391 0.006936 0.020387 0.059 0.059742 -0.147257 0.00724 0.065396 -0.036561 -0.015099 -0.005432 0.025834 -0.088228 -0.013923 0.078631 -0.054426 0.14857 -0.045009 0.07035 0.058348 -0.097176 0.10859 0.187265 -0.00569 -0.139389 0.063445 -0.034281 0.047319 -0.08592
0.099394 0.05303 -0.051479 0.105661 -0.030216 0.145336 -0.018489 -0.034675 3.87E-4 0.033644 0.025463 0.11606 0.22978 -0.051807 -0.04133 0.148516 0.148728 -0.119717 0.051447 0.197863 -0.054073 0.059845 0.030439 -0.050494 5.19E-4 -0.116601 0.039836 0.185495 0.145611 -0.127397 -0.161073 -0.121888 -0.284725 0.036713 -0.141799 -0.068493 0.129315 -0.014487 0.158269 -0.042746 -0.051598 -0.198717 0.075665 0.167679 0.087737 -0.100829 -0.045935 0.047819 0.16596 -0.041201 -0.066672 -0.155012 0.005614 0.017312 -0.256533 -0.176522 -0.042482 0.054685 0.223947 0.02772 -0.068862 -0.068296 0.00688 -0.044824 0.01754 0.08516 -0.14093 0.047273 0.080639 -0.113104 0.138402 0.049002 0.053385 -0.032789 0.024141 -0.156018 -0.138066 -0.292084 -0.075043 -0.004723 0.184727 -0.084277 -0.008821 0.163526 -0.056346 0.004694 0.251452 0.215158 0.393999 0.11784 -0.094501 0.03124 -0.291195 0.025564 -0.003494 -0.009418 0.030543 0.050632 -0.019252 0.119846
-0.078624 0.021532 -0.105343 -0.205026 -0.029899 -0.162674 0.192095 -0.057963 0.199016 -0.292198 -0.1344 -0.360164 0.016039 -0.184423 -0.174289 -0.245592 0.086799 -0.183544 0.064246 -0.211939 0.12472 -0.432861 -0.088086 -0.105679 0.159571 0.077287 0.106714 0.143045 -0.140719 0.184754 0.163488 -0.076566 0.27276 0.040708 0.183531 0.151248 -0.224803 0.047964 0.364275 0.120908 -0.039326 0.04703 0.09787 -0.107504 -0.38685 0.093894 0.028304 -0.138706 -0.196718 -0.275456 -0.347101 0.090322 0.205927 -0.16257 -0.258345 -0.060628 -0.285707 -0.123217 -0.092358 0.415521 -0.171463 0.020112 -0.203459 0.267943 0.144338 0.131693 -0.189113 0.017299 0.041848 0.085631 -0.051333 0.056999 -0.236631 0.025882 -0.101817 0.283567 -0.207527 0.247624 -0.038503 -0.180092 0.145847 -0.185888 0.009364 0.247666 -0.182483 0.02658 -0.394008 -0.322273 -0.19026 0.076324 0.062932 -0.0602 0.14594 0.214797 -0.243158 0.429205 -0.060893 0.156331 0.055872 -0.137552
-0.065568 -0.286034 0.613531 0.247477 -0.1377 0.221666 -0.084568 0.215658 0.194011 0.048161 0.266482 0.186722 0.008711 0.119612 0.138626 0.312885 0.090219 0.106363 0.186086 0.231583 -0.222912 0.191192 0.370993 0.041 -0.064269 -0.238319 -0.102954 -0.006241 0.259923 -0.023815 -0.133548 -0.076276 0.185863 -0.261558 -0.171001 -0.114672 0.049181 0.018469 0.064027 -0.092168 -0.293231 0.04854 0.202608 0.231409 0.337374 -0.220403 0.048326 -0.099408 -0.167228 -0.050672 0.002695 -0.208571 0.113248 -0.118258 -0.170098 -0.119444 0.301342 -0.225016 0.043156 0.068382 -0.085473 -0.090316 -0.14611 -0.014334 -0.097567 -0.237874 -0.201336 0.084013 0.209107 0.006859 -0.061697 0.073931 0.069423 -0.074008 -0.089548 -0.327706 -0.013078 0.010215 0.157775 0.066492 0.021497 0.232394 0.014946 -0.012462 -0.005706 0.122408 0.288675 0.112259 -0.032615 -0.15542 -0.002035 -0.148773 -0.126414 0.410482 0.004096 -0.149664 -0.080397 -0.198003 -0.055172 0.072145
-0.181113 -0.085139 0.120497 0.04297 -0.025252 -0.091204 -0.044943 -0.03741 -0.042415 -0.024572 0.104008 0.088577 -0.103495 0.080433 0.178625 0.110388 -0.186293 0.214163 -0.031039 -0.030849 3.5E-5 -0.040918 0.200431 0.052983 -0.106761 -0.008215 -0.085676 0.059947 0.215463 -0.111122 -0.019986 0.044281 -0.118992 -0.055364 0.118484 0.085733 -0.017199 -0.001632 0.118218 0.198893 -0.038273 -0.046421 0.088348 0.032641 -0.047017 -0.112731 -0.048459 0.183985 -0.082244 0.01863 0.144509 -0.102822 -0.18289 -0.124319 -0.223957 -0.013982 -0.209708 -0.013779 -0.124182 -0.136856 0.041579 -0.199334 -0.0106 -0.250446 -0.085957 0.113736 -0.093515 -0.07282 0.095803 0.053325 -0.098377 -0.185079 -0.090678 0.127159 -0.048492 -0.010372 -0.126244 -0.118682 -0.010703 -0.071063 -0.091404 0.070653 0.163052 -0.025235 -0.1335 -0.096313 0.266958 0.009826 0.189944 0.187557 -0.020195 0.009831 -0.051354 -0.045057 -0.249629 -0.153915 0.028899 -0.164427 0.001917 0.082332
0.352905 0.550922 -1.128945 -0.511125 0.774489 1.405335 -0.371647 0.106012 -0.779785 -0.640302 -0.68578 1.570717 -0.712288 -0.706705 -0.789609 -0.045278 -1.599722 -2.840112 -0.089543 -1.158838 -1.862605 -0.62748 -0.063542 -0.468696 0.750564 0.033551 -0.772222 -0.188991 -0.163115 0.455978 0.038455 -0.779588 0.172303 -1.114448 -0.548246 -0.008155 1.66721 -0.744821 -0.15746 -2.668482 -0.304702 -0.905716 0.479063 0.151803 -0.94063 -0.044338 -0.906122 -0.456182 0.281891 0.268287 0.47007 0.628019 0.328428 1.471286 -2.345457 0.072073 -0.345477 -0.998199 -1.496897 -0.053061 0.351206 -0.934426 0.295591 0.07336 0.24092 0.486976 0.390085 -0.621556 0.375246 -0.02625 1.957847 1.014101 0.004675 0.08874 -0.900479 -0.462149 0.922254 1.355385 -1.048724 0.105897 1.254466 0.410718 0.321258 1.066395 -0.171761 -0.128774 0.315556 0.697301 -0.180925 0.555334 1.005586 -0.891677 -1.232923 -1.994189 -0.567812 0.204184 -0.947385 -0.051526 -0.987029 0.725141
-0.074419 -0.094277 -0.162554 0.070541 0.08069 0.152846 0.080903 -0.234024 -0.010766 0.003822 0.124415 0.136077 -0.048372 -0.131138 -0.006489 0.173029 -0.141645 0.113961 0.144293 -0.042485 -0.061895 0.034649 0.139696 -0.073566 -0.066256 -0.045711 0.037594 -0.123534 -0.045274 -0.089567 -0.077441 -0.03183 -0.10011 0.135775 -0.007237 -0.135392 0.154397 -0.122017 0.216267 -0.220897 -0.204292 0.141332 -0.070163 -0.001664 -0.159412 -0.200164 -0.015124 0.028739 0.01412 0.108034 -0.015662 0.108581 -0.140736 0.082472 -0.030313 -0.005618 -0.071425 0.127893 0.026485 -0.069755 -0.010417 -0.194948 0.053562 0.04048 0.005837 0.389924 0.117469 -0.076286 -0.002113 0.096106 -0.013079 0.083047 0.178379 -0.076851 -0.246059 0.183538 0.03842 0.039123 -0.130315 0.040846 -0.136636 0.170332 -0.044344 0.053992 -0.110823 0.19027 0.129056 0.322896 -0.01735 -0.049514 0.030471 -0.155827 -0.134675 -0.109323 -0.134386 -0.08034 -0.026543 -0.051593 0.065842 -0.220019
-0.198993 -0.038833 0.084464 0.035459 0.072309 0.179254 -0.023182 -0.038349 -0.00192 -0.043359 0.05716 0.033052 -0.044886 -0.05034 0.040471 -0.007395 0.101527 0.026356 0.046298 0.183448 -0.070901 0.14118 0.138608 -0.056514 -0.119897 -0.030357 0.058616 -0.010924 0.056879 0.01442 0.034758 -0.143262 0.018721 -0.110238 -0.010141 -0.047775 -0.064593 -0.028203 0.238922 0.133151 0.055244 -0.013355 -0.069299 0.025915 -0.048973 -0.184971 0.168239 -0.017302 -0.134047 -0.04956 0.139145 -0.067974 -0.214556 -0.043842 -0.13873 0.060507 -0.0822 0.04571 0.202554 0.088807 -0.053065 0.134074 -0.084771 -0.082177 -0.200724 -0.154299 0.049874 -0.050157 -0.031405 -0.173391 -0.097618 -0.005724 -0.050184 0.122742 0.03889 -0.18666 -0.097963 -0.090014 -0.132312 -0.009465 -0.06537 0.043545 -0.006869 0.038956 0.222033 -0.069937 -0.022133 -0.035512 0.062168 0.002819 0.025548 0.057064 0.029098 -0.125841 0.003589 -0.112843 0.206959 -0.089189 -0.091126 -0.087675
-0.070544 -0.169297 -0.056329 -0.041126 0.071314 0.01096 -0.178459 -0.02901 -0.152849 -0.25808 0.01402 0.044665 -0.106834 -0.030556 -0.117549 0.110732 0.032371 0.051659 -0.013641 0.048775 -0.019396 0.058898 0.165111 0.132881 -0.058666 -0.150652 0.056991 -0.094403 0.24182 -0.073038 -0.272244 0.13402 -0.180677 0.241778 -0.012288 -0.146759 0.177799 -0.290496 0.249528 0.052377 -0.011234 -0.035572 0.181133 -0.012973 0.03328 -0.059908 -0.022452 -0.06452 0.008339 0.16972 -0.059389 -0.055649 -0.010076 -0.050999 -0.025146 0.246811 -0.00752 0.107414 -0.05115 -0.00763 -0.109707 -0.185291 0.123517 -0.045811 0.125141 0.156298 0.045592 -0.026498 -0.001602 0.142044 0.081915 -0.055838 0.05029 -0.018821 -0.003288 0.38179 0.081444 0.03854 0.101922 -0.334004 0.057873 -0.17742 0.133641 0.115431 -0.046672 -0.068151 0.027605 0.063486 0.013834 0.035098 -0.12435 0.056895 0.115643 -0.195715 0.156982 -0.049284 -0.047942 -0.06978 -0.002006 -0.311253
0.129347 -0.034539 0.110756 -0.026581 0.053886 -0.05038 0.172565 0.132583 -0.006302 -0.025741 0.199193 -0.01627 -0.058173 0.038852 0.028399 0.136799 0.128914 -0.089835 0.105659 0.069627 -0.106558 0.048134 0.078275 0.091079 -0.215898 0.129203 0.06114 0.070604 0.154959 -0.061403 -0.15137 0.108239 0.040297 -0.028921 -0.140838 0.004863 0.040579 -0.022986 0.060521 -0.153493 0.09818 -0.227794 -0.085577 0.195567 -0.053753 0.112956 -0.044755 -0.040024 -0.044331 -0.019505 -0.063551 -0.166768 -0.1715 -0.163148 0.313635 0.204647 -0.094257 0.087367 0.093534 0.108667 -0.039805 0.002312 0.075644 -0.03595 0.023051 0.049548 -0.016284 0.056146 -0.060892 0.086197 0.080908 -0.100306 0.007319 0.050592 0.04522 -0.055598 0.156943 -0.10538 -0.039652 -0.321456 0.14167 -0.161084 -0.014301 -0.218639 -0.161051 0.149793 0.124222 0.004853 -0.114716 0.088538 -0.055419 0.040508 -0.109684 -0.082626 -0.151726 -0.053494 -0.152339 0.019812 0.07956 0.091433
0.0 0.0 0.0 0.0 0.0 0.0 0.0 0.0 0.0 0.0 0.0 0.0 0.0 0.0 0.0 0.0 0.0 0.0 0.0 0.0 0.0 0.0 0.0 0.0 0.0 0.0 0.0 0.0 0.0 0.0 0.0 0.0 0.0 0.0 0.0 0.0 0.0 0.0 0.0 0.0 0.0 0.0 0.0 0.0 0.0 0.0 0.0 0.0 0.0 0.0 0.0 0.0 0.0 0.0 0.0 0.0 0.0 0.0 0.0 0.0 0.0 0.0 0.0 0.0 0.0 0.0 0.0 0.0 0.0 0.0 0.0 0.0 0.0 0.0 0.0 0.0 0.0 0.0 0.0 0.0 0.0 0.0 0.0 0.0 0.0 0.0 0.0 0.0 0.0 0.0 0.0 0.0 0.0 0.0 0.0 0.0 0.0 0.0 0.0 0.0
