0.23274 1.900121 2.019241 -0.15158 0.04456 -0.037907 -2.576377 -2.641418 -1.305579 -2.074095 4.192745 -1.280469 1.779734 -3.242979 -4.824458 0.149464 -1.034663 -1.37238 -0.671201 1.316465 -1.189588 -1.561782 1.271749 -1.400576 -3.929301 -0.773021 -0.322133 1.008422 -2.049223 -1.118003 0.770637 2.376068 1.78454 -0.037599 -0.125738 1.659049 2.833397 0.722892 -2.621174 -2.959247 -0.404765 0.163863 1.273888 1.662048 -0.51462 1.956977 0.306333 0.226348 0.09062 0.370456 1.80706 3.032334 2.389497 3.675364 -4.421136 -0.107854 2.957658 3.605645 -2.533922 0.972829 2.155468 -0.62435 -0.581378 3.354724 2.244798 -0.448922 1.382503 -1.213052 0.716902 0.347434 0.993965 -0.451589 -0.256563 -1.27327 0.427105 -1.188699 3.895242 -2.118459 -1.721592 2.294604 2.321485 -0.906631 1.308716 -0.413839 1.882678 -0.119835 -0.750786 -3.683892 -1.630381 -2.197754 -0.498195 0.958505 -1.760536 -0.336326 0.733239 -2.77517 0.469665 1.858631 -0.347276 2.603021
0.0 0.0 0.0 0.0 0.0 0.0 0.0 0.0 0.0 0.0 0.0 0.0 0.0 0.0 0.0 0.0 0.0 0.0 0.0 0.0 0.0 0.0 0.0 0.0 0.0 0.0 0.0 0.0 0.0 0.0 0.0 0.0 0.0 0.0 0.0 0.0 0.0 0.0 0.0 0.0 0.0 0.0 0.0 0.0 0.0 0.0 0.0 0.0 0.0 0.0 0.0 0.0 0.0 0.0 0.0 0.0 0.0 0.0 0.0 0.0 0.0 0.0 0.0 0.0 0.0 0.0 0.0 0.0 0.0 0.0 0.0 0.0 0.0 0.0 0.0 0.0 0.0 0.0 0.0 0.0 0.0 0.0 0.0 0.0 0.0 0.0 0.0 0.0 0.0 0.0 0.0 0.0 0.0 0.0 0.0 0.0 0.0 0.0 0.0 0.0
1.155368 3.302179 -0.818617 0.201583 -0.372035 -0.220049 -2.421694 1.24088 1.022918 0.281963 -0.56672 0.218504 -2.654141 0.687099 1.426786 -2.744465 -2.044989 -0.49789 -1.769702 -2.328375 -1.105508 0.104665 -0.061522 -2.669585 1.369504 1.778184 -0.869744 -1.441309 0.051265 1.116249 1.903031 -0.163683 1.731475 -0.652558 -1.459245 -0.212579 0.382415 1.861636 -0.394668 -0.423196 -0.983827 -1.176007 1.844253 0.853456 0.976233 -0.076248 -1.490589 -0.553926 0.506191 0.326236 0.251095 1.038919 -0.803142 0.658979 -3.236482 -1.07965 1.27678 -0.350029 -1.778651 0.292774 0.002745 0.267431 1.072933 -0.321661 -1.19536 -1.465055 -2.523761 -3.574044 -0.123843 -0.515256 3.2036 -0.08683 1.099575 -0.639959 -1.310584 0.629968 -0.142079 0.66081 -1.289981 -0.152693 -0.105374 0.388507 -1.068849 2.207516 -1.516502 0.618648 0.057959 1.61471 0.888036 -0.337188 -0.73306 -0.809614 -1.409634 -0.094797 -0.938314 1.210802 1.47048 2.210952 -1.933366 0.819087
0.346085 0.217947 0.693116 0.142893 0.369152 0.727018 1.19217 0.608406 -0.667668 -0.127676 -0.076749 0.013574 -0.663048 0.035021 -0.600232 -0.016127 -0.387056 -0.087382 0.082938 -0.311806 0.699668 0.736261 -0.081784 0.102416 -0.475508 -0.353355 0.608715 -0.137132 0.615065 -9.7E-5 0.059461 0.272598 -0.286336 0.258065 0.341095 0.121999 0.142254 -0.853118 -0.45419 -0.260648 -0.937209 0.502731 0.26618 1.242961 0.136789 0.028709 0.077055 0.810134 0.792946 0.067769 0.045145 0.413873 -0.4602 0.744525 -0.187471 -0.380927 0.848867 0.711486 -0.089378 -0.208611 0.951735 0.9057 0.006272 0.177415 -0.403458 -0.471928 0.595332 -1.335033 0.293181 -0.218503 -0.334793 -0.633426 -0.011135 -1.514448 -0.050574 0.568397 -1.388051 -0.100139 -1.232281 0.591637 0.306665 0.870345 1.161327 0.810944 -0.115782 0.202457 0.574908 -0.608811 -0.317966 -0.079608 0.813424 0.609008 -0.287118 0.237208 0.12935 -1.357947 0.446872 -0.128655 0.430931 0.32225
-0.214786 -0.184578 0.086753 0.102754 -0.069699 0.072722 -0.096503 0.122645 -0.05629 0.102723 0.073523 0.217852 0.022806 -0.1314 0.091245 0.057136 -0.244828 0.178323 0.0103 0.132321 0.020062 -0.003931 0.222212 0.003953 -0.066869 0.044077 0.016953 0.031516 0.114034 -0.078932 -0.147773 -0.207484 -0.073712 0.132272 -0.153987 0.08113 -0.078742 0.071932 0.184961 0.100602 -0.22179 0.077837 0.00906 0.031095 0.027002 -0.234333 -0.027043 -0.00907 -0.267578 0.073776 0.156574 -0.088419 -0.232172 -0.04565 0.055069 -0.043481 0.028807 -0.098592 0.081664 -0.234911 0.046858 -0.134655 -0.152846 -0.196551 -0.146272 0.076532 0.134454 -0.024282 0.198071 -0.099424 -0.083404 0.149022 -0.02605 -0.02251 -0.109806 -0.092488 -0.238877 -0.085192 -0.136777 -0.034988 -0.119774 0.189159 0.014591 -0.185996 -0.084138 0.018556 -0.097732 -0.155777 0.136643 0.023121 -0.089901 -0.10196 0.058039 0.073261 -0.019193 -0.165643 0.128138 -0.097803 0.042103 -0.027534
-0.008146 -0.005648 0.059531 0.125535 0.011328 0.024558 -0.165969 -0.019482 -0.076996 -0.167427 -0.035646 0.020818 -0.028113 -0.036329 -0.071534 -0.002174 -0.032754 -0.131044 -0.062638 -0.094554 -0.034763 -0.156622 -0.035706 -0.093561 0.027306 0.116182 0.031816 -0.094699 0.01367 -0.093147 -0.221748 0.003871 0.035001 -0.032771 0.015245 0.075022 -0.03079 0.059095 -0.140093 -0.093351 0.063765 0.064153 -0.036182 -0.007205 0.056318 -0.054911 -0.068876 -0.020263 -0.114443 -0.0113 -0.166841 0.023401 0.163193 0.030154 -0.040468 -0.037734 -0.144155 -0.07559 -0.067957 -0.135068 0.029689 -0.149559 -0.055197 -0.039455 0.185154 0.073544 -0.115102 0.115653 0.111712 -0.10039 -0.071982 0.010746 0.15125 0.026204 0.016248 0.085703 0.168286 -0.023663 0.005723 -0.237316 0.070247 0.079136 0.040366 -0.02896 -0.063939 -0.016178 0.023626 -0.078918 0.141125 0.036686 -0.156999 0.121274 0.089779 0.202551 0.070942 -0.023656 -0.075331 -0.043597 0.048624 -0.137596
0.047752 -0.011346 0.0923 -0.029609 0.057311 -0.018942 0.101697 -0.008816 0.160723 0.047691 0.071984 0.076167 -0.075283 -0.019033 0.020958 0.126101 -0.130388 0.006598 -0.014525 0.04765 -0.051593 0.1344 -0.019667 0.017882 0.076152 -0.006446 0.103046 0.003142 0.050101 -0.034555 0.102535 -0.03113 -0.059746 -0.06714 0.009189 -0.056583 -0.121006 -0.048071 -0.068459 0.107579 -0.067348 -0.079693 -0.025409 -0.126253 0.011246 0.093704 0.001957 -0.055331 0.072705 0.08961 0.033024 -0.078931 -0.030987 -0.136595 0.078724 -0.06895 -0.159063 -0.014373 -0.09182 -0.019845 0.021328 0.038025 -0.035713 -0.219075 -0.179694 0.088581 0.019521 0.046478 -0.034868 -0.055462 0.066894 0.044192 -0.038243 -0.03165 -0.04116 0.112415 -0.038024 -0.034903 -0.099677 -0.034058 -0.072879 0.11684 -0.027534 -0.060155 0.022785 -0.180086 0.147153 -0.028915 0.09839 0.09891 0.033324 -0.024952 -0.007763 0.133121 -0.043308 -0.063667 -0.016107 0.045521 -0.041694 0.037351
-0.043087 0.139763 0.228246 0.020657 0.032655 -0.089824 -0.09438 -0.001594 -0.129895 -0.057274 0.012852 0.185219 0.131391 -0.063681 0.057356 0.059557 0.13893 0.061043 -0.022883 0.078487 -0.013161 0.125367 0.24897 0.093357 -0.045465 -0.082864 -0.053992 0.002178 0.061576 -0.068787 -0.197042 -0.055046 0.02078 -0.037308 -0.033714 -0.072842 -0.039272 0.053903 -0.115587 -0.170093 -0.015556 0.112956 -0.083796 -0.050842 0.118823 0.052147 0.00419 -0.126707 0.015866 -0.032215 -0.020129 -0.162853 0.033763 -0.077113 0.054664 -0.180917 0.047397 0.129339 -0.042019 -0.052584 0.119944 -0.233173 -0.04531 -0.159162 0.140431 -0.024038 0.028262 0.044814 0.041638 -0.131381 -5.64E-4 -0.059446 -0.125302 0.208952 0.076926 -0.041037 0.043148 0.008305 0.134301 -0.15371 0.02572 0.202701 0.056671 -0.03668 0.119336 -0.097455 0.099387 -0.080024 0.141868 0.060308 -0.05303 0.029853 -0.124133 0.126191 0.149413 -0.100185 -0.185082 -0.08162 -0.052252 -0.0386
0.0 0.0 0.0 0.0 0.0 0.0 0.0 0.0 0.0 0.0 0.0 0.0 0.0 0.0 0.0 0.0 0.0 0.0 0.0 0.0 0.0 0.0 0.0 0.0 0.0 0.0 0.0 0.0 0.0 0.0 0.0 0.0 0.0 0.0 0.0 0.0 0.0 0.0 0.0 0.0 0.0 0.0 0.0 0.0 0.0 0.0 0.0 0.0 0.0 0.0 0.0 0.0 0.0 0.0 0.0 0.0 0.0 0.0 0.0 0.0 0.0 0.0 0.0 0.0 0.0 0.0 0.0 0.0 0.0 0.0 0.0 0.0 0.0 0.0 0.0 0.0 0.0 0.0 0.0 0.0 0.0 0.0 0.0 0.0 0.0 0.0 0.0 0.0 0.0 0.0 0.0 0.0 0.0 0.0 0.0 0.0 0.0 0.0 0.0 0.0
-0.045549 -0.019643 0.046605 0.01937 -0.048165 0.002386 0.133692 -0.105972 -0.036092 0.01926 -0.041897 0.101992 -0.024171 -0.015948 -0.078548 0.018259 -0.021959 -6.9E-5 0.068206 0.037825 0.056655 -0.263488 0.019989 0.022684 -0.095743 0.148716 0.020395 0.005975 0.24558 -0.064396 -0.038624 0.103727 -0.009889 0.096239 -0.304886 0.02822 0.080687 0.038994 0.079709 -0.050449 0.091042 0.026191 0.163824 -0.046615 -0.100267 0.010837 -0.087407 0.084683 -0.041542 -0.01353 0.034989 -0.127666 0.142675 -0.144064 -0.010746 0.042543 -0.055325 -0.066353 -0.06669 -0.203929 0.043696 -0.15489 0.225267 -0.112238 -0.083936 0.01865 0.080721 -0.045273 0.053165 0.012791 -0.251947 -0.087307 -0.030465 0.051097 -0.029058 -0.055214 -0.077598 -0.017701 0.140202 -0.094673 -0.079917 0.236495 -0.033887 0.011453 -0.003383 0.141896 -0.034788 -0.14658 0.023186 0.099968 -0.072668 -0.031315 -0.073928 0.05957 0.035095 -0.094544 -4.16E-4 0.006228 0.001092 -0.050299
-0.05763 -0.256262 -0.085346 -0.008351 -0.179725 0.025394 -0.06205 0.029651 -0.088682 0.11047 -0.112526 -0.052776 0.152888 0.069069 0.04804 0.10505 0.279457 -0.003252 0.130128 0.008577 -0.018834 0.041622 0.092357 0.169429 -0.157673 -0.08295 0.126776 -0.059477 0.132295 -0.142263 -0.239144 0.006963 -0.153219 -0.134168 -0.095838 -0.026248 -0.133145 0.032495 -0.089139 -0.078787 0.063091 0.070244 0.069636 0.145461 -0.108259 0.104333 0.022244 0.006002 -0.04785 0.01119 0.049577 0.03563 -0.14872 -0.121162 0.172205 0.066591 0.166575 -0.044861 0.100721 -0.067303 0.196315 -0.118749 0.054638 -0.167853 -0.137644 -0.097875 0.090175 0.054897 0.077635 -0.094956 0.001595 0.065569 4.74E-4 0.11657 0.071736 -0.117284 0.0129 0.069674 -0.006986 -0.156887 0.104732 0.080445 0.162411 -0.19303 -0.173243 0.138032 0.054852 0.073375 0.13385 0.314503 -0.12755 -0.020982 -0.020388 0.096559 -0.066948 -0.077558 0.180639 -0.177181 0.114853 -0.09813
-0.008146 -0.005648 0.059531 0.125535 0.011328 0.024558 -0.165969 -0.019482 -0.076996 -0.167427 -0.035646 0.020818 -0.028113 -0.036329 -0.071534 -0.002174 -0.032754 -0.131044 -0.062638 -0.094554 -0.034763 -0.156622 -0.035706 -0.093561 0.027306 0.116182 0.031816 -0.094699 0.01367 -0.093147 -0.221748 0.003871 0.035001 -0.032771 0.015245 0.075022 -0.03079 0.059095 -0.140093 -0.093351 0.063765 0.064153 -0.036182 -0.007205 0.056318 -0.054911 -0.068876 -0.020263 -0.114443 -0.0113 -0.166841 0.023401 0.163193 0.030154 -0.040468 -0.037734 -0.144155 -0.07559 -0.067957 -0.135068 0.029689 -0.149559 -0.055197 -0.039455 0.185154 0.073544 -0.115102 0.115653 0.111712 -0.10039 -0.071982 0.010746 0.15125 0.026204 0.016248 0.085703 0.168286 -0.023663 0.005723 -0.237316 0.070247 0.079136 0.040366 -0.02896 -0.063939 -0.016178 0.023626 -0.078918 0.141125 0.036686 -0.156999 0.121274 0.089779 0.202551 0.070942 -0.023656 -0.075331 -0.043597 0.048624 -0.137596
-1.920858 -1.029855 -1.196429 2.472147 -0.721743 0.969764 1.181661 -0.65318 -1.474204 1.572126 0.607329 2.081412 -1.766369 0.718536 1.328234 -1.262383 -0.633755 -2.2783 -1.227427 -1.831495 1.859687 0.27192 0.310596 -1.692697 1.771294 1.062075 -0.524063 1.292462 -0.339886 2.214182 -1.788218 -2.107215 -1.808177 1.031397 -0.817577 2.029605 1.518195 -1.700804 2.899134 -1.634208 -2.35481 -1.940467 1.141127 3.180338 -0.952805 1.016967 -0.940129 2.918208 -0.969575 1.081825 1.921044 -0.020875 -1.465503 1.849067 -1.53976 -0.557325 1.496237 1.677648 -1.150459 -0.383216 1.604429 1.834798 -1.946696 1.243134 -1.528896 0.342759 1.663135 -3.962061 0.375354 -0.70859 -0.943778 0.343716 1.206869 -0.543477 -2.761507 0.940921 -4.290251 0.892742 -0.961931 2.074037 3.557427 0.632395 2.140166 0.729546 0.167657 -0.128757 0.970966 -1.164794 1.33233 0.484314 2.628436 0.6062 -1.073158 1.172771 -0.816978 -0.019154 1.766588 -0.280775 -0.163566 -1.589129
-0.087255 -0.05591 0.054305 -0.024922 0.12279 0.041971 0.011628 -0.098172 0.13061 0.088978 0.139548 0.154385 0.10967 -0.074364 0.077608 0.342633 -0.019875 0.008986 0.121981 0.055307 -0.003396 0.250389 -0.003606 -0.027202 -0.077535 -1.16E-4 -0.00206 0.156913 0.196292 -0.041947 -0.256602 -0.075561 -0.331833 -0.028169 -0.227118 -0.023069 -0.031505 -0.123196 0.067817 0.109003 -0.150311 -0.176863 -0.003222 0.297853 0.06886 0.054723 0.197442 -0.009663 0.124548 -0.115984 -0.107457 -0.134223 -0.057877 0.014351 -0.020055 -0.038021 0.086742 0.251573 0.36257 0.003758 0.053095 -0.086013 -0.02227 -0.136233 -0.017961 0.053643 0.053971 -0.264445 0.141244 -0.001727 0.102822 -0.045402 0.072919 -0.05572 -0.011331 -0.015733 -0.123198 -0.088768 0.042072 -0.014455 -0.084923 -0.030051 0.101633 -0.145179 0.084003 0.006179 0.137993 -0.044962 0.159725 0.029218 -0.030525 -0.103093 -0.1477 -0.002794 0.039423 -0.078334 0.05768 0.210979 -0.090714 -0.257268
0.004577 -0.077139 0.186696 0.192622 -0.122348 0.03174 -0.059208 -0.298223 -0.097779 0.049746 0.056097 0.240002 0.071719 0.068956 -0.03834 0.26472 -0.088507 0.336059 0.024975 0.081693 -0.025406 0.2262 0.20086 0.182967 -0.13429 -0.16792 0.0705 -0.047265 0.121626 -0.07506 -0.205217 -0.175597 -0.136736 0.135177 -0.017349 -0.206152 0.013709 0.103611 -0.102685 0.017773 -0.08926 0.153647 0.011442 -0.040664 -0.047171 -0.118774 -0.005246 0.044751 -0.058672 0.046157 0.080276 -0.048172 -0.03771 0.11095 0.029518 -0.070148 -0.033146 -0.008512 0.039747 -0.12649 0.006828 -0.086185 -0.00663 0.04893 -0.134276 -0.039226 0.118615 -0.071338 0.039573 0.041567 0.005918 0.051412 0.031927 -0.147693 0.180613 -0.124274 -0.281498 -0.032309 -0.057821 0.051871 0.100375 0.153059 0.088905 -0.204906 -0.017154 -0.053508 0.201842 0.070378 0.354441 -0.029274 -0.23367 0.03927 -0.015055 0.260397 -0.070372 -0.104677 0.127208 -0.056051 -0.229486 0.026219
0.040639 0.081814 0.04287 0.062167 0.092794 0.114908 -5.3E-4 -0.061893 -0.128806 0.029658 -0.102642 0.050736 0.021353 0.278962 0.156361 -0.045776 -0.059025 0.007615 0.069272 0.03742 0.044666 -0.205296 -0.009373 0.060588 0.130976 -0.007905 -0.098053 0.083234 0.088487 0.073668 -0.063313 0.05638 -0.149995 0.040243 0.139103 0.120814 0.186168 0.077513 0.035539 -0.137722 0.149343 -0.011946 0.157701 0.051791 -0.073664 0.096946 -0.283681 0.058369 -0.065895 0.126711 -0.040991 -0.045914 -0.057224 -0.17697 0.066608 0.102407 -0.15335 -0.00258 -0.222251 -0.069709 -9.96E-4 0.033302 -0.223593 -0.01348 0.109527 0.085455 -0.086426 0.046289 0.047765 0.150103 -0.094972 -0.019492 -0.08396 0.061637 0.042416 0.083935 -0.175169 -0.031524 -0.150901 -0.072843 -0.056665 0.199748 0.160562 -0.070466 0.072887 0.025233 0.011767 0.031496 0.08045 -0.027642 0.037393 0.123465 -0.042501 0.013419 0.046506 -0.08898 -0.024989 -0.132646 0.135167 0.194549
0.352905 0.550922 -1.128945 -0.511125 0.774489 1.405335 -0.371647 0.106012 -0.779785 -0.640302 -0.68578 1.570717 -0.712288 -0.706705 -0.789609 -0.045278 -1.599722 -2.840112 -0.089543 -1.158838 -1.862605 -0.62748 -0.063542 -0.468696 0.750564 0.033551 -0.772222 -0.188991 -0.163115 0.455978 0.038455 -0.779588 0.172303 -1.114448 -0.548246 -0.008155 1.66721 -0.744821 -0.15746 -2.668482 -0.304702 -0.905716 0.479063 0.151803 -0.94063 -0.044338 -0.906122 -0.456182 0.281891 0.268287 0.47007 0.628019 0.328428 1.471286 -2.345457 0.072073 -0.345477 -0.998199 -1.496897 -0.053061 0.351206 -0.934426 0.295591 0.07336 0.24092 0.486976 0.390085 -0.621556 0.375246 -0.02625 1.957847 1.014101 0.004675 0.08874 -0.900479 -0.462149 0.922254 1.355385 -1.048724 0.105897 1.254466 0.410718 0.321258 1.066395 -0.171761 -0.128774 0.315556 0.697301 -0.180925 0.555334 1.005586 -0.891677 -1.232923 -1.994189 -0.567812 0.204184 -0.947385 -0.051526 -0.987029 0.725141
0.121106 0.037326 0.144955 -0.039849 0.190907 -0.021294 -0.360487 0.068882 -0.049872 -0.097734 0.054547 0.147867 -0.14575 -0.007534 0.189939 0.040512 0.317968 0.228082 0.169117 0.083325 -0.224406 0.152066 0.19184 0.109042 -0.242936 -0.003641 0.03706 0.100761 0.352146 -0.064859 -0.109399 0.098228 0.16432 0.201149 0.070292 0.023841 -0.145174 0.115852 -0.002996 0.094706 -0.163311 -0.123271 -0.003908 0.020343 0.114002 0.084042 -0.005667 -0.120332 -0.088199 0.107917 0.189729 -0.227354 -0.042999 -0.151314 0.06721 -0.011073 0.050072 -0.004187 -0.026858 -0.084777 0.104916 0.036557 0.047224 -0.048079 0.04026 -0.020718 -0.010893 0.103286 -0.072125 -0.021873 -0.122629 -0.089216 -0.067342 -0.031364 0.144873 0.031106 -0.136449 -0.035758 -0.06933 -0.088391 0.021194 -0.095695 -0.021862 -0.285012 -0.173646 -0.076499 0.078427 0.078887 -0.089043 0.018054 0.058939 -0.056356 -0.08073 -0.017711 0.105982 -0.155119 0.052478 -0.212011 -0.034517 0.046851
-0.301003 -0.104514 -0.061956 0.146717 -0.040725 -0.1588 0.029211 -0.064189 -0.18958 0.161304 -0.057593 0.219603 -0.120038 0.033487 -0.035875 0.222413 -0.127467 -0.079677 0.073621 -0.163412 -0.138081 -0.086122 0.163846 0.143247 0.015795 -0.191218 -0.047366 -0.17648 -0.091304 -0.162709 0.095472 -0.045481 -0.072739 0.064539 -0.098008 0.019513 -0.004289 0.102843 -0.02594 -0.079586 0.111636 0.030328 2.93E-4 -0.055575 -0.08076 0.044681 -0.05919 0.054732 0.055942 0.281925 -0.011567 -0.103552 0.049186 -0.058535 -0.065991 0.068196 -0.03194 0.083512 -0.108334 -0.299013 0.082526 -0.062222 -0.078709 -0.036158 -0.11367 0.122562 0.063293 0.021402 0.100572 0.025905 0.030018 0.044003 0.253677 -0.085289 -0.119433 -0.186868 -0.087402 0.031722 0.035378 0.00725 -0.015944 0.110563 0.061118 0.132946 0.089788 0.056923 -0.052286 0.163094 -0.001857 0.115403 0.033433 -0.114648 -0.049209 0.130114 -0.011276 -0.100948 0.116037 -0.139046 -0.030976 0.0108
0.174579 -0.136728 -0.051226 0.020722 -0.006999 0.182304 -0.026571 0.028348 -0.056181 -0.008225 -0.006719 0.123411 -0.116958 0.067063 -0.070431 0.036747 0.038718 0.027768 0.023312 -0.088689 0.061433 -0.020277 0.259541 -0.094786 -0.095916 0.094827 0.024537 -0.02138 0.088986 -0.222601 0.103167 -0.001705 -0.126386 0.084151 -0.211735 -0.029013 0.140156 -0.020962 0.053455 -0.191046 -0.124863 -0.041487 0.136145 0.105226 -0.015967 -0.183445 -0.047984 0.115111 -0.019542 0.13034 -0.027747 -0.056535 -0.108365 -0.105363 0.081886 -0.149182 -0.11381 -0.099116 -0.181035 -0.164047 0.046733 -0.125779 0.073804 -0.112401 0.07152 0.061743 0.019104 -0.098201 0.014577 0.063876 -0.025147 0.141799 0.106453 -0.019125 -0.084889 0.059635 -0.102028 0.054798 -0.039091 -0.147142 0.035738 0.191847 0.115855 -0.22498 -0.237968 0.006138 0.263927 0.028048 -0.051407 0.156325 -0.066949 -0.023049 0.193957 -0.012836 0.006804 -0.136759 -0.093368 0.121825 -0.030451 -0.039809
-0.076406 -0.100127 -0.232416 0.012887 0.157594 0.201507 -0.099088 -0.011303 -0.172642 0.015781 -0.014224 0.165784 0.011877 0.102927 0.124402 0.066357 -0.239772 0.012236 -0.025346 -0.039371 -0.049395 -0.161012 0.335282 0.127875 -0.051589 0.058899 -0.253514 0.069323 0.077275 0.063175 0.050303 0.018142 -0.040227 -0.089453 -0.036559 -0.123233 0.091025 -0.071215 0.103347 0.087254 0.072904 0.010095 0.165126 -0.147588 0.116606 -0.140354 -0.119898 0.018904 -0.092041 0.052399 0.022989 -0.013223 -0.047911 0.071431 -0.053143 -0.073292 -0.028873 -0.090654 0.024071 -0.027822 -0.074055 -0.073185 0.179461 0.008051 -0.060813 0.063534 0.101656 -0.058214 0.283243 -0.038787 0.014833 -0.065387 -0.154949 -0.044322 -0.065916 0.13015 -0.096562 -0.04366 -0.029025 -0.129169 -0.089413 0.153287 -0.132962 -0.003191 0.121974 -0.027895 0.160527 0.050522 0.032091 -0.208633 -0.11831 0.053393 0.067996 0.070655 -0.038391 -0.211943 -0.143158 -0.114363 -0.0679 0.071015
-0.157571 -0.19338 0.025561 0.22317 -0.014151 0.120376 -3.18E-4 -0.086124 0.153466 0.138266 -0.048221 0.078126 0.06248 -0.127265 0.113665 0.230232 -0.259635 -0.062818 0.098991 0.006387 -0.170207 -0.012517 0.145659 -0.075768 -0.087076 -0.027262 0.003889 -0.131552 0.2985 -0.011822 -0.060056 -0.019251 -0.16565 0.003984 -0.066853 -0.115492 0.003366 -0.109062 0.135118 0.224786 -0.055564 0.206663 0.03263 0.078138 -8.04E-4 -0.229893 -0.128297 -0.034014 0.032554 0.095322 0.014305 0.011352 -0.037325 0.056287 -0.015761 -0.006153 -0.025986 0.049752 0.102688 -0.011329 0.097021 -0.197999 -0.014293 0.003749 0.01121 0.038063 0.221303 0.043763 0.200558 0.130972 -0.179769 -0.037508 0.083913 -0.097108 -0.098485 0.1551 -0.177251 -0.165075 0.124008 -0.062886 0.089818 -0.01342 0.124852 0.025826 -0.052244 0.048681 0.083837 0.046515 -0.053818 -0.01535 -0.129656 -0.0108 0.078186 -0.034215 0.014216 -0.084745 -0.092287 -0.128671 -0.157267 2.98E-4
0.100692 -0.157131 0.139302 0.123578 0.151543 0.178422 -0.012679 -0.103362 0.233611 0.029945 -0.033496 -0.02353 -0.150988 -0.078962 0.230475 0.006161 -0.201667 0.084881 -0.295978 -0.216595 -0.152078 -0.096403 -0.182565 -0.034674 -0.008271 0.123985 -0.225344 0.060741 0.064737 -0.027452 -0.020276 -0.040379 -0.062847 -0.021902 -0.155636 0.098869 0.118253 -0.054786 -0.035252 0.089718 -0.093516 0.108242 -0.165133 -0.010665 -0.002421 -0.171869 -0.111112 -0.041381 -0.044332 -0.069941 -0.02046 0.052983 -0.30701 0.053758 -0.133805 0.122561 8.2E-4 0.037855 -0.034898 0.091687 -0.127096 0.09488 -0.140734 -0.009746 -0.040595 0.12427 0.130515 0.010606 0.177229 0.063676 0.149195 0.026542 -0.108012 0.401386 -0.015993 -0.159563 0.171247 0.017552 -0.091249 -0.185777 0.041517 -0.021989 -0.300138 0.0411 -0.232056 0.111526 -0.051533 0.011578 0.198834 -0.128702 0.184857 -0.029913 -0.123641 -0.092647 0.286203 -0.109599 0.093666 0.015337 -0.091583 0.060957
-0.001889 -0.015376 0.011577 -0.079922 0.019615 0.005975 0.018085 -0.133459 0.07886 -0.019014 -0.010821 0.041669 -0.011128 0.097962 -0.060935 0.042309 0.015014 8.49E-4 -0.002449 0.038756 0.0685 -0.030124 0.021652 -0.079703 0.075875 -0.122727 0.144977 0.073106 0.120718 -0.115022 0.047765 0.225363 -0.061747 -0.035103 0.080005 0.064342 -0.011293 0.032618 0.076202 0.118833 0.299047 0.176216 0.148892 -0.105455 -0.022399 0.118571 -0.05437 -0.136016 -0.04767 0.112361 0.012505 0.001737 0.056998 -0.132972 0.205737 0.014869 0.130993 0.242588 0.100312 0.073252 -0.019374 -0.073147 -0.042245 -0.05193 0.119558 0.067972 -0.198268 0.013905 0.103121 -0.09962 -0.010563 -0.219254 -0.117595 0.0375 -0.028297 0.03039 -0.116152 0.021365 0.041774 -0.247365 -0.187561 -0.063496 -0.088808 -0.029223 0.057963 0.069802 -0.07258 -0.052825 0.064478 0.040761 0.149345 0.085248 0.239559 0.137326 -0.140966 0.005439 0.083517 -0.02486 -0.028184 0.111642
-0.718438 -0.830038 -0.584242 2.1215 -0.644012 1.416116 -0.587713 -0.321771 0.15449 -1.337212 0.646351 2.943981 -2.520119 -0.053393 1.892255 -0.247068 0.153723 -1.774544 -1.713547 1.03615 -2.316809 -1.758234 0.596352 -1.216816 0.651834 0.378166 -0.461749 -1.113127 -1.262089 1.808952 2.079526 -0.645053 -1.036425 -0.051591 0.752853 1.877822 1.149022 -1.563167 0.088195 1.179668 0.264795 -0.643595 -1.254162 2.294433 -0.67558 -0.480528 -1.903531 -1.404449 3.451226 0.215378 -0.348073 3.059608 -0.201534 3.176656 -2.660815 -0.397857 0.658943 0.204092 -2.861443 -2.700162 -0.267356 1.597524 -0.058446 0.400235 0.112722 2.04443 -0.418444 -0.708333 -0.409393 0.970238 4.077705 1.113589 0.123738 0.071757 1.385313 -2.550826 0.377188 -1.266978 -0.033552 1.268038 1.334944 -1.192168 -2.617046 1.325431 1.537295 0.868143 0.029881 0.136091 0.48518 -1.968409 0.753802 -0.972635 0.324233 1.386425 1.801178 1.298403 -2.240443 1.965765 -0.567086 2.183566
0.23274 1.900121 2.019241 -0.15158 0.04456 -0.037907 -2.576377 -2.641418 -1.305579 -2.074095 4.192745 -1.280469 1.779734 -3.242979 -4.824458 0.149464 -1.034663 -1.37238 -0.671201 1.316465 -1.189588 -1.561782 1.271749 -1.400576 -3.929301 -0.773021 -0.322133 1.008422 -2.049223 -1.118003 0.770637 2.376068 1.78454 -0.037599 -0.125738 1.659049 2.833397 0.722892 -2.621174 -2.959247 -0.404765 0.163863 1.273888 1.662048 -0.51462 1.956977 0.306333 0.226348 0.09062 0.370456 1.80706 3.032334 2.389497 3.675364 -4.421136 -0.107854 2.957658 3.605645 -2.533922 0.972829 2.155468 -0.62435 -0.581378 3.354724 2.244798 -0.448922 1.382503 -1.213052 0.716902 0.347434 0.993965 -0.451589 -0.256563 -1.27327 0.427105 -1.188699 3.895242 -2.118459 -1.721592 2.294604 2.321485 -0.906631 1.308716 -0.413839 1.882678 -0.119835 -0.750786 -3.683892 -1.630381 -2.197754 -0.498195 0.958505 -1.760536 -0.336326 0.733239 -2.77517 0.469665 1.858631 -0.347276 2.603021
0.007246 0.053204 0.100928 0.006342 -0.101763 -0.085197 -0.083461 -0.123321 -0.100071 -0.042788 -0.155182 0.073053 -0.120455 0.059108 0.2188 0.103057 0.06081 0.00949 -0.182921 0.034294 -0.122566 -0.124692 0.14027 0.020579 -0.119203 -0.013958 -0.156626 0.105013 0.218325 -0.087863 -0.012293 -0.149912 -0.102018 0.191563 0.052477 0.053501 0.163665 0.035356 0.069416 0.115013 -0.105517 0.133498 0.044305 0.046916 -0.031637 0.092181 -0.128598 0.004537 -0.117556 -0.017436 0.142292 -0.170739 -0.094203 -0.159656 0.003728 0.017704 -0.079291 -0.10274 0.020011 -0.019057 -0.097359 -0.03764 -0.0914 -0.086059 0.119906 0.067012 0.096686 0.157964 0.068966 -0.023785 0.046974 -0.008436 -0.065665 0.102192 0.01846 0.034072 0.013473 -0.054716 0.045957 -0.220794 -0.231742 0.033982 0.162247 0.016021 0.050697 0.09313 2.07E-4 -0.205807 -0.080609 0.012886 -0.152411 -0.018133 -0.019331 0.073492 -0.026605 -0.060685 -0.069619 0.142252 -0.100558 -0.024004
-0.03938 -0.092133 -0.148201 -0.007473 -0.180682 -0.062733 -0.091007 0.087804 -0.042236 -0.003325 0.041085 -0.346624 -0.114168 -0.035737 -0.078257 0.054601 -0.340081 -0.12926 -0.058027 -0.046885 0.011825 -0.313993 0.13939 0.056383 -0.105426 -0.024133 -0.185669 0.224604 0.056546 0.063303 0.00909 0.122403 0.029722 -0.091266 -0.161706 -5.4E-4 -0.159072 0.038361 0.19551 0.208815 -0.06512 0.214017 -0.055876 -0.187009 0.156348 0.053394 -0.203741 0.012801 -0.439535 -0.131301 -0.087002 0.046217 0.104227 0.001103 -0.313222 0.047603 -0.093919 -0.313836 -0.133604 0.010859 0.031972 -0.149282 0.189873 0.060769 0.099114 0.028154 0.145603 0.113729 0.054675 -0.116865 -0.074554 0.190662 -0.112425 0.068114 -0.028192 0.030682 0.026155 0.056148 0.245835 -0.178294 0.206199 0.016502 0.101637 -0.135283 -0.210732 0.14843 -0.104501 -0.16484 -0.108278 0.169099 -0.060861 0.051703 0.041601 0.026209 0.335712 0.260206 -0.063972 -0.004116 0.038979 -0.012837
-0.115205 -0.078155 0.016245 0.012262 -0.079307 0.081257 -0.052815 0.025055 -0.170208 0.163753 0.222262 0.159023 0.130302 0.007026 0.007487 0.31796 0.028459 0.229855 0.246464 0.133208 -0.118434 0.093786 0.126633 0.072498 -0.162019 -0.144473 -0.152707 -0.079567 -0.045453 -0.161713 -0.126146 -0.070186 -0.031584 0.09424 -0.295891 -0.111416 0.035962 0.049642 0.139699 0.012132 -0.003854 0.289001 -0.202162 -0.073327 0.033756 -0.107413 -0.049034 0.016781 -0.012825 -0.156917 -0.01118 -0.048962 -0.079867 0.121065 0.241287 -0.100523 0.082939 0.200807 0.158812 -0.236289 0.094818 -0.289416 0.154377 -0.142438 0.035039 -0.075615 0.227935 -0.028332 0.108327 -0.131204 0.105113 0.173565 -0.023132 -0.038364 -0.104081 -0.055718 -0.031904 -0.055628 -0.002906 -0.021129 0.018919 0.188134 0.187238 -0.084184 0.041874 0.127548 -0.051559 -0.080867 0.062597 0.01293 -0.085285 -0.083742 -0.105119 -0.120558 -0.24351 0.020658 0.051726 -0.034286 -0.122295 -0.04577
-0.11531 -0.177595 0.117378 0.006831 0.092885 0.029759 -0.134739 -0.013191 -0.044631 0.085455 0.112504 0.197423 0.064487 -0.072308 0.117011 0.194608 0.079931 0.153062 0.075817 0.031942 -0.131295 0.218861 0.13691 0.168347 -0.109418 0.090601 -0.136327 -0.011823 0.215906 -0.040076 -0.048643 -0.029213 -0.011134 0.114646 -0.168973 -0.055097 -0.115224 0.003836 -7.52E-4 0.060515 -0.089169 0.172075 -0.049839 -0.041035 0.010337 -0.098784 0.078408 0.051296 -0.135592 -0.046019 0.110214 -0.061044 -0.065596 0.017504 0.141635 -3.97E-4 -0.058689 -0.010369 0.004268 -0.087456 -0.053515 -0.184699 -0.05593 -0.150517 -0.10678 0.001293 0.018306 0.006332 0.055535 -0.151101 -0.095942 -0.010836 -0.027342 -0.087542 -0.032653 0.006208 -0.170883 -0.052591 -0.019298 -0.016118 -0.014074 0.042223 0.01975 -0.142947 0.173353 -0.018901 0.029734 0.115437 0.220021 0.094308 -0.01075 -0.035899 0.019649 0.127977 0.071583 -0.026086 0.004658 0.017037 0.00405 -0.170308
0.057523 -0.146273 -0.082823 -0.09918 0.015327 0.042217 -0.013468 0.0895 -0.041553 -0.016741 -0.035489 -0.018061 -0.002516 -0.026477 -0.033929 0.100076 0.049974 0.117947 0.068334 0.047265 0.067167 0.061779 0.021897 0.015924 -0.131705 -0.106132 9.25E-4 -0.044463 -0.006635 -0.026838 0.076244 0.042189 -0.094521 0.135843 -0.042419 -0.121981 -0.152637 0.004166 -0.062113 0.105261 -0.066196 0.155626 -0.076766 0.031308 0.019652 -0.013825 0.086752 -0.062433 -0.051152 0.126925 0.016214 -0.014179 0.129572 0.059681 0.00757 -0.021781 0.165157 0.030237 0.069272 -0.036654 -0.005051 -0.079537 0.074806 -0.044038 -0.063131 -0.011465 0.060149 -0.105289 -0.014196 -0.081127 0.014528 -0.071871 -0.028218 -0.05025 0.087844 -0.049118 -0.125601 -0.025127 0.032195 0.060939 -0.162031 -0.10677 -0.08324 0.040316 0.049726 0.02693 0.016266 -0.086205 0.036221 0.022946 0.024151 -0.050079 -0.005084 -0.060382 0.051739 -0.078961 0.152961 0.031337 0.014533 -0.007654
-0.013606 0.097671 0.004135 -0.013869 -0.099647 -0.142236 -0.088547 -0.031044 -0.123313 0.013383 0.105649 0.077941 0.108005 -0.067977 -0.010265 0.132207 -0.127394 0.008231 0.068706 0.029086 -0.08264 -0.029212 0.044216 0.070549 -0.008025 -0.032976 -0.078316 -0.033692 -0.049891 0.031595 0.021893 0.062979 -0.015139 0.04467 -0.016708 0.027606 -0.059093 0.187515 0.041123 0.063426 0.05821 0.178731 -0.014998 0.037008 -0.051151 -0.05201 -0.042429 -0.054051 -0.165949 -0.073215 0.124023 -0.112164 -0.047747 0.037001 0.162692 0.020775 -0.047981 -0.01414 0.153638 -0.005343 0.064812 -0.09751 0.065874 -0.182416 -0.040957 0.07703 0.001787 -0.076345 -8.41E-4 -0.061288 0.138229 0.04879 -0.076144 -0.001423 0.113546 -0.111654 -0.014928 -0.011656 -0.063783 -0.177129 -0.150503 0.039299 0.079646 0.066155 0.006531 0.014543 0.101387 0.057832 0.016927 -0.046217 -0.02775 -0.060849 0.030673 0.037411 -0.007258 -0.137781 0.121195 0.02644 0.118751 -0.220242
-0.008146 -0.005648 0.059531 0.125535 0.011328 0.024558 -0.165969 -0.019482 -0.076996 -0.167427 -0.035646 0.020818 -0.028113 -0.036329 -0.071534 -0.002174 -0.032754 -0.131044 -0.062638 -0.094554 -0.034763 -0.156622 -0.035706 -0.093561 0.027306 0.116182 0.031816 -0.094699 0.01367 -0.093147 -0.221748 0.003871 0.035001 -0.032771 0.015245 0.075022 -0.03079 0.059095 -0.140093 -0.093351 0.063765 0.064153 -0.036182 -0.007205 0.056318 -0.054911 -0.068876 -0.020263 -0.114443 -0.0113 -0.166841 0.023401 0.163193 0.030154 -0.040468 -0.037734 -0.144155 -0.07559 -0.067957 -0.135068 0.029689 -0.149559 -0.055197 -0.039455 0.185154 0.073544 -0.115102 0.115653 0.111712 -0.10039 -0.071982 0.010746 0.15125 0.026204 0.016248 0.085703 0.168286 -0.023663 0.005723 -0.237316 0.070247 0.079136 0.040366 -0.02896 -0.063939 -0.016178 0.023626 -0.078918 0.141125 0.036686 -0.156999 0.121274 0.089779 0.202551 0.070942 -0.023656 -0.075331 -0.043597 0.048624 -0.137596
-0.062822 -0.182369 0.082641 0.162845 -0.096505 -0.084175 -0.129585 -0.12424 0.00916 0.168117 -0.056521 0.123567 0.087996 -0.102365 -0.02745 0.260535 -0.116879 0.277895 0.136886 0.16916 0.081406 0.160084 0.24418 0.127955 -0.042761 0.064444 0.043796 -0.171584 0.12383 -0.148336 0.097178 0.112407 0.118843 0.161867 -0.092909 -0.050467 0.023472 -0.105062 0.073518 0.148555 -0.066083 0.1088 -0.008586 -0.044617 0.027629 0.00121 -0.054879 0.018014 -0.151281 -0.027363 0.088924 -0.214347 -0.022804 -0.023876 0.166438 -0.042663 0.016758 0.124242 0.040177 0.04735 0.131953 -0.321614 -0.026136 0.030991 -0.033203 -0.126311 -0.00936 0.125292 -0.007467 -0.212686 -0.179082 -0.031248 -0.064137 -0.060692 -0.032953 -0.011307 -0.043119 -0.070095 0.003372 0.036936 -0.096329 0.073286 0.055761 -0.254614 -0.013503 -0.056447 0.087791 -0.043393 0.166651 -0.010248 0.032101 -0.018258 0.040125 0.095912 -0.120051 -0.149094 0.060397 -0.209955 -0.023665 -0.075631
-0.235372 0.016153 0.023562 0.07564 -0.06335 -0.123155 -0.14753 0.131426 -0.169921 -0.032118 0.044154 0.128382 0.125511 -0.117897 0.032541 0.067405 -0.061457 0.158181 0.066911 0.029515 -0.018061 0.196328 0.12185 0.279104 -0.276224 -0.076656 -0.151901 -0.264348 -0.027483 -0.136483 -0.11591 0.026357 0.012792 0.112406 0.020163 -0.102984 -0.053788 0.05615 -0.029032 0.089515 -0.125877 0.18631 0.070511 0.13819 -0.03321 -0.082815 0.043882 0.109171 -0.07766 0.1415 0.026187 -0.1043 0.062608 -0.174375 0.235143 -0.11366 -0.126353 -0.153882 0.032238 -0.139691 0.163818 -0.085146 -0.089154 -0.057269 -0.119376 0.020488 0.083987 0.097244 0.040447 -0.141153 -0.065918 -0.09432 0.145953 0.148985 -0.004432 -0.111338 -0.018386 0.083817 -0.176425 -0.143443 0.09796 -0.00879 -0.12559 -0.044564 -0.019977 -0.05105 0.049176 -0.039502 0.214798 0.023721 -0.141766 -0.249328 0.010693 0.150473 -0.124604 -0.236359 -0.012202 -0.021511 -0.019897 -0.343552
0.0 0.0 0.0 0.0 0.0 0.0 0.0 0.0 0.0 0.0 0.0 0.0 0.0 0.0 0.0 0.0 0.0 0.0 0.0 0.0 0.0 0.0 0.0 0.0 0.0 0.0 0.0 0.0 0.0 0.0 0.0 0.0 0.0 0.0 0.0 0.0 0.0 0.0 0.0 0.0 0.0 0.0 0.0 0.0 0.0 0.0 0.0 0.0 0.0 0.0 0.0 0.0 0.0 0.0 0.0 0.0 0.0 0.0 0.0 0.0 0.0 0.0 0.0 0.0 0.0 0.0 0.0 0.0 0.0 0.0 0.0 0.0 0.0 0.0 0.0 0.0 0.0 0.0 0.0 0.0 0.0 0.0 0.0 0.0 0.0 0.0 0.0 0.0 0.0 0.0 0.0 0.0 0.0 0.0 0.0 0.0 0.0 0.0 0.0 0.0
0.12291 0.04822 0.111999 0.116167 0.100043 0.005 0.137645 -0.102778 -9.56E-4 -0.174799 -0.148113 -0.177929 0.052886 0.191638 -0.250995 -0.010471 0.065546 -0.161526 -0.244811 -0.141128 0.097354 -0.231484 -0.028991 -0.095431 -0.023356 0.357304 -0.016836 0.200275 0.003623 0.090362 0.116003 -0.099281 0.240456 0.112028 0.097924 0.00232 0.128085 -0.045645 0.015691 0.007563 0.057299 0.124264 0.055947 0.103514 -0.040598 0.082239 0.010633 -0.053491 0.090955 0.183067 -0.053558 0.010996 -0.059982 -0.396925 0.019239 0.029562 0.022676 -0.087578 0.233942 -0.147042 -0.125645 -0.258688 -0.205192 0.116936 -0.003661 0.299628 -0.128848 0.163932 -0.017963 0.31615 -0.041534 -0.065363 -0.116761 0.001912 0.064891 -0.032472 -0.06307 0.009845 0.029359 -0.086049 -0.054459 -0.026285 -0.056256 0.050141 0.165222 0.194396 0.034677 0.022056 0.120025 0.089172 0.118434 -0.273251 0.057523 -0.066744 0.08234 0.08366 -0.103654 0.011471 0.118866 0.07635
-0.137504 -0.009019 0.046103 -0.064055 0.132627 -0.001116 -0.09584 -0.051906 0.093025 -0.135107 -0.217691 0.07999 0.048396 0.072677 0.186611 0.036019 -0.093515 0.153086 -0.067544 0.08641 -0.044516 -0.09576 0.051856 0.057804 -0.204659 -0.162963 -0.274176 -0.046686 0.143279 0.180522 0.200881 -0.109184 -0.032222 -0.037988 0.335972 0.018241 0.156958 0.176033 -0.178165 0.101718 -0.019313 0.127688 -0.011059 -0.127202 0.056872 -0.040753 -0.052105 -0.141247 -0.034058 0.007037 0.03334 -0.085126 -0.063931 -0.067125 -0.113809 -0.05452 -0.122785 -0.156931 0.082488 -0.162451 0.28826 -0.1464 0.048421 -0.027683 -0.135861 -0.014618 -0.152145 0.285705 -0.045069 -0.082985 0.106886 -0.072818 0.021414 -0.167538 0.18788 -0.089232 0.047955 -0.002114 -0.025787 -0.161356 0.027418 0.137352 -0.037193 -0.083597 0.099092 -0.036357 0.014888 -0.134871 0.028857 -0.013482 -0.219918 -0.009843 -0.126472 0.308454 -0.098581 -0.111369 0.043389 0.143891 -0.064561 -0.015347
-0.008146 -0.005648 0.059531 0.125535 0.011328 0.024558 -0.165969 -0.019482 -0.076996 -0.167427 -0.035646 0.020818 -0.028113 -0.036329 -0.071534 -0.002174 -0.032754 -0.131044 -0.062638 -0.094554 -0.034763 -0.156622 -0.035706 -0.093561 0.027306 0.116182 0.031816 -0.094699 0.01367 -0.093147 -0.221748 0.003871 0.035001 -0.032771 0.015245 0.075022 -0.03079 0.059095 -0.140093 -0.093351 0.063765 0.064153 -0.036182 -0.007205 0.056318 -0.054911 -0.068876 -0.020263 -0.114443 -0.0113 -0.166841 0.023401 0.163193 0.030154 -0.040468 -0.037734 -0.144155 -0.07559 -0.067957 -0.135068 0.029689 -0.149559 -0.055197 -0.039455 0.185154 0.073544 -0.115102 0.115653 0.111712 -0.10039 -0.071982 0.010746 0.15125 0.026204 0.016248 0.085703 0.168286 -0.023663 0.005723 -0.237316 0.070247 0.079136 0.040366 -0.02896 -0.063939 -0.016178 0.023626 -0.078918 0.141125 0.036686 -0.156999 0.121274 0.089779 0.202551 0.070942 -0.023656 -0.075331 -0.043597 0.048624 -0.137596
0.0 0.0 0.0 0.0 0.0 0.0 0.0 0.0 0.0 0.0 0.0 0.0 0.0 0.0 0.0 0.0 0.0 0.0 0.0 0.0 0.0 0.0 0.0 0.0 0.0 0.0 0.0 0.0 0.0 0.0 0.0 0.0 0.0 0.0 0.0 0.0 0.0 0.0 0.0 0.0 0.0 0.0 0.0 0.0 0.0 0.0 0.0 0.0 0.0 0.0 0.0 0.0 0.0 0.0 0.0 0.0 0.0 0.0 0.0 0.0 0.0 0.0 0.0 0.0 0.0 0.0 0.0 0.0 0.0 0.0 0.0 0.0 0.0 0.0 0.0 0.0 0.0 0.0 0.0 0.0 0.0 0.0 0.0 0.0 0.0 0.0 0.0 0.0 0.0 0.0 0.0 0.0 0.0 0.0 0.0 0.0 0.0 0.0 0.0 0.0
0.018005 -0.099272 -0.009079 0.260198 -0.093815 0.179448 -0.033755 0.131432 0.008193 -0.132374 0.153949 -0.084633 -0.011786 0.086131 0.014563 0.161093 0.019717 0.155576 -0.028863 -0.110934 -0.180369 0.191681 0.097812 0.047194 0.028328 -0.069952 0.008232 0.083758 0.005459 0.001934 -0.069417 -0.271912 0.108792 -0.068584 0.023241 -0.168897 0.142615 0.00375 0.094733 0.301481 -0.108848 -0.1706 0.020512 0.132173 -0.106495 -0.026589 0.27785 0.134235 -0.114779 0.062737 0.243982 -0.149794 -0.0231 0.163478 -0.005809 -0.168778 0.216816 -0.0506 0.076619 0.0232 -0.081857 0.16754 0.042621 0.089239 0.046847 -0.245634 -0.015592 -0.099568 0.126946 0.005799 -0.010796 -0.209772 0.029723 0.023788 -0.058002 -0.01791 -0.128759 -0.20934 0.040366 -0.071132 -0.030901 -0.134294 0.157039 -0.188587 -0.067902 0.010784 -0.220543 -0.050209 0.06467 -0.090986 0.09046 0.129173 -0.059148 0.114583 0.011867 -0.229757 -0.072161 -0.171074 -0.080825 0.20995
0.0 0.0 0.0 0.0 0.0 0.0 0.0 0.0 0.0 0.0 0.0 0.0 0.0 0.0 0.0 0.0 0.0 0.0 0.0 0.0 0.0 0.0 0.0 0.0 0.0 0.0 0.0 0.0 0.0 0.0 0.0 0.0 0.0 0.0 0.0 0.0 0.0 0.0 0.0 0.0 0.0 0.0 0.0 0.0 0.0 0.0 0.0 0.0 0.0 0.0 0.0 0.0 0.0 0.0 0.0 0.0 0.0 0.0 0.0 0.0 0.0 0.0 0.0 0.0 0.0 0.0 0.0 0.0 0.0 0.0 0.0 0.0 0.0 0.0 0.0 0.0 0.0 0.0 0.0 0.0 0.0 0.0 0.0 0.0 0.0 0.0 0.0 0.0 0.0 0.0 0.0 0.0 0.0 0.0 0.0 0.0 0.0 0.0 0.0 0.0
-1.163584 2.788064 -0.265022 2.715334 -1.430881 1.3561 -1.469798 -1.802883 -0.306859 0.380015 -0.350476 2.511383 -0.072869 0.048909 1.854681 3.045587 -1.242957 -0.124414 -0.857334 -5.104525 -2.080495 -0.698662 -0.539654 0.084911 2.701092 -0.390268 -0.106953 2.87223 -0.965127 0.379973 3.081482 -0.257453 1.06227 1.243336 2.530607 -1.268802 -0.83475 1.807896 -0.883647 -0.759231 -0.845664 -3.273698 -1.128894 1.733061 -1.460704 -0.731717 0.647415 1.766774 -1.082837 0.39086 -0.630176 -0.622594 2.138654 0.828321 0.654567 0.743259 2.147877 3.840844 -2.819238 -0.955008 -2.978626 -1.12931 0.823356 -1.910744 1.792693 -0.774191 3.396943 -3.455747 2.843969 1.834693 -0.811823 1.409394 2.126751 1.337625 -0.357336 1.130007 -0.764787 0.564283 -0.286626 2.764354 1.657421 0.710472 3.638147 1.28787 1.677643 -0.747409 4.466346 -0.650329 -0.411659 -0.363267 2.714756 0.740023 -0.296626 -1.025723 -0.461947 -1.276023 -1.007379 -1.106085 0.773001 1.553295
-0.137448 -0.165271 0.130333 -8.0E-6 0.050107 -0.043931 -0.171677 0.007721 0.007373 0.067054 0.148393 0.137749 0.003854 -0.074689 0.190885 0.206584 -0.06847 0.211763 0.104202 0.069106 -0.183194 0.157317 0.223718 0.072586 -0.222323 -0.06536 -0.116532 -0.05973 0.221449 -0.106996 -0.055916 0.001211 -0.118776 0.119528 -0.113563 -0.05341 -0.032128 -0.025061 0.007817 0.10942 0.0215 0.238177 -0.039143 0.010739 0.196476 0.042437 -0.095493 -0.02479 -0.193776 0.062079 0.183557 -0.080987 -0.050593 -0.021337 0.072036 -0.113533 -0.049801 0.001729 0.061789 -0.022361 0.167741 -0.147962 -0.057488 -0.106108 -0.12927 -0.015228 0.102432 0.131209 0.156765 -0.188598 -0.14315 -0.07012 -0.019995 0.004737 -0.03048 -0.033991 -0.211077 0.029496 -0.078768 -0.175085 -0.070657 0.10409 0.13433 -0.24066 -0.005294 0.139621 0.011315 -0.042964 0.232204 0.126593 -0.162153 -0.016772 0.01595 0.220821 -0.003108 -0.082105 0.143102 -0.084966 -0.08918 -0.066876
-0.26639 -0.104912 0.180519 0.043667 0.041207 -0.008381 0.035828 -0.02579 0.038929 0.035407 -0.045987 0.093855 0.05433 0.066768 0.181295 0.016569 -0.262033 0.088718 -0.019571 0.052693 0.009422 0.007749 -0.062198 0.035078 -0.170783 -0.109887 -0.051371 0.088142 0.135591 -0.010743 0.025514 -0.009047 -0.121579 0.186548 0.022521 0.036774 0.17183 0.066132 0.09254 0.082441 -0.088491 -0.081832 0.017962 -0.036285 -0.059927 0.038842 -0.0052 0.081773 -0.050056 0.091032 0.203915 -0.091347 -0.101425 -0.177557 -0.044136 0.113395 0.140815 -0.005832 0.068476 -0.192456 0.057304 -0.102904 -0.094204 -0.199142 -0.166277 -0.01435 2.05E-4 0.073523 0.121399 0.031439 0.010424 -0.100921 0.049779 0.0731 0.03039 -0.023583 -0.137003 -0.08019 -0.121996 -0.288955 -0.041308 0.110603 0.155086 -0.11951 -0.218402 -0.075287 0.015009 -0.113641 0.196042 0.012681 -0.131442 0.013214 0.01092 0.144369 0.024212 -0.179417 -0.032645 -0.112605 0.114788 0.0294
-0.013606 0.097671 0.004135 -0.013869 -0.099647 -0.142236 -0.088547 -0.031044 -0.123313 0.013383 0.105649 0.077941 0.108005 -0.067977 -0.010265 0.132207 -0.127394 0.008231 0.068706 0.029086 -0.08264 -0.029212 0.044216 0.070549 -0.008025 -0.032976 -0.078316 -0.033692 -0.049891 0.031595 0.021893 0.062979 -0.015139 0.04467 -0.016708 0.027606 -0.059093 0.187515 0.041123 0.063426 0.05821 0.178731 -0.014998 0.037008 -0.051151 -0.05201 -0.042429 -0.054051 -0.165949 -0.073215 0.124023 -0.112164 -0.047747 0.037001 0.162692 0.020775 -0.047981 -0.01414 0.153638 -0.005343 0.064812 -0.09751 0.065874 -0.182416 -0.040957 0.07703 0.001787 -0.076345 -8.41E-4 -0.061288 0.138229 0.04879 -0.076144 -0.001423 0.113546 -0.111654 -0.014928 -0.011656 -0.063783 -0.177129 -0.150503 0.039299 0.079646 0.066155 0.006531 0.014543 0.101387 0.057832 0.016927 -0.046217 -0.02775 -0.060849 0.030673 0.037411 -0.007258 -0.137781 0.121195 0.02644 0.118751 -0.220242
-2.707397 -0.587657 -2.44265 3.980542 -1.528034 1.491671 -0.016078 -0.702434 -0.457919 -0.238357 0.353189 4.512305 2.971167 1.258155 0.819796 -0.027237 -1.159947 -0.655777 -0.454896 -1.532053 1.853156 -0.035362 -0.75242 0.051548 1.760416 -0.334123 -2.107787 0.109061 1.929294 -1.472737 1.853267 0.48749 3.139881 -4.166965 0.225937 1.201255 0.389929 2.988758 -3.90229 -1.640694 -1.057447 -1.214371 -0.717089 -1.1803 -2.026703 0.860588 -0.254709 1.043078 1.157603 -2.111912 -0.063596 2.920255 3.100878 3.212514 1.604161 -1.83682 -0.972577 -0.952682 -1.063511 1.11063 2.195677 -0.388365 0.188813 -0.467264 -2.448856 -0.601032 -0.748313 1.632648 -1.203605 0.142857 0.086676 -1.404364 1.646665 0.232823 1.394846 0.783159 -0.698031 -0.480921 0.426621 -0.160558 0.16985 2.15632 -1.275598 1.187359 0.119223 -2.198173 1.501977 0.675841 0.615167 1.995044 0.406248 -2.162622 1.617427 1.277048 1.403711 -2.804832 -0.030394 -1.737893 0.723477 0.55458
-0.140785 -0.14728 -0.027616 0.08445 -0.152002 0.023071 0.025384 -0.125483 -0.174535 0.123511 0.183223 0.057582 -0.114695 -0.126659 0.312273 0.107716 0.076027 -0.022061 -0.033984 -0.035121 -0.196234 0.084876 0.242653 0.041485 -0.033119 0.006834 0.068452 0.09493 -0.009738 -0.022149 0.04009 0.025885 -0.102782 0.076223 -0.119503 -0.163882 0.006091 -0.143649 0.042611 0.081483 -0.033372 0.179769 0.068813 -0.090208 0.071727 -0.153766 0.05288 0.091442 0.004049 0.058936 0.088653 -0.241223 0.034444 0.149167 -0.015737 -0.019929 0.114689 0.067139 -0.021938 -0.176811 0.159565 -0.13655 -0.091767 -0.318583 -0.315485 -0.007252 0.060879 0.042017 0.030844 -0.125873 0.016578 0.08261 -0.159142 0.013366 -0.060969 -0.012505 -0.13003 0.010829 -0.002904 -0.100702 -0.084819 0.117446 0.074885 -0.146817 0.13477 -0.058325 0.044237 -0.04391 0.144159 -0.039606 0.042236 -0.111675 -0.092263 0.084575 -0.225227 -0.206438 0.308123 -0.030676 -0.100911 0.028808
1.403926 -1.053428 0.782548 -1.921388 -1.241333 1.494826 -2.293502 1.761516 -1.994673 -0.479664 -0.717482 -0.363483 1.366189 -0.588131 0.229081 1.937958 0.385253 0.038266 3.958996 1.204297 0.922821 -0.559581 0.371119 2.098488 -0.28362 -2.134748 0.938921 -0.981282 -1.499207 0.608817 -0.789076 1.132289 2.795876 -0.516118 1.084224 -3.191114 -0.453672 -1.30602 0.793187 1.447384 1.712152 -1.911 -1.248219 0.847582 1.518174 -1.963007 -0.897111 0.827401 -0.252875 1.10899 0.113303 -0.730492 -0.504976 -0.760867 -0.120931 -1.326217 1.926167 3.382114 0.725822 0.624914 -0.627083 -0.158449 0.405514 -1.066388 -3.03661 -1.075772 0.035842 -1.05437 -0.195652 -2.049699 -0.163602 0.440633 -0.84929 0.050225 0.52135 0.065497 -1.970401 -1.958688 -0.05693 1.927543 0.735621 1.033092 -0.462559 -0.837642 -0.806912 -0.592375 -1.012148 -2.607709 1.061428 0.06499 -1.542072 0.866344 2.027199 0.029917 1.181218 0.661238 0.733302 -2.232304 -3.493124 -0.676127
0.0 0.0 0.0 0.0 0.0 0.0 0.0 0.0 0.0 0.0 0.0 0.0 0.0 0.0 0.0 0.0 0.0 0.0 0.0 0.0 0.0 0.0 0.0 0.0 0.0 0.0 0.0 0.0 0.0 0.0 0.0 0.0 0.0 0.0 0.0 0.0 0.0 0.0 0.0 0.0 0.0 0.0 0.0 0.0 0.0 0.0 0.0 0.0 0.0 0.0 0.0 0.0 0.0 0.0 0.0 0.0 0.0 0.0 0.0 0.0 0.0 0.0 0.0 0.0 0.0 0.0 0.0 0.0 0.0 0.0 0.0 0.0 0.0 0.0 0.0 0.0 0.0 0.0 0.0 0.0 0.0 0.0 0.0 0.0 0.0 0.0 0.0 0.0 0.0 0.0 0.0 0.0 0.0 0.0 0.0 0.0 0.0 0.0 0.0 0.0
0.0 0.0 0.0 0.0 0.0 0.0 0.0 0.0 0.0 0.0 0.0 0.0 0.0 0.0 0.0 0.0 0.0 0.0 0.0 0.0 0.0 0.0 0.0 0.0 0.0 0.0 0.0 0.0 0.0 0.0 0.0 0.0 0.0 0.0 0.0 0.0 0.0 0.0 0.0 0.0 0.0 0.0 0.0 0.0 0.0 0.0 0.0 0.0 0.0 0.0 0.0 0.0 0.0 0.0 0.0 0.0 0.0 0.0 0.0 0.0 0.0 0.0 0.0 0.0 0.0 0.0 0.0 0.0 0.0 0.0 0.0 0.0 0.0 0.0 0.0 0.0 0.0 0.0 0.0 0.0 0.0 0.0 0.0 0.0 0.0 0.0 0.0 0.0 0.0 0.0 0.0 0.0 0.0 0.0 0.0 0.0 0.0 0.0 0.0 0.0
-0.045549 -0.019643 0.046605 0.01937 -0.048165 0.002386 0.133692 -0.105972 -0.036092 0.01926 -0.041897 0.101992 -0.024171 -0.015948 -0.078548 0.018259 -0.021959 -6.9E-5 0.068206 0.037825 0.056655 -0.263488 0.019989 0.022684 -0.095743 0.148716 0.020395 0.005975 0.24558 -0.064396 -0.038624 0.103727 -0.009889 0.096239 -0.304886 0.02822 0.080687 0.038994 0.079709 -0.050449 0.091042 0.026191 0.163824 -0.046615 -0.100267 0.010837 -0.087407 0.084683 -0.041542 -0.01353 0.034989 -0.127666 0.142675 -0.144064 -0.010746 0.042543 -0.055325 -0.066353 -0.06669 -0.203929 0.043696 -0.15489 0.225267 -0.112238 -0.083936 0.01865 0.080721 -0.045273 0.053165 0.012791 -0.251947 -0.087307 -0.030465 0.051097 -0.029058 -0.055214 -0.077598 -0.017701 0.140202 -0.094673 -0.079917 0.236495 -0.033887 0.011453 -0.003383 0.141896 -0.034788 -0.14658 0.023186 0.099968 -0.072668 -0.031315 -0.073928 0.05957 0.035095 -0.094544 -4.16E-4 0.006228 0.001092 -0.050299
-0.05763 -0.256262 -0.085346 -0.008351 -0.179725 0.025394 -0.06205 0.029651 -0.088682 0.11047 -0.112526 -0.052776 0.152888 0.069069 0.04804 0.10505 0.279457 -0.003252 0.130128 0.008577 -0.018834 0.041622 0.092357 0.169429 -0.157673 -0.08295 0.126776 -0.059477 0.132295 -0.142263 -0.239144 0.006963 -0.153219 -0.134168 -0.095838 -0.026248 -0.133145 0.032495 -0.089139 -0.078787 0.063091 0.070244 0.069636 0.145461 -0.108259 0.104333 0.022244 0.006002 -0.04785 0.01119 0.049577 0.03563 -0.14872 -0.121162 0.172205 0.066591 0.166575 -0.044861 0.100721 -0.067303 0.196315 -0.118749 0.054638 -0.167853 -0.137644 -0.097875 0.090175 0.054897 0.077635 -0.094956 0.001595 0.065569 4.74E-4 0.11657 0.071736 -0.117284 0.0129 0.069674 -0.006986 -0.156887 0.104732 0.080445 0.162411 -0.19303 -0.173243 0.138032 0.054852 0.073375 0.13385 0.314503 -0.12755 -0.020982 -0.020388 0.096559 -0.066948 -0.077558 0.180639 -0.177181 0.114853 -0.09813
-0.008146 -0.005648 0.059531 0.125535 0.011328 0.024558 -0.165969 -0.019482 -0.076996 -0.167427 -0.035646 0.020818 -0.028113 -0.036329 -0.071534 -0.002174 -0.032754 -0.131044 -0.062638 -0.094554 -0.034763 -0.156622 -0.035706 -0.093561 0.027306 0.116182 0.031816 -0.094699 0.01367 -0.093147 -0.221748 0.003871 0.035001 -0.032771 0.015245 0.075022 -0.03079 0.059095 -0.140093 -0.093351 0.063765 0.064153 -0.036182 -0.007205 0.056318 -0.054911 -0.068876 -0.020263 -0.114443 -0.0113 -0.166841 0.023401 0.163193 0.030154 -0.040468 -0.037734 -0.144155 -0.07559 -0.067957 -0.135068 0.029689 -0.149559 -0.055197 -0.039455 0.185154 0.073544 -0.115102 0.115653 0.111712 -0.10039 -0.071982 0.010746 0.15125 0.026204 0.016248 0.085703 0.168286 -0.023663 0.005723 -0.237316 0.070247 0.079136 0.040366 -0.02896 -0.063939 -0.016178 0.023626 -0.078918 0.141125 0.036686 -0.156999 0.121274 0.089779 0.202551 0.070942 -0.023656 -0.075331 -0.043597 0.048624 -0.137596
-1.920858 -1.029855 -1.196429 2.472147 -0.721743 0.969764 1.181661 -0.65318 -1.474204 1.572126 0.607329 2.081412 -1.766369 0.718536 1.328234 -1.262383 -0.633755 -2.2783 -1.227427 -1.831495 1.859687 0.27192 0.310596 -1.692697 1.771294 1.062075 -0.524063 1.292462 -0.339886 2.214182 -1.788218 -2.107215 -1.808177 1.031397 -0.817577 2.029605 1.518195 -1.700804 2.899134 -1.634208 -2.35481 -1.940467 1.141127 3.180338 -0.952805 1.016967 -0.940129 2.918208 -0.969575 1.081825 1.921044 -0.020875 -1.465503 1.849067 -1.53976 -0.557325 1.496237 1.677648 -1.150459 -0.383216 1.604429 1.834798 -1.946696 1.243134 -1.528896 0.342759 1.663135 -3.962061 0.375354 -0.70859 -0.943778 0.343716 1.206869 -0.543477 -2.761507 0.940921 -4.290251 0.892742 -0.961931 2.074037 3.557427 0.632395 2.140166 0.729546 0.167657 -0.128757 0.970966 -1.164794 1.33233 0.484314 2.628436 0.6062 -1.073158 1.172771 -0.816978 -0.019154 1.766588 -0.280775 -0.163566 -1.589129
-0.087255 -0.05591 0.054305 -0.024922 0.12279 0.041971 0.011628 -0.098172 0.13061 0.088978 0.139548 0.154385 0.10967 -0.074364 0.077608 0.342633 -0.019875 0.008986 0.121981 0.055307 -0.003396 0.250389 -0.003606 -0.027202 -0.077535 -1.16E-4 -0.00206 0.156913 0.196292 -0.041947 -0.256602 -0.075561 -0.331833 -0.028169 -0.227118 -0.023069 -0.031505 -0.123196 0.067817 0.109003 -0.150311 -0.176863 -0.003222 0.297853 0.06886 0.054723 0.197442 -0.009663 0.124548 -0.115984 -0.107457 -0.134223 -0.057877 0.014351 -0.020055 -0.038021 0.086742 0.251573 0.36257 0.003758 0.053095 -0.086013 -0.02227 -0.136233 -0.017961 0.053643 0.053971 -0.264445 0.141244 -0.001727 0.102822 -0.045402 0.072919 -0.05572 -0.011331 -0.015733 -0.123198 -0.088768 0.042072 -0.014455 -0.084923 -0.030051 0.101633 -0.145179 0.084003 0.006179 0.137993 -0.044962 0.159725 0.029218 -0.030525 -0.103093 -0.1477 -0.002794 0.039423 -0.078334 0.05768 0.210979 -0.090714 -0.257268
0.004577 -0.077139 0.186696 0.192622 -0.122348 0.03174 -0.059208 -0.298223 -0.097779 0.049746 0.056097 0.240002 0.071719 0.068956 -0.03834 0.26472 -0.088507 0.336059 0.024975 0.081693 -0.025406 0.2262 0.20086 0.182967 -0.13429 -0.16792 0.0705 -0.047265 0.121626 -0.07506 -0.205217 -0.175597 -0.136736 0.135177 -0.017349 -0.206152 0.013709 0.103611 -0.102685 0.017773 -0.08926 0.153647 0.011442 -0.040664 -0.047171 -0.118774 -0.005246 0.044751 -0.058672 0.046157 0.080276 -0.048172 -0.03771 0.11095 0.029518 -0.070148 -0.033146 -0.008512 0.039747 -0.12649 0.006828 -0.086185 -0.00663 0.04893 -0.134276 -0.039226 0.118615 -0.071338 0.039573 0.041567 0.005918 0.051412 0.031927 -0.147693 0.180613 -0.124274 -0.281498 -0.032309 -0.057821 0.051871 0.100375 0.153059 0.088905 -0.204906 -0.017154 -0.053508 0.201842 0.070378 0.354441 -0.029274 -0.23367 0.03927 -0.015055 0.260397 -0.070372 -0.104677 0.127208 -0.056051 -0.229486 0.026219
0.040639 0.081814 0.04287 0.062167 0.092794 0.114908 -5.3E-4 -0.061893 -0.128806 0.029658 -0.102642 0.050736 0.021353 0.278962 0.156361 -0.045776 -0.059025 0.007615 0.069272 0.03742 0.044666 -0.205296 -0.009373 0.060588 0.130976 -0.007905 -0.098053 0.083234 0.088487 0.073668 -0.063313 0.05638 -0.149995 0.040243 0.139103 0.120814 0.186168 0.077513 0.035539 -0.137722 0.149343 -0.011946 0.157701 0.051791 -0.073664 0.096946 -0.283681 0.058369 -0.065895 0.126711 -0.040991 -0.045914 -0.057224 -0.17697 0.066608 0.102407 -0.15335 -0.00258 -0.222251 -0.069709 -9.96E-4 0.033302 -0.223593 -0.01348 0.109527 0.085455 -0.086426 0.046289 0.047765 0.150103 -0.094972 -0.019492 -0.08396 0.061637 0.042416 0.083935 -0.175169 -0.031524 -0.150901 -0.072843 -0.056665 0.199748 0.160562 -0.070466 0.072887 0.025233 0.011767 0.031496 0.08045 -0.027642 0.037393 0.123465 -0.042501 0.013419 0.046506 -0.08898 -0.024989 -0.132646 0.135167 0.194549
0.352905 0.550922 -1.128945 -0.511125 0.774489 1.405335 -0.371647 0.106012 -0.779785 -0.640302 -0.68578 1.570717 -0.712288 -0.706705 -0.789609 -0.045278 -1.599722 -2.840112 -0.089543 -1.158838 -1.862605 -0.62748 -0.063542 -0.468696 0.750564 0.033551 -0.772222 -0.188991 -0.163115 0.455978 0.038455 -0.779588 0.172303 -1.114448 -0.548246 -0.008155 1.66721 -0.744821 -0.15746 -2.668482 -0.304702 -0.905716 0.479063 0.151803 -0.94063 -0.044338 -0.906122 -0.456182 0.281891 0.268287 0.47007 0.628019 0.328428 1.471286 -2.345457 0.072073 -0.345477 -0.998199 -1.496897 -0.053061 0.351206 -0.934426 0.295591 0.07336 0.24092 0.486976 0.390085 -0.621556 0.375246 -0.02625 1.957847 1.014101 0.004675 0.08874 -0.900479 -0.462149 0.922254 1.355385 -1.048724 0.105897 1.254466 0.410718 0.321258 1.066395 -0.171761 -0.128774 0.315556 0.697301 -0.180925 0.555334 1.005586 -0.891677 -1.232923 -1.994189 -0.567812 0.204184 -0.947385 -0.051526 -0.987029 0.725141
0.121106 0.037326 0.144955 -0.039849 0.190907 -0.021294 -0.360487 0.068882 -0.049872 -0.097734 0.054547 0.147867 -0.14575 -0.007534 0.189939 0.040512 0.317968 0.228082 0.169117 0.083325 -0.224406 0.152066 0.19184 0.109042 -0.242936 -0.003641 0.03706 0.100761 0.352146 -0.064859 -0.109399 0.098228 0.16432 0.201149 0.070292 0.023841 -0.145174 0.115852 -0.002996 0.094706 -0.163311 -0.123271 -0.003908 0.020343 0.114002 0.084042 -0.005667 -0.120332 -0.088199 0.107917 0.189729 -0.227354 -0.042999 -0.151314 0.06721 -0.011073 0.050072 -0.004187 -0.026858 -0.084777 0.104916 0.036557 0.047224 -0.048079 0.04026 -0.020718 -0.010893 0.103286 -0.072125 -0.021873 -0.122629 -0.089216 -0.067342 -0.031364 0.144873 0.031106 -0.136449 -0.035758 -0.06933 -0.088391 0.021194 -0.095695 -0.021862 -0.285012 -0.173646 -0.076499 0.078427 0.078887 -0.089043 0.018054 0.058939 -0.056356 -0.08073 -0.017711 0.105982 -0.155119 0.052478 -0.212011 -0.034517 0.046851
-0.301003 -0.104514 -0.061956 0.146717 -0.040725 -0.1588 0.029211 -0.064189 -0.18958 0.161304 -0.057593 0.219603 -0.120038 0.033487 -0.035875 0.222413 -0.127467 -0.079677 0.073621 -0.163412 -0.138081 -0.086122 0.163846 0.143247 0.015795 -0.191218 -0.047366 -0.17648 -0.091304 -0.162709 0.095472 -0.045481 -0.072739 0.064539 -0.098008 0.019513 -0.004289 0.102843 -0.02594 -0.079586 0.111636 0.030328 2.93E-4 -0.055575 -0.08076 0.044681 -0.05919 0.054732 0.055942 0.281925 -0.011567 -0.103552 0.049186 -0.058535 -0.065991 0.068196 -0.03194 0.083512 -0.108334 -0.299013 0.082526 -0.062222 -0.078709 -0.036158 -0.11367 0.122562 0.063293 0.021402 0.100572 0.025905 0.030018 0.044003 0.253677 -0.085289 -0.119433 -0.186868 -0.087402 0.031722 0.035378 0.00725 -0.015944 0.110563 0.061118 0.132946 0.089788 0.056923 -0.052286 0.163094 -0.001857 0.115403 0.033433 -0.114648 -0.049209 0.130114 -0.011276 -0.100948 0.116037 -0.139046 -0.030976 0.0108
0.174579 -0.136728 -0.051226 0.020722 -0.006999 0.182304 -0.026571 0.028348 -0.056181 -0.008225 -0.006719 0.123411 -0.116958 0.067063 -0.070431 0.036747 0.038718 0.027768 0.023312 -0.088689 0.061433 -0.020277 0.259541 -0.094786 -0.095916 0.094827 0.024537 -0.02138 0.088986 -0.222601 0.103167 -0.001705 -0.126386 0.084151 -0.211735 -0.029013 0.140156 -0.020962 0.053455 -0.191046 -0.124863 -0.041487 0.136145 0.105226 -0.015967 -0.183445 -0.047984 0.115111 -0.019542 0.13034 -0.027747 -0.056535 -0.108365 -0.105363 0.081886 -0.149182 -0.11381 -0.099116 -0.181035 -0.164047 0.046733 -0.125779 0.073804 -0.112401 0.07152 0.061743 0.019104 -0.098201 0.014577 0.063876 -0.025147 0.141799 0.106453 -0.019125 -0.084889 0.059635 -0.102028 0.054798 -0.039091 -0.147142 0.035738 0.191847 0.115855 -0.22498 -0.237968 0.006138 0.263927 0.028048 -0.051407 0.156325 -0.066949 -0.023049 0.193957 -0.012836 0.006804 -0.136759 -0.093368 0.121825 -0.030451 -0.039809
-0.076406 -0.100127 -0.232416 0.012887 0.157594 0.201507 -0.099088 -0.011303 -0.172642 0.015781 -0.014224 0.165784 0.011877 0.102927 0.124402 0.066357 -0.239772 0.012236 -0.025346 -0.039371 -0.049395 -0.161012 0.335282 0.127875 -0.051589 0.058899 -0.253514 0.069323 0.077275 0.063175 0.050303 0.018142 -0.040227 -0.089453 -0.036559 -0.123233 0.091025 -0.071215 0.103347 0.087254 0.072904 0.010095 0.165126 -0.147588 0.116606 -0.140354 -0.119898 0.018904 -0.092041 0.052399 0.022989 -0.013223 -0.047911 0.071431 -0.053143 -0.073292 -0.028873 -0.090654 0.024071 -0.027822 -0.074055 -0.073185 0.179461 0.008051 -0.060813 0.063534 0.101656 -0.058214 0.283243 -0.038787 0.014833 -0.065387 -0.154949 -0.044322 -0.065916 0.13015 -0.096562 -0.04366 -0.029025 -0.129169 -0.089413 0.153287 -0.132962 -0.003191 0.121974 -0.027895 0.160527 0.050522 0.032091 -0.208633 -0.11831 0.053393 0.067996 0.070655 -0.038391 -0.211943 -0.143158 -0.114363 -0.0679 0.071015
-0.157571 -0.19338 0.025561 0.22317 -0.014151 0.120376 -3.18E-4 -0.086124 0.153466 0.138266 -0.048221 0.078126 0.06248 -0.127265 0.113665 0.230232 -0.259635 -0.062818 0.098991 0.006387 -0.170207 -0.012517 0.145659 -0.075768 -0.087076 -0.027262 0.003889 -0.131552 0.2985 -0.011822 -0.060056 -0.019251 -0.16565 0.003984 -0.066853 -0.115492 0.003366 -0.109062 0.135118 0.224786 -0.055564 0.206663 0.03263 0.078138 -8.04E-4 -0.229893 -0.128297 -0.034014 0.032554 0.095322 0.014305 0.011352 -0.037325 0.056287 -0.015761 -0.006153 -0.025986 0.049752 0.102688 -0.011329 0.097021 -0.197999 -0.014293 0.003749 0.01121 0.038063 0.221303 0.043763 0.200558 0.130972 -0.179769 -0.037508 0.083913 -0.097108 -0.098485 0.1551 -0.177251 -0.165075 0.124008 -0.062886 0.089818 -0.01342 0.124852 0.025826 -0.052244 0.048681 0.083837 0.046515 -0.053818 -0.01535 -0.129656 -0.0108 0.078186 -0.034215 0.014216 -0.084745 -0.092287 -0.128671 -0.157267 2.98E-4
0.100692 -0.157131 0.139302 0.123578 0.151543 0.178422 -0.012679 -0.103362 0.233611 0.029945 -0.033496 -0.02353 -0.150988 -0.078962 0.230475 0.006161 -0.201667 0.084881 -0.295978 -0.216595 -0.152078 -0.096403 -0.182565 -0.034674 -0.008271 0.123985 -0.225344 0.060741 0.064737 -0.027452 -0.020276 -0.040379 -0.062847 -0.021902 -0.155636 0.098869 0.118253 -0.054786 -0.035252 0.089718 -0.093516 0.108242 -0.165133 -0.010665 -0.002421 -0.171869 -0.111112 -0.041381 -0.044332 -0.069941 -0.02046 0.052983 -0.30701 0.053758 -0.133805 0.122561 8.2E-4 0.037855 -0.034898 0.091687 -0.127096 0.09488 -0.140734 -0.009746 -0.040595 0.12427 0.130515 0.010606 0.177229 0.063676 0.149195 0.026542 -0.108012 0.401386 -0.015993 -0.159563 0.171247 0.017552 -0.091249 -0.185777 0.041517 -0.021989 -0.300138 0.0411 -0.232056 0.111526 -0.051533 0.011578 0.198834 -0.128702 0.184857 -0.029913 -0.123641 -0.092647 0.286203 -0.109599 0.093666 0.015337 -0.091583 0.060957
-0.001889 -0.015376 0.011577 -0.079922 0.019615 0.005975 0.018085 -0.133459 0.07886 -0.019014 -0.010821 0.041669 -0.011128 0.097962 -0.060935 0.042309 0.015014 8.49E-4 -0.002449 0.038756 0.0685 -0.030124 0.021652 -0.079703 0.075875 -0.122727 0.144977 0.073106 0.120718 -0.115022 0.047765 0.225363 -0.061747 -0.035103 0.080005 0.064342 -0.011293 0.032618 0.076202 0.118833 0.299047 0.176216 0.148892 -0.105455 -0.022399 0.118571 -0.05437 -0.136016 -0.04767 0.112361 0.012505 0.001737 0.056998 -0.132972 0.205737 0.014869 0.130993 0.242588 0.100312 0.073252 -0.019374 -0.073147 -0.042245 -0.05193 0.119558 0.067972 -0.198268 0.013905 0.103121 -0.09962 -0.010563 -0.219254 -0.117595 0.0375 -0.028297 0.03039 -0.116152 0.021365 0.041774 -0.247365 -0.187561 -0.063496 -0.088808 -0.029223 0.057963 0.069802 -0.07258 -0.052825 0.064478 0.040761 0.149345 0.085248 0.239559 0.137326 -0.140966 0.005439 0.083517 -0.02486 -0.028184 0.111642
0.057523 -0.146273 -0.082823 -0.09918 0.015327 0.042217 -0.013468 0.0895 -0.041553 -0.016741 -0.035489 -0.018061 -0.002516 -0.026477 -0.033929 0.100076 0.049974 0.117947 0.068334 0.047265 0.067167 0.061779 0.021897 0.015924 -0.131705 -0.106132 9.25E-4 -0.044463 -0.006635 -0.026838 0.076244 0.042189 -0.094521 0.135843 -0.042419 -0.121981 -0.152637 0.004166 -0.062113 0.105261 -0.066196 0.155626 -0.076766 0.031308 0.019652 -0.013825 0.086752 -0.062433 -0.051152 0.126925 0.016214 -0.014179 0.129572 0.059681 0.00757 -0.021781 0.165157 0.030237 0.069272 -0.036654 -0.005051 -0.079537 0.074806 -0.044038 -0.063131 -0.011465 0.060149 -0.105289 -0.014196 -0.081127 0.014528 -0.071871 -0.028218 -0.05025 0.087844 -0.049118 -0.125601 -0.025127 0.032195 0.060939 -0.162031 -0.10677 -0.08324 0.040316 0.049726 0.02693 0.016266 -0.086205 0.036221 0.022946 0.024151 -0.050079 -0.005084 -0.060382 0.051739 -0.078961 0.152961 0.031337 0.014533 -0.007654
-0.013606 0.097671 0.004135 -0.013869 -0.099647 -0.142236 -0.088547 -0.031044 -0.123313 0.013383 0.105649 0.077941 0.108005 -0.067977 -0.010265 0.132207 -0.127394 0.008231 0.068706 0.029086 -0.08264 -0.029212 0.044216 0.070549 -0.008025 -0.032976 -0.078316 -0.033692 -0.049891 0.031595 0.021893 0.062979 -0.015139 0.04467 -0.016708 0.027606 -0.059093 0.187515 0.041123 0.063426 0.05821 0.178731 -0.014998 0.037008 -0.051151 -0.05201 -0.042429 -0.054051 -0.165949 -0.073215 0.124023 -0.112164 -0.047747 0.037001 0.162692 0.020775 -0.047981 -0.01414 0.153638 -0.005343 0.064812 -0.09751 0.065874 -0.182416 -0.040957 0.07703 0.001787 -0.076345 -8.41E-4 -0.061288 0.138229 0.04879 -0.076144 -0.001423 0.113546 -0.111654 -0.014928 -0.011656 -0.063783 -0.177129 -0.150503 0.039299 0.079646 0.066155 0.006531 0.014543 0.101387 0.057832 0.016927 -0.046217 -0.02775 -0.060849 0.030673 0.037411 -0.007258 -0.137781 0.121195 0.02644 0.118751 -0.220242
0.0 0.0 0.0 0.0 0.0 0.0 0.0 0.0 0.0 0.0 0.0 0.0 0.0 0.0 0.0 0.0 0.0 0.0 0.0 0.0 0.0 0.0 0.0 0.0 0.0 0.0 0.0 0.0 0.0 0.0 0.0 0.0 0.0 0.0 0.0 0.0 0.0 0.0 0.0 0.0 0.0 0.0 0.0 0.0 0.0 0.0 0.0 0.0 0.0 0.0 0.0 0.0 0.0 0.0 0.0 0.0 0.0 0.0 0.0 0.0 0.0 0.0 0.0 0.0 0.0 0.0 0.0 0.0 0.0 0.0 0.0 0.0 0.0 0.0 0.0 0.0 0.0 0.0 0.0 0.0 0.0 0.0 0.0 0.0 0.0 0.0 0.0 0.0 0.0 0.0 0.0 0.0 0.0 0.0 0.0 0.0 0.0 0.0 0.0 0.0
2.01044 1.232296 -2.549912 -2.032197 2.108218 0.350754 3.984176 -0.781111 1.754388 -2.314295 2.355634 -1.525834 1.226472 -1.541329 -3.304575 2.991044 -1.391115 -2.323146 -2.15385 -2.980392 2.344315 -2.676041 1.909837 -5.523956 -1.061176 -1.804773 -0.560027 -2.255916 -1.094577 -1.063408 0.662731 -2.102897 -3.864523 -7.571391 -1.344896 0.094571 0.367136 1.570184 0.648031 -0.688728 -0.946578 -0.092235 -2.489474 -1.986418 -1.624544 2.498297 1.250083 -1.068359 1.883808 -2.927913 -1.745434 -2.058515 -0.512999 0.410537 1.644372 -2.957222 1.082306 2.233394 3.431873 -2.073999 1.844186 -1.494935 0.390434 1.564615 -2.929395 -0.086005 -1.048035 -6.680551 1.315066 2.524979 4.404657 4.649625 1.632009 -3.155071 -4.040797 -1.548602 1.77773 -0.139533 -0.426028 0.428942 0.053434 -1.593569 3.168037 1.766949 4.17124 2.646524 2.776018 3.211581 -0.17617 -0.149054 -1.677979 1.48727 -4.970527 -4.785122 -2.199308 0.014736 -3.178869 1.436958 -1.954018 -3.116458
3.229447 1.832686 -0.196265 -0.303454 -0.824437 2.082854 1.150219 -0.493805 -3.50143 -0.594107 2.103319 2.396154 1.056781 -0.578498 -1.172209 3.210305 -0.978008 -1.908997 -0.472705 -1.788789 -2.346806 -2.098664 -0.288581 -2.078696 0.41261 0.520842 -1.276654 0.578767 1.70845 -0.136278 -1.41294 0.371846 1.173228 1.232021 0.598135 -3.597398 4.723318 -0.907374 3.160397 -2.027976 1.188048 -5.433854 0.01906 -0.240727 2.932695 1.836205 0.69537 0.647449 5.328198 0.625981 0.041762 2.070653 0.300511 1.656161 -2.571092 0.908767 3.294905 2.941907 -1.065341 -2.086696 -0.817265 -1.894089 0.299235 -1.879644 0.485823 1.848637 -0.344618 -2.532108 2.074767 0.482597 3.034693 1.42216 0.457834 2.431775 -0.318071 1.666885 -1.364005 1.576786 -1.71492 -0.790398 2.548478 -2.38312 -0.502643 1.256626 0.730181 1.714355 1.091085 4.672542 0.202716 -0.959086 0.774024 -2.161259 -1.810393 -2.763748 0.167227 4.207294 2.675714 0.636561 -0.117425 -0.284099
0.346085 0.217947 0.693116 0.142893 0.369152 0.727018 1.19217 0.608406 -0.667668 -0.127676 -0.076749 0.013574 -0.663048 0.035021 -0.600232 -0.016127 -0.387056 -0.087382 0.082938 -0.311806 0.699668 0.736261 -0.081784 0.102416 -0.475508 -0.353355 0.608715 -0.137132 0.615065 -9.7E-5 0.059461 0.272598 -0.286336 0.258065 0.341095 0.121999 0.142254 -0.853118 -0.45419 -0.260648 -0.937209 0.502731 0.26618 1.242961 0.136789 0.028709 0.077055 0.810134 0.792946 0.067769 0.045145 0.413873 -0.4602 0.744525 -0.187471 -0.380927 0.848867 0.711486 -0.089378 -0.208611 0.951735 0.9057 0.006272 0.177415 -0.403458 -0.471928 0.595332 -1.335033 0.293181 -0.218503 -0.334793 -0.633426 -0.011135 -1.514448 -0.050574 0.568397 -1.388051 -0.100139 -1.232281 0.591637 0.306665 0.870345 1.161327 0.810944 -0.115782 0.202457 0.574908 -0.608811 -0.317966 -0.079608 0.813424 0.609008 -0.287118 0.237208 0.12935 -1.357947 0.446872 -0.128655 0.430931 0.32225
-0.045549 -0.019643 0.046605 0.01937 -0.048165 0.002386 0.133692 -0.105972 -0.036092 0.01926 -0.041897 0.101992 -0.024171 -0.015948 -0.078548 0.018259 -0.021959 -6.9E-5 0.068206 0.037825 0.056655 -0.263488 0.019989 0.022684 -0.095743 0.148716 0.020395 0.005975 0.24558 -0.064396 -0.038624 0.103727 -0.009889 0.096239 -0.304886 0.02822 0.080687 0.038994 0.079709 -0.050449 0.091042 0.026191 0.163824 -0.046615 -0.100267 0.010837 -0.087407 0.084683 -0.041542 -0.01353 0.034989 -0.127666 0.142675 -0.144064 -0.010746 0.042543 -0.055325 -0.066353 -0.06669 -0.203929 0.043696 -0.15489 0.225267 -0.112238 -0.083936 0.01865 0.080721 -0.045273 0.053165 0.012791 -0.251947 -0.087307 -0.030465 0.051097 -0.029058 -0.055214 -0.077598 -0.017701 0.140202 -0.094673 -0.079917 0.236495 -0.033887 0.011453 -0.003383 0.141896 -0.034788 -0.14658 0.023186 0.099968 -0.072668 -0.031315 -0.073928 0.05957 0.035095 -0.094544 -4.16E-4 0.006228 0.001092 -0.050299
-0.101423 -0.111223 0.204943 0.132795 0.05788 0.002316 -0.036371 0.128742 -0.099987 -0.203751 -0.005747 -0.076661 0.061493 0.129923 0.03874 0.055627 -0.263836 -0.184604 0.011424 -0.007279 0.055684 -0.07375 0.014547 0.147661 -0.137906 -0.053606 -0.109156 0.116562 0.167124 -0.150614 0.060862 0.022001 -0.10916 0.25015 -0.078021 -0.006786 -0.141903 0.141898 -0.160938 -0.126208 0.099444 0.188346 -0.14893 0.061422 -0.089297 -0.141281 -0.053777 0.056071 -0.033157 -0.040216 0.128842 -0.039396 0.153451 -0.099596 0.009729 -0.066533 -0.087515 -0.014641 -0.090516 0.13632 -0.012204 -0.13469 0.080049 0.037476 -0.028325 0.033903 0.019994 0.045848 0.02642 0.068674 -0.091896 0.015101 0.058041 -0.015662 0.014985 0.073895 0.155834 -0.167799 -0.15315 0.063915 0.007151 -0.100262 0.020611 0.155 -0.277609 0.145833 0.11182 0.07878 -0.028091 -0.019437 0.04089 -0.021383 0.025695 0.057773 -0.115688 0.142605 -0.064814 -0.090623 0.132294 -0.086139
0.029374 -0.04767 0.087389 -0.005519 -0.064026 0.067469 0.214773 -0.016782 0.231598 0.099016 -0.041209 0.120148 0.061325 -0.094957 0.084301 0.218167 -0.085212 0.176633 0.102517 0.063699 -0.132481 0.023255 0.11035 0.087736 -0.153185 -0.317216 -0.202262 -0.226468 -0.08202 0.193114 -0.130498 0.180749 -0.037145 0.138585 -0.05224 0.124978 0.031632 -0.007968 0.014554 -0.25663 -0.034572 -0.034262 0.032433 0.203602 0.020113 -0.127135 -0.005134 -0.017983 -0.020674 -0.078382 0.073198 0.027876 -0.121672 -0.034316 -0.18643 -0.019683 -0.081706 -0.134589 -0.059072 -0.055583 0.1932 0.026378 0.136765 -0.097381 0.042941 0.091959 0.038418 0.085926 0.05265 -0.159023 -0.133212 -0.078901 0.038623 -0.059591 -0.043145 -0.260305 -0.177865 0.052689 0.039511 -0.133889 0.022669 0.09648 0.08417 -0.043721 0.127651 0.185019 0.057055 -0.085347 0.190308 -0.001982 -0.201642 -0.018757 -0.108806 0.044892 -0.015605 -0.330658 -0.004003 0.226201 -0.024644 -0.034319
-0.049467 -0.21716 0.090937 0.090442 0.039471 -0.158319 -0.11269 -0.069629 -0.152616 -0.168774 0.174922 -0.001446 -0.103807 0.051497 0.194559 0.131969 0.040381 0.032635 -0.067156 -0.025622 -0.010711 -0.020901 0.119984 0.244719 -0.109187 0.082315 -0.135338 -0.023344 0.21433 -0.064577 -0.064485 0.074849 0.149247 -0.027656 0.004969 0.03268 0.06585 -0.057646 0.153199 -0.005728 -0.022326 -0.274079 0.004042 0.014306 0.05418 -0.043258 -0.168469 -0.040621 -0.157761 -0.0691 0.094353 0.072912 -0.075834 -0.197271 0.168871 0.117121 -0.136197 -0.055852 -0.009409 -0.089041 -0.057739 -0.071827 -0.092378 -0.079523 -0.113948 -0.038776 0.031106 -0.010216 0.104807 -0.099296 -0.017116 -0.076253 -0.094261 0.043236 -0.070148 -0.074738 -0.099196 -0.105257 -0.096505 -0.240964 -0.008615 -0.07672 0.040914 0.071479 -0.071285 0.055601 0.005485 -0.102117 0.010954 0.072108 0.050477 0.154822 -0.090926 0.117414 0.012584 0.026602 -0.071613 -0.136944 0.106969 0.012461
-0.013606 0.097671 0.004135 -0.013869 -0.099647 -0.142236 -0.088547 -0.031044 -0.123313 0.013383 0.105649 0.077941 0.108005 -0.067977 -0.010265 0.132207 -0.127394 0.008231 0.068706 0.029086 -0.08264 -0.029212 0.044216 0.070549 -0.008025 -0.032976 -0.078316 -0.033692 -0.049891 0.031595 0.021893 0.062979 -0.015139 0.04467 -0.016708 0.027606 -0.059093 0.187515 0.041123 0.063426 0.05821 0.178731 -0.014998 0.037008 -0.051151 -0.05201 -0.042429 -0.054051 -0.165949 -0.073215 0.124023 -0.112164 -0.047747 0.037001 0.162692 0.020775 -0.047981 -0.01414 0.153638 -0.005343 0.064812 -0.09751 0.065874 -0.182416 -0.040957 0.07703 0.001787 -0.076345 -8.41E-4 -0.061288 0.138229 0.04879 -0.076144 -0.001423 0.113546 -0.111654 -0.014928 -0.011656 -0.063783 -0.177129 -0.150503 0.039299 0.079646 0.066155 0.006531 0.014543 0.101387 0.057832 0.016927 -0.046217 -0.02775 -0.060849 0.030673 0.037411 -0.007258 -0.137781 0.121195 0.02644 0.118751 -0.220242
0.0 0.0 0.0 0.0 0.0 0.0 0.0 0.0 0.0 0.0 0.0 0.0 0.0 0.0 0.0 0.0 0.0 0.0 0.0 0.0 0.0 0.0 0.0 0.0 0.0 0.0 0.0 0.0 0.0 0.0 0.0 0.0 0.0 0.0 0.0 0.0 0.0 0.0 0.0 0.0 0.0 0.0 0.0 0.0 0.0 0.0 0.0 0.0 0.0 0.0 0.0 0.0 0.0 0.0 0.0 0.0 0.0 0.0 0.0 0.0 0.0 0.0 0.0 0.0 0.0 0.0 0.0 0.0 0.0 0.0 0.0 0.0 0.0 0.0 0.0 0.0 0.0 0.0 0.0 0.0 0.0 0.0 0.0 0.0 0.0 0.0 0.0 0.0 0.0 0.0 0.0 0.0 0.0 0.0 0.0 0.0 0.0 0.0 0.0 0.0
0.0 0.0 0.0 0.0 0.0 0.0 0.0 0.0 0.0 0.0 0.0 0.0 0.0 0.0 0.0 0.0 0.0 0.0 0.0 0.0 0.0 0.0 0.0 0.0 0.0 0.0 0.0 0.0 0.0 0.0 0.0 0.0 0.0 0.0 0.0 0.0 0.0 0.0 0.0 0.0 0.0 0.0 0.0 0.0 0.0 0.0 0.0 0.0 0.0 0.0 0.0 0.0 0.0 0.0 0.0 0.0 0.0 0.0 0.0 0.0 0.0 0.0 0.0 0.0 0.0 0.0 0.0 0.0 0.0 0.0 0.0 0.0 0.0 0.0 0.0 0.0 0.0 0.0 0.0 0.0 0.0 0.0 0.0 0.0 0.0 0.0 0.0 0.0 0.0 0.0 0.0 0.0 0.0 0.0 0.0 0.0 0.0 0.0 0.0 0.0
-0.045549 -0.019643 0.046605 0.01937 -0.048165 0.002386 0.133692 -0.105972 -0.036092 0.01926 -0.041897 0.101992 -0.024171 -0.015948 -0.078548 0.018259 -0.021959 -6.9E-5 0.068206 0.037825 0.056655 -0.263488 0.019989 0.022684 -0.095743 0.148716 0.020395 0.005975 0.24558 -0.064396 -0.038624 0.103727 -0.009889 0.096239 -0.304886 0.02822 0.080687 0.038994 0.079709 -0.050449 0.091042 0.026191 0.163824 -0.046615 -0.100267 0.010837 -0.087407 0.084683 -0.041542 -0.01353 0.034989 -0.127666 0.142675 -0.144064 -0.010746 0.042543 -0.055325 -0.066353 -0.06669 -0.203929 0.043696 -0.15489 0.225267 -0.112238 -0.083936 0.01865 0.080721 -0.045273 0.053165 0.012791 -0.251947 -0.087307 -0.030465 0.051097 -0.029058 -0.055214 -0.077598 -0.017701 0.140202 -0.094673 -0.079917 0.236495 -0.033887 0.011453 -0.003383 0.141896 -0.034788 -0.14658 0.023186 0.099968 -0.072668 -0.031315 -0.073928 0.05957 0.035095 -0.094544 -4.16E-4 0.006228 0.001092 -0.050299
0.352905 0.550922 -1.128945 -0.511125 0.774489 1.405335 -0.371647 0.106012 -0.779785 -0.640302 -0.68578 1.570717 -0.712288 -0.706705 -0.789609 -0.045278 -1.599722 -2.840112 -0.089543 -1.158838 -1.862605 -0.62748 -0.063542 -0.468696 0.750564 0.033551 -0.772222 -0.188991 -0.163115 0.455978 0.038455 -0.779588 0.172303 -1.114448 -0.548246 -0.008155 1.66721 -0.744821 -0.15746 -2.668482 -0.304702 -0.905716 0.479063 0.151803 -0.94063 -0.044338 -0.906122 -0.456182 0.281891 0.268287 0.47007 0.628019 0.328428 1.471286 -2.345457 0.072073 -0.345477 -0.998199 -1.496897 -0.053061 0.351206 -0.934426 0.295591 0.07336 0.24092 0.486976 0.390085 -0.621556 0.375246 -0.02625 1.957847 1.014101 0.004675 0.08874 -0.900479 -0.462149 0.922254 1.355385 -1.048724 0.105897 1.254466 0.410718 0.321258 1.066395 -0.171761 -0.128774 0.315556 0.697301 -0.180925 0.555334 1.005586 -0.891677 -1.232923 -1.994189 -0.567812 0.204184 -0.947385 -0.051526 -0.987029 0.725141
0.0 0.0 0.0 0.0 0.0 0.0 0.0 0.0 0.0 0.0 0.0 0.0 0.0 0.0 0.0 0.0 0.0 0.0 0.0 0.0 0.0 0.0 0.0 0.0 0.0 0.0 0.0 0.0 0.0 0.0 0.0 0.0 0.0 0.0 0.0 0.0 0.0 0.0 0.0 0.0 0.0 0.0 0.0 0.0 0.0 0.0 0.0 0.0 0.0 0.0 0.0 0.0 0.0 0.0 0.0 0.0 0.0 0.0 0.0 0.0 0.0 0.0 0.0 0.0 0.0 0.0 0.0 0.0 0.0 0.0 0.0 0.0 0.0 0.0 0.0 0.0 0.0 0.0 0.0 0.0 0.0 0.0 0.0 0.0 0.0 0.0 0.0 0.0 0.0 0.0 0.0 0.0 0.0 0.0 0.0 0.0 0.0 0.0 0.0 0.0
1.979182 1.475284 1.616709 3.670848 1.493383 1.565553 0.713709 0.821536 -0.198276 1.095257 1.13035 3.013426 -0.31575 0.272355 -1.140889 3.059924 -0.481724 -0.114922 -4.136081 -3.168525 0.468706 0.468211 -1.450609 1.536269 1.463073 0.091064 0.456867 -0.772584 1.94826 0.637724 3.384043 1.31124 -0.547482 -2.46209 -1.172514 0.108789 -0.436092 -0.542017 -2.899063 -1.238649 0.992894 -1.25533 1.441906 -2.837638 -0.37597 0.84588 0.567863 1.067483 3.045772 2.851722 1.127934 2.750989 2.037369 -0.330697 -3.137371 -0.277042 1.105257 3.888075 -0.863423 -0.157175 -2.285182 -0.166755 0.331731 -0.01245 0.62688 0.367884 -0.075369 -0.159061 -0.417307 -2.027856 0.1471 0.649553 -2.645108 0.793309 -1.226665 0.217122 -0.469072 -0.459028 -1.403266 -0.635382 -0.504689 1.214626 1.214261 1.363001 0.553679 -3.299866 -1.882137 1.302355 -0.459088 -0.175485 1.192438 -0.480862 1.435369 0.431146 -1.119326 -1.423348 -1.759886 0.376096 -1.342863 3.008839
0.0 0.0 0.0 0.0 0.0 0.0 0.0 0.0 0.0 0.0 0.0 0.0 0.0 0.0 0.0 0.0 0.0 0.0 0.0 0.0 0.0 0.0 0.0 0.0 0.0 0.0 0.0 0.0 0.0 0.0 0.0 0.0 0.0 0.0 0.0 0.0 0.0 0.0 0.0 0.0 0.0 0.0 0.0 0.0 0.0 0.0 0.0 0.0 0.0 0.0 0.0 0.0 0.0 0.0 0.0 0.0 0.0 0.0 0.0 0.0 0.0 0.0 0.0 0.0 0.0 0.0 0.0 0.0 0.0 0.0 0.0 0.0 0.0 0.0 0.0 0.0 0.0 0.0 0.0 0.0 0.0 0.0 0.0 0.0 0.0 0.0 0.0 0.0 0.0 0.0 0.0 0.0 0.0 0.0 0.0 0.0 0.0 0.0 0.0 0.0
0.120725 -0.127199 0.212484 0.07514 -0.065492 0.215327 -0.327274 -0.073382 -0.119039 0.276592 0.357078 0.209933 0.346438 -0.072728 -0.346906 -0.030581 0.235742 0.057656 -0.004688 0.336881 0.33456 0.262283 0.255369 -0.002289 -0.062491 -0.120143 0.005314 0.034911 -0.046957 -0.223149 0.061583 0.019124 -0.102594 0.411005 -0.099517 -0.044851 -0.109198 -0.217729 0.173743 -0.274626 -0.220228 0.176647 0.275342 -0.020439 -0.033579 -0.406354 -0.088752 0.061732 0.028731 -0.190796 0.065394 0.082342 -0.132378 -0.091372 -0.05241 -0.167944 0.052556 0.00169 -0.01634 -0.03146 0.082004 0.177782 -0.056285 0.043598 -0.215221 -0.381127 -0.186844 -0.128579 0.24816 -0.145234 -0.02761 0.212958 -0.133826 -0.282567 -0.254977 -0.180507 -0.252813 -0.133419 -0.227792 0.119828 0.010109 0.249405 0.051056 0.276984 0.290098 -0.139258 -0.164197 0.069453 -0.210616 -0.152657 0.046232 0.055461 0.024818 -0.204373 0.049435 0.06506 -0.00904 -0.254316 -0.221038 -0.087633
-0.078452 0.096771 -0.061541 0.138112 0.004928 -0.026391 -0.109227 -0.108246 0.155419 0.02646 0.187557 0.092093 -0.128518 0.044492 0.012172 0.062278 0.037361 0.076736 0.012935 0.064878 -0.09391 0.035435 0.262897 -0.007944 0.001526 -0.045372 -0.133403 0.029377 0.018299 -0.025472 0.007715 -0.12241 -0.036921 0.09573 0.02689 -0.094223 0.160545 0.054892 0.026676 0.078287 0.166159 0.109237 0.113382 0.097791 -0.179684 0.070388 0.011994 0.130181 -0.052905 -0.120099 0.02902 -0.078173 0.029059 -0.016244 0.144103 -0.317655 -0.118106 -0.16307 0.119682 -0.066155 -0.024 -0.084781 -0.082593 -0.073131 -0.11353 0.141936 0.020029 0.128358 0.065808 -0.020652 -0.119115 -0.029171 0.01276 -0.00491 0.102865 0.040562 -0.16616 -0.100037 -0.198086 0.140459 0.011461 0.278753 0.024156 -0.121718 0.010135 0.040596 0.07931 0.030638 0.147849 -0.042373 0.02419 -0.020807 -0.285991 0.074458 0.089132 -0.069851 -0.031133 -0.014124 -0.130138 0.045134
-0.101423 -0.111223 0.204943 0.132795 0.05788 0.002316 -0.036371 0.128742 -0.099987 -0.203751 -0.005747 -0.076661 0.061493 0.129923 0.03874 0.055627 -0.263836 -0.184604 0.011424 -0.007279 0.055684 -0.07375 0.014547 0.147661 -0.137906 -0.053606 -0.109156 0.116562 0.167124 -0.150614 0.060862 0.022001 -0.10916 0.25015 -0.078021 -0.006786 -0.141903 0.141898 -0.160938 -0.126208 0.099444 0.188346 -0.14893 0.061422 -0.089297 -0.141281 -0.053777 0.056071 -0.033157 -0.040216 0.128842 -0.039396 0.153451 -0.099596 0.009729 -0.066533 -0.087515 -0.014641 -0.090516 0.13632 -0.012204 -0.13469 0.080049 0.037476 -0.028325 0.033903 0.019994 0.045848 0.02642 0.068674 -0.091896 0.015101 0.058041 -0.015662 0.014985 0.073895 0.155834 -0.167799 -0.15315 0.063915 0.007151 -0.100262 0.020611 0.155 -0.277609 0.145833 0.11182 0.07878 -0.028091 -0.019437 0.04089 -0.021383 0.025695 0.057773 -0.115688 0.142605 -0.064814 -0.090623 0.132294 -0.086139
