-0.034238 -0.041665 0.152869 0.152548 0.182787 0.05396 -7.98E-4 0.081179 -0.167569 0.284827 0.170113 0.092621 -0.08855 -0.015238 0.038822 0.080514 0.122021 -0.006301 -0.062418 0.045718 -0.213906 -0.003208 0.070822 0.109566 -0.001184 -0.127211 -0.038258 0.096288 -0.019048 -0.122074 -0.030807 0.00694 0.048099 0.131181 -0.045731 -0.119788 0.02543 -0.213376 0.176084 -0.034568 -0.094969 -0.03084 -0.059543 0.235289 -0.09725 0.052311 -0.102592 0.017313 -0.054495 0.102375 -0.062571 -0.017355 -0.206674 -0.09112 -0.033321 0.104453 0.149495 0.027604 0.203617 -0.089626 0.279637 -0.013915 -0.044186 -0.075949 -0.222204 -0.145809 0.129575 -0.202463 0.003187 -0.207831 -0.260262 0.004904 -0.144663 -0.038978 -0.108494 -0.236411 -0.118636 0.20631 0.059713 0.134305 0.047756 0.052349 0.144291 0.020959 0.110975 -0.116829 -0.071629 -0.032654 0.250813 0.165446 0.174558 0.068286 -0.093128 0.036376 -0.081526 0.026484 0.050902 0.054647 -0.031453 -0.115233
-0.110652 -0.01737 -0.137894 -0.02839 0.212961 0.050575 -0.027647 0.104 -0.032171 -0.012953 0.26789 -0.165361 0.099874 -0.020781 -0.042672 -0.001875 -0.193023 -0.074393 0.00982 -0.158587 -0.022072 0.018959 -0.025409 -0.162434 0.029765 -0.124302 0.028101 0.040986 0.008205 0.127993 -0.08742 -0.111403 0.002278 0.185132 0.179703 -0.02229 0.072929 -0.11285 0.235056 0.002676 -0.014039 -0.107414 0.053678 0.242713 -0.172343 0.107406 -0.002096 0.048325 -0.177546 -0.12262 0.115456 0.01124 0.053629 0.063105 -0.280782 0.076459 -0.026453 0.042783 0.077182 -0.274351 -0.121066 -0.024512 -0.132134 -0.08571 -0.01157 0.07652 0.02953 -0.015412 -0.133182 0.138455 -0.063469 -0.004094 -0.093012 0.024155 -0.004378 -0.079439 -0.075428 0.020746 0.008863 0.089285 0.057719 -0.023499 -0.002595 0.106513 0.144071 0.088283 -0.060024 -0.053846 0.185782 -0.132641 0.062285 -0.030909 0.156899 -0.014894 -0.036211 0.063523 0.044588 0.070534 -0.06575 0.090428
-0.018853 -0.002551 0.033968 0.16503 -0.215563 -0.182974 -0.038488 -0.239149 -0.217481 0.060001 0.148081 0.22406 -0.082196 0.026232 0.069545 0.145171 0.003039 0.059152 0.163998 -0.07166 0.051914 0.029061 0.270428 0.113908 -0.05018 -0.267824 -0.022216 0.175303 0.101835 -0.164084 0.153946 0.106576 -0.077141 -0.005068 0.021427 -0.094384 0.163008 -0.057292 -0.062818 0.134489 0.037332 0.033104 0.092495 0.095431 0.042571 -0.094663 -0.079974 -0.052398 -0.087463 -0.015076 -0.008594 0.103657 -0.052513 -0.089393 -0.07789 0.082318 -0.062818 -0.080187 -0.029008 -0.212846 0.071314 -0.092865 0.123131 -0.177763 2.48E-4 -0.054044 0.046953 -0.015226 0.045295 0.09191 0.00974 0.097436 -0.043814 -0.079753 -0.098751 0.193253 0.057385 -0.146029 -0.11558 -0.075163 0.035175 0.116655 0.216791 -0.019977 0.066471 0.002392 0.091659 -0.120077 0.027913 -0.049029 0.001288 0.019374 -0.06297 0.161294 -0.085267 0.074004 0.084099 -0.12615 0.009865 -0.287975
1.645496 -1.752086 -2.830571 -1.054982 -1.079069 1.403389 0.748278 -1.949334 -2.216442 -2.023381 -0.13921 -5.199272 -0.4568 0.438897 0.294446 2.225049 2.992516 -4.437229 -2.858034 0.088572 -2.745615 -4.805355 -2.081676 -0.054173 -2.917201 -2.466804 -1.474815 -5.440045 1.74954 -1.933369 2.091968 0.268781 2.244256 3.776333 -2.025334 -1.754825 1.087721 2.351612 1.308409 0.602403 1.846822 0.691434 1.351243 1.427828 -5.605643 0.877831 2.028826 2.707525 2.024516 1.143245 -3.413446 0.306086 4.072926 4.650352 -3.23923 -1.463191 -1.301777 -2.476546 0.063102 -0.859236 -2.012634 -4.599081 1.259772 -2.045433 0.272725 -0.51335 0.465264 -4.10729 5.626825 0.925096 1.635578 -0.917793 -2.78683 -0.151473 -4.345518 -0.37098 -1.354027 -1.23557 -1.685086 1.498929 -0.517867 2.622731 2.199554 2.291852 -2.886335 -2.368492 3.000562 -3.02E-4 -0.078724 -0.715195 3.680484 -6.04159 0.755848 -4.019189 3.190495 -0.82118 -1.74472 1.00616 -1.862514 1.839674
0.721795 -2.481571 -0.217473 -3.214624 1.504617 -3.845891 3.166263 -1.608019 -1.914374 2.674019 -2.272557 -0.48385 1.165853 1.827155 -4.301687 0.40802 0.629743 -4.113543 -1.94276 0.731813 -4.236966 2.999593 2.438087 2.049658 2.186888 -0.61782 -1.937458 1.189881 -2.500792 -0.411713 3.122157 -1.526771 1.825965 -1.014206 -2.36954 1.240447 2.842032 -0.180622 1.173058 -0.237506 0.501521 -1.783662 0.106934 1.327094 -0.651224 -2.35517 -0.044124 0.037246 -0.1076 -1.571916 0.442781 -1.138215 -4.546288 4.361761 -0.373273 -1.265237 1.179889 0.74874 -1.249528 -2.700647 -2.154612 -1.367258 -0.358048 3.423521 -0.302614 0.278682 0.138714 1.290811 4.095896 3.387682 -1.264714 -0.211403 -0.953064 -2.079158 -0.160254 -0.463413 -0.845677 1.490393 4.237436 -1.953078 1.733838 -2.526789 -0.326419 -1.364247 6.399643 0.355422 1.422893 -1.823072 0.306054 0.59032 -0.16874 1.363908 0.496931 1.072518 -1.653061 -3.211568 -4.304133 -0.61673 1.45791 0.415601
0.077541 0.54546 0.030623 0.098582 1.636773 1.162976 0.66432 -0.375295 0.036285 0.942209 0.894552 0.116878 -0.194041 -0.983561 0.037486 0.276276 -1.178852 -0.845811 -0.417392 0.060883 -0.840585 0.780784 0.391839 -0.895618 1.114101 -0.695222 0.128278 0.56083 -0.627382 0.168919 0.330689 -0.157424 -0.400069 0.503959 -0.34248 -0.136116 0.817632 -0.274638 0.816203 -0.424981 -0.3052 -0.532563 -0.178398 -0.11773 -0.370143 0.637113 -0.393538 -0.549015 -0.009232 0.973537 -0.10304 0.31652 -0.585704 0.383194 -0.314747 -0.271712 0.808507 0.096622 0.376666 -1.104884 -0.932436 0.091188 0.051037 -0.381955 -0.492148 -0.15756 0.024578 -1.001766 0.192752 -0.248889 0.458787 0.035274 -0.278402 0.346269 -0.349444 -0.396316 -1.059812 0.175173 -0.601588 1.301264 1.245427 0.367193 -0.114205 -0.38687 0.268941 -0.44254 0.376897 -0.441902 0.573895 0.165328 0.470975 0.182705 0.218988 -0.579083 -0.229988 -0.335441 0.414082 -0.035675 -1.069244 -0.077991
1.155368 3.302179 -0.818617 0.201583 -0.372035 -0.220049 -2.421694 1.24088 1.022918 0.281963 -0.56672 0.218504 -2.654141 0.687099 1.426786 -2.744465 -2.044989 -0.49789 -1.769702 -2.328375 -1.105508 0.104665 -0.061522 -2.669585 1.369504 1.778184 -0.869744 -1.441309 0.051265 1.116249 1.903031 -0.163683 1.731475 -0.652558 -1.459245 -0.212579 0.382415 1.861636 -0.394668 -0.423196 -0.983827 -1.176007 1.844253 0.853456 0.976233 -0.076248 -1.490589 -0.553926 0.506191 0.326236 0.251095 1.038919 -0.803142 0.658979 -3.236482 -1.07965 1.27678 -0.350029 -1.778651 0.292774 0.002745 0.267431 1.072933 -0.321661 -1.19536 -1.465055 -2.523761 -3.574044 -0.123843 -0.515256 3.2036 -0.08683 1.099575 -0.639959 -1.310584 0.629968 -0.142079 0.66081 -1.289981 -0.152693 -0.105374 0.388507 -1.068849 2.207516 -1.516502 0.618648 0.057959 1.61471 0.888036 -0.337188 -0.73306 -0.809614 -1.409634 -0.094797 -0.938314 1.210802 1.47048 2.210952 -1.933366 0.819087
-0.018853 -0.002551 0.033968 0.16503 -0.215563 -0.182974 -0.038488 -0.239149 -0.217481 0.060001 0.148081 0.22406 -0.082196 0.026232 0.069545 0.145171 0.003039 0.059152 0.163998 -0.07166 0.051914 0.029061 0.270428 0.113908 -0.05018 -0.267824 -0.022216 0.175303 0.101835 -0.164084 0.153946 0.106576 -0.077141 -0.005068 0.021427 -0.094384 0.163008 -0.057292 -0.062818 0.134489 0.037332 0.033104 0.092495 0.095431 0.042571 -0.094663 -0.079974 -0.052398 -0.087463 -0.015076 -0.008594 0.103657 -0.052513 -0.089393 -0.07789 0.082318 -0.062818 -0.080187 -0.029008 -0.212846 0.071314 -0.092865 0.123131 -0.177763 2.48E-4 -0.054044 0.046953 -0.015226 0.045295 0.09191 0.00974 0.097436 -0.043814 -0.079753 -0.098751 0.193253 0.057385 -0.146029 -0.11558 -0.075163 0.035175 0.116655 0.216791 -0.019977 0.066471 0.002392 0.091659 -0.120077 0.027913 -0.049029 0.001288 0.019374 -0.06297 0.161294 -0.085267 0.074004 0.084099 -0.12615 0.009865 -0.287975
-0.03565 -0.100696 -0.018209 0.141486 0.060372 0.092909 -0.015626 -0.002745 0.062568 0.036885 0.047103 0.182831 -0.129336 0.018142 0.103925 0.295781 -0.101293 0.02999 -0.077677 -0.058336 -0.055092 0.10057 0.13739 0.108688 -0.229841 0.003722 -0.051399 0.10737 0.081878 -0.100141 0.029502 -0.067911 -0.024437 0.031179 -0.046274 -0.124512 0.044924 -0.136048 -0.088552 0.155695 0.063187 0.009627 0.121183 0.132173 0.047165 -0.165771 -0.119729 0.020826 -0.002601 -0.036886 -0.042914 0.102129 -0.009303 0.125766 0.111736 0.094584 0.065628 -0.036816 0.144994 -0.085161 0.134878 -0.24026 -0.068417 0.019558 0.015414 0.135673 0.100891 0.02093 0.023804 -0.100704 -0.064668 0.022182 0.076249 0.027237 0.011886 -0.06533 -0.136987 -0.080291 -0.037063 -0.076144 0.066069 0.189403 0.122077 0.1833 -0.014154 -0.015402 0.134964 0.086471 0.096793 0.053529 -0.024095 -0.137494 0.084718 0.016831 -0.063593 -0.064013 0.124948 -0.102721 -0.027417 0.04525
-0.034238 -0.041665 0.152869 0.152548 0.182787 0.05396 -7.98E-4 0.081179 -0.167569 0.284827 0.170113 0.092621 -0.08855 -0.015238 0.038822 0.080514 0.122021 -0.006301 -0.062418 0.045718 -0.213906 -0.003208 0.070822 0.109566 -0.001184 -0.127211 -0.038258 0.096288 -0.019048 -0.122074 -0.030807 0.00694 0.048099 0.131181 -0.045731 -0.119788 0.02543 -0.213376 0.176084 -0.034568 -0.094969 -0.03084 -0.059543 0.235289 -0.09725 0.052311 -0.102592 0.017313 -0.054495 0.102375 -0.062571 -0.017355 -0.206674 -0.09112 -0.033321 0.104453 0.149495 0.027604 0.203617 -0.089626 0.279637 -0.013915 -0.044186 -0.075949 -0.222204 -0.145809 0.129575 -0.202463 0.003187 -0.207831 -0.260262 0.004904 -0.144663 -0.038978 -0.108494 -0.236411 -0.118636 0.20631 0.059713 0.134305 0.047756 0.052349 0.144291 0.020959 0.110975 -0.116829 -0.071629 -0.032654 0.250813 0.165446 0.174558 0.068286 -0.093128 0.036376 -0.081526 0.026484 0.050902 0.054647 -0.031453 -0.115233
-0.071956 -0.072219 0.083862 0.060665 -0.080085 0.078723 -0.069616 0.05335 0.043788 0.034378 0.225645 0.074229 0.027972 -0.179195 0.144397 0.254516 -0.083178 0.207286 0.060472 -0.114546 -0.015385 0.166527 0.161448 0.114054 -0.134621 -0.182618 -0.030868 0.106454 0.131954 -0.02516 -0.083842 0.01444 0.027508 0.056023 -0.11069 -0.195891 -0.005749 0.0086 0.014917 0.18614 -0.167064 0.244225 -0.016118 -0.210228 0.170206 -0.07213 -0.071719 0.041054 -0.147733 0.190354 0.195407 -0.210391 0.016652 0.147113 0.04072 -0.159501 -0.061748 0.014069 0.177935 -0.049395 0.097319 -0.110649 0.02462 -0.152305 -0.148293 -0.110663 0.140956 -0.12342 0.235656 -0.047903 -0.010387 -0.062168 0.067356 -0.058516 -0.01128 -0.20843 -0.057843 0.031986 -0.07261 -0.03872 -0.031284 0.035161 0.239734 -0.275272 0.060962 0.068256 0.040699 0.03362 0.056324 -0.057387 -0.074728 0.112215 -0.05984 0.132839 -8.41E-4 -0.075248 -0.003588 -0.015368 -0.050282 -0.108698
0.352905 0.550922 -1.128945 -0.511125 0.774489 1.405335 -0.371647 0.106012 -0.779785 -0.640302 -0.68578 1.570717 -0.712288 -0.706705 -0.789609 -0.045278 -1.599722 -2.840112 -0.089543 -1.158838 -1.862605 -0.62748 -0.063542 -0.468696 0.750564 0.033551 -0.772222 -0.188991 -0.163115 0.455978 0.038455 -0.779588 0.172303 -1.114448 -0.548246 -0.008155 1.66721 -0.744821 -0.15746 -2.668482 -0.304702 -0.905716 0.479063 0.151803 -0.94063 -0.044338 -0.906122 -0.456182 0.281891 0.268287 0.47007 0.628019 0.328428 1.471286 -2.345457 0.072073 -0.345477 -0.998199 -1.496897 -0.053061 0.351206 -0.934426 0.295591 0.07336 0.24092 0.486976 0.390085 -0.621556 0.375246 -0.02625 1.957847 1.014101 0.004675 0.08874 -0.900479 -0.462149 0.922254 1.355385 -1.048724 0.105897 1.254466 0.410718 0.321258 1.066395 -0.171761 -0.128774 0.315556 0.697301 -0.180925 0.555334 1.005586 -0.891677 -1.232923 -1.994189 -0.567812 0.204184 -0.947385 -0.051526 -0.987029 0.725141
-0.092552 -0.199349 0.118965 0.027354 0.021538 0.068149 -0.201468 0.007414 0.002766 0.201793 -0.0345 0.007474 0.012131 0.106481 0.096728 0.169729 -0.030872 0.162394 -0.002784 0.03841 0.034044 0.090496 0.006293 0.073455 -0.007646 0.035383 -0.02212 -0.005502 0.031527 -0.020014 -0.119839 -0.051548 -0.041613 0.104792 -0.012478 0.018829 0.040413 -0.051821 -0.002789 0.056058 -0.021362 0.145816 -0.019739 -0.070045 0.044906 -0.010163 0.070657 -0.027153 -0.055 -0.088972 -0.012373 -0.121015 -0.0437 0.164174 0.104172 0.038418 -0.09389 0.066257 0.117283 -0.102333 0.062291 0.032876 -0.073855 0.007867 0.008972 -0.040117 0.142053 -0.007323 0.081492 -0.163766 -0.055634 -0.09186 -0.066057 -0.204625 -0.046302 0.086974 -0.158976 -0.003153 0.050315 0.198017 0.038149 0.050275 -0.006354 -0.094462 0.064376 0.045311 -0.094558 0.107179 0.119388 0.004167 -0.074693 0.0946 -0.069478 -0.033194 -0.002026 0.038846 0.001974 0.029845 -0.074715 0.046874
-0.117823 -0.160458 0.121736 0.123422 -0.001691 -0.096458 -0.157911 0.00367 -0.127848 -0.06338 0.036451 0.169349 -0.038555 0.170693 0.09573 0.243971 0.101558 -0.029869 -0.04893 0.157672 -0.16287 0.027622 0.176999 -0.10619 -0.044149 0.10367 -0.063261 0.204181 0.226072 -0.036663 -0.096285 -0.119647 -0.189821 -0.033087 -0.201658 -0.106781 0.110835 -0.058273 0.048634 -0.025598 0.053846 -0.109869 0.103063 0.07567 -0.004121 0.091241 0.050323 -0.082804 -0.035348 0.037563 0.049552 -0.034702 -0.055748 -0.092435 -0.065471 0.013253 -0.060837 -0.037955 -0.016764 -0.170063 -0.166486 -0.239076 0.050847 -0.188102 0.039334 0.03112 0.247315 -0.065328 -0.011394 0.021363 -0.041548 -0.199754 -0.036474 0.150788 -0.040432 -0.158098 -0.109014 -0.001184 -0.137153 0.011996 0.077513 0.179773 0.072279 -0.180413 -0.103711 0.064415 0.055532 -0.269472 0.037845 0.123692 -0.142648 0.060644 -0.103275 0.080955 -0.057585 -0.051152 -0.019477 0.014641 -0.217365 -0.065343
-0.059803 -0.134661 -0.183059 0.219102 -0.055918 0.060729 -0.039226 -0.039665 -0.266213 0.034349 0.243197 0.030867 0.02818 0.05624 0.217469 0.201201 -0.151087 0.048411 0.027449 -0.12267 -0.187707 -0.039192 0.350178 0.027101 -0.095341 0.079077 -0.091333 -0.011405 0.194278 -0.121889 0.042629 -0.130207 -0.094861 0.144011 -0.016643 -0.099514 -0.036207 -0.127574 0.068076 0.132371 -0.133132 -0.082812 0.131189 0.130119 0.021909 0.038798 0.094914 -0.003866 -0.12379 0.226231 0.097172 -0.07913 -0.104375 0.100656 0.043058 -0.202176 0.057335 0.118239 0.006732 -0.162427 -0.06311 -0.055811 0.011332 -0.174994 0.007226 -0.03304 0.080406 -0.063198 0.1878 0.090041 -0.107024 -0.081993 0.001703 0.128203 -0.155079 -0.095188 -0.280582 -0.086955 -0.050782 -0.121522 -0.027708 -0.023237 0.097005 -0.113409 0.008709 -0.033223 -0.037761 0.0353 0.273541 0.006848 -0.172838 -0.004505 0.046339 0.041706 -0.117204 -0.086025 0.014317 0.061414 0.003723 0.009226
-0.38434 -0.570338 -3.334123 -0.990325 -0.281295 3.633702 1.320934 0.804616 -0.499895 -0.831205 0.460112 1.388349 -2.264975 3.215568 -3.90167 1.353361 -1.448904 -2.546085 -1.024352 -1.734034 -1.344124 0.93203 0.532723 0.23208 -0.507331 0.823317 0.659701 0.36019 1.191168 -0.162178 -0.263719 -1.148898 -0.733443 1.049014 -0.463284 0.424462 1.721949 -2.279087 -0.239497 -3.509027 0.274708 -0.478871 -0.254635 1.092364 -0.333634 -0.504492 -0.065145 -0.538987 0.565458 0.780359 -0.571438 2.952173 0.370658 -0.759209 -2.924849 1.720769 0.511283 1.62778 2.047539 0.727555 2.155394 -1.325505 -0.576841 2.155423 -1.025197 1.359344 -0.744288 -2.504187 -1.775349 1.348846 2.846446 1.640962 1.869469 1.38429 0.797755 -0.790083 2.739745 1.110482 1.051984 -1.114181 2.453474 -0.002451 -1.249565 3.986771 0.736882 -1.32782 1.044597 0.12676 2.039398 0.327395 0.179204 -1.66492 -0.55174 -2.138355 -3.629091 -1.09422 -3.320013 0.282001 -1.758182 -2.017416
-0.071467 0.09241 0.093054 0.022088 -0.020783 -0.049943 0.039033 -0.032935 0.11793 0.227922 0.072088 0.089867 0.031782 0.070693 0.019912 -0.006001 -0.083549 0.190851 -0.041653 0.058876 -0.081907 0.064478 -0.035396 -0.005546 0.088402 -0.172013 0.098473 0.048535 -0.13432 -0.080192 -0.015958 -0.09909 -0.186925 0.10453 -0.098171 -0.227143 0.03706 0.006324 0.067564 -0.065931 -0.195258 0.072984 0.071101 0.019767 -0.058542 0.011016 0.072513 0.005317 -0.019051 -0.037117 0.013952 -0.036223 -0.109823 0.042267 -0.110384 -0.201595 -0.03857 0.075589 0.116448 -0.01964 -0.021369 -0.084535 0.096905 -0.054398 -0.052366 -0.108927 0.05396 0.0154 0.201949 -0.134812 -0.013363 0.022458 -0.121895 -0.03651 0.014667 -0.171051 -0.203526 0.00795 -0.178799 -0.009211 0.030343 0.156114 -0.006663 -0.015936 -0.066805 0.023245 0.295312 -0.107383 0.151832 0.1447 -0.001011 0.020163 -0.043939 0.208479 -0.041544 -0.111444 0.134237 0.093998 -0.035548 -0.128426
-0.050363 -0.258281 -0.068611 -0.175147 0.117646 0.077499 -0.310398 0.018568 0.29629 0.117147 0.06998 0.082025 -0.121564 -0.046966 -0.092671 0.078897 0.13763 -0.058585 -0.081878 -0.251618 0.372252 0.173884 0.176302 -0.014071 0.049076 0.01501 0.098415 0.463621 0.33641 -0.132168 0.015219 -0.174777 -0.028137 -0.002378 0.113129 -0.106725 0.326472 0.081055 0.152803 -0.202709 -0.214696 -0.23732 0.120973 0.070428 0.008196 0.116119 -0.006979 -0.087558 0.070212 -0.400782 0.282722 -0.261437 -0.2593 0.115171 0.163387 -0.216589 0.027878 -0.062561 0.061128 -0.302734 -0.335713 0.042461 0.185655 -0.369901 0.097871 -0.156845 -0.349928 -0.073998 0.066544 -0.127055 0.065463 0.229339 0.090725 0.325882 0.016025 -0.079731 -0.024961 -0.379407 -0.079562 -0.481597 0.214699 0.18403 0.032966 -0.34426 -0.098291 -0.018924 0.196196 0.073275 -0.13629 -0.284119 -0.324332 0.084072 0.153637 0.152992 0.239289 -0.066501 -0.021158 0.244478 -0.160853 -0.015028
0.352905 0.550922 -1.128945 -0.511125 0.774489 1.405335 -0.371647 0.106012 -0.779785 -0.640302 -0.68578 1.570717 -0.712288 -0.706705 -0.789609 -0.045278 -1.599722 -2.840112 -0.089543 -1.158838 -1.862605 -0.62748 -0.063542 -0.468696 0.750564 0.033551 -0.772222 -0.188991 -0.163115 0.455978 0.038455 -0.779588 0.172303 -1.114448 -0.548246 -0.008155 1.66721 -0.744821 -0.15746 -2.668482 -0.304702 -0.905716 0.479063 0.151803 -0.94063 -0.044338 -0.906122 -0.456182 0.281891 0.268287 0.47007 0.628019 0.328428 1.471286 -2.345457 0.072073 -0.345477 -0.998199 -1.496897 -0.053061 0.351206 -0.934426 0.295591 0.07336 0.24092 0.486976 0.390085 -0.621556 0.375246 -0.02625 1.957847 1.014101 0.004675 0.08874 -0.900479 -0.462149 0.922254 1.355385 -1.048724 0.105897 1.254466 0.410718 0.321258 1.066395 -0.171761 -0.128774 0.315556 0.697301 -0.180925 0.555334 1.005586 -0.891677 -1.232923 -1.994189 -0.567812 0.204184 -0.947385 -0.051526 -0.987029 0.725141
-0.033812 -0.0273 -0.056352 0.087092 -0.058845 -0.090169 -0.017473 -0.01687 -0.144795 0.142931 -0.025396 0.13055 -0.011569 -0.087266 -0.039048 -0.090236 0.07652 0.02138 0.162056 0.091654 0.020441 0.113517 -0.006498 -0.066145 0.082367 -0.05768 -0.010747 0.079147 -0.014637 -0.162424 -0.002459 -0.184011 -0.064761 -0.029122 0.015407 4.85E-4 0.222393 -0.070165 -0.006767 -0.08209 0.050469 0.100776 0.145413 0.075652 0.002563 0.025912 0.031304 -0.083763 -0.097839 -0.056788 -0.273782 0.031381 0.035079 -0.055069 0.105709 -0.088347 0.127832 0.108079 -0.128125 0.032235 -0.025643 -0.061102 0.119075 -0.054822 -0.086676 -0.053712 0.151685 -0.094099 0.047275 -0.005133 0.024752 -0.111228 -0.063333 0.053515 -0.077346 0.055323 0.042686 0.027342 -0.224907 -0.055691 -0.116705 0.014032 0.11255 0.049303 -0.047242 0.005411 -0.008511 -0.046678 0.064731 0.066743 0.121945 -0.007946 0.04914 0.141499 -0.016214 -0.121305 0.018045 0.106421 -0.128774 -0.068788
-0.146522 -0.022987 0.010658 -0.047344 -0.24358 0.020582 0.089176 0.0198 0.03308 -0.065741 -0.079572 0.126084 0.027406 0.009514 0.227909 0.078131 0.051783 0.023053 0.018534 -0.050011 -0.085883 0.136953 0.09188 0.078324 -0.050044 -0.114454 -0.019624 -0.034836 0.131833 -0.033601 -0.130372 0.097126 0.038844 -0.026676 0.01107 -0.066441 0.071208 0.127948 -0.121942 0.033948 0.046978 0.038463 -0.019616 0.003228 0.021171 -0.004599 -0.095493 0.089126 -0.042987 0.156367 -0.074658 0.090794 -0.130507 -0.023058 0.074173 -0.085105 0.049307 -8.08E-4 0.060423 0.112684 0.108964 0.02396 -5.76E-4 0.064675 -0.094061 -0.099942 -0.040296 0.016181 0.157596 -0.106615 -0.096403 0.181129 -0.091262 0.086235 0.122767 -0.061758 -0.020469 0.09447 -0.013066 -0.156261 0.125834 0.150942 0.10128 -0.086336 0.050293 -0.078912 -0.176983 -0.060387 -0.06489 -0.023863 -0.238112 -0.0178 0.088199 -0.030526 -0.143069 -0.142435 0.108446 -0.004064 -0.180867 -0.003651
0.18543 0.639946 -0.371921 1.428703 -0.128251 -0.838224 -1.945542 -0.70162 0.368815 -1.139292 -0.650033 1.975726 -0.240649 -0.388942 -1.188958 1.401584 1.034086 0.285081 -1.168616 0.546976 -0.557594 -0.340113 1.025008 2.450774 1.019216 -0.445103 1.08934 0.06294 -0.446511 -1.865294 0.531707 0.718062 -0.871447 1.458405 -1.296844 -0.764787 0.452951 -0.803536 -2.023953 -2.058003 -1.501817 -2.062456 0.09809 -0.465523 0.088781 -0.326205 -0.14822 -1.972805 -0.996746 -0.849019 -1.603075 0.657788 0.286931 0.970966 1.741293 -0.427458 0.681494 1.038253 -2.409209 0.030351 -0.046955 -0.460385 0.832283 -0.910134 -2.954842 -0.602401 -0.733592 -0.91774 -0.809522 0.097156 1.076162 0.485115 1.428753 -0.466407 -1.773238 0.250906 -0.35376 -0.191266 -0.508354 2.056731 2.620586 0.353335 1.71418 -2.873516 -0.569074 0.431324 0.801339 0.16321 0.096234 0.588166 1.283237 -3.428744 0.558864 -2.765893 0.506802 0.223642 1.64783 -3.078774 -1.620197 2.808872
0.135717 -0.065497 0.02281 0.048052 -0.011836 -0.09375 0.0016 -0.035631 -0.026011 -0.016446 0.147576 0.093555 -0.033806 0.001119 0.136647 0.086354 -0.119676 0.293363 0.140583 -0.140273 0.092999 0.105554 0.007309 -0.047042 -0.138044 -0.144529 -0.090671 0.023305 0.042831 -0.089424 -0.009516 -0.050607 -0.11973 0.043476 -0.110033 -0.070775 0.210602 -0.044688 0.047415 0.07877 -0.058849 0.123783 -0.083304 0.146343 -0.016713 -0.014302 -0.083131 -0.029171 -0.052871 0.027786 -0.056479 -0.019677 -0.067362 0.060823 0.051262 -0.094924 0.099503 0.030649 0.106531 -0.086298 0.023543 -0.100214 0.036796 -0.033757 -0.018593 0.054249 -0.041703 -0.048402 0.151764 -0.052203 -0.028287 0.059596 0.03622 0.059919 0.042116 -0.083798 0.077838 -0.039275 -0.10326 -0.058138 -0.047792 -0.041267 0.071076 -0.034964 0.077873 0.115244 -0.016893 -0.059243 0.145701 -0.018047 -0.084552 -0.05323 0.136246 0.034465 0.051731 -0.033088 0.142559 -0.100828 -0.127029 -0.153227
2.809855 1.009412 0.94343 1.544684 0.544564 0.087284 -0.684203 -0.082485 -0.694522 1.556062 1.820093 1.795097 0.884928 0.963959 1.420965 0.313928 1.387518 -1.113785 0.307393 1.406522 -2.658572 -0.160191 0.596558 -2.313841 2.954149 -0.608729 -0.74349 2.127958 1.819164 -0.272653 0.140202 -2.541603 -0.708639 0.223918 -1.159334 1.444948 3.868885 -2.189695 0.845188 -0.960782 -0.81962 -1.01929 0.967494 0.375775 1.719697 0.651461 1.212371 1.578134 0.357013 -0.860463 -0.654301 0.404197 -0.372842 1.92E-4 -0.911776 0.272229 -0.390889 1.555736 1.348515 -0.585475 -2.077742 -1.91822 0.70653 0.58583 0.468001 0.877862 1.040527 -1.422554 -2.079681 -0.676662 0.148283 -1.757912 -2.491596 1.163048 -1.102067 -0.313047 -1.105246 0.882302 -1.171823 1.789568 -1.507679 1.913874 0.883243 -0.387622 2.702718 -0.123736 1.187483 -0.640056 2.02202 0.740931 1.949255 -0.625673 0.101529 -0.87607 1.142678 -0.510771 0.342136 1.085564 -1.364342 0.455168
0.352905 0.550922 -1.128945 -0.511125 0.774489 1.405335 -0.371647 0.106012 -0.779785 -0.640302 -0.68578 1.570717 -0.712288 -0.706705 -0.789609 -0.045278 -1.599722 -2.840112 -0.089543 -1.158838 -1.862605 -0.62748 -0.063542 -0.468696 0.750564 0.033551 -0.772222 -0.188991 -0.163115 0.455978 0.038455 -0.779588 0.172303 -1.114448 -0.548246 -0.008155 1.66721 -0.744821 -0.15746 -2.668482 -0.304702 -0.905716 0.479063 0.151803 -0.94063 -0.044338 -0.906122 -0.456182 0.281891 0.268287 0.47007 0.628019 0.328428 1.471286 -2.345457 0.072073 -0.345477 -0.998199 -1.496897 -0.053061 0.351206 -0.934426 0.295591 0.07336 0.24092 0.486976 0.390085 -0.621556 0.375246 -0.02625 1.957847 1.014101 0.004675 0.08874 -0.900479 -0.462149 0.922254 1.355385 -1.048724 0.105897 1.254466 0.410718 0.321258 1.066395 -0.171761 -0.128774 0.315556 0.697301 -0.180925 0.555334 1.005586 -0.891677 -1.232923 -1.994189 -0.567812 0.204184 -0.947385 -0.051526 -0.987029 0.725141
0.052687 -0.094779 0.04526 -0.207528 -0.074576 0.184413 -0.03112 -0.050556 -0.089042 -0.140813 -0.072193 0.111928 -0.055626 0.045963 0.118035 0.136257 0.030936 0.097841 0.02917 0.009839 -0.006452 -0.07544 -0.038203 -0.07374 -0.062022 -0.330378 0.020643 0.180756 0.018391 -0.00134 0.007262 -0.050966 0.063713 0.012535 0.170501 -0.029892 0.025933 -0.021042 0.19393 0.142947 -0.069315 0.107305 -0.046395 0.025969 -0.03612 -0.192691 0.045766 -0.090737 0.141252 -0.03869 0.122213 0.213157 -0.047325 0.022274 -0.066918 0.170287 -0.090034 0.001261 -0.0548 -0.10905 0.130025 -0.038176 0.07848 -0.065921 -0.025797 0.079342 -0.093511 0.063147 0.025256 0.155678 -0.027079 -0.02401 -0.002523 0.011717 -0.121863 -0.015069 0.026179 0.123954 0.009084 -0.172461 0.002029 0.007429 0.032307 0.087162 0.027599 0.043687 -0.127422 -0.068381 0.152194 0.254764 -0.120966 0.150395 -0.055342 -0.010611 0.142742 -0.013964 -7.76E-4 -0.033062 -0.048795 0.043252
-0.128721 -0.020717 -0.03651 0.229706 0.051809 0.224327 0.123493 -0.038363 -0.063055 0.133587 0.069802 0.253002 0.135808 0.134685 -0.183566 0.161938 -0.071543 -0.060325 0.096975 0.111357 -0.135095 0.136486 -0.042982 -0.168204 0.178548 -0.135189 -0.098937 0.248464 0.105809 -0.012574 -0.092208 -0.148274 -0.138621 0.130555 -0.211548 -0.067794 0.168902 -0.138029 0.076011 -0.134448 0.043642 0.030261 0.118017 0.020174 0.104538 0.081722 0.022119 0.006976 -0.136463 0.003213 -0.13625 -0.119046 -0.15545 0.038575 0.011051 -0.096325 0.00649 -0.069671 0.152018 -0.110598 -0.075381 -0.047279 -0.020438 -0.09987 -0.090597 -0.122285 -0.03943 -0.115171 0.12068 -0.182765 0.094394 0.016552 -0.029941 -0.070159 -0.060483 0.024403 -0.015144 0.075776 -0.041238 0.116011 -0.063014 0.032542 -0.044304 0.078091 -0.118008 -0.041363 0.110233 -0.021164 0.091178 0.117985 0.072149 -0.036737 -0.172187 -0.081211 -0.091472 -0.030862 0.160934 0.157104 0.099529 0.069457
-0.001869 -0.071124 -0.056942 -0.080621 0.020881 -0.153618 -0.054409 -0.001507 -0.058696 -0.076676 0.045071 -0.061449 0.05267 -0.136061 -0.00859 0.053973 -0.064466 0.082151 0.051975 0.044502 0.002055 -0.059495 0.041384 0.06425 -0.047371 -0.017485 0.027058 0.140939 0.103694 -0.144041 -0.102676 -0.151311 -0.082957 0.110198 0.115675 -0.064003 0.279648 -0.010062 -0.030638 0.010929 0.348887 -0.004713 -0.02258 0.041016 -0.1082 -0.010868 -0.075177 -0.007863 -0.125511 0.069994 -0.038417 0.031858 -0.125015 -0.035132 -0.063396 -0.004026 0.085508 0.061825 -0.036377 -0.072057 -0.051895 0.028024 -0.104227 0.002684 0.015483 0.076374 -0.119477 -0.054051 0.047189 0.107677 -0.045784 0.100375 0.152492 -0.097527 0.027916 0.069456 0.07552 -0.152919 -0.115447 -0.041765 0.040866 -0.02643 0.107185 0.045811 0.012949 -0.040632 0.031889 0.1827 0.086078 -0.10599 0.042661 -0.047947 -0.078111 0.121932 0.102813 -0.002451 0.119241 -0.059388 0.118373 0.099207
0.0 0.0 0.0 0.0 0.0 0.0 0.0 0.0 0.0 0.0 0.0 0.0 0.0 0.0 0.0 0.0 0.0 0.0 0.0 0.0 0.0 0.0 0.0 0.0 0.0 0.0 0.0 0.0 0.0 0.0 0.0 0.0 0.0 0.0 0.0 0.0 0.0 0.0 0.0 0.0 0.0 0.0 0.0 0.0 0.0 0.0 0.0 0.0 0.0 0.0 0.0 0.0 0.0 0.0 0.0 0.0 0.0 0.0 0.0 0.0 0.0 0.0 0.0 0.0 0.0 0.0 0.0 0.0 0.0 0.0 0.0 0.0 0.0 0.0 0.0 0.0 0.0 0.0 0.0 0.0 0.0 0.0 0.0 0.0 0.0 0.0 0.0 0.0 0.0 0.0 0.0 0.0 0.0 0.0 0.0 0.0 0.0 0.0 0.0 0.0
-0.215064 -0.17042 -0.120812 0.089947 -0.036376 0.052865 -0.030406 0.019064 0.040386 0.014161 -0.033408 0.096506 -0.167334 -0.03979 -0.013549 0.090914 0.024449 0.127827 0.166226 0.088992 -0.008907 -0.011235 0.045082 0.20572 -0.196179 -0.107524 -0.205158 -0.059713 0.194187 -0.196849 -0.021253 0.04835 0.047147 0.073836 -0.050513 -0.135152 -0.06882 0.005957 -0.011411 0.006593 0.004096 0.112457 -0.06692 0.029218 -0.03084 -0.078429 -0.065985 -0.024935 -0.13219 0.110482 -0.020616 0.088724 -0.208424 0.057908 -0.120792 0.039158 -0.069635 0.028638 -0.061949 -0.174019 0.149461 -0.062419 0.017575 -0.208998 0.066765 -0.010153 0.010557 -0.042797 0.050899 0.016143 -0.076766 0.122914 0.00191 -0.117188 0.092918 -0.136493 -0.01047 0.048717 -0.027291 -0.025392 0.042185 0.138432 0.121585 -0.00964 0.109381 0.165499 -0.095652 0.103752 -0.00449 0.018413 -0.076726 -0.055966 0.083442 0.137556 -0.009179 -0.050784 -0.002494 -0.116751 -0.007653 0.119654
-0.034238 -0.041665 0.152869 0.152548 0.182787 0.05396 -7.98E-4 0.081179 -0.167569 0.284827 0.170113 0.092621 -0.08855 -0.015238 0.038822 0.080514 0.122021 -0.006301 -0.062418 0.045718 -0.213906 -0.003208 0.070822 0.109566 -0.001184 -0.127211 -0.038258 0.096288 -0.019048 -0.122074 -0.030807 0.00694 0.048099 0.131181 -0.045731 -0.119788 0.02543 -0.213376 0.176084 -0.034568 -0.094969 -0.03084 -0.059543 0.235289 -0.09725 0.052311 -0.102592 0.017313 -0.054495 0.102375 -0.062571 -0.017355 -0.206674 -0.09112 -0.033321 0.104453 0.149495 0.027604 0.203617 -0.089626 0.279637 -0.013915 -0.044186 -0.075949 -0.222204 -0.145809 0.129575 -0.202463 0.003187 -0.207831 -0.260262 0.004904 -0.144663 -0.038978 -0.108494 -0.236411 -0.118636 0.20631 0.059713 0.134305 0.047756 0.052349 0.144291 0.020959 0.110975 -0.116829 -0.071629 -0.032654 0.250813 0.165446 0.174558 0.068286 -0.093128 0.036376 -0.081526 0.026484 0.050902 0.054647 -0.031453 -0.115233
-0.124027 -0.146192 0.110446 0.167014 -0.132063 -0.083549 -0.362299 0.019413 0.028067 0.197829 0.1276 0.172165 0.069193 0.022562 0.13836 0.374531 -0.004679 0.222801 0.067552 0.003809 -0.21188 0.221622 0.239026 0.126353 -0.177105 -0.043298 -0.053846 -0.135427 0.234614 -0.186004 -0.115101 -0.138071 -0.151772 -0.041524 -0.066991 -0.059708 0.228196 0.04198 0.127909 0.116597 -0.044687 0.044315 0.124845 0.044947 0.123753 -0.087718 -0.037223 0.102201 -0.23895 0.150269 0.121066 -0.237046 0.084026 0.130578 0.260761 -0.119769 0.154304 -0.10574 0.125192 0.026286 0.110096 -0.15472 0.007161 -0.039927 -0.195351 -0.126475 0.048912 -0.066663 0.12356 -0.131391 -0.112496 0.032618 0.025855 -0.139153 0.031818 -0.148178 -0.130738 -0.112917 -0.065144 -0.00429 0.068877 0.050092 0.160883 -0.123748 -0.024911 0.08121 0.165089 -0.015778 0.204034 -0.003414 -0.211206 -0.062686 -0.126181 0.362925 -0.112037 -0.1317 0.102936 -0.155081 -0.146354 0.087201
-0.018853 -0.002551 0.033968 0.16503 -0.215563 -0.182974 -0.038488 -0.239149 -0.217481 0.060001 0.148081 0.22406 -0.082196 0.026232 0.069545 0.145171 0.003039 0.059152 0.163998 -0.07166 0.051914 0.029061 0.270428 0.113908 -0.05018 -0.267824 -0.022216 0.175303 0.101835 -0.164084 0.153946 0.106576 -0.077141 -0.005068 0.021427 -0.094384 0.163008 -0.057292 -0.062818 0.134489 0.037332 0.033104 0.092495 0.095431 0.042571 -0.094663 -0.079974 -0.052398 -0.087463 -0.015076 -0.008594 0.103657 -0.052513 -0.089393 -0.07789 0.082318 -0.062818 -0.080187 -0.029008 -0.212846 0.071314 -0.092865 0.123131 -0.177763 2.48E-4 -0.054044 0.046953 -0.015226 0.045295 0.09191 0.00974 0.097436 -0.043814 -0.079753 -0.098751 0.193253 0.057385 -0.146029 -0.11558 -0.075163 0.035175 0.116655 0.216791 -0.019977 0.066471 0.002392 0.091659 -0.120077 0.027913 -0.049029 0.001288 0.019374 -0.06297 0.161294 -0.085267 0.074004 0.084099 -0.12615 0.009865 -0.287975
-0.169949 0.062969 -0.005058 0.034079 -0.195061 -0.186425 -0.120148 0.114214 -0.172629 0.071775 -0.074067 0.077602 0.245547 0.101466 -0.300534 0.276771 0.184104 0.197986 0.101433 0.089952 -0.109521 0.213557 -0.080092 -0.008027 0.183745 0.097682 0.17445 -0.190341 -0.025884 -0.190932 0.034177 0.050757 0.165954 -0.056026 -0.081951 0.259027 -0.009197 -0.092339 0.074079 0.155459 -0.028199 0.062652 0.056711 -0.186948 -0.009951 -0.160196 0.130894 0.084146 -0.100499 -0.160797 0.006356 -0.005314 -0.046751 0.174471 0.16732 -0.150012 0.088724 0.013017 0.102028 -0.056882 0.290233 -0.088793 0.052273 -0.048954 -0.141211 0.017955 -0.070045 -0.203337 0.19275 0.181601 -0.222043 -0.003184 0.049746 0.013357 0.074383 0.00619 0.011374 0.081649 0.087685 0.039218 0.245257 0.259617 0.209281 0.219441 0.061398 -0.214662 -0.359377 0.038719 -0.085723 0.228113 -0.129455 -0.299833 -0.034297 -0.139213 0.011224 -0.009886 -0.075011 -0.224261 0.017617 0.031357
0.0972 0.060579 0.117293 -0.202096 -0.089862 0.024763 0.005089 0.004079 0.007985 0.144041 -0.054401 0.09307 0.038542 -0.004852 0.211995 0.013752 -0.099819 0.097741 0.13614 -0.002923 -0.0257 -0.079257 -0.031068 0.012223 -0.006406 -0.255687 0.071381 -0.176058 0.082438 -0.063317 0.032536 0.069288 -0.015503 0.261136 0.039054 -0.081687 0.165252 -0.033799 -0.098127 -0.126378 -0.009946 -0.019758 0.039029 0.102287 -0.079725 0.00649 -0.079638 9.64E-4 0.051139 0.0355 0.132383 0.004917 -0.214829 0.082056 -0.213902 0.005721 0.080049 -0.115337 0.072084 0.043987 0.205884 0.051381 0.039724 -0.051207 0.266747 0.062144 0.094061 0.082455 0.172966 -0.043125 -0.126674 0.118468 -0.051036 -0.00868 0.126355 0.084185 -0.066546 -0.023359 0.031068 0.021727 0.028946 0.216568 0.08098 -0.020826 -0.057303 0.092636 -0.046247 -0.049064 0.082735 0.114856 -0.040997 -0.140432 -0.055462 -0.049679 -0.108838 -0.204997 0.005775 0.048801 0.132315 -0.02314
0.058385 -0.042103 0.015513 0.085219 0.085334 0.03453 -0.132582 -0.147895 0.001949 0.045992 0.009886 0.079436 -0.127091 0.086838 0.083066 0.146186 0.036403 0.202052 0.121553 0.121943 0.035472 0.002251 0.152195 -0.038695 -0.074278 -0.136442 0.069634 0.050072 -0.017866 -0.177187 -0.006309 -0.125321 -0.069357 0.122537 -0.029201 -0.025266 0.086686 -0.019119 0.117341 0.018968 -0.015469 -0.054106 -0.025536 0.096877 0.030517 -0.210851 0.076649 -0.038028 0.002918 -0.065916 0.1361 -0.093747 -0.173822 -0.105082 0.060415 -0.039095 -0.085307 0.040963 -0.01561 -0.220253 -0.056752 -0.079403 0.062761 -0.0762 -0.028788 -0.026447 -0.103767 0.008131 0.117128 0.060752 0.049034 0.026153 0.076717 -0.030271 0.192819 -0.007104 0.020562 -0.067074 0.023466 -0.108815 -0.045718 0.139301 0.085032 -0.084427 -0.020138 0.025922 0.119711 0.024943 0.174725 0.207127 -0.036201 -0.097396 -0.067242 0.06091 -0.092659 0.038251 -0.009053 0.088688 -0.149699 0.011731
-0.001869 -0.071124 -0.056942 -0.080621 0.020881 -0.153618 -0.054409 -0.001507 -0.058696 -0.076676 0.045071 -0.061449 0.05267 -0.136061 -0.00859 0.053973 -0.064466 0.082151 0.051975 0.044502 0.002055 -0.059495 0.041384 0.06425 -0.047371 -0.017485 0.027058 0.140939 0.103694 -0.144041 -0.102676 -0.151311 -0.082957 0.110198 0.115675 -0.064003 0.279648 -0.010062 -0.030638 0.010929 0.348887 -0.004713 -0.02258 0.041016 -0.1082 -0.010868 -0.075177 -0.007863 -0.125511 0.069994 -0.038417 0.031858 -0.125015 -0.035132 -0.063396 -0.004026 0.085508 0.061825 -0.036377 -0.072057 -0.051895 0.028024 -0.104227 0.002684 0.015483 0.076374 -0.119477 -0.054051 0.047189 0.107677 -0.045784 0.100375 0.152492 -0.097527 0.027916 0.069456 0.07552 -0.152919 -0.115447 -0.041765 0.040866 -0.02643 0.107185 0.045811 0.012949 -0.040632 0.031889 0.1827 0.086078 -0.10599 0.042661 -0.047947 -0.078111 0.121932 0.102813 -0.002451 0.119241 -0.059388 0.118373 0.099207
0.135717 -0.065497 0.02281 0.048052 -0.011836 -0.09375 0.0016 -0.035631 -0.026011 -0.016446 0.147576 0.093555 -0.033806 0.001119 0.136647 0.086354 -0.119676 0.293363 0.140583 -0.140273 0.092999 0.105554 0.007309 -0.047042 -0.138044 -0.144529 -0.090671 0.023305 0.042831 -0.089424 -0.009516 -0.050607 -0.11973 0.043476 -0.110033 -0.070775 0.210602 -0.044688 0.047415 0.07877 -0.058849 0.123783 -0.083304 0.146343 -0.016713 -0.014302 -0.083131 -0.029171 -0.052871 0.027786 -0.056479 -0.019677 -0.067362 0.060823 0.051262 -0.094924 0.099503 0.030649 0.106531 -0.086298 0.023543 -0.100214 0.036796 -0.033757 -0.018593 0.054249 -0.041703 -0.048402 0.151764 -0.052203 -0.028287 0.059596 0.03622 0.059919 0.042116 -0.083798 0.077838 -0.039275 -0.10326 -0.058138 -0.047792 -0.041267 0.071076 -0.034964 0.077873 0.115244 -0.016893 -0.059243 0.145701 -0.018047 -0.084552 -0.05323 0.136246 0.034465 0.051731 -0.033088 0.142559 -0.100828 -0.127029 -0.153227
-0.15076 -0.313281 -0.086859 -0.410626 0.230264 0.012265 -0.132295 0.037431 -0.204195 0.08555 0.079366 0.084462 0.264731 -0.049813 -0.121508 0.026185 0.094102 0.105683 0.018708 0.113258 -0.098815 0.045227 0.283036 -0.204198 -0.016261 -0.54824 0.045065 0.237257 0.021751 -0.02637 0.208271 -0.477691 -0.180499 0.22549 0.170921 -0.013617 0.066778 0.079094 0.29607 -0.186309 -0.058882 -0.035127 0.197366 0.104279 -0.052908 0.172827 0.051935 -0.119441 0.107414 0.301821 0.216631 -0.198783 -0.372878 -0.319446 0.071417 -0.1388 0.061083 -0.319849 -0.022041 -0.023448 -0.287672 0.141685 0.020549 -0.268048 0.11579 -0.003929 0.065243 -0.274617 -0.004933 -0.429247 -0.019458 -0.140447 -0.296493 0.077709 -0.023278 -0.099675 -0.332744 0.32437 -0.394409 0.373732 0.100249 0.164709 -0.032149 -5.05E-4 -0.115623 -0.14788 -0.095141 -0.063471 0.220374 0.08281 0.199079 0.267816 -0.084469 -0.138346 -0.21379 -0.136049 0.099072 -0.021628 0.096084 -0.003
0.009767 0.094501 0.128462 -0.211422 -0.08871 0.149222 -0.214873 -0.060891 -0.112727 0.229677 -0.037279 0.073413 0.018201 -0.136698 0.051607 0.162942 -0.089808 0.014062 0.067488 0.043698 -0.258138 -0.042683 0.065405 0.070577 -0.126778 -0.241913 0.071778 0.164164 0.16586 0.244244 -0.174431 0.040613 0.044707 -0.056082 0.032334 0.125933 0.111662 0.087262 0.456268 0.070351 -0.222929 0.019812 -0.029103 0.08246 -0.002825 -0.087671 -0.110305 0.106622 -0.051014 0.122964 -0.001871 0.084245 0.211125 0.033891 -0.355869 -0.04752 0.038303 -0.236281 0.026681 -0.108978 -0.194164 0.207026 0.205204 -0.254915 0.170099 -0.092432 0.206089 -0.131 0.3534 -0.017563 0.211128 -0.133625 -0.072134 0.027397 0.128675 -0.530532 -0.07545 -0.018345 -0.002204 0.080878 0.084735 0.039444 -0.072029 -0.048161 -0.207044 0.105433 0.037711 -0.043828 0.064911 0.084606 0.163414 0.079032 -0.067817 -0.119363 -0.00902 0.217788 -0.130816 -0.084278 -0.200888 0.0608
0.352905 0.550922 -1.128945 -0.511125 0.774489 1.405335 -0.371647 0.106012 -0.779785 -0.640302 -0.68578 1.570717 -0.712288 -0.706705 -0.789609 -0.045278 -1.599722 -2.840112 -0.089543 -1.158838 -1.862605 -0.62748 -0.063542 -0.468696 0.750564 0.033551 -0.772222 -0.188991 -0.163115 0.455978 0.038455 -0.779588 0.172303 -1.114448 -0.548246 -0.008155 1.66721 -0.744821 -0.15746 -2.668482 -0.304702 -0.905716 0.479063 0.151803 -0.94063 -0.044338 -0.906122 -0.456182 0.281891 0.268287 0.47007 0.628019 0.328428 1.471286 -2.345457 0.072073 -0.345477 -0.998199 -1.496897 -0.053061 0.351206 -0.934426 0.295591 0.07336 0.24092 0.486976 0.390085 -0.621556 0.375246 -0.02625 1.957847 1.014101 0.004675 0.08874 -0.900479 -0.462149 0.922254 1.355385 -1.048724 0.105897 1.254466 0.410718 0.321258 1.066395 -0.171761 -0.128774 0.315556 0.697301 -0.180925 0.555334 1.005586 -0.891677 -1.232923 -1.994189 -0.567812 0.204184 -0.947385 -0.051526 -0.987029 0.725141
-0.118476 -0.04167 -0.144589 0.077897 -0.146359 0.192961 0.016847 -0.07468 0.024566 0.111634 0.161126 0.079183 -0.028035 -0.050645 0.090831 0.077661 0.038459 -0.002215 0.20069 -0.032015 -0.137321 0.15168 0.167697 0.135032 -0.030446 -0.228989 0.172346 0.042406 0.121038 -0.094879 0.074711 -0.199526 -0.185703 0.135255 0.116383 -0.108573 0.057518 -0.033374 0.060653 0.0347 -0.114637 0.077184 -0.018761 -0.027522 -0.030543 -0.068828 -0.024779 -0.039233 -0.177449 0.024778 0.040914 0.122806 -0.139117 0.081217 -0.12766 -0.026321 -0.059682 -0.038614 0.022477 -0.047471 0.110001 -0.157222 0.034649 4.55E-4 -0.109482 0.149134 0.01421 0.037072 0.213012 -0.154783 0.047862 -0.070347 0.005621 -0.167894 0.038515 -0.169834 -0.342311 0.13937 -0.112157 0.073539 -8.11E-4 0.116803 0.058896 -0.112717 0.018163 -0.017403 0.011638 0.014638 0.06071 -0.024688 0.070481 0.102754 -0.017826 0.07339 -0.131284 -0.01014 0.278232 -0.068494 -0.202807 -0.026865
-0.232448 0.093694 0.085966 0.059919 -0.174538 0.135895 0.135373 0.089234 -0.143143 0.038263 0.181667 0.053368 -0.196888 6.92E-4 -0.077759 0.235765 -0.031021 -0.122976 0.133676 0.180206 0.198723 -0.014811 0.104729 -0.110631 0.113099 -0.234566 -0.043369 -0.090533 0.38328 0.021076 -0.140526 -0.028096 0.037033 0.006987 -0.107424 -0.092813 -0.080804 -0.137589 0.13218 -0.124743 -0.047148 0.031002 0.215577 0.012217 0.056011 -0.125665 0.042296 0.187308 -0.021524 -0.036526 0.02785 -0.017673 -0.19137 -0.081408 -0.066969 -0.09588 -0.040875 -0.09838 -0.064325 -0.115638 0.063035 0.071102 -0.133652 -0.094848 -0.059296 -0.133103 -0.087119 0.136312 0.173531 -0.057106 -0.1038 0.163987 0.025696 -0.034936 0.005184 -0.045738 -0.113316 0.063398 -0.030003 -0.186217 0.059817 0.171118 -0.062088 -0.17105 0.089287 0.083458 -0.01088 -0.072847 0.070045 0.15425 -0.063157 0.015821 -0.098541 -0.002964 0.101361 -0.205664 0.178501 0.080755 -0.041053 -0.080314
-0.239574 -0.081542 0.155301 0.179255 -0.218122 -0.065349 -0.009624 -0.154342 0.190967 0.242988 0.029917 0.11479 0.031026 -0.21431 -0.005564 0.275584 -1.0E-4 0.127029 0.043172 0.099421 0.029775 0.017643 0.141125 0.164963 -0.177973 -0.114412 -0.055521 -0.194115 -0.099595 -0.087527 0.037765 0.100888 -0.078222 0.003349 -0.030696 -0.176715 -0.188236 -0.013714 -0.08485 0.027499 0.02903 0.391738 -0.101376 -0.055966 -0.110232 -0.151672 -0.115203 -0.027651 -0.200107 -0.211428 0.272733 0.020826 -0.165801 0.026961 -0.062552 -0.140183 -0.09168 -0.054813 -0.092221 0.022126 0.08371 -0.127002 -0.087066 -0.053034 -0.023501 0.040777 0.053635 0.089571 -0.019221 -0.324837 -0.302347 0.016855 0.049671 -0.138527 0.014008 -0.125773 0.040111 -0.26591 -0.033512 0.029008 0.02954 0.210263 0.092513 -0.040631 -0.041897 -0.135009 0.09911 0.066292 -0.007757 0.018608 0.053713 0.039982 0.018555 0.134111 -0.015158 -0.084051 0.08305 -0.175712 -0.014617 -0.055672
-0.024322 -0.303699 6.57E-4 0.124013 0.096642 0.042796 0.078399 -0.043308 -0.039367 -0.030939 0.02516 -0.029414 -0.115077 -0.307309 0.071962 0.11219 -0.082688 -0.069067 0.068999 0.016192 -0.028041 0.198763 -0.032337 -0.011087 0.091512 -0.048044 -0.113547 0.011122 -0.004473 -0.060547 -0.104108 -0.030799 -0.092209 0.08433 -0.070757 -0.066028 0.039562 -0.090053 0.080573 -0.071696 -0.060823 -0.075948 0.110598 0.160809 0.022521 -0.159859 -0.015239 0.115199 -0.12507 -0.04408 -0.085618 0.011849 -0.15078 -0.064003 -0.050593 0.048569 0.072066 -0.039631 0.166476 0.071693 0.031732 0.025521 -0.155724 0.012469 0.070119 0.15155 0.003252 -0.071969 0.157402 -0.06635 -0.072398 0.026004 -0.136485 0.076075 0.056589 -0.064894 -0.249087 0.124056 0.065084 -0.085369 0.043376 -0.165438 -0.007667 0.039438 -0.106483 0.116727 -0.184719 -0.086273 0.029854 -0.045885 0.074966 -0.040103 0.001017 -0.194468 0.035261 -0.224162 0.096102 -0.025166 -0.050546 -0.067245
0.120117 -0.087664 0.210399 0.013633 0.040333 0.040153 -0.269017 -0.173333 -0.020729 0.260237 0.024589 0.075378 -0.027838 -0.023106 0.202631 0.049812 0.018536 0.217535 -0.065181 0.03023 -0.058371 0.155632 0.203892 0.103966 -0.040067 -0.30124 -0.033368 0.166974 0.038301 -0.260993 0.056415 0.155232 -0.064586 0.133549 -0.198316 -0.147949 0.081507 -0.146554 -0.00893 -0.099365 -0.043985 0.195297 0.056303 0.185808 0.001978 -0.027352 -0.072244 -0.152476 -0.150252 0.082945 0.072753 -0.067242 -0.175225 -0.05748 0.073569 -0.170684 -0.043616 0.174797 0.090388 -0.089149 0.096456 -0.121038 -0.069636 -0.248847 -0.116139 0.045813 0.306741 -0.037658 0.118634 -0.04807 -0.103082 0.068797 -0.004584 0.086211 0.076773 -0.106753 -0.258357 -0.012259 -0.079165 -0.083608 -0.129632 0.022007 0.089962 -0.102145 0.017842 -6.69E-4 -0.05344 -0.035431 0.09895 0.235111 -0.145825 -0.055153 0.034876 0.175085 -0.154595 -0.100967 0.0804 0.069111 -0.128485 -0.183308
-0.001869 -0.071124 -0.056942 -0.080621 0.020881 -0.153618 -0.054409 -0.001507 -0.058696 -0.076676 0.045071 -0.061449 0.05267 -0.136061 -0.00859 0.053973 -0.064466 0.082151 0.051975 0.044502 0.002055 -0.059495 0.041384 0.06425 -0.047371 -0.017485 0.027058 0.140939 0.103694 -0.144041 -0.102676 -0.151311 -0.082957 0.110198 0.115675 -0.064003 0.279648 -0.010062 -0.030638 0.010929 0.348887 -0.004713 -0.02258 0.041016 -0.1082 -0.010868 -0.075177 -0.007863 -0.125511 0.069994 -0.038417 0.031858 -0.125015 -0.035132 -0.063396 -0.004026 0.085508 0.061825 -0.036377 -0.072057 -0.051895 0.028024 -0.104227 0.002684 0.015483 0.076374 -0.119477 -0.054051 0.047189 0.107677 -0.045784 0.100375 0.152492 -0.097527 0.027916 0.069456 0.07552 -0.152919 -0.115447 -0.041765 0.040866 -0.02643 0.107185 0.045811 0.012949 -0.040632 0.031889 0.1827 0.086078 -0.10599 0.042661 -0.047947 -0.078111 0.121932 0.102813 -0.002451 0.119241 -0.059388 0.118373 0.099207
0.0 0.0 0.0 0.0 0.0 0.0 0.0 0.0 0.0 0.0 0.0 0.0 0.0 0.0 0.0 0.0 0.0 0.0 0.0 0.0 0.0 0.0 0.0 0.0 0.0 0.0 0.0 0.0 0.0 0.0 0.0 0.0 0.0 0.0 0.0 0.0 0.0 0.0 0.0 0.0 0.0 0.0 0.0 0.0 0.0 0.0 0.0 0.0 0.0 0.0 0.0 0.0 0.0 0.0 0.0 0.0 0.0 0.0 0.0 0.0 0.0 0.0 0.0 0.0 0.0 0.0 0.0 0.0 0.0 0.0 0.0 0.0 0.0 0.0 0.0 0.0 0.0 0.0 0.0 0.0 0.0 0.0 0.0 0.0 0.0 0.0 0.0 0.0 0.0 0.0 0.0 0.0 0.0 0.0 0.0 0.0 0.0 0.0 0.0 0.0
-0.034238 -0.041665 0.152869 0.152548 0.182787 0.05396 -7.98E-4 0.081179 -0.167569 0.284827 0.170113 0.092621 -0.08855 -0.015238 0.038822 0.080514 0.122021 -0.006301 -0.062418 0.045718 -0.213906 -0.003208 0.070822 0.109566 -0.001184 -0.127211 -0.038258 0.096288 -0.019048 -0.122074 -0.030807 0.00694 0.048099 0.131181 -0.045731 -0.119788 0.02543 -0.213376 0.176084 -0.034568 -0.094969 -0.03084 -0.059543 0.235289 -0.09725 0.052311 -0.102592 0.017313 -0.054495 0.102375 -0.062571 -0.017355 -0.206674 -0.09112 -0.033321 0.104453 0.149495 0.027604 0.203617 -0.089626 0.279637 -0.013915 -0.044186 -0.075949 -0.222204 -0.145809 0.129575 -0.202463 0.003187 -0.207831 -0.260262 0.004904 -0.144663 -0.038978 -0.108494 -0.236411 -0.118636 0.20631 0.059713 0.134305 0.047756 0.052349 0.144291 0.020959 0.110975 -0.116829 -0.071629 -0.032654 0.250813 0.165446 0.174558 0.068286 -0.093128 0.036376 -0.081526 0.026484 0.050902 0.054647 -0.031453 -0.115233
-0.027395 0.079011 0.003635 0.201067 -0.153766 -0.174887 -0.147681 -0.07138 -0.055214 0.024231 0.01674 0.110415 -0.109579 0.13611 -0.049615 -0.09189 -0.01117 -0.170173 0.06116 -0.018003 0.252124 -0.156487 -0.091723 0.051195 -0.139222 -0.05119 -0.025773 0.070127 -0.110336 -0.030949 -0.069944 0.116467 -0.251006 -0.070792 -0.107098 0.036595 0.138553 -0.031526 0.072535 0.011811 0.083007 0.10132 0.064377 0.047077 0.039842 0.1349 -0.00985 0.006851 0.026416 0.032145 -0.262834 -0.190726 -0.170303 0.024371 -0.216401 0.142135 0.059171 0.021211 -0.070773 -0.064723 -0.04162 0.030756 0.044539 0.027023 0.034173 0.083677 0.012235 -0.181068 -0.027216 -0.050727 0.038394 0.007927 0.025256 -0.064155 -0.004304 0.103753 -0.017404 0.045844 -0.12668 -0.117368 0.083873 0.066089 0.085194 -0.159598 -0.03174 -0.046933 -0.00251 -0.220266 0.154328 -0.046956 0.05898 0.029818 0.014982 0.018712 0.280536 0.069434 0.064166 -0.143927 0.012092 -0.080573
-0.117823 -0.160458 0.121736 0.123422 -0.001691 -0.096458 -0.157911 0.00367 -0.127848 -0.06338 0.036451 0.169349 -0.038555 0.170693 0.09573 0.243971 0.101558 -0.029869 -0.04893 0.157672 -0.16287 0.027622 0.176999 -0.10619 -0.044149 0.10367 -0.063261 0.204181 0.226072 -0.036663 -0.096285 -0.119647 -0.189821 -0.033087 -0.201658 -0.106781 0.110835 -0.058273 0.048634 -0.025598 0.053846 -0.109869 0.103063 0.07567 -0.004121 0.091241 0.050323 -0.082804 -0.035348 0.037563 0.049552 -0.034702 -0.055748 -0.092435 -0.065471 0.013253 -0.060837 -0.037955 -0.016764 -0.170063 -0.166486 -0.239076 0.050847 -0.188102 0.039334 0.03112 0.247315 -0.065328 -0.011394 0.021363 -0.041548 -0.199754 -0.036474 0.150788 -0.040432 -0.158098 -0.109014 -0.001184 -0.137153 0.011996 0.077513 0.179773 0.072279 -0.180413 -0.103711 0.064415 0.055532 -0.269472 0.037845 0.123692 -0.142648 0.060644 -0.103275 0.080955 -0.057585 -0.051152 -0.019477 0.014641 -0.217365 -0.065343
0.174579 -0.136728 -0.051226 0.020722 -0.006999 0.182304 -0.026571 0.028348 -0.056181 -0.008225 -0.006719 0.123411 -0.116958 0.067063 -0.070431 0.036747 0.038718 0.027768 0.023312 -0.088689 0.061433 -0.020277 0.259541 -0.094786 -0.095916 0.094827 0.024537 -0.02138 0.088986 -0.222601 0.103167 -0.001705 -0.126386 0.084151 -0.211735 -0.029013 0.140156 -0.020962 0.053455 -0.191046 -0.124863 -0.041487 0.136145 0.105226 -0.015967 -0.183445 -0.047984 0.115111 -0.019542 0.13034 -0.027747 -0.056535 -0.108365 -0.105363 0.081886 -0.149182 -0.11381 -0.099116 -0.181035 -0.164047 0.046733 -0.125779 0.073804 -0.112401 0.07152 0.061743 0.019104 -0.098201 0.014577 0.063876 -0.025147 0.141799 0.106453 -0.019125 -0.084889 0.059635 -0.102028 0.054798 -0.039091 -0.147142 0.035738 0.191847 0.115855 -0.22498 -0.237968 0.006138 0.263927 0.028048 -0.051407 0.156325 -0.066949 -0.023049 0.193957 -0.012836 0.006804 -0.136759 -0.093368 0.121825 -0.030451 -0.039809
0.057684 -0.073718 -0.088539 -0.192776 0.250959 0.041548 -0.007383 -0.175065 -0.08488 -0.139028 0.12703 -0.070021 -0.06597 -0.042115 0.09785 -0.079596 -0.029523 -0.005636 -0.034099 0.061681 -0.077103 -0.035727 0.196464 0.029929 -0.193528 -0.063782 0.137818 -0.040226 0.024415 0.007014 -0.0367 0.060461 -0.067857 0.213306 -0.035056 -0.133836 0.169169 -0.037119 0.090811 -0.015873 -0.154326 -0.196112 0.067315 0.014648 -0.140267 -0.050621 -0.198146 0.101887 0.210849 -0.0096 -0.09275 0.081157 -0.141472 -0.004869 -4.81E-4 0.015184 -0.031107 -0.153019 -0.022906 -0.149171 -0.08161 0.113433 0.01095 -0.212379 0.127614 0.152335 0.007224 -0.060852 -0.134865 -0.03309 -0.060158 -0.07161 -0.074571 -0.014018 0.042294 0.082285 0.201081 -0.067576 -0.034388 -0.115149 -0.121276 0.005076 0.058159 -0.165683 0.121123 0.164149 -0.068415 0.055199 0.10646 0.109662 0.151988 -0.128268 -0.107389 -0.060869 0.13263 -0.213072 -0.112953 -0.097814 -0.176432 0.216624
-0.082968 0.001203 0.071497 -0.009148 0.150444 -0.092005 0.01047 0.084003 -0.239453 0.182592 0.268997 0.151959 -0.014947 -0.028343 0.023867 0.061326 0.069726 0.083782 0.161215 -0.016712 -0.065994 -0.004949 0.209135 -0.002555 -0.092217 -0.029486 -0.029237 0.131043 0.050864 -0.028379 -0.03406 -0.097841 0.156839 0.067497 -0.001523 0.044695 0.041231 -0.08402 -0.074094 0.118101 -0.227772 0.025179 -0.07645 -0.011472 -0.137369 0.062142 0.110451 -0.15958 -0.145434 0.021108 -0.147705 -0.120238 -0.220313 -0.130112 -0.045523 -0.112755 0.125478 0.168069 -0.008004 -0.039824 -0.012863 -0.143464 -0.051033 -0.145237 -0.193293 -0.152141 0.11801 -0.065171 0.071772 0.079717 -0.035527 0.050031 0.016766 -0.026122 -0.055325 -0.166861 -0.22041 -0.011905 -0.096867 0.025781 0.051331 0.196674 0.029787 -0.054234 0.295395 0.00753 -0.039335 -0.039007 0.096267 0.016799 0.101175 0.059584 -0.012557 0.04234 0.022283 0.013304 0.144031 -0.11737 -0.044453 -0.019598
-0.259035 -0.03544 0.068662 0.233622 0.044005 -0.059957 -0.096752 0.009094 -0.07691 -0.001971 0.093255 0.009386 -0.032454 -0.126627 0.113945 0.314729 -0.03801 0.090597 -0.0126 0.009467 0.042303 0.080073 -0.035165 0.014249 -0.04233 0.009341 -0.096693 0.097912 0.095635 -0.104512 -0.173536 -0.098517 -0.040519 0.121149 -0.074563 -0.260754 0.132754 -0.305702 0.048906 7.24E-4 -0.004688 -0.062211 -0.157643 0.163787 -0.051187 -0.033076 -0.076364 -0.032618 -0.072498 0.128717 0.134201 -0.076602 -0.123722 0.083496 -0.028438 -0.183214 0.040369 0.0031 -0.033715 0.034729 -0.077765 -0.048612 -0.0688 -0.17546 -0.161476 0.108912 0.2117 -0.045156 0.084458 -0.266194 0.033087 0.178347 -0.02546 0.220646 0.003983 -0.205559 -0.152822 -0.086942 -0.068308 -0.084219 0.088495 0.168408 0.036985 -0.064849 0.133697 0.187529 0.036237 -0.085146 0.187172 0.188673 -0.158358 0.076023 -0.139607 -0.106972 0.089002 -0.125668 0.078949 0.10434 0.003305 0.044417
0.142855 2.096782 -0.44488 -0.186519 4.581101 0.368552 1.025096 -0.312802 -2.617651 -0.157005 2.963322 2.120705 -1.775955 -0.565663 0.972057 2.924774 -3.483148 -0.388176 -2.731071 -0.326463 1.005034 -0.173592 0.985748 -2.472826 -0.247049 -1.602126 -2.48254 -0.015307 0.921201 -0.634243 -0.734395 -4.469334 -2.338912 -3.86095 -2.404253 -1.170435 3.191081 0.66076 0.725646 -0.864367 -2.371157 -0.851367 -3.29822 -1.074393 -2.64488 2.784424 -0.996674 2.506345 2.15789 -2.159862 -0.441733 -0.926918 -0.098512 0.757891 -1.999629 -4.007104 0.387073 -3.003765 1.204233 -2.431844 -2.281004 -0.27222 1.915759 2.567541 -2.305997 0.668549 -1.469449 -4.443738 -0.244681 3.958085 3.663286 2.390184 0.145926 -1.914193 1.202993 0.085106 1.119028 1.764289 0.413107 1.270882 2.30135 -2.063297 -0.209725 -0.837978 1.54811 -1.075222 1.662849 3.024555 -0.817108 2.02425 0.827332 0.999754 -2.964958 -4.68355 2.112919 1.12159 -1.379614 1.011169 -1.034187 2.880255
1.035361 1.319725 0.388011 1.220811 -0.236045 1.447081 -1.78193 3.520004 0.063077 -1.681862 0.545208 0.767849 -1.479444 -1.152839 0.669301 0.685509 -2.946755 -2.239533 -1.187422 -1.793336 0.607402 0.130687 0.296681 -1.569517 1.825066 1.715849 -1.639836 0.849724 -1.742086 0.427502 3.84844 -1.377145 0.671096 -1.312902 -1.152387 0.705431 2.180344 2.97496 1.402098 -0.909545 -1.649212 -0.253421 1.186817 1.193823 3.167747 -0.387379 -0.12198 0.872223 0.13285 0.490844 0.029473 1.345032 0.297008 2.724698 -1.656047 -0.109585 1.500583 -1.148555 -3.658389 1.022988 -1.211381 0.342059 -0.023586 1.22536 -1.874871 -1.957746 -0.188066 -0.235303 -0.067175 1.107354 1.448404 0.838301 1.67396 -0.238039 -0.504146 -1.334739 0.688005 0.37731 -2.953094 0.650433 0.307563 -0.457962 -1.694326 2.40152 -0.816994 0.208705 1.853393 0.15935 -0.989952 1.089235 1.087388 -2.786835 -2.248864 -0.788939 0.405791 0.907533 -1.516669 1.970717 -0.345554 -0.134731
-0.041152 -0.058765 0.239753 -0.07433 0.119412 -0.022946 -0.164608 -0.11906 -0.09751 0.06308 0.233486 0.052962 -0.074969 0.210551 0.133547 0.153505 -0.044234 0.109736 0.077856 0.140856 -0.021252 0.033017 0.069787 0.055207 -0.10887 -0.168747 0.091712 -0.018534 0.20433 -0.119372 0.027071 0.103849 0.020855 0.180289 0.191154 -0.137163 0.204511 -0.008304 -0.100247 0.076504 0.096807 -0.019805 0.115192 0.135553 0.152185 0.033255 0.11349 0.030371 -0.11985 0.186437 -0.036775 0.035232 0.078169 0.039443 0.201806 -0.018164 -0.008474 -0.054042 0.133953 -0.055359 0.029841 -0.021871 -0.034267 -0.101562 -0.017965 0.057546 0.021227 0.303484 0.059384 -0.315525 -0.29615 -0.082597 0.001246 0.083529 0.112149 0.014997 -0.053167 -0.0877 -0.079434 -0.0795 0.015774 0.006711 -0.011683 -0.134941 -0.018682 -0.095195 0.01551 0.072427 0.141806 0.025021 0.047396 -0.045954 0.112652 0.198619 -0.12295 -0.056053 0.135586 -0.08597 0.029818 -0.062826
0.114293 0.21884 -4.217646 0.691283 1.645253 -0.828114 2.346523 -2.081706 -1.900365 0.711491 6.313995 2.536496 -0.421549 -2.551791 1.496681 1.339572 -4.712148 -1.628808 0.342727 -1.412159 -2.367056 -1.690561 -1.001883 -0.511496 4.189291 -0.1875 -0.027823 4.126409 -2.324378 -0.848612 -0.365438 1.863886 -5.384653 8.389386 0.423475 1.942553 3.654531 2.069637 -1.951437 -2.659405 -0.895496 -1.947471 2.681127 2.051975 -2.841484 0.844196 -1.486631 1.347796 2.369666 1.544715 0.270316 -1.159675 3.925185 -0.480756 0.807314 -1.026807 1.997072 0.748493 1.033797 -2.380981 1.212225 0.180272 1.368762 1.039202 0.680421 -1.324443 -0.954379 1.186214 -0.580306 2.036054 3.508216 1.081692 3.412274 -1.583739 -3.438041 -2.664577 -1.365988 1.362267 4.318421 -0.922364 0.826235 -1.748827 1.776203 -4.535993 4.53536 1.176771 1.375406 3.984288 -0.480807 -1.453742 0.217895 -2.77977 1.968303 -0.689109 1.731942 2.156005 -0.339825 1.339335 -1.140681 -0.192261
-0.088393 -0.146106 0.217346 0.013461 0.14206 0.112249 -0.131849 -0.026853 -0.105337 0.070846 0.068113 0.073003 0.065748 0.034382 0.150759 0.189027 0.037061 0.218421 0.012166 0.012416 0.016741 0.082563 0.134716 0.079045 0.003767 -0.080953 0.032409 0.061713 0.057373 -0.119377 -0.069885 0.007188 -0.080992 0.279457 -0.048062 -0.100737 0.082162 -0.078683 0.098924 0.003596 -0.078868 0.123608 -0.160253 0.086996 0.116536 -0.085338 0.106765 -0.109479 -0.176457 -0.012875 0.05623 -0.004932 -0.127514 -0.0154 0.026224 -0.089977 0.071541 -0.083851 0.032595 -0.005932 0.078327 0.020204 0.024084 -0.197656 0.1245 0.150092 -0.04379 -0.057668 0.095754 -0.243341 -0.053762 0.100638 0.041679 0.198625 0.140688 -0.137497 0.097823 0.115471 -0.035016 -0.122948 -0.069367 0.0144 0.026779 -0.187272 0.017289 0.060159 0.015718 -0.046635 0.208143 0.02484 0.033166 -0.104856 0.084273 0.020137 0.05623 -0.188608 0.185021 0.060612 -0.05721 0.040974
-0.133171 0.07267 0.150127 0.017286 0.007353 0.163232 0.133741 -0.195195 -0.188102 0.003456 -0.2784 0.091006 -0.258535 -0.056465 0.392257 0.198061 -0.127876 -0.194359 -0.131834 0.07383 0.049799 0.034818 0.374566 0.162013 -0.04243 -0.121716 -0.155289 0.207693 0.163184 -0.18169 0.069944 -0.198635 0.006388 0.099751 -0.053914 -0.083748 0.214197 0.121498 -0.010874 -0.052318 0.043991 -0.08516 0.070206 0.087895 0.074792 0.027296 0.034846 -0.216629 0.010482 -0.103523 0.148766 -0.06199 0.036962 0.056296 0.001824 -0.002639 -0.095132 0.027857 -0.025811 -0.226189 0.066145 0.066684 0.013032 -0.038828 -0.107837 -0.053667 -0.074134 0.081482 -0.087255 0.308307 0.07753 0.05896 0.138613 0.003397 -0.067919 0.042912 0.280948 8.88E-4 -0.120076 0.06493 -0.108621 -0.165791 0.055443 -0.077234 0.022961 -0.060494 -0.002728 0.040448 -0.055311 0.050302 0.111676 0.085724 -0.137658 0.188317 0.120659 0.041778 -0.069715 -0.029423 -0.124513 0.053864
0.343438 0.229527 -1.694119 1.130874 2.191538 0.535544 -0.532862 0.57552 -1.733407 1.103 0.880196 1.472585 -0.609341 -0.448605 -0.739255 1.891 -1.929479 -2.688603 0.228509 -1.812764 -1.317513 0.71045 1.318161 1.413847 0.033874 0.120829 0.62379 3.001002 0.456124 -1.258147 -1.410466 0.134196 0.980516 0.704821 -1.325765 -1.139943 2.370865 -1.116757 1.313574 -1.332694 -2.56652 -3.707061 0.240385 0.371504 -1.363723 1.276897 -1.082878 -1.891862 0.660764 -0.660147 1.383951 -0.585535 -1.417497 1.769495 -0.706042 1.42796 -0.307258 0.354226 -1.279261 -3.181787 -0.267638 0.150519 -0.15729 -2.594746 -2.232076 1.140833 -1.017786 -2.195866 -1.135092 1.974684 3.359118 -0.013495 0.637055 0.62696 1.486446 -0.239905 1.497714 1.511991 -0.169367 -0.506105 0.573118 -0.656714 -0.410501 0.469186 -0.629195 1.316862 0.098456 -1.150134 0.457543 3.469013 0.964341 -0.239708 -2.871351 -3.81722 1.624714 2.347626 0.527425 0.120594 -0.116767 0.903178
-0.034238 -0.041665 0.152869 0.152548 0.182787 0.05396 -7.98E-4 0.081179 -0.167569 0.284827 0.170113 0.092621 -0.08855 -0.015238 0.038822 0.080514 0.122021 -0.006301 -0.062418 0.045718 -0.213906 -0.003208 0.070822 0.109566 -0.001184 -0.127211 -0.038258 0.096288 -0.019048 -0.122074 -0.030807 0.00694 0.048099 0.131181 -0.045731 -0.119788 0.02543 -0.213376 0.176084 -0.034568 -0.094969 -0.03084 -0.059543 0.235289 -0.09725 0.052311 -0.102592 0.017313 -0.054495 0.102375 -0.062571 -0.017355 -0.206674 -0.09112 -0.033321 0.104453 0.149495 0.027604 0.203617 -0.089626 0.279637 -0.013915 -0.044186 -0.075949 -0.222204 -0.145809 0.129575 -0.202463 0.003187 -0.207831 -0.260262 0.004904 -0.144663 -0.038978 -0.108494 -0.236411 -0.118636 0.20631 0.059713 0.134305 0.047756 0.052349 0.144291 0.020959 0.110975 -0.116829 -0.071629 -0.032654 0.250813 0.165446 0.174558 0.068286 -0.093128 0.036376 -0.081526 0.026484 0.050902 0.054647 -0.031453 -0.115233
-0.117823 -0.160458 0.121736 0.123422 -0.001691 -0.096458 -0.157911 0.00367 -0.127848 -0.06338 0.036451 0.169349 -0.038555 0.170693 0.09573 0.243971 0.101558 -0.029869 -0.04893 0.157672 -0.16287 0.027622 0.176999 -0.10619 -0.044149 0.10367 -0.063261 0.204181 0.226072 -0.036663 -0.096285 -0.119647 -0.189821 -0.033087 -0.201658 -0.106781 0.110835 -0.058273 0.048634 -0.025598 0.053846 -0.109869 0.103063 0.07567 -0.004121 0.091241 0.050323 -0.082804 -0.035348 0.037563 0.049552 -0.034702 -0.055748 -0.092435 -0.065471 0.013253 -0.060837 -0.037955 -0.016764 -0.170063 -0.166486 -0.239076 0.050847 -0.188102 0.039334 0.03112 0.247315 -0.065328 -0.011394 0.021363 -0.041548 -0.199754 -0.036474 0.150788 -0.040432 -0.158098 -0.109014 -0.001184 -0.137153 0.011996 0.077513 0.179773 0.072279 -0.180413 -0.103711 0.064415 0.055532 -0.269472 0.037845 0.123692 -0.142648 0.060644 -0.103275 0.080955 -0.057585 -0.051152 -0.019477 0.014641 -0.217365 -0.065343
0.028566 0.135166 0.096699 0.105631 0.036535 -0.143409 0.086774 0.050924 0.108259 0.038707 0.117569 0.277209 0.088768 0.147454 0.049805 0.209769 -0.140023 -0.044747 -0.020261 -0.095157 -0.074908 0.102905 -0.115126 -0.068426 -0.035475 -0.030235 0.033792 0.211817 0.155358 -0.029238 -0.010171 0.055346 0.068868 0.040866 0.062192 -0.061423 0.004606 -0.055839 -0.122253 0.018865 -0.086782 0.075329 -0.011442 0.05577 -0.021768 0.044243 0.281932 -0.256007 -0.140494 0.150427 0.058319 -0.089054 0.082799 -0.168304 0.13356 -0.027805 -0.071835 -0.091562 -0.174502 6.17E-4 0.007892 -0.017618 -0.104252 0.034519 0.092304 -0.251686 -0.163454 -0.087788 -0.003563 -0.032691 -0.144932 0.063617 -0.009836 -0.079796 0.008017 0.176916 -0.038438 -6.72E-4 -0.038006 -0.181938 0.179608 0.090493 -0.040085 0.056412 0.111268 -0.150258 -0.01833 0.036197 0.285553 0.145815 0.031913 0.030398 0.078263 0.123398 -7.05E-4 -0.102937 0.152214 0.03334 0.09407 -0.022901
-0.018853 -0.002551 0.033968 0.16503 -0.215563 -0.182974 -0.038488 -0.239149 -0.217481 0.060001 0.148081 0.22406 -0.082196 0.026232 0.069545 0.145171 0.003039 0.059152 0.163998 -0.07166 0.051914 0.029061 0.270428 0.113908 -0.05018 -0.267824 -0.022216 0.175303 0.101835 -0.164084 0.153946 0.106576 -0.077141 -0.005068 0.021427 -0.094384 0.163008 -0.057292 -0.062818 0.134489 0.037332 0.033104 0.092495 0.095431 0.042571 -0.094663 -0.079974 -0.052398 -0.087463 -0.015076 -0.008594 0.103657 -0.052513 -0.089393 -0.07789 0.082318 -0.062818 -0.080187 -0.029008 -0.212846 0.071314 -0.092865 0.123131 -0.177763 2.48E-4 -0.054044 0.046953 -0.015226 0.045295 0.09191 0.00974 0.097436 -0.043814 -0.079753 -0.098751 0.193253 0.057385 -0.146029 -0.11558 -0.075163 0.035175 0.116655 0.216791 -0.019977 0.066471 0.002392 0.091659 -0.120077 0.027913 -0.049029 0.001288 0.019374 -0.06297 0.161294 -0.085267 0.074004 0.084099 -0.12615 0.009865 -0.287975
-0.114713 -0.021711 0.094442 0.183508 -0.135514 -0.060601 -0.282006 -0.055355 -0.06339 0.075733 0.152328 0.219526 -0.115607 -0.083146 0.068939 0.293271 -0.10332 0.059686 -0.06506 0.044905 -0.184211 0.24805 0.180452 -0.082776 -0.174949 -0.186133 -0.018285 0.069283 0.290176 -0.107636 -0.028076 0.014834 -0.172428 0.04313 -0.097168 -0.084697 0.022567 -0.053155 0.193258 0.032401 -0.029798 -0.056188 0.018693 0.0444 0.180145 -0.172345 -0.0916 -0.073817 -0.019676 0.036129 0.214184 -0.215853 -0.149832 0.168069 -0.126984 -0.192724 0.042868 -0.052716 0.111405 0.033384 0.043195 -0.019917 -0.088375 -0.252269 0.004775 -0.067259 -0.01986 0.060534 0.191501 -0.1148 -0.095158 0.024063 6.0E-5 0.032842 0.164063 -0.146448 -0.003299 0.062204 -0.021759 -0.077193 0.022226 -0.048629 0.015882 -0.224566 -0.07535 -0.009093 -0.017809 -0.011813 0.160901 0.098428 -0.146323 -0.05802 -0.093243 0.178175 -0.218347 -0.065175 0.001382 0.021213 -0.068497 0.085118
0.014401 0.056522 -0.067027 0.003451 -0.029767 0.073351 -0.024849 0.036841 0.040807 0.005458 0.13335 -0.120096 -0.117021 -0.119265 0.024171 -0.015156 0.05961 -0.1094 -0.023646 -0.066864 -0.026603 0.054721 0.037844 -0.047458 0.049247 0.214332 -0.031197 -0.081032 0.0982 -0.06176 -0.187928 0.07447 0.140843 0.089594 0.127182 -0.106684 -0.115247 0.047985 0.017104 -0.188258 0.201881 0.035723 0.17568 -0.081601 0.023983 0.109685 -0.107213 -0.203239 -0.014228 0.042078 0.128434 -0.15446 -0.162105 -0.057687 -0.123467 0.099686 -0.003883 0.05067 0.065316 -0.21982 0.00112 -0.059011 -0.046757 0.11549 0.023983 -0.006561 -0.066449 -0.189888 -0.017994 0.220568 0.052927 -0.029092 0.221103 -0.013212 3.38E-4 -0.022332 0.015746 0.1407 0.033685 0.174891 -0.062061 -0.068634 0.002461 -0.013492 0.017944 0.018135 0.023988 -0.324442 0.001304 0.173735 -0.02299 0.007869 0.154087 -0.09733 0.080793 0.236875 -0.030117 0.131032 0.157627 -0.019791
-0.082968 0.001203 0.071497 -0.009148 0.150444 -0.092005 0.01047 0.084003 -0.239453 0.182592 0.268997 0.151959 -0.014947 -0.028343 0.023867 0.061326 0.069726 0.083782 0.161215 -0.016712 -0.065994 -0.004949 0.209135 -0.002555 -0.092217 -0.029486 -0.029237 0.131043 0.050864 -0.028379 -0.03406 -0.097841 0.156839 0.067497 -0.001523 0.044695 0.041231 -0.08402 -0.074094 0.118101 -0.227772 0.025179 -0.07645 -0.011472 -0.137369 0.062142 0.110451 -0.15958 -0.145434 0.021108 -0.147705 -0.120238 -0.220313 -0.130112 -0.045523 -0.112755 0.125478 0.168069 -0.008004 -0.039824 -0.012863 -0.143464 -0.051033 -0.145237 -0.193293 -0.152141 0.11801 -0.065171 0.071772 0.079717 -0.035527 0.050031 0.016766 -0.026122 -0.055325 -0.166861 -0.22041 -0.011905 -0.096867 0.025781 0.051331 0.196674 0.029787 -0.054234 0.295395 0.00753 -0.039335 -0.039007 0.096267 0.016799 0.101175 0.059584 -0.012557 0.04234 0.022283 0.013304 0.144031 -0.11737 -0.044453 -0.019598
-0.129997 -0.063725 -0.157925 -0.238466 0.047362 0.033113 0.016589 -0.108203 -0.10705 -0.112304 0.029586 0.01896 0.004042 -0.173115 0.044945 0.091573 -0.056685 -0.118593 0.017769 -0.070652 -0.010108 -0.119214 0.196437 0.094546 4.75E-4 -0.108847 0.014468 0.020784 0.268439 0.111731 0.031135 -0.04362 -0.055214 0.174684 -0.048682 0.051763 0.065457 -0.062208 0.176243 0.081873 0.112091 0.041126 0.032446 0.092814 -0.177583 -0.00153 0.050067 0.016673 -0.006607 -0.002962 -0.050641 -0.040277 -0.084207 -0.084317 -0.079461 0.108539 -0.01264 -0.05189 -0.035674 -0.149947 -0.012927 0.011814 -0.087843 -0.095645 0.091383 0.184284 -0.07204 0.054857 0.073398 0.033004 -0.141897 0.089638 -0.002965 -0.019098 -0.222535 0.118369 -0.047643 -0.066612 -0.107904 -0.223858 -0.121772 -0.033338 0.048723 -0.121644 -0.134145 0.149559 -0.078012 -0.018971 0.102876 0.023975 -0.042652 0.141278 -0.008194 -0.126609 0.109093 -0.122982 -0.095263 0.005657 0.078023 0.126779
-0.039041 -0.200296 0.048851 0.002815 -0.031153 0.07467 -0.09693 0.007545 0.005638 -0.070562 0.085201 0.019755 -0.204445 -0.222368 0.305165 0.065086 -0.049486 -0.011972 0.129072 -0.041001 0.051654 0.076346 0.206712 0.025605 -0.20253 -0.153977 0.095235 0.075042 0.144459 -0.20407 0.001105 0.081598 -0.100114 0.111517 -0.180694 0.1059 -0.027764 0.075177 0.176322 0.16839 -0.086838 0.05985 0.036693 0.098337 -0.039206 -0.085079 -0.039938 0.014809 -0.099386 -0.008578 0.117724 -0.012051 -0.017643 0.090927 0.063086 0.046982 -0.110574 -0.011932 -0.155179 -0.177991 0.122855 -0.173689 0.005794 -0.274367 -0.192794 0.083364 -0.060462 -0.128275 -0.009967 -0.072159 -0.253917 0.025294 0.086178 -0.011196 -0.016733 -0.1703 -0.078302 -0.071452 -0.1669 -0.116626 -0.074533 0.028711 0.194693 -0.110668 -0.065286 0.007385 0.169691 0.035464 0.128016 0.113983 -0.165621 0.08049 -0.006111 -0.022789 -0.142186 -0.063533 -0.026657 -0.051135 0.101708 -0.06767
0.116294 -0.263496 -0.081739 0.057368 0.067137 -0.102528 0.036095 -0.030683 0.148512 -0.090607 0.101885 0.154688 -0.192713 -0.126517 0.111115 0.01692 -0.081858 6.4E-4 -0.00683 0.10357 0.044823 0.088171 0.060629 -0.001666 -0.09269 0.010433 -0.043155 0.008376 -0.007388 -0.036201 -0.307618 -0.140565 0.069003 0.129696 0.034851 -0.180174 0.191431 -0.055202 -0.095277 -0.047857 0.075521 0.073315 0.038619 0.039602 -0.02837 0.019778 0.086915 -0.001578 0.029952 -0.015749 0.080068 -0.118169 -0.135044 -0.058114 -0.08639 0.045977 -0.145759 0.028078 0.064016 0.028862 0.063088 -8.04E-4 -0.11788 -0.090056 0.014355 0.118274 0.122218 -0.013902 0.047987 -0.036239 -0.045999 0.131851 0.073834 -0.002538 -0.010062 -0.005742 -0.100133 -0.007207 -0.0508 -0.09585 -0.078188 0.115847 0.009088 0.006746 0.222105 -0.116964 0.124586 0.125951 -8.7E-4 0.086706 -0.04632 -0.136717 -0.086921 0.153925 0.038207 -0.130426 -0.169928 0.02861 -0.030724 0.025536
