-0.111222 0.039124 -0.113704 0.00348 0.147556 0.222705 0.072442 0.109251 -0.062309 -0.034227 -0.070104 0.032923 -0.100164 -0.013077 -0.050603 0.138185 0.135583 0.052445 0.194674 0.365864 0.362126 0.278103 0.066463 -0.158667 -0.023758 -0.27085 0.015972 0.142344 0.124873 -0.021056 -0.175286 -0.100711 -0.082826 0.219094 -0.129399 -0.123152 0.069609 -0.381872 0.206404 -0.154798 -0.066262 0.209244 -0.106105 0.30893 0.131289 0.003943 -0.081096 0.069744 0.165617 -0.059466 -0.169959 -0.126711 -0.201185 -0.150701 0.041894 -0.169988 0.351785 0.098326 0.150179 0.020852 0.11643 -0.125348 -0.162041 -0.082338 -0.132177 -0.162636 -0.059407 0.093177 0.058427 -0.370672 -0.001548 0.178278 -0.020524 -0.142637 -0.047166 -0.098101 -0.266345 0.288026 -0.168086 0.072564 0.014027 0.077889 -0.322414 0.280058 0.113879 -0.079234 -0.034986 -0.078511 0.051622 -0.049322 0.06797 -0.072902 -0.072379 -0.005969 -0.201419 -0.176588 0.281967 0.11306 -0.067353 -0.30201
-0.028706 0.033732 -0.114421 -0.07457 0.127383 -0.072256 0.225561 0.060203 0.083158 -0.055015 -0.008016 -0.013805 -0.051516 0.044168 0.111501 0.025036 -0.238953 0.036993 0.171614 -0.137027 -0.117078 -0.077618 -0.049104 -0.008848 0.057426 -0.057326 0.059874 0.011163 0.064202 0.02249 0.115982 -0.050116 -0.037287 0.022451 0.317696 0.035591 0.023828 -0.193618 -0.051534 -0.084514 -0.011266 -0.085479 -0.049087 0.026278 0.053149 0.155973 -0.017962 0.090405 0.046952 -0.046551 0.079632 -0.054336 -0.079931 -0.02083 -0.19082 0.195755 -0.172548 -0.076107 -0.039663 -0.041625 -9.09E-4 -0.037134 -0.03562 -0.121145 -1.21E-4 -0.01738 0.076054 0.018905 0.018724 -0.037724 0.134652 -0.041302 0.140077 -0.048912 -0.024278 0.051511 -0.020874 0.112695 -0.215306 0.087446 0.074303 -0.127096 0.103432 -0.089674 -0.052799 0.058982 -0.081369 0.292689 -0.046317 0.05673 -0.017009 0.029554 -0.09257 0.016177 0.031009 -0.141385 -0.131271 0.186623 0.243762 0.077857
0.152772 -0.172817 0.313431 0.219407 -0.122282 0.147778 -0.177638 -0.078038 0.019824 0.35749 0.201939 0.14691 -0.003964 0.101231 0.162517 0.031731 -0.058297 0.096276 0.189793 0.20165 -0.191688 0.01991 0.142961 -0.202925 -0.141818 -0.014027 -0.02705 -0.074452 0.130667 -0.139521 -0.132825 -0.263239 -0.2571 -0.151413 -0.133067 -0.071118 0.139828 -0.250672 -0.165546 -0.091809 -0.353943 0.150396 0.0281 -0.029857 0.136525 -0.064116 0.111645 -0.024334 -0.103184 0.013058 -0.086615 -0.079559 0.020053 0.09046 -0.025228 -0.002484 0.08857 0.097444 -0.007814 -0.016539 0.107616 -0.055799 -0.150397 -0.024678 0.082121 -0.082121 0.199912 0.029904 0.282518 0.026659 0.038429 -0.039197 -0.034591 0.258941 -0.026544 -0.113855 -0.22916 -0.017317 0.019719 0.222437 -0.095767 0.125461 0.123521 -0.146768 -0.120093 0.156647 0.052668 0.070605 0.269042 -0.145986 -0.01485 -0.1108 -0.051537 0.178084 -0.042016 -0.336846 0.096036 0.095836 -0.330486 -0.126529
-0.145844 -0.032444 -0.102491 0.072647 0.015703 -0.094255 -0.217791 -0.047201 -0.13049 -0.056072 0.085861 -0.079631 0.145814 -0.150973 -0.047361 0.200952 -0.101907 0.066825 0.017569 0.107204 -0.016535 0.007828 0.040282 0.006998 -0.159538 -0.030253 -0.183245 -0.113645 0.099404 0.05009 -0.023449 0.09202 -0.091536 -0.030537 0.102496 -0.067375 0.070956 -0.02827 0.03771 0.040685 -0.109422 0.059675 -0.010177 -0.093784 0.046964 0.049656 -0.028868 -0.121308 -0.235971 -0.024437 0.270429 -0.050388 -0.028483 -0.085911 -0.050005 -0.134691 -0.054949 0.094052 0.076832 -0.073972 -0.012544 -0.100179 -0.228474 0.03719 -0.116685 -0.051653 -0.169615 -0.038427 -0.139205 -0.060088 -0.186685 0.124744 0.005692 0.029399 0.0046 -0.034861 -0.042918 0.013417 0.09834 0.029531 0.046492 0.098294 0.056174 -0.05566 0.134774 -0.057472 -0.098111 0.024719 0.045379 -0.02285 0.018532 -0.095178 0.023621 -0.021975 0.010531 -0.005818 0.163956 -0.07255 0.069511 -0.182037
0.0 0.0 0.0 0.0 0.0 0.0 0.0 0.0 0.0 0.0 0.0 0.0 0.0 0.0 0.0 0.0 0.0 0.0 0.0 0.0 0.0 0.0 0.0 0.0 0.0 0.0 0.0 0.0 0.0 0.0 0.0 0.0 0.0 0.0 0.0 0.0 0.0 0.0 0.0 0.0 0.0 0.0 0.0 0.0 0.0 0.0 0.0 0.0 0.0 0.0 0.0 0.0 0.0 0.0 0.0 0.0 0.0 0.0 0.0 0.0 0.0 0.0 0.0 0.0 0.0 0.0 0.0 0.0 0.0 0.0 0.0 0.0 0.0 0.0 0.0 0.0 0.0 0.0 0.0 0.0 0.0 0.0 0.0 0.0 0.0 0.0 0.0 0.0 0.0 0.0 0.0 0.0 0.0 0.0 0.0 0.0 0.0 0.0 0.0 0.0
0.040639 0.081814 0.04287 0.062167 0.092794 0.114908 -5.3E-4 -0.061893 -0.128806 0.029658 -0.102642 0.050736 0.021353 0.278962 0.156361 -0.045776 -0.059025 0.007615 0.069272 0.03742 0.044666 -0.205296 -0.009373 0.060588 0.130976 -0.007905 -0.098053 0.083234 0.088487 0.073668 -0.063313 0.05638 -0.149995 0.040243 0.139103 0.120814 0.186168 0.077513 0.035539 -0.137722 0.149343 -0.011946 0.157701 0.051791 -0.073664 0.096946 -0.283681 0.058369 -0.065895 0.126711 -0.040991 -0.045914 -0.057224 -0.17697 0.066608 0.102407 -0.15335 -0.00258 -0.222251 -0.069709 -9.96E-4 0.033302 -0.223593 -0.01348 0.109527 0.085455 -0.086426 0.046289 0.047765 0.150103 -0.094972 -0.019492 -0.08396 0.061637 0.042416 0.083935 -0.175169 -0.031524 -0.150901 -0.072843 -0.056665 0.199748 0.160562 -0.070466 0.072887 0.025233 0.011767 0.031496 0.08045 -0.027642 0.037393 0.123465 -0.042501 0.013419 0.046506 -0.08898 -0.024989 -0.132646 0.135167 0.194549
-0.04511 -0.00527 0.096874 0.302385 0.006439 0.058177 -0.093472 0.06865 0.056496 -0.08939 0.016549 0.022957 0.032249 -0.0405 0.129477 0.071128 0.014948 0.108764 -0.034445 -0.10594 -0.108996 0.166538 0.165388 0.066603 -0.17241 -0.096368 0.052627 -0.057879 0.121535 -0.084223 -0.106684 -0.213476 0.014628 0.089085 -0.056674 -0.08141 0.127373 -0.071828 -0.072693 -0.033851 -0.069199 0.037341 0.066428 -0.053903 0.044427 0.130341 -0.054598 0.010451 -0.034033 0.050225 -0.046835 -0.031704 0.044357 -0.016627 0.074127 -0.062778 -0.052923 0.059853 0.120319 0.088142 0.059871 -0.129394 0.081647 -0.061538 0.035732 -0.055342 0.077981 0.07675 0.098547 0.168687 -0.107062 0.010065 0.035062 0.092099 0.041811 -0.082681 -0.188505 -0.101578 0.032192 -0.101589 -0.02253 0.030291 0.090417 -0.018034 0.046773 0.007813 0.022239 0.041315 0.039023 0.011513 -0.028339 0.0035 0.00903 0.023365 -0.054465 -0.136976 0.068142 -0.141979 -0.060473 0.143317
0.512998 -0.371964 -0.304664 0.160726 -0.087799 0.259353 -0.39967 0.135943 -1.262092 0.631287 0.569824 0.40256 -0.32979 0.017537 0.86315 -0.02443 0.701029 -0.195088 0.678653 -0.366062 -0.801329 0.089695 0.857003 -0.504737 0.322918 -0.719276 -0.241144 0.094037 0.574141 0.26175 -0.630875 -0.369996 -0.012412 0.041109 -0.718368 0.311432 0.779203 -0.351123 -0.001794 -0.656952 -1.254583 0.442206 0.500613 0.128999 0.519565 0.527064 0.704734 0.437991 -0.149132 -0.897998 -1.37036 -0.05165 -0.077617 0.744554 -0.288273 -0.274478 1.213921 0.642081 0.088861 0.603942 0.607074 -0.036648 -0.436049 0.410615 -0.019104 -0.558549 0.679114 -0.483258 0.13322 -0.169981 -0.454036 -1.403948 -0.270433 0.416064 -0.434677 -0.710131 -1.426462 0.532964 -0.309775 0.984604 -0.200071 -0.139252 0.143068 0.18627 0.473113 0.641927 0.380682 -0.348329 0.606041 -0.413477 0.386725 -0.028548 -0.451801 0.288387 -0.397869 -0.437386 0.419478 0.12969 -0.5793 -0.115567
0.352905 0.550922 -1.128945 -0.511125 0.774489 1.405335 -0.371647 0.106012 -0.779785 -0.640302 -0.68578 1.570717 -0.712288 -0.706705 -0.789609 -0.045278 -1.599722 -2.840112 -0.089543 -1.158838 -1.862605 -0.62748 -0.063542 -0.468696 0.750564 0.033551 -0.772222 -0.188991 -0.163115 0.455978 0.038455 -0.779588 0.172303 -1.114448 -0.548246 -0.008155 1.66721 -0.744821 -0.15746 -2.668482 -0.304702 -0.905716 0.479063 0.151803 -0.94063 -0.044338 -0.906122 -0.456182 0.281891 0.268287 0.47007 0.628019 0.328428 1.471286 -2.345457 0.072073 -0.345477 -0.998199 -1.496897 -0.053061 0.351206 -0.934426 0.295591 0.07336 0.24092 0.486976 0.390085 -0.621556 0.375246 -0.02625 1.957847 1.014101 0.004675 0.08874 -0.900479 -0.462149 0.922254 1.355385 -1.048724 0.105897 1.254466 0.410718 0.321258 1.066395 -0.171761 -0.128774 0.315556 0.697301 -0.180925 0.555334 1.005586 -0.891677 -1.232923 -1.994189 -0.567812 0.204184 -0.947385 -0.051526 -0.987029 0.725141
0.152772 -0.172817 0.313431 0.219407 -0.122282 0.147778 -0.177638 -0.078038 0.019824 0.35749 0.201939 0.14691 -0.003964 0.101231 0.162517 0.031731 -0.058297 0.096276 0.189793 0.20165 -0.191688 0.01991 0.142961 -0.202925 -0.141818 -0.014027 -0.02705 -0.074452 0.130667 -0.139521 -0.132825 -0.263239 -0.2571 -0.151413 -0.133067 -0.071118 0.139828 -0.250672 -0.165546 -0.091809 -0.353943 0.150396 0.0281 -0.029857 0.136525 -0.064116 0.111645 -0.024334 -0.103184 0.013058 -0.086615 -0.079559 0.020053 0.09046 -0.025228 -0.002484 0.08857 0.097444 -0.007814 -0.016539 0.107616 -0.055799 -0.150397 -0.024678 0.082121 -0.082121 0.199912 0.029904 0.282518 0.026659 0.038429 -0.039197 -0.034591 0.258941 -0.026544 -0.113855 -0.22916 -0.017317 0.019719 0.222437 -0.095767 0.125461 0.123521 -0.146768 -0.120093 0.156647 0.052668 0.070605 0.269042 -0.145986 -0.01485 -0.1108 -0.051537 0.178084 -0.042016 -0.336846 0.096036 0.095836 -0.330486 -0.126529
-0.132812 0.139556 0.048597 -0.018647 0.118408 0.00247 -0.067271 0.095907 -0.081878 -0.091832 -0.001812 0.057942 -0.014087 -0.00986 -0.069185 0.188377 -0.021068 0.076926 0.254723 -0.248385 -0.080721 -0.117294 -0.027162 0.065033 -0.143138 0.09449 -0.062873 0.012455 -0.115085 -0.011352 0.037397 0.054183 0.069252 0.06757 -0.067839 0.049231 -0.00707 0.081329 0.143743 0.05676 0.004699 0.191203 -0.07709 -0.013433 -0.090536 -0.038912 -0.08486 -0.164565 -0.080733 -0.096047 -0.094106 0.077144 0.063995 0.070608 -0.063214 -0.219161 -0.013689 0.092466 -0.155988 0.032974 -0.019331 -0.044742 -0.109981 -0.082229 0.089341 0.060836 -0.060764 0.00179 -0.039211 -0.069223 -0.037374 0.018909 -0.059089 -0.066894 0.039494 0.021798 -0.084994 -2.04E-4 -0.14342 0.063634 -0.048142 0.00607 0.012367 0.200435 -0.023967 0.015599 0.077542 -0.039174 -0.128248 -0.083469 0.005174 -0.008694 -0.008888 0.03434 -0.011309 0.126286 -0.1118 9.13E-4 0.052469 -0.078198
-0.183479 -0.048731 0.05397 0.085137 -0.049637 0.023852 0.162362 0.13407 0.063616 0.151144 -0.136799 0.065878 0.008909 -0.196877 0.026541 -0.154639 0.174649 0.213374 0.229147 -0.10444 -0.091235 0.051611 0.021302 0.004539 -0.242356 -0.056614 -0.079564 -0.087788 -0.181456 -0.104612 -0.050045 0.244532 0.071385 -0.118197 0.027271 -0.091531 -0.004654 -0.005903 0.048103 -0.093707 0.106653 -0.0281 -0.001062 0.109551 0.034959 -0.193046 -0.192189 0.034222 0.081309 0.115193 0.1454 -0.155728 -0.09728 0.087806 -0.05977 -0.132969 -0.022818 -0.039456 -0.191359 -0.088908 0.166172 -0.082843 0.209119 -0.024497 -0.1034 0.210093 -0.088396 -0.038933 0.051596 0.054348 0.179003 0.018207 0.026621 0.290335 -0.006817 -0.29026 -0.182348 0.016422 0.091197 0.155795 0.17962 0.19094 0.118767 0.120413 0.086572 -0.134971 -0.019848 0.045235 -0.08239 0.076097 0.091587 0.028616 -0.060531 -0.133395 0.118191 0.109773 -0.071008 -0.011747 -0.08083 -0.088774
-0.111222 0.039124 -0.113704 0.00348 0.147556 0.222705 0.072442 0.109251 -0.062309 -0.034227 -0.070104 0.032923 -0.100164 -0.013077 -0.050603 0.138185 0.135583 0.052445 0.194674 0.365864 0.362126 0.278103 0.066463 -0.158667 -0.023758 -0.27085 0.015972 0.142344 0.124873 -0.021056 -0.175286 -0.100711 -0.082826 0.219094 -0.129399 -0.123152 0.069609 -0.381872 0.206404 -0.154798 -0.066262 0.209244 -0.106105 0.30893 0.131289 0.003943 -0.081096 0.069744 0.165617 -0.059466 -0.169959 -0.126711 -0.201185 -0.150701 0.041894 -0.169988 0.351785 0.098326 0.150179 0.020852 0.11643 -0.125348 -0.162041 -0.082338 -0.132177 -0.162636 -0.059407 0.093177 0.058427 -0.370672 -0.001548 0.178278 -0.020524 -0.142637 -0.047166 -0.098101 -0.266345 0.288026 -0.168086 0.072564 0.014027 0.077889 -0.322414 0.280058 0.113879 -0.079234 -0.034986 -0.078511 0.051622 -0.049322 0.06797 -0.072902 -0.072379 -0.005969 -0.201419 -0.176588 0.281967 0.11306 -0.067353 -0.30201
-0.044642 0.152492 0.007077 0.266493 0.054956 0.186596 -0.105672 0.011188 -0.08994 0.211835 -0.006587 -0.037167 0.018082 0.078028 -0.070366 0.171452 0.050405 -0.19795 -0.153902 0.117471 -0.083815 0.224509 -0.115847 0.25399 -0.054043 0.114794 0.222671 0.179703 0.001486 -0.2637 -0.214094 -0.122497 -0.043118 -0.0906 -0.158564 0.099969 0.016826 -0.032034 0.063976 -0.211146 -0.01635 -0.188532 0.015827 0.002129 0.040481 0.151783 -0.101025 0.020346 0.074434 -0.096565 -0.097992 -0.326847 0.05216 -0.036889 -0.23803 -0.152507 -0.168246 0.121517 -0.007789 0.088195 -0.031633 0.139626 0.221028 0.089878 -0.013951 -0.054496 0.105674 0.2512 -0.166351 0.058067 0.209716 -0.049102 0.065134 0.059178 0.014298 -0.120781 -0.212684 -0.277212 0.102098 -0.08848 0.132176 -8.74E-4 -0.164102 0.231634 0.063215 -0.061019 0.158083 -0.029052 0.129488 0.018019 0.04926 0.036472 -0.070943 -0.013131 0.023279 -0.054018 -0.112239 -0.093401 -0.052084 0.2223
-0.016672 -0.137914 0.081114 -0.028074 0.036595 0.081272 -0.152732 0.125571 -0.270483 0.137667 0.137165 -0.030972 0.02822 -0.05111 0.023443 0.246441 -0.031816 0.033096 0.021416 -0.070674 0.060012 0.052728 0.21245 -0.087068 -0.104256 -0.313336 0.06521 -0.050585 0.072473 -0.068441 -0.07617 -0.032219 0.217185 0.081607 -0.061857 -0.126666 0.265734 -0.052143 -0.103999 -0.114218 0.045942 0.118175 0.118942 0.108693 -0.04971 0.056366 0.070248 -0.127804 -0.131569 0.021773 -0.005549 -0.088095 0.004141 -0.007387 0.012503 0.080274 -0.068202 -0.010454 -0.251333 0.119371 -0.016998 -0.081337 0.010725 -0.174513 -0.102339 0.050037 -0.045232 -0.063232 0.058359 0.10512 -0.075165 -0.029417 0.095034 0.032147 -0.067948 0.029551 -0.111013 -0.083959 -0.253517 -0.247842 -0.013886 0.029356 0.024077 -0.070031 0.066264 0.028394 -0.056185 -0.062806 0.110498 0.055892 -0.101187 -0.009016 -0.044409 0.203581 -0.071003 -0.050335 -0.02921 0.028152 -0.155379 -0.110703
-0.019201 0.028111 0.019217 0.052324 -0.012545 0.076041 0.041859 0.132425 -0.042682 -0.25324 0.153679 -0.052639 -0.234426 0.154245 0.001178 0.07083 0.073083 0.160228 0.024133 -0.054811 0.001969 0.005439 0.181016 0.099355 -0.126409 -0.051701 0.037309 -0.123638 0.247936 -0.162055 0.114555 0.125901 0.087982 0.08593 -0.090916 0.032607 0.058566 -0.084423 -0.083684 -0.120125 -0.142636 -0.134573 0.099572 -0.067549 0.144656 -0.140025 -0.119758 0.069446 0.087216 -0.032862 -0.006618 -0.111395 0.032981 -0.031112 -0.118341 0.110071 -0.111936 0.153878 0.041608 0.007703 0.064796 -0.130385 0.030277 0.045725 -0.1256 0.149386 -0.11782 -0.166733 0.122695 0.114102 -0.065025 -0.01284 -0.004014 -0.036946 -0.052576 0.183617 0.039352 -0.109896 0.002856 -0.049741 0.098582 -0.079185 0.058208 -0.092538 -0.020486 -0.024785 0.136707 0.03449 -0.090652 0.201497 -0.097455 0.025029 -0.120762 -0.013839 -0.051103 -0.067125 -0.00444 -0.252706 0.02388 -0.108891
-0.06302 -0.152009 0.275411 0.17777 -0.001871 -0.059707 -0.166029 -0.12287 -0.060277 0.030052 0.023436 0.142641 -0.002569 0.101569 0.105459 0.153965 -0.044383 0.172614 0.146829 0.009084 -0.130416 0.21207 0.043144 -0.0822 -0.184854 -0.190981 -0.056765 -0.137035 0.185884 0.044722 -0.199689 -0.156702 -0.061075 0.130773 -0.09084 -0.209773 -0.059749 -0.083598 0.083996 0.021238 0.011203 0.289189 -0.078906 0.003201 0.082624 -0.152361 0.064333 0.059794 -0.055301 0.045637 -0.040049 -0.05679 -0.073445 0.077359 -0.004152 -0.06862 0.061543 0.03169 0.020473 -0.014971 0.08488 -0.255411 0.010016 -0.178567 0.021488 0.043566 0.106286 0.023651 0.254846 -0.123738 -0.04786 0.04025 -0.039901 -0.077139 -0.021968 0.018057 -0.101277 0.052426 -0.089837 -0.078773 0.075959 0.153494 0.022509 -0.27042 0.076782 -0.015081 0.019306 -0.251098 0.118902 0.002501 0.040935 -0.0581 -0.019349 0.101849 -0.076787 -0.050659 0.110967 -0.047919 -0.058948 -0.169335
-0.309744 -0.23788 0.221223 0.035258 -0.031348 0.259589 -0.249475 0.073892 0.076251 0.095365 0.024037 0.03054 -0.024222 -0.109233 -0.026341 -0.20514 -0.109754 -0.003442 -0.081343 0.036571 -0.204218 0.023716 -0.065091 -0.105334 -0.223545 0.037655 -0.171112 -0.121351 0.121382 0.192911 -0.18496 -0.207567 -0.180525 0.222564 -0.202596 -0.026556 -0.030106 -0.049588 0.108851 0.158742 0.15793 0.118188 0.033227 -0.042376 0.019918 0.067694 0.112606 -0.05858 -0.322922 0.108194 -0.081196 -0.080386 0.030468 -0.091201 0.216984 0.032335 -0.147811 0.042845 0.058471 -0.07327 -0.2817 -0.019265 0.068997 -0.009123 -0.157255 0.273275 -0.06813 -0.073044 0.174008 0.093099 -0.080168 -0.030719 -0.007683 -0.079005 -0.237147 -0.240912 -0.131504 0.037961 -0.241002 0.136594 -0.195395 0.505685 0.250409 0.084241 0.122323 0.041168 -0.312287 -0.07245 -0.075842 0.209664 0.043018 -0.057069 0.221081 0.102778 0.066015 -0.031617 -0.041468 -0.065685 -0.105651 0.074308
0.152772 -0.172817 0.313431 0.219407 -0.122282 0.147778 -0.177638 -0.078038 0.019824 0.35749 0.201939 0.14691 -0.003964 0.101231 0.162517 0.031731 -0.058297 0.096276 0.189793 0.20165 -0.191688 0.01991 0.142961 -0.202925 -0.141818 -0.014027 -0.02705 -0.074452 0.130667 -0.139521 -0.132825 -0.263239 -0.2571 -0.151413 -0.133067 -0.071118 0.139828 -0.250672 -0.165546 -0.091809 -0.353943 0.150396 0.0281 -0.029857 0.136525 -0.064116 0.111645 -0.024334 -0.103184 0.013058 -0.086615 -0.079559 0.020053 0.09046 -0.025228 -0.002484 0.08857 0.097444 -0.007814 -0.016539 0.107616 -0.055799 -0.150397 -0.024678 0.082121 -0.082121 0.199912 0.029904 0.282518 0.026659 0.038429 -0.039197 -0.034591 0.258941 -0.026544 -0.113855 -0.22916 -0.017317 0.019719 0.222437 -0.095767 0.125461 0.123521 -0.146768 -0.120093 0.156647 0.052668 0.070605 0.269042 -0.145986 -0.01485 -0.1108 -0.051537 0.178084 -0.042016 -0.336846 0.096036 0.095836 -0.330486 -0.126529
0.352905 0.550922 -1.128945 -0.511125 0.774489 1.405335 -0.371647 0.106012 -0.779785 -0.640302 -0.68578 1.570717 -0.712288 -0.706705 -0.789609 -0.045278 -1.599722 -2.840112 -0.089543 -1.158838 -1.862605 -0.62748 -0.063542 -0.468696 0.750564 0.033551 -0.772222 -0.188991 -0.163115 0.455978 0.038455 -0.779588 0.172303 -1.114448 -0.548246 -0.008155 1.66721 -0.744821 -0.15746 -2.668482 -0.304702 -0.905716 0.479063 0.151803 -0.94063 -0.044338 -0.906122 -0.456182 0.281891 0.268287 0.47007 0.628019 0.328428 1.471286 -2.345457 0.072073 -0.345477 -0.998199 -1.496897 -0.053061 0.351206 -0.934426 0.295591 0.07336 0.24092 0.486976 0.390085 -0.621556 0.375246 -0.02625 1.957847 1.014101 0.004675 0.08874 -0.900479 -0.462149 0.922254 1.355385 -1.048724 0.105897 1.254466 0.410718 0.321258 1.066395 -0.171761 -0.128774 0.315556 0.697301 -0.180925 0.555334 1.005586 -0.891677 -1.232923 -1.994189 -0.567812 0.204184 -0.947385 -0.051526 -0.987029 0.725141
0.512998 -0.371964 -0.304664 0.160726 -0.087799 0.259353 -0.39967 0.135943 -1.262092 0.631287 0.569824 0.40256 -0.32979 0.017537 0.86315 -0.02443 0.701029 -0.195088 0.678653 -0.366062 -0.801329 0.089695 0.857003 -0.504737 0.322918 -0.719276 -0.241144 0.094037 0.574141 0.26175 -0.630875 -0.369996 -0.012412 0.041109 -0.718368 0.311432 0.779203 -0.351123 -0.001794 -0.656952 -1.254583 0.442206 0.500613 0.128999 0.519565 0.527064 0.704734 0.437991 -0.149132 -0.897998 -1.37036 -0.05165 -0.077617 0.744554 -0.288273 -0.274478 1.213921 0.642081 0.088861 0.603942 0.607074 -0.036648 -0.436049 0.410615 -0.019104 -0.558549 0.679114 -0.483258 0.13322 -0.169981 -0.454036 -1.403948 -0.270433 0.416064 -0.434677 -0.710131 -1.426462 0.532964 -0.309775 0.984604 -0.200071 -0.139252 0.143068 0.18627 0.473113 0.641927 0.380682 -0.348329 0.606041 -0.413477 0.386725 -0.028548 -0.451801 0.288387 -0.397869 -0.437386 0.419478 0.12969 -0.5793 -0.115567
-0.132812 0.139556 0.048597 -0.018647 0.118408 0.00247 -0.067271 0.095907 -0.081878 -0.091832 -0.001812 0.057942 -0.014087 -0.00986 -0.069185 0.188377 -0.021068 0.076926 0.254723 -0.248385 -0.080721 -0.117294 -0.027162 0.065033 -0.143138 0.09449 -0.062873 0.012455 -0.115085 -0.011352 0.037397 0.054183 0.069252 0.06757 -0.067839 0.049231 -0.00707 0.081329 0.143743 0.05676 0.004699 0.191203 -0.07709 -0.013433 -0.090536 -0.038912 -0.08486 -0.164565 -0.080733 -0.096047 -0.094106 0.077144 0.063995 0.070608 -0.063214 -0.219161 -0.013689 0.092466 -0.155988 0.032974 -0.019331 -0.044742 -0.109981 -0.082229 0.089341 0.060836 -0.060764 0.00179 -0.039211 -0.069223 -0.037374 0.018909 -0.059089 -0.066894 0.039494 0.021798 -0.084994 -2.04E-4 -0.14342 0.063634 -0.048142 0.00607 0.012367 0.200435 -0.023967 0.015599 0.077542 -0.039174 -0.128248 -0.083469 0.005174 -0.008694 -0.008888 0.03434 -0.011309 0.126286 -0.1118 9.13E-4 0.052469 -0.078198
-0.124027 -0.146192 0.110446 0.167014 -0.132063 -0.083549 -0.362299 0.019413 0.028067 0.197829 0.1276 0.172165 0.069193 0.022562 0.13836 0.374531 -0.004679 0.222801 0.067552 0.003809 -0.21188 0.221622 0.239026 0.126353 -0.177105 -0.043298 -0.053846 -0.135427 0.234614 -0.186004 -0.115101 -0.138071 -0.151772 -0.041524 -0.066991 -0.059708 0.228196 0.04198 0.127909 0.116597 -0.044687 0.044315 0.124845 0.044947 0.123753 -0.087718 -0.037223 0.102201 -0.23895 0.150269 0.121066 -0.237046 0.084026 0.130578 0.260761 -0.119769 0.154304 -0.10574 0.125192 0.026286 0.110096 -0.15472 0.007161 -0.039927 -0.195351 -0.126475 0.048912 -0.066663 0.12356 -0.131391 -0.112496 0.032618 0.025855 -0.139153 0.031818 -0.148178 -0.130738 -0.112917 -0.065144 -0.00429 0.068877 0.050092 0.160883 -0.123748 -0.024911 0.08121 0.165089 -0.015778 0.204034 -0.003414 -0.211206 -0.062686 -0.126181 0.362925 -0.112037 -0.1317 0.102936 -0.155081 -0.146354 0.087201
-0.04643 -0.257981 0.045028 0.047665 -0.066381 0.00997 -0.001068 -0.01814 0.008615 -0.007181 -0.018936 0.117911 -0.089693 -0.087537 0.117672 0.065825 0.062231 0.168039 -0.007088 -0.076914 0.072049 0.116539 0.250424 -0.016763 -0.08073 -0.052423 -0.022396 -0.112525 0.04228 -0.198424 -0.065886 -0.025354 -0.005166 0.024766 -0.132449 -0.06758 0.006465 0.035238 -0.003938 -0.122812 -0.127235 0.181578 0.039215 0.105133 0.010609 0.020142 -0.224975 0.043268 -0.099755 -0.066404 0.0241 -0.012322 0.001706 0.087344 0.063506 0.018368 0.076979 0.009582 -0.02531 0.082365 0.132881 -0.201185 -0.059261 -0.11285 0.006114 0.020966 0.267267 0.052047 -0.002603 0.00124 0.083815 0.029246 -0.008477 0.096318 -0.012275 -0.02597 0.103639 0.071718 0.037137 0.025577 -0.147344 0.029201 0.060051 -0.031345 -0.016481 -0.073782 0.022229 -0.036568 0.057624 -0.019943 4.14E-4 -0.093262 0.003683 -0.064291 -0.225858 -0.002314 0.036409 -0.074899 -0.025587 0.022133
-0.07555 -0.134649 9.81E-4 0.066902 -0.008468 0.197472 0.136262 0.008161 -0.004177 0.14494 0.048036 0.176647 -0.028504 -0.048088 -0.060923 0.075324 -0.052052 0.055278 0.136034 -0.046414 -0.111127 -0.109821 -0.031986 0.070788 0.287691 -0.27386 0.059649 0.142605 0.097785 -0.082127 -0.142776 -0.084975 -0.009139 0.13371 0.150226 -0.033948 0.100494 -0.161805 0.200048 -0.113088 -0.193666 0.134301 0.107839 0.153996 -0.02583 -0.102589 0.019957 -0.167462 -0.089285 -0.080432 -0.027253 0.011421 -0.123509 0.047813 -0.11853 0.160271 0.172744 0.035336 -0.075497 -0.17292 -0.05128 0.005391 0.151601 -0.071361 -0.072314 -0.085409 -0.063029 -0.060281 0.042147 -0.037277 -0.091356 -0.181351 -0.001536 -0.057231 0.006275 -0.083538 -0.255018 -0.054278 -0.254964 -0.070801 -0.024028 0.0541 0.108463 -0.18654 -0.233655 0.085816 0.053031 -0.039385 0.135168 0.165729 -0.076049 0.016285 -0.142657 -0.105998 -0.017943 -0.10915 0.062525 0.092294 0.019403 -0.00717
0.142855 2.096782 -0.44488 -0.186519 4.581101 0.368552 1.025096 -0.312802 -2.617651 -0.157005 2.963322 2.120705 -1.775955 -0.565663 0.972057 2.924774 -3.483148 -0.388176 -2.731071 -0.326463 1.005034 -0.173592 0.985748 -2.472826 -0.247049 -1.602126 -2.48254 -0.015307 0.921201 -0.634243 -0.734395 -4.469334 -2.338912 -3.86095 -2.404253 -1.170435 3.191081 0.66076 0.725646 -0.864367 -2.371157 -0.851367 -3.29822 -1.074393 -2.64488 2.784424 -0.996674 2.506345 2.15789 -2.159862 -0.441733 -0.926918 -0.098512 0.757891 -1.999629 -4.007104 0.387073 -3.003765 1.204233 -2.431844 -2.281004 -0.27222 1.915759 2.567541 -2.305997 0.668549 -1.469449 -4.443738 -0.244681 3.958085 3.663286 2.390184 0.145926 -1.914193 1.202993 0.085106 1.119028 1.764289 0.413107 1.270882 2.30135 -2.063297 -0.209725 -0.837978 1.54811 -1.075222 1.662849 3.024555 -0.817108 2.02425 0.827332 0.999754 -2.964958 -4.68355 2.112919 1.12159 -1.379614 1.011169 -1.034187 2.880255
-0.194932 -0.010875 0.19112 -0.032826 -0.06777 -0.040866 -0.035553 -0.037688 -0.001488 0.233778 -0.002306 0.148223 -0.019886 -0.069114 -0.068334 0.034243 0.065978 0.118949 -0.107628 0.004721 -0.109862 -0.033536 0.059302 0.025287 -0.030443 -0.0675 -0.035742 -0.004703 0.146316 0.01493 0.099537 -0.03959 -0.015891 0.031334 0.157117 -0.139394 0.036441 0.00399 3.61E-4 0.13951 -0.022161 0.114123 -0.00872 -0.018229 -0.173361 0.014553 -0.048494 0.16571 0.025648 0.033923 -0.106879 -0.021269 -0.147226 0.025306 -0.1139 -0.203391 -0.052359 -0.105146 -0.076811 -0.203322 -0.040098 -0.056331 -0.065797 -0.104678 -0.267859 -0.023543 0.053783 0.064172 0.147276 -0.116199 -0.082415 0.116341 -0.051468 -0.07475 -0.035658 -0.248294 -0.098186 -0.020392 0.11035 0.057535 0.074801 0.076241 0.03438 0.003652 0.105392 0.039608 0.107208 0.024224 0.195194 -0.004537 -0.048245 -0.121825 -0.035232 0.073997 -0.021795 -0.175747 -0.001561 0.093841 0.008622 -0.110496
-0.050419 -0.042839 0.017254 0.048925 -0.060776 -0.015234 -0.163648 -0.075565 -0.273811 0.008118 -0.136214 0.146 0.059137 0.120722 0.165501 0.024301 -0.237451 -0.154824 -0.12556 0.009502 0.028343 -0.095812 0.029902 -0.005617 -0.217606 -0.151898 0.137998 -0.030797 0.031794 -0.136426 0.035978 -0.027 -0.26237 -0.239903 0.117749 -0.175366 0.157344 0.002743 0.080673 -0.112924 0.074076 0.096824 -0.091515 0.05567 0.067408 0.019041 -0.072927 0.085005 -0.073975 0.097211 0.114112 0.012616 -0.053231 0.059992 -0.04686 0.054896 -0.00172 -0.047371 -0.0036 -0.038607 0.095101 0.057271 0.033506 0.061897 -0.013162 0.108656 -0.032311 -0.108597 0.01729 3.84E-4 0.074243 0.050208 -0.11343 0.027976 0.086949 -0.067945 -0.022512 -0.139688 -0.014292 0.177838 0.038021 -0.132388 0.013718 -0.045653 -0.144109 0.066707 0.065747 0.245105 0.049772 0.106129 0.094429 -0.009868 -0.113044 0.191308 -0.209882 0.044764 0.055588 -0.187581 -0.131201 -0.048305
-0.001889 -0.015376 0.011577 -0.079922 0.019615 0.005975 0.018085 -0.133459 0.07886 -0.019014 -0.010821 0.041669 -0.011128 0.097962 -0.060935 0.042309 0.015014 8.49E-4 -0.002449 0.038756 0.0685 -0.030124 0.021652 -0.079703 0.075875 -0.122727 0.144977 0.073106 0.120718 -0.115022 0.047765 0.225363 -0.061747 -0.035103 0.080005 0.064342 -0.011293 0.032618 0.076202 0.118833 0.299047 0.176216 0.148892 -0.105455 -0.022399 0.118571 -0.05437 -0.136016 -0.04767 0.112361 0.012505 0.001737 0.056998 -0.132972 0.205737 0.014869 0.130993 0.242588 0.100312 0.073252 -0.019374 -0.073147 -0.042245 -0.05193 0.119558 0.067972 -0.198268 0.013905 0.103121 -0.09962 -0.010563 -0.219254 -0.117595 0.0375 -0.028297 0.03039 -0.116152 0.021365 0.041774 -0.247365 -0.187561 -0.063496 -0.088808 -0.029223 0.057963 0.069802 -0.07258 -0.052825 0.064478 0.040761 0.149345 0.085248 0.239559 0.137326 -0.140966 0.005439 0.083517 -0.02486 -0.028184 0.111642
-0.04511 -0.00527 0.096874 0.302385 0.006439 0.058177 -0.093472 0.06865 0.056496 -0.08939 0.016549 0.022957 0.032249 -0.0405 0.129477 0.071128 0.014948 0.108764 -0.034445 -0.10594 -0.108996 0.166538 0.165388 0.066603 -0.17241 -0.096368 0.052627 -0.057879 0.121535 -0.084223 -0.106684 -0.213476 0.014628 0.089085 -0.056674 -0.08141 0.127373 -0.071828 -0.072693 -0.033851 -0.069199 0.037341 0.066428 -0.053903 0.044427 0.130341 -0.054598 0.010451 -0.034033 0.050225 -0.046835 -0.031704 0.044357 -0.016627 0.074127 -0.062778 -0.052923 0.059853 0.120319 0.088142 0.059871 -0.129394 0.081647 -0.061538 0.035732 -0.055342 0.077981 0.07675 0.098547 0.168687 -0.107062 0.010065 0.035062 0.092099 0.041811 -0.082681 -0.188505 -0.101578 0.032192 -0.101589 -0.02253 0.030291 0.090417 -0.018034 0.046773 0.007813 0.022239 0.041315 0.039023 0.011513 -0.028339 0.0035 0.00903 0.023365 -0.054465 -0.136976 0.068142 -0.141979 -0.060473 0.143317
-1.606629 -0.254217 -2.286089 -2.412193 -2.381621 0.392454 0.350773 1.800385 0.605674 -1.137451 -3.460115 -0.464471 -1.31545 -0.051558 0.647488 3.18948 -0.915828 2.636683 -1.1886 0.612979 0.495644 1.721158 -1.035311 -1.760055 -2.161609 0.966009 1.06184 -2.707651 -0.283615 1.264238 -0.744212 1.875889 -0.93984 -1.959029 0.804833 -1.216928 -1.317812 -0.241079 -0.013349 0.789542 -1.038909 0.957488 3.279288 2.334648 0.590087 0.020134 2.547454 0.217404 -0.60357 2.32267 -1.010183 1.151367 0.337347 1.564668 1.353937 1.363664 -1.749622 0.124937 -0.456661 0.781322 2.764506 2.247715 3.50023 -0.514921 -1.173464 0.350347 -0.670814 0.902825 -0.989121 0.12247 2.305248 -1.911227 -0.070406 -0.166749 3.368552 -3.418867 1.192605 2.642853 0.099648 -0.558002 -1.338179 0.928679 1.00676 0.72075 1.748492 -0.077272 1.395124 2.183636 -0.893019 -0.570337 -1.381849 4.024992 0.581796 -0.304452 1.54575 -0.825755 3.995235 -1.305683 -2.23034 -1.606997
-0.378085 -0.028466 0.022909 0.116972 -0.216445 -0.193655 -0.149822 0.413729 -0.237421 0.408549 -0.299633 -0.148826 0.270502 0.380922 0.042243 -0.037093 0.017704 0.314312 -0.097917 0.22764 -0.183236 0.459223 0.052369 -0.400411 -0.308846 -0.140524 0.107256 -0.178724 0.200971 0.047215 -0.318443 0.479123 -0.248304 -0.464935 -0.124455 -0.116366 0.040678 0.30016 0.007066 0.305998 -0.238028 0.311836 0.403528 0.325809 0.032646 0.077089 0.41794 0.050815 0.252779 0.446813 -0.01166 -0.316517 0.03828 -0.237712 0.439283 -0.118981 -0.050269 -0.047316 0.017587 -0.351324 0.242381 -0.399296 0.045604 -0.136496 -0.195579 0.155675 0.028463 0.396607 -0.07818 -0.142157 -0.161878 -0.300052 -0.006101 0.278197 0.274715 -0.226892 -0.041361 0.008937 0.294519 -0.082011 0.05147 0.698917 0.357916 -0.088083 0.297229 0.028223 0.038254 -0.03291 -0.098059 0.261818 -0.249319 0.059407 0.04809 0.09562 0.202447 -0.405598 0.255414 -0.214704 0.026147 0.125398
-0.013698 -0.023095 -0.058456 -0.03195 -0.034398 -0.04118 -0.023354 0.004781 -0.122381 -0.113633 0.151917 0.107985 -0.016987 -0.052931 0.001215 0.079985 -0.164868 0.103133 0.172941 0.063287 0.04419 0.139557 0.168571 -0.053489 -0.252181 -0.100945 -0.16491 0.144152 0.265533 0.043668 0.004951 0.144841 -0.163475 0.100613 -0.087922 -0.010674 0.03778 0.069699 0.011267 0.040228 -0.101552 0.024714 -0.012933 0.06985 0.028083 -0.021545 0.004893 -0.117548 -0.144417 0.027679 0.129874 0.077289 -0.203466 -0.046501 0.045284 -0.031293 -0.078261 -0.032056 0.086122 0.031898 -0.088967 -0.074202 -0.211753 -0.175907 -0.119172 0.096754 -0.144319 0.035316 0.135785 -0.075594 -0.066007 0.054066 -0.009872 -0.091325 0.250657 0.063803 -0.038366 -0.043134 -0.02471 -0.116206 0.026293 0.049256 0.056219 -0.196025 0.020496 0.136805 0.124839 0.041895 0.043661 -0.006771 -0.232792 -0.113832 -0.045685 0.007308 0.019672 -0.142545 -0.027193 -0.035709 -0.042056 -0.023388
-0.378085 -0.028466 0.022909 0.116972 -0.216445 -0.193655 -0.149822 0.413729 -0.237421 0.408549 -0.299633 -0.148826 0.270502 0.380922 0.042243 -0.037093 0.017704 0.314312 -0.097917 0.22764 -0.183236 0.459223 0.052369 -0.400411 -0.308846 -0.140524 0.107256 -0.178724 0.200971 0.047215 -0.318443 0.479123 -0.248304 -0.464935 -0.124455 -0.116366 0.040678 0.30016 0.007066 0.305998 -0.238028 0.311836 0.403528 0.325809 0.032646 0.077089 0.41794 0.050815 0.252779 0.446813 -0.01166 -0.316517 0.03828 -0.237712 0.439283 -0.118981 -0.050269 -0.047316 0.017587 -0.351324 0.242381 -0.399296 0.045604 -0.136496 -0.195579 0.155675 0.028463 0.396607 -0.07818 -0.142157 -0.161878 -0.300052 -0.006101 0.278197 0.274715 -0.226892 -0.041361 0.008937 0.294519 -0.082011 0.05147 0.698917 0.357916 -0.088083 0.297229 0.028223 0.038254 -0.03291 -0.098059 0.261818 -0.249319 0.059407 0.04809 0.09562 0.202447 -0.405598 0.255414 -0.214704 0.026147 0.125398
0.152772 -0.172817 0.313431 0.219407 -0.122282 0.147778 -0.177638 -0.078038 0.019824 0.35749 0.201939 0.14691 -0.003964 0.101231 0.162517 0.031731 -0.058297 0.096276 0.189793 0.20165 -0.191688 0.01991 0.142961 -0.202925 -0.141818 -0.014027 -0.02705 -0.074452 0.130667 -0.139521 -0.132825 -0.263239 -0.2571 -0.151413 -0.133067 -0.071118 0.139828 -0.250672 -0.165546 -0.091809 -0.353943 0.150396 0.0281 -0.029857 0.136525 -0.064116 0.111645 -0.024334 -0.103184 0.013058 -0.086615 -0.079559 0.020053 0.09046 -0.025228 -0.002484 0.08857 0.097444 -0.007814 -0.016539 0.107616 -0.055799 -0.150397 -0.024678 0.082121 -0.082121 0.199912 0.029904 0.282518 0.026659 0.038429 -0.039197 -0.034591 0.258941 -0.026544 -0.113855 -0.22916 -0.017317 0.019719 0.222437 -0.095767 0.125461 0.123521 -0.146768 -0.120093 0.156647 0.052668 0.070605 0.269042 -0.145986 -0.01485 -0.1108 -0.051537 0.178084 -0.042016 -0.336846 0.096036 0.095836 -0.330486 -0.126529
-0.059826 -0.115541 0.123517 0.019774 0.081969 0.135894 -0.072571 0.110139 0.031835 0.309791 0.078426 0.038781 0.102543 0.129772 -0.016209 0.092114 0.140975 0.147489 0.127666 0.228966 -0.081414 0.112034 0.152103 -0.080509 0.021429 -0.179689 0.008053 0.108069 0.070898 -0.060422 -0.114479 -0.275075 -0.127001 0.195021 -0.047197 -0.09956 0.012541 -0.108817 0.038854 0.004165 -0.02031 0.063768 -0.061196 0.105265 0.040755 -0.032592 0.051445 0.033407 -0.057315 0.031244 0.012739 -0.083215 -0.086405 -0.107274 0.096584 -0.052789 0.052128 -0.085517 0.120346 -0.005597 0.162972 -0.013481 -0.034697 0.082154 -0.040767 -0.134258 0.141088 0.121333 0.176681 -0.127333 -0.212173 0.087142 0.009547 -0.243719 -0.19679 -0.016863 -0.16219 0.13577 -0.192149 0.122394 0.003141 0.126193 -0.133432 -0.038206 0.012489 0.029392 0.088667 -0.006078 0.090788 -0.032663 0.132016 -0.059869 -0.030899 0.093058 -0.017737 -0.146517 0.228562 0.009701 0.048979 0.092854
-0.111222 0.039124 -0.113704 0.00348 0.147556 0.222705 0.072442 0.109251 -0.062309 -0.034227 -0.070104 0.032923 -0.100164 -0.013077 -0.050603 0.138185 0.135583 0.052445 0.194674 0.365864 0.362126 0.278103 0.066463 -0.158667 -0.023758 -0.27085 0.015972 0.142344 0.124873 -0.021056 -0.175286 -0.100711 -0.082826 0.219094 -0.129399 -0.123152 0.069609 -0.381872 0.206404 -0.154798 -0.066262 0.209244 -0.106105 0.30893 0.131289 0.003943 -0.081096 0.069744 0.165617 -0.059466 -0.169959 -0.126711 -0.201185 -0.150701 0.041894 -0.169988 0.351785 0.098326 0.150179 0.020852 0.11643 -0.125348 -0.162041 -0.082338 -0.132177 -0.162636 -0.059407 0.093177 0.058427 -0.370672 -0.001548 0.178278 -0.020524 -0.142637 -0.047166 -0.098101 -0.266345 0.288026 -0.168086 0.072564 0.014027 0.077889 -0.322414 0.280058 0.113879 -0.079234 -0.034986 -0.078511 0.051622 -0.049322 0.06797 -0.072902 -0.072379 -0.005969 -0.201419 -0.176588 0.281967 0.11306 -0.067353 -0.30201
3.635499 -2.667169 -0.727708 -3.593243 -0.549419 0.733175 0.172204 3.791371 0.328269 2.256884 -1.015368 -2.454698 -0.815327 0.355508 2.474531 -0.626027 0.396756 -3.61148 4.060195 3.372732 -1.01888 -1.349799 1.899754 -0.174013 0.991901 2.851184 0.899687 3.088529 -1.024262 -0.381274 3.254091 1.887557 1.562388 -0.149757 -0.764631 -2.263043 0.226559 -4.539397 -2.292776 2.572466 -0.324225 -7.833081 0.710472 4.044321 2.252584 -2.530319 -4.440532 0.373135 2.812138 2.085804 3.422953 2.060638 1.664619 3.298358 -2.076158 1.662752 3.041493 2.946475 0.282635 0.221192 1.692513 -2.742725 0.560522 -2.398551 -1.409133 1.550326 2.031772 3.358856 -0.618338 1.508416 0.222565 -0.139198 -1.081801 2.824209 0.08751 0.134733 -3.282505 -1.578565 -1.164992 0.083221 4.197984 0.047679 -1.182103 -2.255012 1.520627 0.216734 1.038363 0.444725 0.23736 -2.209961 0.307758 -1.676938 -0.71724 2.328923 3.411993 2.595394 1.158561 -1.974992 -3.019828 -1.602767
0.032396 -0.153017 0.013261 0.047099 -0.16096 -0.002847 -0.14501 0.068005 -0.149359 0.076423 0.087914 0.08774 -0.052729 0.078781 0.117473 0.074295 0.151985 0.072683 0.119518 0.122415 -0.135198 0.247231 0.180758 0.015866 -0.113795 -0.127057 -0.071395 0.168229 0.095199 -0.336627 -0.153192 -0.143154 -0.026817 0.033279 -0.138762 -0.11222 0.10966 -0.08999 0.082217 0.118244 -0.209306 -0.145128 0.075727 0.090038 -0.029107 0.029357 -0.046449 0.077719 -0.03284 -0.077257 -0.012984 -0.045672 -0.116 -0.276832 0.093682 -0.058702 0.12833 -0.142148 0.008875 0.083015 -0.016207 -0.124211 -0.089497 -0.070414 -0.053119 -0.049462 -0.046969 0.093573 -0.213675 0.119268 -0.018275 3.93E-4 0.116123 -0.134844 0.078802 -0.103423 -0.118698 -0.023437 0.037259 0.011934 0.026229 -0.010741 0.123861 -0.243128 -0.03501 -0.001409 -0.172359 -0.035735 0.189753 0.012574 -0.164292 0.135864 0.031712 0.210915 -0.032895 0.034045 -0.017284 -0.092774 0.076027 0.134429
0.512998 -0.371964 -0.304664 0.160726 -0.087799 0.259353 -0.39967 0.135943 -1.262092 0.631287 0.569824 0.40256 -0.32979 0.017537 0.86315 -0.02443 0.701029 -0.195088 0.678653 -0.366062 -0.801329 0.089695 0.857003 -0.504737 0.322918 -0.719276 -0.241144 0.094037 0.574141 0.26175 -0.630875 -0.369996 -0.012412 0.041109 -0.718368 0.311432 0.779203 -0.351123 -0.001794 -0.656952 -1.254583 0.442206 0.500613 0.128999 0.519565 0.527064 0.704734 0.437991 -0.149132 -0.897998 -1.37036 -0.05165 -0.077617 0.744554 -0.288273 -0.274478 1.213921 0.642081 0.088861 0.603942 0.607074 -0.036648 -0.436049 0.410615 -0.019104 -0.558549 0.679114 -0.483258 0.13322 -0.169981 -0.454036 -1.403948 -0.270433 0.416064 -0.434677 -0.710131 -1.426462 0.532964 -0.309775 0.984604 -0.200071 -0.139252 0.143068 0.18627 0.473113 0.641927 0.380682 -0.348329 0.606041 -0.413477 0.386725 -0.028548 -0.451801 0.288387 -0.397869 -0.437386 0.419478 0.12969 -0.5793 -0.115567
1.155368 3.302179 -0.818617 0.201583 -0.372035 -0.220049 -2.421694 1.24088 1.022918 0.281963 -0.56672 0.218504 -2.654141 0.687099 1.426786 -2.744465 -2.044989 -0.49789 -1.769702 -2.328375 -1.105508 0.104665 -0.061522 -2.669585 1.369504 1.778184 -0.869744 -1.441309 0.051265 1.116249 1.903031 -0.163683 1.731475 -0.652558 -1.459245 -0.212579 0.382415 1.861636 -0.394668 -0.423196 -0.983827 -1.176007 1.844253 0.853456 0.976233 -0.076248 -1.490589 -0.553926 0.506191 0.326236 0.251095 1.038919 -0.803142 0.658979 -3.236482 -1.07965 1.27678 -0.350029 -1.778651 0.292774 0.002745 0.267431 1.072933 -0.321661 -1.19536 -1.465055 -2.523761 -3.574044 -0.123843 -0.515256 3.2036 -0.08683 1.099575 -0.639959 -1.310584 0.629968 -0.142079 0.66081 -1.289981 -0.152693 -0.105374 0.388507 -1.068849 2.207516 -1.516502 0.618648 0.057959 1.61471 0.888036 -0.337188 -0.73306 -0.809614 -1.409634 -0.094797 -0.938314 1.210802 1.47048 2.210952 -1.933366 0.819087
-0.07555 -0.134649 9.81E-4 0.066902 -0.008468 0.197472 0.136262 0.008161 -0.004177 0.14494 0.048036 0.176647 -0.028504 -0.048088 -0.060923 0.075324 -0.052052 0.055278 0.136034 -0.046414 -0.111127 -0.109821 -0.031986 0.070788 0.287691 -0.27386 0.059649 0.142605 0.097785 -0.082127 -0.142776 -0.084975 -0.009139 0.13371 0.150226 -0.033948 0.100494 -0.161805 0.200048 -0.113088 -0.193666 0.134301 0.107839 0.153996 -0.02583 -0.102589 0.019957 -0.167462 -0.089285 -0.080432 -0.027253 0.011421 -0.123509 0.047813 -0.11853 0.160271 0.172744 0.035336 -0.075497 -0.17292 -0.05128 0.005391 0.151601 -0.071361 -0.072314 -0.085409 -0.063029 -0.060281 0.042147 -0.037277 -0.091356 -0.181351 -0.001536 -0.057231 0.006275 -0.083538 -0.255018 -0.054278 -0.254964 -0.070801 -0.024028 0.0541 0.108463 -0.18654 -0.233655 0.085816 0.053031 -0.039385 0.135168 0.165729 -0.076049 0.016285 -0.142657 -0.105998 -0.017943 -0.10915 0.062525 0.092294 0.019403 -0.00717
0.061882 0.010304 -0.040018 0.009643 0.173002 0.186807 -0.134934 -0.084283 0.01029 0.140875 -0.14414 0.134343 -0.059959 0.048791 0.020015 -0.028426 -0.090079 0.054915 0.019735 -0.194698 -0.053737 -0.080273 -0.007872 -0.138166 0.150173 -0.037012 -0.013349 -0.065581 -0.094186 0.238452 0.047161 -0.021993 -0.153339 -0.047425 0.020679 0.045556 0.001922 0.07434 0.059238 -0.071312 0.11148 -0.019511 -0.094451 0.114067 -0.137057 0.085663 -0.02124 -5.01E-4 -0.027293 0.054455 -0.044488 0.225688 -0.012022 -0.037341 0.099486 0.122086 0.146643 -0.002505 0.011324 -0.195608 0.163386 0.069197 -0.081081 0.049837 -0.091442 0.048855 5.93E-4 -0.035906 -0.173485 -0.092537 -0.051788 0.035095 -0.055428 0.10194 0.155009 -0.074085 -0.271082 -0.067687 -0.073193 0.045849 -0.025025 0.008271 -0.058166 -0.003871 0.052813 -0.009721 0.087297 0.011648 0.096895 0.072633 -0.002607 -0.02446 -0.005566 0.133144 0.040715 -0.00706 0.166156 -0.224882 -0.069628 -0.003018
0.048366 0.151995 0.111688 -0.006151 -0.013786 -0.155523 0.21016 -0.089325 0.062497 -0.174337 0.144521 0.012828 -0.033755 -0.196721 0.071986 0.066868 -0.069134 0.040869 0.197175 -0.019965 -0.06081 0.173455 -0.076923 0.013283 -0.027885 -0.23193 0.089386 0.159431 0.133203 -0.007175 -0.098174 0.015235 -0.225034 0.016941 -0.011794 -0.247702 0.052439 -0.024836 -0.025106 0.158412 0.030822 0.09096 0.112508 0.058833 -0.15017 0.034818 0.019245 0.11087 0.099759 -0.170295 0.185325 -0.018509 0.018385 0.034319 -0.165129 -0.05847 -0.226171 0.032241 0.066096 0.01075 -0.026749 -0.018803 -0.068914 -0.19988 -0.135688 0.087551 -0.046138 0.10101 0.004847 0.061223 0.071683 0.085339 -0.005551 -0.166256 0.106571 0.094684 0.089871 0.111875 -0.09697 -0.143843 0.104789 0.065645 -0.074171 0.140031 0.150664 -0.071609 0.17542 0.142962 0.07312 0.073828 -0.106737 0.035756 -0.094963 -0.079517 0.015662 -0.104891 0.089968 0.091648 0.179073 -0.016525
0.111892 0.01378 -0.047297 0.162341 0.067451 0.10902 -0.119088 -0.090107 -0.097076 0.025296 -0.017535 0.107782 -0.00256 0.080795 0.058893 -0.0372 -0.011759 -0.146208 -0.16243 0.06978 0.094832 0.025283 0.105435 -0.05398 0.080288 -0.052925 -0.020773 0.103992 -0.014634 -0.084328 0.101895 0.190913 0.05204 -0.029759 -0.021684 -0.013872 0.2671 -0.019463 0.095875 -0.102192 -0.084271 -0.100327 0.133149 0.029422 -0.027453 -0.081145 -0.103923 -0.075562 0.083272 -0.014515 0.138298 -0.001562 -0.028913 0.076054 0.003076 0.115093 0.034456 -0.034865 0.03911 -0.13262 0.095919 0.001019 0.00623 -0.127794 -0.06241 -0.034712 -0.013499 -0.056035 -0.005595 0.156541 -0.025752 -0.013765 0.05656 0.032367 0.013893 -4.69E-4 -0.055776 -0.100697 -0.098114 0.153965 0.071293 -0.046671 -0.071572 0.024842 0.053576 0.002123 0.018444 0.109556 0.030393 0.121736 0.008703 -0.110794 -0.18146 0.103898 -0.109619 0.044195 -0.104034 0.011503 -0.081351 0.146507
0.014401 0.056522 -0.067027 0.003451 -0.029767 0.073351 -0.024849 0.036841 0.040807 0.005458 0.13335 -0.120096 -0.117021 -0.119265 0.024171 -0.015156 0.05961 -0.1094 -0.023646 -0.066864 -0.026603 0.054721 0.037844 -0.047458 0.049247 0.214332 -0.031197 -0.081032 0.0982 -0.06176 -0.187928 0.07447 0.140843 0.089594 0.127182 -0.106684 -0.115247 0.047985 0.017104 -0.188258 0.201881 0.035723 0.17568 -0.081601 0.023983 0.109685 -0.107213 -0.203239 -0.014228 0.042078 0.128434 -0.15446 -0.162105 -0.057687 -0.123467 0.099686 -0.003883 0.05067 0.065316 -0.21982 0.00112 -0.059011 -0.046757 0.11549 0.023983 -0.006561 -0.066449 -0.189888 -0.017994 0.220568 0.052927 -0.029092 0.221103 -0.013212 3.38E-4 -0.022332 0.015746 0.1407 0.033685 0.174891 -0.062061 -0.068634 0.002461 -0.013492 0.017944 0.018135 0.023988 -0.324442 0.001304 0.173735 -0.02299 0.007869 0.154087 -0.09733 0.080793 0.236875 -0.030117 0.131032 0.157627 -0.019791
1.519526 1.445578 -1.609499 2.582747 2.460795 3.529971 0.431498 -0.524736 0.238502 0.565084 -2.150664 2.607871 -3.578636 0.22885 1.205379 0.400126 -2.365878 -2.228676 -0.500047 -1.958516 -2.734259 -2.028213 -0.339577 -2.726884 0.003785 -1.85554 -0.90189 1.042933 0.930181 0.561229 0.956561 0.220468 -1.219533 -0.188243 -0.649085 -0.117874 2.101841 -0.317004 1.300647 -1.49228 0.533457 -2.976113 -0.635474 -1.431524 -0.943268 0.543614 -2.072507 -1.004219 4.072807 -1.496014 2.612373 2.458477 -0.120651 0.418572 -2.53177 0.646754 2.04053 2.0667 -2.403623 -3.037353 -1.289071 1.269349 0.447478 0.512568 0.464348 -0.142416 -1.155552 0.32258 -0.986119 3.909852 3.839548 0.865499 -1.089316 -1.400134 0.517204 -3.398406 -0.576028 -0.612853 -0.573641 -1.979957 1.278503 1.159562 0.583915 -0.210028 0.851463 1.075476 2.276915 0.114312 2.2836 1.968815 1.899569 0.001135 -2.286771 -2.666814 -1.408445 1.975128 -0.085175 1.44887 -1.994305 2.796178
0.0 0.0 0.0 0.0 0.0 0.0 0.0 0.0 0.0 0.0 0.0 0.0 0.0 0.0 0.0 0.0 0.0 0.0 0.0 0.0 0.0 0.0 0.0 0.0 0.0 0.0 0.0 0.0 0.0 0.0 0.0 0.0 0.0 0.0 0.0 0.0 0.0 0.0 0.0 0.0 0.0 0.0 0.0 0.0 0.0 0.0 0.0 0.0 0.0 0.0 0.0 0.0 0.0 0.0 0.0 0.0 0.0 0.0 0.0 0.0 0.0 0.0 0.0 0.0 0.0 0.0 0.0 0.0 0.0 0.0 0.0 0.0 0.0 0.0 0.0 0.0 0.0 0.0 0.0 0.0 0.0 0.0 0.0 0.0 0.0 0.0 0.0 0.0 0.0 0.0 0.0 0.0 0.0 0.0 0.0 0.0 0.0 0.0 0.0 0.0
-0.045003 -0.169535 0.079591 0.230534 -0.210611 0.022738 0.015915 0.06458 -0.163685 0.184032 0.025938 0.261465 -0.025261 -0.195485 0.180699 0.114132 0.035163 0.156595 0.070297 -0.129469 -0.120068 0.174331 0.154076 -0.006354 -0.087779 0.124 0.017202 0.126873 0.31854 -0.064535 0.009159 0.094522 0.074511 0.099565 -0.090756 -0.05051 0.02715 -0.072801 -0.017973 -0.035321 -0.145247 0.051342 0.154564 -0.212896 0.032732 0.228457 -0.041888 -0.017097 -0.165689 0.111209 -0.076318 -0.010871 -0.122694 0.051575 0.132195 0.020058 -0.075605 0.07109 -0.046066 -0.071806 0.118046 -0.109558 0.072558 0.030831 0.086162 -0.159145 0.144118 0.01872 0.142643 0.005807 -0.02392 0.101854 0.038147 -0.055559 -0.211436 0.005158 -0.136585 0.035635 0.077574 0.096802 -0.139341 0.029557 0.004475 -0.025138 0.060637 -0.022696 -0.007629 0.038954 0.145448 0.080283 -0.044528 0.0202 0.248738 -0.034052 -0.028997 -0.066024 -0.00437 -0.007703 0.015203 0.029693
-0.132812 0.139556 0.048597 -0.018647 0.118408 0.00247 -0.067271 0.095907 -0.081878 -0.091832 -0.001812 0.057942 -0.014087 -0.00986 -0.069185 0.188377 -0.021068 0.076926 0.254723 -0.248385 -0.080721 -0.117294 -0.027162 0.065033 -0.143138 0.09449 -0.062873 0.012455 -0.115085 -0.011352 0.037397 0.054183 0.069252 0.06757 -0.067839 0.049231 -0.00707 0.081329 0.143743 0.05676 0.004699 0.191203 -0.07709 -0.013433 -0.090536 -0.038912 -0.08486 -0.164565 -0.080733 -0.096047 -0.094106 0.077144 0.063995 0.070608 -0.063214 -0.219161 -0.013689 0.092466 -0.155988 0.032974 -0.019331 -0.044742 -0.109981 -0.082229 0.089341 0.060836 -0.060764 0.00179 -0.039211 -0.069223 -0.037374 0.018909 -0.059089 -0.066894 0.039494 0.021798 -0.084994 -2.04E-4 -0.14342 0.063634 -0.048142 0.00607 0.012367 0.200435 -0.023967 0.015599 0.077542 -0.039174 -0.128248 -0.083469 0.005174 -0.008694 -0.008888 0.03434 -0.011309 0.126286 -0.1118 9.13E-4 0.052469 -0.078198
-0.183479 -0.048731 0.05397 0.085137 -0.049637 0.023852 0.162362 0.13407 0.063616 0.151144 -0.136799 0.065878 0.008909 -0.196877 0.026541 -0.154639 0.174649 0.213374 0.229147 -0.10444 -0.091235 0.051611 0.021302 0.004539 -0.242356 -0.056614 -0.079564 -0.087788 -0.181456 -0.104612 -0.050045 0.244532 0.071385 -0.118197 0.027271 -0.091531 -0.004654 -0.005903 0.048103 -0.093707 0.106653 -0.0281 -0.001062 0.109551 0.034959 -0.193046 -0.192189 0.034222 0.081309 0.115193 0.1454 -0.155728 -0.09728 0.087806 -0.05977 -0.132969 -0.022818 -0.039456 -0.191359 -0.088908 0.166172 -0.082843 0.209119 -0.024497 -0.1034 0.210093 -0.088396 -0.038933 0.051596 0.054348 0.179003 0.018207 0.026621 0.290335 -0.006817 -0.29026 -0.182348 0.016422 0.091197 0.155795 0.17962 0.19094 0.118767 0.120413 0.086572 -0.134971 -0.019848 0.045235 -0.08239 0.076097 0.091587 0.028616 -0.060531 -0.133395 0.118191 0.109773 -0.071008 -0.011747 -0.08083 -0.088774
1.519526 1.445578 -1.609499 2.582747 2.460795 3.529971 0.431498 -0.524736 0.238502 0.565084 -2.150664 2.607871 -3.578636 0.22885 1.205379 0.400126 -2.365878 -2.228676 -0.500047 -1.958516 -2.734259 -2.028213 -0.339577 -2.726884 0.003785 -1.85554 -0.90189 1.042933 0.930181 0.561229 0.956561 0.220468 -1.219533 -0.188243 -0.649085 -0.117874 2.101841 -0.317004 1.300647 -1.49228 0.533457 -2.976113 -0.635474 -1.431524 -0.943268 0.543614 -2.072507 -1.004219 4.072807 -1.496014 2.612373 2.458477 -0.120651 0.418572 -2.53177 0.646754 2.04053 2.0667 -2.403623 -3.037353 -1.289071 1.269349 0.447478 0.512568 0.464348 -0.142416 -1.155552 0.32258 -0.986119 3.909852 3.839548 0.865499 -1.089316 -1.400134 0.517204 -3.398406 -0.576028 -0.612853 -0.573641 -1.979957 1.278503 1.159562 0.583915 -0.210028 0.851463 1.075476 2.276915 0.114312 2.2836 1.968815 1.899569 0.001135 -2.286771 -2.666814 -1.408445 1.975128 -0.085175 1.44887 -1.994305 2.796178
0.036516 -0.017106 -0.012625 -0.110259 -0.058703 -0.07175 -0.00426 -0.131734 -0.17749 0.038933 -0.060178 0.147241 0.043538 -0.146855 -0.259103 0.238953 0.030855 0.017162 0.045796 -0.054197 -0.051733 0.127415 0.054889 -0.012925 -0.102312 0.033884 0.031345 -0.052135 -0.024182 -0.040765 -0.151597 -0.038209 -0.108257 0.05294 -0.241157 0.035253 0.045651 -0.070801 0.105832 0.039027 -0.066623 0.144984 -0.065799 0.083979 -0.083561 -0.141144 -0.113824 0.103352 -0.268195 0.14047 0.018391 -0.074496 -0.007179 -0.094198 -0.160231 -0.005318 -4.73E-4 0.001548 0.061552 -0.13544 0.014767 -0.087623 -4.07E-4 -0.213449 -0.013584 0.130976 0.053651 -0.025226 0.125211 0.083925 -0.028544 -0.030039 0.039968 -0.079752 -0.018216 -0.04572 -0.048005 -0.056497 -0.205491 -0.038741 0.067133 0.18957 0.007287 -0.13699 -0.05781 0.117331 -0.044041 0.139468 0.208917 0.163011 -0.011396 0.121648 -0.07081 0.029104 -0.103234 0.01825 0.070253 -0.101864 -0.06658 -0.024084
0.014895 -0.074651 0.149306 0.034592 -0.124813 -0.093557 -0.109336 0.095357 -0.004559 0.120353 0.063101 0.05611 -0.170765 -0.006183 0.124002 0.088 -0.022982 0.178539 0.120661 -0.099426 -0.17549 -0.103627 0.078423 0.137021 -0.092399 0.002396 -0.042626 -0.023468 0.096275 -0.108979 0.132579 0.107589 0.023667 0.08889 -0.068845 0.075061 -0.090449 -0.124697 0.044909 0.153786 -0.062018 0.140137 0.011821 -0.024917 0.008052 -0.056226 0.022864 0.329903 -0.163185 0.142635 0.012172 -0.079026 -0.007989 0.170461 0.037373 -0.096909 -0.048095 0.015752 -0.069819 -0.092043 0.043143 -0.075547 -0.063596 -0.256005 -0.12047 0.106857 0.001612 -0.163451 0.158917 -0.023493 -0.246208 0.135086 -0.028539 0.047393 -0.002472 -0.10495 -0.291074 -0.025242 -0.243293 -0.04879 -0.104205 0.125458 0.272848 -0.229472 0.076153 0.001134 0.120864 0.078803 0.239046 0.089035 -0.119129 0.043415 0.055045 0.077094 0.11125 -0.099579 0.005875 -0.083713 0.00718 0.06281
-0.047421 -0.15849 0.107499 0.089927 0.167776 0.08617 -0.300314 -0.309623 0.108092 0.189928 0.056687 0.033222 -0.077897 -0.080874 0.159018 0.266839 -0.245001 0.016831 -0.085825 0.058383 -0.059198 -0.055262 0.240707 -0.12969 -0.22039 0.060318 -0.047124 -0.139865 0.089529 -0.172326 0.039714 -0.133083 -0.093917 0.050088 -0.217563 -0.099461 0.041898 -0.126919 0.020688 0.317283 0.16597 0.022872 0.046324 -0.073254 -0.180954 0.079862 0.019486 0.185367 0.118476 0.006355 -0.032953 -0.037425 0.063885 0.11699 0.184923 0.052025 0.128145 -0.13686 0.190992 -0.211976 0.013083 -0.015876 -0.029147 0.01214 -0.021098 0.071397 0.239282 -0.021331 -0.132596 -0.213218 -0.047197 -0.061747 0.108005 0.06585 0.170104 0.21 0.017802 0.149472 0.139998 -0.100998 0.016478 -0.071088 -0.215638 -0.123884 -0.172349 0.055991 -0.115719 -0.021301 0.071983 0.092645 -0.139537 0.078519 -0.099633 0.035876 -0.078405 -0.346964 0.042416 0.013565 -0.105723 -0.0419
