0.0 0.0 0.0 0.0 0.0 0.0 0.0 0.0 0.0 0.0 0.0 0.0 0.0 0.0 0.0 0.0 0.0 0.0 0.0 0.0 0.0 0.0 0.0 0.0 0.0 0.0 0.0 0.0 0.0 0.0 0.0 0.0 0.0 0.0 0.0 0.0 0.0 0.0 0.0 0.0 0.0 0.0 0.0 0.0 0.0 0.0 0.0 0.0 0.0 0.0 0.0 0.0 0.0 0.0 0.0 0.0 0.0 0.0 0.0 0.0 0.0 0.0 0.0 0.0 0.0 0.0 0.0 0.0 0.0 0.0 0.0 0.0 0.0 0.0 0.0 0.0 0.0 0.0 0.0 0.0 0.0 0.0 0.0 0.0 0.0 0.0 0.0 0.0 0.0 0.0 0.0 0.0 0.0 0.0 0.0 0.0 0.0 0.0 0.0 0.0
0.037061 0.00744 0.132391 -0.117569 -0.12835 -0.037763 -0.134953 -0.114613 -0.125995 0.053789 0.256601 0.218586 -0.008674 -0.250697 0.256273 0.253435 -0.07417 0.190199 0.257818 -0.043197 -0.159766 0.299402 0.323469 0.033055 -0.067434 -0.25649 0.037179 -0.178575 0.268002 -0.22863 -0.156511 0.097044 0.045487 0.213341 -0.254197 -0.251653 -0.069685 -0.117558 -0.171141 0.284378 -0.09144 -0.04336 -0.125877 -0.098279 0.032489 -0.276513 -0.141507 -0.059484 -0.276359 0.165358 -0.040531 -0.13332 -0.18597 -0.197951 0.085198 -0.468122 0.049403 -0.137815 0.172622 -0.114569 0.070387 0.189676 -0.255123 -0.27237 -0.092557 -0.220061 -0.052237 -0.015204 -0.042968 -0.486835 -0.208991 -0.105085 8.54E-4 0.129845 -0.004141 -0.100719 -0.126036 -0.08818 0.017388 0.116123 0.039181 0.115022 0.216875 0.027159 -0.050071 0.041171 0.117408 -0.043578 0.221819 0.073512 -0.052926 0.01937 0.070987 0.101287 -0.080312 -0.443817 -0.22539 0.014221 -0.085695 0.008698
-0.023922 -0.012191 -0.125277 -0.334044 0.044872 0.020869 -0.070801 -0.07156 0.01417 -0.083852 0.036866 0.067244 -0.08476 -0.126344 -0.006829 0.18267 -0.009463 0.10643 -0.023234 -0.059508 -0.092878 -0.010639 0.193694 -0.074927 -0.124825 -0.076 0.045428 -0.171005 0.1185 0.055418 0.130439 0.032024 -0.185589 -0.028457 -0.155763 0.091463 0.084622 0.066681 0.039252 -0.100873 -0.035272 0.146368 0.041815 0.004048 0.093202 0.039729 -0.079073 0.013671 -0.041807 0.078167 0.016327 -0.075933 -0.121845 0.024124 0.148109 -0.029383 -0.116853 0.030155 -0.010462 -0.023731 -0.022724 -0.081117 0.047516 -0.039151 0.062676 -0.005872 -0.07907 2.51E-4 0.119919 -0.089446 -0.045222 0.052245 0.097146 -0.07249 0.070148 0.188955 -0.056155 -0.172282 -0.019057 -0.103583 -0.020359 0.036502 0.086205 -0.113491 -0.018033 -0.043261 -0.099522 0.148977 0.008446 -0.152376 -0.206393 -0.13141 -0.021897 -0.090293 -0.25026 -0.062881 -0.010352 2.46E-4 0.004984 -0.121428
0.007246 0.053204 0.100928 0.006342 -0.101763 -0.085197 -0.083461 -0.123321 -0.100071 -0.042788 -0.155182 0.073053 -0.120455 0.059108 0.2188 0.103057 0.06081 0.00949 -0.182921 0.034294 -0.122566 -0.124692 0.14027 0.020579 -0.119203 -0.013958 -0.156626 0.105013 0.218325 -0.087863 -0.012293 -0.149912 -0.102018 0.191563 0.052477 0.053501 0.163665 0.035356 0.069416 0.115013 -0.105517 0.133498 0.044305 0.046916 -0.031637 0.092181 -0.128598 0.004537 -0.117556 -0.017436 0.142292 -0.170739 -0.094203 -0.159656 0.003728 0.017704 -0.079291 -0.10274 0.020011 -0.019057 -0.097359 -0.03764 -0.0914 -0.086059 0.119906 0.067012 0.096686 0.157964 0.068966 -0.023785 0.046974 -0.008436 -0.065665 0.102192 0.01846 0.034072 0.013473 -0.054716 0.045957 -0.220794 -0.231742 0.033982 0.162247 0.016021 0.050697 0.09313 2.07E-4 -0.205807 -0.080609 0.012886 -0.152411 -0.018133 -0.019331 0.073492 -0.026605 -0.060685 -0.069619 0.142252 -0.100558 -0.024004
0.0 0.0 0.0 0.0 0.0 0.0 0.0 0.0 0.0 0.0 0.0 0.0 0.0 0.0 0.0 0.0 0.0 0.0 0.0 0.0 0.0 0.0 0.0 0.0 0.0 0.0 0.0 0.0 0.0 0.0 0.0 0.0 0.0 0.0 0.0 0.0 0.0 0.0 0.0 0.0 0.0 0.0 0.0 0.0 0.0 0.0 0.0 0.0 0.0 0.0 0.0 0.0 0.0 0.0 0.0 0.0 0.0 0.0 0.0 0.0 0.0 0.0 0.0 0.0 0.0 0.0 0.0 0.0 0.0 0.0 0.0 0.0 0.0 0.0 0.0 0.0 0.0 0.0 0.0 0.0 0.0 0.0 0.0 0.0 0.0 0.0 0.0 0.0 0.0 0.0 0.0 0.0 0.0 0.0 0.0 0.0 0.0 0.0 0.0 0.0
0.082419 -0.027558 0.161525 -0.006784 -0.028519 0.042974 -0.239648 -0.072011 -0.030648 -0.037879 0.174515 -0.058778 -5.45E-4 -0.188497 0.148605 0.012125 -0.026898 0.151774 0.151552 -0.03033 -0.00348 0.326793 0.180855 -0.038154 -0.279006 -0.066228 0.036194 -0.117536 0.041498 0.147225 -0.079437 0.224825 0.08563 0.134557 0.00976 -0.252724 -0.099708 0.049975 -0.014022 0.052333 0.03107 0.146001 0.030042 -0.057127 0.099671 -0.195698 -0.055388 0.065768 -0.179782 0.02922 0.062619 -0.129339 -0.042511 -0.21779 0.1654 -0.283762 0.13651 0.023756 0.080263 -0.134731 -0.096912 0.090578 -0.111529 -0.168095 -0.134805 -0.056595 0.058931 -0.126787 0.020235 -0.167245 0.107723 -0.079347 -0.006283 0.013677 0.037639 0.003747 -0.193232 -0.079613 0.019969 0.168579 0.015104 0.172116 0.213794 0.005706 -0.007968 0.11441 0.037143 -0.018036 0.031645 0.010121 -0.24165 -0.079192 0.074107 0.165375 -0.017662 -0.100288 -0.027216 -0.18413 -0.182862 -0.205446
0.040605 -0.122513 0.0133 -0.014846 0.097934 0.005269 0.001168 0.026936 0.0137 -0.050717 -0.029762 0.026296 -0.123507 -0.058953 0.233202 0.169967 -0.070421 0.047084 -0.010955 0.12221 0.062894 0.152738 0.18115 -0.03879 -0.224771 -0.068218 -0.094537 -0.044041 -0.009634 -0.046667 -0.098465 0.083138 -0.072031 0.19798 0.002016 -0.153018 -0.075386 0.020654 -0.037364 0.127048 -0.183547 0.088872 -0.028551 0.105256 0.034935 -0.113322 -0.001606 0.121235 -0.118221 0.166055 0.035004 0.081893 -0.121582 -0.099498 0.120378 -0.016534 -0.15856 -0.031555 0.155184 0.009563 0.027574 -0.146988 0.129285 -0.061186 -0.032453 0.007123 0.094789 -0.061724 -0.056433 -0.181504 -0.012694 -0.090566 0.011397 0.083173 0.062284 -0.071866 -0.005043 -0.002711 -0.084026 -0.048686 -0.063399 0.162056 0.108399 -0.104081 0.007232 -0.004962 0.018736 0.015003 0.103073 0.023795 0.002341 0.008611 0.047705 -0.014164 0.007996 -0.20082 0.069452 -0.050441 -0.046158 -0.011962
0.01891 -0.060665 0.135969 0.183092 -0.055761 -0.076547 -0.222809 0.044102 -0.010539 0.189162 0.021543 0.105088 0.052464 0.106578 0.014072 -0.030556 0.001304 -0.009971 0.084897 -0.006616 -0.008994 -0.08879 -0.020135 0.107845 -0.014012 -0.087822 -0.084146 -0.025894 0.128106 -0.065299 -0.076678 -0.030183 -0.039492 -0.038769 0.035698 0.004731 0.135535 0.081022 -0.085718 -0.085159 0.051488 0.035486 -0.017824 0.205306 -0.150968 -0.046718 -0.089217 0.102943 0.009137 0.007239 0.210947 -0.084459 0.16431 0.077647 0.21221 -0.051225 0.111011 -0.059967 0.130746 0.149758 0.098683 -0.020428 0.132569 -0.058797 0.016501 -0.054702 0.116284 -0.152144 0.027769 -0.108143 0.051962 0.07111 0.045641 0.005755 -0.010936 -0.071829 0.061753 -0.077299 -0.123208 0.137011 -0.020861 -0.153239 0.054479 0.014044 0.059868 0.038198 0.029808 0.02053 0.145425 -0.259012 -0.029823 0.014488 0.015157 0.209326 0.003128 -0.199791 0.128203 -0.151176 0.138139 0.097779
-0.069658 0.023633 0.116767 0.035829 -0.079851 -0.093257 -0.045382 -0.062756 -0.019851 0.281369 0.172608 0.030384 -0.089934 -0.12145 0.071007 0.146808 0.131692 0.246078 0.069141 0.009067 0.026341 0.067557 0.200389 0.140025 -0.109646 0.05275 0.019328 -0.109923 0.056204 -0.078292 -0.016772 0.025184 -0.062107 0.129968 0.034059 0.017396 0.030825 -0.056457 0.064101 0.228467 -0.031745 0.2492 -0.001467 0.03272 0.0604 -0.099096 0.036542 0.029892 -0.163335 0.006156 0.029762 -0.071125 -0.102286 -0.137939 0.111847 -0.240753 -0.010742 6.51E-4 0.155021 -0.02227 0.172929 -0.125494 -0.070193 -0.251992 -0.022052 0.067772 0.035206 0.094298 -0.008683 -0.0794 0.009904 -0.092862 0.035254 -0.036096 0.03663 -0.130638 -0.145827 -0.253254 0.047072 -0.168286 -0.056635 0.155337 -0.026758 -0.115658 -0.094474 0.043513 -0.028711 -0.07168 0.076518 0.010552 -0.205807 -0.153825 -0.142961 0.069763 -0.019223 0.039665 0.067058 -0.043121 0.063382 -0.04735
-0.029884 -0.194923 0.032866 0.028902 -0.072141 0.028468 -0.165251 0.026539 -0.166706 -0.03554 0.077071 0.191572 0.098214 -0.123812 0.003146 0.170408 -0.031036 0.115649 0.039825 -0.03509 -0.177875 0.144527 0.204351 -0.031412 0.036521 -0.124463 -0.006316 -0.057787 0.074607 -0.026333 -0.114972 -0.031116 -0.054909 0.050594 -0.105309 -0.090531 0.010828 -0.03704 -0.088614 -0.066451 0.030941 0.070015 -0.073618 0.051539 0.010617 -0.151308 -0.129206 0.033917 -0.019918 0.089862 0.087194 -0.167167 0.048012 -0.028534 0.007983 -0.012917 0.053718 -0.026865 0.061709 -0.255582 0.060004 -0.150916 -0.033758 -0.042004 0.035077 0.039992 0.0452 0.031297 -0.067816 0.001281 0.044669 0.00902 -0.083436 0.027811 0.091732 -0.119324 0.080762 -0.066706 0.082721 0.0414 0.022447 0.179806 0.020904 -0.208898 0.012828 -0.026262 -5.23E-4 0.065304 0.023126 0.017436 -0.036423 -0.205068 -0.162879 0.093584 -0.094729 0.050521 -0.002196 0.029199 -0.108398 -0.028385
-0.042278 -0.033609 -0.033695 -0.133595 -0.090644 -0.025333 -0.03306 -0.1629 -0.081328 -0.142233 -0.010558 0.035472 0.103877 0.055398 -0.028881 -0.019201 -0.049124 0.172557 0.042849 0.0348 0.031096 0.184783 0.134647 0.030966 -0.38637 0.122726 0.03256 -0.128625 0.107213 -0.070539 -0.109125 0.05315 -0.05244 -0.154188 0.065356 -0.105141 -0.055566 0.078361 -0.090073 0.009518 -0.03595 0.196749 0.060282 0.219721 -0.034064 -0.105112 -0.013733 0.054063 -0.131127 0.12471 0.085008 0.043531 -0.073784 -0.168195 0.255335 0.006838 0.062356 -0.071306 -4.03E-4 -0.009657 0.284421 -0.002503 -0.044128 -0.049156 -0.046111 -0.090961 0.089912 0.065304 -0.028713 -0.07957 -0.053376 0.039639 0.13543 0.024942 0.166578 -0.097408 -0.204715 0.092608 0.073305 0.076215 0.097472 0.265644 0.062301 0.040595 0.19122 -0.089733 0.013013 0.116227 -0.010347 0.184852 -0.138406 0.061025 0.067421 0.184874 -0.036806 -0.146331 0.15406 -0.087282 -0.165985 -0.052102
0.0 0.0 0.0 0.0 0.0 0.0 0.0 0.0 0.0 0.0 0.0 0.0 0.0 0.0 0.0 0.0 0.0 0.0 0.0 0.0 0.0 0.0 0.0 0.0 0.0 0.0 0.0 0.0 0.0 0.0 0.0 0.0 0.0 0.0 0.0 0.0 0.0 0.0 0.0 0.0 0.0 0.0 0.0 0.0 0.0 0.0 0.0 0.0 0.0 0.0 0.0 0.0 0.0 0.0 0.0 0.0 0.0 0.0 0.0 0.0 0.0 0.0 0.0 0.0 0.0 0.0 0.0 0.0 0.0 0.0 0.0 0.0 0.0 0.0 0.0 0.0 0.0 0.0 0.0 0.0 0.0 0.0 0.0 0.0 0.0 0.0 0.0 0.0 0.0 0.0 0.0 0.0 0.0 0.0 0.0 0.0 0.0 0.0 0.0 0.0
-0.087255 -0.05591 0.054305 -0.024922 0.12279 0.041971 0.011628 -0.098172 0.13061 0.088978 0.139548 0.154385 0.10967 -0.074364 0.077608 0.342633 -0.019875 0.008986 0.121981 0.055307 -0.003396 0.250389 -0.003606 -0.027202 -0.077535 -1.16E-4 -0.00206 0.156913 0.196292 -0.041947 -0.256602 -0.075561 -0.331833 -0.028169 -0.227118 -0.023069 -0.031505 -0.123196 0.067817 0.109003 -0.150311 -0.176863 -0.003222 0.297853 0.06886 0.054723 0.197442 -0.009663 0.124548 -0.115984 -0.107457 -0.134223 -0.057877 0.014351 -0.020055 -0.038021 0.086742 0.251573 0.36257 0.003758 0.053095 -0.086013 -0.02227 -0.136233 -0.017961 0.053643 0.053971 -0.264445 0.141244 -0.001727 0.102822 -0.045402 0.072919 -0.05572 -0.011331 -0.015733 -0.123198 -0.088768 0.042072 -0.014455 -0.084923 -0.030051 0.101633 -0.145179 0.084003 0.006179 0.137993 -0.044962 0.159725 0.029218 -0.030525 -0.103093 -0.1477 -0.002794 0.039423 -0.078334 0.05768 0.210979 -0.090714 -0.257268
-0.007826 0.018777 0.08636 0.186447 0.107979 -0.00815 0.080352 0.1767 -0.038316 0.124456 0.002908 0.073264 0.197228 -0.111038 0.02343 -0.031871 0.106394 0.186544 0.202326 0.186491 -0.075624 0.196971 0.279306 0.136999 -0.030662 -0.339777 0.155407 0.020756 0.053512 0.006461 -0.054168 0.065825 -0.074855 0.204278 -0.194641 -0.27512 0.002619 -0.033009 0.231609 -0.204958 0.033174 0.039118 -0.003998 0.015427 0.15663 -0.058871 -0.1154 0.023608 -0.150317 -0.239554 0.06642 -0.19571 -0.101709 8.6E-4 0.004849 -0.191432 -0.04407 -0.040266 0.124501 0.052178 0.138761 -0.01761 -0.112193 -0.123212 -0.062369 0.106717 0.053339 0.111797 0.155838 -0.150812 -0.183521 0.047699 -0.151615 -0.137403 -0.004305 -0.114104 -0.240036 -0.011894 -0.013635 -0.122122 -0.089257 0.252698 0.113642 -0.153833 0.070426 0.152308 0.132024 -0.154574 0.161886 0.062396 -0.074886 -0.074825 -0.039742 -0.030485 -0.107707 -0.131207 -0.006451 0.058377 -0.036591 -0.114862
-0.094325 -0.057006 0.073201 -0.077743 -0.012141 0.040699 0.145945 -4.84E-4 0.044922 0.035918 0.078649 0.029715 0.102141 -0.009332 -0.046547 -0.079896 0.0363 -0.284735 0.03041 -0.060417 -0.1393 0.021209 -0.142138 -0.052966 -0.035069 -0.24002 -0.072484 0.056733 -0.095256 0.09976 -0.18896 -0.243862 -0.124059 0.135325 -0.006907 0.121288 0.293725 -0.142452 0.281387 0.067788 -0.233087 0.059163 0.018438 0.251514 -0.222459 0.028922 -0.100199 0.13557 -0.15905 -0.100884 0.040784 -0.043736 -0.146391 0.033441 -0.133452 0.030056 0.02616 -0.058306 0.107696 0.036439 -0.024336 0.061196 0.015926 -0.043441 0.037592 0.204057 0.02732 -0.12236 0.07568 -0.051241 0.00644 -0.020858 -0.104618 -0.068757 0.013144 -0.125003 0.006394 0.008544 0.005652 -0.235538 0.173454 0.072753 -0.178347 -0.067899 0.040325 -0.016052 0.067498 -0.095353 0.098164 -0.061056 0.131073 -0.111217 0.075814 0.090099 -0.087155 0.046798 -0.095057 0.054726 -7.38E-4 -0.138083
2.33E-4 -0.192065 -0.006888 0.228649 -0.126236 0.032046 -0.001694 -0.018403 -0.212513 0.050334 0.06545 0.136146 -0.015178 0.086977 -0.056748 0.114159 0.13418 -0.171044 -0.031856 -0.13553 -0.046629 0.032091 -0.089698 0.13657 0.129395 0.003374 -0.08532 0.020641 0.17646 0.067407 -0.130815 -0.030482 -0.04177 -0.01523 0.095163 -0.044574 0.084703 -0.082191 -0.032034 -0.224867 -0.043028 0.196368 -0.084377 -0.012451 0.036403 -0.007051 -0.059215 -0.002461 0.149614 0.04378 -0.022686 0.018295 0.126745 -0.072632 0.10018 0.118108 0.101603 -0.010505 -0.070633 -0.038113 0.10562 -0.104822 0.049236 -0.0021 0.021987 -0.099997 0.096972 -0.013696 -0.007286 0.128109 0.030538 0.07768 -0.044002 0.026838 0.00264 0.066599 -0.043204 0.081148 0.099398 0.040484 -0.057395 0.084571 0.034539 0.258607 0.110911 -0.149388 -0.11583 0.01048 0.174389 0.021483 0.189594 -0.099666 -0.191515 -0.027588 -0.013682 -0.088582 0.073923 -0.035495 0.066441 -0.051544
-0.046453 -0.114089 0.048378 0.039697 0.205342 -0.134425 0.195579 -0.187425 0.012362 -0.056148 -0.131226 -0.036605 -0.166618 -0.005606 0.011423 -0.035289 0.073024 0.049955 -0.03056 -0.116564 -4.0E-4 0.248965 0.168589 -0.016666 -0.127127 -3.18E-4 0.127741 -0.107854 0.05539 -0.111124 -0.041902 -0.11626 0.086201 0.191946 -0.031307 -0.026238 0.135582 -0.138117 -0.118683 -0.205278 -0.118941 0.075416 -0.021621 -0.074612 0.105553 0.141257 -0.097239 0.031083 -0.191864 0.157126 0.157338 0.018714 -0.190255 -0.078835 0.160698 0.051121 -0.022634 0.282011 -0.210636 0.065967 0.011387 -0.10215 -0.014587 8.06E-4 -0.126806 0.10146 -0.051249 -0.166886 0.138311 -0.092453 -0.203714 0.163209 0.126385 -0.163049 0.060969 -0.136489 -0.119169 0.143901 -0.166778 -0.074124 -0.205023 0.138254 -0.069697 -0.023512 0.056226 -0.151985 0.057434 -0.163405 0.084998 0.19969 0.169875 -0.038445 0.015784 -0.127481 -0.113888 -0.245198 0.065981 0.165014 0.001608 -0.042748
0.051727 -0.163019 0.080513 0.007001 0.026981 -0.139648 -0.070711 0.028251 0.057919 0.015079 0.018688 0.080039 -0.013169 -0.169415 0.229306 0.146242 0.080152 -0.13523 0.071961 0.079063 -0.057927 0.1413 0.136064 0.077363 -0.086358 -0.181423 0.056878 0.077006 0.193802 -0.207265 -0.125262 0.068635 0.066314 0.143827 -0.011856 -0.090492 -0.167857 -0.142853 -0.140182 0.069166 0.015465 -0.037624 -0.138479 0.072324 0.02261 -0.053816 -0.043915 -0.138623 0.11636 -0.030628 0.085947 -0.022334 -0.061743 0.215037 0.147303 0.210964 -0.175339 -0.095672 -0.10277 -0.294775 0.041114 0.031241 0.16528 -0.101715 -0.101105 0.023033 -0.149807 -0.13894 -0.068447 0.12591 0.065311 0.055002 -0.051104 0.038142 0.131558 0.041642 0.016612 0.066537 -0.057153 -0.111632 -0.058681 -0.035739 0.113734 -0.180174 -0.124521 0.227101 0.034789 -0.045129 -0.055464 -0.002681 -0.183934 -0.050067 -0.23769 -0.095259 0.01562 -0.025612 -0.116113 -0.08813 -0.135294 -0.076746
-0.055397 -0.043102 0.00902 -0.056794 0.15165 -0.0222 -0.054257 -0.12668 -0.020033 0.231808 0.041521 0.103328 -0.119901 -0.029768 -0.00884 0.276436 -0.208498 0.072097 0.007958 0.013698 -0.013717 0.067404 0.162383 -0.057534 -0.153225 0.031117 -0.037104 0.012672 0.157839 -0.228474 0.076113 0.089057 -0.205106 -0.05172 -0.134515 -0.081583 -0.048063 0.023336 -0.143134 -0.027582 0.053861 0.06119 0.050755 -0.084264 0.127119 0.017018 0.013377 0.105676 0.095363 0.136122 0.05481 -0.024668 -0.13611 0.1582 0.093751 -0.023879 -0.102729 -0.162727 0.015921 -0.040754 0.018684 0.110109 -0.031075 0.022197 -0.024901 -0.002238 0.148864 -0.018044 -0.06314 0.010846 -0.070611 -0.02471 0.035135 -0.001851 0.182065 0.266453 -0.1551 0.041764 -0.139853 -0.105164 -0.03081 -0.05963 -0.017523 -0.132791 -0.121959 0.191297 0.036534 -0.062867 0.028674 -0.038514 -0.083088 -0.133602 -0.250948 -0.064904 -0.107247 -0.169121 0.099692 -0.121132 -0.101041 0.054744
0.0 0.0 0.0 0.0 0.0 0.0 0.0 0.0 0.0 0.0 0.0 0.0 0.0 0.0 0.0 0.0 0.0 0.0 0.0 0.0 0.0 0.0 0.0 0.0 0.0 0.0 0.0 0.0 0.0 0.0 0.0 0.0 0.0 0.0 0.0 0.0 0.0 0.0 0.0 0.0 0.0 0.0 0.0 0.0 0.0 0.0 0.0 0.0 0.0 0.0 0.0 0.0 0.0 0.0 0.0 0.0 0.0 0.0 0.0 0.0 0.0 0.0 0.0 0.0 0.0 0.0 0.0 0.0 0.0 0.0 0.0 0.0 0.0 0.0 0.0 0.0 0.0 0.0 0.0 0.0 0.0 0.0 0.0 0.0 0.0 0.0 0.0 0.0 0.0 0.0 0.0 0.0 0.0 0.0 0.0 0.0 0.0 0.0 0.0 0.0
0.042301 -0.021118 -0.002219 0.056439 0.020325 0.094558 -0.216911 0.048536 -0.159833 9.03E-4 0.239579 0.04729 -0.017582 -0.057755 -0.056331 0.175043 -0.010556 0.254134 -0.023952 0.001945 -0.161083 -0.005101 0.193145 0.073464 -0.055642 -0.035022 0.120662 0.018228 -0.107647 -0.102976 0.055227 0.018577 -0.308446 0.145268 -0.238507 -0.078004 0.017402 -0.023687 -0.106833 -0.029922 -0.061287 0.028024 0.079015 0.192533 -0.050487 -0.121277 -0.081093 0.090089 -0.111868 0.108836 -0.041103 -0.099423 -0.055836 0.142108 0.005729 -0.099871 -0.076428 0.169819 0.030807 0.026952 0.162379 -0.038806 0.077312 -0.153138 0.050308 -0.07769 0.056234 0.067894 0.116871 0.008203 0.047632 -0.043906 0.09895 0.09111 -0.031882 0.172238 -0.115888 0.016751 -0.153299 0.057254 -0.004629 0.131597 0.075967 0.048453 0.058252 -0.043846 0.037892 0.021069 0.144925 0.199647 -0.229249 -0.034252 0.02626 0.051142 -0.183994 -0.110028 -0.121121 -0.036865 0.029965 0.070637
0.038905 -0.00167 0.040517 -0.111143 0.071418 0.054611 0.018845 0.029936 -0.202865 -0.023008 0.31644 0.01994 0.13346 -0.084198 0.038539 0.100917 -0.119582 0.085843 -0.020548 -0.056929 -0.120474 -0.063985 0.237622 0.162603 -0.087584 0.038709 -0.1509 -0.040034 0.037795 -0.00422 0.115477 -0.140095 0.010622 -0.023037 -0.121673 -0.116204 0.082257 -0.165181 0.234299 -0.02871 0.132152 0.046959 0.084356 0.003832 -0.017002 0.146031 -0.073206 0.113518 0.021128 0.139606 0.068422 0.094766 -0.015339 -0.080037 -0.05472 0.094777 0.091308 -0.067354 0.147034 0.044723 -0.122367 -0.102383 0.015395 -0.12606 -0.080145 0.195472 0.032716 -0.032266 0.102118 -0.069941 0.117676 -0.163425 -0.024333 0.041359 -0.058012 0.138805 0.029057 0.1255 -0.124526 -0.151586 -0.044309 -0.141576 0.137192 0.073907 -0.043627 -0.031599 0.101981 0.016387 0.023819 0.158003 -0.093835 0.117282 -0.150936 -0.096635 -0.016518 0.05269 -0.040607 0.016052 -0.176522 -0.110965
1.51713 0.950998 -0.43035 1.410565 1.027436 -0.021932 -0.446363 2.014639 -1.367287 -0.918352 -0.238369 -0.583637 1.276085 2.410767 0.73524 -0.15024 -0.680788 0.540768 -4.791297 -0.527541 -1.792397 2.281269 -1.972297 1.909008 0.906279 -0.575539 -1.816574 -2.135859 -3.533016 2.209813 2.599934 -3.737719 -1.60086 -3.001603 -3.728525 -0.759598 0.009888 -1.240785 -3.960285 -0.934149 1.498481 -3.789986 0.521224 -1.196375 -1.411245 -1.454399 -1.089609 -0.558878 1.182928 -0.369626 3.654269 1.714898 -0.545065 -1.442425 -3.594375 -1.122622 0.863868 -1.031306 -1.259423 -1.192458 -1.02248 -0.593149 -0.642908 1.307686 -0.362551 -1.302147 0.495603 -2.945837 -1.743057 1.619189 2.335525 -3.309908 -1.940478 2.695575 0.207934 0.223261 -2.343333 -0.356945 -1.7503 1.252601 1.358825 -1.229506 -1.651647 -0.467668 0.469764 -3.772937 1.519435 1.437086 0.207474 1.961345 0.765705 -0.622458 -2.069355 1.397011 1.495126 -1.007558 -0.943656 2.980306 -2.320673 0.76536
-0.033059 -0.003841 0.030108 0.163011 0.105352 0.147194 -0.036178 -0.068444 0.038477 0.06238 0.121326 0.096957 -0.03952 0.059737 0.108019 0.088335 -0.065316 -0.055853 0.004409 0.284164 -0.120727 0.012958 0.211637 -0.05379 -0.076821 0.048247 -0.036615 0.131151 0.105124 -0.132452 -0.004586 0.047553 0.018431 0.082375 -0.037184 -0.057503 -0.05921 0.098712 0.126763 0.00903 -0.082714 -0.216583 0.133272 -0.007393 0.089772 -0.115459 0.110736 -0.118571 0.00702 0.039542 0.055305 -0.1787 -0.106418 -0.041918 -0.069195 0.051072 -0.156254 0.108775 0.05522 -0.136086 -0.016338 0.004462 -0.009961 -0.119515 0.133079 0.064662 -0.03509 -0.099412 0.227227 0.051663 0.156802 -0.189851 -0.023435 0.082887 0.088759 0.099828 -0.107043 0.02213 -0.023956 -0.070325 -0.032073 0.11249 0.114516 -0.11666 -0.042468 0.059348 -0.026855 0.038676 0.052443 0.077647 0.162325 -0.039425 -5.71E-4 0.002889 -0.038787 -0.036086 -0.056988 0.015773 -0.025481 0.004083
0.071192 0.045068 -0.023793 0.123065 0.101912 0.139692 0.056816 -0.003893 -0.12216 0.164326 0.058394 -0.015741 0.04214 0.049129 -0.289037 -0.172881 0.204294 -0.048807 -0.043127 -0.238543 -0.017866 0.088233 -0.078462 -0.205901 0.153401 0.182092 -0.002656 0.063246 -0.027073 -0.13136 0.033242 -0.119172 0.050154 -0.036348 -0.161123 0.015677 0.136837 -0.137803 0.092201 -0.118468 -0.10595 -0.025159 0.114314 0.078671 0.106531 0.170871 -0.092603 0.005286 -0.058458 0.096196 -0.114486 -0.0349 0.154658 -0.002244 0.091786 -0.21261 0.297727 0.119857 -0.064175 -0.067058 -0.148504 -0.028225 0.107149 -0.089345 -0.065614 -0.020453 0.078651 0.003653 0.129779 0.154116 0.197731 0.076662 0.009082 -0.004618 -0.152015 0.018254 -0.035146 5.29E-4 -0.290312 -0.0532 -0.183897 0.027651 0.019012 -0.147248 0.067387 -0.046769 0.150617 -0.163954 0.050207 0.058721 0.125804 -0.138711 0.03531 -0.022206 7.76E-4 -0.093841 -0.032615 0.00515 -0.117657 -0.133737
0.036737 -0.032921 0.024463 0.001525 -0.14953 -0.081921 0.05195 0.033054 0.042371 0.187633 -0.169856 -0.043431 -0.173636 0.224604 -0.099043 -0.052621 -0.094147 -0.087315 -0.205223 0.126826 -0.051988 0.057934 0.007092 0.028646 0.030134 0.006318 0.118765 0.00841 -0.042876 -0.067148 -0.15148 -0.042306 0.047684 0.10077 -0.040846 -0.155266 0.173754 7.38E-4 -0.149543 -0.155015 0.042332 1.9E-5 0.164393 -0.109523 -0.01025 0.019395 0.060378 0.084138 0.12078 -0.042878 0.08194 -0.06976 0.047308 0.056745 0.006819 -0.026824 -0.156007 0.042841 -0.214906 -0.100455 0.001679 0.056153 0.00309 0.056995 -0.027269 0.054063 -0.021361 -0.118937 -0.039109 0.253888 -0.099679 0.068347 0.024916 0.004649 0.026359 0.067277 0.089904 -0.116294 -0.057639 -0.070171 0.238942 -0.101354 -0.104886 -0.195107 -0.268537 -0.124495 -0.010152 -7.27E-4 0.045996 0.182311 -0.129108 -0.070264 -0.013 0.100287 -0.131971 0.14376 -0.073632 0.262197 -0.055353 0.017675
-0.172636 0.01033 0.161959 -0.183546 0.084826 0.001454 -0.012333 0.025399 -0.140257 -0.043156 0.065558 -0.05232 0.099666 0.00853 0.143223 0.114338 0.12441 0.125198 0.033525 0.036631 -0.100414 0.095781 0.079415 0.218911 -0.202953 -0.176273 0.003928 -0.080203 0.064255 -0.151939 -0.015762 -0.091797 0.058406 0.259075 0.142232 0.005009 -0.027051 -0.151772 -0.009225 0.087933 -0.047953 0.058876 -0.00632 0.200481 -0.051352 -0.062672 -0.004913 0.138106 0.006286 0.095799 0.155862 0.073325 -0.063141 -0.126818 0.080382 -0.03216 0.029759 0.0419 0.073559 0.032012 0.00921 -0.174483 -0.047889 -0.051292 -0.092714 0.114818 -0.104232 -0.056323 -0.006118 -0.033086 -0.071821 -0.058985 -0.082653 -0.01357 0.127079 -0.029265 0.032993 0.09375 -0.047027 -0.121647 0.078634 0.058114 0.019442 1.0E-5 0.027019 0.006064 0.011752 0.078438 0.206987 0.051293 -0.026753 -0.10776 0.076365 -7.58E-4 -0.123035 -0.129837 -0.027931 -0.05268 0.159075 3.06E-4
0.0 0.0 0.0 0.0 0.0 0.0 0.0 0.0 0.0 0.0 0.0 0.0 0.0 0.0 0.0 0.0 0.0 0.0 0.0 0.0 0.0 0.0 0.0 0.0 0.0 0.0 0.0 0.0 0.0 0.0 0.0 0.0 0.0 0.0 0.0 0.0 0.0 0.0 0.0 0.0 0.0 0.0 0.0 0.0 0.0 0.0 0.0 0.0 0.0 0.0 0.0 0.0 0.0 0.0 0.0 0.0 0.0 0.0 0.0 0.0 0.0 0.0 0.0 0.0 0.0 0.0 0.0 0.0 0.0 0.0 0.0 0.0 0.0 0.0 0.0 0.0 0.0 0.0 0.0 0.0 0.0 0.0 0.0 0.0 0.0 0.0 0.0 0.0 0.0 0.0 0.0 0.0 0.0 0.0 0.0 0.0 0.0 0.0 0.0 0.0
2.33E-4 -0.192065 -0.006888 0.228649 -0.126236 0.032046 -0.001694 -0.018403 -0.212513 0.050334 0.06545 0.136146 -0.015178 0.086977 -0.056748 0.114159 0.13418 -0.171044 -0.031856 -0.13553 -0.046629 0.032091 -0.089698 0.13657 0.129395 0.003374 -0.08532 0.020641 0.17646 0.067407 -0.130815 -0.030482 -0.04177 -0.01523 0.095163 -0.044574 0.084703 -0.082191 -0.032034 -0.224867 -0.043028 0.196368 -0.084377 -0.012451 0.036403 -0.007051 -0.059215 -0.002461 0.149614 0.04378 -0.022686 0.018295 0.126745 -0.072632 0.10018 0.118108 0.101603 -0.010505 -0.070633 -0.038113 0.10562 -0.104822 0.049236 -0.0021 0.021987 -0.099997 0.096972 -0.013696 -0.007286 0.128109 0.030538 0.07768 -0.044002 0.026838 0.00264 0.066599 -0.043204 0.081148 0.099398 0.040484 -0.057395 0.084571 0.034539 0.258607 0.110911 -0.149388 -0.11583 0.01048 0.174389 0.021483 0.189594 -0.099666 -0.191515 -0.027588 -0.013682 -0.088582 0.073923 -0.035495 0.066441 -0.051544
-0.046453 -0.114089 0.048378 0.039697 0.205342 -0.134425 0.195579 -0.187425 0.012362 -0.056148 -0.131226 -0.036605 -0.166618 -0.005606 0.011423 -0.035289 0.073024 0.049955 -0.03056 -0.116564 -4.0E-4 0.248965 0.168589 -0.016666 -0.127127 -3.18E-4 0.127741 -0.107854 0.05539 -0.111124 -0.041902 -0.11626 0.086201 0.191946 -0.031307 -0.026238 0.135582 -0.138117 -0.118683 -0.205278 -0.118941 0.075416 -0.021621 -0.074612 0.105553 0.141257 -0.097239 0.031083 -0.191864 0.157126 0.157338 0.018714 -0.190255 -0.078835 0.160698 0.051121 -0.022634 0.282011 -0.210636 0.065967 0.011387 -0.10215 -0.014587 8.06E-4 -0.126806 0.10146 -0.051249 -0.166886 0.138311 -0.092453 -0.203714 0.163209 0.126385 -0.163049 0.060969 -0.136489 -0.119169 0.143901 -0.166778 -0.074124 -0.205023 0.138254 -0.069697 -0.023512 0.056226 -0.151985 0.057434 -0.163405 0.084998 0.19969 0.169875 -0.038445 0.015784 -0.127481 -0.113888 -0.245198 0.065981 0.165014 0.001608 -0.042748
-0.240658 0.020649 0.038651 0.080327 -0.030793 -0.114649 0.062451 -0.024698 -0.10371 -0.174493 0.142618 0.053571 -0.301793 0.004448 0.250048 0.117303 -0.088919 0.135475 0.006109 0.078549 -0.136019 0.080407 0.111015 -0.14928 -0.100099 0.070792 -0.065726 0.145523 0.308286 -0.168973 0.042186 -0.040822 -0.084956 0.06068 0.048344 -0.131019 0.005376 -0.083625 0.166401 0.14892 -0.124985 -0.141061 0.223135 0.059847 0.091487 0.08899 0.00501 0.009157 0.036017 0.120098 -0.097079 -0.106799 0.14519 0.01161 0.007854 -0.153653 -0.156223 0.022628 -0.038401 -0.04765 -0.112817 0.014284 -0.107062 -0.079157 -0.16902 0.021193 -0.181306 0.076186 0.032124 -0.086518 0.062761 -0.077132 -0.094102 0.20838 0.106421 -0.179269 -0.115625 -0.132793 0.056195 -0.133914 -0.088178 0.039452 0.100089 -0.130582 0.02874 0.07524 -0.095032 0.103187 0.061468 0.063791 -0.197391 -0.044451 0.105113 0.068625 -0.011137 -0.158401 -0.067846 -0.019249 -0.060118 0.199861
-0.007826 0.018777 0.08636 0.186447 0.107979 -0.00815 0.080352 0.1767 -0.038316 0.124456 0.002908 0.073264 0.197228 -0.111038 0.02343 -0.031871 0.106394 0.186544 0.202326 0.186491 -0.075624 0.196971 0.279306 0.136999 -0.030662 -0.339777 0.155407 0.020756 0.053512 0.006461 -0.054168 0.065825 -0.074855 0.204278 -0.194641 -0.27512 0.002619 -0.033009 0.231609 -0.204958 0.033174 0.039118 -0.003998 0.015427 0.15663 -0.058871 -0.1154 0.023608 -0.150317 -0.239554 0.06642 -0.19571 -0.101709 8.6E-4 0.004849 -0.191432 -0.04407 -0.040266 0.124501 0.052178 0.138761 -0.01761 -0.112193 -0.123212 -0.062369 0.106717 0.053339 0.111797 0.155838 -0.150812 -0.183521 0.047699 -0.151615 -0.137403 -0.004305 -0.114104 -0.240036 -0.011894 -0.013635 -0.122122 -0.089257 0.252698 0.113642 -0.153833 0.070426 0.152308 0.132024 -0.154574 0.161886 0.062396 -0.074886 -0.074825 -0.039742 -0.030485 -0.107707 -0.131207 -0.006451 0.058377 -0.036591 -0.114862
-0.094325 -0.057006 0.073201 -0.077743 -0.012141 0.040699 0.145945 -4.84E-4 0.044922 0.035918 0.078649 0.029715 0.102141 -0.009332 -0.046547 -0.079896 0.0363 -0.284735 0.03041 -0.060417 -0.1393 0.021209 -0.142138 -0.052966 -0.035069 -0.24002 -0.072484 0.056733 -0.095256 0.09976 -0.18896 -0.243862 -0.124059 0.135325 -0.006907 0.121288 0.293725 -0.142452 0.281387 0.067788 -0.233087 0.059163 0.018438 0.251514 -0.222459 0.028922 -0.100199 0.13557 -0.15905 -0.100884 0.040784 -0.043736 -0.146391 0.033441 -0.133452 0.030056 0.02616 -0.058306 0.107696 0.036439 -0.024336 0.061196 0.015926 -0.043441 0.037592 0.204057 0.02732 -0.12236 0.07568 -0.051241 0.00644 -0.020858 -0.104618 -0.068757 0.013144 -0.125003 0.006394 0.008544 0.005652 -0.235538 0.173454 0.072753 -0.178347 -0.067899 0.040325 -0.016052 0.067498 -0.095353 0.098164 -0.061056 0.131073 -0.111217 0.075814 0.090099 -0.087155 0.046798 -0.095057 0.054726 -7.38E-4 -0.138083
0.102519 0.028331 -0.323752 -0.030371 0.104924 -0.018281 0.016625 0.097465 0.083907 0.042919 0.182849 0.180972 0.021027 0.084685 -0.03502 0.052915 0.021381 0.027639 0.138573 -0.029942 -0.076517 0.082537 0.147973 0.028719 -0.012541 -0.183043 0.099658 0.245425 0.125143 -0.016801 -0.126491 -0.088197 -0.059153 0.181222 0.004954 -0.021093 0.093898 0.1473 0.037113 -0.041264 0.084385 -0.277585 0.046048 0.123366 -0.1312 0.057693 0.07317 0.075514 -0.00736 0.022486 -0.064039 -0.104485 -0.129569 0.008917 -0.043765 -0.031673 -0.224168 -0.125023 -0.181158 -0.020923 0.007337 -0.03322 -0.003247 -0.016517 0.027804 0.039792 -0.112792 -0.066678 0.060736 -0.02802 0.020393 -0.090665 0.047658 -0.069936 -0.048246 0.009147 0.079742 -0.184286 -0.059049 -0.151283 0.087534 -0.067633 0.062004 -0.075468 -0.186111 0.007025 -0.104962 0.126863 -0.105695 0.040183 -0.148772 0.00369 -0.055889 -0.114913 -0.007486 -0.011989 -0.054275 0.092619 0.014127 0.185005
0.0 0.0 0.0 0.0 0.0 0.0 0.0 0.0 0.0 0.0 0.0 0.0 0.0 0.0 0.0 0.0 0.0 0.0 0.0 0.0 0.0 0.0 0.0 0.0 0.0 0.0 0.0 0.0 0.0 0.0 0.0 0.0 0.0 0.0 0.0 0.0 0.0 0.0 0.0 0.0 0.0 0.0 0.0 0.0 0.0 0.0 0.0 0.0 0.0 0.0 0.0 0.0 0.0 0.0 0.0 0.0 0.0 0.0 0.0 0.0 0.0 0.0 0.0 0.0 0.0 0.0 0.0 0.0 0.0 0.0 0.0 0.0 0.0 0.0 0.0 0.0 0.0 0.0 0.0 0.0 0.0 0.0 0.0 0.0 0.0 0.0 0.0 0.0 0.0 0.0 0.0 0.0 0.0 0.0 0.0 0.0 0.0 0.0 0.0 0.0
-0.16526 -0.125759 0.086172 -0.073618 0.100657 -0.043946 -0.089765 -0.076099 -0.135857 0.009636 -0.036465 0.227507 0.217747 -0.088453 0.031326 0.039479 -0.087813 0.090354 0.120262 -0.064597 0.011322 0.016658 0.27265 0.023239 0.036419 -0.183944 0.015295 -0.0989 0.067202 0.081155 -0.163607 -0.048144 -0.03524 0.119859 -0.216774 -0.097933 -0.058858 0.028692 0.093401 -0.015126 -0.170494 0.084354 0.063872 0.04883 -0.003724 -0.13525 0.122728 0.06947 -0.130152 -0.048315 0.150119 -0.022637 -0.047962 0.067457 -0.09483 -0.035406 0.14301 -0.059777 0.194492 -0.045509 0.031342 0.118222 -0.01021 -0.137844 -0.007796 0.083188 0.182567 0.029889 0.00348 -0.106126 0.055999 -0.015482 0.179231 0.006781 0.148907 -0.071332 -0.043417 0.07997 -0.151633 0.038319 -0.127367 0.119224 -0.121719 -0.175823 0.009264 0.044314 0.120565 0.090613 0.116276 -0.009916 -0.039233 -0.103821 -0.117814 0.084605 -0.052042 -0.132151 0.061747 0.018746 -0.101982 0.016663
-0.078542 -0.301191 0.23578 -0.047716 0.035386 -0.04231 0.05221 -0.015704 0.029338 -0.006102 -0.051614 0.099313 -0.034605 -0.1406 0.181694 0.097334 0.087982 0.120406 0.199691 0.175042 0.030655 0.191542 0.12972 0.00541 -0.101991 -0.168419 -0.196641 -0.128599 0.209161 0.097145 -0.261285 -0.169179 0.006833 0.058828 -0.104395 -0.123734 0.116312 -0.146234 0.059042 0.127533 -0.233862 0.115964 0.050107 0.03534 0.107864 -0.12216 -0.026396 -0.023828 -0.301709 0.161345 -0.031509 -0.170698 -0.200251 -0.127892 0.039848 -0.006899 -0.058163 -0.152117 -0.074476 0.018913 -0.003218 -0.22735 -0.024478 -0.188369 -0.129077 -0.07729 -0.0137 -0.060409 -0.024379 -0.322582 -0.165205 0.093863 -0.033013 -0.03436 0.03271 -0.107545 -0.25908 0.123094 -0.24352 -0.164445 0.106522 0.261178 0.075744 -0.076731 0.083811 -0.067589 0.137066 -0.081049 0.206783 0.082346 0.132459 0.026613 -0.078733 0.056164 0.032856 -0.119357 0.24997 -0.043674 -0.007197 -0.113825
-0.088524 -0.067306 0.096975 -0.078199 0.048788 -0.128817 -0.279668 -0.136807 -0.2046 -0.052634 0.089967 -0.06939 0.051534 0.253021 0.004359 0.229868 -0.170255 0.126519 0.013883 0.247082 -0.123568 -0.051678 0.170074 0.060568 -0.155753 -0.151838 -0.063869 -0.008277 0.111935 -0.048583 0.087866 0.159066 -0.131511 0.194238 0.096472 -0.117811 0.071632 -0.013266 -0.040453 -0.049223 -0.022623 0.118798 0.055848 0.114028 -0.056976 -0.149889 0.017001 0.100428 -0.192364 0.189291 0.10704 -0.052486 -0.147587 -0.109447 0.001172 0.149422 -0.096547 0.093716 -0.113453 -0.178169 0.078306 -0.103665 -0.122845 -0.083344 0.096955 0.045558 1.65E-4 -0.01282 0.067947 0.042812 -0.165963 0.144063 0.091784 -0.105913 0.116211 0.129293 0.001841 -0.067842 -0.025301 -0.278021 0.103159 0.040234 0.07172 -0.07188 -0.060494 -0.019766 -0.095115 -0.054389 0.192117 0.10669 -0.126595 -0.111171 0.037752 -0.05448 -0.118965 0.101627 -0.038192 -0.013558 -0.003676 -0.155203
2.591633 1.608701 -2.087245 2.00752 3.012652 4.995656 0.847355 -1.594905 -0.365708 -1.629805 -1.650237 3.712017 -0.231463 -0.537534 -2.036098 2.002639 -0.696666 -4.310136 -1.477319 -1.356504 -0.581823 -1.830239 -0.272773 -1.648095 0.090509 0.008711 0.330842 0.396714 2.341035 -0.526067 1.155793 -1.730906 -1.010387 -1.342646 -1.939355 0.734869 0.727366 0.700702 1.516974 -2.133831 -0.280653 -3.051674 0.017123 0.532043 1.478449 0.375441 0.920129 1.548929 1.087478 0.668327 0.707416 3.249232 -0.362503 1.273221 -2.929682 -0.245389 1.633444 -0.119836 0.103459 -3.445175 0.513245 0.427807 0.738792 1.448203 0.501908 0.362882 -0.731533 -0.391201 0.037778 3.053553 4.030229 1.793904 1.24136 0.081706 -1.401954 -0.638804 -0.487445 -0.267924 0.012844 0.538179 -0.241935 -0.068756 1.351665 -0.112558 0.001814 0.447262 0.833441 -0.023876 1.212707 1.514635 -0.568611 0.376173 -3.663739 -4.345135 -0.444319 2.139788 -2.53093 0.92131 -1.399435 1.763954
-0.257592 0.01234 0.610504 0.526451 -1.515353 0.807717 0.313381 0.359187 -1.540402 0.385765 0.830154 -0.203484 0.508911 -0.985298 -1.591796 0.037445 -0.344924 -0.068762 -1.332991 -2.011774 -0.220756 0.388679 0.766882 -0.098976 1.262798 1.195578 -1.345688 0.879537 0.480455 0.687961 0.061046 -0.847351 -0.389146 -0.540326 -0.372893 -2.966666 -0.914483 -0.357723 1.786617 0.682815 -0.626565 -1.750652 -0.591872 1.430099 -1.13665 -0.924291 -1.054989 1.552087 -1.652181 0.403983 0.054585 0.48954 -0.52264 0.200296 -1.839447 -1.379939 0.685543 0.602999 2.459655 -0.135835 0.102868 1.421285 -1.466254 -0.052559 -0.140833 1.444338 0.726511 -0.614562 0.617322 0.285857 0.587902 1.106191 -0.429618 1.216073 -0.106081 -1.240577 -0.499392 -0.129835 0.782161 0.728042 0.362589 0.524709 0.032642 2.005674 -0.149582 0.680523 -0.46184 -0.185777 1.215598 0.718164 1.0796 2.162791 -0.731008 0.159881 1.02583 1.33541 -1.076149 -0.57904 -0.223729 -0.069855
-0.019201 0.028111 0.019217 0.052324 -0.012545 0.076041 0.041859 0.132425 -0.042682 -0.25324 0.153679 -0.052639 -0.234426 0.154245 0.001178 0.07083 0.073083 0.160228 0.024133 -0.054811 0.001969 0.005439 0.181016 0.099355 -0.126409 -0.051701 0.037309 -0.123638 0.247936 -0.162055 0.114555 0.125901 0.087982 0.08593 -0.090916 0.032607 0.058566 -0.084423 -0.083684 -0.120125 -0.142636 -0.134573 0.099572 -0.067549 0.144656 -0.140025 -0.119758 0.069446 0.087216 -0.032862 -0.006618 -0.111395 0.032981 -0.031112 -0.118341 0.110071 -0.111936 0.153878 0.041608 0.007703 0.064796 -0.130385 0.030277 0.045725 -0.1256 0.149386 -0.11782 -0.166733 0.122695 0.114102 -0.065025 -0.01284 -0.004014 -0.036946 -0.052576 0.183617 0.039352 -0.109896 0.002856 -0.049741 0.098582 -0.079185 0.058208 -0.092538 -0.020486 -0.024785 0.136707 0.03449 -0.090652 0.201497 -0.097455 0.025029 -0.120762 -0.013839 -0.051103 -0.067125 -0.00444 -0.252706 0.02388 -0.108891
0.352905 0.550922 -1.128945 -0.511125 0.774489 1.405335 -0.371647 0.106012 -0.779785 -0.640302 -0.68578 1.570717 -0.712288 -0.706705 -0.789609 -0.045278 -1.599722 -2.840112 -0.089543 -1.158838 -1.862605 -0.62748 -0.063542 -0.468696 0.750564 0.033551 -0.772222 -0.188991 -0.163115 0.455978 0.038455 -0.779588 0.172303 -1.114448 -0.548246 -0.008155 1.66721 -0.744821 -0.15746 -2.668482 -0.304702 -0.905716 0.479063 0.151803 -0.94063 -0.044338 -0.906122 -0.456182 0.281891 0.268287 0.47007 0.628019 0.328428 1.471286 -2.345457 0.072073 -0.345477 -0.998199 -1.496897 -0.053061 0.351206 -0.934426 0.295591 0.07336 0.24092 0.486976 0.390085 -0.621556 0.375246 -0.02625 1.957847 1.014101 0.004675 0.08874 -0.900479 -0.462149 0.922254 1.355385 -1.048724 0.105897 1.254466 0.410718 0.321258 1.066395 -0.171761 -0.128774 0.315556 0.697301 -0.180925 0.555334 1.005586 -0.891677 -1.232923 -1.994189 -0.567812 0.204184 -0.947385 -0.051526 -0.987029 0.725141
1.519526 1.445578 -1.609499 2.582747 2.460795 3.529971 0.431498 -0.524736 0.238502 0.565084 -2.150664 2.607871 -3.578636 0.22885 1.205379 0.400126 -2.365878 -2.228676 -0.500047 -1.958516 -2.734259 -2.028213 -0.339577 -2.726884 0.003785 -1.85554 -0.90189 1.042933 0.930181 0.561229 0.956561 0.220468 -1.219533 -0.188243 -0.649085 -0.117874 2.101841 -0.317004 1.300647 -1.49228 0.533457 -2.976113 -0.635474 -1.431524 -0.943268 0.543614 -2.072507 -1.004219 4.072807 -1.496014 2.612373 2.458477 -0.120651 0.418572 -2.53177 0.646754 2.04053 2.0667 -2.403623 -3.037353 -1.289071 1.269349 0.447478 0.512568 0.464348 -0.142416 -1.155552 0.32258 -0.986119 3.909852 3.839548 0.865499 -1.089316 -1.400134 0.517204 -3.398406 -0.576028 -0.612853 -0.573641 -1.979957 1.278503 1.159562 0.583915 -0.210028 0.851463 1.075476 2.276915 0.114312 2.2836 1.968815 1.899569 0.001135 -2.286771 -2.666814 -1.408445 1.975128 -0.085175 1.44887 -1.994305 2.796178
-0.031687 -0.208074 0.095526 0.204903 -0.234241 0.019371 0.006671 -0.027075 -0.174961 -0.131702 0.108516 0.135883 0.002693 -0.222722 0.105236 0.04051 -0.153102 0.019691 0.0022 -0.190184 -0.069579 0.022342 0.186998 -0.003716 -0.099172 0.08703 -0.20997 -0.030816 0.205982 -0.124003 -0.066022 0.111729 0.046477 -0.0524 -0.069456 -0.129109 -0.138738 0.010278 0.329999 0.084866 -0.263624 0.06181 0.049378 0.093703 -0.144877 0.00139 -0.205693 0.124417 -0.201987 0.096055 0.3133 -0.113075 0.019383 0.063932 -0.106248 0.009567 -0.086796 0.068362 0.088349 -0.083781 0.051787 -0.043895 0.009827 0.009288 -0.228137 0.174051 0.247658 -0.142716 0.201715 0.052045 0.1735 0.047216 -0.133262 0.045166 0.153728 -0.241464 -0.22341 -0.100493 0.041923 -0.027337 0.034014 0.230898 0.099206 -0.208983 -0.094157 0.263785 0.024672 -0.008831 0.308337 0.034404 -0.196716 0.142093 -0.023858 -0.124724 0.160685 0.061667 0.11956 -0.00834 0.122092 0.111745
-0.007826 0.018777 0.08636 0.186447 0.107979 -0.00815 0.080352 0.1767 -0.038316 0.124456 0.002908 0.073264 0.197228 -0.111038 0.02343 -0.031871 0.106394 0.186544 0.202326 0.186491 -0.075624 0.196971 0.279306 0.136999 -0.030662 -0.339777 0.155407 0.020756 0.053512 0.006461 -0.054168 0.065825 -0.074855 0.204278 -0.194641 -0.27512 0.002619 -0.033009 0.231609 -0.204958 0.033174 0.039118 -0.003998 0.015427 0.15663 -0.058871 -0.1154 0.023608 -0.150317 -0.239554 0.06642 -0.19571 -0.101709 8.6E-4 0.004849 -0.191432 -0.04407 -0.040266 0.124501 0.052178 0.138761 -0.01761 -0.112193 -0.123212 -0.062369 0.106717 0.053339 0.111797 0.155838 -0.150812 -0.183521 0.047699 -0.151615 -0.137403 -0.004305 -0.114104 -0.240036 -0.011894 -0.013635 -0.122122 -0.089257 0.252698 0.113642 -0.153833 0.070426 0.152308 0.132024 -0.154574 0.161886 0.062396 -0.074886 -0.074825 -0.039742 -0.030485 -0.107707 -0.131207 -0.006451 0.058377 -0.036591 -0.114862
-0.054649 -0.216714 0.039062 0.139181 -0.142347 -0.074479 0.016181 -0.031105 0.011594 -0.05077 -0.182617 0.058653 0.099568 -0.071288 0.101095 -0.053911 -0.031146 -0.012834 0.072362 0.033384 -0.170725 -0.09332 0.043421 -0.030336 -0.079905 -0.052464 -0.097416 -0.174333 0.086406 0.076708 -0.009907 0.071984 -0.165576 -0.01031 -0.007732 0.017071 -0.029265 0.08908 0.268111 -0.031995 -0.002879 0.123727 -0.097496 -0.010914 -0.069438 -0.093905 -0.214137 0.071656 0.053499 0.090066 -2.69E-4 -0.040059 -0.064312 -0.01115 -0.163667 -0.039732 -0.003146 -0.181618 0.123014 -0.107614 -0.168498 -0.130192 0.0597 -0.247264 0.022665 -0.027723 -0.022627 0.083192 0.291556 -0.137918 0.026976 -0.078478 -0.069132 0.025189 0.021022 -0.226649 -0.037098 -0.005036 -0.03393 0.105359 -0.008034 -0.008083 0.236406 0.188745 0.105929 0.276323 -0.066146 0.25662 -0.036241 0.16788 -0.041623 0.125882 0.237397 0.04144 -0.00874 0.049366 0.083199 0.089605 -0.004204 0.160421
0.077561 -0.138031 0.340016 0.0172 -0.086838 -0.010483 -0.047017 -0.115784 -0.123136 0.057789 -0.075551 0.09499 0.199407 0.114224 0.049016 0.004362 0.184386 0.097601 -0.013676 0.03664 -0.094854 0.097224 0.341445 -0.045418 0.021042 -0.088768 -0.06551 0.00965 0.166537 -0.033837 0.037377 -0.110918 -0.053439 -0.098307 -0.139056 -0.053142 0.175001 0.066279 0.177355 0.119304 -0.25496 0.117959 -0.071141 0.05623 0.127912 -0.247548 -0.00652 0.028221 -0.160715 0.036726 -0.104872 -0.121428 -0.2578 0.036662 0.026732 -0.057622 0.214863 -0.003964 0.109263 -0.250258 -0.038222 0.029131 0.119424 -0.257692 0.109154 -0.039973 0.120211 0.038019 0.098045 -0.061458 0.022269 -0.073127 0.10559 0.198307 -0.161617 -0.028415 0.110806 0.185059 0.032416 -0.118346 -0.071923 0.208665 0.122197 0.03436 -0.009561 0.089603 -0.02789 -0.112631 0.222128 -0.021563 0.010635 0.011296 0.016154 0.059208 0.088747 -0.143959 -0.036705 0.018168 -0.042449 -0.048099
0.037311 0.069098 0.146051 0.245319 -0.220586 0.149353 -0.154392 -0.046366 -0.177821 -0.134713 -0.0835 0.215419 -0.020545 0.155818 5.45E-4 0.045456 -0.192701 0.089427 -0.017666 -0.104382 0.086163 0.049242 0.153222 0.098115 0.079776 0.066198 -0.020967 0.201605 0.125661 -0.055015 -0.200601 -0.188661 0.051858 0.114433 0.066955 0.07807 0.096275 -0.029986 -0.083555 0.03171 -0.089357 0.008298 0.138861 0.005332 -0.036957 0.070235 0.024555 -0.277248 -0.115429 -0.046333 -0.080208 -0.004651 0.013615 -0.198257 0.170783 -0.05279 0.070781 -0.1826 -0.11547 -0.076415 -0.049058 -0.092461 -0.098914 -0.14922 0.136904 -0.256722 -0.052938 0.130647 0.009491 -0.021192 -0.175015 0.067034 -0.001401 0.111063 -0.026165 0.065045 4.48E-4 0.027764 -0.054708 -0.049767 -0.011957 0.137961 0.08663 -0.068711 -0.090447 -0.068702 -0.007911 -0.035437 0.051932 -0.034323 0.050828 -0.073514 -0.125312 0.153466 0.124654 0.089508 -0.015814 -0.066212 -0.060318 0.022966
-0.047421 -0.15849 0.107499 0.089927 0.167776 0.08617 -0.300314 -0.309623 0.108092 0.189928 0.056687 0.033222 -0.077897 -0.080874 0.159018 0.266839 -0.245001 0.016831 -0.085825 0.058383 -0.059198 -0.055262 0.240707 -0.12969 -0.22039 0.060318 -0.047124 -0.139865 0.089529 -0.172326 0.039714 -0.133083 -0.093917 0.050088 -0.217563 -0.099461 0.041898 -0.126919 0.020688 0.317283 0.16597 0.022872 0.046324 -0.073254 -0.180954 0.079862 0.019486 0.185367 0.118476 0.006355 -0.032953 -0.037425 0.063885 0.11699 0.184923 0.052025 0.128145 -0.13686 0.190992 -0.211976 0.013083 -0.015876 -0.029147 0.01214 -0.021098 0.071397 0.239282 -0.021331 -0.132596 -0.213218 -0.047197 -0.061747 0.108005 0.06585 0.170104 0.21 0.017802 0.149472 0.139998 -0.100998 0.016478 -0.071088 -0.215638 -0.123884 -0.172349 0.055991 -0.115719 -0.021301 0.071983 0.092645 -0.139537 0.078519 -0.099633 0.035876 -0.078405 -0.346964 0.042416 0.013565 -0.105723 -0.0419
-0.045549 -0.019643 0.046605 0.01937 -0.048165 0.002386 0.133692 -0.105972 -0.036092 0.01926 -0.041897 0.101992 -0.024171 -0.015948 -0.078548 0.018259 -0.021959 -6.9E-5 0.068206 0.037825 0.056655 -0.263488 0.019989 0.022684 -0.095743 0.148716 0.020395 0.005975 0.24558 -0.064396 -0.038624 0.103727 -0.009889 0.096239 -0.304886 0.02822 0.080687 0.038994 0.079709 -0.050449 0.091042 0.026191 0.163824 -0.046615 -0.100267 0.010837 -0.087407 0.084683 -0.041542 -0.01353 0.034989 -0.127666 0.142675 -0.144064 -0.010746 0.042543 -0.055325 -0.066353 -0.06669 -0.203929 0.043696 -0.15489 0.225267 -0.112238 -0.083936 0.01865 0.080721 -0.045273 0.053165 0.012791 -0.251947 -0.087307 -0.030465 0.051097 -0.029058 -0.055214 -0.077598 -0.017701 0.140202 -0.094673 -0.079917 0.236495 -0.033887 0.011453 -0.003383 0.141896 -0.034788 -0.14658 0.023186 0.099968 -0.072668 -0.031315 -0.073928 0.05957 0.035095 -0.094544 -4.16E-4 0.006228 0.001092 -0.050299
0.024378 -0.116139 0.180639 0.111395 0.030568 -0.071668 -0.121108 -0.109806 -0.091698 0.013018 0.08259 0.069038 -0.061427 0.004082 0.229398 0.047504 0.066332 -0.026818 0.02069 0.023222 -0.024814 0.084488 0.163639 0.026093 -0.167495 -0.080491 0.015155 0.002639 0.149547 -0.107706 -0.032128 0.017933 0.035418 0.02069 0.071325 -0.134884 -0.023948 0.019409 -0.045767 0.036389 0.01007 -0.18179 0.153652 0.026089 -0.154465 -0.04553 -0.142306 0.003931 -0.113083 0.004437 0.142883 -0.219551 -0.115541 -0.039264 0.151018 0.201031 -0.024747 -0.016886 -0.027411 -0.073582 0.10617 -0.086841 -0.04312 0.003789 -0.024946 0.136003 0.096762 -0.080263 0.012766 -0.01203 0.076892 -0.020938 -0.04654 0.044006 0.078363 -0.05006 -0.068905 -0.123399 -0.034683 -0.051999 0.022561 -0.158305 0.056823 0.044635 0.08235 0.268783 0.147618 -0.026452 0.059026 0.082304 0.068505 -0.104877 -0.124045 0.110571 0.004564 -0.087215 -0.038814 -0.270774 -0.070765 0.099681
0.126823 0.073577 0.132533 -0.016023 -0.027748 0.110177 -0.074962 0.119684 -0.155149 0.017808 0.010303 0.278739 0.060144 0.030102 -0.044769 0.183201 0.12628 0.19458 -0.074238 0.15688 -0.040048 0.214162 0.125853 0.004617 -0.091086 -0.205259 0.080979 -0.135462 -0.082836 0.044078 -0.00464 -0.056607 -0.079962 0.11662 -0.221768 -0.123509 -0.091751 -0.010484 0.049062 -0.063108 0.001311 0.019104 0.021312 -0.028905 0.045172 -0.083934 -0.097567 0.08033 -0.046055 -0.072734 0.090114 -0.144197 -0.189651 -0.053726 -0.007075 -0.204999 0.082909 -0.036866 0.107589 -0.009487 0.049009 -0.054347 -0.068209 -0.245701 -0.053595 0.053695 0.005112 0.052786 0.113869 -0.254895 0.018069 -0.061878 0.010381 -0.040764 -0.03267 -0.166478 -0.261901 0.091585 -0.165948 0.030133 0.069 0.141259 0.0169 -0.17646 0.156242 0.037383 0.125967 -0.047426 0.147834 0.168647 0.034402 -0.103177 -0.04663 0.12528 -0.106183 -0.216696 0.144445 0.093306 0.118096 0.104624
0.174579 -0.136728 -0.051226 0.020722 -0.006999 0.182304 -0.026571 0.028348 -0.056181 -0.008225 -0.006719 0.123411 -0.116958 0.067063 -0.070431 0.036747 0.038718 0.027768 0.023312 -0.088689 0.061433 -0.020277 0.259541 -0.094786 -0.095916 0.094827 0.024537 -0.02138 0.088986 -0.222601 0.103167 -0.001705 -0.126386 0.084151 -0.211735 -0.029013 0.140156 -0.020962 0.053455 -0.191046 -0.124863 -0.041487 0.136145 0.105226 -0.015967 -0.183445 -0.047984 0.115111 -0.019542 0.13034 -0.027747 -0.056535 -0.108365 -0.105363 0.081886 -0.149182 -0.11381 -0.099116 -0.181035 -0.164047 0.046733 -0.125779 0.073804 -0.112401 0.07152 0.061743 0.019104 -0.098201 0.014577 0.063876 -0.025147 0.141799 0.106453 -0.019125 -0.084889 0.059635 -0.102028 0.054798 -0.039091 -0.147142 0.035738 0.191847 0.115855 -0.22498 -0.237968 0.006138 0.263927 0.028048 -0.051407 0.156325 -0.066949 -0.023049 0.193957 -0.012836 0.006804 -0.136759 -0.093368 0.121825 -0.030451 -0.039809
0.00976 -0.029011 -0.167583 -0.136389 -0.04235 -0.087478 -0.06282 0.168848 -0.088873 -0.106764 0.099547 -0.118225 -0.060725 0.114486 -0.053095 0.156853 -0.014471 0.165533 0.078055 0.075475 0.002296 -0.080016 -0.067211 0.039424 -0.220619 0.124831 0.128278 -0.044997 0.17069 -0.025035 0.052021 0.05291 0.040505 0.036947 0.107447 0.053323 -0.079015 0.080809 0.088934 0.034707 -0.062037 -0.07338 0.042201 -0.02814 -0.069484 0.023902 0.029255 -0.054546 0.079837 -2.4E-4 0.085762 -0.170256 0.043985 -0.052561 0.087938 0.061837 -0.028307 -0.072329 3.63E-4 -0.063338 0.003446 0.168835 -0.093545 -0.098297 -0.077857 -0.061867 -0.141289 0.003553 -0.019723 -0.114562 -0.106439 -0.058728 -0.028213 -0.038634 0.047563 0.016434 0.003482 -0.087054 -0.07354 0.035877 0.080327 -0.113443 0.118096 -0.109026 -0.153241 0.061016 0.174513 -0.027935 0.146412 0.091721 -0.133203 0.053448 -0.103674 0.080885 -0.011991 -0.151354 0.095787 0.152927 0.007498 0.178358
-0.133171 0.07267 0.150127 0.017286 0.007353 0.163232 0.133741 -0.195195 -0.188102 0.003456 -0.2784 0.091006 -0.258535 -0.056465 0.392257 0.198061 -0.127876 -0.194359 -0.131834 0.07383 0.049799 0.034818 0.374566 0.162013 -0.04243 -0.121716 -0.155289 0.207693 0.163184 -0.18169 0.069944 -0.198635 0.006388 0.099751 -0.053914 -0.083748 0.214197 0.121498 -0.010874 -0.052318 0.043991 -0.08516 0.070206 0.087895 0.074792 0.027296 0.034846 -0.216629 0.010482 -0.103523 0.148766 -0.06199 0.036962 0.056296 0.001824 -0.002639 -0.095132 0.027857 -0.025811 -0.226189 0.066145 0.066684 0.013032 -0.038828 -0.107837 -0.053667 -0.074134 0.081482 -0.087255 0.308307 0.07753 0.05896 0.138613 0.003397 -0.067919 0.042912 0.280948 8.88E-4 -0.120076 0.06493 -0.108621 -0.165791 0.055443 -0.077234 0.022961 -0.060494 -0.002728 0.040448 -0.055311 0.050302 0.111676 0.085724 -0.137658 0.188317 0.120659 0.041778 -0.069715 -0.029423 -0.124513 0.053864
-0.001889 -0.015376 0.011577 -0.079922 0.019615 0.005975 0.018085 -0.133459 0.07886 -0.019014 -0.010821 0.041669 -0.011128 0.097962 -0.060935 0.042309 0.015014 8.49E-4 -0.002449 0.038756 0.0685 -0.030124 0.021652 -0.079703 0.075875 -0.122727 0.144977 0.073106 0.120718 -0.115022 0.047765 0.225363 -0.061747 -0.035103 0.080005 0.064342 -0.011293 0.032618 0.076202 0.118833 0.299047 0.176216 0.148892 -0.105455 -0.022399 0.118571 -0.05437 -0.136016 -0.04767 0.112361 0.012505 0.001737 0.056998 -0.132972 0.205737 0.014869 0.130993 0.242588 0.100312 0.073252 -0.019374 -0.073147 -0.042245 -0.05193 0.119558 0.067972 -0.198268 0.013905 0.103121 -0.09962 -0.010563 -0.219254 -0.117595 0.0375 -0.028297 0.03039 -0.116152 0.021365 0.041774 -0.247365 -0.187561 -0.063496 -0.088808 -0.029223 0.057963 0.069802 -0.07258 -0.052825 0.064478 0.040761 0.149345 0.085248 0.239559 0.137326 -0.140966 0.005439 0.083517 -0.02486 -0.028184 0.111642
0.0 0.0 0.0 0.0 0.0 0.0 0.0 0.0 0.0 0.0 0.0 0.0 0.0 0.0 0.0 0.0 0.0 0.0 0.0 0.0 0.0 0.0 0.0 0.0 0.0 0.0 0.0 0.0 0.0 0.0 0.0 0.0 0.0 0.0 0.0 0.0 0.0 0.0 0.0 0.0 0.0 0.0 0.0 0.0 0.0 0.0 0.0 0.0 0.0 0.0 0.0 0.0 0.0 0.0 0.0 0.0 0.0 0.0 0.0 0.0 0.0 0.0 0.0 0.0 0.0 0.0 0.0 0.0 0.0 0.0 0.0 0.0 0.0 0.0 0.0 0.0 0.0 0.0 0.0 0.0 0.0 0.0 0.0 0.0 0.0 0.0 0.0 0.0 0.0 0.0 0.0 0.0 0.0 0.0 0.0 0.0 0.0 0.0 0.0 0.0
0.024378 -0.116139 0.180639 0.111395 0.030568 -0.071668 -0.121108 -0.109806 -0.091698 0.013018 0.08259 0.069038 -0.061427 0.004082 0.229398 0.047504 0.066332 -0.026818 0.02069 0.023222 -0.024814 0.084488 0.163639 0.026093 -0.167495 -0.080491 0.015155 0.002639 0.149547 -0.107706 -0.032128 0.017933 0.035418 0.02069 0.071325 -0.134884 -0.023948 0.019409 -0.045767 0.036389 0.01007 -0.18179 0.153652 0.026089 -0.154465 -0.04553 -0.142306 0.003931 -0.113083 0.004437 0.142883 -0.219551 -0.115541 -0.039264 0.151018 0.201031 -0.024747 -0.016886 -0.027411 -0.073582 0.10617 -0.086841 -0.04312 0.003789 -0.024946 0.136003 0.096762 -0.080263 0.012766 -0.01203 0.076892 -0.020938 -0.04654 0.044006 0.078363 -0.05006 -0.068905 -0.123399 -0.034683 -0.051999 0.022561 -0.158305 0.056823 0.044635 0.08235 0.268783 0.147618 -0.026452 0.059026 0.082304 0.068505 -0.104877 -0.124045 0.110571 0.004564 -0.087215 -0.038814 -0.270774 -0.070765 0.099681
0.126823 0.073577 0.132533 -0.016023 -0.027748 0.110177 -0.074962 0.119684 -0.155149 0.017808 0.010303 0.278739 0.060144 0.030102 -0.044769 0.183201 0.12628 0.19458 -0.074238 0.15688 -0.040048 0.214162 0.125853 0.004617 -0.091086 -0.205259 0.080979 -0.135462 -0.082836 0.044078 -0.00464 -0.056607 -0.079962 0.11662 -0.221768 -0.123509 -0.091751 -0.010484 0.049062 -0.063108 0.001311 0.019104 0.021312 -0.028905 0.045172 -0.083934 -0.097567 0.08033 -0.046055 -0.072734 0.090114 -0.144197 -0.189651 -0.053726 -0.007075 -0.204999 0.082909 -0.036866 0.107589 -0.009487 0.049009 -0.054347 -0.068209 -0.245701 -0.053595 0.053695 0.005112 0.052786 0.113869 -0.254895 0.018069 -0.061878 0.010381 -0.040764 -0.03267 -0.166478 -0.261901 0.091585 -0.165948 0.030133 0.069 0.141259 0.0169 -0.17646 0.156242 0.037383 0.125967 -0.047426 0.147834 0.168647 0.034402 -0.103177 -0.04663 0.12528 -0.106183 -0.216696 0.144445 0.093306 0.118096 0.104624
-0.192587 -0.065151 -0.120396 -0.06244 -0.15434 -0.067138 -0.145825 -0.023492 0.109625 0.073262 -0.252992 0.010394 0.108343 0.062376 0.005477 -0.083349 -0.044415 -0.026438 0.051774 0.066904 0.067947 -0.017463 -0.07113 0.099752 -0.146554 -0.113607 0.196433 -0.013607 0.121022 -0.046685 0.100682 0.18019 0.160342 -0.025391 0.063485 0.136927 0.027892 0.09374 -0.057593 -0.220414 -0.140393 -0.080893 -0.139932 -0.003772 0.146364 0.103427 -0.072025 0.078677 -0.008864 0.039376 0.140271 0.026508 -0.121883 0.082891 -0.094979 -0.073059 -0.106462 -0.07601 0.002388 0.099199 0.005659 0.009155 0.044595 0.157909 0.08206 0.223864 0.028887 -0.089985 -0.086682 -0.103634 -0.122772 0.045654 0.235023 -0.099621 0.066743 0.089708 0.04613 -0.184124 0.070332 0.16348 0.117759 -0.013115 -0.051923 0.006415 -0.013947 0.0902 -0.108803 -0.051766 -0.253953 -0.142896 0.036852 -0.01741 0.048488 -0.122318 -0.061645 0.046673 -0.103374 -0.125161 -0.027394 0.217233
-0.019201 0.028111 0.019217 0.052324 -0.012545 0.076041 0.041859 0.132425 -0.042682 -0.25324 0.153679 -0.052639 -0.234426 0.154245 0.001178 0.07083 0.073083 0.160228 0.024133 -0.054811 0.001969 0.005439 0.181016 0.099355 -0.126409 -0.051701 0.037309 -0.123638 0.247936 -0.162055 0.114555 0.125901 0.087982 0.08593 -0.090916 0.032607 0.058566 -0.084423 -0.083684 -0.120125 -0.142636 -0.134573 0.099572 -0.067549 0.144656 -0.140025 -0.119758 0.069446 0.087216 -0.032862 -0.006618 -0.111395 0.032981 -0.031112 -0.118341 0.110071 -0.111936 0.153878 0.041608 0.007703 0.064796 -0.130385 0.030277 0.045725 -0.1256 0.149386 -0.11782 -0.166733 0.122695 0.114102 -0.065025 -0.01284 -0.004014 -0.036946 -0.052576 0.183617 0.039352 -0.109896 0.002856 -0.049741 0.098582 -0.079185 0.058208 -0.092538 -0.020486 -0.024785 0.136707 0.03449 -0.090652 0.201497 -0.097455 0.025029 -0.120762 -0.013839 -0.051103 -0.067125 -0.00444 -0.252706 0.02388 -0.108891
-1.26631 -2.3797 -2.599247 1.654711 0.529031 1.517845 0.008367 0.991796 1.742938 -0.205429 -0.872663 1.444729 1.770079 -2.077221 -0.51656 1.009272 -0.056384 1.383188 -1.289415 -1.981102 -2.135424 3.197126 1.236898 -1.894458 1.444345 -4.525315 0.796301 1.883068 -0.91074 4.522802 1.328271 -3.355175 2.190215 2.173659 -1.009758 -0.417931 0.973224 -2.500587 0.141668 0.491866 0.512684 -3.61982 1.397382 -0.735194 -0.903608 -0.307768 -0.201698 1.730242 -0.189317 1.745621 0.49953 -0.248787 2.02293 1.654903 -2.485607 2.242709 0.553559 0.406364 2.561697 0.969002 -1.743329 1.244451 -2.28547 -1.115286 1.72776 0.414132 0.865558 0.341813 -1.84246 2.349703 1.755381 0.293008 0.398928 0.343756 1.56875 0.664794 -1.645796 -0.229075 -1.289973 1.921641 -0.193567 0.244827 2.363591 -2.785272 4.498481 1.476362 0.064558 3.920431 -0.562844 4.071009 0.513048 -2.67751 -2.261709 1.427325 0.255001 3.24291 -2.08992 2.385462 -2.559293 0.150688
-0.049615 -0.042135 0.058422 0.044593 -0.003638 -0.021171 -0.074202 -0.041365 0.051998 0.104547 0.094335 0.076717 -0.033841 -0.045406 0.123849 0.08095 -0.054622 0.072559 0.005739 0.061753 -0.054224 0.038056 0.069371 -0.015782 -0.130065 -0.035932 -0.050754 -0.006156 0.065589 0.015938 -0.048532 -0.016636 -0.031215 0.011962 -0.056178 -0.101942 -1.63E-4 0.014314 0.003656 0.044869 0.054843 0.09409 0.039621 0.039637 0.012564 -0.11168 0.061663 0.005624 -0.111596 0.093703 0.120001 -0.101973 -0.022796 0.002038 0.081153 -0.022835 0.06001 0.059632 0.032401 -0.072658 0.083874 -0.117391 0.054345 -0.145071 -0.103133 -0.03465 0.087484 -0.016154 0.063857 -0.073922 -0.004512 -0.050723 -0.089389 -0.002227 -0.013811 -0.07569 -0.066127 -0.034533 -0.061084 0.003916 -0.028575 0.066391 0.026588 -0.102552 0.032077 0.031189 0.14295 4.27E-4 0.128448 -0.020915 -0.034514 0.02175 -0.050568 0.026155 0.048478 -0.113464 0.04995 -0.06168 -0.035745 0.012191
-0.009604 -0.230737 0.180465 -0.035593 0.036498 -0.198441 -0.097542 -0.016772 -0.142829 0.214419 0.184328 0.074371 -0.119679 -0.007176 0.084887 0.076557 -0.023043 0.162912 -0.033072 0.096325 -0.098756 -0.040014 -0.073736 0.081495 -0.187644 0.00435 0.01218 -0.082843 0.132481 -0.077587 0.04993 -0.010542 -0.113944 -0.031008 -0.085679 -0.121735 -0.167056 0.0625 0.033623 -0.017458 -0.142148 0.08822 0.035995 0.00521 0.100016 -0.154922 0.066684 -0.066245 -0.054876 0.082718 0.113922 -0.163687 -0.050868 0.040832 0.192753 -0.055785 -0.061271 0.101549 0.05268 -0.105356 0.058375 -0.168004 -0.030571 -0.028184 -0.025183 -0.025032 0.072145 -0.046138 0.02393 -0.004868 0.021311 -0.079935 -0.020801 0.049153 0.069485 -0.012064 -0.113918 -0.071168 -0.157517 0.056177 0.091428 0.058719 -0.065461 -0.240117 -0.033238 0.079498 0.058202 -0.053028 0.170304 -0.082452 -0.110801 -0.031679 -0.196145 0.109672 0.063767 -0.228807 0.077579 -0.04132 0.03348 -0.052975
-0.219936 -0.067721 -0.013209 -0.042437 0.04851 0.035264 -0.078125 -0.076667 -0.130761 0.155857 0.112074 0.060985 -0.004626 -0.015667 0.071499 0.061208 -0.026755 0.179012 0.143729 -0.076798 -0.098111 0.035587 0.150621 0.121856 -0.124475 -0.089416 -0.123457 0.074356 0.139182 0.038751 -0.005272 0.073431 -0.100427 0.012423 -0.013406 -0.001636 0.010209 -0.110047 -0.09609 0.127815 -0.068851 0.060821 -0.081765 -0.141657 -0.044266 -0.121606 0.033188 0.085272 -0.113091 -5.96E-4 0.115973 -0.104378 0.07202 -0.015882 0.021182 0.066903 -0.025513 -0.103935 0.05927 -0.067645 -0.109436 -0.005406 -0.03647 -0.030517 -0.005681 0.009377 0.152324 0.153507 -0.042793 -0.17006 -0.023583 0.061818 -0.040371 0.052568 -0.03188 0.088115 -0.095357 -0.016481 -0.012866 0.027737 -0.075782 0.044474 -0.031837 -0.07029 0.081726 -0.042527 0.086457 0.09411 0.192308 0.126992 -0.175601 -0.072075 0.023172 0.195318 0.039686 0.028802 0.013654 -0.023731 0.113933 -0.027616
-0.172636 0.01033 0.161959 -0.183546 0.084826 0.001454 -0.012333 0.025399 -0.140257 -0.043156 0.065558 -0.05232 0.099666 0.00853 0.143223 0.114338 0.12441 0.125198 0.033525 0.036631 -0.100414 0.095781 0.079415 0.218911 -0.202953 -0.176273 0.003928 -0.080203 0.064255 -0.151939 -0.015762 -0.091797 0.058406 0.259075 0.142232 0.005009 -0.027051 -0.151772 -0.009225 0.087933 -0.047953 0.058876 -0.00632 0.200481 -0.051352 -0.062672 -0.004913 0.138106 0.006286 0.095799 0.155862 0.073325 -0.063141 -0.126818 0.080382 -0.03216 0.029759 0.0419 0.073559 0.032012 0.00921 -0.174483 -0.047889 -0.051292 -0.092714 0.114818 -0.104232 -0.056323 -0.006118 -0.033086 -0.071821 -0.058985 -0.082653 -0.01357 0.127079 -0.029265 0.032993 0.09375 -0.047027 -0.121647 0.078634 0.058114 0.019442 1.0E-5 0.027019 0.006064 0.011752 0.078438 0.206987 0.051293 -0.026753 -0.10776 0.076365 -7.58E-4 -0.123035 -0.129837 -0.027931 -0.05268 0.159075 3.06E-4
0.0 0.0 0.0 0.0 0.0 0.0 0.0 0.0 0.0 0.0 0.0 0.0 0.0 0.0 0.0 0.0 0.0 0.0 0.0 0.0 0.0 0.0 0.0 0.0 0.0 0.0 0.0 0.0 0.0 0.0 0.0 0.0 0.0 0.0 0.0 0.0 0.0 0.0 0.0 0.0 0.0 0.0 0.0 0.0 0.0 0.0 0.0 0.0 0.0 0.0 0.0 0.0 0.0 0.0 0.0 0.0 0.0 0.0 0.0 0.0 0.0 0.0 0.0 0.0 0.0 0.0 0.0 0.0 0.0 0.0 0.0 0.0 0.0 0.0 0.0 0.0 0.0 0.0 0.0 0.0 0.0 0.0 0.0 0.0 0.0 0.0 0.0 0.0 0.0 0.0 0.0 0.0 0.0 0.0 0.0 0.0 0.0 0.0 0.0 0.0
0.115852 -0.358318 0.126466 0.018021 -0.086692 -0.065323 0.019563 -0.079828 0.057751 -0.054665 -0.086954 0.043881 -0.100277 -0.03034 0.18171 -0.09894 0.024202 0.093141 0.069492 0.094801 -0.147876 -0.099296 0.062884 0.069801 -0.242859 -0.268153 -0.113214 0.037459 0.202724 0.047031 -0.130868 0.033407 -0.133179 0.007278 -0.126685 -0.008953 0.140235 -0.138716 -0.011928 0.142837 0.002303 0.143979 0.044048 0.005144 0.001152 -0.083968 -0.180054 -0.015639 0.033327 0.024214 0.164531 -0.079444 -0.025955 0.007085 -0.110295 -0.00958 0.02237 -0.05728 -0.179873 0.003208 0.100019 0.00315 -0.088598 -0.071051 0.0977 0.013662 0.100207 0.008653 -0.003927 0.007958 -0.052588 0.143968 -0.119568 -0.009123 0.014811 0.027719 -0.154137 -0.154188 -0.091624 -0.140892 -0.097231 0.230778 0.048983 -0.119886 -0.054017 0.182197 -0.081338 0.029831 0.090942 0.108627 -0.1296 0.177804 -0.017565 0.009475 -0.132372 -0.086578 0.049486 -0.034296 0.015001 0.023303
-0.134008 -0.036238 0.101819 0.06978 -0.145865 -0.11309 -0.163883 -0.247747 -0.146164 0.193955 -0.051005 0.077787 -0.090948 -0.019506 0.03762 0.109274 -0.186923 0.113068 -0.090135 -0.10643 0.04886 0.298286 0.155327 0.059199 0.138458 -0.017476 0.036106 -0.046772 0.004943 -0.02638 0.067951 0.115696 -0.14996 0.043632 -0.1831 0.03796 0.093955 -0.153344 -0.259589 -0.106328 -0.084317 0.174354 0.166607 -0.048267 -0.075681 -0.092909 0.019737 0.073501 -0.119044 0.354156 0.04165 0.064732 -0.045174 -0.111477 0.072813 0.085033 0.143712 -0.014393 0.058013 -0.233979 -0.036168 -0.17949 0.005496 -0.108741 -0.210584 -0.144125 0.11685 0.11331 0.155707 0.156336 -0.052404 -0.018173 0.098398 0.03714 0.121746 0.074775 -0.161222 0.01243 -0.237337 -0.099386 0.093821 0.035655 0.158608 -0.17074 -0.082466 -0.143209 -0.134011 -0.007119 0.162059 0.181588 0.049815 0.034453 -0.093726 0.060205 -0.036982 -0.140768 0.023987 -0.092753 -0.052416 0.060204
0.174579 -0.136728 -0.051226 0.020722 -0.006999 0.182304 -0.026571 0.028348 -0.056181 -0.008225 -0.006719 0.123411 -0.116958 0.067063 -0.070431 0.036747 0.038718 0.027768 0.023312 -0.088689 0.061433 -0.020277 0.259541 -0.094786 -0.095916 0.094827 0.024537 -0.02138 0.088986 -0.222601 0.103167 -0.001705 -0.126386 0.084151 -0.211735 -0.029013 0.140156 -0.020962 0.053455 -0.191046 -0.124863 -0.041487 0.136145 0.105226 -0.015967 -0.183445 -0.047984 0.115111 -0.019542 0.13034 -0.027747 -0.056535 -0.108365 -0.105363 0.081886 -0.149182 -0.11381 -0.099116 -0.181035 -0.164047 0.046733 -0.125779 0.073804 -0.112401 0.07152 0.061743 0.019104 -0.098201 0.014577 0.063876 -0.025147 0.141799 0.106453 -0.019125 -0.084889 0.059635 -0.102028 0.054798 -0.039091 -0.147142 0.035738 0.191847 0.115855 -0.22498 -0.237968 0.006138 0.263927 0.028048 -0.051407 0.156325 -0.066949 -0.023049 0.193957 -0.012836 0.006804 -0.136759 -0.093368 0.121825 -0.030451 -0.039809
0.042301 -0.021118 -0.002219 0.056439 0.020325 0.094558 -0.216911 0.048536 -0.159833 9.03E-4 0.239579 0.04729 -0.017582 -0.057755 -0.056331 0.175043 -0.010556 0.254134 -0.023952 0.001945 -0.161083 -0.005101 0.193145 0.073464 -0.055642 -0.035022 0.120662 0.018228 -0.107647 -0.102976 0.055227 0.018577 -0.308446 0.145268 -0.238507 -0.078004 0.017402 -0.023687 -0.106833 -0.029922 -0.061287 0.028024 0.079015 0.192533 -0.050487 -0.121277 -0.081093 0.090089 -0.111868 0.108836 -0.041103 -0.099423 -0.055836 0.142108 0.005729 -0.099871 -0.076428 0.169819 0.030807 0.026952 0.162379 -0.038806 0.077312 -0.153138 0.050308 -0.07769 0.056234 0.067894 0.116871 0.008203 0.047632 -0.043906 0.09895 0.09111 -0.031882 0.172238 -0.115888 0.016751 -0.153299 0.057254 -0.004629 0.131597 0.075967 0.048453 0.058252 -0.043846 0.037892 0.021069 0.144925 0.199647 -0.229249 -0.034252 0.02626 0.051142 -0.183994 -0.110028 -0.121121 -0.036865 0.029965 0.070637
-1.371364 -0.905838 -2.28994 -1.283174 -1.310577 -1.606454 0.910305 1.305647 -4.371454 0.628874 1.806303 0.828653 -2.382652 -0.686732 0.545703 1.326346 0.154753 -3.264551 1.126633 -1.969114 -0.800301 -1.436766 3.728197 -1.038718 -2.327168 -1.817844 -1.522537 3.301526 -0.516965 -1.374094 -0.051603 -1.351815 -0.389973 -0.502437 0.25835 0.846892 1.917309 -2.564942 1.743738 0.299837 -0.077633 -0.203545 -1.348593 -0.075214 -1.608776 -1.418613 -1.239597 1.346437 1.05542 -0.955862 -1.024128 -0.739272 -1.267341 -0.406832 -0.563292 1.91249 -0.495804 -1.8464 -2.951108 -2.501113 -2.256394 0.158864 1.280809 0.511105 1.438967 -1.170372 -0.297717 -2.259045 1.504669 -0.129935 2.657114 -0.654912 -1.802167 1.676283 -1.228934 1.0964 1.563019 0.572077 -0.396552 -2.394884 0.52895 2.143209 0.307586 -0.887167 -1.371926 0.836945 0.408248 -0.956246 -1.326029 0.678732 3.122775 -1.439952 -0.709464 -1.94331 -0.773044 1.524834 1.347463 -1.037819 -0.217821 2.595661
0.100443 -0.002288 0.034938 -0.186815 0.047845 -0.134586 -3.42E-4 -0.107933 -0.00524 -0.165407 0.014066 -0.159285 -0.156459 -0.045194 -0.068337 0.024477 0.088251 -5.41E-4 -0.032428 0.178116 0.139734 0.047269 -0.076826 0.023837 -0.074653 -0.124544 0.091869 -0.011716 -0.043261 0.028906 0.008873 0.074698 -0.003813 -0.114628 -0.080585 0.124316 0.070883 0.025308 -4.46E-4 0.18071 0.157161 0.044848 -0.090535 0.199093 0.13453 0.08668 0.009772 -0.04733 -0.059757 0.187956 -0.18183 -0.135105 0.189109 0.039553 0.176471 0.273561 -0.02822 0.095824 -0.019665 -0.086494 -0.001326 -0.03236 -0.063701 -0.013297 -0.081459 -0.048737 0.023655 -0.119465 0.054853 -0.035345 0.02323 0.079403 -0.057812 0.066306 0.057507 0.081397 0.029634 0.100478 0.097732 -0.154781 0.034568 0.018142 0.042918 0.136306 -0.130122 -0.133913 0.106876 0.056994 -0.038035 0.102751 -0.048596 0.047927 0.060749 0.064167 0.024012 0.024147 -0.03326 -0.196876 0.036651 0.045852
0.051165 -0.165567 0.057387 -0.047117 -0.055985 -0.089265 -0.161667 0.027546 -0.193722 0.074437 0.032065 0.151745 -0.124054 -0.026066 0.011416 0.150188 0.001488 -0.051853 0.157387 0.222313 -0.010918 0.018108 0.154399 -0.072291 -0.104732 -0.033217 -0.143429 -0.099798 0.254464 -0.088514 -0.102527 0.087279 0.01474 0.156084 -0.069026 -0.154502 0.115485 -0.247551 -0.076085 0.165472 -0.002171 -0.179689 0.169712 0.09509 0.137689 -0.071428 -0.051784 -0.131872 -0.022114 0.0997 0.179132 -0.133992 -0.054962 -0.064365 0.04262 -0.05019 0.036852 -0.017944 0.016026 -0.002934 -0.091133 -0.166799 -0.009752 -0.16941 -0.072423 0.041147 -0.062812 0.148223 0.050873 -0.040301 -0.100109 -0.044623 -0.002945 0.149274 0.109497 0.047123 -0.048675 -0.245103 0.012633 -0.02212 0.06102 0.009143 0.073899 -0.200987 -0.017948 -0.036457 9.33E-4 0.056704 0.095663 0.085862 -0.222083 -0.027442 0.16887 -0.013047 0.038085 0.055135 0.061535 0.007615 -0.062965 -0.133145
-0.396475 -0.172426 -0.067579 0.198995 -0.037953 0.118864 0.039353 0.145058 0.045943 0.0156 0.060556 0.085876 0.189062 0.001817 -0.058169 -0.07494 0.146681 0.016725 0.13308 -0.001513 -0.128258 0.189438 0.011867 0.105351 -0.040884 -0.064061 -0.037291 -0.004447 0.018234 -0.002827 -0.052021 0.043361 0.006331 0.074473 0.013343 0.170377 -0.129126 0.126925 0.120014 0.032052 -0.076893 -0.044317 -0.019552 0.024212 0.121071 0.029477 -0.033378 0.029024 -0.225102 0.162829 0.061888 0.145724 -0.145743 0.136322 -0.204674 -0.065449 0.085565 0.03374 0.169243 -0.027853 0.055293 0.105442 0.128487 -0.095173 -0.126125 0.027016 -0.049849 0.065702 -0.04134 -0.043609 -0.101197 -0.234461 -0.099424 -0.041014 0.080966 -0.168762 -0.128328 0.316813 -0.004814 0.074926 -0.299566 0.02886 -0.087325 -0.089889 0.049073 -0.137742 0.21865 -0.237508 -0.043028 0.007435 0.070466 0.050142 -0.09214 -0.08858 -0.153682 0.02976 0.156456 0.134472 -0.116083 0.061476
0.115852 -0.358318 0.126466 0.018021 -0.086692 -0.065323 0.019563 -0.079828 0.057751 -0.054665 -0.086954 0.043881 -0.100277 -0.03034 0.18171 -0.09894 0.024202 0.093141 0.069492 0.094801 -0.147876 -0.099296 0.062884 0.069801 -0.242859 -0.268153 -0.113214 0.037459 0.202724 0.047031 -0.130868 0.033407 -0.133179 0.007278 -0.126685 -0.008953 0.140235 -0.138716 -0.011928 0.142837 0.002303 0.143979 0.044048 0.005144 0.001152 -0.083968 -0.180054 -0.015639 0.033327 0.024214 0.164531 -0.079444 -0.025955 0.007085 -0.110295 -0.00958 0.02237 -0.05728 -0.179873 0.003208 0.100019 0.00315 -0.088598 -0.071051 0.0977 0.013662 0.100207 0.008653 -0.003927 0.007958 -0.052588 0.143968 -0.119568 -0.009123 0.014811 0.027719 -0.154137 -0.154188 -0.091624 -0.140892 -0.097231 0.230778 0.048983 -0.119886 -0.054017 0.182197 -0.081338 0.029831 0.090942 0.108627 -0.1296 0.177804 -0.017565 0.009475 -0.132372 -0.086578 0.049486 -0.034296 0.015001 0.023303
0.024378 -0.116139 0.180639 0.111395 0.030568 -0.071668 -0.121108 -0.109806 -0.091698 0.013018 0.08259 0.069038 -0.061427 0.004082 0.229398 0.047504 0.066332 -0.026818 0.02069 0.023222 -0.024814 0.084488 0.163639 0.026093 -0.167495 -0.080491 0.015155 0.002639 0.149547 -0.107706 -0.032128 0.017933 0.035418 0.02069 0.071325 -0.134884 -0.023948 0.019409 -0.045767 0.036389 0.01007 -0.18179 0.153652 0.026089 -0.154465 -0.04553 -0.142306 0.003931 -0.113083 0.004437 0.142883 -0.219551 -0.115541 -0.039264 0.151018 0.201031 -0.024747 -0.016886 -0.027411 -0.073582 0.10617 -0.086841 -0.04312 0.003789 -0.024946 0.136003 0.096762 -0.080263 0.012766 -0.01203 0.076892 -0.020938 -0.04654 0.044006 0.078363 -0.05006 -0.068905 -0.123399 -0.034683 -0.051999 0.022561 -0.158305 0.056823 0.044635 0.08235 0.268783 0.147618 -0.026452 0.059026 0.082304 0.068505 -0.104877 -0.124045 0.110571 0.004564 -0.087215 -0.038814 -0.270774 -0.070765 0.099681
-0.0515 -0.035006 0.023264 0.08033 -0.028232 -0.05464 -0.091161 -0.002127 -0.100205 0.08544 0.078076 0.116229 0.109148 3.59E-4 0.048475 0.00802 0.115155 0.083804 0.068936 -0.024659 -0.08714 -0.012581 0.139137 -0.021255 0.013371 -0.056737 -0.120479 -0.080781 0.078262 -0.150893 -0.066035 -0.008055 -0.017204 0.058992 -0.100747 -0.061457 0.095331 0.003858 -0.014918 0.025153 -0.057319 0.137915 0.01707 -0.023856 0.039842 0.058491 0.066117 -0.012668 -0.157019 0.028718 -0.070218 -0.031952 -0.017961 -0.029614 0.101605 -0.080869 0.018879 0.119434 0.05989 -0.070519 0.002821 -0.12424 2.0E-5 -0.02756 -0.018966 -0.064684 0.054939 -0.027822 0.110881 -0.192489 -0.100659 -0.009209 -0.111344 -0.019115 0.056477 -0.130913 -0.120903 0.079402 0.059064 0.048556 -0.031464 0.052038 0.101292 -0.154084 0.020554 0.038267 0.034207 -0.02741 0.064296 -0.078094 -0.072732 0.065228 0.048723 0.045361 -0.036491 -0.110952 0.017508 -0.050876 -0.081906 -0.096909
2.591633 1.608701 -2.087245 2.00752 3.012652 4.995656 0.847355 -1.594905 -0.365708 -1.629805 -1.650237 3.712017 -0.231463 -0.537534 -2.036098 2.002639 -0.696666 -4.310136 -1.477319 -1.356504 -0.581823 -1.830239 -0.272773 -1.648095 0.090509 0.008711 0.330842 0.396714 2.341035 -0.526067 1.155793 -1.730906 -1.010387 -1.342646 -1.939355 0.734869 0.727366 0.700702 1.516974 -2.133831 -0.280653 -3.051674 0.017123 0.532043 1.478449 0.375441 0.920129 1.548929 1.087478 0.668327 0.707416 3.249232 -0.362503 1.273221 -2.929682 -0.245389 1.633444 -0.119836 0.103459 -3.445175 0.513245 0.427807 0.738792 1.448203 0.501908 0.362882 -0.731533 -0.391201 0.037778 3.053553 4.030229 1.793904 1.24136 0.081706 -1.401954 -0.638804 -0.487445 -0.267924 0.012844 0.538179 -0.241935 -0.068756 1.351665 -0.112558 0.001814 0.447262 0.833441 -0.023876 1.212707 1.514635 -0.568611 0.376173 -3.663739 -4.345135 -0.444319 2.139788 -2.53093 0.92131 -1.399435 1.763954
-0.014242 0.055886 0.121448 -0.044527 -0.103629 -0.179973 -0.068857 0.087289 -0.219723 0.0114 0.048123 0.089472 0.148063 -0.058573 -0.157144 0.072651 -0.041198 0.226978 0.00276 -0.035143 -0.158497 0.060584 0.252849 -0.032797 -0.274145 0.133593 -0.104867 -0.028144 -0.043964 -0.025337 0.011027 -0.093657 -0.201162 0.207582 -0.18507 -0.015467 0.052753 0.165386 0.060541 -0.080573 0.078041 0.116374 0.181829 0.004856 0.007846 -0.082077 -0.09094 -0.045792 -0.117133 0.03315 0.127561 -0.220293 -0.080849 -0.125653 0.190704 -0.236434 -0.028332 -0.16654 0.202517 -0.188576 0.100438 -0.15146 -0.198987 -0.288341 -0.094445 0.054716 -0.027097 0.093276 -0.051151 -0.052553 -0.272693 0.055562 -0.070348 -0.126266 0.053742 -0.015203 0.124594 0.129198 0.100136 0.023336 -0.010146 0.435271 0.081609 0.147954 -0.120115 -0.027611 0.045092 0.189542 0.190629 0.114617 0.064113 0.169058 0.121391 -0.048396 0.052393 0.016718 -0.135189 0.096909 0.045433 -0.22634
1.219979 0.840896 -0.889874 1.497061 0.359939 0.146731 -2.201161 0.483676 -1.725902 -0.978197 -0.356077 -0.234536 -1.475796 -0.289149 0.770841 2.620823 -1.409437 -2.538311 -1.120352 -1.693365 0.145075 -0.605518 0.982137 -0.159265 2.12607 0.308494 -1.876083 2.079224 1.353198 -0.963628 -0.046424 -0.806909 0.625672 1.849321 -2.230211 -1.820351 2.264509 -1.234566 1.239084 -1.665912 -1.112559 -3.463763 0.494633 0.282674 2.0141 2.000156 -1.575268 -0.706065 2.560699 0.202354 2.03992 0.343462 -0.582066 0.846577 -0.270955 0.712605 0.339486 1.417198 -1.110318 -1.571178 -1.529763 0.220338 -0.505979 -1.763048 -1.044964 0.249273 -1.121451 -1.860006 -0.322231 2.972221 1.748183 0.605485 0.208847 -1.113874 -0.261203 -0.387651 1.487286 0.603139 -2.605518 -1.142366 0.503438 -1.086088 -0.12459 -0.056509 -1.660534 0.534014 0.942284 -0.088356 0.703531 3.071906 0.348358 -0.478752 -3.365751 -0.561459 1.56756 2.364135 1.053051 0.51308 -1.024781 1.110015
-0.03734 -0.134387 -0.101558 0.039962 -0.090274 -0.165337 -0.033574 -0.094488 0.005318 0.084802 0.09789 0.16338 -0.11799 -0.075408 0.166999 0.245264 0.147879 0.166978 0.106614 0.02358 -0.127978 0.071469 0.197507 0.111895 -0.083646 -0.061961 -0.09338 -0.055126 0.120611 -0.133231 -0.059146 -0.00745 -0.054762 0.090634 -0.035851 -0.173588 0.008311 -0.085917 -0.038265 0.0455 -0.018654 0.132518 -0.083835 0.001072 -0.010491 -0.308809 -0.013982 0.016134 -0.279098 -0.081584 0.064586 -0.186375 0.080354 0.023376 0.136723 -0.013516 0.038251 0.09672 -0.077553 -0.082424 0.07994 -0.134538 0.160088 -0.23723 -0.002978 -0.014843 0.040835 -0.020867 0.038462 -0.109646 -0.03435 0.056719 -0.055228 -0.02507 0.083543 -0.016481 0.071122 -0.036731 0.067727 -0.054098 0.011492 0.089237 0.216616 -0.161973 -0.046082 -0.008067 0.050372 0.159675 0.054507 -0.034927 -0.088065 0.0282 0.099391 -0.017908 -0.072471 0.067582 0.100622 -0.180538 0.028355 -0.030095
3.229447 1.832686 -0.196265 -0.303454 -0.824437 2.082854 1.150219 -0.493805 -3.50143 -0.594107 2.103319 2.396154 1.056781 -0.578498 -1.172209 3.210305 -0.978008 -1.908997 -0.472705 -1.788789 -2.346806 -2.098664 -0.288581 -2.078696 0.41261 0.520842 -1.276654 0.578767 1.70845 -0.136278 -1.41294 0.371846 1.173228 1.232021 0.598135 -3.597398 4.723318 -0.907374 3.160397 -2.027976 1.188048 -5.433854 0.01906 -0.240727 2.932695 1.836205 0.69537 0.647449 5.328198 0.625981 0.041762 2.070653 0.300511 1.656161 -2.571092 0.908767 3.294905 2.941907 -1.065341 -2.086696 -0.817265 -1.894089 0.299235 -1.879644 0.485823 1.848637 -0.344618 -2.532108 2.074767 0.482597 3.034693 1.42216 0.457834 2.431775 -0.318071 1.666885 -1.364005 1.576786 -1.71492 -0.790398 2.548478 -2.38312 -0.502643 1.256626 0.730181 1.714355 1.091085 4.672542 0.202716 -0.959086 0.774024 -2.161259 -1.810393 -2.763748 0.167227 4.207294 2.675714 0.636561 -0.117425 -0.284099
0.226635 -0.052325 0.005244 -0.214607 -0.216023 -0.081785 0.00205 0.037122 -0.242408 0.260628 0.156497 -0.119955 0.062962 0.052139 0.002548 0.215491 0.225543 -0.032802 0.22984 -0.142948 -0.038018 -0.101973 0.317643 0.184715 0.204972 -0.007871 0.05905 -0.039663 -0.135227 -0.152891 0.094247 0.075853 0.171767 0.234633 0.140279 -0.038301 0.154923 -0.259847 -0.13108 -0.041271 0.160909 -0.38684 0.214038 -0.11327 0.120618 -0.059458 -0.145539 -0.024262 0.170729 0.205101 0.038737 0.033843 0.104974 -0.085692 0.022038 0.301691 0.201305 0.354092 -0.055311 -0.046306 -0.004787 -0.33777 0.065341 -0.061797 -0.189878 -0.074289 0.098566 0.213996 -0.142153 -0.181367 -0.049181 0.068566 -0.168662 0.214074 0.026345 -0.068551 -0.231104 0.195207 -0.052077 -0.062212 0.16621 0.063255 -0.196848 -0.05096 0.242198 -0.094812 -0.017048 -0.177613 0.362583 -0.071275 0.037859 -0.140443 0.165947 0.178646 0.264139 0.121288 0.024488 -0.188465 -0.075744 -0.382624
-0.019201 0.028111 0.019217 0.052324 -0.012545 0.076041 0.041859 0.132425 -0.042682 -0.25324 0.153679 -0.052639 -0.234426 0.154245 0.001178 0.07083 0.073083 0.160228 0.024133 -0.054811 0.001969 0.005439 0.181016 0.099355 -0.126409 -0.051701 0.037309 -0.123638 0.247936 -0.162055 0.114555 0.125901 0.087982 0.08593 -0.090916 0.032607 0.058566 -0.084423 -0.083684 -0.120125 -0.142636 -0.134573 0.099572 -0.067549 0.144656 -0.140025 -0.119758 0.069446 0.087216 -0.032862 -0.006618 -0.111395 0.032981 -0.031112 -0.118341 0.110071 -0.111936 0.153878 0.041608 0.007703 0.064796 -0.130385 0.030277 0.045725 -0.1256 0.149386 -0.11782 -0.166733 0.122695 0.114102 -0.065025 -0.01284 -0.004014 -0.036946 -0.052576 0.183617 0.039352 -0.109896 0.002856 -0.049741 0.098582 -0.079185 0.058208 -0.092538 -0.020486 -0.024785 0.136707 0.03449 -0.090652 0.201497 -0.097455 0.025029 -0.120762 -0.013839 -0.051103 -0.067125 -0.00444 -0.252706 0.02388 -0.108891
-0.047421 -0.15849 0.107499 0.089927 0.167776 0.08617 -0.300314 -0.309623 0.108092 0.189928 0.056687 0.033222 -0.077897 -0.080874 0.159018 0.266839 -0.245001 0.016831 -0.085825 0.058383 -0.059198 -0.055262 0.240707 -0.12969 -0.22039 0.060318 -0.047124 -0.139865 0.089529 -0.172326 0.039714 -0.133083 -0.093917 0.050088 -0.217563 -0.099461 0.041898 -0.126919 0.020688 0.317283 0.16597 0.022872 0.046324 -0.073254 -0.180954 0.079862 0.019486 0.185367 0.118476 0.006355 -0.032953 -0.037425 0.063885 0.11699 0.184923 0.052025 0.128145 -0.13686 0.190992 -0.211976 0.013083 -0.015876 -0.029147 0.01214 -0.021098 0.071397 0.239282 -0.021331 -0.132596 -0.213218 -0.047197 -0.061747 0.108005 0.06585 0.170104 0.21 0.017802 0.149472 0.139998 -0.100998 0.016478 -0.071088 -0.215638 -0.123884 -0.172349 0.055991 -0.115719 -0.021301 0.071983 0.092645 -0.139537 0.078519 -0.099633 0.035876 -0.078405 -0.346964 0.042416 0.013565 -0.105723 -0.0419
0.038905 -0.00167 0.040517 -0.111143 0.071418 0.054611 0.018845 0.029936 -0.202865 -0.023008 0.31644 0.01994 0.13346 -0.084198 0.038539 0.100917 -0.119582 0.085843 -0.020548 -0.056929 -0.120474 -0.063985 0.237622 0.162603 -0.087584 0.038709 -0.1509 -0.040034 0.037795 -0.00422 0.115477 -0.140095 0.010622 -0.023037 -0.121673 -0.116204 0.082257 -0.165181 0.234299 -0.02871 0.132152 0.046959 0.084356 0.003832 -0.017002 0.146031 -0.073206 0.113518 0.021128 0.139606 0.068422 0.094766 -0.015339 -0.080037 -0.05472 0.094777 0.091308 -0.067354 0.147034 0.044723 -0.122367 -0.102383 0.015395 -0.12606 -0.080145 0.195472 0.032716 -0.032266 0.102118 -0.069941 0.117676 -0.163425 -0.024333 0.041359 -0.058012 0.138805 0.029057 0.1255 -0.124526 -0.151586 -0.044309 -0.141576 0.137192 0.073907 -0.043627 -0.031599 0.101981 0.016387 0.023819 0.158003 -0.093835 0.117282 -0.150936 -0.096635 -0.016518 0.05269 -0.040607 0.016052 -0.176522 -0.110965
1.51713 0.950998 -0.43035 1.410565 1.027436 -0.021932 -0.446363 2.014639 -1.367287 -0.918352 -0.238369 -0.583637 1.276085 2.410767 0.73524 -0.15024 -0.680788 0.540768 -4.791297 -0.527541 -1.792397 2.281269 -1.972297 1.909008 0.906279 -0.575539 -1.816574 -2.135859 -3.533016 2.209813 2.599934 -3.737719 -1.60086 -3.001603 -3.728525 -0.759598 0.009888 -1.240785 -3.960285 -0.934149 1.498481 -3.789986 0.521224 -1.196375 -1.411245 -1.454399 -1.089609 -0.558878 1.182928 -0.369626 3.654269 1.714898 -0.545065 -1.442425 -3.594375 -1.122622 0.863868 -1.031306 -1.259423 -1.192458 -1.02248 -0.593149 -0.642908 1.307686 -0.362551 -1.302147 0.495603 -2.945837 -1.743057 1.619189 2.335525 -3.309908 -1.940478 2.695575 0.207934 0.223261 -2.343333 -0.356945 -1.7503 1.252601 1.358825 -1.229506 -1.651647 -0.467668 0.469764 -3.772937 1.519435 1.437086 0.207474 1.961345 0.765705 -0.622458 -2.069355 1.397011 1.495126 -1.007558 -0.943656 2.980306 -2.320673 0.76536
-0.033059 -0.003841 0.030108 0.163011 0.105352 0.147194 -0.036178 -0.068444 0.038477 0.06238 0.121326 0.096957 -0.03952 0.059737 0.108019 0.088335 -0.065316 -0.055853 0.004409 0.284164 -0.120727 0.012958 0.211637 -0.05379 -0.076821 0.048247 -0.036615 0.131151 0.105124 -0.132452 -0.004586 0.047553 0.018431 0.082375 -0.037184 -0.057503 -0.05921 0.098712 0.126763 0.00903 -0.082714 -0.216583 0.133272 -0.007393 0.089772 -0.115459 0.110736 -0.118571 0.00702 0.039542 0.055305 -0.1787 -0.106418 -0.041918 -0.069195 0.051072 -0.156254 0.108775 0.05522 -0.136086 -0.016338 0.004462 -0.009961 -0.119515 0.133079 0.064662 -0.03509 -0.099412 0.227227 0.051663 0.156802 -0.189851 -0.023435 0.082887 0.088759 0.099828 -0.107043 0.02213 -0.023956 -0.070325 -0.032073 0.11249 0.114516 -0.11666 -0.042468 0.059348 -0.026855 0.038676 0.052443 0.077647 0.162325 -0.039425 -5.71E-4 0.002889 -0.038787 -0.036086 -0.056988 0.015773 -0.025481 0.004083
0.0 0.0 0.0 0.0 0.0 0.0 0.0 0.0 0.0 0.0 0.0 0.0 0.0 0.0 0.0 0.0 0.0 0.0 0.0 0.0 0.0 0.0 0.0 0.0 0.0 0.0 0.0 0.0 0.0 0.0 0.0 0.0 0.0 0.0 0.0 0.0 0.0 0.0 0.0 0.0 0.0 0.0 0.0 0.0 0.0 0.0 0.0 0.0 0.0 0.0 0.0 0.0 0.0 0.0 0.0 0.0 0.0 0.0 0.0 0.0 0.0 0.0 0.0 0.0 0.0 0.0 0.0 0.0 0.0 0.0 0.0 0.0 0.0 0.0 0.0 0.0 0.0 0.0 0.0 0.0 0.0 0.0 0.0 0.0 0.0 0.0 0.0 0.0 0.0 0.0 0.0 0.0 0.0 0.0 0.0 0.0 0.0 0.0 0.0 0.0
-0.045549 -0.019643 0.046605 0.01937 -0.048165 0.002386 0.133692 -0.105972 -0.036092 0.01926 -0.041897 0.101992 -0.024171 -0.015948 -0.078548 0.018259 -0.021959 -6.9E-5 0.068206 0.037825 0.056655 -0.263488 0.019989 0.022684 -0.095743 0.148716 0.020395 0.005975 0.24558 -0.064396 -0.038624 0.103727 -0.009889 0.096239 -0.304886 0.02822 0.080687 0.038994 0.079709 -0.050449 0.091042 0.026191 0.163824 -0.046615 -0.100267 0.010837 -0.087407 0.084683 -0.041542 -0.01353 0.034989 -0.127666 0.142675 -0.144064 -0.010746 0.042543 -0.055325 -0.066353 -0.06669 -0.203929 0.043696 -0.15489 0.225267 -0.112238 -0.083936 0.01865 0.080721 -0.045273 0.053165 0.012791 -0.251947 -0.087307 -0.030465 0.051097 -0.029058 -0.055214 -0.077598 -0.017701 0.140202 -0.094673 -0.079917 0.236495 -0.033887 0.011453 -0.003383 0.141896 -0.034788 -0.14658 0.023186 0.099968 -0.072668 -0.031315 -0.073928 0.05957 0.035095 -0.094544 -4.16E-4 0.006228 0.001092 -0.050299
-0.968799 -0.140334 0.281144 0.344403 -0.359923 0.354303 0.315161 0.56022 -1.377991 -0.785631 0.218183 -0.230065 -0.368639 -0.790766 -1.284328 0.044634 -0.365076 -0.651774 -0.724367 -0.331707 -0.572722 0.076982 0.834274 -0.678042 0.548789 0.04466 -0.136002 0.397755 0.624452 0.383475 -0.640804 -0.292932 0.28132 -0.981444 0.113142 -1.326572 -0.401443 -0.549562 0.858119 0.378833 -0.767256 -0.746261 0.742989 0.30885 -0.480568 -0.653749 -0.65207 0.53334 0.084479 0.506047 0.609883 0.122709 -0.709823 -0.486542 -0.706882 -0.950837 -0.222058 -0.136505 0.962863 -0.233059 0.041886 0.924618 -0.779653 -0.272455 -0.626963 0.498702 0.365542 -0.64283 0.47023 -0.439257 -0.547107 1.35978 -0.527737 0.52998 -0.075391 -1.522689 -1.103674 -0.038299 0.020995 0.215653 0.086885 0.706997 0.075711 0.352088 -0.707085 0.521501 -0.854428 -0.160871 0.194002 1.413942 -0.326677 1.520256 -0.261304 -0.433022 0.91785 0.400804 0.079866 -0.286363 -0.342862 0.668142
0.037311 0.069098 0.146051 0.245319 -0.220586 0.149353 -0.154392 -0.046366 -0.177821 -0.134713 -0.0835 0.215419 -0.020545 0.155818 5.45E-4 0.045456 -0.192701 0.089427 -0.017666 -0.104382 0.086163 0.049242 0.153222 0.098115 0.079776 0.066198 -0.020967 0.201605 0.125661 -0.055015 -0.200601 -0.188661 0.051858 0.114433 0.066955 0.07807 0.096275 -0.029986 -0.083555 0.03171 -0.089357 0.008298 0.138861 0.005332 -0.036957 0.070235 0.024555 -0.277248 -0.115429 -0.046333 -0.080208 -0.004651 0.013615 -0.198257 0.170783 -0.05279 0.070781 -0.1826 -0.11547 -0.076415 -0.049058 -0.092461 -0.098914 -0.14922 0.136904 -0.256722 -0.052938 0.130647 0.009491 -0.021192 -0.175015 0.067034 -0.001401 0.111063 -0.026165 0.065045 4.48E-4 0.027764 -0.054708 -0.049767 -0.011957 0.137961 0.08663 -0.068711 -0.090447 -0.068702 -0.007911 -0.035437 0.051932 -0.034323 0.050828 -0.073514 -0.125312 0.153466 0.124654 0.089508 -0.015814 -0.066212 -0.060318 0.022966
-0.172636 0.01033 0.161959 -0.183546 0.084826 0.001454 -0.012333 0.025399 -0.140257 -0.043156 0.065558 -0.05232 0.099666 0.00853 0.143223 0.114338 0.12441 0.125198 0.033525 0.036631 -0.100414 0.095781 0.079415 0.218911 -0.202953 -0.176273 0.003928 -0.080203 0.064255 -0.151939 -0.015762 -0.091797 0.058406 0.259075 0.142232 0.005009 -0.027051 -0.151772 -0.009225 0.087933 -0.047953 0.058876 -0.00632 0.200481 -0.051352 -0.062672 -0.004913 0.138106 0.006286 0.095799 0.155862 0.073325 -0.063141 -0.126818 0.080382 -0.03216 0.029759 0.0419 0.073559 0.032012 0.00921 -0.174483 -0.047889 -0.051292 -0.092714 0.114818 -0.104232 -0.056323 -0.006118 -0.033086 -0.071821 -0.058985 -0.082653 -0.01357 0.127079 -0.029265 0.032993 0.09375 -0.047027 -0.121647 0.078634 0.058114 0.019442 1.0E-5 0.027019 0.006064 0.011752 0.078438 0.206987 0.051293 -0.026753 -0.10776 0.076365 -7.58E-4 -0.123035 -0.129837 -0.027931 -0.05268 0.159075 3.06E-4
0.0 0.0 0.0 0.0 0.0 0.0 0.0 0.0 0.0 0.0 0.0 0.0 0.0 0.0 0.0 0.0 0.0 0.0 0.0 0.0 0.0 0.0 0.0 0.0 0.0 0.0 0.0 0.0 0.0 0.0 0.0 0.0 0.0 0.0 0.0 0.0 0.0 0.0 0.0 0.0 0.0 0.0 0.0 0.0 0.0 0.0 0.0 0.0 0.0 0.0 0.0 0.0 0.0 0.0 0.0 0.0 0.0 0.0 0.0 0.0 0.0 0.0 0.0 0.0 0.0 0.0 0.0 0.0 0.0 0.0 0.0 0.0 0.0 0.0 0.0 0.0 0.0 0.0 0.0 0.0 0.0 0.0 0.0 0.0 0.0 0.0 0.0 0.0 0.0 0.0 0.0 0.0 0.0 0.0 0.0 0.0 0.0 0.0 0.0 0.0
0.052121 -0.099589 0.127244 0.092646 -0.033348 0.041528 0.145167 -0.046842 -0.015687 0.143101 0.075754 0.172338 -0.009203 -0.003088 0.037848 -0.103662 0.017661 0.12665 0.004188 0.166166 0.071735 0.053757 0.005707 -0.042999 0.04555 -0.108091 -0.091968 -0.001054 0.019913 -0.043918 -0.095325 0.077491 -0.179603 0.217663 -0.089775 0.173583 0.105417 -0.094206 0.140601 0.106502 -0.238859 -0.0889 0.174581 0.00647 -0.079711 -0.184999 -0.133501 0.015416 -0.159082 0.239518 0.05183 -0.126526 -0.144143 0.083928 -0.045822 -0.027427 -0.005476 -0.096671 -0.116182 -0.095087 0.132909 -0.099339 -0.03376 -0.259583 -0.102099 -0.131828 -0.071477 0.046576 0.165517 -0.174601 -0.056112 0.095021 -0.058338 -0.077141 -0.09215 -0.107945 -0.146958 0.093491 -0.123961 -0.031845 -0.03781 0.170234 0.019947 -0.091189 -0.071455 0.042332 0.020968 0.022422 0.061083 0.006205 -0.042069 0.034903 -0.062828 0.031951 0.064203 -0.088004 0.136243 0.001622 0.118714 -0.100599
-0.052909 0.025143 0.068653 0.007157 0.011234 0.036372 0.043707 0.054511 -0.053174 -0.043019 0.060511 -0.048646 -0.067574 0.073135 0.180058 -0.067954 0.056104 0.048957 -0.026837 0.017887 -0.066345 0.111809 0.008814 0.042789 -0.081723 -0.231614 -0.054533 -0.042471 0.174947 0.003484 0.075105 -0.05242 -0.102105 0.069054 -0.041269 0.032313 0.116635 5.57E-4 0.085291 0.110494 0.108896 0.042603 -0.056126 0.017715 0.092263 0.169691 0.112594 0.041834 0.060141 0.041644 0.04647 0.064717 -9.63E-4 -0.13351 0.063508 -0.237244 0.079755 -0.099942 0.051928 -0.116207 -0.026734 -0.055449 0.042605 -0.042566 0.040305 0.049141 0.103737 0.088645 -0.117647 -0.164979 -0.036473 -0.052894 0.086874 0.089989 0.129154 -0.122938 -0.022409 -0.039708 -0.120727 -0.078467 -0.016841 0.107075 0.039005 -0.061214 0.127975 0.050425 -0.016271 -0.057088 -0.083193 0.066411 -0.123916 0.0576 0.073208 0.049729 -0.145444 -0.117469 0.03845 -0.056778 -0.005137 0.081234
-0.045549 -0.019643 0.046605 0.01937 -0.048165 0.002386 0.133692 -0.105972 -0.036092 0.01926 -0.041897 0.101992 -0.024171 -0.015948 -0.078548 0.018259 -0.021959 -6.9E-5 0.068206 0.037825 0.056655 -0.263488 0.019989 0.022684 -0.095743 0.148716 0.020395 0.005975 0.24558 -0.064396 -0.038624 0.103727 -0.009889 0.096239 -0.304886 0.02822 0.080687 0.038994 0.079709 -0.050449 0.091042 0.026191 0.163824 -0.046615 -0.100267 0.010837 -0.087407 0.084683 -0.041542 -0.01353 0.034989 -0.127666 0.142675 -0.144064 -0.010746 0.042543 -0.055325 -0.066353 -0.06669 -0.203929 0.043696 -0.15489 0.225267 -0.112238 -0.083936 0.01865 0.080721 -0.045273 0.053165 0.012791 -0.251947 -0.087307 -0.030465 0.051097 -0.029058 -0.055214 -0.077598 -0.017701 0.140202 -0.094673 -0.079917 0.236495 -0.033887 0.011453 -0.003383 0.141896 -0.034788 -0.14658 0.023186 0.099968 -0.072668 -0.031315 -0.073928 0.05957 0.035095 -0.094544 -4.16E-4 0.006228 0.001092 -0.050299
2.01044 1.232296 -2.549912 -2.032197 2.108218 0.350754 3.984176 -0.781111 1.754388 -2.314295 2.355634 -1.525834 1.226472 -1.541329 -3.304575 2.991044 -1.391115 -2.323146 -2.15385 -2.980392 2.344315 -2.676041 1.909837 -5.523956 -1.061176 -1.804773 -0.560027 -2.255916 -1.094577 -1.063408 0.662731 -2.102897 -3.864523 -7.571391 -1.344896 0.094571 0.367136 1.570184 0.648031 -0.688728 -0.946578 -0.092235 -2.489474 -1.986418 -1.624544 2.498297 1.250083 -1.068359 1.883808 -2.927913 -1.745434 -2.058515 -0.512999 0.410537 1.644372 -2.957222 1.082306 2.233394 3.431873 -2.073999 1.844186 -1.494935 0.390434 1.564615 -2.929395 -0.086005 -1.048035 -6.680551 1.315066 2.524979 4.404657 4.649625 1.632009 -3.155071 -4.040797 -1.548602 1.77773 -0.139533 -0.426028 0.428942 0.053434 -1.593569 3.168037 1.766949 4.17124 2.646524 2.776018 3.211581 -0.17617 -0.149054 -1.677979 1.48727 -4.970527 -4.785122 -2.199308 0.014736 -3.178869 1.436958 -1.954018 -3.116458
0.719822 0.012388 0.237888 -0.409591 -0.165831 -0.094918 -0.514897 -0.023919 -0.680505 0.466038 0.286648 -0.425728 0.278486 0.442116 -0.145137 0.611738 0.110332 -0.900063 0.188559 -0.014065 0.563033 -0.489131 0.69797 0.010486 0.83294 -0.492074 0.016959 0.204056 0.646833 -0.487108 0.258471 -0.012674 0.174096 1.248063 0.445037 -0.703813 0.899592 -0.734258 -0.079027 -0.179365 -0.603314 -1.216122 0.222099 -0.035978 1.260327 -0.059305 -0.050286 -0.272994 0.569196 0.09585 0.549437 0.285009 -0.290942 0.276669 -0.099777 0.637963 0.602878 0.722089 0.351125 -0.522809 -0.212074 -0.760092 0.054785 -0.839237 -0.800525 0.322293 -0.080329 0.858611 0.415043 -0.372076 -0.17275 -0.036365 -0.320295 -0.013997 0.310643 -0.041159 -0.60299 0.406925 -0.241179 -0.2776 0.864505 0.052902 -0.576091 0.04536 0.924555 -0.750843 0.192709 -0.376843 0.377143 0.122543 8.37E-4 -0.525927 0.527559 -0.117756 0.594741 0.994253 1.075808 -0.236528 -0.396495 -1.293902
0.113924 -0.115718 -0.037399 0.070445 0.049995 0.084604 0.086654 -0.016843 -0.210966 -0.07172 0.044188 0.222954 0.223708 -0.017852 -0.069662 0.070251 0.138222 0.080389 -0.076541 -0.05209 0.052021 0.115063 0.040484 -0.069446 -0.001332 -0.160802 0.019406 -0.112353 -0.118099 0.249336 -0.099454 -0.15196 0.348834 0.030534 0.045435 -0.016757 -0.12553 0.122507 0.036526 0.069052 0.037335 0.120283 -0.183198 -0.099074 0.043813 -0.043493 0.066767 -0.153004 -0.194631 0.096133 -0.023577 0.032478 -0.120818 0.022977 -0.219082 0.13306 -0.007575 0.113111 0.060058 -0.137928 0.058679 0.068394 0.127999 0.009136 -0.011705 -0.023268 0.061964 0.066785 -0.088519 0.079464 0.011851 0.202026 -0.017736 -0.024391 -0.108024 -0.044655 -0.157857 0.009798 -0.12292 0.110682 -0.114077 0.081439 -0.033575 0.021841 0.190177 -0.125207 0.031819 0.04519 0.058701 -0.017042 0.016571 0.030281 0.027105 -0.059006 0.139989 0.133661 -0.022597 -0.020474 -0.30015 -0.121367
0.034303 -0.209306 -0.103289 -0.008452 -0.151473 -0.029689 -0.17949 0.032226 -0.002495 0.115404 -0.225842 0.07661 -0.028757 0.064606 -0.036615 0.098549 0.099151 0.039523 0.046777 0.159339 -0.0336 0.26802 -0.01331 -0.030521 -0.106896 -0.102471 -0.014087 -0.152521 0.136998 0.030996 -0.004767 -0.048042 0.041751 -0.125445 -0.240797 0.060229 -0.216198 0.073182 -0.076444 -0.057925 -0.037218 0.049783 0.012112 0.118407 0.057465 -0.02217 -0.061325 0.037605 0.085267 0.029387 -0.126837 -0.068321 0.164817 0.074704 0.088025 0.032619 -0.039703 -0.125943 -0.03936 0.070178 0.305456 -0.028825 0.028922 -0.020497 0.023463 -0.05079 0.037389 0.045762 0.038282 -0.118097 0.106151 -0.002115 -0.181556 0.075154 0.005329 -0.044153 -0.047035 0.082977 0.024697 0.036045 -0.065213 0.033432 0.112701 -0.105864 0.119031 0.104864 -0.01082 0.041119 0.019067 0.21766 -0.127199 0.227972 -0.005336 0.149928 0.134845 0.005694 0.053363 -0.023428 0.01117 0.11074
0.024378 -0.116139 0.180639 0.111395 0.030568 -0.071668 -0.121108 -0.109806 -0.091698 0.013018 0.08259 0.069038 -0.061427 0.004082 0.229398 0.047504 0.066332 -0.026818 0.02069 0.023222 -0.024814 0.084488 0.163639 0.026093 -0.167495 -0.080491 0.015155 0.002639 0.149547 -0.107706 -0.032128 0.017933 0.035418 0.02069 0.071325 -0.134884 -0.023948 0.019409 -0.045767 0.036389 0.01007 -0.18179 0.153652 0.026089 -0.154465 -0.04553 -0.142306 0.003931 -0.113083 0.004437 0.142883 -0.219551 -0.115541 -0.039264 0.151018 0.201031 -0.024747 -0.016886 -0.027411 -0.073582 0.10617 -0.086841 -0.04312 0.003789 -0.024946 0.136003 0.096762 -0.080263 0.012766 -0.01203 0.076892 -0.020938 -0.04654 0.044006 0.078363 -0.05006 -0.068905 -0.123399 -0.034683 -0.051999 0.022561 -0.158305 0.056823 0.044635 0.08235 0.268783 0.147618 -0.026452 0.059026 0.082304 0.068505 -0.104877 -0.124045 0.110571 0.004564 -0.087215 -0.038814 -0.270774 -0.070765 0.099681
0.052628 -0.025808 0.049015 0.139356 0.157755 -0.170127 -0.112412 -0.11229 -0.285277 -0.264415 -0.071684 0.053901 -0.17003 0.047349 0.112243 0.103923 0.156071 -0.032355 0.065815 -0.022343 -0.164094 0.153877 0.134126 0.151228 -0.060743 -0.055801 -0.237871 0.24438 0.200379 -0.235627 -0.118826 0.084324 0.181824 0.101366 -0.014724 -0.15785 -0.159896 0.141451 0.041782 9.33E-4 0.029535 -0.154854 0.242687 -0.092032 0.098183 0.097379 -0.130253 -0.155515 -0.063732 -0.032395 0.205703 -0.124039 -0.158964 -0.131941 -0.012472 -0.039205 0.131577 -0.06427 -0.188932 -0.034568 -0.1661 -0.029766 0.024433 -0.125384 0.04912 -0.004677 -0.20764 -0.030655 0.032154 0.259095 -0.046367 -0.018559 -0.114379 -0.05234 -0.10509 0.011909 -0.127479 0.047025 -0.152966 0.151367 -0.042395 -0.085632 0.110212 -0.13359 -0.18016 -0.012015 0.033219 -0.004993 -0.151221 0.123194 0.013843 0.039331 -0.02336 0.153128 0.161095 -0.141462 -0.03341 -0.196625 0.019199 0.139202
