0.0 0.0 0.0 0.0 0.0 0.0 0.0 0.0 0.0 0.0 0.0 0.0 0.0 0.0 0.0 0.0 0.0 0.0 0.0 0.0 0.0 0.0 0.0 0.0 0.0 0.0 0.0 0.0 0.0 0.0 0.0 0.0 0.0 0.0 0.0 0.0 0.0 0.0 0.0 0.0 0.0 0.0 0.0 0.0 0.0 0.0 0.0 0.0 0.0 0.0 0.0 0.0 0.0 0.0 0.0 0.0 0.0 0.0 0.0 0.0 0.0 0.0 0.0 0.0 0.0 0.0 0.0 0.0 0.0 0.0 0.0 0.0 0.0 0.0 0.0 0.0 0.0 0.0 0.0 0.0 0.0 0.0 0.0 0.0 0.0 0.0 0.0 0.0 0.0 0.0 0.0 0.0 0.0 0.0 0.0 0.0 0.0 0.0 0.0 0.0
-0.026799 -0.103797 0.112651 -0.259641 -0.103915 0.088316 -0.053088 -0.022809 0.009437 -0.09753 0.060073 0.126938 -0.120166 -0.201027 -0.031192 0.114149 -0.054812 0.193163 0.102408 0.014485 -0.142804 0.004168 0.106051 0.11444 -0.218755 -0.190187 0.08501 -0.064668 -0.128386 0.029669 -0.065954 0.042625 -0.391147 -0.09788 -0.127327 0.028785 0.023364 -0.057131 -0.029977 -0.052351 -0.109947 0.189529 -0.137615 0.126845 -0.031891 -0.070696 -0.021912 0.047885 0.00687 0.096735 0.088226 -0.067865 -0.012925 0.020968 -0.00858 0.059358 0.11823 -0.176081 -0.213955 -0.175354 0.240854 -0.072666 0.023853 -0.029982 0.089821 0.130766 0.016941 0.178835 -0.00797 -0.080021 -0.044534 0.049337 -0.037857 -0.1511 0.060476 -0.006618 0.145705 0.04376 -0.128786 -0.038244 0.01883 -0.008851 0.060935 -0.194196 0.098924 0.049666 0.05715 0.08558 0.098442 0.050731 -0.160965 -0.078077 -0.002686 -0.001068 -0.122167 -0.028315 -0.037337 -0.071233 -0.050617 -0.095917
-2.648351 -0.794316 -2.108887 0.20446 0.883061 0.242784 1.848653 1.149137 -4.975573 0.237654 -1.499665 2.924494 0.344217 -1.640431 0.763777 0.138944 -3.029439 -2.813434 -0.761102 -1.057557 -1.373735 -0.870599 1.234095 0.127805 -1.372618 1.35802 -1.501738 0.80945 0.172993 -0.484995 1.783363 -0.047587 0.483285 -1.526831 2.103549 2.116639 4.583491 -4.022388 -0.843817 0.361243 -0.546655 -2.301259 -2.000973 2.64631 -1.604053 -1.914206 -1.581895 -0.464185 1.757769 1.056301 0.263866 -0.904419 -0.422466 0.007824 -1.651553 0.7499 1.638666 -0.336108 -3.288466 -2.953238 -1.135414 1.165223 -1.047256 -0.821696 -0.135806 0.434207 -2.389307 -3.56953 -0.656773 0.578325 3.337902 0.782195 -1.250815 2.925509 -1.981492 0.121786 0.836257 1.710923 -2.640405 -0.628995 0.247469 0.863847 1.749171 -0.214156 -0.274807 2.192709 -0.892334 -1.614644 -1.225919 -0.042182 2.51632 3.464583 -3.591523 -2.506587 0.990426 1.8843 -2.460629 0.953462 0.359605 2.267383
-0.090723 -0.112754 0.249416 0.047929 -0.103515 0.0383 -0.069991 -0.165593 -0.198743 0.036437 -0.02952 0.108179 0.030663 -0.036196 -0.009284 0.095745 -0.227007 0.0541 -0.14583 0.178233 -0.067464 0.13957 0.272708 0.07774 -0.036921 -0.092134 0.014162 0.096449 0.086922 -0.026154 -0.13121 0.017702 -0.054324 0.038414 -0.177743 -0.040408 0.049593 -0.063923 0.190298 0.03263 0.002892 -0.108558 -0.181115 -0.019146 -0.157046 -0.074574 -0.114949 -0.024965 -0.152465 0.04956 -0.032991 -0.182327 0.063758 0.11258 -0.041233 -0.076258 0.084009 0.046249 0.124546 -0.171117 -0.029574 -0.086171 -0.108637 -0.131776 -0.173457 0.032073 -0.0015 0.077842 0.044803 -0.035944 -0.073179 0.009431 0.014844 0.080814 -0.075665 0.084045 -0.01499 0.071982 -0.153239 -0.07804 0.070677 0.266252 0.112957 -0.168154 -0.087584 -0.085561 0.056894 0.060044 0.173481 0.223827 -0.050807 0.114576 -0.011236 0.068797 -0.036582 -0.161016 -0.078966 0.033858 0.111861 -0.048162
-0.04832 0.090324 -0.194188 0.317462 0.032722 -0.006961 -0.002056 -0.026079 -0.038491 0.117021 -0.0279 0.001159 0.026274 0.006893 0.063322 0.006811 -0.167466 0.077843 -0.218526 -0.049729 0.184506 0.017787 0.106408 -0.074128 0.153078 0.045399 -0.019661 0.199252 -0.079072 0.077981 -0.002528 -0.076294 0.070905 -0.1362 -0.021728 -0.123094 0.099832 0.034697 0.155263 -0.013553 -0.135902 -0.064673 0.116065 -0.048622 -0.210925 -0.049275 0.086711 -0.009717 -0.003816 0.178711 -0.092914 -0.170189 0.018779 -0.055215 -0.145297 0.041179 0.138721 0.057468 0.041091 0.005365 0.115135 0.01779 0.068525 -0.011633 0.018509 -0.020141 0.106587 -0.118159 0.028942 0.035181 0.182344 0.073337 -0.124911 0.011314 -0.125504 -0.007116 -0.052859 -0.040021 -0.036749 -0.080962 -0.086283 -0.12496 0.085925 0.157881 -0.009772 -0.164802 -0.028382 0.077599 0.001925 0.063885 0.121283 0.082976 0.018347 -0.246429 -0.184076 -0.19077 -0.045764 -0.016816 0.010814 0.053251
0.0 0.0 0.0 0.0 0.0 0.0 0.0 0.0 0.0 0.0 0.0 0.0 0.0 0.0 0.0 0.0 0.0 0.0 0.0 0.0 0.0 0.0 0.0 0.0 0.0 0.0 0.0 0.0 0.0 0.0 0.0 0.0 0.0 0.0 0.0 0.0 0.0 0.0 0.0 0.0 0.0 0.0 0.0 0.0 0.0 0.0 0.0 0.0 0.0 0.0 0.0 0.0 0.0 0.0 0.0 0.0 0.0 0.0 0.0 0.0 0.0 0.0 0.0 0.0 0.0 0.0 0.0 0.0 0.0 0.0 0.0 0.0 0.0 0.0 0.0 0.0 0.0 0.0 0.0 0.0 0.0 0.0 0.0 0.0 0.0 0.0 0.0 0.0 0.0 0.0 0.0 0.0 0.0 0.0 0.0 0.0 0.0 0.0 0.0 0.0
-0.100849 -0.016453 0.049995 0.162944 0.001124 0.057505 -0.195884 0.025755 -0.056397 0.062552 0.081413 0.125462 0.032626 0.06516 0.022725 0.159816 -0.052567 0.315304 9.85E-4 0.01329 -0.018907 0.259067 0.050372 0.062627 -0.072986 -0.068385 0.068163 -0.047605 0.064788 -0.044384 -0.130026 -0.086809 -0.060938 0.043947 -0.112219 -0.0337 -0.086406 0.049255 -0.047958 0.054431 -0.024304 0.162761 0.04169 -0.057239 -0.047869 0.021585 0.052344 0.06856 -0.153899 -0.01731 0.041284 -0.0243 -0.073735 0.091538 -0.021581 -0.052585 0.018226 0.141436 0.141696 -0.201847 0.078802 0.061513 0.004161 0.004622 -0.060339 -0.005294 0.19046 0.102333 0.111773 -0.156875 0.054254 -0.04096 0.038149 -0.032939 0.0362 -0.042487 -0.123188 -0.024192 -0.016101 0.047235 0.009322 0.139141 0.039705 -0.08334 0.037415 0.068968 0.130308 0.134757 0.136822 0.010876 -0.160311 0.011497 -0.064813 0.085302 0.116935 -0.124539 0.044026 -0.001616 -0.034196 -0.027625
-0.02784 -0.161859 0.148886 0.045438 -0.040741 0.064964 -0.190473 -0.034938 -0.067765 0.002186 0.13248 0.120759 -0.025409 -0.065797 0.114554 0.129809 -0.056353 0.186222 0.007834 -0.002137 -0.066222 0.137257 0.19185 0.103141 -0.203818 -0.070129 -0.057867 -0.058307 0.167757 -0.1197 -0.018693 0.02783 -0.099185 0.04301 -0.029974 -0.0559 0.002014 -0.046601 0.031646 0.060962 -0.052587 0.092872 -0.02869 0.042162 0.05207 -0.085013 0.048271 0.047907 -0.193887 0.120314 0.118569 -0.135997 -0.025947 0.003674 0.0574 -0.041459 -0.031429 0.003787 0.027627 -0.00474 0.078734 -0.132432 -0.009163 -0.138215 -0.055818 0.047443 0.079096 0.060117 0.084667 -0.16522 -0.060473 -0.057718 -0.085962 -0.037766 0.112201 -0.107637 -0.104852 -0.015299 -0.009738 -0.067997 -0.052731 0.092623 0.076794 -0.178586 0.059373 0.011217 0.097629 0.039939 0.20787 0.017819 -0.149767 -0.024158 -0.008694 0.124659 -0.089486 -0.10564 0.089223 0.052515 0.020471 -0.062738
-0.027751 -0.236417 0.035329 -0.015178 0.085594 0.115009 -0.256773 -0.207905 -0.036317 0.205622 0.307445 0.068497 0.1779 0.00518 0.225303 0.282446 -0.094408 0.034572 0.063258 0.03769 -0.133753 0.069426 0.338632 0.045353 -0.072922 -0.216289 0.042021 -0.220968 -0.025668 0.009022 0.093263 -0.104672 0.082561 0.155492 -0.03495 -0.085293 -0.0462 -0.07143 0.077188 0.062255 0.005506 0.084593 0.044633 0.016101 -0.060731 -0.014676 0.10661 -0.033706 -0.199983 0.299911 0.054336 -0.057527 -0.116818 0.097577 0.186033 -0.054987 0.077285 0.071407 0.200615 -0.057269 -0.008148 0.063125 -0.017685 -0.160977 -0.085853 -0.129897 0.239829 -0.137082 0.035124 -0.04857 0.042273 -0.219691 0.086647 -0.076075 0.260529 0.02115 -0.013517 0.124725 -0.046989 0.020679 0.013599 0.084107 0.021875 -0.22103 -0.140909 0.028579 -0.132448 -0.260188 -0.107119 0.099412 -0.217944 0.142839 -0.171686 -0.089725 -0.078693 -0.113678 0.308513 -0.040371 -0.024131 -0.151473
-2.195193 -0.094825 0.292716 0.770128 2.000801 0.100594 -1.328 0.285062 4.804995 -1.044796 2.189227 -0.761843 0.766219 -0.243941 1.495061 1.720337 -2.140069 -0.505637 -0.06892 -0.473796 0.260613 -0.915329 2.213128 3.036728 -1.402226 -0.749642 -0.502236 -0.50332 1.005856 0.873081 1.34375 1.52775 2.622689 -1.148333 1.710159 -1.668403 -0.420619 -2.800238 -0.937494 -1.573381 -0.095067 -0.446079 -2.128515 1.043087 -0.271811 -1.728006 -0.449363 -0.909156 -1.175844 -0.355815 -0.133632 -0.836171 -2.062466 0.492519 -4.013694 -0.289375 -1.968244 1.834129 -0.066553 0.561601 0.252782 2.389732 -2.280576 3.831331 0.789313 -0.019578 0.359579 -0.505944 0.3968 0.009429 1.213266 -2.822911 -1.555093 -0.539305 -0.63543 -0.151177 -0.686004 -2.01232 1.527295 2.335788 -1.428401 0.42237 0.974941 1.051498 1.739578 0.132302 2.610207 -0.308523 -1.774214 -1.210504 2.489682 -2.09699 0.688971 1.40836 -1.099055 -0.912123 -0.948662 0.325755 -1.456573 -0.19554
0.590945 -1.134566 -2.184291 1.12988 0.680354 1.626245 1.676936 1.290201 3.901153 2.564905 2.756099 4.665114 0.32598 1.262055 2.20996 1.310358 -0.737971 0.33072 3.659648 0.427459 0.385349 -0.853165 0.817889 3.26424 2.140033 -2.88386 -0.100194 0.330746 -0.228356 -0.115436 -0.448831 -1.03697 -1.241651 3.271651 -2.185756 -4.227549 0.60136 -0.940346 -1.17442 -1.016704 -0.287635 -0.747034 2.036727 4.441978 -2.298194 1.98456 -2.529683 1.650314 0.775022 -2.733619 -0.933727 -1.033777 -0.921107 -1.920153 -2.41768 -1.18211 -1.937502 0.281768 0.117911 0.900482 0.119005 -1.31679 2.871313 -1.144919 1.954114 1.487352 0.72777 -3.166495 -0.128236 3.246982 4.832345 1.03059 1.089121 0.713389 -0.279444 -3.046273 -0.125367 -2.202638 -0.402435 3.194218 -0.756168 0.664093 2.254247 -1.348039 0.233979 1.362092 -0.357729 0.835631 0.664286 -3.2255 -0.806024 -2.924025 -0.288953 -1.648325 -0.670183 4.73337 -1.04946 2.478221 3.245136 -0.476841
-0.22701 0.052794 -0.049094 -0.100956 -0.087237 -0.108622 -0.046403 -0.036275 0.028314 -0.010509 -0.07832 0.192564 0.022631 -0.09379 0.074758 -0.088567 0.110186 -0.011238 0.077292 0.035873 -0.020994 0.130175 0.060912 0.100887 -0.146281 -0.1227 -0.019332 -0.041002 0.135267 0.045466 0.108178 -0.025696 -0.114512 0.214167 -0.038711 0.041975 0.072827 0.098444 -0.088327 -0.040278 -0.171349 -0.119897 0.00442 0.013414 -0.01959 -0.10672 -0.057026 0.048908 -0.012891 0.144495 0.243595 -0.114393 -0.051797 0.15122 -0.145932 0.109748 -0.166632 0.056746 -0.158771 -0.170845 0.006823 -0.036102 0.014446 -0.16918 0.027379 0.060646 -0.158883 -3.86E-4 0.028898 0.097649 -0.153498 0.103157 -0.120842 -0.021142 0.042742 0.021109 -0.020493 -0.026865 -0.18461 -0.19104 0.092098 0.063315 0.052039 -0.125082 -0.067828 0.098203 0.188699 0.092817 0.326644 -0.048436 -0.171726 -0.123179 -0.113169 0.11824 -0.022031 -0.187829 0.138555 0.023091 0.134684 0.11254
-0.05572 -0.160224 0.015735 -0.034712 0.026728 -0.023695 -0.05374 -2.57E-4 -0.119223 -0.007304 0.104736 0.077317 0.047162 0.067053 0.030429 0.100817 -0.08065 0.076385 0.181313 -0.16173 -0.06827 0.063933 0.184166 0.029667 0.013949 -0.115187 -0.023363 -0.092933 -0.005826 -0.053878 -0.023877 -0.136262 -0.026905 0.231455 -0.142782 -0.150746 0.081838 0.050529 0.073482 -0.01206 0.046976 0.033475 0.071463 -0.098092 -0.072925 -0.031056 0.093045 0.023187 -0.21939 0.02372 0.172648 0.081744 0.014243 0.248287 0.056996 -0.09571 0.085151 0.040698 0.134527 -0.031895 -0.076755 -0.066277 0.064966 0.016605 -0.107005 0.09128 0.100944 -0.151197 0.215593 -9.43E-4 0.010235 -0.031924 0.125414 -0.163043 0.106311 -0.159185 -0.008791 -0.045487 -0.096933 -0.034516 -0.028164 0.065175 0.094349 -0.177216 -0.043069 0.122258 0.010438 0.094403 0.07986 -0.011607 0.009308 -0.106419 0.097053 -0.120293 -0.130436 -0.093771 0.055713 -0.019788 -0.132051 0.037926
-0.067935 -0.051604 0.169497 0.069911 0.002771 0.024395 -0.165393 0.001525 -0.015943 0.056186 0.193742 0.13084 0.046294 0.150411 0.083977 0.093873 0.065303 0.193362 0.026806 0.016113 -0.013651 0.072494 0.101997 0.101245 -0.053162 -0.049122 -0.068687 -0.071321 0.084494 -0.093497 -0.085589 -0.045736 0.047039 0.150544 -0.095737 0.017532 0.022946 -0.057591 -2.7E-4 0.14099 -0.001092 0.137163 -0.075197 -0.0713 0.089549 7.25E-4 0.080986 0.001936 -0.059281 -0.144257 0.044117 -0.097451 0.084186 0.044383 0.100487 0.070878 0.017503 -0.086632 0.160314 -0.090568 0.104172 -0.089883 -0.031449 -0.011862 -0.097046 0.029356 0.130416 0.092513 0.059126 -0.052065 -0.027014 -0.067074 -0.036482 -0.100869 -0.012769 -0.02695 -0.098467 -0.089505 0.022276 0.084725 -0.055321 0.102413 0.041645 -0.193145 0.046459 0.067221 0.096221 -0.012148 0.214381 -0.023733 -0.038384 0.045905 0.029497 0.101358 -0.013367 0.015337 0.036496 0.084052 -0.024359 -0.10569
0.124035 -0.055808 0.142484 0.046232 0.084769 -0.027982 -0.197599 8.83E-4 -0.050998 0.017258 0.164288 0.199012 -0.178208 0.014104 0.111644 0.227471 0.005768 0.17139 -0.024628 -0.097089 -0.160436 0.083934 0.134898 0.17142 -0.081544 -0.056744 -0.008544 0.0056 0.241466 -0.190782 0.150614 0.192098 -0.195297 0.173362 -0.077765 -0.068121 -0.077385 0.021615 -0.004115 0.061961 -0.150298 -0.109717 -0.066706 0.102499 0.181113 -0.066774 -0.023949 0.049315 0.033135 0.01397 0.137111 -0.148875 -0.063094 0.109678 0.02165 0.00444 -0.090208 0.011706 -0.089668 -0.16345 0.120694 -0.092523 -0.013093 -0.226655 0.002878 -0.004655 -0.066466 -0.020179 -0.059715 0.100948 -0.048368 -0.011413 -0.019985 0.013873 0.028499 -0.028085 -0.082712 -0.103876 -0.053082 -0.038244 0.042822 0.004382 0.104363 -0.189077 -0.050108 0.155965 0.276184 0.050795 0.066489 0.19797 -0.145629 -0.139289 -0.150669 -0.008409 -0.140283 -0.038483 0.048807 -0.100789 0.073433 0.070643
-0.341617 1.271173 -0.130955 0.795787 -2.761413 -0.037935 -2.08451 -0.749854 0.456374 0.189509 -1.784466 1.321352 -0.024572 0.775721 0.351052 -0.494201 0.597239 -2.035014 -1.822623 -1.26338 -1.852038 -3.261221 1.17085 -0.884857 0.341201 1.056519 -0.475283 -0.906839 -0.359697 -0.03678 0.485601 -0.573014 1.410657 0.602444 -0.65226 0.019708 2.334166 -4.120307 2.452699 0.37493 -0.43807 -0.885798 -0.909782 -0.866844 0.863746 -0.109914 -1.745782 -0.759427 1.102647 -0.229513 0.72866 5.020656 0.453599 0.948257 -0.341321 1.003234 1.507241 0.335139 -0.119095 -0.324834 2.432309 -1.518503 1.178541 1.207634 -1.537357 0.986701 1.190043 1.531747 -0.881239 0.152745 2.223002 -0.773424 1.003136 -1.671927 1.512302 -1.435468 2.471683 -0.288325 -0.945258 1.550236 1.231926 -1.03075 -3.561653 2.778667 1.207369 -1.904946 0.700824 -0.061776 -1.652007 -1.511937 -0.523117 -3.702699 1.471395 1.453605 -0.015539 0.288359 -0.016453 0.953476 -0.698522 -1.664865
-0.348959 1.270135 1.114397 1.376231 0.604992 0.518356 0.130098 0.624597 1.121526 -0.853428 -0.017666 -1.322106 0.500845 0.567277 0.323296 -0.247048 1.139419 0.751965 0.739297 0.995683 -1.10552 1.262999 0.679045 0.144803 -0.556996 2.95417 0.021755 -0.823479 0.980127 -2.264043 3.330546 -0.422945 0.168626 -0.561873 0.414839 -0.893108 0.271783 -0.377922 -0.503426 -1.106874 -0.721036 -1.294157 -1.588537 -1.83521 0.031244 1.33893 -1.551228 -1.337867 1.03301 -0.472733 -0.50123 1.640618 -0.77219 -1.404956 -0.056809 -0.943154 -1.021702 0.581434 0.35145 0.026411 0.250853 -0.10038 -0.550379 -1.992962 0.510269 -3.236625 -0.933876 -1.590048 4.61661 -0.647015 -1.08289 0.844273 -0.272456 -1.188377 0.033539 0.656915 0.009065 -0.376196 -0.346328 -0.324152 -1.083155 1.042709 0.553606 -0.720653 -1.334727 -0.277071 -1.253053 -1.848268 -1.554041 -0.936025 -0.957321 -1.165522 -0.468917 1.014426 0.334881 -2.28632 0.204751 -1.1954 1.929857 -1.303063
0.092021 0.022898 0.080178 0.100247 -0.020306 -0.144148 -0.174425 -0.07162 -0.181535 0.094194 0.085043 0.111849 0.192981 -0.139394 0.085676 0.16949 0.100008 0.082307 -0.030609 0.01573 -0.115622 0.070086 0.037191 0.161827 -0.148617 -0.028949 -0.189993 -0.054307 0.177889 -0.043568 -0.145472 0.202189 -0.023918 0.01638 0.030545 -0.178358 0.037762 0.070135 0.073459 0.324025 0.036015 -0.125126 -0.075413 -0.074415 0.121619 -0.253672 -0.172183 0.044948 -0.244306 0.092127 0.026639 -0.162097 -0.116903 0.064643 -0.092524 -0.099682 0.079807 -0.038732 0.103465 0.011288 -0.007911 0.021001 0.147171 -0.067382 0.054022 -0.175457 -0.068372 0.078282 0.060053 -0.131352 -0.239398 0.035837 0.065677 -0.001407 -0.02143 -0.060182 0.025294 0.092369 -0.020789 0.110383 0.084929 0.097218 0.22024 -0.059992 -0.015059 0.054243 -0.060302 -0.072828 -0.04358 -0.029218 -0.199729 -0.028162 0.066626 -0.008205 -0.101491 -0.057283 0.128781 -0.050444 -0.069978 -0.232747
-0.213864 -0.011848 0.104428 -0.041561 -0.198534 0.161658 -0.151932 0.351901 -0.021277 -0.01624 -0.049117 0.112886 -0.117493 0.062833 0.123732 -0.035988 0.233806 -0.092762 0.096909 0.002826 0.03438 0.254041 0.179436 0.148179 0.139493 -0.112484 0.205471 0.07495 -0.071702 -0.12887 0.0695 -0.212408 0.099796 0.15842 0.017 0.049787 -0.02829 -0.138779 0.062405 -0.083438 0.093292 0.074281 -0.272628 -0.149366 0.016549 -0.089268 -0.099718 0.017047 0.022367 -0.022819 -0.062266 -0.021546 0.007807 -0.184098 0.099039 0.089861 -0.005332 0.003895 -0.21708 -0.00559 0.228708 -0.221101 0.011888 -0.055286 0.01334 -0.046375 0.173919 -0.071052 -0.128694 0.069947 0.138063 0.145431 0.165337 0.129249 -0.045473 -0.114023 -0.052996 0.083991 0.066683 0.163529 -0.078735 0.018613 -0.028633 -0.163999 -0.144341 -0.062786 -0.055682 -0.08751 0.005442 0.153518 0.059112 0.022176 0.012287 -0.006694 -0.025873 -0.007158 0.172529 0.106754 -0.029932 0.200723
-1.427727 -0.105428 -0.734109 0.166241 -1.175792 1.461554 -0.521243 1.663124 0.985205 -0.420728 -0.79505 0.373319 -0.267617 1.580376 0.540378 -0.764478 0.845391 1.270143 0.142162 0.531514 0.989437 0.678557 2.190089 0.990437 -0.496978 -0.422774 1.098912 0.329184 0.372988 -0.658687 1.655743 1.141747 1.021544 -0.341943 -0.495095 1.144387 -0.353204 0.388663 -0.5729 -1.85958 0.156186 0.258561 -0.956854 -2.185401 -0.221666 -0.992099 -0.196386 -0.765646 -0.66958 0.600065 -0.758116 0.093872 0.488034 1.008524 0.03248 0.231979 -1.67243 0.076951 0.174433 0.786475 0.681189 -1.596356 -0.449787 0.025948 -0.631192 -2.307372 -0.485862 0.45805 0.879889 -1.340433 -0.849127 0.655317 0.946168 -0.412769 0.001308 1.442551 -1.192433 -0.193538 2.427469 0.724659 0.064148 0.097076 1.061043 0.530926 -1.585271 -1.281061 0.259597 0.065254 -0.898593 0.494185 -0.050815 -2.324333 -0.174208 0.674103 0.058265 -0.844918 0.129162 1.167219 -0.354044 0.956579
0.352905 0.550922 -1.128945 -0.511125 0.774489 1.405335 -0.371647 0.106012 -0.779785 -0.640302 -0.68578 1.570717 -0.712288 -0.706705 -0.789609 -0.045278 -1.599722 -2.840112 -0.089543 -1.158838 -1.862605 -0.62748 -0.063542 -0.468696 0.750564 0.033551 -0.772222 -0.188991 -0.163115 0.455978 0.038455 -0.779588 0.172303 -1.114448 -0.548246 -0.008155 1.66721 -0.744821 -0.15746 -2.668482 -0.304702 -0.905716 0.479063 0.151803 -0.94063 -0.044338 -0.906122 -0.456182 0.281891 0.268287 0.47007 0.628019 0.328428 1.471286 -2.345457 0.072073 -0.345477 -0.998199 -1.496897 -0.053061 0.351206 -0.934426 0.295591 0.07336 0.24092 0.486976 0.390085 -0.621556 0.375246 -0.02625 1.957847 1.014101 0.004675 0.08874 -0.900479 -0.462149 0.922254 1.355385 -1.048724 0.105897 1.254466 0.410718 0.321258 1.066395 -0.171761 -0.128774 0.315556 0.697301 -0.180925 0.555334 1.005586 -0.891677 -1.232923 -1.994189 -0.567812 0.204184 -0.947385 -0.051526 -0.987029 0.725141
-0.03465 0.057645 -0.014494 0.047907 -0.056534 0.020841 -0.088075 -0.075684 0.11978 0.162074 0.048734 0.050684 0.121228 0.059882 0.005145 -0.033401 0.136772 0.192176 0.101531 0.100533 -0.022028 -0.044585 -0.030063 0.071547 0.090323 0.116802 0.056497 -0.036478 0.080892 -0.045804 0.074654 -0.089752 0.001933 0.047382 -0.045524 -0.012518 -0.076183 0.070093 -0.035094 0.287442 0.001229 0.313728 -0.042271 0.08963 0.053511 -0.014413 0.115778 -0.077324 0.094934 -0.136918 0.05552 -0.06543 -0.029358 -0.044215 -0.001041 -0.025251 0.02801 0.013687 -0.154969 -0.08779 -0.107689 0.05513 -0.024721 0.139219 0.066781 -0.04134 0.107118 0.077285 0.009856 0.101353 -0.123748 -0.16232 -0.017751 -0.038294 0.046339 0.004852 0.003389 -0.163816 -0.069648 -0.021435 0.086789 0.076375 0.081804 0.036839 0.145777 -0.022423 -0.013371 -0.004977 -0.020763 0.009155 -0.135038 -0.156216 0.027726 -0.0513 -0.19831 -0.026902 0.148375 -0.086923 -0.031353 -0.114069
-0.04875 0.01456 -0.03318 0.061352 0.094349 4.99E-4 -0.185183 0.081819 -0.140686 0.077163 0.137673 0.1179 -0.128411 -0.16827 -0.070469 0.017254 -0.009051 -0.081693 0.116453 -0.047721 -0.1798 -0.103973 0.097955 0.059718 -0.183721 -0.211477 0.080213 -0.146314 0.018297 0.033219 0.120447 -0.015026 -0.042611 0.082081 -0.184879 -0.012733 0.085219 -0.075562 0.280873 0.038293 -0.111887 0.030107 -0.040261 0.044958 -0.175723 -0.029235 -0.123646 0.11486 -3.82E-4 0.118955 0.11644 -0.121599 -0.099969 -3.83E-4 0.097317 -0.047732 0.004055 0.070458 0.01681 0.001192 -0.027221 0.012219 0.04899 -0.182689 -0.076434 0.109355 -0.053165 0.07228 0.078449 0.014795 -0.036291 -0.057137 0.022906 -0.068367 0.046873 -0.150405 -0.118386 0.088636 -0.098456 0.03116 0.098544 -0.015925 -0.002078 -0.103001 -0.018546 0.138504 0.128345 0.08873 0.025383 -0.02363 -0.082508 -0.032168 0.143624 -0.019387 -0.08384 -0.014433 -0.044741 0.003023 0.105334 -0.07093
-0.08043 -0.015322 -0.018976 0.22179 -0.043689 -0.086127 0.083539 0.043583 -0.320908 0.121416 -0.003776 0.096977 0.143771 -0.069259 -0.042655 0.156958 0.02391 0.014113 0.1451 -0.193829 -0.015926 -0.11603 0.112773 -0.144785 0.099805 0.118532 0.172704 0.057686 0.257612 0.202029 0.007229 0.023657 -0.001957 0.057192 -0.008382 -0.045905 0.156478 0.043954 -0.024995 0.108495 -0.125492 -0.026991 -0.115563 -0.008665 -0.250832 -0.067751 -0.082224 -0.055462 -0.058937 -0.075129 0.251186 0.03682 -0.158694 0.140472 -0.21978 -0.160891 -0.103009 0.091316 0.024333 0.008921 -0.063902 -0.060804 0.110648 -0.08173 0.116973 -0.034481 0.155866 -0.125692 -0.138814 0.217577 0.240577 -0.026703 0.047662 0.13016 0.038887 0.054918 -0.04752 -0.080314 -0.105841 -0.094129 0.038867 -0.045983 -0.049215 0.039898 0.114855 0.038162 0.13748 -0.003137 0.071698 0.006499 -0.01619 0.049056 -0.15392 -0.012557 -0.046476 -0.123184 -0.047376 0.015398 -0.029406 -0.010389
0.0 0.0 0.0 0.0 0.0 0.0 0.0 0.0 0.0 0.0 0.0 0.0 0.0 0.0 0.0 0.0 0.0 0.0 0.0 0.0 0.0 0.0 0.0 0.0 0.0 0.0 0.0 0.0 0.0 0.0 0.0 0.0 0.0 0.0 0.0 0.0 0.0 0.0 0.0 0.0 0.0 0.0 0.0 0.0 0.0 0.0 0.0 0.0 0.0 0.0 0.0 0.0 0.0 0.0 0.0 0.0 0.0 0.0 0.0 0.0 0.0 0.0 0.0 0.0 0.0 0.0 0.0 0.0 0.0 0.0 0.0 0.0 0.0 0.0 0.0 0.0 0.0 0.0 0.0 0.0 0.0 0.0 0.0 0.0 0.0 0.0 0.0 0.0 0.0 0.0 0.0 0.0 0.0 0.0 0.0 0.0 0.0 0.0 0.0 0.0
-0.024986 -0.141159 0.159505 0.046072 -0.007338 0.072356 -0.251857 -0.02796 -0.251802 -0.14506 0.087114 0.080155 0.042083 0.180987 0.175728 0.136085 -0.071747 0.175649 -0.131933 0.23202 0.067996 0.260331 0.1311 0.153481 -0.231737 -0.069492 -0.035433 -0.111209 -0.229433 -0.053649 0.062898 -0.126743 -0.013509 -0.279371 -0.079672 -0.087776 0.015076 0.124559 -0.054651 0.023772 -0.146816 0.092184 -0.088259 -0.066547 -0.067384 -0.037226 -0.048264 -0.016837 -0.153814 0.128426 0.126429 -0.018676 -0.160735 -0.177935 0.067631 -0.197468 -0.053634 -0.203613 -0.017222 0.057609 0.024353 -0.073895 0.080537 0.18185 -0.081149 -0.004867 0.054813 -0.086306 -0.025652 0.079828 -0.013368 -0.109907 0.024734 -0.004135 -0.013162 -0.049865 -0.081311 0.228556 0.043246 0.029136 0.026836 0.127169 0.008806 -0.104319 0.036013 -0.282559 0.188552 0.142564 0.115063 0.107532 -0.114142 -0.008725 -0.029018 0.196873 0.168528 -0.182207 0.009642 0.012235 -0.025104 -0.018263
1.035361 1.319725 0.388011 1.220811 -0.236045 1.447081 -1.78193 3.520004 0.063077 -1.681862 0.545208 0.767849 -1.479444 -1.152839 0.669301 0.685509 -2.946755 -2.239533 -1.187422 -1.793336 0.607402 0.130687 0.296681 -1.569517 1.825066 1.715849 -1.639836 0.849724 -1.742086 0.427502 3.84844 -1.377145 0.671096 -1.312902 -1.152387 0.705431 2.180344 2.97496 1.402098 -0.909545 -1.649212 -0.253421 1.186817 1.193823 3.167747 -0.387379 -0.12198 0.872223 0.13285 0.490844 0.029473 1.345032 0.297008 2.724698 -1.656047 -0.109585 1.500583 -1.148555 -3.658389 1.022988 -1.211381 0.342059 -0.023586 1.22536 -1.874871 -1.957746 -0.188066 -0.235303 -0.067175 1.107354 1.448404 0.838301 1.67396 -0.238039 -0.504146 -1.334739 0.688005 0.37731 -2.953094 0.650433 0.307563 -0.457962 -1.694326 2.40152 -0.816994 0.208705 1.853393 0.15935 -0.989952 1.089235 1.087388 -2.786835 -2.248864 -0.788939 0.405791 0.907533 -1.516669 1.970717 -0.345554 -0.134731
0.003772 0.059917 -0.005339 -0.122639 -0.064394 0.020403 0.082146 0.085133 0.194471 -0.067586 0.075385 -0.009933 0.041241 0.042617 0.154404 0.00977 -0.044104 -0.112267 0.029421 0.049845 0.02723 0.017649 0.082491 0.160788 -0.001029 -0.011256 -0.121976 -0.108063 0.049015 0.006047 0.109804 0.116279 -0.045357 0.107098 0.167844 0.01025 0.157226 0.166732 -0.189593 0.064612 -0.074583 -0.117035 -0.06943 -0.032357 -0.053915 4.77E-4 -0.127866 -0.034624 0.020842 -0.081807 -0.024191 0.079707 -0.070059 0.046102 -0.137059 0.082153 -0.081451 -0.008189 0.038967 -0.089436 0.034118 0.037167 -0.059729 0.050838 -0.045312 0.14582 0.0542 0.070652 0.075883 0.071451 0.024234 -0.064983 -0.135816 -0.004871 0.097168 9.6E-5 0.023537 0.049276 -0.096959 -0.113435 0.199257 0.128414 0.086377 -0.151764 -0.119737 -0.189061 0.099777 -0.046698 0.025487 -0.110833 -0.060514 0.093381 -0.107849 0.121369 -0.006654 -0.097659 0.06927 -0.016069 0.131439 0.051263
0.0 0.0 0.0 0.0 0.0 0.0 0.0 0.0 0.0 0.0 0.0 0.0 0.0 0.0 0.0 0.0 0.0 0.0 0.0 0.0 0.0 0.0 0.0 0.0 0.0 0.0 0.0 0.0 0.0 0.0 0.0 0.0 0.0 0.0 0.0 0.0 0.0 0.0 0.0 0.0 0.0 0.0 0.0 0.0 0.0 0.0 0.0 0.0 0.0 0.0 0.0 0.0 0.0 0.0 0.0 0.0 0.0 0.0 0.0 0.0 0.0 0.0 0.0 0.0 0.0 0.0 0.0 0.0 0.0 0.0 0.0 0.0 0.0 0.0 0.0 0.0 0.0 0.0 0.0 0.0 0.0 0.0 0.0 0.0 0.0 0.0 0.0 0.0 0.0 0.0 0.0 0.0 0.0 0.0 0.0 0.0 0.0 0.0 0.0 0.0
-0.024986 -0.141159 0.159505 0.046072 -0.007338 0.072356 -0.251857 -0.02796 -0.251802 -0.14506 0.087114 0.080155 0.042083 0.180987 0.175728 0.136085 -0.071747 0.175649 -0.131933 0.23202 0.067996 0.260331 0.1311 0.153481 -0.231737 -0.069492 -0.035433 -0.111209 -0.229433 -0.053649 0.062898 -0.126743 -0.013509 -0.279371 -0.079672 -0.087776 0.015076 0.124559 -0.054651 0.023772 -0.146816 0.092184 -0.088259 -0.066547 -0.067384 -0.037226 -0.048264 -0.016837 -0.153814 0.128426 0.126429 -0.018676 -0.160735 -0.177935 0.067631 -0.197468 -0.053634 -0.203613 -0.017222 0.057609 0.024353 -0.073895 0.080537 0.18185 -0.081149 -0.004867 0.054813 -0.086306 -0.025652 0.079828 -0.013368 -0.109907 0.024734 -0.004135 -0.013162 -0.049865 -0.081311 0.228556 0.043246 0.029136 0.026836 0.127169 0.008806 -0.104319 0.036013 -0.282559 0.188552 0.142564 0.115063 0.107532 -0.114142 -0.008725 -0.029018 0.196873 0.168528 -0.182207 0.009642 0.012235 -0.025104 -0.018263
3.229447 1.832686 -0.196265 -0.303454 -0.824437 2.082854 1.150219 -0.493805 -3.50143 -0.594107 2.103319 2.396154 1.056781 -0.578498 -1.172209 3.210305 -0.978008 -1.908997 -0.472705 -1.788789 -2.346806 -2.098664 -0.288581 -2.078696 0.41261 0.520842 -1.276654 0.578767 1.70845 -0.136278 -1.41294 0.371846 1.173228 1.232021 0.598135 -3.597398 4.723318 -0.907374 3.160397 -2.027976 1.188048 -5.433854 0.01906 -0.240727 2.932695 1.836205 0.69537 0.647449 5.328198 0.625981 0.041762 2.070653 0.300511 1.656161 -2.571092 0.908767 3.294905 2.941907 -1.065341 -2.086696 -0.817265 -1.894089 0.299235 -1.879644 0.485823 1.848637 -0.344618 -2.532108 2.074767 0.482597 3.034693 1.42216 0.457834 2.431775 -0.318071 1.666885 -1.364005 1.576786 -1.71492 -0.790398 2.548478 -2.38312 -0.502643 1.256626 0.730181 1.714355 1.091085 4.672542 0.202716 -0.959086 0.774024 -2.161259 -1.810393 -2.763748 0.167227 4.207294 2.675714 0.636561 -0.117425 -0.284099
0.228442 0.379597 -0.163618 -0.039631 -0.027584 0.119304 -0.014262 0.156617 -0.388417 0.187467 0.416547 0.105962 -0.001197 -0.083377 0.039166 0.501542 -0.329948 0.077594 -0.279406 -0.217797 0.461769 0.0502 0.071367 -0.098372 0.171097 0.002158 -0.425299 -0.068133 0.141515 -0.168545 0.281565 -0.116074 -0.071806 -0.100762 0.023187 -0.138644 0.42881 0.111261 -0.084618 -0.009969 -0.219211 0.325442 -0.15081 -0.361639 0.103679 0.352804 0.001463 -0.134091 -0.038881 -0.03418 0.05973 -0.126034 -0.148206 -0.001304 0.435541 -0.081939 0.132729 0.040921 0.015855 -0.295627 -0.139045 -0.1785 0.027525 0.109717 -0.0755 -0.273045 -0.221275 -0.148263 0.361234 0.087073 0.13923 0.3424 0.254115 0.022797 -0.129107 -0.089538 0.059428 -0.167667 -0.112407 -0.044352 -0.096091 0.027453 0.044942 0.291444 -0.095284 -0.14392 -0.043179 -0.147271 0.027978 0.287084 -0.055753 -0.216916 0.121797 -0.160947 -0.186431 0.346095 0.304846 -0.183865 -0.165001 -0.304305
-0.026799 -0.103797 0.112651 -0.259641 -0.103915 0.088316 -0.053088 -0.022809 0.009437 -0.09753 0.060073 0.126938 -0.120166 -0.201027 -0.031192 0.114149 -0.054812 0.193163 0.102408 0.014485 -0.142804 0.004168 0.106051 0.11444 -0.218755 -0.190187 0.08501 -0.064668 -0.128386 0.029669 -0.065954 0.042625 -0.391147 -0.09788 -0.127327 0.028785 0.023364 -0.057131 -0.029977 -0.052351 -0.109947 0.189529 -0.137615 0.126845 -0.031891 -0.070696 -0.021912 0.047885 0.00687 0.096735 0.088226 -0.067865 -0.012925 0.020968 -0.00858 0.059358 0.11823 -0.176081 -0.213955 -0.175354 0.240854 -0.072666 0.023853 -0.029982 0.089821 0.130766 0.016941 0.178835 -0.00797 -0.080021 -0.044534 0.049337 -0.037857 -0.1511 0.060476 -0.006618 0.145705 0.04376 -0.128786 -0.038244 0.01883 -0.008851 0.060935 -0.194196 0.098924 0.049666 0.05715 0.08558 0.098442 0.050731 -0.160965 -0.078077 -0.002686 -0.001068 -0.122167 -0.028315 -0.037337 -0.071233 -0.050617 -0.095917
-0.037756 0.044522 0.051524 -0.053604 -0.011525 0.041608 -0.033132 -0.025906 -0.16588 -0.101063 0.072509 0.111644 -0.001866 0.028113 0.015169 0.115233 -0.129381 0.141164 0.05767 -0.019913 -0.072749 -0.042283 0.051049 0.056205 -0.036638 -0.179747 0.078377 0.174683 0.077272 -0.076874 0.064946 -0.211523 0.093061 0.006073 -0.020378 -0.195713 0.178234 -0.133048 -0.094143 -0.06335 0.077193 -0.006211 -0.099765 0.081167 -0.062674 0.046507 -0.002293 0.086046 -0.067672 0.073049 0.083531 -0.024583 -0.067181 0.014366 -0.042162 0.020238 -0.063457 -0.03702 0.13214 0.037184 -0.036325 -0.026391 -0.135455 -0.044023 0.062584 0.079888 -0.049714 0.09132 -0.037162 -0.111298 -0.014777 0.061428 0.167023 0.155072 0.154874 0.065796 0.065066 -0.142441 -0.178033 -0.102858 0.137175 0.141271 0.044021 -0.053674 0.058426 -0.015122 0.053946 0.138671 0.124959 0.21487 -0.043134 -0.014965 -0.108211 0.117436 -0.030171 0.081491 -0.030185 0.002193 -0.035822 -0.037207
0.065707 -0.236737 0.049548 0.005064 0.085549 -0.015608 -0.09327 0.083561 -0.33115 -0.071492 -0.029597 -0.125936 0.001953 -0.115921 0.13062 0.17542 -0.200711 0.301285 -0.058926 0.153035 -0.003414 -0.056017 0.153323 0.156922 -0.045423 -0.087861 0.046948 -0.059112 -0.136384 -0.038079 0.063692 -0.135378 0.061464 -0.155648 -0.037754 -0.160903 -0.177813 -0.196602 0.071096 0.073159 -0.026922 0.115867 0.026656 0.152844 -0.119419 0.030686 -0.145535 -0.155229 -0.170159 -0.010994 -0.093433 -0.199446 0.082883 0.083101 -0.002141 0.149423 -0.176257 -0.065511 0.042661 0.023788 0.025263 -0.067887 -0.017177 -0.34871 0.178008 -0.150728 0.332548 -0.00373 0.132738 -0.007362 0.189082 0.087182 -0.211625 -0.02619 -0.052819 0.0665 -0.071426 0.074644 0.096138 -0.162914 0.268603 0.129575 0.002134 0.082223 -0.006574 0.184328 0.067383 -0.021471 0.080434 0.181266 0.074618 0.220726 -0.012205 -0.028814 0.083397 0.055165 -0.005573 -0.012942 0.155337 -0.079928
0.0 0.0 0.0 0.0 0.0 0.0 0.0 0.0 0.0 0.0 0.0 0.0 0.0 0.0 0.0 0.0 0.0 0.0 0.0 0.0 0.0 0.0 0.0 0.0 0.0 0.0 0.0 0.0 0.0 0.0 0.0 0.0 0.0 0.0 0.0 0.0 0.0 0.0 0.0 0.0 0.0 0.0 0.0 0.0 0.0 0.0 0.0 0.0 0.0 0.0 0.0 0.0 0.0 0.0 0.0 0.0 0.0 0.0 0.0 0.0 0.0 0.0 0.0 0.0 0.0 0.0 0.0 0.0 0.0 0.0 0.0 0.0 0.0 0.0 0.0 0.0 0.0 0.0 0.0 0.0 0.0 0.0 0.0 0.0 0.0 0.0 0.0 0.0 0.0 0.0 0.0 0.0 0.0 0.0 0.0 0.0 0.0 0.0 0.0 0.0
-0.023896 0.080231 0.04303 0.147415 -0.167078 -0.129642 0.134346 0.056573 -0.132012 -0.122814 -0.278327 0.134697 -0.112208 -0.031827 -0.117885 -0.088716 -0.039651 -0.055945 -0.156452 -0.107547 -0.029219 0.080259 0.19732 0.156842 0.055387 -0.008522 -0.004116 -0.087462 0.088777 -0.147671 -0.101128 0.074662 0.072371 0.086558 0.092405 0.162966 -0.315925 -0.145867 -0.192619 -0.061929 0.068049 0.044944 -0.162262 0.095378 0.098836 -0.047859 -0.001477 -0.003956 0.108123 0.078769 -0.058347 -0.205821 -0.09417 0.021931 -0.059721 -0.012434 0.077653 0.121067 -0.112194 -0.084871 0.240879 -0.117944 0.06505 -0.016184 -0.19468 -0.143219 0.061223 0.079854 -0.084155 -0.101298 0.09541 0.015528 0.115451 0.234893 0.10959 -0.158541 0.094572 0.223874 0.208487 0.131958 -0.01838 0.108214 -0.064984 0.015534 0.094773 -0.174818 0.115499 0.062962 -0.128508 0.074353 -0.050731 -0.096467 0.067722 0.013177 0.039843 -0.156444 0.035495 -0.059472 0.019266 -0.03896
0.352905 0.550922 -1.128945 -0.511125 0.774489 1.405335 -0.371647 0.106012 -0.779785 -0.640302 -0.68578 1.570717 -0.712288 -0.706705 -0.789609 -0.045278 -1.599722 -2.840112 -0.089543 -1.158838 -1.862605 -0.62748 -0.063542 -0.468696 0.750564 0.033551 -0.772222 -0.188991 -0.163115 0.455978 0.038455 -0.779588 0.172303 -1.114448 -0.548246 -0.008155 1.66721 -0.744821 -0.15746 -2.668482 -0.304702 -0.905716 0.479063 0.151803 -0.94063 -0.044338 -0.906122 -0.456182 0.281891 0.268287 0.47007 0.628019 0.328428 1.471286 -2.345457 0.072073 -0.345477 -0.998199 -1.496897 -0.053061 0.351206 -0.934426 0.295591 0.07336 0.24092 0.486976 0.390085 -0.621556 0.375246 -0.02625 1.957847 1.014101 0.004675 0.08874 -0.900479 -0.462149 0.922254 1.355385 -1.048724 0.105897 1.254466 0.410718 0.321258 1.066395 -0.171761 -0.128774 0.315556 0.697301 -0.180925 0.555334 1.005586 -0.891677 -1.232923 -1.994189 -0.567812 0.204184 -0.947385 -0.051526 -0.987029 0.725141
1.166535 0.571929 -2.296376 2.672156 -0.836627 -0.08581 -1.487717 0.680374 -1.051267 1.860963 -0.259307 -0.30104 -0.791023 3.516942 -3.423764 -1.714332 1.810032 0.385578 -0.596675 -0.336783 -0.307858 1.439698 3.283819 1.759804 -1.324751 3.053141 1.546661 -0.869133 -0.988947 -2.841006 -0.807501 0.71782 1.020934 -2.112568 -3.849263 -0.088448 -0.204372 0.604028 -2.055051 -0.926484 2.240313 0.079563 1.47677 -1.077266 2.965209 -1.837141 -0.07257 0.520574 2.179644 1.024933 -3.643406 1.180127 0.780232 2.966327 1.259519 -1.287425 1.510162 -2.776232 -1.020438 -2.465755 2.42826 -1.10543 1.35111 -0.106856 0.198081 -0.329907 0.006786 -1.935482 -0.023294 -0.879974 -0.607877 1.109545 2.518159 1.083583 0.067156 -1.138621 -2.607427 1.556449 0.183065 4.80035 -0.619828 0.54766 3.136885 4.279558 1.376504 -1.614635 3.284498 2.685056 0.304438 4.452716 -1.6901 -1.877963 1.03142 -2.114648 2.29784 0.653892 0.564788 1.18588 0.542849 1.578378
1.035361 1.319725 0.388011 1.220811 -0.236045 1.447081 -1.78193 3.520004 0.063077 -1.681862 0.545208 0.767849 -1.479444 -1.152839 0.669301 0.685509 -2.946755 -2.239533 -1.187422 -1.793336 0.607402 0.130687 0.296681 -1.569517 1.825066 1.715849 -1.639836 0.849724 -1.742086 0.427502 3.84844 -1.377145 0.671096 -1.312902 -1.152387 0.705431 2.180344 2.97496 1.402098 -0.909545 -1.649212 -0.253421 1.186817 1.193823 3.167747 -0.387379 -0.12198 0.872223 0.13285 0.490844 0.029473 1.345032 0.297008 2.724698 -1.656047 -0.109585 1.500583 -1.148555 -3.658389 1.022988 -1.211381 0.342059 -0.023586 1.22536 -1.874871 -1.957746 -0.188066 -0.235303 -0.067175 1.107354 1.448404 0.838301 1.67396 -0.238039 -0.504146 -1.334739 0.688005 0.37731 -2.953094 0.650433 0.307563 -0.457962 -1.694326 2.40152 -0.816994 0.208705 1.853393 0.15935 -0.989952 1.089235 1.087388 -2.786835 -2.248864 -0.788939 0.405791 0.907533 -1.516669 1.970717 -0.345554 -0.134731
0.205983 -0.01757 -0.056239 -0.011962 -0.058786 0.01487 0.048078 -0.076479 0.03824 -0.203017 0.092517 -0.230178 -0.098774 -0.132256 0.006848 0.042904 -0.121787 -0.063099 -0.029771 0.008218 -0.040566 0.017573 -0.048595 0.007341 -0.033025 -0.080857 -0.093199 -0.017946 0.178134 0.03977 0.025577 -0.015398 -0.108572 -0.054545 -0.016022 -0.047966 -0.03646 -0.17021 0.126505 0.062268 0.086196 0.118707 0.041492 0.224393 0.011258 -0.135581 -0.234435 0.09645 -0.04413 0.083256 -0.064108 0.116327 0.042212 -0.184964 -0.237055 -0.059747 -0.015533 -0.109227 -0.081848 -0.051396 0.040712 0.030972 -0.032607 -0.014596 0.017509 0.135804 0.097069 -0.007319 0.03155 -0.081575 -0.139801 0.063244 -0.161877 0.049278 -0.036336 -0.021302 -0.167077 -0.152733 -0.116478 -0.120703 0.181406 0.152188 0.072446 0.00262 0.150907 0.098867 -0.083174 -0.011632 0.12173 0.127395 0.029174 0.22871 -0.140809 0.127612 -0.053826 0.169155 0.1052 -0.002879 -0.110539 -0.025626
-0.079125 0.165496 0.110897 -0.05513 -0.065724 -0.016421 -0.129675 -0.099214 0.02807 -0.013086 0.098924 0.006428 0.015865 0.019545 -0.032119 -0.00207 -0.045287 -0.050114 0.055247 0.03426 0.233659 0.072283 -0.012443 -0.03855 0.031879 -0.210001 -0.099797 -0.143277 0.004465 -0.144344 0.108815 0.013896 0.093599 -0.034792 0.068236 0.288351 0.068627 0.01563 0.272114 0.010639 -0.007226 -0.080718 -0.127818 -0.11284 -0.050929 -0.118455 0.067435 0.03741 -0.036989 -0.080063 0.041965 -0.124513 -0.086496 0.030034 0.236339 -0.182109 -0.019218 -0.122632 -0.245188 0.10252 0.060751 0.064868 -0.041636 -0.091022 0.104927 0.017689 0.096578 0.10721 0.097177 0.042127 0.07152 -0.005611 0.094549 0.007239 -0.062212 -0.051875 0.108705 0.011637 -0.124956 -0.015681 -0.121867 -0.007958 0.040644 0.024469 0.141174 0.121792 0.197302 -0.088771 0.159092 -0.241288 -0.069209 -0.034296 0.127442 -0.006425 -0.121656 -0.116899 0.054485 0.121344 0.041694 0.048051
-0.003094 -0.167835 0.414167 0.20214 0.021192 0.110874 -0.142571 -0.037466 0.106848 0.210642 -0.104314 0.368307 -0.180382 0.077357 0.178098 0.279879 0.11783 0.088282 -0.24772 -0.115248 -0.054334 0.134777 0.26336 0.082243 -0.293855 -0.028461 3.44E-4 -0.063758 0.311569 -0.233804 0.127595 -0.011127 -0.128887 0.041042 -0.086175 -0.074408 0.088104 0.068682 0.046454 -0.047408 -0.036691 -0.110982 -0.019407 -0.186861 0.082029 -0.006638 -0.113443 -0.147593 -0.01641 0.094933 0.118614 -0.043671 0.018239 -0.413848 0.281094 0.152042 -0.042809 0.166658 -0.018005 -0.05191 -0.023496 0.119143 -0.092649 -0.042531 0.058689 -0.124429 -0.030609 0.011888 -0.002563 0.032041 0.205577 0.076755 0.032821 0.085427 -0.127106 -0.219912 -0.095765 0.089966 -0.089799 -0.123091 -0.053708 0.014194 0.133849 -0.209805 -0.029523 0.050832 -0.087862 -0.109852 0.313246 0.164122 -0.114575 0.04465 0.051932 -0.079995 -0.022854 -0.28581 -0.010104 0.221313 -0.025797 -0.064144
-0.024986 -0.141159 0.159505 0.046072 -0.007338 0.072356 -0.251857 -0.02796 -0.251802 -0.14506 0.087114 0.080155 0.042083 0.180987 0.175728 0.136085 -0.071747 0.175649 -0.131933 0.23202 0.067996 0.260331 0.1311 0.153481 -0.231737 -0.069492 -0.035433 -0.111209 -0.229433 -0.053649 0.062898 -0.126743 -0.013509 -0.279371 -0.079672 -0.087776 0.015076 0.124559 -0.054651 0.023772 -0.146816 0.092184 -0.088259 -0.066547 -0.067384 -0.037226 -0.048264 -0.016837 -0.153814 0.128426 0.126429 -0.018676 -0.160735 -0.177935 0.067631 -0.197468 -0.053634 -0.203613 -0.017222 0.057609 0.024353 -0.073895 0.080537 0.18185 -0.081149 -0.004867 0.054813 -0.086306 -0.025652 0.079828 -0.013368 -0.109907 0.024734 -0.004135 -0.013162 -0.049865 -0.081311 0.228556 0.043246 0.029136 0.026836 0.127169 0.008806 -0.104319 0.036013 -0.282559 0.188552 0.142564 0.115063 0.107532 -0.114142 -0.008725 -0.029018 0.196873 0.168528 -0.182207 0.009642 0.012235 -0.025104 -0.018263
0.039107 -0.02067 -0.10249 -0.024722 -0.063253 0.032916 -0.009982 0.08429 0.031646 0.103876 0.034398 0.092607 0.069173 0.12231 0.103 0.141929 -0.076041 0.117716 -0.001814 0.072521 -0.014655 0.077546 0.174733 0.066339 -0.03128 0.036747 -0.075198 0.10743 0.072084 -0.168768 -0.077598 0.057002 -0.334998 -0.024934 -0.04279 -0.09146 -0.035409 -0.065419 -0.123414 0.062626 0.058385 -0.073858 0.211725 -0.116346 -0.04965 -0.0644 -0.092243 0.024931 0.052204 0.045777 0.045302 -0.053679 -0.050616 0.055598 0.067058 -0.169554 0.080851 5.71E-4 0.066465 -0.022915 0.053478 -0.042859 -0.127706 -0.067637 0.114882 0.027241 0.079241 0.091277 0.176538 -0.034113 0.243043 -0.008071 0.126823 0.046193 -0.042251 -0.106003 -0.090478 1.19E-4 -0.120651 -0.054555 0.061744 0.216144 0.136283 -0.187366 0.100585 0.127902 0.104169 -7.8E-5 0.126204 -0.044382 -0.237683 0.023769 0.005389 0.244522 -0.066904 -0.121136 0.084758 0.058368 0.101701 0.004039
-0.134008 -0.036238 0.101819 0.06978 -0.145865 -0.11309 -0.163883 -0.247747 -0.146164 0.193955 -0.051005 0.077787 -0.090948 -0.019506 0.03762 0.109274 -0.186923 0.113068 -0.090135 -0.10643 0.04886 0.298286 0.155327 0.059199 0.138458 -0.017476 0.036106 -0.046772 0.004943 -0.02638 0.067951 0.115696 -0.14996 0.043632 -0.1831 0.03796 0.093955 -0.153344 -0.259589 -0.106328 -0.084317 0.174354 0.166607 -0.048267 -0.075681 -0.092909 0.019737 0.073501 -0.119044 0.354156 0.04165 0.064732 -0.045174 -0.111477 0.072813 0.085033 0.143712 -0.014393 0.058013 -0.233979 -0.036168 -0.17949 0.005496 -0.108741 -0.210584 -0.144125 0.11685 0.11331 0.155707 0.156336 -0.052404 -0.018173 0.098398 0.03714 0.121746 0.074775 -0.161222 0.01243 -0.237337 -0.099386 0.093821 0.035655 0.158608 -0.17074 -0.082466 -0.143209 -0.134011 -0.007119 0.162059 0.181588 0.049815 0.034453 -0.093726 0.060205 -0.036982 -0.140768 0.023987 -0.092753 -0.052416 0.060204
-0.072674 -7.172178 3.243542 -3.416216 -3.078808 6.196021 -4.841667 1.097196 -0.069161 1.281094 -1.867299 2.00664 -3.509578 -1.91784 -3.71946 -1.31319 -2.045076 0.300286 -1.171953 -1.055153 0.413733 -4.900678 -1.569404 0.87886 -2.045129 -1.808549 3.916455 -0.208298 2.321721 -2.340044 -1.758158 0.426659 -1.302078 -0.956855 -1.534045 -0.5092 3.699516 -1.615464 -4.803689 1.209575 2.470521 -1.772277 -1.289194 0.075271 2.969475 5.294761 1.165935 1.551812 -2.864125 -2.655352 5.174971 1.730763 -3.638956 -1.622863 -1.08695 -1.558467 -3.220565 0.142856 -2.906218 2.40766 -2.416126 -0.276478 1.480663 0.762824 -0.901475 0.444124 -2.828977 2.000263 -3.260752 0.442676 2.227862 0.843619 -0.517631 -1.033588 -2.178106 1.253474 -1.086825 1.923508 1.341381 -3.757782 1.47075 1.992821 3.822498 6.974607 4.826773 0.101915 1.476335 -1.446077 -2.964966 2.275137 5.51195 -1.78916 -2.196929 -0.36233 1.699235 -0.269662 -2.034092 -1.169337 -1.898828 -0.46444
0.859239 0.673689 -0.290939 -0.531477 -2.10922 2.035813 0.053013 3.136615 -1.086866 -0.032847 0.700746 1.333968 -1.724528 0.82957 0.674361 0.223577 0.753121 0.578528 -0.651298 0.69981 -1.840673 -2.421198 -1.92774 0.812465 0.305951 1.477557 -0.399502 -1.129891 -2.029444 -0.492184 2.567479 -0.03574 0.170095 -0.827749 1.449535 -1.2361 -0.253805 1.273949 0.472593 0.797911 0.335013 1.029314 -0.778648 0.990085 0.468485 -1.201123 0.862058 -0.348481 -0.001726 -1.9189 1.271396 -2.092349 0.466189 3.51941 -3.694 -1.725301 -1.842322 -0.531707 0.297758 -0.785766 -0.083723 1.17025 -0.678009 0.474607 1.714605 -1.459293 0.138731 0.742116 0.572401 0.622107 2.813798 1.670515 -2.990878 -3.204301 1.355485 1.509645 2.264333 -0.90668 0.397642 2.573653 2.178542 -0.616305 -1.750986 1.607468 -0.153016 -0.720591 -0.02845 2.540763 -0.831948 -0.886 0.163541 3.093616 -1.617663 0.557102 -1.36222 -1.985592 -0.264349 -1.714483 -3.242204 -0.922903
-0.024986 -0.141159 0.159505 0.046072 -0.007338 0.072356 -0.251857 -0.02796 -0.251802 -0.14506 0.087114 0.080155 0.042083 0.180987 0.175728 0.136085 -0.071747 0.175649 -0.131933 0.23202 0.067996 0.260331 0.1311 0.153481 -0.231737 -0.069492 -0.035433 -0.111209 -0.229433 -0.053649 0.062898 -0.126743 -0.013509 -0.279371 -0.079672 -0.087776 0.015076 0.124559 -0.054651 0.023772 -0.146816 0.092184 -0.088259 -0.066547 -0.067384 -0.037226 -0.048264 -0.016837 -0.153814 0.128426 0.126429 -0.018676 -0.160735 -0.177935 0.067631 -0.197468 -0.053634 -0.203613 -0.017222 0.057609 0.024353 -0.073895 0.080537 0.18185 -0.081149 -0.004867 0.054813 -0.086306 -0.025652 0.079828 -0.013368 -0.109907 0.024734 -0.004135 -0.013162 -0.049865 -0.081311 0.228556 0.043246 0.029136 0.026836 0.127169 0.008806 -0.104319 0.036013 -0.282559 0.188552 0.142564 0.115063 0.107532 -0.114142 -0.008725 -0.029018 0.196873 0.168528 -0.182207 0.009642 0.012235 -0.025104 -0.018263
-0.136049 -0.102254 -0.080026 0.091424 0.011913 0.07389 6.81E-4 0.062215 -0.13421 -0.146844 0.070862 0.095652 -0.162834 0.141134 0.208436 0.209183 -0.122517 0.078579 -0.130845 0.051689 -0.116569 -0.046304 0.247279 -0.05999 -0.113997 0.058042 -0.024487 0.040221 0.144808 -0.168729 -0.063269 -0.051081 -0.021142 0.02968 -0.083255 0.020676 -0.071029 0.053846 0.117344 0.212856 -0.159776 -0.176567 0.10852 0.074117 0.122399 0.056963 -0.02539 0.099816 -0.091001 -0.055493 0.085018 -0.17486 -0.160099 -0.202861 0.0746 -0.019472 -0.043245 0.010623 -0.017041 -0.174608 -0.168884 -0.079579 -0.204833 -0.173647 -0.12788 -0.088767 -0.003171 0.015379 -0.008025 0.12737 0.094408 0.009948 0.051602 0.059692 0.05595 -0.107927 -0.180333 -0.133936 0.003653 -0.084953 0.079037 0.071561 -0.034113 -0.15171 -0.198396 -0.176961 0.03299 -0.235914 0.226194 0.019568 -0.118276 0.040313 -0.084461 0.130839 0.067451 -0.041113 0.054464 -0.033304 0.089742 0.095797
-0.04875 0.01456 -0.03318 0.061352 0.094349 4.99E-4 -0.185183 0.081819 -0.140686 0.077163 0.137673 0.1179 -0.128411 -0.16827 -0.070469 0.017254 -0.009051 -0.081693 0.116453 -0.047721 -0.1798 -0.103973 0.097955 0.059718 -0.183721 -0.211477 0.080213 -0.146314 0.018297 0.033219 0.120447 -0.015026 -0.042611 0.082081 -0.184879 -0.012733 0.085219 -0.075562 0.280873 0.038293 -0.111887 0.030107 -0.040261 0.044958 -0.175723 -0.029235 -0.123646 0.11486 -3.82E-4 0.118955 0.11644 -0.121599 -0.099969 -3.83E-4 0.097317 -0.047732 0.004055 0.070458 0.01681 0.001192 -0.027221 0.012219 0.04899 -0.182689 -0.076434 0.109355 -0.053165 0.07228 0.078449 0.014795 -0.036291 -0.057137 0.022906 -0.068367 0.046873 -0.150405 -0.118386 0.088636 -0.098456 0.03116 0.098544 -0.015925 -0.002078 -0.103001 -0.018546 0.138504 0.128345 0.08873 0.025383 -0.02363 -0.082508 -0.032168 0.143624 -0.019387 -0.08384 -0.014433 -0.044741 0.003023 0.105334 -0.07093
-0.064195 -0.117086 -0.039943 0.169783 -0.049972 -0.131549 0.028375 0.128883 -0.276888 0.043386 -0.031909 0.175556 -0.100628 -0.197332 0.049809 0.087903 0.078242 0.170539 -0.136416 0.104461 0.078807 0.07651 0.171874 0.1068 -0.131497 -0.105907 -0.072115 -0.029739 0.091957 -0.223834 0.106718 0.023237 -0.054262 -0.130882 0.033409 -0.029223 0.119043 -0.091811 -0.121317 0.029602 -0.106251 0.142973 0.020019 0.090746 0.06177 -0.247453 -0.128954 0.162439 -0.04877 0.1303 0.007417 -0.041617 0.007381 -0.059681 0.258224 0.038548 -0.00134 0.040674 -0.101333 -0.037116 0.139645 0.07904 0.067312 -0.243378 -0.012248 -0.024835 -0.073562 -0.077112 -0.135011 -0.026165 -0.013964 -0.027847 -0.173528 0.246164 -0.05887 -0.051838 -0.180275 0.119143 -0.033255 -0.064342 -0.092832 0.070973 0.105014 -0.073728 0.004946 0.186448 0.0736 -0.009804 0.035064 0.123994 -0.006252 0.014451 -0.032777 -0.006731 -0.06405 0.029499 0.090927 -0.08189 0.024738 -0.051373
0.003772 0.059917 -0.005339 -0.122639 -0.064394 0.020403 0.082146 0.085133 0.194471 -0.067586 0.075385 -0.009933 0.041241 0.042617 0.154404 0.00977 -0.044104 -0.112267 0.029421 0.049845 0.02723 0.017649 0.082491 0.160788 -0.001029 -0.011256 -0.121976 -0.108063 0.049015 0.006047 0.109804 0.116279 -0.045357 0.107098 0.167844 0.01025 0.157226 0.166732 -0.189593 0.064612 -0.074583 -0.117035 -0.06943 -0.032357 -0.053915 4.77E-4 -0.127866 -0.034624 0.020842 -0.081807 -0.024191 0.079707 -0.070059 0.046102 -0.137059 0.082153 -0.081451 -0.008189 0.038967 -0.089436 0.034118 0.037167 -0.059729 0.050838 -0.045312 0.14582 0.0542 0.070652 0.075883 0.071451 0.024234 -0.064983 -0.135816 -0.004871 0.097168 9.6E-5 0.023537 0.049276 -0.096959 -0.113435 0.199257 0.128414 0.086377 -0.151764 -0.119737 -0.189061 0.099777 -0.046698 0.025487 -0.110833 -0.060514 0.093381 -0.107849 0.121369 -0.006654 -0.097659 0.06927 -0.016069 0.131439 0.051263
0.066568 -0.081278 0.100981 0.102564 -0.043418 0.075462 -0.110616 -0.143716 -0.072345 0.077418 0.100447 0.02813 0.012041 0.02642 -0.15283 0.044612 0.039562 -8.95E-4 -0.102143 -0.015735 -0.129298 0.016516 0.080142 0.117255 -0.056658 -0.088458 -0.151237 -0.129861 0.008654 -0.045055 0.033387 0.012222 -0.105032 0.037223 0.005555 -0.01168 -0.059403 -0.025774 -0.012711 0.009034 0.050269 0.13825 -0.04327 -0.079777 0.109222 -0.065204 -0.02253 0.097792 -0.195638 0.04776 -0.040266 0.002242 -0.01774 -0.105279 0.040907 0.074103 0.024719 -0.075222 0.071306 -0.142471 0.099755 -0.220127 0.015882 -0.024512 0.110202 -0.015355 0.052413 0.113298 0.126016 -0.056241 0.091406 -0.028486 0.176686 0.007125 -0.116761 -0.050868 0.037076 0.071667 -0.05843 -0.05608 0.170759 0.174251 -0.035713 -0.099577 0.124791 -0.007266 0.08273 -0.097223 0.143051 0.104299 0.035004 0.015354 -0.038987 0.118385 0.029603 0.01406 -0.202007 0.060657 -0.018117 -0.015999
-0.024986 -0.141159 0.159505 0.046072 -0.007338 0.072356 -0.251857 -0.02796 -0.251802 -0.14506 0.087114 0.080155 0.042083 0.180987 0.175728 0.136085 -0.071747 0.175649 -0.131933 0.23202 0.067996 0.260331 0.1311 0.153481 -0.231737 -0.069492 -0.035433 -0.111209 -0.229433 -0.053649 0.062898 -0.126743 -0.013509 -0.279371 -0.079672 -0.087776 0.015076 0.124559 -0.054651 0.023772 -0.146816 0.092184 -0.088259 -0.066547 -0.067384 -0.037226 -0.048264 -0.016837 -0.153814 0.128426 0.126429 -0.018676 -0.160735 -0.177935 0.067631 -0.197468 -0.053634 -0.203613 -0.017222 0.057609 0.024353 -0.073895 0.080537 0.18185 -0.081149 -0.004867 0.054813 -0.086306 -0.025652 0.079828 -0.013368 -0.109907 0.024734 -0.004135 -0.013162 -0.049865 -0.081311 0.228556 0.043246 0.029136 0.026836 0.127169 0.008806 -0.104319 0.036013 -0.282559 0.188552 0.142564 0.115063 0.107532 -0.114142 -0.008725 -0.029018 0.196873 0.168528 -0.182207 0.009642 0.012235 -0.025104 -0.018263
0.0 0.0 0.0 0.0 0.0 0.0 0.0 0.0 0.0 0.0 0.0 0.0 0.0 0.0 0.0 0.0 0.0 0.0 0.0 0.0 0.0 0.0 0.0 0.0 0.0 0.0 0.0 0.0 0.0 0.0 0.0 0.0 0.0 0.0 0.0 0.0 0.0 0.0 0.0 0.0 0.0 0.0 0.0 0.0 0.0 0.0 0.0 0.0 0.0 0.0 0.0 0.0 0.0 0.0 0.0 0.0 0.0 0.0 0.0 0.0 0.0 0.0 0.0 0.0 0.0 0.0 0.0 0.0 0.0 0.0 0.0 0.0 0.0 0.0 0.0 0.0 0.0 0.0 0.0 0.0 0.0 0.0 0.0 0.0 0.0 0.0 0.0 0.0 0.0 0.0 0.0 0.0 0.0 0.0 0.0 0.0 0.0 0.0 0.0 0.0
0.0 0.0 0.0 0.0 0.0 0.0 0.0 0.0 0.0 0.0 0.0 0.0 0.0 0.0 0.0 0.0 0.0 0.0 0.0 0.0 0.0 0.0 0.0 0.0 0.0 0.0 0.0 0.0 0.0 0.0 0.0 0.0 0.0 0.0 0.0 0.0 0.0 0.0 0.0 0.0 0.0 0.0 0.0 0.0 0.0 0.0 0.0 0.0 0.0 0.0 0.0 0.0 0.0 0.0 0.0 0.0 0.0 0.0 0.0 0.0 0.0 0.0 0.0 0.0 0.0 0.0 0.0 0.0 0.0 0.0 0.0 0.0 0.0 0.0 0.0 0.0 0.0 0.0 0.0 0.0 0.0 0.0 0.0 0.0 0.0 0.0 0.0 0.0 0.0 0.0 0.0 0.0 0.0 0.0 0.0 0.0 0.0 0.0 0.0 0.0
0.104521 -0.022524 -0.089485 0.140945 0.017571 -0.062233 -0.062064 0.19467 0.154833 -0.10452 0.032147 0.089365 -0.022693 0.005099 0.123811 -0.009882 -0.093267 0.100835 -0.10221 0.215875 -0.198532 -0.225448 -0.119138 0.034235 0.05069 -0.094229 -0.115096 -0.084582 0.051567 0.024805 0.086189 -0.111065 -0.10429 0.072786 0.006149 0.107831 0.039752 0.011015 0.04741 0.182582 0.049178 -0.012106 -0.063859 0.075492 0.076793 0.195027 -0.043515 0.222418 -0.0537 -0.033176 0.063428 -0.029679 -0.082016 0.04391 0.063593 -0.02228 -0.196835 -3.31E-4 -0.011803 -0.104623 0.095179 -0.134286 -0.117118 0.015209 0.063479 0.069683 0.038101 -0.021807 0.090883 -0.225056 -0.034131 0.081706 -0.094029 -0.002793 0.05257 -0.039642 0.080451 -0.11606 -0.039145 -0.039903 -0.118925 0.22589 0.131965 -0.176494 -0.143966 0.011856 0.144299 0.019884 0.144936 -0.126845 0.015464 0.094627 0.098333 0.239999 -0.10419 -0.081246 0.014058 0.070391 0.167373 0.085178
-2.250182 -0.224583 -2.37675 -0.37187 0.402705 0.526053 0.635502 0.15999 2.014709 -1.562655 0.354228 0.932435 1.156818 -0.261291 0.17248 0.71359 1.323008 1.897495 2.78273 -0.87072 -0.264424 1.461706 0.536181 0.93546 -1.971652 0.280355 -2.079325 0.258135 2.30597 0.818308 2.236356 0.639217 1.368104 -1.890563 0.445665 -2.955773 -1.235958 1.377295 -2.841379 -2.780425 0.874021 -0.409406 -0.395181 -0.356524 -1.513369 -0.032831 0.471079 1.243369 -0.202255 1.69478 0.714482 0.115478 -1.488379 0.508259 -0.350524 -0.17849 -0.268929 -0.657061 0.314015 1.306352 -0.308655 1.418805 0.117794 0.652494 -1.306826 -2.155536 -0.443 0.107601 2.387029 -1.663557 -0.332716 1.717832 -2.827278 -0.998937 1.751903 1.664001 -0.840106 -2.518587 1.743203 0.534723 -0.15277 0.487486 0.124014 0.14612 1.059167 -1.331494 1.449261 -0.207027 0.067318 -0.928499 2.139398 -0.221941 -0.055847 1.028565 2.398284 -1.973075 1.674208 -0.921017 1.127895 -1.611829
-0.052595 -0.125631 0.271064 0.398774 -0.206383 -0.038377 0.049887 -0.074736 -0.196448 -4.58E-4 0.165554 0.071025 -0.25759 0.030766 0.065149 -0.120648 0.052706 0.111145 0.075112 0.015525 0.033028 -0.008071 0.217745 -0.190433 -0.130779 0.144195 -0.04052 0.01927 0.138949 -0.105323 0.046624 0.094709 0.105434 -0.08739 -0.213638 0.053801 -0.172411 0.039428 -0.053951 0.070968 -0.254855 0.090346 -0.143402 -0.11352 0.087368 0.059043 -0.091134 -0.285668 0.077099 -0.156876 -0.005535 -0.002375 0.127469 -0.098742 0.170335 0.108815 -0.023964 -0.129709 -0.056456 0.049072 0.183894 -0.177689 -0.065176 -0.047065 -0.079781 -0.165684 -0.089407 -0.078644 0.207697 0.438182 0.162599 8.55E-4 0.176912 -0.127942 -0.033134 -0.005018 0.094707 -0.011043 0.116121 0.157167 -0.115032 -0.009126 0.030848 -0.275651 0.107976 -0.123456 -0.04803 -0.044479 0.141557 -0.017214 -0.083459 -0.00872 -0.04219 -0.074223 -0.049857 -0.110437 0.006517 -0.117566 -0.13997 -0.159657
-0.024986 -0.141159 0.159505 0.046072 -0.007338 0.072356 -0.251857 -0.02796 -0.251802 -0.14506 0.087114 0.080155 0.042083 0.180987 0.175728 0.136085 -0.071747 0.175649 -0.131933 0.23202 0.067996 0.260331 0.1311 0.153481 -0.231737 -0.069492 -0.035433 -0.111209 -0.229433 -0.053649 0.062898 -0.126743 -0.013509 -0.279371 -0.079672 -0.087776 0.015076 0.124559 -0.054651 0.023772 -0.146816 0.092184 -0.088259 -0.066547 -0.067384 -0.037226 -0.048264 -0.016837 -0.153814 0.128426 0.126429 -0.018676 -0.160735 -0.177935 0.067631 -0.197468 -0.053634 -0.203613 -0.017222 0.057609 0.024353 -0.073895 0.080537 0.18185 -0.081149 -0.004867 0.054813 -0.086306 -0.025652 0.079828 -0.013368 -0.109907 0.024734 -0.004135 -0.013162 -0.049865 -0.081311 0.228556 0.043246 0.029136 0.026836 0.127169 0.008806 -0.104319 0.036013 -0.282559 0.188552 0.142564 0.115063 0.107532 -0.114142 -0.008725 -0.029018 0.196873 0.168528 -0.182207 0.009642 0.012235 -0.025104 -0.018263
0.205983 -0.01757 -0.056239 -0.011962 -0.058786 0.01487 0.048078 -0.076479 0.03824 -0.203017 0.092517 -0.230178 -0.098774 -0.132256 0.006848 0.042904 -0.121787 -0.063099 -0.029771 0.008218 -0.040566 0.017573 -0.048595 0.007341 -0.033025 -0.080857 -0.093199 -0.017946 0.178134 0.03977 0.025577 -0.015398 -0.108572 -0.054545 -0.016022 -0.047966 -0.03646 -0.17021 0.126505 0.062268 0.086196 0.118707 0.041492 0.224393 0.011258 -0.135581 -0.234435 0.09645 -0.04413 0.083256 -0.064108 0.116327 0.042212 -0.184964 -0.237055 -0.059747 -0.015533 -0.109227 -0.081848 -0.051396 0.040712 0.030972 -0.032607 -0.014596 0.017509 0.135804 0.097069 -0.007319 0.03155 -0.081575 -0.139801 0.063244 -0.161877 0.049278 -0.036336 -0.021302 -0.167077 -0.152733 -0.116478 -0.120703 0.181406 0.152188 0.072446 0.00262 0.150907 0.098867 -0.083174 -0.011632 0.12173 0.127395 0.029174 0.22871 -0.140809 0.127612 -0.053826 0.169155 0.1052 -0.002879 -0.110539 -0.025626
-0.01875 -0.285329 -0.002424 0.108049 -0.121485 0.011509 -0.309429 0.071278 0.030139 -0.09504 0.026686 -0.113073 0.095932 -0.179022 0.042966 0.129678 0.08961 0.196302 0.063608 0.023636 0.017566 0.282635 0.203737 -0.001727 -0.166336 0.016611 0.066798 0.070245 -0.044842 -0.010532 0.02894 0.068283 0.222737 -0.011348 -0.061199 -0.009894 -0.096135 0.074612 0.011411 0.061689 -0.114957 0.107116 0.054659 -0.135911 0.206663 -0.107839 -0.106604 0.14633 0.055843 0.071442 0.032643 -0.128132 0.097352 -0.140302 -0.003045 -0.183681 0.160041 -0.078107 0.0398 -0.116372 -0.065673 -0.00229 -0.127849 0.022587 0.141333 -0.050803 0.054219 -0.019527 0.040823 -0.187221 -0.087694 0.011191 -0.043953 -0.204306 0.081344 -0.016947 -0.105763 -0.100188 -0.004993 0.025402 0.12403 0.063183 0.003483 0.031502 -0.006452 0.015156 -0.143862 -0.149512 -0.053303 0.05853 -0.072347 -0.161299 0.009473 0.162584 0.023232 0.039946 -0.041596 -0.076351 -0.12545 -0.034996
0.0 0.0 0.0 0.0 0.0 0.0 0.0 0.0 0.0 0.0 0.0 0.0 0.0 0.0 0.0 0.0 0.0 0.0 0.0 0.0 0.0 0.0 0.0 0.0 0.0 0.0 0.0 0.0 0.0 0.0 0.0 0.0 0.0 0.0 0.0 0.0 0.0 0.0 0.0 0.0 0.0 0.0 0.0 0.0 0.0 0.0 0.0 0.0 0.0 0.0 0.0 0.0 0.0 0.0 0.0 0.0 0.0 0.0 0.0 0.0 0.0 0.0 0.0 0.0 0.0 0.0 0.0 0.0 0.0 0.0 0.0 0.0 0.0 0.0 0.0 0.0 0.0 0.0 0.0 0.0 0.0 0.0 0.0 0.0 0.0 0.0 0.0 0.0 0.0 0.0 0.0 0.0 0.0 0.0 0.0 0.0 0.0 0.0 0.0 0.0
-2.195193 -0.094825 0.292716 0.770128 2.000801 0.100594 -1.328 0.285062 4.804995 -1.044796 2.189227 -0.761843 0.766219 -0.243941 1.495061 1.720337 -2.140069 -0.505637 -0.06892 -0.473796 0.260613 -0.915329 2.213128 3.036728 -1.402226 -0.749642 -0.502236 -0.50332 1.005856 0.873081 1.34375 1.52775 2.622689 -1.148333 1.710159 -1.668403 -0.420619 -2.800238 -0.937494 -1.573381 -0.095067 -0.446079 -2.128515 1.043087 -0.271811 -1.728006 -0.449363 -0.909156 -1.175844 -0.355815 -0.133632 -0.836171 -2.062466 0.492519 -4.013694 -0.289375 -1.968244 1.834129 -0.066553 0.561601 0.252782 2.389732 -2.280576 3.831331 0.789313 -0.019578 0.359579 -0.505944 0.3968 0.009429 1.213266 -2.822911 -1.555093 -0.539305 -0.63543 -0.151177 -0.686004 -2.01232 1.527295 2.335788 -1.428401 0.42237 0.974941 1.051498 1.739578 0.132302 2.610207 -0.308523 -1.774214 -1.210504 2.489682 -2.09699 0.688971 1.40836 -1.099055 -0.912123 -0.948662 0.325755 -1.456573 -0.19554
-0.107054 -0.003999 -0.086123 0.177995 -0.113754 0.094823 -0.135218 0.049796 -0.030834 0.009701 0.102743 0.052691 -0.009648 -0.016565 0.029996 0.046476 -0.14395 0.176041 -0.054177 0.050772 0.029846 0.151005 0.191447 0.040008 -0.335832 -0.085891 0.011908 -0.155818 -0.045478 -0.075787 -0.144568 0.054662 -0.004083 -0.111866 -0.158942 -0.159315 -0.059983 0.060719 -0.011409 0.102673 -0.020711 0.099858 0.10183 -0.103374 0.099982 -0.06939 0.021189 -0.003477 -0.176386 -0.022519 -0.071219 0.078568 -0.073637 0.090877 0.059766 -0.043285 0.252052 0.129879 -0.033026 -0.123994 0.209984 -0.099658 -0.03633 0.15097 -0.150999 0.018017 0.102992 0.045618 0.044881 -0.216391 -0.111079 -0.158857 0.172823 0.069976 0.056466 -0.214981 -0.076235 -0.045002 0.02969 0.191304 0.089298 0.204289 0.041055 0.058249 0.06427 0.041729 -0.056628 -0.010763 -0.190552 -0.133222 -0.156851 -0.085743 -0.095103 -0.119509 0.024543 -0.31395 0.084454 -0.108047 -0.176714 -0.002483
0.011574 0.002056 0.034006 0.046008 -0.142716 -0.054551 0.032914 -0.157257 -0.084006 -0.048708 -0.058549 0.021741 0.011385 -0.023197 -0.042559 -0.002272 0.08692 0.077196 0.069858 -0.121647 0.198609 -0.042479 0.084111 0.106169 0.026573 0.044408 -0.024163 0.027519 -0.105872 0.031869 -0.072823 -0.150981 -0.177815 -0.070569 -0.121573 -0.005136 -0.191643 0.088517 -0.098598 0.060095 -0.004925 0.113446 -0.165472 -0.036904 0.264984 -0.013472 -0.014328 -0.025825 0.046456 -0.050314 -0.038344 0.125573 -0.090221 -0.030059 -0.074447 0.170599 0.062066 -0.024591 -0.165543 0.110546 0.112663 0.037497 0.036712 -0.164967 -0.067828 -0.046786 0.125065 0.12137 0.002291 -0.056658 0.261186 0.099038 -0.087184 0.181251 0.036362 0.126073 0.118945 0.013047 -0.01446 0.125212 -0.079839 -0.073398 0.070769 0.060189 -0.025028 -0.128463 0.032912 0.217103 -0.037707 0.081652 -0.100572 0.013147 -0.010843 0.050171 0.111973 -0.074515 0.01456 0.013936 -0.209272 -0.019251
0.055807 -0.05885 -0.011299 0.006068 -0.118269 0.058104 -0.028234 0.122941 0.324026 0.124053 -0.126793 0.163406 0.051214 -0.168651 0.071137 -0.1992 -0.124965 0.239091 0.128024 0.070514 -0.130024 0.105373 -0.036322 -0.10317 -0.020654 0.08288 -0.062108 -0.115524 -0.146579 0.004457 0.270483 0.109226 0.067365 -0.179576 -0.079286 0.079859 0.007431 0.02171 -0.188773 -0.068136 -0.024847 0.042146 -0.267789 -0.278238 -0.137852 0.060762 0.058014 -0.11803 -0.040538 0.147978 -0.044873 0.129745 -0.096341 0.241597 -0.054954 -0.060956 -0.076931 0.125155 -0.023511 -0.296788 0.289788 -0.237833 -0.019929 -0.132541 -0.219516 -0.184698 0.042882 -0.155373 -0.066087 -0.091055 0.031717 -0.074924 -0.11899 0.025353 0.030207 0.124935 -0.156029 -0.056397 -0.131826 0.096262 -0.100214 0.141068 -0.02942 -0.021781 -0.102927 0.053966 0.137058 0.153808 -0.142555 0.010382 0.042234 -0.038275 -0.056209 -0.056031 0.045162 -0.013892 0.033087 -0.034052 0.033834 0.079627
-0.136304 -0.035369 -0.0016 0.017091 0.026151 -0.111839 0.012161 0.177323 -0.337226 0.139683 -0.043181 0.073112 0.188705 0.027116 0.260021 -0.122763 0.220956 0.259003 0.018072 0.013783 0.239029 0.14782 0.21118 0.104403 -0.008758 -0.047636 0.086515 -0.247072 -0.037904 -0.176585 -0.333548 0.007673 0.164369 -0.265291 -0.042157 0.055485 0.077268 -0.107563 0.273958 0.043779 -0.016627 -0.020628 -0.090532 0.179112 -0.175044 0.181923 0.186939 -0.049986 -0.168643 0.350812 0.107293 -0.237825 -0.067613 -0.0689 0.31234 -0.027866 0.077084 0.030242 0.062305 0.201076 0.318479 -0.072354 0.05546 -0.187373 0.217283 0.024222 0.260091 0.099671 -0.027425 0.080746 -0.160832 -0.174928 0.152844 0.094842 0.089821 0.050088 -0.264932 0.059544 0.408107 -0.036903 0.238728 0.178179 0.115281 -0.295668 0.193302 -0.039023 -0.028461 0.236644 0.17569 0.392457 -0.283049 -0.20081 -0.193665 0.123739 0.245404 -0.164307 0.293524 0.013104 0.067327 -0.076472
-0.32621 0.103541 0.123867 0.079383 0.112553 -0.23526 -0.298721 -0.039888 -0.146502 8.36E-4 -0.295091 -0.213576 0.29702 0.21423 0.357011 -0.05063 0.014125 0.553443 0.39801 0.184155 -0.061676 -0.106995 -0.037229 0.262244 -0.111607 -0.102279 -0.281303 -0.547314 0.167927 0.068892 -0.346976 -0.021711 0.086614 0.023898 -0.06594 -0.025406 0.135519 0.0452 0.034726 0.196045 -0.092337 0.14802 -0.185264 0.095186 0.083694 -0.117478 0.067813 -0.120213 -0.404773 0.366478 -0.005599 0.217738 -0.540028 -0.072845 -0.222164 -0.571584 0.151241 0.06105 0.290296 -0.167978 0.18476 -0.076205 -0.077486 -0.070809 -0.257779 -0.353364 0.464617 -0.00717 0.119114 -0.214968 -0.271706 -0.010547 -0.016162 -0.075679 0.291037 -0.19173 -0.429638 -0.132872 0.587873 -0.194216 7.93E-4 0.125991 0.2543 -0.035956 -0.180613 0.118889 -0.218633 0.042421 0.112549 0.04308 -0.058218 -0.009039 -0.247565 0.154764 0.079514 -0.200545 0.034276 -0.187317 -0.192059 -0.32968
0.0 0.0 0.0 0.0 0.0 0.0 0.0 0.0 0.0 0.0 0.0 0.0 0.0 0.0 0.0 0.0 0.0 0.0 0.0 0.0 0.0 0.0 0.0 0.0 0.0 0.0 0.0 0.0 0.0 0.0 0.0 0.0 0.0 0.0 0.0 0.0 0.0 0.0 0.0 0.0 0.0 0.0 0.0 0.0 0.0 0.0 0.0 0.0 0.0 0.0 0.0 0.0 0.0 0.0 0.0 0.0 0.0 0.0 0.0 0.0 0.0 0.0 0.0 0.0 0.0 0.0 0.0 0.0 0.0 0.0 0.0 0.0 0.0 0.0 0.0 0.0 0.0 0.0 0.0 0.0 0.0 0.0 0.0 0.0 0.0 0.0 0.0 0.0 0.0 0.0 0.0 0.0 0.0 0.0 0.0 0.0 0.0 0.0 0.0 0.0
-0.026799 -0.103797 0.112651 -0.259641 -0.103915 0.088316 -0.053088 -0.022809 0.009437 -0.09753 0.060073 0.126938 -0.120166 -0.201027 -0.031192 0.114149 -0.054812 0.193163 0.102408 0.014485 -0.142804 0.004168 0.106051 0.11444 -0.218755 -0.190187 0.08501 -0.064668 -0.128386 0.029669 -0.065954 0.042625 -0.391147 -0.09788 -0.127327 0.028785 0.023364 -0.057131 -0.029977 -0.052351 -0.109947 0.189529 -0.137615 0.126845 -0.031891 -0.070696 -0.021912 0.047885 0.00687 0.096735 0.088226 -0.067865 -0.012925 0.020968 -0.00858 0.059358 0.11823 -0.176081 -0.213955 -0.175354 0.240854 -0.072666 0.023853 -0.029982 0.089821 0.130766 0.016941 0.178835 -0.00797 -0.080021 -0.044534 0.049337 -0.037857 -0.1511 0.060476 -0.006618 0.145705 0.04376 -0.128786 -0.038244 0.01883 -0.008851 0.060935 -0.194196 0.098924 0.049666 0.05715 0.08558 0.098442 0.050731 -0.160965 -0.078077 -0.002686 -0.001068 -0.122167 -0.028315 -0.037337 -0.071233 -0.050617 -0.095917
-2.648351 -0.794316 -2.108887 0.20446 0.883061 0.242784 1.848653 1.149137 -4.975573 0.237654 -1.499665 2.924494 0.344217 -1.640431 0.763777 0.138944 -3.029439 -2.813434 -0.761102 -1.057557 -1.373735 -0.870599 1.234095 0.127805 -1.372618 1.35802 -1.501738 0.80945 0.172993 -0.484995 1.783363 -0.047587 0.483285 -1.526831 2.103549 2.116639 4.583491 -4.022388 -0.843817 0.361243 -0.546655 -2.301259 -2.000973 2.64631 -1.604053 -1.914206 -1.581895 -0.464185 1.757769 1.056301 0.263866 -0.904419 -0.422466 0.007824 -1.651553 0.7499 1.638666 -0.336108 -3.288466 -2.953238 -1.135414 1.165223 -1.047256 -0.821696 -0.135806 0.434207 -2.389307 -3.56953 -0.656773 0.578325 3.337902 0.782195 -1.250815 2.925509 -1.981492 0.121786 0.836257 1.710923 -2.640405 -0.628995 0.247469 0.863847 1.749171 -0.214156 -0.274807 2.192709 -0.892334 -1.614644 -1.225919 -0.042182 2.51632 3.464583 -3.591523 -2.506587 0.990426 1.8843 -2.460629 0.953462 0.359605 2.267383
-0.090723 -0.112754 0.249416 0.047929 -0.103515 0.0383 -0.069991 -0.165593 -0.198743 0.036437 -0.02952 0.108179 0.030663 -0.036196 -0.009284 0.095745 -0.227007 0.0541 -0.14583 0.178233 -0.067464 0.13957 0.272708 0.07774 -0.036921 -0.092134 0.014162 0.096449 0.086922 -0.026154 -0.13121 0.017702 -0.054324 0.038414 -0.177743 -0.040408 0.049593 -0.063923 0.190298 0.03263 0.002892 -0.108558 -0.181115 -0.019146 -0.157046 -0.074574 -0.114949 -0.024965 -0.152465 0.04956 -0.032991 -0.182327 0.063758 0.11258 -0.041233 -0.076258 0.084009 0.046249 0.124546 -0.171117 -0.029574 -0.086171 -0.108637 -0.131776 -0.173457 0.032073 -0.0015 0.077842 0.044803 -0.035944 -0.073179 0.009431 0.014844 0.080814 -0.075665 0.084045 -0.01499 0.071982 -0.153239 -0.07804 0.070677 0.266252 0.112957 -0.168154 -0.087584 -0.085561 0.056894 0.060044 0.173481 0.223827 -0.050807 0.114576 -0.011236 0.068797 -0.036582 -0.161016 -0.078966 0.033858 0.111861 -0.048162
-0.04832 0.090324 -0.194188 0.317462 0.032722 -0.006961 -0.002056 -0.026079 -0.038491 0.117021 -0.0279 0.001159 0.026274 0.006893 0.063322 0.006811 -0.167466 0.077843 -0.218526 -0.049729 0.184506 0.017787 0.106408 -0.074128 0.153078 0.045399 -0.019661 0.199252 -0.079072 0.077981 -0.002528 -0.076294 0.070905 -0.1362 -0.021728 -0.123094 0.099832 0.034697 0.155263 -0.013553 -0.135902 -0.064673 0.116065 -0.048622 -0.210925 -0.049275 0.086711 -0.009717 -0.003816 0.178711 -0.092914 -0.170189 0.018779 -0.055215 -0.145297 0.041179 0.138721 0.057468 0.041091 0.005365 0.115135 0.01779 0.068525 -0.011633 0.018509 -0.020141 0.106587 -0.118159 0.028942 0.035181 0.182344 0.073337 -0.124911 0.011314 -0.125504 -0.007116 -0.052859 -0.040021 -0.036749 -0.080962 -0.086283 -0.12496 0.085925 0.157881 -0.009772 -0.164802 -0.028382 0.077599 0.001925 0.063885 0.121283 0.082976 0.018347 -0.246429 -0.184076 -0.19077 -0.045764 -0.016816 0.010814 0.053251
-0.165286 -0.226294 0.181566 0.222138 -0.107267 0.069616 -0.266014 0.062241 0.046121 -0.008865 0.007446 -6.79E-4 0.166265 -0.023061 -0.069776 0.129101 0.191494 0.164925 0.05334 0.011047 -0.184621 0.380954 0.096094 0.163619 -0.047337 -0.247807 0.003803 0.033597 -0.057201 -0.022532 0.003934 -0.038991 -0.01964 0.123961 -0.217349 -0.097652 -0.115013 0.014326 -0.061677 -0.166156 -0.100814 0.049527 -0.039301 -0.125613 0.127864 -0.130524 -0.122132 -0.018585 -0.037042 0.12137 0.013582 -0.014255 0.065182 0.016219 0.25833 -0.287634 -0.136379 0.035926 0.115635 -0.144222 0.117324 0.001375 -0.316167 -0.035962 -0.309743 -0.196323 0.060104 -0.03866 0.008976 -0.158274 -0.079831 -0.125513 -0.162129 -0.124974 0.084003 -0.085749 -0.022599 0.070636 -0.090519 0.098861 -0.018769 0.119738 0.14117 -0.088788 0.064444 0.091709 -0.042707 -0.168889 0.185436 0.023537 -0.069687 0.010967 0.124836 0.009893 0.01769 -0.041116 0.264236 -0.16447 -0.13929 -0.115253
-0.775621 2.896209 -1.466075 1.196071 1.582273 -1.945342 2.164667 -1.537367 0.149692 -0.540531 1.634051 -0.117904 1.069026 1.032259 2.005947 0.908364 0.690493 -0.750188 0.408167 0.221601 -0.611264 1.03435 0.117117 -0.154126 0.760832 -1.907686 -0.558512 1.849415 0.879699 0.930289 0.582204 -1.041869 1.395497 1.362882 1.275509 -0.648996 -0.62833 0.748924 1.604128 -0.055145 -1.970838 -1.850431 -1.041493 -0.01537 -1.148275 -2.356454 -1.598614 -1.51216 1.059905 1.79388 -0.14134 -2.312831 0.176302 2.303942 0.640606 1.980297 1.492821 0.2377 0.032461 -1.741131 0.077857 -1.026438 -1.252247 0.137182 -0.209186 0.876417 -0.230639 -1.117474 0.535951 0.81997 -0.759856 0.473261 1.15316 -0.688956 1.352357 -0.572662 0.637077 -0.032052 -0.839338 -1.059825 1.558789 -0.392597 -0.183502 -1.457877 -3.420786 -0.945313 0.566228 0.57325 0.883191 -0.946804 -0.670215 0.400445 -1.770369 -1.056716 -1.124594 -1.428219 -0.371281 -0.422978 -0.512834 2.626051
-0.301203 -0.180955 0.131401 -0.086983 -0.01107 0.216596 -0.072054 -0.058006 -0.120492 0.066431 -0.179472 0.043339 -0.108661 -0.084388 0.087599 -0.092041 -0.227013 0.112843 -0.065873 0.091158 0.084122 -0.254265 -0.021752 0.079017 -0.228723 -0.18657 0.083038 -0.044924 0.089078 -0.152363 -0.208609 -0.007139 -0.178954 0.084552 -0.113535 -0.176374 0.162454 0.019412 -0.450216 0.170699 0.131705 -0.329477 -0.057568 -0.068778 0.126729 0.448053 0.05042 -0.046157 -0.257327 0.007159 0.101203 -0.164866 -0.151211 -0.034633 0.14867 -0.110428 -0.164543 0.15289 -0.083169 0.006548 -0.172086 -0.033655 0.051902 0.038764 -0.232184 0.013102 -0.275638 0.116234 -0.06087 0.248679 0.124844 -0.059975 0.249712 0.037696 -0.03306 0.122496 0.001512 -0.088398 -0.168453 -0.103623 -0.074716 0.099943 0.231193 0.324583 0.029944 -0.209426 -0.177487 -0.066467 -0.0744 0.114587 0.084965 -0.127718 -0.056833 0.188556 0.164115 -0.039663 0.096499 -0.134166 -0.179273 0.071217
0.0 0.0 0.0 0.0 0.0 0.0 0.0 0.0 0.0 0.0 0.0 0.0 0.0 0.0 0.0 0.0 0.0 0.0 0.0 0.0 0.0 0.0 0.0 0.0 0.0 0.0 0.0 0.0 0.0 0.0 0.0 0.0 0.0 0.0 0.0 0.0 0.0 0.0 0.0 0.0 0.0 0.0 0.0 0.0 0.0 0.0 0.0 0.0 0.0 0.0 0.0 0.0 0.0 0.0 0.0 0.0 0.0 0.0 0.0 0.0 0.0 0.0 0.0 0.0 0.0 0.0 0.0 0.0 0.0 0.0 0.0 0.0 0.0 0.0 0.0 0.0 0.0 0.0 0.0 0.0 0.0 0.0 0.0 0.0 0.0 0.0 0.0 0.0 0.0 0.0 0.0 0.0 0.0 0.0 0.0 0.0 0.0 0.0 0.0 0.0
0.201445 0.01992 0.030074 -0.128278 -0.081734 0.113903 -0.074572 -0.013898 0.076619 -0.185431 -0.098833 0.137044 0.010949 0.043736 -0.069387 0.071704 0.097369 -0.058612 0.07534 0.032832 -0.152911 -0.128084 0.002352 0.235632 -0.08023 -0.124534 0.202715 -0.120704 0.036624 0.079637 0.091483 0.131069 -0.299954 -0.03389 -0.136303 -0.172337 0.143712 0.169217 -0.070849 -0.279866 -0.092568 0.123043 -0.066993 0.165988 -0.05902 0.132458 0.012289 -0.108128 -0.01156 -0.106902 0.207723 0.200217 -0.04357 0.17931 -0.193039 0.070824 -0.162749 -0.001372 -0.008587 -0.140913 -0.034833 -0.048693 -0.052323 -0.043984 0.202465 -0.098557 0.193922 -0.060116 -0.012153 -0.141083 0.065386 0.061096 0.229353 -0.02922 0.114926 0.105134 0.117547 -0.076113 0.143376 0.024343 0.008981 -0.130118 -0.038187 -0.197469 -0.086705 0.07533 0.008948 0.173233 0.070282 -0.134316 0.121623 -0.030735 -0.062042 0.244761 -0.123634 0.046448 -0.08267 -0.006169 0.109082 -0.04913
-0.122992 -0.067052 -0.133233 -0.065179 -0.032377 -0.027208 -0.107239 -0.070206 -0.106599 0.031296 0.176857 -0.072948 0.003423 0.124246 0.249261 0.049111 0.112439 0.125585 0.249054 -0.093658 -0.084243 0.017128 0.178274 0.121996 -0.210763 -0.131807 0.060204 -0.110394 0.185718 -0.156008 0.04668 0.012216 -0.081978 0.095373 0.121869 -0.054675 -0.075877 0.062595 0.066546 0.007439 -0.018411 -0.120721 -0.131121 0.016445 -0.032003 0.15656 0.118034 -0.079305 -0.070564 0.058818 0.169456 -0.028601 -0.182166 -0.041726 0.088953 0.068298 -0.185059 0.045797 -0.01898 0.082368 0.110258 0.077241 -0.123643 -0.072808 -0.103084 0.053637 -0.077476 -0.036153 0.044671 0.021411 -0.067565 0.074431 0.094116 -0.086294 0.074674 -0.1815 0.055073 -0.025206 0.116891 -0.092467 -0.077559 -0.05106 -0.001922 -0.136831 0.069818 -0.047884 0.021736 -0.009392 0.121857 -0.005475 0.017948 -0.058848 -0.167775 -0.022812 2.4E-4 -0.108084 -0.04784 0.137384 0.027802 0.032106
-0.144816 0.018814 -0.074608 0.092561 0.068534 0.011616 -0.062639 -0.097204 -0.045997 -0.043922 0.108716 0.132584 0.044649 -0.009218 0.069396 0.090764 -0.141059 0.009624 0.095213 -0.066103 -0.098964 -0.132826 0.125907 0.03387 -0.105361 -0.051213 -0.044375 0.068496 0.153188 0.052464 -0.107548 -0.090485 -0.126479 0.108282 0.007292 0.018965 -0.098775 -0.048907 0.108661 -0.058967 0.005008 0.08473 0.097533 0.132006 -0.005722 -0.031486 0.044093 0.005787 -0.180756 0.06439 0.211046 0.0256 -0.130984 0.009175 0.01922 0.124615 -0.098624 -0.016256 0.118641 -0.13327 -0.09728 0.011212 0.0949 -0.080257 0.101393 0.09873 -0.01733 -0.070884 0.05338 0.034715 -0.06357 -0.019346 0.054273 -0.003667 -0.072028 -0.069548 -0.061882 0.132708 -0.033371 -0.049751 0.068049 -0.056834 0.079779 -0.008809 0.043281 0.04521 0.107963 0.088381 0.110916 0.107066 0.055547 0.04533 -0.103535 -0.140045 -0.182454 0.110229 -0.073401 -0.002836 0.073442 0.016575
-0.053833 0.079877 0.072856 0.139498 -0.105369 0.004769 -0.27073 -0.096518 -0.168103 -0.103006 0.202092 0.363744 -0.141267 -0.129923 0.01534 0.19683 -0.187167 0.111945 0.109179 -0.016332 0.035184 0.139347 0.315416 0.181261 -0.257633 -0.053217 -0.053058 -0.098832 0.23437 -0.331022 -0.084191 -0.075678 -0.001831 -0.110346 -0.013756 -0.266761 0.034555 -0.008762 -0.150297 0.165393 -0.060494 -0.197826 0.147763 -0.035721 0.031472 -0.210231 -0.085577 -0.109783 -0.244063 0.165008 0.054471 -0.00802 0.010601 -0.037268 0.221023 -0.133451 0.002637 -0.019477 0.129964 0.041991 -0.012534 -0.093924 -0.069187 -0.137315 -0.125857 -0.019287 -0.075852 -0.025292 0.08558 -0.045041 0.044839 -0.045932 0.096927 -0.044108 0.128249 -0.290646 -0.150284 -0.045275 0.037713 0.15651 0.143393 -0.066424 0.296246 -0.291488 0.055917 0.059085 0.065453 0.001004 0.226514 0.017525 -0.201115 -0.040421 -0.006957 -0.001567 -0.074785 -0.124046 0.079696 -0.095859 -0.218243 -0.010996
-0.108434 -0.014857 -0.076026 0.099508 0.053882 0.071264 -0.240225 -0.033913 -0.191099 0.025831 -0.047767 0.097222 0.001247 0.037138 0.0312 0.225222 -0.249337 -0.070564 0.011023 0.070364 -0.206446 0.00259 0.251236 0.008168 -0.007805 -0.020951 0.152616 0.074988 0.027309 0.005812 -0.033545 -0.029962 -0.050331 0.21006 -0.324014 -0.196786 0.016368 -0.055262 0.057726 3.65E-4 -0.073361 0.071253 0.062231 0.064509 0.037511 0.00663 0.092588 -0.092208 0.102065 -0.095828 0.057282 -0.092182 -0.066718 0.007684 0.04232 -0.309676 0.023839 -0.013772 0.117433 -0.099474 -0.232413 -0.161031 -0.022362 -0.119426 0.007651 0.150154 0.079974 0.099994 0.18001 0.010763 -0.001769 -0.022615 -0.012422 0.031203 -0.017602 -0.135708 -0.26318 -0.137589 0.076639 -0.014334 -0.128008 0.187787 0.076819 -0.292274 -0.148592 0.237201 0.02746 0.143353 0.040302 -0.024371 -0.196871 -0.029251 -0.124704 0.110499 -0.08176 -0.041541 -0.065787 0.186317 -0.003266 -0.007435
-0.150806 0.033015 0.020651 0.07807 -0.04602 0.139371 0.065951 -0.01515 0.00134 0.138772 0.11727 0.079254 0.076112 -0.151747 -0.059437 0.069623 -0.143878 -0.061829 -0.136009 -0.055019 -0.043724 0.002061 0.097188 -0.064834 0.045374 -0.059502 0.006244 0.069322 0.052952 -0.116275 -0.079295 -0.010479 -0.062894 -0.045177 -0.256153 -0.101689 0.102556 -0.01377 -0.02433 -0.06486 0.169271 0.069682 -0.057714 0.188509 -0.047926 -0.22624 -0.084072 -0.039045 -0.040767 0.061722 0.14149 -0.11156 -0.01981 -0.097266 -0.178341 -0.100894 0.010744 -0.197528 0.149666 -0.019129 -0.047742 -0.013526 -0.150864 -0.083343 -0.178845 0.007949 -0.028518 -0.024932 0.161788 -0.164102 0.062059 0.074007 -0.317287 0.005897 -0.137727 -0.095559 -0.017334 0.122627 0.095283 0.107896 0.063886 0.292853 -0.057655 -0.001415 -0.040262 0.175967 0.050371 -0.094079 0.182563 0.110999 0.010643 0.142275 0.012772 -0.089437 -0.124334 -0.22199 -0.048494 0.014579 -0.067795 -0.111585
-0.024986 -0.141159 0.159505 0.046072 -0.007338 0.072356 -0.251857 -0.02796 -0.251802 -0.14506 0.087114 0.080155 0.042083 0.180987 0.175728 0.136085 -0.071747 0.175649 -0.131933 0.23202 0.067996 0.260331 0.1311 0.153481 -0.231737 -0.069492 -0.035433 -0.111209 -0.229433 -0.053649 0.062898 -0.126743 -0.013509 -0.279371 -0.079672 -0.087776 0.015076 0.124559 -0.054651 0.023772 -0.146816 0.092184 -0.088259 -0.066547 -0.067384 -0.037226 -0.048264 -0.016837 -0.153814 0.128426 0.126429 -0.018676 -0.160735 -0.177935 0.067631 -0.197468 -0.053634 -0.203613 -0.017222 0.057609 0.024353 -0.073895 0.080537 0.18185 -0.081149 -0.004867 0.054813 -0.086306 -0.025652 0.079828 -0.013368 -0.109907 0.024734 -0.004135 -0.013162 -0.049865 -0.081311 0.228556 0.043246 0.029136 0.026836 0.127169 0.008806 -0.104319 0.036013 -0.282559 0.188552 0.142564 0.115063 0.107532 -0.114142 -0.008725 -0.029018 0.196873 0.168528 -0.182207 0.009642 0.012235 -0.025104 -0.018263
0.100443 -0.002288 0.034938 -0.186815 0.047845 -0.134586 -3.42E-4 -0.107933 -0.00524 -0.165407 0.014066 -0.159285 -0.156459 -0.045194 -0.068337 0.024477 0.088251 -5.41E-4 -0.032428 0.178116 0.139734 0.047269 -0.076826 0.023837 -0.074653 -0.124544 0.091869 -0.011716 -0.043261 0.028906 0.008873 0.074698 -0.003813 -0.114628 -0.080585 0.124316 0.070883 0.025308 -4.46E-4 0.18071 0.157161 0.044848 -0.090535 0.199093 0.13453 0.08668 0.009772 -0.04733 -0.059757 0.187956 -0.18183 -0.135105 0.189109 0.039553 0.176471 0.273561 -0.02822 0.095824 -0.019665 -0.086494 -0.001326 -0.03236 -0.063701 -0.013297 -0.081459 -0.048737 0.023655 -0.119465 0.054853 -0.035345 0.02323 0.079403 -0.057812 0.066306 0.057507 0.081397 0.029634 0.100478 0.097732 -0.154781 0.034568 0.018142 0.042918 0.136306 -0.130122 -0.133913 0.106876 0.056994 -0.038035 0.102751 -0.048596 0.047927 0.060749 0.064167 0.024012 0.024147 -0.03326 -0.196876 0.036651 0.045852
-0.001889 -0.015376 0.011577 -0.079922 0.019615 0.005975 0.018085 -0.133459 0.07886 -0.019014 -0.010821 0.041669 -0.011128 0.097962 -0.060935 0.042309 0.015014 8.49E-4 -0.002449 0.038756 0.0685 -0.030124 0.021652 -0.079703 0.075875 -0.122727 0.144977 0.073106 0.120718 -0.115022 0.047765 0.225363 -0.061747 -0.035103 0.080005 0.064342 -0.011293 0.032618 0.076202 0.118833 0.299047 0.176216 0.148892 -0.105455 -0.022399 0.118571 -0.05437 -0.136016 -0.04767 0.112361 0.012505 0.001737 0.056998 -0.132972 0.205737 0.014869 0.130993 0.242588 0.100312 0.073252 -0.019374 -0.073147 -0.042245 -0.05193 0.119558 0.067972 -0.198268 0.013905 0.103121 -0.09962 -0.010563 -0.219254 -0.117595 0.0375 -0.028297 0.03039 -0.116152 0.021365 0.041774 -0.247365 -0.187561 -0.063496 -0.088808 -0.029223 0.057963 0.069802 -0.07258 -0.052825 0.064478 0.040761 0.149345 0.085248 0.239559 0.137326 -0.140966 0.005439 0.083517 -0.02486 -0.028184 0.111642
-0.32621 0.103541 0.123867 0.079383 0.112553 -0.23526 -0.298721 -0.039888 -0.146502 8.36E-4 -0.295091 -0.213576 0.29702 0.21423 0.357011 -0.05063 0.014125 0.553443 0.39801 0.184155 -0.061676 -0.106995 -0.037229 0.262244 -0.111607 -0.102279 -0.281303 -0.547314 0.167927 0.068892 -0.346976 -0.021711 0.086614 0.023898 -0.06594 -0.025406 0.135519 0.0452 0.034726 0.196045 -0.092337 0.14802 -0.185264 0.095186 0.083694 -0.117478 0.067813 -0.120213 -0.404773 0.366478 -0.005599 0.217738 -0.540028 -0.072845 -0.222164 -0.571584 0.151241 0.06105 0.290296 -0.167978 0.18476 -0.076205 -0.077486 -0.070809 -0.257779 -0.353364 0.464617 -0.00717 0.119114 -0.214968 -0.271706 -0.010547 -0.016162 -0.075679 0.291037 -0.19173 -0.429638 -0.132872 0.587873 -0.194216 7.93E-4 0.125991 0.2543 -0.035956 -0.180613 0.118889 -0.218633 0.042421 0.112549 0.04308 -0.058218 -0.009039 -0.247565 0.154764 0.079514 -0.200545 0.034276 -0.187317 -0.192059 -0.32968
0.0 0.0 0.0 0.0 0.0 0.0 0.0 0.0 0.0 0.0 0.0 0.0 0.0 0.0 0.0 0.0 0.0 0.0 0.0 0.0 0.0 0.0 0.0 0.0 0.0 0.0 0.0 0.0 0.0 0.0 0.0 0.0 0.0 0.0 0.0 0.0 0.0 0.0 0.0 0.0 0.0 0.0 0.0 0.0 0.0 0.0 0.0 0.0 0.0 0.0 0.0 0.0 0.0 0.0 0.0 0.0 0.0 0.0 0.0 0.0 0.0 0.0 0.0 0.0 0.0 0.0 0.0 0.0 0.0 0.0 0.0 0.0 0.0 0.0 0.0 0.0 0.0 0.0 0.0 0.0 0.0 0.0 0.0 0.0 0.0 0.0 0.0 0.0 0.0 0.0 0.0 0.0 0.0 0.0 0.0 0.0 0.0 0.0 0.0 0.0
-0.061232 -0.175539 0.068167 0.078252 0.06015 0.041012 -0.08028 -0.135502 0.039867 0.279087 0.114418 0.085253 -0.107152 -0.119972 -0.085854 -0.004415 -0.213228 0.264457 -0.050855 0.037778 -0.065963 0.018975 0.144769 0.110755 0.064418 -0.113654 0.008461 0.011742 -0.015715 0.087128 0.04396 -0.099337 0.052369 0.110204 0.086685 0.099776 -0.009413 -0.094261 0.051687 0.080911 0.009893 0.066628 0.058133 -0.308457 -0.09559 -0.078986 0.117073 0.007948 -0.126513 0.035061 0.109192 -0.021008 -0.066383 0.053904 -0.02513 0.227016 -0.216231 -0.117145 0.055456 -0.075415 0.035626 0.005437 -0.166101 -0.101927 -0.020228 0.062948 0.08615 0.038341 -0.022722 0.016005 0.005802 -0.012065 0.041851 0.009544 0.131418 0.049153 -0.041383 -0.055892 0.04277 0.01581 -0.153883 0.065008 -0.130744 -0.423106 0.209176 0.129291 0.123923 0.004876 0.116119 0.058703 0.182482 -0.010209 -0.031067 0.108716 -0.0321 -0.172509 0.079675 0.208561 -0.05406 -0.126631
-0.01875 -0.285329 -0.002424 0.108049 -0.121485 0.011509 -0.309429 0.071278 0.030139 -0.09504 0.026686 -0.113073 0.095932 -0.179022 0.042966 0.129678 0.08961 0.196302 0.063608 0.023636 0.017566 0.282635 0.203737 -0.001727 -0.166336 0.016611 0.066798 0.070245 -0.044842 -0.010532 0.02894 0.068283 0.222737 -0.011348 -0.061199 -0.009894 -0.096135 0.074612 0.011411 0.061689 -0.114957 0.107116 0.054659 -0.135911 0.206663 -0.107839 -0.106604 0.14633 0.055843 0.071442 0.032643 -0.128132 0.097352 -0.140302 -0.003045 -0.183681 0.160041 -0.078107 0.0398 -0.116372 -0.065673 -0.00229 -0.127849 0.022587 0.141333 -0.050803 0.054219 -0.019527 0.040823 -0.187221 -0.087694 0.011191 -0.043953 -0.204306 0.081344 -0.016947 -0.105763 -0.100188 -0.004993 0.025402 0.12403 0.063183 0.003483 0.031502 -0.006452 0.015156 -0.143862 -0.149512 -0.053303 0.05853 -0.072347 -0.161299 0.009473 0.162584 0.023232 0.039946 -0.041596 -0.076351 -0.12545 -0.034996
-0.057618 0.072392 -0.029223 0.306452 -0.002597 0.018561 -0.265733 0.006653 -0.060201 -0.037588 0.086003 0.040441 -0.10948 -0.002245 -0.0602 0.189967 -0.029391 -0.001742 0.118749 -0.101939 -0.019855 -0.158953 0.045715 -0.048745 -0.167882 0.250365 -0.076512 -0.114853 0.045165 -0.297679 0.156025 0.035597 -0.003578 -0.054648 -0.142438 0.042692 0.095114 0.194487 0.003718 -0.107812 0.020786 0.078557 0.124211 0.016351 0.002262 -0.331349 0.129989 0.047464 -0.219996 -0.102823 -0.042198 0.109945 -0.002699 0.154312 0.103458 -0.197891 0.181764 0.014739 -0.20992 -0.181488 0.050721 0.156865 -0.05058 -0.166146 -0.228585 0.097708 0.102387 -0.027472 -0.094444 -0.107718 -0.04582 -0.039504 0.025093 -0.118076 0.001383 0.053423 0.078973 -0.109436 -0.005652 -0.051438 -0.16547 0.17584 0.21968 0.003366 -0.125928 -0.257799 0.072256 0.367932 -0.040466 -0.084774 0.024404 0.052381 -0.080701 0.092118 0.043479 -0.071342 -0.020754 0.029107 -0.181811 0.056201
0.352905 0.550922 -1.128945 -0.511125 0.774489 1.405335 -0.371647 0.106012 -0.779785 -0.640302 -0.68578 1.570717 -0.712288 -0.706705 -0.789609 -0.045278 -1.599722 -2.840112 -0.089543 -1.158838 -1.862605 -0.62748 -0.063542 -0.468696 0.750564 0.033551 -0.772222 -0.188991 -0.163115 0.455978 0.038455 -0.779588 0.172303 -1.114448 -0.548246 -0.008155 1.66721 -0.744821 -0.15746 -2.668482 -0.304702 -0.905716 0.479063 0.151803 -0.94063 -0.044338 -0.906122 -0.456182 0.281891 0.268287 0.47007 0.628019 0.328428 1.471286 -2.345457 0.072073 -0.345477 -0.998199 -1.496897 -0.053061 0.351206 -0.934426 0.295591 0.07336 0.24092 0.486976 0.390085 -0.621556 0.375246 -0.02625 1.957847 1.014101 0.004675 0.08874 -0.900479 -0.462149 0.922254 1.355385 -1.048724 0.105897 1.254466 0.410718 0.321258 1.066395 -0.171761 -0.128774 0.315556 0.697301 -0.180925 0.555334 1.005586 -0.891677 -1.232923 -1.994189 -0.567812 0.204184 -0.947385 -0.051526 -0.987029 0.725141
-0.182992 0.03586 -0.056336 0.062362 -0.02061 0.084848 -0.069744 0.048259 -0.130441 0.107117 0.12547 0.069223 0.025388 -0.028599 0.124479 -0.054081 0.001659 0.123536 0.068404 -0.042244 -0.144286 0.026601 0.044743 0.025259 -0.091731 -0.043412 0.045424 0.042799 0.076094 0.059864 -0.0994 -0.106785 -0.120413 0.100022 -0.118124 -0.015145 0.036339 -0.113676 -0.053739 -0.060093 -0.116093 -0.00477 -0.110266 -0.155853 0.055629 -0.134775 0.107836 0.024786 -0.043997 0.114538 0.005672 0.043928 -0.087453 0.043589 0.218686 0.040153 -0.119875 -0.013091 -0.022858 -0.015556 0.006437 -0.170176 0.088555 -0.062181 -0.032968 -0.032659 0.004304 0.044944 -0.026565 -0.054652 -0.192745 -0.005972 -0.023783 -0.015328 -0.067215 0.011452 0.016093 0.074464 -0.054039 -0.063397 0.030961 0.008344 0.184876 -0.133097 0.032509 -0.111289 0.087719 0.097057 0.036066 0.181031 -0.136262 -0.093261 0.043241 0.103911 0.223027 0.118811 -0.082844 0.020613 0.085095 -0.15742
-0.099779 -0.088851 -0.036921 0.088425 -0.040922 0.072369 -0.154586 0.011688 -0.007618 0.076278 0.089523 0.224786 0.062236 -0.233317 0.06423 0.133326 -0.132016 0.100983 -0.096608 0.02889 -0.116602 0.025416 0.115793 0.091144 -0.181606 0.01795 -0.140598 -0.079933 0.06915 -0.108515 0.060402 0.033142 -0.039611 0.073342 -0.337017 -0.119071 0.154116 0.004965 0.122293 -0.024123 -0.094374 0.202871 0.064663 -0.093456 -0.016288 -0.107149 -0.02292 -0.015554 -0.210102 0.17543 0.117124 -0.187922 0.003764 0.002373 0.07756 -0.167652 0.007686 -0.033869 0.020928 -0.055266 0.082302 -0.15228 0.001255 -0.170724 0.066994 0.10561 0.053247 0.006181 0.130398 -0.056247 0.049538 0.055487 0.010175 0.04748 0.065952 -0.050069 -0.103701 -0.065108 -0.023664 -0.057811 -0.024543 0.009046 0.093955 -0.110368 -0.096206 -0.04799 0.09091 0.135345 0.033909 0.149976 -0.22925 0.022657 -0.119194 0.012082 -0.17202 0.012624 0.055093 0.005004 -0.105271 -0.143153
0.047836 -0.260219 0.14638 0.007779 -0.104955 -0.050724 -0.319432 -0.027407 -0.104778 0.124311 0.14477 0.148278 -0.013076 -0.069917 0.254554 0.25292 0.091697 0.206138 0.168034 0.12307 -0.258927 -0.00695 0.102032 0.075771 -0.201948 -0.129118 -0.138297 -0.097396 0.264104 -0.141635 -0.00303 -0.004618 -0.171331 0.006413 -0.129962 -0.058793 -0.107657 -0.040955 0.117533 0.181708 -0.064138 0.225566 -0.062915 -0.035464 0.269723 -0.089994 -0.005719 -0.078063 -0.215832 0.079343 0.266575 -0.25419 -0.128297 0.038341 0.119308 -0.207662 -0.029523 0.019236 0.024436 -0.109361 0.007955 -0.078744 0.071111 -0.325345 -0.091151 0.006054 0.103893 0.156867 0.20827 -0.195221 -0.011492 -0.084134 -0.077224 -0.110934 0.098004 -0.068865 -0.108344 -0.153112 -0.094614 -0.187216 -0.01459 0.218526 0.241999 -0.141711 0.084584 0.252269 0.155438 -0.088298 0.260633 0.198838 -0.176457 -0.052125 -0.045839 0.131111 -0.115358 -0.197565 0.088973 -0.089591 0.060949 -0.086675
-0.088393 -0.146106 0.217346 0.013461 0.14206 0.112249 -0.131849 -0.026853 -0.105337 0.070846 0.068113 0.073003 0.065748 0.034382 0.150759 0.189027 0.037061 0.218421 0.012166 0.012416 0.016741 0.082563 0.134716 0.079045 0.003767 -0.080953 0.032409 0.061713 0.057373 -0.119377 -0.069885 0.007188 -0.080992 0.279457 -0.048062 -0.100737 0.082162 -0.078683 0.098924 0.003596 -0.078868 0.123608 -0.160253 0.086996 0.116536 -0.085338 0.106765 -0.109479 -0.176457 -0.012875 0.05623 -0.004932 -0.127514 -0.0154 0.026224 -0.089977 0.071541 -0.083851 0.032595 -0.005932 0.078327 0.020204 0.024084 -0.197656 0.1245 0.150092 -0.04379 -0.057668 0.095754 -0.243341 -0.053762 0.100638 0.041679 0.198625 0.140688 -0.137497 0.097823 0.115471 -0.035016 -0.122948 -0.069367 0.0144 0.026779 -0.187272 0.017289 0.060159 0.015718 -0.046635 0.208143 0.02484 0.033166 -0.104856 0.084273 0.020137 0.05623 -0.188608 0.185021 0.060612 -0.05721 0.040974
-0.024322 -0.303699 6.57E-4 0.124013 0.096642 0.042796 0.078399 -0.043308 -0.039367 -0.030939 0.02516 -0.029414 -0.115077 -0.307309 0.071962 0.11219 -0.082688 -0.069067 0.068999 0.016192 -0.028041 0.198763 -0.032337 -0.011087 0.091512 -0.048044 -0.113547 0.011122 -0.004473 -0.060547 -0.104108 -0.030799 -0.092209 0.08433 -0.070757 -0.066028 0.039562 -0.090053 0.080573 -0.071696 -0.060823 -0.075948 0.110598 0.160809 0.022521 -0.159859 -0.015239 0.115199 -0.12507 -0.04408 -0.085618 0.011849 -0.15078 -0.064003 -0.050593 0.048569 0.072066 -0.039631 0.166476 0.071693 0.031732 0.025521 -0.155724 0.012469 0.070119 0.15155 0.003252 -0.071969 0.157402 -0.06635 -0.072398 0.026004 -0.136485 0.076075 0.056589 -0.064894 -0.249087 0.124056 0.065084 -0.085369 0.043376 -0.165438 -0.007667 0.039438 -0.106483 0.116727 -0.184719 -0.086273 0.029854 -0.045885 0.074966 -0.040103 0.001017 -0.194468 0.035261 -0.224162 0.096102 -0.025166 -0.050546 -0.067245
0.032396 -0.153017 0.013261 0.047099 -0.16096 -0.002847 -0.14501 0.068005 -0.149359 0.076423 0.087914 0.08774 -0.052729 0.078781 0.117473 0.074295 0.151985 0.072683 0.119518 0.122415 -0.135198 0.247231 0.180758 0.015866 -0.113795 -0.127057 -0.071395 0.168229 0.095199 -0.336627 -0.153192 -0.143154 -0.026817 0.033279 -0.138762 -0.11222 0.10966 -0.08999 0.082217 0.118244 -0.209306 -0.145128 0.075727 0.090038 -0.029107 0.029357 -0.046449 0.077719 -0.03284 -0.077257 -0.012984 -0.045672 -0.116 -0.276832 0.093682 -0.058702 0.12833 -0.142148 0.008875 0.083015 -0.016207 -0.124211 -0.089497 -0.070414 -0.053119 -0.049462 -0.046969 0.093573 -0.213675 0.119268 -0.018275 3.93E-4 0.116123 -0.134844 0.078802 -0.103423 -0.118698 -0.023437 0.037259 0.011934 0.026229 -0.010741 0.123861 -0.243128 -0.03501 -0.001409 -0.172359 -0.035735 0.189753 0.012574 -0.164292 0.135864 0.031712 0.210915 -0.032895 0.034045 -0.017284 -0.092774 0.076027 0.134429
0.0 0.0 0.0 0.0 0.0 0.0 0.0 0.0 0.0 0.0 0.0 0.0 0.0 0.0 0.0 0.0 0.0 0.0 0.0 0.0 0.0 0.0 0.0 0.0 0.0 0.0 0.0 0.0 0.0 0.0 0.0 0.0 0.0 0.0 0.0 0.0 0.0 0.0 0.0 0.0 0.0 0.0 0.0 0.0 0.0 0.0 0.0 0.0 0.0 0.0 0.0 0.0 0.0 0.0 0.0 0.0 0.0 0.0 0.0 0.0 0.0 0.0 0.0 0.0 0.0 0.0 0.0 0.0 0.0 0.0 0.0 0.0 0.0 0.0 0.0 0.0 0.0 0.0 0.0 0.0 0.0 0.0 0.0 0.0 0.0 0.0 0.0 0.0 0.0 0.0 0.0 0.0 0.0 0.0 0.0 0.0 0.0 0.0 0.0 0.0
