0.102552 -0.16986 0.176563 -0.016792 -0.075467 -0.145314 0.02184 -0.132824 -0.014519 0.080671 0.260322 0.177028 0.152792 0.010205 0.112916 0.238972 -0.083864 0.158997 -0.115616 0.086057 -0.087761 0.150296 0.078687 -0.050504 -0.228487 0.067191 0.040371 -0.027306 -0.120541 -0.056817 0.166968 -0.160496 0.091024 0.103811 -0.107916 -0.255359 0.156895 0.162379 -0.067521 -0.034548 0.01417 0.074665 -0.12552 -0.249095 0.038275 0.085202 -0.029517 0.009402 -0.120507 0.272002 0.221301 -0.228887 0.022212 -0.032619 0.049654 -0.2589 0.014059 -0.088643 -0.03042 0.021255 0.19797 0.067486 0.099511 -0.035845 -0.180838 -0.062864 0.154229 0.087381 0.118233 0.108047 -0.009006 0.058648 0.052429 -0.030079 -0.110129 0.048083 0.023506 0.071163 -0.042314 -0.03222 0.020556 -0.061379 -0.035855 -0.101175 -0.139598 -0.12239 0.169656 0.168243 0.159593 0.234457 0.006015 -0.046646 0.066652 0.205211 -0.002982 -0.061163 -0.010577 0.127874 -0.155092 -0.131251
0.059642 -0.098205 0.05705 -0.187303 -0.020004 0.066218 -0.001554 -0.174536 -0.089627 -0.140622 -0.003348 0.096249 -0.016829 -0.025332 0.049079 0.011544 0.03483 0.04261 0.117896 -0.016701 0.118019 0.057462 -0.003204 -0.118805 0.047787 -0.197111 -0.093869 -0.128306 0.135058 -0.054057 0.1082 -0.037916 -0.205031 0.27186 0.036751 -0.068962 0.158837 0.009602 0.189106 -0.094134 -0.024768 0.017932 -0.139526 -0.132306 0.237481 -0.038005 -0.050349 -0.051768 -0.203307 0.047295 -0.048521 -0.008599 0.065315 -0.05531 0.101948 -0.043559 0.341025 -0.171161 0.301776 -0.088128 -0.131122 -0.147279 0.010676 0.027056 -0.071908 0.059097 -0.175023 0.032338 -0.076129 -0.069222 0.032989 -0.080312 -0.096638 -0.094806 0.115143 -0.164643 0.148233 -0.205948 0.034501 -0.009421 -0.219821 -0.062107 -0.154851 -0.058672 0.038778 -0.027841 -0.101166 -0.165932 0.056717 -0.025651 0.048808 -0.200585 0.127011 0.069029 0.049246 -0.037351 0.019605 0.024606 0.02733 0.136669
-0.058801 -0.11137 0.109382 0.02837 0.065109 0.042929 -0.032412 -0.003263 0.013141 0.016361 0.119405 0.060316 0.027066 -0.087833 0.144249 0.152538 -0.069613 0.159132 0.108102 -0.014652 -0.03827 0.059365 0.122497 0.030915 -0.223893 -0.087402 -0.097444 -0.018249 0.059146 -0.029525 0.036112 0.003546 -0.06084 0.092883 -0.030935 -0.095473 -0.009965 -0.042948 0.045715 0.114556 -0.049689 0.200893 -0.012875 -0.032403 0.076424 -0.056277 0.022842 0.00663 -0.175154 0.095034 0.119467 0.025132 0.020063 -0.007066 -0.056213 -0.003228 -0.059786 0.068424 0.127696 -0.137752 -0.020085 -0.079165 0.005057 -0.200203 -0.079495 0.104963 0.007274 0.062167 0.014687 -0.128764 -0.085034 -0.036003 -0.028047 -0.035131 0.058092 0.00777 -0.117488 -0.035245 -0.184708 0.00204 -0.067219 -0.044855 0.021575 -0.169924 0.014741 0.088647 -0.039934 -0.081393 0.12505 -0.114469 -0.083439 0.02422 0.042053 0.023701 -0.006158 -0.109835 0.079776 -0.073295 -0.075046 -0.010269
0.0 0.0 0.0 0.0 0.0 0.0 0.0 0.0 0.0 0.0 0.0 0.0 0.0 0.0 0.0 0.0 0.0 0.0 0.0 0.0 0.0 0.0 0.0 0.0 0.0 0.0 0.0 0.0 0.0 0.0 0.0 0.0 0.0 0.0 0.0 0.0 0.0 0.0 0.0 0.0 0.0 0.0 0.0 0.0 0.0 0.0 0.0 0.0 0.0 0.0 0.0 0.0 0.0 0.0 0.0 0.0 0.0 0.0 0.0 0.0 0.0 0.0 0.0 0.0 0.0 0.0 0.0 0.0 0.0 0.0 0.0 0.0 0.0 0.0 0.0 0.0 0.0 0.0 0.0 0.0 0.0 0.0 0.0 0.0 0.0 0.0 0.0 0.0 0.0 0.0 0.0 0.0 0.0 0.0 0.0 0.0 0.0 0.0 0.0 0.0
-0.003094 -0.167835 0.414167 0.20214 0.021192 0.110874 -0.142571 -0.037466 0.106848 0.210642 -0.104314 0.368307 -0.180382 0.077357 0.178098 0.279879 0.11783 0.088282 -0.24772 -0.115248 -0.054334 0.134777 0.26336 0.082243 -0.293855 -0.028461 3.44E-4 -0.063758 0.311569 -0.233804 0.127595 -0.011127 -0.128887 0.041042 -0.086175 -0.074408 0.088104 0.068682 0.046454 -0.047408 -0.036691 -0.110982 -0.019407 -0.186861 0.082029 -0.006638 -0.113443 -0.147593 -0.01641 0.094933 0.118614 -0.043671 0.018239 -0.413848 0.281094 0.152042 -0.042809 0.166658 -0.018005 -0.05191 -0.023496 0.119143 -0.092649 -0.042531 0.058689 -0.124429 -0.030609 0.011888 -0.002563 0.032041 0.205577 0.076755 0.032821 0.085427 -0.127106 -0.219912 -0.095765 0.089966 -0.089799 -0.123091 -0.053708 0.014194 0.133849 -0.209805 -0.029523 0.050832 -0.087862 -0.109852 0.313246 0.164122 -0.114575 0.04465 0.051932 -0.079995 -0.022854 -0.28581 -0.010104 0.221313 -0.025797 -0.064144
0.20461 -0.166756 0.038146 0.047243 0.125238 -0.073833 -0.085065 0.00104 0.019704 -0.243412 0.016709 0.0694 -0.130919 0.200043 0.217566 0.002633 0.126128 0.095798 -0.079815 0.041479 -0.029584 0.147163 0.036164 -0.031427 -0.199607 0.047198 -0.004909 0.069272 0.195524 0.001992 -0.099026 0.003667 -0.048972 -0.019635 -0.013023 0.004434 0.018591 -0.032837 0.088044 0.050994 0.076305 -0.226519 -0.011972 0.11313 0.025772 0.085519 -0.037052 0.057438 0.107295 0.049766 0.00145 0.023882 0.146907 -0.167524 0.069246 -0.25554 0.04342 0.059759 -0.152636 0.136538 -0.097229 0.048584 -0.019764 0.099383 -0.06156 0.043025 0.007856 -0.042876 -0.144602 0.086851 0.016789 0.083486 0.079693 -0.05871 -0.020907 -0.048861 0.160337 0.148756 -0.068688 -0.041918 0.109307 -0.209784 -0.055152 -0.202888 0.12491 -0.026853 0.020186 -0.041216 0.003019 -0.025021 -0.207269 0.152877 -0.034352 0.170913 -0.007669 -0.084765 -0.014427 -0.005015 0.069233 0.097403
0.102552 -0.16986 0.176563 -0.016792 -0.075467 -0.145314 0.02184 -0.132824 -0.014519 0.080671 0.260322 0.177028 0.152792 0.010205 0.112916 0.238972 -0.083864 0.158997 -0.115616 0.086057 -0.087761 0.150296 0.078687 -0.050504 -0.228487 0.067191 0.040371 -0.027306 -0.120541 -0.056817 0.166968 -0.160496 0.091024 0.103811 -0.107916 -0.255359 0.156895 0.162379 -0.067521 -0.034548 0.01417 0.074665 -0.12552 -0.249095 0.038275 0.085202 -0.029517 0.009402 -0.120507 0.272002 0.221301 -0.228887 0.022212 -0.032619 0.049654 -0.2589 0.014059 -0.088643 -0.03042 0.021255 0.19797 0.067486 0.099511 -0.035845 -0.180838 -0.062864 0.154229 0.087381 0.118233 0.108047 -0.009006 0.058648 0.052429 -0.030079 -0.110129 0.048083 0.023506 0.071163 -0.042314 -0.03222 0.020556 -0.061379 -0.035855 -0.101175 -0.139598 -0.12239 0.169656 0.168243 0.159593 0.234457 0.006015 -0.046646 0.066652 0.205211 -0.002982 -0.061163 -0.010577 0.127874 -0.155092 -0.131251
-0.103912 -0.161763 0.110233 -0.06394 -0.060555 -0.070691 -0.051906 -0.108035 0.01005 0.119804 0.029494 0.24228 0.030501 -0.017336 0.060053 0.157717 -0.076251 0.240521 0.04864 0.017184 -0.095038 0.024131 0.236163 0.205325 -0.189685 -0.127994 -0.091691 -0.028119 0.17864 -0.117633 -0.012412 0.1014 -0.127884 0.052023 -0.152829 0.047618 -0.087142 -0.063527 -0.030649 0.189702 -0.132404 0.093576 -0.077952 -0.098769 0.075552 -0.096471 -0.017402 -0.018827 -0.103518 0.068205 0.098725 -0.064748 0.066372 0.114673 -0.015252 -0.089967 0.054765 0.015325 0.070528 -0.067574 0.194624 -0.088409 0.10676 -0.132402 -0.019221 -0.065838 0.188354 0.02983 0.149226 -0.122477 0.013395 -0.021636 -0.026053 -0.078855 0.001114 -0.14304 -0.126981 0.027268 0.001902 -0.053247 0.014443 0.067298 0.082207 -0.090699 0.017356 0.017614 0.068717 0.029365 0.166693 0.078218 -0.134578 -0.073718 -0.009155 0.031499 -0.096507 -0.100292 0.080525 -0.014955 -0.03135 -4.1E-4
0.0 0.0 0.0 0.0 0.0 0.0 0.0 0.0 0.0 0.0 0.0 0.0 0.0 0.0 0.0 0.0 0.0 0.0 0.0 0.0 0.0 0.0 0.0 0.0 0.0 0.0 0.0 0.0 0.0 0.0 0.0 0.0 0.0 0.0 0.0 0.0 0.0 0.0 0.0 0.0 0.0 0.0 0.0 0.0 0.0 0.0 0.0 0.0 0.0 0.0 0.0 0.0 0.0 0.0 0.0 0.0 0.0 0.0 0.0 0.0 0.0 0.0 0.0 0.0 0.0 0.0 0.0 0.0 0.0 0.0 0.0 0.0 0.0 0.0 0.0 0.0 0.0 0.0 0.0 0.0 0.0 0.0 0.0 0.0 0.0 0.0 0.0 0.0 0.0 0.0 0.0 0.0 0.0 0.0 0.0 0.0 0.0 0.0 0.0 0.0
-0.045034 -0.171359 0.184678 0.097529 -0.021152 -0.063557 0.165518 -0.095463 0.122723 0.005338 0.032194 0.104262 0.002841 0.035373 0.176075 0.074424 -0.237605 0.094492 0.176673 -0.095809 -0.176576 -0.008606 0.199225 0.115573 -0.093062 0.066268 -0.007132 -0.06829 0.05348 -0.030247 0.067004 -0.195815 -0.057617 0.051465 0.06698 -0.241073 0.129252 -0.04287 0.039021 -0.055443 -0.141548 0.125892 -0.024648 0.095763 0.081229 -0.296273 0.118912 0.001528 -0.008892 0.100446 0.029094 -0.107701 -0.094931 -0.031189 -0.237412 0.05769 0.026742 -0.188172 -0.070202 -0.185837 -0.118722 -0.188817 0.016652 -0.233815 -0.252807 -0.12861 -0.078005 0.163661 0.153729 -0.075312 -0.061938 -0.103743 0.009898 0.023548 0.220844 -0.15455 -0.024319 -0.177401 -0.004623 0.086814 -0.116381 0.132928 0.251795 -0.119481 -0.116005 0.073754 0.077959 0.198077 0.130755 0.16859 -0.051399 -0.107858 -0.037692 0.019149 -0.238987 -0.043204 0.282933 0.054821 -0.219089 0.104743
-0.718438 -0.830038 -0.584242 2.1215 -0.644012 1.416116 -0.587713 -0.321771 0.15449 -1.337212 0.646351 2.943981 -2.520119 -0.053393 1.892255 -0.247068 0.153723 -1.774544 -1.713547 1.03615 -2.316809 -1.758234 0.596352 -1.216816 0.651834 0.378166 -0.461749 -1.113127 -1.262089 1.808952 2.079526 -0.645053 -1.036425 -0.051591 0.752853 1.877822 1.149022 -1.563167 0.088195 1.179668 0.264795 -0.643595 -1.254162 2.294433 -0.67558 -0.480528 -1.903531 -1.404449 3.451226 0.215378 -0.348073 3.059608 -0.201534 3.176656 -2.660815 -0.397857 0.658943 0.204092 -2.861443 -2.700162 -0.267356 1.597524 -0.058446 0.400235 0.112722 2.04443 -0.418444 -0.708333 -0.409393 0.970238 4.077705 1.113589 0.123738 0.071757 1.385313 -2.550826 0.377188 -1.266978 -0.033552 1.268038 1.334944 -1.192168 -2.617046 1.325431 1.537295 0.868143 0.029881 0.136091 0.48518 -1.968409 0.753802 -0.972635 0.324233 1.386425 1.801178 1.298403 -2.240443 1.965765 -0.567086 2.183566
-0.132159 0.02385 0.129178 0.154073 -0.077103 -0.109198 -0.018255 0.001214 0.085152 0.198207 0.082902 -0.086791 -0.188635 -0.128342 0.05938 0.049469 -0.136377 0.121903 0.183812 0.235488 -0.127628 0.115259 -0.022529 0.004282 -0.115868 -0.00941 -0.024936 -0.079174 0.062946 0.05311 -0.005989 0.06562 -0.123305 0.004058 0.045764 -0.097991 -0.198624 0.187965 0.067272 0.035188 0.00595 0.239438 0.042682 0.127118 0.038945 -0.17558 0.11716 0.130842 -0.119912 0.019556 0.279177 0.124764 -0.127551 0.015219 0.089567 -0.03239 -0.109471 -0.018846 0.033522 0.125643 0.010957 0.115348 0.002173 0.173103 -0.089154 0.168851 0.232874 -0.217243 0.075483 0.058402 -0.076205 -0.091643 0.009238 0.118232 0.120002 -0.106933 -0.074422 -0.065315 0.136919 0.071195 0.150092 0.029983 -0.039404 -0.010412 -0.191987 0.226078 -0.078517 -0.09412 -0.022537 -0.113314 0.003251 0.191526 -0.092971 -0.110565 0.10683 -0.066829 0.11557 -0.158869 -0.059668 -0.041988
3.322062 -0.265634 -0.735154 2.489034 -1.549194 -0.370133 -2.85541 0.499724 -0.172708 -3.397511 0.143702 0.456534 -1.93133 1.644423 -0.23368 -0.12296 0.093273 -1.427844 -0.169109 -0.509316 -0.580429 0.786699 0.175151 -1.03489 0.337075 0.36145 -0.211685 0.21299 2.950213 -1.105234 -0.113019 -0.031153 -0.080691 0.990142 -0.445701 0.665022 0.019549 -1.90728 -0.505327 0.482388 -0.184872 -4.355522 0.03715 -1.044724 2.722995 0.318193 -0.279438 -2.660588 1.186675 -0.192276 1.613599 1.060277 -0.104392 -1.269176 0.756831 2.352934 0.202164 -0.616742 -2.141583 -1.126701 -1.132055 0.456225 -0.316684 1.434659 0.315292 -3.012048 0.10395 0.289529 2.018274 -1.852321 1.148049 -0.519265 -1.203755 1.144202 1.552803 1.064291 -0.586655 -0.588132 1.197221 0.825025 -0.481297 -0.345366 -1.794823 -2.117278 -0.459074 0.815676 0.137778 1.134037 -1.061045 1.852647 -2.738344 0.285432 -1.804952 1.025348 1.028271 1.79492 -2.875999 1.219375 -2.91363 -1.359497
-0.077415 -0.126819 0.071858 0.123188 -0.225031 0.014799 -0.109631 -0.031955 -0.227687 0.286601 -0.039384 0.147818 0.056315 -0.075189 0.061937 0.14557 0.091286 0.155724 0.087683 -0.064642 -0.117821 -0.024567 0.239759 0.010436 -0.083433 -0.058766 -0.177249 -0.023206 0.226903 -0.071937 -0.108561 -0.030047 -0.238429 0.082618 -0.311801 -0.047805 0.064305 -0.065967 0.148249 -0.220607 -0.119267 0.089454 -0.049599 -0.067603 -0.023187 -0.048674 -0.1084 -0.024101 -0.04973 0.033948 0.096503 0.031028 -0.020161 0.041959 0.046843 -0.039743 0.106065 -0.068025 -0.023434 0.017851 -0.017758 -0.107664 0.024273 0.012697 0.030668 -0.116469 0.225678 -0.052251 0.244446 -0.158782 -0.00908 0.087545 0.06892 -0.030682 -0.066781 -0.060948 4.65E-4 0.194313 -0.158933 -0.030828 0.062348 0.253713 0.076942 -0.029381 0.164762 0.048843 0.045386 -0.12119 0.214945 -0.083197 0.067962 -0.116436 0.07186 0.048539 -0.068913 -0.158601 0.008968 -0.0123 -0.063812 0.082016
-0.036952 0.059844 0.032277 0.122479 -0.009368 0.067386 -0.165707 0.037911 -0.131305 0.213245 0.0961 0.063986 -0.086812 -0.004185 -0.015087 0.151001 -0.016918 0.161715 -0.028189 0.109515 -0.079754 0.195661 0.115632 0.004652 -0.061891 0.186761 -0.145751 -0.150037 0.166706 -0.003937 -0.185274 0.029928 0.179416 -0.011978 -0.077102 -0.109042 0.03898 0.03507 -0.071384 0.12435 0.017024 0.177544 0.094136 -0.158069 0.064408 -0.083377 -0.021531 -0.088856 -0.03715 -0.273772 -0.041091 8.45E-4 -0.057249 0.217569 0.234361 -0.151947 -0.02164 -0.098507 0.232256 -0.024508 0.230397 -0.086909 0.13221 -0.032076 -0.062525 -0.029103 0.136905 0.113319 0.169272 -0.082753 0.14633 -0.11493 0.139528 -0.029494 -0.063955 -0.210868 -0.170842 -0.072425 0.162718 0.054729 -0.193026 0.226406 0.063419 -0.21738 0.18842 -0.002732 0.041861 -0.046065 0.154556 -0.128259 -0.058166 -0.006692 0.191676 0.154452 -0.070845 -0.054699 0.063558 0.046523 0.065216 -0.172402
0.059642 -0.098205 0.05705 -0.187303 -0.020004 0.066218 -0.001554 -0.174536 -0.089627 -0.140622 -0.003348 0.096249 -0.016829 -0.025332 0.049079 0.011544 0.03483 0.04261 0.117896 -0.016701 0.118019 0.057462 -0.003204 -0.118805 0.047787 -0.197111 -0.093869 -0.128306 0.135058 -0.054057 0.1082 -0.037916 -0.205031 0.27186 0.036751 -0.068962 0.158837 0.009602 0.189106 -0.094134 -0.024768 0.017932 -0.139526 -0.132306 0.237481 -0.038005 -0.050349 -0.051768 -0.203307 0.047295 -0.048521 -0.008599 0.065315 -0.05531 0.101948 -0.043559 0.341025 -0.171161 0.301776 -0.088128 -0.131122 -0.147279 0.010676 0.027056 -0.071908 0.059097 -0.175023 0.032338 -0.076129 -0.069222 0.032989 -0.080312 -0.096638 -0.094806 0.115143 -0.164643 0.148233 -0.205948 0.034501 -0.009421 -0.219821 -0.062107 -0.154851 -0.058672 0.038778 -0.027841 -0.101166 -0.165932 0.056717 -0.025651 0.048808 -0.200585 0.127011 0.069029 0.049246 -0.037351 0.019605 0.024606 0.02733 0.136669
-0.718438 -0.830038 -0.584242 2.1215 -0.644012 1.416116 -0.587713 -0.321771 0.15449 -1.337212 0.646351 2.943981 -2.520119 -0.053393 1.892255 -0.247068 0.153723 -1.774544 -1.713547 1.03615 -2.316809 -1.758234 0.596352 -1.216816 0.651834 0.378166 -0.461749 -1.113127 -1.262089 1.808952 2.079526 -0.645053 -1.036425 -0.051591 0.752853 1.877822 1.149022 -1.563167 0.088195 1.179668 0.264795 -0.643595 -1.254162 2.294433 -0.67558 -0.480528 -1.903531 -1.404449 3.451226 0.215378 -0.348073 3.059608 -0.201534 3.176656 -2.660815 -0.397857 0.658943 0.204092 -2.861443 -2.700162 -0.267356 1.597524 -0.058446 0.400235 0.112722 2.04443 -0.418444 -0.708333 -0.409393 0.970238 4.077705 1.113589 0.123738 0.071757 1.385313 -2.550826 0.377188 -1.266978 -0.033552 1.268038 1.334944 -1.192168 -2.617046 1.325431 1.537295 0.868143 0.029881 0.136091 0.48518 -1.968409 0.753802 -0.972635 0.324233 1.386425 1.801178 1.298403 -2.240443 1.965765 -0.567086 2.183566
-0.103912 -0.161763 0.110233 -0.06394 -0.060555 -0.070691 -0.051906 -0.108035 0.01005 0.119804 0.029494 0.24228 0.030501 -0.017336 0.060053 0.157717 -0.076251 0.240521 0.04864 0.017184 -0.095038 0.024131 0.236163 0.205325 -0.189685 -0.127994 -0.091691 -0.028119 0.17864 -0.117633 -0.012412 0.1014 -0.127884 0.052023 -0.152829 0.047618 -0.087142 -0.063527 -0.030649 0.189702 -0.132404 0.093576 -0.077952 -0.098769 0.075552 -0.096471 -0.017402 -0.018827 -0.103518 0.068205 0.098725 -0.064748 0.066372 0.114673 -0.015252 -0.089967 0.054765 0.015325 0.070528 -0.067574 0.194624 -0.088409 0.10676 -0.132402 -0.019221 -0.065838 0.188354 0.02983 0.149226 -0.122477 0.013395 -0.021636 -0.026053 -0.078855 0.001114 -0.14304 -0.126981 0.027268 0.001902 -0.053247 0.014443 0.067298 0.082207 -0.090699 0.017356 0.017614 0.068717 0.029365 0.166693 0.078218 -0.134578 -0.073718 -0.009155 0.031499 -0.096507 -0.100292 0.080525 -0.014955 -0.03135 -4.1E-4
2.110775 0.214377 -1.694508 -2.340316 2.602146 0.869936 -0.483351 2.584187 -0.445392 0.524455 -3.477148 0.150854 -1.872952 -0.939927 2.389972 4.280438 0.765478 -3.797704 -2.155676 3.112508 0.676067 -0.774864 -1.190355 -1.91684 -0.688294 -1.361463 0.475042 -1.505714 0.311603 -0.067394 0.35747 -1.113014 0.349529 -1.028355 -1.166642 0.410035 1.69848 -2.650238 0.682073 -0.995824 1.040615 -4.611051 -1.34899 -1.156276 -0.10666 -3.045313 -0.710053 0.819696 1.147869 2.073893 4.434673 3.489056 1.784442 -0.032512 -1.299463 -1.386214 2.408625 -0.504103 -0.703006 -1.244782 -1.838963 0.22509 -1.482821 2.168308 1.13206 -0.908536 1.439721 -1.211439 -1.861292 -0.879464 0.826971 0.198323 -1.952888 2.690185 0.777734 -1.836749 -2.221488 -2.06431 2.353708 2.06527 1.418024 2.218799 -0.597436 2.018738 -1.327816 -1.290302 3.330383 -0.672981 2.532296 -0.789134 -1.456009 -1.878234 -2.354273 0.544695 1.995238 2.132198 0.931493 0.946752 0.738947 1.530971
2.591633 1.608701 -2.087245 2.00752 3.012652 4.995656 0.847355 -1.594905 -0.365708 -1.629805 -1.650237 3.712017 -0.231463 -0.537534 -2.036098 2.002639 -0.696666 -4.310136 -1.477319 -1.356504 -0.581823 -1.830239 -0.272773 -1.648095 0.090509 0.008711 0.330842 0.396714 2.341035 -0.526067 1.155793 -1.730906 -1.010387 -1.342646 -1.939355 0.734869 0.727366 0.700702 1.516974 -2.133831 -0.280653 -3.051674 0.017123 0.532043 1.478449 0.375441 0.920129 1.548929 1.087478 0.668327 0.707416 3.249232 -0.362503 1.273221 -2.929682 -0.245389 1.633444 -0.119836 0.103459 -3.445175 0.513245 0.427807 0.738792 1.448203 0.501908 0.362882 -0.731533 -0.391201 0.037778 3.053553 4.030229 1.793904 1.24136 0.081706 -1.401954 -0.638804 -0.487445 -0.267924 0.012844 0.538179 -0.241935 -0.068756 1.351665 -0.112558 0.001814 0.447262 0.833441 -0.023876 1.212707 1.514635 -0.568611 0.376173 -3.663739 -4.345135 -0.444319 2.139788 -2.53093 0.92131 -1.399435 1.763954
1.25209 0.537592 1.360256 0.37102 -4.554839 -0.010345 1.487213 1.265503 -2.9109 -2.776283 0.094445 3.431938 -0.618805 2.511029 0.151144 4.322725 -1.425707 2.51722 -1.388186 2.156646 -0.075652 -0.766063 -4.380255 0.027004 1.8963 3.270741 -1.625386 -0.178117 -5.031057 3.645674 3.45916 -1.75908 0.747451 -1.564948 -3.113564 0.019719 -1.222859 -2.032491 -1.884649 0.275456 -0.635363 -1.439062 -1.11407 -0.24509 -3.160208 2.556429 -2.875799 0.570209 -2.309874 -1.650407 -0.457718 -0.011546 -1.83022 -0.545929 -1.032941 -3.870833 0.009574 -2.517628 0.355023 -0.496013 -1.781101 -1.012441 1.622333 -0.123598 -0.138163 0.02427 -2.032633 -1.164386 0.711399 1.557732 3.879331 -1.960367 2.93458 0.700801 1.485817 0.156089 0.431468 1.08518 -1.521504 0.771356 4.714225 -4.233327 -0.129481 2.204439 -1.82151 -2.399426 1.528273 1.443153 1.449952 2.571533 -0.288152 0.365618 -2.71831 0.882481 1.49207 -1.246091 1.742274 3.086224 -0.725613 0.332399
1.939635 1.52901 1.289587 3.251535 -1.724015 -0.88548 -1.305419 2.302571 -1.417341 -1.68966 -0.63789 2.076267 -3.058223 1.539613 1.180597 0.029053 -0.321402 -2.23572 -2.38652 1.658533 -1.245721 -0.526509 -3.599429 0.754249 -0.80274 0.507379 -2.39552 1.105986 -0.056637 -0.438303 1.940801 -2.557426 0.985315 3.029874 0.213126 0.861485 3.121805 0.640059 -0.820139 -2.40745 -0.196076 -4.070904 0.803788 0.627065 2.287266 2.341116 0.489852 -1.57276 1.345608 0.42161 3.228641 4.822541 2.307207 0.997003 -2.753309 0.364194 3.286885 -0.854741 -0.545387 -4.263543 -0.321177 2.708668 -5.839749 -0.190246 1.192365 1.834868 0.85099 3.023894 0.019983 -0.356687 2.290085 -1.712409 1.283075 5.053623 2.119578 0.310527 -1.882558 -2.366862 0.130671 -0.478639 1.414622 1.526558 0.318589 2.752702 0.046978 -1.332104 0.951956 1.81757 -0.872666 2.804518 -1.758129 0.070445 -0.158419 -4.010314 -0.794193 0.288862 -0.172084 0.635215 -0.313457 -0.581935
1.379554 0.790105 1.091409 1.961768 -0.629418 1.079794 -0.371144 2.250919 0.243373 1.004804 -2.30319 2.545478 0.303532 1.17267 -2.559896 -1.339432 0.857784 -0.069362 -1.137966 -0.009695 3.234519 1.304473 -0.732405 2.493815 -1.619766 -0.550472 2.140772 2.600623 -1.63282 -1.391515 0.126867 0.455956 -2.433471 -0.293595 -2.550724 0.874756 2.306499 -1.139027 -0.390386 0.873576 -0.934745 1.55028 1.130187 -0.878327 -1.204653 0.867157 -2.872835 -0.110681 2.712442 0.327299 1.079072 0.347261 1.625174 -1.360992 -1.343378 1.348798 1.581029 1.346309 -0.043167 -0.89433 2.524234 1.578539 0.687154 -1.243466 0.312917 -2.480205 0.480975 1.88596 1.156072 -1.084821 -0.251172 0.803108 -0.291957 -3.223222 0.661791 0.091565 0.644969 4.317619 -0.225069 -2.516785 1.824034 0.693191 -1.0375 3.861773 -0.855108 -1.958358 2.399867 1.938254 -0.837741 2.351604 -1.160272 0.135296 0.582606 0.440985 -0.707847 -1.527399 1.508022 0.24022 1.471518 0.947647
0.0 0.0 0.0 0.0 0.0 0.0 0.0 0.0 0.0 0.0 0.0 0.0 0.0 0.0 0.0 0.0 0.0 0.0 0.0 0.0 0.0 0.0 0.0 0.0 0.0 0.0 0.0 0.0 0.0 0.0 0.0 0.0 0.0 0.0 0.0 0.0 0.0 0.0 0.0 0.0 0.0 0.0 0.0 0.0 0.0 0.0 0.0 0.0 0.0 0.0 0.0 0.0 0.0 0.0 0.0 0.0 0.0 0.0 0.0 0.0 0.0 0.0 0.0 0.0 0.0 0.0 0.0 0.0 0.0 0.0 0.0 0.0 0.0 0.0 0.0 0.0 0.0 0.0 0.0 0.0 0.0 0.0 0.0 0.0 0.0 0.0 0.0 0.0 0.0 0.0 0.0 0.0 0.0 0.0 0.0 0.0 0.0 0.0 0.0 0.0
0.352905 0.550922 -1.128945 -0.511125 0.774489 1.405335 -0.371647 0.106012 -0.779785 -0.640302 -0.68578 1.570717 -0.712288 -0.706705 -0.789609 -0.045278 -1.599722 -2.840112 -0.089543 -1.158838 -1.862605 -0.62748 -0.063542 -0.468696 0.750564 0.033551 -0.772222 -0.188991 -0.163115 0.455978 0.038455 -0.779588 0.172303 -1.114448 -0.548246 -0.008155 1.66721 -0.744821 -0.15746 -2.668482 -0.304702 -0.905716 0.479063 0.151803 -0.94063 -0.044338 -0.906122 -0.456182 0.281891 0.268287 0.47007 0.628019 0.328428 1.471286 -2.345457 0.072073 -0.345477 -0.998199 -1.496897 -0.053061 0.351206 -0.934426 0.295591 0.07336 0.24092 0.486976 0.390085 -0.621556 0.375246 -0.02625 1.957847 1.014101 0.004675 0.08874 -0.900479 -0.462149 0.922254 1.355385 -1.048724 0.105897 1.254466 0.410718 0.321258 1.066395 -0.171761 -0.128774 0.315556 0.697301 -0.180925 0.555334 1.005586 -0.891677 -1.232923 -1.994189 -0.567812 0.204184 -0.947385 -0.051526 -0.987029 0.725141
-0.103912 -0.161763 0.110233 -0.06394 -0.060555 -0.070691 -0.051906 -0.108035 0.01005 0.119804 0.029494 0.24228 0.030501 -0.017336 0.060053 0.157717 -0.076251 0.240521 0.04864 0.017184 -0.095038 0.024131 0.236163 0.205325 -0.189685 -0.127994 -0.091691 -0.028119 0.17864 -0.117633 -0.012412 0.1014 -0.127884 0.052023 -0.152829 0.047618 -0.087142 -0.063527 -0.030649 0.189702 -0.132404 0.093576 -0.077952 -0.098769 0.075552 -0.096471 -0.017402 -0.018827 -0.103518 0.068205 0.098725 -0.064748 0.066372 0.114673 -0.015252 -0.089967 0.054765 0.015325 0.070528 -0.067574 0.194624 -0.088409 0.10676 -0.132402 -0.019221 -0.065838 0.188354 0.02983 0.149226 -0.122477 0.013395 -0.021636 -0.026053 -0.078855 0.001114 -0.14304 -0.126981 0.027268 0.001902 -0.053247 0.014443 0.067298 0.082207 -0.090699 0.017356 0.017614 0.068717 0.029365 0.166693 0.078218 -0.134578 -0.073718 -0.009155 0.031499 -0.096507 -0.100292 0.080525 -0.014955 -0.03135 -4.1E-4
-0.10354 0.088765 0.130949 0.117487 -0.179337 -0.033233 -0.00238 -0.011116 -0.052843 0.04426 -0.111369 0.182673 0.128382 -0.008899 0.227243 0.089358 -0.019106 0.158485 0.158498 0.077521 -0.069057 0.100914 -0.011371 0.146901 -0.232996 -0.115789 -0.108879 0.102662 0.14425 -0.05369 -0.106972 0.119977 -0.101694 0.045365 -0.042632 -0.14724 -0.058688 -0.037102 -0.089165 0.178216 -0.071754 -0.041816 -0.056072 -0.023532 0.049957 -0.020041 -0.009211 -0.102589 -0.054493 -0.048714 0.135603 -0.065443 -0.116253 -0.02456 0.050665 -0.020625 -0.135852 0.035073 0.006384 -0.150697 0.117363 -0.090385 -0.035714 -0.06681 -0.026718 0.061598 -0.064203 0.087905 0.027568 0.044598 -0.049999 0.010585 0.030678 -0.051364 0.103321 -0.132458 -0.254137 0.042346 -0.062441 -0.10098 0.061327 0.043725 0.091658 -0.027659 0.027972 -3.4E-5 0.207653 -0.006262 0.123844 0.082459 -0.175598 0.008184 -0.137547 0.134641 0.090511 -0.187764 0.062411 -0.306161 0.015833 -0.015463
-0.125002 -0.066817 -0.180766 -0.059979 -0.092662 0.094897 -0.157281 0.149876 -0.054601 0.166557 -0.072196 0.088903 -0.020504 0.030954 0.011593 0.059236 -0.015654 0.027102 -0.072601 -6.44E-4 -0.078562 0.006416 0.115282 0.100459 -0.12915 0.113299 0.140987 -0.12095 -0.008716 -0.12589 0.203538 0.027711 -0.108113 0.027425 -0.207183 0.041097 0.067443 0.016476 0.109709 -0.043383 0.097247 0.087611 0.04971 0.11518 -0.029272 0.019313 0.044622 0.126768 0.085755 -0.041414 -0.035159 -0.020206 0.044492 -0.04271 0.164299 -0.173956 0.054438 -0.129314 0.01258 -0.154185 0.057271 -0.092325 0.08629 -0.193376 -0.149163 0.081389 0.135752 0.015912 3.93E-4 -0.028525 -0.160906 0.162119 0.114114 -0.051617 0.16827 -0.17756 -0.052901 0.055456 0.057253 -0.128881 0.052534 0.293794 0.215936 -0.042191 0.051492 -0.083139 -0.037911 0.10892 0.014079 0.182417 -0.069847 0.044903 -0.082355 0.156042 -0.11172 -0.100245 -0.050986 0.080645 -0.011823 0.110605
0.0 0.0 0.0 0.0 0.0 0.0 0.0 0.0 0.0 0.0 0.0 0.0 0.0 0.0 0.0 0.0 0.0 0.0 0.0 0.0 0.0 0.0 0.0 0.0 0.0 0.0 0.0 0.0 0.0 0.0 0.0 0.0 0.0 0.0 0.0 0.0 0.0 0.0 0.0 0.0 0.0 0.0 0.0 0.0 0.0 0.0 0.0 0.0 0.0 0.0 0.0 0.0 0.0 0.0 0.0 0.0 0.0 0.0 0.0 0.0 0.0 0.0 0.0 0.0 0.0 0.0 0.0 0.0 0.0 0.0 0.0 0.0 0.0 0.0 0.0 0.0 0.0 0.0 0.0 0.0 0.0 0.0 0.0 0.0 0.0 0.0 0.0 0.0 0.0 0.0 0.0 0.0 0.0 0.0 0.0 0.0 0.0 0.0 0.0 0.0
0.152732 -3.090123 -2.985273 2.591907 -0.950336 1.216059 -3.310944 1.244641 -0.887699 -1.329904 -0.070582 -0.588304 -2.282684 -1.448771 -0.322046 -0.350312 -1.527455 2.922333 0.864858 -1.314574 -0.046269 -0.264553 -1.297822 1.428307 3.54187 5.041806 -0.66987 2.353712 0.502372 0.637027 3.144169 -1.737297 -1.745287 1.093126 -2.546731 3.214225 -1.966774 2.875049 0.744619 1.250651 1.085015 -1.246357 -1.560468 -1.063055 -5.199481 -0.317703 0.410666 -0.899129 1.941621 0.37601 -2.969797 2.238695 -0.782878 -1.420851 1.16488 -2.84357 6.56557 -0.941069 5.204998 -2.207139 0.534301 -2.375232 1.356342 0.770274 -3.100297 0.528973 -0.827319 3.084889 -2.825361 -2.326455 4.467471 -2.625942 1.903513 -1.335464 -1.583931 2.391197 -0.506277 -1.660942 1.310751 0.91658 0.174102 1.231712 2.591623 -3.074739 1.841789 1.557231 -1.980873 -1.067994 -2.260208 2.450706 0.22561 0.803793 2.872474 0.418335 -2.029557 -0.985556 0.371304 1.495317 -0.874735 -1.278548
0.100692 -0.157131 0.139302 0.123578 0.151543 0.178422 -0.012679 -0.103362 0.233611 0.029945 -0.033496 -0.02353 -0.150988 -0.078962 0.230475 0.006161 -0.201667 0.084881 -0.295978 -0.216595 -0.152078 -0.096403 -0.182565 -0.034674 -0.008271 0.123985 -0.225344 0.060741 0.064737 -0.027452 -0.020276 -0.040379 -0.062847 -0.021902 -0.155636 0.098869 0.118253 -0.054786 -0.035252 0.089718 -0.093516 0.108242 -0.165133 -0.010665 -0.002421 -0.171869 -0.111112 -0.041381 -0.044332 -0.069941 -0.02046 0.052983 -0.30701 0.053758 -0.133805 0.122561 8.2E-4 0.037855 -0.034898 0.091687 -0.127096 0.09488 -0.140734 -0.009746 -0.040595 0.12427 0.130515 0.010606 0.177229 0.063676 0.149195 0.026542 -0.108012 0.401386 -0.015993 -0.159563 0.171247 0.017552 -0.091249 -0.185777 0.041517 -0.021989 -0.300138 0.0411 -0.232056 0.111526 -0.051533 0.011578 0.198834 -0.128702 0.184857 -0.029913 -0.123641 -0.092647 0.286203 -0.109599 0.093666 0.015337 -0.091583 0.060957
0.0 0.0 0.0 0.0 0.0 0.0 0.0 0.0 0.0 0.0 0.0 0.0 0.0 0.0 0.0 0.0 0.0 0.0 0.0 0.0 0.0 0.0 0.0 0.0 0.0 0.0 0.0 0.0 0.0 0.0 0.0 0.0 0.0 0.0 0.0 0.0 0.0 0.0 0.0 0.0 0.0 0.0 0.0 0.0 0.0 0.0 0.0 0.0 0.0 0.0 0.0 0.0 0.0 0.0 0.0 0.0 0.0 0.0 0.0 0.0 0.0 0.0 0.0 0.0 0.0 0.0 0.0 0.0 0.0 0.0 0.0 0.0 0.0 0.0 0.0 0.0 0.0 0.0 0.0 0.0 0.0 0.0 0.0 0.0 0.0 0.0 0.0 0.0 0.0 0.0 0.0 0.0 0.0 0.0 0.0 0.0 0.0 0.0 0.0 0.0
0.0 0.0 0.0 0.0 0.0 0.0 0.0 0.0 0.0 0.0 0.0 0.0 0.0 0.0 0.0 0.0 0.0 0.0 0.0 0.0 0.0 0.0 0.0 0.0 0.0 0.0 0.0 0.0 0.0 0.0 0.0 0.0 0.0 0.0 0.0 0.0 0.0 0.0 0.0 0.0 0.0 0.0 0.0 0.0 0.0 0.0 0.0 0.0 0.0 0.0 0.0 0.0 0.0 0.0 0.0 0.0 0.0 0.0 0.0 0.0 0.0 0.0 0.0 0.0 0.0 0.0 0.0 0.0 0.0 0.0 0.0 0.0 0.0 0.0 0.0 0.0 0.0 0.0 0.0 0.0 0.0 0.0 0.0 0.0 0.0 0.0 0.0 0.0 0.0 0.0 0.0 0.0 0.0 0.0 0.0 0.0 0.0 0.0 0.0 0.0
1.337984 -1.506936 0.903415 1.51606 -1.658579 -3.348149 -0.175298 0.745888 -1.221031 -0.867138 -0.942267 -0.913335 0.567984 -1.12843 -0.382032 2.259174 0.12488 -0.842354 -0.248917 2.326108 -0.192283 -0.980791 0.867381 1.746774 0.365697 -0.329282 -0.972246 -1.38374 -1.726568 0.016898 3.10098 -0.143616 0.749087 1.290356 1.467773 -3.971107 -1.241301 -0.935357 2.22665 1.05353 1.435542 2.60651 -4.180655 -0.380161 -0.113797 0.467312 3.320004 0.386463 -0.44767 -0.588899 0.45587 -2.092314 0.32604 0.492336 0.764656 0.082531 2.943288 -0.503225 -0.538199 -0.54409 1.291468 1.360233 -1.455559 0.749868 1.188215 -3.579086 -1.81386 0.572282 -0.142667 -0.99801 -1.422326 -2.14563 -2.939477 1.997299 -1.160473 -2.318704 -1.059435 -2.306653 -0.005632 2.555427 2.164233 2.275299 1.720594 -2.086874 -1.503689 1.5871 1.105786 -1.482343 -1.126293 -2.413963 -2.033595 1.675299 -2.782349 0.175225 -0.014574 -2.920724 0.126573 -2.672714 -1.647937 -1.455781
-0.129324 -0.198299 0.057238 -0.181258 -0.232793 0.035032 0.030889 -0.20972 -0.117195 -0.138856 -0.015965 -0.18171 -0.16922 -0.255532 0.06341 -0.101103 -0.280461 0.374181 -0.016537 -0.137853 0.087965 -0.010155 0.236054 0.333099 -0.120759 0.373696 -0.217372 0.004937 0.073614 -0.096468 -0.026307 -0.222644 0.008379 0.043524 0.026717 0.009838 0.03672 0.226812 -0.006123 0.028155 -0.312033 3.25E-4 0.220413 -0.092513 -0.043063 -0.102563 0.135412 -0.17041 -0.381551 0.065444 -0.201122 0.120327 -0.042293 -0.058807 0.015791 0.024719 0.096535 -0.226532 0.202648 0.060248 0.015782 -0.094044 0.039779 0.023835 -0.088503 -0.127842 -0.100403 0.277062 0.002729 -0.433466 0.24746 -0.021494 0.040776 -0.054716 0.119949 0.184191 -0.012879 -0.036717 0.286866 -0.068753 0.025857 0.130508 -0.10753 -0.221378 -0.044946 0.23412 -0.046802 0.063106 -0.002636 0.166299 -0.09175 0.206524 0.057648 0.092132 -0.013748 0.150357 0.0729 0.246594 0.05714 -0.286649
0.257138 -0.083817 0.036745 -0.240187 -0.089848 -0.056265 -0.032805 -0.201126 0.152807 -0.144613 0.193767 0.153645 -0.331404 -0.029517 0.181808 0.110454 0.01637 0.122145 0.115093 -0.162618 -0.019168 -0.04136 0.157152 0.233418 -0.168824 -0.148166 -0.156684 0.066451 0.310088 -0.226353 -0.017321 -0.050024 -0.243107 -0.136281 -0.05614 -0.034524 0.052138 0.144055 0.133716 0.082528 0.017743 -0.037667 0.110829 -0.070139 0.108504 0.18443 -0.117795 -0.055551 -0.16228 0.088489 -0.068362 -0.296306 -0.047603 -0.03702 0.041528 0.060355 0.02939 0.129222 0.002257 -0.089306 -0.071978 -0.198678 -0.003399 -0.263318 -0.167087 -0.004788 -0.190553 0.014485 0.204813 -0.061189 -0.076504 -0.037456 -0.266153 0.063622 0.222782 -0.042973 -0.00945 -0.215813 -0.05898 -0.047236 -0.06475 -0.026241 -0.126029 -0.069622 -0.221534 0.028825 -0.062246 0.01579 -0.029357 0.054722 0.032963 0.0737 0.097433 0.106677 -0.012093 0.233824 -0.031722 0.128775 0.101867 0.03762
-0.718438 -0.830038 -0.584242 2.1215 -0.644012 1.416116 -0.587713 -0.321771 0.15449 -1.337212 0.646351 2.943981 -2.520119 -0.053393 1.892255 -0.247068 0.153723 -1.774544 -1.713547 1.03615 -2.316809 -1.758234 0.596352 -1.216816 0.651834 0.378166 -0.461749 -1.113127 -1.262089 1.808952 2.079526 -0.645053 -1.036425 -0.051591 0.752853 1.877822 1.149022 -1.563167 0.088195 1.179668 0.264795 -0.643595 -1.254162 2.294433 -0.67558 -0.480528 -1.903531 -1.404449 3.451226 0.215378 -0.348073 3.059608 -0.201534 3.176656 -2.660815 -0.397857 0.658943 0.204092 -2.861443 -2.700162 -0.267356 1.597524 -0.058446 0.400235 0.112722 2.04443 -0.418444 -0.708333 -0.409393 0.970238 4.077705 1.113589 0.123738 0.071757 1.385313 -2.550826 0.377188 -1.266978 -0.033552 1.268038 1.334944 -1.192168 -2.617046 1.325431 1.537295 0.868143 0.029881 0.136091 0.48518 -1.968409 0.753802 -0.972635 0.324233 1.386425 1.801178 1.298403 -2.240443 1.965765 -0.567086 2.183566
-0.103912 -0.161763 0.110233 -0.06394 -0.060555 -0.070691 -0.051906 -0.108035 0.01005 0.119804 0.029494 0.24228 0.030501 -0.017336 0.060053 0.157717 -0.076251 0.240521 0.04864 0.017184 -0.095038 0.024131 0.236163 0.205325 -0.189685 -0.127994 -0.091691 -0.028119 0.17864 -0.117633 -0.012412 0.1014 -0.127884 0.052023 -0.152829 0.047618 -0.087142 -0.063527 -0.030649 0.189702 -0.132404 0.093576 -0.077952 -0.098769 0.075552 -0.096471 -0.017402 -0.018827 -0.103518 0.068205 0.098725 -0.064748 0.066372 0.114673 -0.015252 -0.089967 0.054765 0.015325 0.070528 -0.067574 0.194624 -0.088409 0.10676 -0.132402 -0.019221 -0.065838 0.188354 0.02983 0.149226 -0.122477 0.013395 -0.021636 -0.026053 -0.078855 0.001114 -0.14304 -0.126981 0.027268 0.001902 -0.053247 0.014443 0.067298 0.082207 -0.090699 0.017356 0.017614 0.068717 0.029365 0.166693 0.078218 -0.134578 -0.073718 -0.009155 0.031499 -0.096507 -0.100292 0.080525 -0.014955 -0.03135 -4.1E-4
0.059642 -0.098205 0.05705 -0.187303 -0.020004 0.066218 -0.001554 -0.174536 -0.089627 -0.140622 -0.003348 0.096249 -0.016829 -0.025332 0.049079 0.011544 0.03483 0.04261 0.117896 -0.016701 0.118019 0.057462 -0.003204 -0.118805 0.047787 -0.197111 -0.093869 -0.128306 0.135058 -0.054057 0.1082 -0.037916 -0.205031 0.27186 0.036751 -0.068962 0.158837 0.009602 0.189106 -0.094134 -0.024768 0.017932 -0.139526 -0.132306 0.237481 -0.038005 -0.050349 -0.051768 -0.203307 0.047295 -0.048521 -0.008599 0.065315 -0.05531 0.101948 -0.043559 0.341025 -0.171161 0.301776 -0.088128 -0.131122 -0.147279 0.010676 0.027056 -0.071908 0.059097 -0.175023 0.032338 -0.076129 -0.069222 0.032989 -0.080312 -0.096638 -0.094806 0.115143 -0.164643 0.148233 -0.205948 0.034501 -0.009421 -0.219821 -0.062107 -0.154851 -0.058672 0.038778 -0.027841 -0.101166 -0.165932 0.056717 -0.025651 0.048808 -0.200585 0.127011 0.069029 0.049246 -0.037351 0.019605 0.024606 0.02733 0.136669
0.105503 0.021739 0.241462 0.034075 -0.199754 -0.147383 -0.11119 -0.212281 -0.019004 0.154828 0.199631 -0.038765 0.003691 -0.093677 -0.109589 0.252272 0.014173 0.083002 -0.036554 0.070738 -0.140755 0.036084 0.266184 0.228341 -0.056592 0.014467 0.019735 -0.103182 0.174037 -0.132078 0.029271 0.064585 -0.088674 0.077037 -0.201723 0.051904 -0.039165 -0.102561 0.164171 0.054698 0.062808 -0.10154 0.060156 0.203767 0.1116 -0.202615 -0.081919 -0.024577 -0.123749 0.091103 0.109528 -0.12817 -0.074563 -0.036428 0.037914 -0.051629 -0.048777 -0.093659 -0.038063 0.062719 0.165695 -0.105963 -0.069782 -0.4418 -0.117392 -0.004622 0.020558 -0.001746 0.183554 -0.004817 -0.011093 0.040886 -0.331805 0.030132 0.065574 -0.08316 -0.066023 -0.111933 0.038278 -0.048297 -0.085577 0.080391 0.042388 -0.068805 -0.098019 -0.042892 0.189782 0.024758 0.235081 0.128277 -0.210929 0.113733 0.012805 -0.04855 -0.00314 0.001244 -0.016018 -0.077263 -0.023797 -0.062039
-0.012872 0.043581 0.036009 -0.101158 0.112257 -0.104126 -0.140885 -0.012022 -0.127286 0.042728 0.038149 0.044159 -0.050289 -0.044403 0.093035 -0.006606 0.085609 0.099091 -0.01454 0.055563 -0.01254 0.089429 0.082903 -0.026327 -0.093307 -0.140081 -0.026923 -0.142468 0.030362 -0.2451 -0.142788 0.036773 -0.064359 -0.0479 -0.04957 -0.03878 -0.272394 0.098414 0.046068 0.105427 0.105906 0.040935 0.004376 0.015278 0.119341 -0.058534 0.098493 -0.015581 -0.051329 0.116028 0.042539 -0.129276 -0.175679 -0.017219 0.043969 -0.01476 -0.036919 -0.032941 -0.02636 -0.002342 0.20193 -0.122839 0.05436 -0.039388 -0.063889 -0.125648 0.027902 0.002464 -0.012606 -0.081654 -0.133476 0.054651 0.005893 0.069253 0.035661 -0.121776 -0.043949 0.053318 0.005075 0.155967 5.04E-4 0.123414 0.178727 0.047943 0.001138 0.08007 0.072736 0.103513 -0.050915 0.058184 -0.094246 0.098803 -0.014134 0.098357 -0.041651 -0.129218 0.174633 0.024057 -0.052372 -0.077228
0.024488 0.084614 0.237176 -0.036199 -0.129218 -0.069476 -0.192271 -0.06925 -0.017498 0.082987 0.148952 -0.279927 0.057111 -0.079189 0.029201 -0.043511 -0.06009 0.136406 0.093187 -0.14397 0.020421 0.048109 0.16615 0.153025 0.037249 0.050914 -0.094401 0.032956 0.184349 -0.102581 -0.082948 0.064699 0.040778 -0.23267 -0.066676 0.221716 -0.203393 0.1021 -0.141716 0.29792 -0.204628 -0.045416 0.30696 -0.155812 0.1345 -0.206379 0.301762 0.045465 0.423856 -0.24112 -0.423179 0.150569 0.360724 -0.15979 -0.241233 -0.197008 0.371926 -0.074384 -0.128098 0.153935 0.014653 0.034382 -0.305141 -0.096696 -0.40235 -0.299292 0.15026 -0.001013 0.211764 -0.08715 0.047279 -0.110526 0.057915 -0.113064 -0.196791 -0.713443 -0.124033 0.031177 0.289644 0.324472 -0.051004 0.205272 0.234062 0.337777 -0.276393 0.331726 0.226848 -0.379719 -0.46225 -0.094221 -0.009037 0.031992 0.081557 0.041271 0.193048 -0.212756 0.271417 -0.045306 -0.365005 0.157548
0.352905 0.550922 -1.128945 -0.511125 0.774489 1.405335 -0.371647 0.106012 -0.779785 -0.640302 -0.68578 1.570717 -0.712288 -0.706705 -0.789609 -0.045278 -1.599722 -2.840112 -0.089543 -1.158838 -1.862605 -0.62748 -0.063542 -0.468696 0.750564 0.033551 -0.772222 -0.188991 -0.163115 0.455978 0.038455 -0.779588 0.172303 -1.114448 -0.548246 -0.008155 1.66721 -0.744821 -0.15746 -2.668482 -0.304702 -0.905716 0.479063 0.151803 -0.94063 -0.044338 -0.906122 -0.456182 0.281891 0.268287 0.47007 0.628019 0.328428 1.471286 -2.345457 0.072073 -0.345477 -0.998199 -1.496897 -0.053061 0.351206 -0.934426 0.295591 0.07336 0.24092 0.486976 0.390085 -0.621556 0.375246 -0.02625 1.957847 1.014101 0.004675 0.08874 -0.900479 -0.462149 0.922254 1.355385 -1.048724 0.105897 1.254466 0.410718 0.321258 1.066395 -0.171761 -0.128774 0.315556 0.697301 -0.180925 0.555334 1.005586 -0.891677 -1.232923 -1.994189 -0.567812 0.204184 -0.947385 -0.051526 -0.987029 0.725141
-0.226436 -0.019503 -0.024373 0.332823 -0.017181 -0.156863 -0.163154 0.262956 -0.06546 0.038785 0.135526 0.126136 0.444127 -0.094223 -0.007534 0.159868 -0.00334 0.331549 0.013442 0.025062 -0.080191 0.207671 0.021328 0.065675 -0.185465 -0.115755 0.25492 -0.268139 0.140239 -0.012107 -0.052682 0.148018 -0.09017 -0.093797 -0.227041 0.016355 -0.177822 0.015742 -0.129493 0.347222 0.038427 0.009973 0.056973 -0.019706 0.128428 -0.184721 0.255745 -0.009787 -0.033719 0.093223 0.178281 -0.13032 0.1653 0.050429 0.245148 -0.181553 -0.024246 0.091524 0.198617 -0.054578 0.070077 -0.026984 -0.110051 -0.165223 0.137537 0.042215 0.252192 -0.002496 -0.007274 -0.13863 -0.177391 -0.064551 0.060442 -0.183212 -0.021426 -0.081296 -0.037952 -0.060644 0.021449 0.116458 0.21834 0.271272 0.159682 -0.267321 -0.034367 -0.025491 -0.227862 0.140786 -0.004398 -0.083905 -0.201346 -0.116354 0.009912 0.035959 0.081736 -0.203275 0.235485 0.035324 -0.271386 -0.064077
-0.082019 -0.127132 -0.083723 0.024519 0.091471 -0.056799 0.127579 0.004943 0.094776 -0.013942 -0.223396 -0.092944 -0.243063 -0.009763 0.042185 -0.059513 0.075941 -0.03592 -0.275895 0.111613 0.206667 0.030792 -0.099503 -0.223086 -0.04436 0.20633 -0.075458 0.243137 -0.104718 0.070452 -0.053122 0.238578 0.054366 -0.011714 0.228154 0.029284 -0.142364 0.064137 -0.049097 0.063668 -0.122136 0.011148 0.230149 0.120982 0.05619 -0.086918 0.041635 0.066235 0.029541 0.130138 0.079679 0.011871 -0.101359 -0.107701 0.23172 0.111727 0.030916 -0.08728 0.061347 0.079539 0.177064 -0.107812 0.398222 0.064245 -0.034363 0.079728 -0.06967 -0.143573 -0.029212 -0.125063 -0.097869 -0.08951 0.080027 0.023634 0.002122 0.09068 0.031627 0.148746 0.079966 0.109053 0.04308 0.022422 -0.037086 0.103292 -0.053998 -0.215888 -0.016016 -0.045545 -0.045177 -0.06335 -0.034816 0.133274 -0.047271 0.015629 -0.075559 -0.151496 0.01458 -0.157007 0.159395 0.21074
-0.671963 -1.356401 3.602218 0.823366 -0.502176 -0.026847 2.688116 0.953721 0.412325 -0.074957 -2.563688 0.379861 -0.279054 0.512633 -0.426346 -0.669122 -2.193019 -1.985633 1.195718 -0.843091 -3.07709 -2.336138 0.676971 -1.157188 0.84245 -0.067074 1.662677 -0.902702 0.573933 0.762577 1.605777 -0.494156 -0.764054 -4.857189 1.199538 0.081996 1.582965 -1.800896 1.133021 -2.874443 -0.067305 0.527258 -0.963475 2.056148 -0.810059 -2.590427 0.192699 -0.925293 0.533123 0.50128 0.198265 1.047486 -1.15476 -0.133629 -3.660616 2.9145 0.67414 -1.747608 -1.472014 0.506851 -0.089567 -1.009712 -0.989767 -0.231732 -1.20197 -0.899847 -0.180586 -0.280434 1.214359 0.601947 3.002038 1.452004 1.898121 0.64863 -0.773459 -0.546508 1.482508 0.349815 -0.022055 1.977613 1.349274 -0.187718 2.026595 2.419264 -2.256871 -0.764584 -0.110956 2.609596 -0.511332 0.497735 1.205947 -0.553892 0.146347 -2.201324 -0.117853 -0.193777 0.312823 3.388883 -4.036498 2.412019
-0.132812 0.139556 0.048597 -0.018647 0.118408 0.00247 -0.067271 0.095907 -0.081878 -0.091832 -0.001812 0.057942 -0.014087 -0.00986 -0.069185 0.188377 -0.021068 0.076926 0.254723 -0.248385 -0.080721 -0.117294 -0.027162 0.065033 -0.143138 0.09449 -0.062873 0.012455 -0.115085 -0.011352 0.037397 0.054183 0.069252 0.06757 -0.067839 0.049231 -0.00707 0.081329 0.143743 0.05676 0.004699 0.191203 -0.07709 -0.013433 -0.090536 -0.038912 -0.08486 -0.164565 -0.080733 -0.096047 -0.094106 0.077144 0.063995 0.070608 -0.063214 -0.219161 -0.013689 0.092466 -0.155988 0.032974 -0.019331 -0.044742 -0.109981 -0.082229 0.089341 0.060836 -0.060764 0.00179 -0.039211 -0.069223 -0.037374 0.018909 -0.059089 -0.066894 0.039494 0.021798 -0.084994 -2.04E-4 -0.14342 0.063634 -0.048142 0.00607 0.012367 0.200435 -0.023967 0.015599 0.077542 -0.039174 -0.128248 -0.083469 0.005174 -0.008694 -0.008888 0.03434 -0.011309 0.126286 -0.1118 9.13E-4 0.052469 -0.078198
0.0 0.0 0.0 0.0 0.0 0.0 0.0 0.0 0.0 0.0 0.0 0.0 0.0 0.0 0.0 0.0 0.0 0.0 0.0 0.0 0.0 0.0 0.0 0.0 0.0 0.0 0.0 0.0 0.0 0.0 0.0 0.0 0.0 0.0 0.0 0.0 0.0 0.0 0.0 0.0 0.0 0.0 0.0 0.0 0.0 0.0 0.0 0.0 0.0 0.0 0.0 0.0 0.0 0.0 0.0 0.0 0.0 0.0 0.0 0.0 0.0 0.0 0.0 0.0 0.0 0.0 0.0 0.0 0.0 0.0 0.0 0.0 0.0 0.0 0.0 0.0 0.0 0.0 0.0 0.0 0.0 0.0 0.0 0.0 0.0 0.0 0.0 0.0 0.0 0.0 0.0 0.0 0.0 0.0 0.0 0.0 0.0 0.0 0.0 0.0
-0.116382 0.008247 0.024613 -0.13663 0.001992 -0.093253 -0.17682 0.014392 0.053526 0.023396 0.145636 0.103948 0.022379 -0.109761 0.108191 0.040465 -0.233729 0.148507 -0.009364 0.023943 -0.167863 0.043951 0.174394 0.106457 -0.146701 -0.110851 -0.013289 -0.057663 0.070308 -0.026199 0.081641 0.014467 -0.093595 0.046808 -0.083282 -0.046512 0.095519 0.045194 -0.038753 0.120136 -0.094404 0.055563 0.007335 0.045264 0.111965 -0.150259 -0.018484 0.002953 -0.113818 0.017109 0.136278 -0.097015 -0.042807 0.136532 0.08057 -0.104285 0.063456 0.028165 0.046423 -0.040336 0.016164 -0.161544 -0.038857 -0.066898 -0.096877 -0.080562 0.012607 -0.020747 -0.019613 -0.174975 -0.083754 -0.033758 -0.065232 -0.054122 0.074914 -0.075814 -0.06657 -0.042621 -0.077441 -0.030929 -0.082435 0.071639 4.61E-4 -0.121887 -0.108725 0.120075 0.108092 0.157262 0.135681 0.025976 -0.209578 -0.048764 -0.012788 0.249301 -0.03795 -0.099375 0.140307 0.199023 0.121499 -0.142513
-0.13172 -0.064387 0.187547 0.269027 0.0997 0.037791 0.265435 -0.163299 -0.067371 -0.057854 -0.201622 0.298427 -0.175652 0.040985 0.131176 0.272376 -0.327066 0.033884 -0.333813 -0.043222 -0.075186 -0.042533 0.325673 -0.002352 -0.253881 -0.051197 -0.10076 -0.149744 0.021446 0.113406 -0.005593 -0.091705 -0.066489 0.005828 0.056926 -0.075201 0.025938 -0.119543 -0.252955 -0.178669 0.129698 -0.005672 0.083494 0.094599 0.07002 -0.159038 0.053963 0.104521 -0.006925 -0.011267 -0.019117 0.140541 0.095092 0.055088 -0.06656 -0.105793 0.158225 -0.388111 0.013442 -0.01349 0.087245 -0.085306 0.131676 -0.119541 -0.131313 -0.007957 0.109724 0.013609 0.086142 0.034796 0.153399 -0.026773 0.007067 0.069943 -0.075814 0.139137 0.047397 0.085374 0.026543 0.064269 0.104363 -0.133058 -0.045167 0.078784 -0.057224 -0.02785 -0.004267 0.065135 0.012204 0.010218 -0.112749 0.150779 -0.194154 0.245673 0.007539 -0.17517 -0.078392 0.006326 -0.275706 -0.107179
0.185938 -0.089624 0.093234 0.147536 -0.11459 -0.129008 -0.09481 -0.008017 -0.075406 0.0206 0.119411 0.100719 -0.033793 -0.109748 0.239836 0.145497 0.032362 0.132324 -0.001636 0.056896 -0.207768 0.14385 0.103415 -0.067541 -0.08987 -0.002098 0.003064 0.060203 0.149974 -0.225837 0.178074 0.043982 0.12233 0.044586 -0.058302 0.17733 -0.198181 0.002445 -0.169354 0.158764 -0.047726 -0.005613 -0.108721 -0.188066 0.076265 -0.007771 -0.001382 -0.030905 0.0393 0.141754 0.159115 -0.006548 -0.01495 -0.030699 0.059923 0.007514 -0.081255 0.014984 -0.157812 -0.086708 0.051821 -0.228048 -0.183213 -0.164892 0.021959 -0.050445 -0.007444 -0.141708 -0.039219 -0.202261 0.013122 0.23699 -0.082318 0.070748 0.231225 0.002655 -0.105667 -0.196822 0.099719 0.039002 -0.142883 0.048344 0.164295 -0.164501 0.042459 0.006267 0.221968 0.201626 0.073428 0.235844 -0.12395 -0.056444 0.124315 0.063309 -0.00743 0.033688 0.071343 0.150496 0.072951 -0.079105
