0.12265 0.064346 -0.035767 -0.131981 -0.254046 -0.018383 -0.055587 -0.10433 -0.307608 0.188876 0.123128 0.155073 -0.054565 -0.170629 -0.153042 0.178613 0.158998 -0.129746 -0.09361 0.172725 -0.011243 0.021076 0.307526 0.087993 0.13198 0.020834 -0.070384 -0.016974 -0.15108 -0.129062 0.165461 -0.074792 -0.063073 0.024104 -0.25137 -0.19461 0.055187 -0.095484 -0.287886 0.044909 0.084435 -0.087824 -0.154994 -0.067809 0.062962 -0.293022 0.031904 0.069307 0.093386 -0.106389 0.016863 -0.132685 -0.3338 -0.274269 0.173391 -0.053247 0.055566 -0.177 0.148825 -0.13082 0.152513 -0.182134 -0.125633 -0.197569 0.043728 0.069283 -0.105015 -0.022049 0.140295 0.115797 -0.021467 0.128753 0.265591 0.019313 0.195826 0.226134 0.247457 -0.04134 -0.062141 -0.075173 -0.343441 0.060816 0.159822 -0.115261 -0.130165 -0.158183 0.102378 0.209814 -0.055852 -0.031654 0.244155 -0.039841 -0.093471 0.131378 0.047032 0.003137 0.109691 -0.044997 0.039501 0.334904
0.053006 -0.168096 -0.033695 -0.18072 -0.067829 -0.060012 -0.133528 -0.058058 -0.23922 0.202378 0.043034 0.305877 0.171413 -0.063574 -0.082778 0.062345 0.128758 0.132424 0.210688 0.103585 -0.290185 -0.071685 0.284249 -0.206321 -0.142054 -0.265305 -0.163189 -0.00141 0.156467 -0.084321 0.026172 -0.126148 -0.173668 0.123311 -0.254754 0.079962 -0.049089 -0.104128 0.061811 0.051752 -0.083199 0.153923 0.034112 -0.10305 0.107728 0.057403 0.029152 -0.099699 -0.371404 0.10064 0.01169 -0.070556 0.057277 -0.020625 0.216353 -0.07195 0.018488 -0.046077 0.099634 -0.010394 -0.055636 -0.095258 -0.106173 -0.196371 0.009926 -0.038081 0.066706 -0.098454 0.210376 -0.175339 -0.055705 0.069271 -0.119319 -0.048878 -0.051285 -0.041958 -0.184392 0.136938 -0.124742 -0.036662 -0.0599 0.095737 0.054562 -0.103857 -0.044596 0.072442 -0.00962 0.010846 0.089055 0.116769 -0.173939 -0.076193 0.147474 -0.010184 -0.102009 -0.03106 -8.43E-4 -0.040153 -0.069232 -0.20041
0.0 0.0 0.0 0.0 0.0 0.0 0.0 0.0 0.0 0.0 0.0 0.0 0.0 0.0 0.0 0.0 0.0 0.0 0.0 0.0 0.0 0.0 0.0 0.0 0.0 0.0 0.0 0.0 0.0 0.0 0.0 0.0 0.0 0.0 0.0 0.0 0.0 0.0 0.0 0.0 0.0 0.0 0.0 0.0 0.0 0.0 0.0 0.0 0.0 0.0 0.0 0.0 0.0 0.0 0.0 0.0 0.0 0.0 0.0 0.0 0.0 0.0 0.0 0.0 0.0 0.0 0.0 0.0 0.0 0.0 0.0 0.0 0.0 0.0 0.0 0.0 0.0 0.0 0.0 0.0 0.0 0.0 0.0 0.0 0.0 0.0 0.0 0.0 0.0 0.0 0.0 0.0 0.0 0.0 0.0 0.0 0.0 0.0 0.0 0.0
-0.058468 -0.015281 0.388518 -0.112254 0.257973 -0.666792 0.216037 -0.474235 -0.079601 -0.076211 0.742895 -0.036311 -0.174788 -0.172105 -0.437372 0.781185 -0.240572 -0.23828 -0.239237 -0.25718 0.180597 0.270959 0.112797 -0.105191 0.651955 0.00951 0.2046 -0.057154 0.071603 0.190734 -0.513144 -0.408035 0.099344 0.208519 0.108001 -0.479579 0.223602 -0.334312 -0.286745 -0.049971 -0.281658 -0.581434 -0.245638 0.072221 -0.09137 0.251213 0.153528 -0.203012 0.097251 0.3564 0.008349 -0.296245 -0.09131 -0.261631 -0.498832 0.009188 -0.179455 -0.024272 -0.01476 0.746936 -0.182158 -0.192373 -0.295399 -0.318093 -0.04585 -0.152723 -0.194629 0.096974 -0.20959 -0.714062 -0.129554 0.466111 -0.388937 0.279182 0.265853 -0.754537 0.263357 -0.183687 -0.148084 0.004553 -0.153561 0.565806 -0.086896 0.127972 0.441207 0.473293 0.184375 0.037129 0.577008 0.471606 -0.005804 0.156087 -0.277713 -0.017431 -0.036282 -0.06975 0.176329 0.524565 0.247611 -0.071223
-0.041152 -0.058765 0.239753 -0.07433 0.119412 -0.022946 -0.164608 -0.11906 -0.09751 0.06308 0.233486 0.052962 -0.074969 0.210551 0.133547 0.153505 -0.044234 0.109736 0.077856 0.140856 -0.021252 0.033017 0.069787 0.055207 -0.10887 -0.168747 0.091712 -0.018534 0.20433 -0.119372 0.027071 0.103849 0.020855 0.180289 0.191154 -0.137163 0.204511 -0.008304 -0.100247 0.076504 0.096807 -0.019805 0.115192 0.135553 0.152185 0.033255 0.11349 0.030371 -0.11985 0.186437 -0.036775 0.035232 0.078169 0.039443 0.201806 -0.018164 -0.008474 -0.054042 0.133953 -0.055359 0.029841 -0.021871 -0.034267 -0.101562 -0.017965 0.057546 0.021227 0.303484 0.059384 -0.315525 -0.29615 -0.082597 0.001246 0.083529 0.112149 0.014997 -0.053167 -0.0877 -0.079434 -0.0795 0.015774 0.006711 -0.011683 -0.134941 -0.018682 -0.095195 0.01551 0.072427 0.141806 0.025021 0.047396 -0.045954 0.112652 0.198619 -0.12295 -0.056053 0.135586 -0.08597 0.029818 -0.062826
0.004577 -0.077139 0.186696 0.192622 -0.122348 0.03174 -0.059208 -0.298223 -0.097779 0.049746 0.056097 0.240002 0.071719 0.068956 -0.03834 0.26472 -0.088507 0.336059 0.024975 0.081693 -0.025406 0.2262 0.20086 0.182967 -0.13429 -0.16792 0.0705 -0.047265 0.121626 -0.07506 -0.205217 -0.175597 -0.136736 0.135177 -0.017349 -0.206152 0.013709 0.103611 -0.102685 0.017773 -0.08926 0.153647 0.011442 -0.040664 -0.047171 -0.118774 -0.005246 0.044751 -0.058672 0.046157 0.080276 -0.048172 -0.03771 0.11095 0.029518 -0.070148 -0.033146 -0.008512 0.039747 -0.12649 0.006828 -0.086185 -0.00663 0.04893 -0.134276 -0.039226 0.118615 -0.071338 0.039573 0.041567 0.005918 0.051412 0.031927 -0.147693 0.180613 -0.124274 -0.281498 -0.032309 -0.057821 0.051871 0.100375 0.153059 0.088905 -0.204906 -0.017154 -0.053508 0.201842 0.070378 0.354441 -0.029274 -0.23367 0.03927 -0.015055 0.260397 -0.070372 -0.104677 0.127208 -0.056051 -0.229486 0.026219
0.12265 0.064346 -0.035767 -0.131981 -0.254046 -0.018383 -0.055587 -0.10433 -0.307608 0.188876 0.123128 0.155073 -0.054565 -0.170629 -0.153042 0.178613 0.158998 -0.129746 -0.09361 0.172725 -0.011243 0.021076 0.307526 0.087993 0.13198 0.020834 -0.070384 -0.016974 -0.15108 -0.129062 0.165461 -0.074792 -0.063073 0.024104 -0.25137 -0.19461 0.055187 -0.095484 -0.287886 0.044909 0.084435 -0.087824 -0.154994 -0.067809 0.062962 -0.293022 0.031904 0.069307 0.093386 -0.106389 0.016863 -0.132685 -0.3338 -0.274269 0.173391 -0.053247 0.055566 -0.177 0.148825 -0.13082 0.152513 -0.182134 -0.125633 -0.197569 0.043728 0.069283 -0.105015 -0.022049 0.140295 0.115797 -0.021467 0.128753 0.265591 0.019313 0.195826 0.226134 0.247457 -0.04134 -0.062141 -0.075173 -0.343441 0.060816 0.159822 -0.115261 -0.130165 -0.158183 0.102378 0.209814 -0.055852 -0.031654 0.244155 -0.039841 -0.093471 0.131378 0.047032 0.003137 0.109691 -0.044997 0.039501 0.334904
0.053006 -0.168096 -0.033695 -0.18072 -0.067829 -0.060012 -0.133528 -0.058058 -0.23922 0.202378 0.043034 0.305877 0.171413 -0.063574 -0.082778 0.062345 0.128758 0.132424 0.210688 0.103585 -0.290185 -0.071685 0.284249 -0.206321 -0.142054 -0.265305 -0.163189 -0.00141 0.156467 -0.084321 0.026172 -0.126148 -0.173668 0.123311 -0.254754 0.079962 -0.049089 -0.104128 0.061811 0.051752 -0.083199 0.153923 0.034112 -0.10305 0.107728 0.057403 0.029152 -0.099699 -0.371404 0.10064 0.01169 -0.070556 0.057277 -0.020625 0.216353 -0.07195 0.018488 -0.046077 0.099634 -0.010394 -0.055636 -0.095258 -0.106173 -0.196371 0.009926 -0.038081 0.066706 -0.098454 0.210376 -0.175339 -0.055705 0.069271 -0.119319 -0.048878 -0.051285 -0.041958 -0.184392 0.136938 -0.124742 -0.036662 -0.0599 0.095737 0.054562 -0.103857 -0.044596 0.072442 -0.00962 0.010846 0.089055 0.116769 -0.173939 -0.076193 0.147474 -0.010184 -0.102009 -0.03106 -8.43E-4 -0.040153 -0.069232 -0.20041
2.082039 0.336366 -0.935759 1.511715 -3.560424 -1.928395 -0.911915 -1.085328 -1.256373 0.828435 -1.449189 0.830347 3.442916 1.790874 -0.795908 0.249226 -1.530745 -0.635556 -1.441355 0.696001 -1.140813 2.05411 0.814944 0.836391 -1.047091 -0.889873 3.043443 -1.069069 -0.899694 0.721261 2.050779 -3.380024 0.1115 -1.253804 -2.627244 -0.738129 -1.483601 -2.160747 -3.339145 -0.071523 -1.30318 -1.329457 1.06052 0.453372 1.154068 0.100435 -2.694531 1.675936 0.774536 -0.092699 -0.812041 -0.280022 0.540321 -1.072 0.076079 2.162178 -1.843101 -3.528751 -0.2769 -0.121911 -2.462143 -1.574445 0.452342 -0.434565 0.591436 -2.196673 1.253671 -3.489306 0.254867 0.607124 4.850824 -2.454176 -1.448066 3.273839 1.188581 0.926558 2.282821 1.441728 1.200107 2.581533 1.824633 0.458611 -2.129844 0.248367 1.412666 0.895334 -0.173264 1.487316 -0.204748 2.015196 0.763463 1.086268 -4.820467 0.906443 -0.025663 1.331479 -0.281809 1.843237 -1.288186 0.45067
-0.019177 -0.097404 -0.116583 0.054131 0.028864 -0.035636 0.217422 0.021363 -0.004808 -0.295012 0.075025 0.228258 -0.165616 -0.058597 0.070096 -0.201013 -0.325881 0.014054 -0.15489 0.001719 -0.127104 0.066183 0.025705 0.063582 -0.039052 -0.055091 -0.147486 0.172683 0.206173 -0.259421 -0.118419 0.037667 0.077177 0.109097 0.030075 0.200763 -0.125865 0.029515 -0.068358 0.014155 -0.031788 0.048639 -0.006871 0.178145 0.214542 0.144934 -0.102255 -0.192247 0.119763 0.223864 -0.107884 0.15865 -0.087355 -0.037197 -0.060243 -0.145141 -0.073996 0.005901 -0.252819 0.079327 -0.036438 0.205453 -0.127721 0.030736 0.072384 -0.307078 0.047339 0.062558 -0.132716 0.206993 -8.55E-4 -0.06777 0.024465 0.046453 0.111587 -0.064194 0.005751 -0.250869 -0.107885 0.021211 0.084845 -0.044899 0.095456 -0.03368 -0.14443 0.065461 -0.093579 0.003713 -0.027607 0.002729 0.010074 0.274876 -0.06104 -0.001116 0.068835 -0.067907 -0.287966 -0.230985 0.249926 -0.052217
0.0 0.0 0.0 0.0 0.0 0.0 0.0 0.0 0.0 0.0 0.0 0.0 0.0 0.0 0.0 0.0 0.0 0.0 0.0 0.0 0.0 0.0 0.0 0.0 0.0 0.0 0.0 0.0 0.0 0.0 0.0 0.0 0.0 0.0 0.0 0.0 0.0 0.0 0.0 0.0 0.0 0.0 0.0 0.0 0.0 0.0 0.0 0.0 0.0 0.0 0.0 0.0 0.0 0.0 0.0 0.0 0.0 0.0 0.0 0.0 0.0 0.0 0.0 0.0 0.0 0.0 0.0 0.0 0.0 0.0 0.0 0.0 0.0 0.0 0.0 0.0 0.0 0.0 0.0 0.0 0.0 0.0 0.0 0.0 0.0 0.0 0.0 0.0 0.0 0.0 0.0 0.0 0.0 0.0 0.0 0.0 0.0 0.0 0.0 0.0
-0.058468 -0.015281 0.388518 -0.112254 0.257973 -0.666792 0.216037 -0.474235 -0.079601 -0.076211 0.742895 -0.036311 -0.174788 -0.172105 -0.437372 0.781185 -0.240572 -0.23828 -0.239237 -0.25718 0.180597 0.270959 0.112797 -0.105191 0.651955 0.00951 0.2046 -0.057154 0.071603 0.190734 -0.513144 -0.408035 0.099344 0.208519 0.108001 -0.479579 0.223602 -0.334312 -0.286745 -0.049971 -0.281658 -0.581434 -0.245638 0.072221 -0.09137 0.251213 0.153528 -0.203012 0.097251 0.3564 0.008349 -0.296245 -0.09131 -0.261631 -0.498832 0.009188 -0.179455 -0.024272 -0.01476 0.746936 -0.182158 -0.192373 -0.295399 -0.318093 -0.04585 -0.152723 -0.194629 0.096974 -0.20959 -0.714062 -0.129554 0.466111 -0.388937 0.279182 0.265853 -0.754537 0.263357 -0.183687 -0.148084 0.004553 -0.153561 0.565806 -0.086896 0.127972 0.441207 0.473293 0.184375 0.037129 0.577008 0.471606 -0.005804 0.156087 -0.277713 -0.017431 -0.036282 -0.06975 0.176329 0.524565 0.247611 -0.071223
-0.041152 -0.058765 0.239753 -0.07433 0.119412 -0.022946 -0.164608 -0.11906 -0.09751 0.06308 0.233486 0.052962 -0.074969 0.210551 0.133547 0.153505 -0.044234 0.109736 0.077856 0.140856 -0.021252 0.033017 0.069787 0.055207 -0.10887 -0.168747 0.091712 -0.018534 0.20433 -0.119372 0.027071 0.103849 0.020855 0.180289 0.191154 -0.137163 0.204511 -0.008304 -0.100247 0.076504 0.096807 -0.019805 0.115192 0.135553 0.152185 0.033255 0.11349 0.030371 -0.11985 0.186437 -0.036775 0.035232 0.078169 0.039443 0.201806 -0.018164 -0.008474 -0.054042 0.133953 -0.055359 0.029841 -0.021871 -0.034267 -0.101562 -0.017965 0.057546 0.021227 0.303484 0.059384 -0.315525 -0.29615 -0.082597 0.001246 0.083529 0.112149 0.014997 -0.053167 -0.0877 -0.079434 -0.0795 0.015774 0.006711 -0.011683 -0.134941 -0.018682 -0.095195 0.01551 0.072427 0.141806 0.025021 0.047396 -0.045954 0.112652 0.198619 -0.12295 -0.056053 0.135586 -0.08597 0.029818 -0.062826
0.004577 -0.077139 0.186696 0.192622 -0.122348 0.03174 -0.059208 -0.298223 -0.097779 0.049746 0.056097 0.240002 0.071719 0.068956 -0.03834 0.26472 -0.088507 0.336059 0.024975 0.081693 -0.025406 0.2262 0.20086 0.182967 -0.13429 -0.16792 0.0705 -0.047265 0.121626 -0.07506 -0.205217 -0.175597 -0.136736 0.135177 -0.017349 -0.206152 0.013709 0.103611 -0.102685 0.017773 -0.08926 0.153647 0.011442 -0.040664 -0.047171 -0.118774 -0.005246 0.044751 -0.058672 0.046157 0.080276 -0.048172 -0.03771 0.11095 0.029518 -0.070148 -0.033146 -0.008512 0.039747 -0.12649 0.006828 -0.086185 -0.00663 0.04893 -0.134276 -0.039226 0.118615 -0.071338 0.039573 0.041567 0.005918 0.051412 0.031927 -0.147693 0.180613 -0.124274 -0.281498 -0.032309 -0.057821 0.051871 0.100375 0.153059 0.088905 -0.204906 -0.017154 -0.053508 0.201842 0.070378 0.354441 -0.029274 -0.23367 0.03927 -0.015055 0.260397 -0.070372 -0.104677 0.127208 -0.056051 -0.229486 0.026219
0.12265 0.064346 -0.035767 -0.131981 -0.254046 -0.018383 -0.055587 -0.10433 -0.307608 0.188876 0.123128 0.155073 -0.054565 -0.170629 -0.153042 0.178613 0.158998 -0.129746 -0.09361 0.172725 -0.011243 0.021076 0.307526 0.087993 0.13198 0.020834 -0.070384 -0.016974 -0.15108 -0.129062 0.165461 -0.074792 -0.063073 0.024104 -0.25137 -0.19461 0.055187 -0.095484 -0.287886 0.044909 0.084435 -0.087824 -0.154994 -0.067809 0.062962 -0.293022 0.031904 0.069307 0.093386 -0.106389 0.016863 -0.132685 -0.3338 -0.274269 0.173391 -0.053247 0.055566 -0.177 0.148825 -0.13082 0.152513 -0.182134 -0.125633 -0.197569 0.043728 0.069283 -0.105015 -0.022049 0.140295 0.115797 -0.021467 0.128753 0.265591 0.019313 0.195826 0.226134 0.247457 -0.04134 -0.062141 -0.075173 -0.343441 0.060816 0.159822 -0.115261 -0.130165 -0.158183 0.102378 0.209814 -0.055852 -0.031654 0.244155 -0.039841 -0.093471 0.131378 0.047032 0.003137 0.109691 -0.044997 0.039501 0.334904
0.0 0.0 0.0 0.0 0.0 0.0 0.0 0.0 0.0 0.0 0.0 0.0 0.0 0.0 0.0 0.0 0.0 0.0 0.0 0.0 0.0 0.0 0.0 0.0 0.0 0.0 0.0 0.0 0.0 0.0 0.0 0.0 0.0 0.0 0.0 0.0 0.0 0.0 0.0 0.0 0.0 0.0 0.0 0.0 0.0 0.0 0.0 0.0 0.0 0.0 0.0 0.0 0.0 0.0 0.0 0.0 0.0 0.0 0.0 0.0 0.0 0.0 0.0 0.0 0.0 0.0 0.0 0.0 0.0 0.0 0.0 0.0 0.0 0.0 0.0 0.0 0.0 0.0 0.0 0.0 0.0 0.0 0.0 0.0 0.0 0.0 0.0 0.0 0.0 0.0 0.0 0.0 0.0 0.0 0.0 0.0 0.0 0.0 0.0 0.0
2.082039 0.336366 -0.935759 1.511715 -3.560424 -1.928395 -0.911915 -1.085328 -1.256373 0.828435 -1.449189 0.830347 3.442916 1.790874 -0.795908 0.249226 -1.530745 -0.635556 -1.441355 0.696001 -1.140813 2.05411 0.814944 0.836391 -1.047091 -0.889873 3.043443 -1.069069 -0.899694 0.721261 2.050779 -3.380024 0.1115 -1.253804 -2.627244 -0.738129 -1.483601 -2.160747 -3.339145 -0.071523 -1.30318 -1.329457 1.06052 0.453372 1.154068 0.100435 -2.694531 1.675936 0.774536 -0.092699 -0.812041 -0.280022 0.540321 -1.072 0.076079 2.162178 -1.843101 -3.528751 -0.2769 -0.121911 -2.462143 -1.574445 0.452342 -0.434565 0.591436 -2.196673 1.253671 -3.489306 0.254867 0.607124 4.850824 -2.454176 -1.448066 3.273839 1.188581 0.926558 2.282821 1.441728 1.200107 2.581533 1.824633 0.458611 -2.129844 0.248367 1.412666 0.895334 -0.173264 1.487316 -0.204748 2.015196 0.763463 1.086268 -4.820467 0.906443 -0.025663 1.331479 -0.281809 1.843237 -1.288186 0.45067
-0.019177 -0.097404 -0.116583 0.054131 0.028864 -0.035636 0.217422 0.021363 -0.004808 -0.295012 0.075025 0.228258 -0.165616 -0.058597 0.070096 -0.201013 -0.325881 0.014054 -0.15489 0.001719 -0.127104 0.066183 0.025705 0.063582 -0.039052 -0.055091 -0.147486 0.172683 0.206173 -0.259421 -0.118419 0.037667 0.077177 0.109097 0.030075 0.200763 -0.125865 0.029515 -0.068358 0.014155 -0.031788 0.048639 -0.006871 0.178145 0.214542 0.144934 -0.102255 -0.192247 0.119763 0.223864 -0.107884 0.15865 -0.087355 -0.037197 -0.060243 -0.145141 -0.073996 0.005901 -0.252819 0.079327 -0.036438 0.205453 -0.127721 0.030736 0.072384 -0.307078 0.047339 0.062558 -0.132716 0.206993 -8.55E-4 -0.06777 0.024465 0.046453 0.111587 -0.064194 0.005751 -0.250869 -0.107885 0.021211 0.084845 -0.044899 0.095456 -0.03368 -0.14443 0.065461 -0.093579 0.003713 -0.027607 0.002729 0.010074 0.274876 -0.06104 -0.001116 0.068835 -0.067907 -0.287966 -0.230985 0.249926 -0.052217
0.004577 -0.077139 0.186696 0.192622 -0.122348 0.03174 -0.059208 -0.298223 -0.097779 0.049746 0.056097 0.240002 0.071719 0.068956 -0.03834 0.26472 -0.088507 0.336059 0.024975 0.081693 -0.025406 0.2262 0.20086 0.182967 -0.13429 -0.16792 0.0705 -0.047265 0.121626 -0.07506 -0.205217 -0.175597 -0.136736 0.135177 -0.017349 -0.206152 0.013709 0.103611 -0.102685 0.017773 -0.08926 0.153647 0.011442 -0.040664 -0.047171 -0.118774 -0.005246 0.044751 -0.058672 0.046157 0.080276 -0.048172 -0.03771 0.11095 0.029518 -0.070148 -0.033146 -0.008512 0.039747 -0.12649 0.006828 -0.086185 -0.00663 0.04893 -0.134276 -0.039226 0.118615 -0.071338 0.039573 0.041567 0.005918 0.051412 0.031927 -0.147693 0.180613 -0.124274 -0.281498 -0.032309 -0.057821 0.051871 0.100375 0.153059 0.088905 -0.204906 -0.017154 -0.053508 0.201842 0.070378 0.354441 -0.029274 -0.23367 0.03927 -0.015055 0.260397 -0.070372 -0.104677 0.127208 -0.056051 -0.229486 0.026219
-0.277739 -0.059347 0.137329 -0.03935 -0.064718 -0.05851 0.098095 -0.075149 0.00907 0.196207 -0.179196 0.003769 0.06929 -0.185219 0.139204 0.056394 -0.081099 0.032072 0.090598 0.168324 -0.018566 0.109392 0.218963 0.128783 -0.12328 -0.10068 -0.035719 0.069264 0.163747 -0.0973 0.192931 0.037744 -0.132497 0.256337 -0.045069 0.014592 0.151373 -0.107072 -0.026624 -0.060285 0.018678 -0.12695 0.005471 0.05883 -0.022053 -0.079421 -0.013538 0.098957 -0.00722 0.076418 0.098316 -0.303016 -0.006426 -0.287455 0.071708 -0.024519 -0.211579 0.191875 -0.017298 -0.197633 0.042238 0.072301 -0.139769 -0.026097 -0.139662 -0.055477 -0.210464 0.008734 0.04299 0.083086 -0.146373 -0.02036 0.062742 0.223547 -0.16467 -0.026947 0.07182 0.058859 -0.162493 -0.066211 -0.034179 0.036256 0.13637 -0.019026 -0.036702 0.013528 -0.090869 -0.032693 0.230803 -0.11527 -0.152103 0.073974 0.100722 -0.012207 -0.065365 -0.195215 -0.024586 0.092076 -0.08282 0.148063
0.11752 0.081551 0.0936 0.08641 0.60707 -0.011842 -0.073599 -0.251984 0.248365 0.653659 -0.003695 0.275106 -0.33423 -0.459989 0.141284 0.276046 -0.662139 -0.26481 -0.171247 0.022711 -0.104172 -0.244387 0.316483 -0.077394 0.200551 0.064381 -0.255965 -0.055724 0.137597 0.095021 0.300985 0.087278 0.083496 -0.099994 0.047376 -6.58E-4 0.231717 -0.144593 0.054355 0.098774 0.285151 0.195694 -0.239271 -0.102359 0.024488 0.037606 -0.083783 -0.024512 0.162409 0.139432 0.054816 0.120929 -0.096705 0.215098 -0.069708 0.332749 0.196493 -0.068991 0.212432 -0.126032 0.375845 -0.065417 0.419379 -0.001067 0.224906 0.134951 0.204443 -0.094004 -0.009093 -0.06843 0.056679 0.060346 -0.492317 0.281791 -0.068231 0.099062 -0.236304 0.029767 0.217691 -0.043024 0.162971 0.09031 -0.388005 0.059224 -0.187857 0.231207 0.059115 -0.303454 -0.341425 0.123083 0.237167 0.244613 -0.216184 -0.237312 -0.198601 0.158972 -0.014881 -0.125342 -0.395068 -0.115908
-0.019303 -0.002529 -0.008422 0.115266 0.028528 0.037318 -0.171611 -0.119728 0.08063 0.123641 0.205162 0.12071 0.033668 -0.050189 0.029205 0.160692 0.102192 0.160543 0.019279 -0.006701 -0.046097 0.22825 0.183039 -0.002247 -0.195626 -0.026982 -0.115158 0.044293 0.015434 -0.147153 -0.05616 -0.040167 -0.025384 0.009314 -0.123721 -0.240182 0.052266 0.018256 0.061974 0.057055 0.214691 0.236485 0.001764 -0.022228 0.117568 0.037046 0.018025 -0.122168 -0.073133 -0.028363 0.068127 0.029865 0.107291 0.044675 0.143504 -0.03141 0.003965 0.039915 -0.03263 -0.097703 0.064074 -0.166368 -0.173704 -0.022724 -0.099146 -0.117954 0.187166 0.031134 -0.034354 -0.038352 -0.109104 -0.274885 0.059596 -0.048928 0.006633 -0.076135 0.007098 -0.031185 -0.109211 0.02168 0.12185 0.082277 0.034144 0.007481 -0.037421 0.062545 -0.068271 -0.06697 0.030207 0.002634 -0.10734 -0.058583 -0.021734 0.131197 0.062131 -0.189168 0.135714 -0.272799 -0.004568 0.012972
0.065534 0.046807 0.004718 0.006575 -0.17262 -0.016133 -0.11694 -0.032674 -0.1723 0.091591 0.164441 0.235029 0.073674 -0.050289 0.150403 0.255221 -0.067563 0.110551 0.224734 -0.068787 -0.050185 0.019506 0.18163 0.085757 -0.246375 -0.033742 -0.208608 -0.07845 0.272441 -0.121661 -0.005783 -0.060672 -0.057296 0.070972 -0.102097 -0.018693 0.086189 0.035527 0.096308 0.097408 -0.061945 0.103081 0.012428 0.032582 0.035541 -0.041302 0.106648 0.071616 -0.209286 0.077511 0.098745 -0.176626 -0.110845 0.031777 -0.010964 0.012253 -0.101204 0.006664 0.058171 -0.153363 -4.46E-4 -0.053622 0.05937 -0.126747 -0.069682 0.024579 -0.008299 -0.041523 0.166291 -0.048394 0.065666 0.031498 0.132851 0.003023 0.031751 0.089179 -0.141352 -0.032376 0.005045 0.011135 -0.002929 0.011544 0.109307 -0.151454 0.082171 0.0597 0.02255 0.021266 0.117846 0.012241 -0.125507 0.041449 -0.05501 -0.017835 -0.037996 -0.073288 0.147908 -0.026482 0.189208 0.044703
-0.056914 -0.217986 0.089741 -0.202397 -0.111876 3.58E-4 0.103781 -0.078983 -0.099879 0.03409 0.115647 -0.083219 0.256699 0.026267 -0.111952 0.097758 0.004936 0.113418 0.025651 -0.017128 -0.105235 -0.11542 0.271633 0.177784 -0.248305 -0.234808 0.002026 -0.153928 0.140914 -0.155503 0.235502 -0.105196 -0.070666 -0.039014 -0.132116 0.003968 -0.030979 -0.191948 0.123079 0.086435 -0.09775 -0.039066 0.045015 0.073815 -0.033826 -0.005732 -0.035222 -0.192003 -0.080778 0.134891 0.20254 -0.040938 -0.007388 0.037378 -0.093975 -0.057653 0.130649 -0.005688 0.003766 0.071896 0.209541 -0.105452 0.018233 -0.043691 -0.105979 -0.022797 0.053277 -0.036101 0.080818 -0.043414 0.018528 0.04212 -0.047058 -0.165309 -0.022808 0.045116 -0.228238 0.047629 -0.110446 -0.106899 0.031418 0.093544 0.152496 -0.22961 -0.013462 0.057347 -0.079868 0.055385 0.208318 0.035764 -0.17485 -0.098348 0.087533 -0.033752 -0.078916 -0.125425 0.02397 -0.084893 0.164204 -0.189526
-0.007763 -0.109188 0.278409 0.119829 -0.067153 -0.08603 -0.222703 -0.182382 -0.144492 -0.099879 0.085341 0.015071 0.049866 -0.054711 0.06822 0.173224 0.106407 0.07766 -0.013947 -0.051647 -0.00121 0.298699 0.368101 -0.037383 -0.159781 -0.049299 0.138262 -0.108681 0.01788 0.107281 0.088882 -0.10975 -0.047594 0.01799 -0.022512 0.036873 -0.080373 -0.01419 -0.092172 -0.157767 -0.073227 -0.10393 -0.178492 0.10285 0.178285 -0.132431 -0.16237 0.255955 -0.181398 -0.040534 0.231258 0.107917 -0.123446 -0.003937 0.060167 0.00537 -0.019334 -0.076297 0.046489 -0.017293 0.182395 0.099376 0.035104 -0.017737 -0.07257 -0.004534 -0.024835 -0.056625 -0.010804 -0.043156 -0.081713 0.020931 0.161661 -0.287125 0.049382 -0.27916 -0.10673 0.054005 -0.037037 -0.053853 0.150926 0.300493 0.014644 -0.060477 -0.164708 -0.006547 0.063078 0.063492 0.079087 -0.113515 0.065018 0.218767 -0.099791 0.151255 -0.067728 -0.193784 -0.072906 -0.153712 -0.174443 0.19298
-0.019303 -0.002529 -0.008422 0.115266 0.028528 0.037318 -0.171611 -0.119728 0.08063 0.123641 0.205162 0.12071 0.033668 -0.050189 0.029205 0.160692 0.102192 0.160543 0.019279 -0.006701 -0.046097 0.22825 0.183039 -0.002247 -0.195626 -0.026982 -0.115158 0.044293 0.015434 -0.147153 -0.05616 -0.040167 -0.025384 0.009314 -0.123721 -0.240182 0.052266 0.018256 0.061974 0.057055 0.214691 0.236485 0.001764 -0.022228 0.117568 0.037046 0.018025 -0.122168 -0.073133 -0.028363 0.068127 0.029865 0.107291 0.044675 0.143504 -0.03141 0.003965 0.039915 -0.03263 -0.097703 0.064074 -0.166368 -0.173704 -0.022724 -0.099146 -0.117954 0.187166 0.031134 -0.034354 -0.038352 -0.109104 -0.274885 0.059596 -0.048928 0.006633 -0.076135 0.007098 -0.031185 -0.109211 0.02168 0.12185 0.082277 0.034144 0.007481 -0.037421 0.062545 -0.068271 -0.06697 0.030207 0.002634 -0.10734 -0.058583 -0.021734 0.131197 0.062131 -0.189168 0.135714 -0.272799 -0.004568 0.012972
-0.102475 -0.176919 0.105237 0.11294 -0.073212 -0.034704 -0.188207 0.054076 -0.037555 0.048291 0.229268 0.11953 0.068716 -0.076954 0.275749 0.193481 -0.046738 0.170045 0.170127 -0.04128 0.001809 0.125967 0.234985 -0.032746 -0.104664 -0.074964 -0.313187 -0.15772 0.185603 -0.099471 -0.008559 -0.107614 0.070048 0.033646 -0.065505 -0.082929 0.024843 -0.049576 0.109652 0.243173 0.031123 0.143106 0.199734 0.110903 -0.025095 -0.045323 0.004392 0.24078 -0.236667 0.201063 0.115296 -0.160747 0.0669 -0.014261 0.072853 -0.022645 -0.08504 -0.02079 0.131363 0.007169 0.052551 -0.018639 -0.096126 -0.016244 -0.050808 -0.064019 0.247518 0.021089 0.315127 -0.019336 -0.172203 0.158651 -0.094229 -0.006029 -0.152979 -0.103418 -0.008261 -0.02888 0.001066 0.112743 -0.124039 0.114396 0.133399 -0.065641 -0.064006 0.035396 -0.131697 0.052016 0.217442 -0.093005 -0.054753 0.242718 0.018341 0.405817 -0.116968 -0.170877 -0.00699 -0.03071 -0.111831 -0.089401
0.0 0.0 0.0 0.0 0.0 0.0 0.0 0.0 0.0 0.0 0.0 0.0 0.0 0.0 0.0 0.0 0.0 0.0 0.0 0.0 0.0 0.0 0.0 0.0 0.0 0.0 0.0 0.0 0.0 0.0 0.0 0.0 0.0 0.0 0.0 0.0 0.0 0.0 0.0 0.0 0.0 0.0 0.0 0.0 0.0 0.0 0.0 0.0 0.0 0.0 0.0 0.0 0.0 0.0 0.0 0.0 0.0 0.0 0.0 0.0 0.0 0.0 0.0 0.0 0.0 0.0 0.0 0.0 0.0 0.0 0.0 0.0 0.0 0.0 0.0 0.0 0.0 0.0 0.0 0.0 0.0 0.0 0.0 0.0 0.0 0.0 0.0 0.0 0.0 0.0 0.0 0.0 0.0 0.0 0.0 0.0 0.0 0.0 0.0 0.0
0.123314 0.024232 0.067758 -0.019176 0.04035 0.102721 0.022867 0.004876 -0.130388 -0.025998 -0.111174 -0.099004 0.08676 0.050864 -0.09914 -0.024014 -0.171609 -0.023554 -0.121212 -0.180475 0.179989 0.036153 -0.154862 -0.046345 0.094379 -0.14447 -0.041587 -0.048431 -0.136792 0.120946 0.186365 -0.07131 -0.07154 -0.104935 0.223496 -0.046738 -0.060067 -0.130754 -0.062099 -0.018454 0.144663 0.005022 0.142013 0.055336 -0.079464 0.134955 -0.01171 0.012333 -0.042385 0.102204 0.067493 0.045559 0.08181 -0.037308 -0.105499 0.04795 0.127704 0.287375 0.072091 0.04644 0.063593 0.228401 -0.07889 -0.03959 0.122115 0.054482 0.084107 0.013265 0.011559 -0.014696 0.109437 0.025601 -0.204002 0.310683 0.003437 0.019704 0.139319 0.086808 -0.081497 -0.018019 -0.014725 -0.169411 -0.017058 0.108817 -0.009525 -0.201578 -0.092985 0.072472 0.005488 0.045185 0.12776 0.042456 -0.19091 0.059921 -0.111423 0.013748 -0.096482 0.111096 0.034894 -0.026429
0.048641 -0.048904 -0.052028 0.040326 -0.01953 0.07227 -0.225733 -0.046058 -0.092473 -0.00595 0.05768 0.023525 -0.030774 0.021165 0.087826 0.222476 -0.020419 0.07715 0.095969 0.023468 -0.032765 0.167672 0.0731 0.012218 -0.116884 -0.008011 -0.148303 0.138317 0.051145 -0.19949 -0.112662 -0.032864 -0.040966 0.112232 -0.026968 -0.026969 0.053304 -0.06558 -0.036088 0.013998 -0.124834 -0.026905 -0.04019 -0.024457 0.065401 -0.037182 -0.041806 -0.009138 -0.044295 -0.043913 -0.0283 -0.076608 -0.088993 0.246511 0.03223 -0.068305 -0.039718 -0.062783 -0.088534 -0.026121 0.040711 -0.037212 0.043106 -0.029609 0.011388 0.177724 0.096599 -0.043965 0.020229 -0.051067 0.021334 -0.032811 0.145669 -0.136425 0.019435 -0.148494 -0.095391 -0.080402 0.174929 -0.105428 -0.014982 0.029902 0.096101 -0.016547 -0.018786 0.052479 0.137423 0.03564 0.078262 0.057416 0.023979 0.097028 0.075148 0.028269 -0.152987 -0.096916 0.009752 -0.058592 0.016126 -0.005683
0.12265 0.064346 -0.035767 -0.131981 -0.254046 -0.018383 -0.055587 -0.10433 -0.307608 0.188876 0.123128 0.155073 -0.054565 -0.170629 -0.153042 0.178613 0.158998 -0.129746 -0.09361 0.172725 -0.011243 0.021076 0.307526 0.087993 0.13198 0.020834 -0.070384 -0.016974 -0.15108 -0.129062 0.165461 -0.074792 -0.063073 0.024104 -0.25137 -0.19461 0.055187 -0.095484 -0.287886 0.044909 0.084435 -0.087824 -0.154994 -0.067809 0.062962 -0.293022 0.031904 0.069307 0.093386 -0.106389 0.016863 -0.132685 -0.3338 -0.274269 0.173391 -0.053247 0.055566 -0.177 0.148825 -0.13082 0.152513 -0.182134 -0.125633 -0.197569 0.043728 0.069283 -0.105015 -0.022049 0.140295 0.115797 -0.021467 0.128753 0.265591 0.019313 0.195826 0.226134 0.247457 -0.04134 -0.062141 -0.075173 -0.343441 0.060816 0.159822 -0.115261 -0.130165 -0.158183 0.102378 0.209814 -0.055852 -0.031654 0.244155 -0.039841 -0.093471 0.131378 0.047032 0.003137 0.109691 -0.044997 0.039501 0.334904
2.082039 0.336366 -0.935759 1.511715 -3.560424 -1.928395 -0.911915 -1.085328 -1.256373 0.828435 -1.449189 0.830347 3.442916 1.790874 -0.795908 0.249226 -1.530745 -0.635556 -1.441355 0.696001 -1.140813 2.05411 0.814944 0.836391 -1.047091 -0.889873 3.043443 -1.069069 -0.899694 0.721261 2.050779 -3.380024 0.1115 -1.253804 -2.627244 -0.738129 -1.483601 -2.160747 -3.339145 -0.071523 -1.30318 -1.329457 1.06052 0.453372 1.154068 0.100435 -2.694531 1.675936 0.774536 -0.092699 -0.812041 -0.280022 0.540321 -1.072 0.076079 2.162178 -1.843101 -3.528751 -0.2769 -0.121911 -2.462143 -1.574445 0.452342 -0.434565 0.591436 -2.196673 1.253671 -3.489306 0.254867 0.607124 4.850824 -2.454176 -1.448066 3.273839 1.188581 0.926558 2.282821 1.441728 1.200107 2.581533 1.824633 0.458611 -2.129844 0.248367 1.412666 0.895334 -0.173264 1.487316 -0.204748 2.015196 0.763463 1.086268 -4.820467 0.906443 -0.025663 1.331479 -0.281809 1.843237 -1.288186 0.45067
-0.019177 -0.097404 -0.116583 0.054131 0.028864 -0.035636 0.217422 0.021363 -0.004808 -0.295012 0.075025 0.228258 -0.165616 -0.058597 0.070096 -0.201013 -0.325881 0.014054 -0.15489 0.001719 -0.127104 0.066183 0.025705 0.063582 -0.039052 -0.055091 -0.147486 0.172683 0.206173 -0.259421 -0.118419 0.037667 0.077177 0.109097 0.030075 0.200763 -0.125865 0.029515 -0.068358 0.014155 -0.031788 0.048639 -0.006871 0.178145 0.214542 0.144934 -0.102255 -0.192247 0.119763 0.223864 -0.107884 0.15865 -0.087355 -0.037197 -0.060243 -0.145141 -0.073996 0.005901 -0.252819 0.079327 -0.036438 0.205453 -0.127721 0.030736 0.072384 -0.307078 0.047339 0.062558 -0.132716 0.206993 -8.55E-4 -0.06777 0.024465 0.046453 0.111587 -0.064194 0.005751 -0.250869 -0.107885 0.021211 0.084845 -0.044899 0.095456 -0.03368 -0.14443 0.065461 -0.093579 0.003713 -0.027607 0.002729 0.010074 0.274876 -0.06104 -0.001116 0.068835 -0.067907 -0.287966 -0.230985 0.249926 -0.052217
0.004577 -0.077139 0.186696 0.192622 -0.122348 0.03174 -0.059208 -0.298223 -0.097779 0.049746 0.056097 0.240002 0.071719 0.068956 -0.03834 0.26472 -0.088507 0.336059 0.024975 0.081693 -0.025406 0.2262 0.20086 0.182967 -0.13429 -0.16792 0.0705 -0.047265 0.121626 -0.07506 -0.205217 -0.175597 -0.136736 0.135177 -0.017349 -0.206152 0.013709 0.103611 -0.102685 0.017773 -0.08926 0.153647 0.011442 -0.040664 -0.047171 -0.118774 -0.005246 0.044751 -0.058672 0.046157 0.080276 -0.048172 -0.03771 0.11095 0.029518 -0.070148 -0.033146 -0.008512 0.039747 -0.12649 0.006828 -0.086185 -0.00663 0.04893 -0.134276 -0.039226 0.118615 -0.071338 0.039573 0.041567 0.005918 0.051412 0.031927 -0.147693 0.180613 -0.124274 -0.281498 -0.032309 -0.057821 0.051871 0.100375 0.153059 0.088905 -0.204906 -0.017154 -0.053508 0.201842 0.070378 0.354441 -0.029274 -0.23367 0.03927 -0.015055 0.260397 -0.070372 -0.104677 0.127208 -0.056051 -0.229486 0.026219
-0.671963 -1.356401 3.602218 0.823366 -0.502176 -0.026847 2.688116 0.953721 0.412325 -0.074957 -2.563688 0.379861 -0.279054 0.512633 -0.426346 -0.669122 -2.193019 -1.985633 1.195718 -0.843091 -3.07709 -2.336138 0.676971 -1.157188 0.84245 -0.067074 1.662677 -0.902702 0.573933 0.762577 1.605777 -0.494156 -0.764054 -4.857189 1.199538 0.081996 1.582965 -1.800896 1.133021 -2.874443 -0.067305 0.527258 -0.963475 2.056148 -0.810059 -2.590427 0.192699 -0.925293 0.533123 0.50128 0.198265 1.047486 -1.15476 -0.133629 -3.660616 2.9145 0.67414 -1.747608 -1.472014 0.506851 -0.089567 -1.009712 -0.989767 -0.231732 -1.20197 -0.899847 -0.180586 -0.280434 1.214359 0.601947 3.002038 1.452004 1.898121 0.64863 -0.773459 -0.546508 1.482508 0.349815 -0.022055 1.977613 1.349274 -0.187718 2.026595 2.419264 -2.256871 -0.764584 -0.110956 2.609596 -0.511332 0.497735 1.205947 -0.553892 0.146347 -2.201324 -0.117853 -0.193777 0.312823 3.388883 -4.036498 2.412019
0.115683 -0.161491 0.089347 -0.047625 -0.058345 0.02617 -0.034146 0.014423 -0.024135 0.171234 0.088478 0.029582 0.012706 -0.183313 -0.058293 -0.057251 0.188823 0.005452 0.134691 0.079315 -0.020006 0.066078 0.005033 0.13984 -0.111965 -0.206444 0.103515 -0.155672 0.093647 -0.10035 -0.165396 -0.073737 -0.121377 -0.007344 -0.024579 -0.113854 0.125673 -7.19E-4 -0.012865 -0.002797 -0.065121 0.173711 0.018683 -0.097723 -0.109378 -0.100256 -0.115151 0.182842 -0.087488 0.084969 0.127792 -0.067866 -0.110329 0.087548 -4.0E-6 0.030446 0.017211 0.19935 0.275686 -0.132125 0.127558 -0.132777 -0.018337 -0.057541 0.107782 -0.074203 0.069082 -0.047437 0.035111 -0.006139 0.073847 -0.111299 -0.072353 -0.057739 -0.002042 -0.079449 0.154318 -0.003491 -0.002905 -0.111874 -0.069697 0.030692 0.024201 -0.027529 -0.019946 0.064733 -0.032952 -0.030066 0.073001 -0.021831 0.066618 -0.019804 0.05954 0.159122 -0.152756 -0.253882 -0.022978 -0.057542 0.065885 0.005061
-0.277739 -0.059347 0.137329 -0.03935 -0.064718 -0.05851 0.098095 -0.075149 0.00907 0.196207 -0.179196 0.003769 0.06929 -0.185219 0.139204 0.056394 -0.081099 0.032072 0.090598 0.168324 -0.018566 0.109392 0.218963 0.128783 -0.12328 -0.10068 -0.035719 0.069264 0.163747 -0.0973 0.192931 0.037744 -0.132497 0.256337 -0.045069 0.014592 0.151373 -0.107072 -0.026624 -0.060285 0.018678 -0.12695 0.005471 0.05883 -0.022053 -0.079421 -0.013538 0.098957 -0.00722 0.076418 0.098316 -0.303016 -0.006426 -0.287455 0.071708 -0.024519 -0.211579 0.191875 -0.017298 -0.197633 0.042238 0.072301 -0.139769 -0.026097 -0.139662 -0.055477 -0.210464 0.008734 0.04299 0.083086 -0.146373 -0.02036 0.062742 0.223547 -0.16467 -0.026947 0.07182 0.058859 -0.162493 -0.066211 -0.034179 0.036256 0.13637 -0.019026 -0.036702 0.013528 -0.090869 -0.032693 0.230803 -0.11527 -0.152103 0.073974 0.100722 -0.012207 -0.065365 -0.195215 -0.024586 0.092076 -0.08282 0.148063
-0.131787 -0.026376 0.074756 0.236766 -0.205021 0.037166 -0.10558 0.127017 -0.226295 0.34444 0.172221 0.206928 0.100501 -0.070937 0.253263 0.140038 0.26463 0.254118 0.169868 0.137409 -0.180084 0.253076 0.193081 -0.189315 -0.273098 -0.215789 0.064498 0.292873 0.197056 0.022337 0.027775 -0.005699 -0.061314 -0.057462 -0.156563 -0.090421 0.11108 -0.080372 0.030996 -0.005217 0.045221 0.111371 0.032353 0.06419 0.083419 -0.120287 -0.028776 0.069201 0.003733 0.117751 0.162616 -0.130539 -0.143339 -0.019004 0.162065 -0.047123 -0.002847 0.177616 0.231592 0.111395 0.090261 -0.211806 0.072159 -0.07332 0.002793 -0.05961 0.313101 -0.08255 0.049613 -0.116635 0.006849 0.166628 -0.16624 0.07574 0.100831 0.100855 -0.152379 -0.179827 0.069336 0.150511 0.069542 0.069294 0.069619 0.003598 0.020098 -0.027998 -0.059459 0.121813 0.052609 0.186609 -0.076702 0.001553 0.003487 0.177863 0.126681 0.031427 -0.038373 -0.142221 -0.085332 -0.046465
