-0.15119 0.029231 0.113819 0.022789 0.103529 0.029982 -0.107413 -0.068456 -0.084574 0.255278 0.07368 0.063624 -0.057769 -0.218655 0.191807 -0.020884 -0.171931 0.223536 0.129041 -0.197876 -0.147159 -0.105697 0.11622 0.033816 -0.124264 -0.019392 0.201171 -0.024275 0.099057 -0.001956 -0.030223 0.037166 -0.122596 0.200103 -0.142545 -0.014885 0.03743 -0.008979 0.150713 0.068587 -0.247206 0.198905 0.021133 0.151966 -0.044018 0.121799 0.203235 -0.051573 -0.115418 -0.013449 0.279552 0.023744 0.084969 0.175343 0.027861 -0.047532 -0.090382 -0.173595 -0.262534 -0.203223 0.04428 -0.044548 0.052449 -0.102014 -0.168989 -0.044815 0.087397 0.044308 -0.006479 -0.052367 -0.027139 0.059217 0.022693 0.129692 -0.041375 0.047181 -0.020739 -0.074036 -0.06131 -0.010947 -0.082347 0.04622 -0.081711 -0.232125 -0.085404 0.06695 0.03474 0.101492 0.101212 0.074938 -0.201393 -0.190655 -0.033076 -0.255706 0.046354 -0.293883 -0.019535 -0.021182 -0.00236 -0.177563
-0.151939 -0.216303 -0.037155 0.111318 -0.082544 0.156912 -0.120151 -0.028911 -0.098118 -0.028018 0.235381 0.082576 -0.081495 0.154177 0.014114 0.190296 0.103159 0.057692 0.143719 0.067991 -0.114985 -0.02182 0.182226 0.11849 0.011297 -0.108619 -0.072458 0.065231 0.195338 -0.108502 -0.035958 0.065354 -0.21518 0.069874 -0.036319 -0.187006 0.011828 -0.118826 0.036692 -0.058718 0.028465 -0.093708 0.187633 0.084403 -0.034937 -0.206809 0.079558 0.019842 -0.085444 -0.006552 -0.097544 -0.148362 -0.099248 0.057277 0.08706 -0.021998 -0.053895 0.085388 0.097941 -0.101847 0.103221 -0.033714 -0.101355 -0.011671 -0.025493 -0.022722 -0.179533 0.027989 0.001749 0.053087 -0.074861 -0.10856 0.105617 0.143523 -0.039909 -0.060923 -0.120108 0.056985 0.079958 -0.069029 -0.072152 0.185276 0.019487 -0.068546 -0.073094 0.044787 0.073343 0.019405 0.111441 -0.009642 -0.00222 -0.137597 -0.048132 0.286756 -0.102263 -0.087974 0.144787 -0.098846 -0.136554 0.071124
-0.119886 0.018038 0.088341 -0.192531 -0.007839 -0.191551 -0.049201 -0.077993 -0.009436 0.056604 0.022064 0.014024 -0.076106 0.043074 -0.029777 0.26187 0.13792 0.048375 0.235948 0.029407 0.255177 0.162587 0.282755 0.068286 -0.135957 -0.357582 0.331978 0.113793 -0.06249 -0.166094 -0.091196 0.234003 -0.043877 0.311428 -0.290681 -0.041479 0.005246 -0.028499 0.169602 0.11279 -0.150496 -0.078436 0.054497 0.020927 0.018538 -0.06811 0.162641 0.054896 -0.244785 0.12064 0.1 -0.096354 -0.210573 -0.212309 -0.221394 0.039462 0.027408 0.080947 -0.133917 -0.313884 0.152278 -0.161789 -0.091718 -0.020925 0.060148 0.016944 -0.054029 -0.080848 0.230477 -0.137278 -0.130832 0.163527 0.059103 0.103077 0.050866 -0.117876 -0.145093 0.009019 -0.119052 -0.123935 -0.055496 0.156526 0.090289 -0.052536 0.127965 -0.307416 0.057055 0.044047 0.121472 -0.057427 0.152554 0.150868 -0.016013 0.088791 -0.018376 -0.352823 0.176887 0.10863 0.020034 -0.186576
0.0 0.0 0.0 0.0 0.0 0.0 0.0 0.0 0.0 0.0 0.0 0.0 0.0 0.0 0.0 0.0 0.0 0.0 0.0 0.0 0.0 0.0 0.0 0.0 0.0 0.0 0.0 0.0 0.0 0.0 0.0 0.0 0.0 0.0 0.0 0.0 0.0 0.0 0.0 0.0 0.0 0.0 0.0 0.0 0.0 0.0 0.0 0.0 0.0 0.0 0.0 0.0 0.0 0.0 0.0 0.0 0.0 0.0 0.0 0.0 0.0 0.0 0.0 0.0 0.0 0.0 0.0 0.0 0.0 0.0 0.0 0.0 0.0 0.0 0.0 0.0 0.0 0.0 0.0 0.0 0.0 0.0 0.0 0.0 0.0 0.0 0.0 0.0 0.0 0.0 0.0 0.0 0.0 0.0 0.0 0.0 0.0 0.0 0.0 0.0
-0.151939 -0.216303 -0.037155 0.111318 -0.082544 0.156912 -0.120151 -0.028911 -0.098118 -0.028018 0.235381 0.082576 -0.081495 0.154177 0.014114 0.190296 0.103159 0.057692 0.143719 0.067991 -0.114985 -0.02182 0.182226 0.11849 0.011297 -0.108619 -0.072458 0.065231 0.195338 -0.108502 -0.035958 0.065354 -0.21518 0.069874 -0.036319 -0.187006 0.011828 -0.118826 0.036692 -0.058718 0.028465 -0.093708 0.187633 0.084403 -0.034937 -0.206809 0.079558 0.019842 -0.085444 -0.006552 -0.097544 -0.148362 -0.099248 0.057277 0.08706 -0.021998 -0.053895 0.085388 0.097941 -0.101847 0.103221 -0.033714 -0.101355 -0.011671 -0.025493 -0.022722 -0.179533 0.027989 0.001749 0.053087 -0.074861 -0.10856 0.105617 0.143523 -0.039909 -0.060923 -0.120108 0.056985 0.079958 -0.069029 -0.072152 0.185276 0.019487 -0.068546 -0.073094 0.044787 0.073343 0.019405 0.111441 -0.009642 -0.00222 -0.137597 -0.048132 0.286756 -0.102263 -0.087974 0.144787 -0.098846 -0.136554 0.071124
-0.125002 -0.066817 -0.180766 -0.059979 -0.092662 0.094897 -0.157281 0.149876 -0.054601 0.166557 -0.072196 0.088903 -0.020504 0.030954 0.011593 0.059236 -0.015654 0.027102 -0.072601 -6.44E-4 -0.078562 0.006416 0.115282 0.100459 -0.12915 0.113299 0.140987 -0.12095 -0.008716 -0.12589 0.203538 0.027711 -0.108113 0.027425 -0.207183 0.041097 0.067443 0.016476 0.109709 -0.043383 0.097247 0.087611 0.04971 0.11518 -0.029272 0.019313 0.044622 0.126768 0.085755 -0.041414 -0.035159 -0.020206 0.044492 -0.04271 0.164299 -0.173956 0.054438 -0.129314 0.01258 -0.154185 0.057271 -0.092325 0.08629 -0.193376 -0.149163 0.081389 0.135752 0.015912 3.93E-4 -0.028525 -0.160906 0.162119 0.114114 -0.051617 0.16827 -0.17756 -0.052901 0.055456 0.057253 -0.128881 0.052534 0.293794 0.215936 -0.042191 0.051492 -0.083139 -0.037911 0.10892 0.014079 0.182417 -0.069847 0.044903 -0.082355 0.156042 -0.11172 -0.100245 -0.050986 0.080645 -0.011823 0.110605
-0.152438 -0.628154 -0.243475 0.301513 -0.089271 0.074747 -0.043922 0.179589 -0.293697 0.356325 0.318878 0.235156 0.152774 0.253818 -0.089443 0.237523 0.352747 0.384809 0.337301 0.491545 -0.177608 -0.048567 0.214402 -0.181297 0.201658 -0.561092 -0.050093 0.091368 0.246238 -0.36206 -0.140286 0.186958 0.05064 -0.056937 -0.177969 -0.254249 -0.350696 -0.104088 0.227345 -0.303521 -0.392617 0.451992 0.145379 0.272567 0.31754 -0.022661 -0.442745 0.057647 -0.093824 -0.022231 -0.257604 -0.062552 -0.08717 -0.178301 0.08135 -0.020634 0.330497 0.138713 0.185053 -0.210621 0.211312 -0.419576 -0.07428 0.108588 0.001447 0.076656 0.275694 0.180637 -0.009269 -0.361067 0.188428 -0.235858 -0.343024 -0.128312 -0.186501 -0.058683 -0.123138 -0.118315 -0.061425 0.011827 -0.334119 -0.020826 0.176148 0.232685 -0.142045 -0.119951 -0.182247 -0.411436 -0.127811 0.271722 -0.13395 0.35195 -0.465949 0.110964 0.167954 0.496951 0.295781 -0.077511 -0.093507 -0.018347
0.0 0.0 0.0 0.0 0.0 0.0 0.0 0.0 0.0 0.0 0.0 0.0 0.0 0.0 0.0 0.0 0.0 0.0 0.0 0.0 0.0 0.0 0.0 0.0 0.0 0.0 0.0 0.0 0.0 0.0 0.0 0.0 0.0 0.0 0.0 0.0 0.0 0.0 0.0 0.0 0.0 0.0 0.0 0.0 0.0 0.0 0.0 0.0 0.0 0.0 0.0 0.0 0.0 0.0 0.0 0.0 0.0 0.0 0.0 0.0 0.0 0.0 0.0 0.0 0.0 0.0 0.0 0.0 0.0 0.0 0.0 0.0 0.0 0.0 0.0 0.0 0.0 0.0 0.0 0.0 0.0 0.0 0.0 0.0 0.0 0.0 0.0 0.0 0.0 0.0 0.0 0.0 0.0 0.0 0.0 0.0 0.0 0.0 0.0 0.0
-0.15119 0.029231 0.113819 0.022789 0.103529 0.029982 -0.107413 -0.068456 -0.084574 0.255278 0.07368 0.063624 -0.057769 -0.218655 0.191807 -0.020884 -0.171931 0.223536 0.129041 -0.197876 -0.147159 -0.105697 0.11622 0.033816 -0.124264 -0.019392 0.201171 -0.024275 0.099057 -0.001956 -0.030223 0.037166 -0.122596 0.200103 -0.142545 -0.014885 0.03743 -0.008979 0.150713 0.068587 -0.247206 0.198905 0.021133 0.151966 -0.044018 0.121799 0.203235 -0.051573 -0.115418 -0.013449 0.279552 0.023744 0.084969 0.175343 0.027861 -0.047532 -0.090382 -0.173595 -0.262534 -0.203223 0.04428 -0.044548 0.052449 -0.102014 -0.168989 -0.044815 0.087397 0.044308 -0.006479 -0.052367 -0.027139 0.059217 0.022693 0.129692 -0.041375 0.047181 -0.020739 -0.074036 -0.06131 -0.010947 -0.082347 0.04622 -0.081711 -0.232125 -0.085404 0.06695 0.03474 0.101492 0.101212 0.074938 -0.201393 -0.190655 -0.033076 -0.255706 0.046354 -0.293883 -0.019535 -0.021182 -0.00236 -0.177563
0.194844 -0.197727 -0.034256 0.22437 0.020778 0.119796 -0.042029 -0.073406 -0.06185 0.031408 0.126444 -0.064415 -0.174729 -0.166247 0.135294 0.202101 0.181909 -3.51E-4 -0.004026 0.00281 0.070247 0.090684 -0.014929 0.024123 -0.341737 -0.157964 0.158752 -0.051866 -0.065553 0.126302 -0.01017 0.086394 -0.10867 0.040013 0.023978 -0.007513 0.043232 -0.198177 -9.84E-4 -0.101193 -0.148838 0.072161 0.016649 0.165411 0.170135 -0.021135 0.020998 0.126914 -0.113176 0.095864 0.055182 -0.141513 0.064341 0.096159 0.074861 0.036018 0.09019 -0.074368 0.090911 0.008355 0.088351 0.169313 -0.205258 0.068269 0.024188 0.020022 0.115012 -0.027668 0.022884 -0.087527 0.042237 0.062564 -0.033086 0.081903 -0.070297 0.021361 -0.300958 0.057597 0.29788 0.051062 0.007759 -0.006302 0.060392 -0.093993 -0.155526 -0.050067 -0.014486 0.042589 0.094648 0.064186 -0.214107 0.217808 0.150252 0.174069 -0.015487 -0.077482 -0.067786 -0.081455 0.152929 -0.02574
-0.075442 -0.010081 0.084877 0.140316 -0.068948 0.125215 -0.014244 0.092048 0.004811 -0.009119 0.040138 3.97E-4 0.095064 0.063929 0.013199 -0.010794 -0.009497 0.136358 0.061422 -0.019905 0.022806 0.166345 0.014454 0.028831 -0.011444 -0.013173 0.037262 0.021223 0.001168 0.024977 -0.124504 0.010163 0.145381 0.101081 -0.026416 0.089411 0.01228 -0.137587 -0.016733 0.104509 0.043958 0.10353 0.053026 -0.1156 0.021313 0.004981 0.117507 0.062334 -0.027633 -0.091628 -0.075575 0.04923 0.097863 0.073845 0.047273 -0.047778 -0.153057 0.038681 0.052248 0.092835 0.090522 -0.00152 0.052274 0.028951 0.03712 -0.019412 0.118707 0.062001 0.067911 -0.137476 -0.005611 -0.066582 0.061383 -0.221176 -0.168343 0.201665 -0.108764 -0.114119 -0.08027 0.031289 0.060014 0.031016 -0.019222 -0.082244 -0.091619 0.024658 0.119492 0.131181 0.076526 -0.044609 -0.119732 -0.045183 -0.015879 -0.04461 0.102605 0.010953 0.027212 0.136535 0.011479 -0.011049
-0.053833 0.079877 0.072856 0.139498 -0.105369 0.004769 -0.27073 -0.096518 -0.168103 -0.103006 0.202092 0.363744 -0.141267 -0.129923 0.01534 0.19683 -0.187167 0.111945 0.109179 -0.016332 0.035184 0.139347 0.315416 0.181261 -0.257633 -0.053217 -0.053058 -0.098832 0.23437 -0.331022 -0.084191 -0.075678 -0.001831 -0.110346 -0.013756 -0.266761 0.034555 -0.008762 -0.150297 0.165393 -0.060494 -0.197826 0.147763 -0.035721 0.031472 -0.210231 -0.085577 -0.109783 -0.244063 0.165008 0.054471 -0.00802 0.010601 -0.037268 0.221023 -0.133451 0.002637 -0.019477 0.129964 0.041991 -0.012534 -0.093924 -0.069187 -0.137315 -0.125857 -0.019287 -0.075852 -0.025292 0.08558 -0.045041 0.044839 -0.045932 0.096927 -0.044108 0.128249 -0.290646 -0.150284 -0.045275 0.037713 0.15651 0.143393 -0.066424 0.296246 -0.291488 0.055917 0.059085 0.065453 0.001004 0.226514 0.017525 -0.201115 -0.040421 -0.006957 -0.001567 -0.074785 -0.124046 0.079696 -0.095859 -0.218243 -0.010996
0.0 0.0 0.0 0.0 0.0 0.0 0.0 0.0 0.0 0.0 0.0 0.0 0.0 0.0 0.0 0.0 0.0 0.0 0.0 0.0 0.0 0.0 0.0 0.0 0.0 0.0 0.0 0.0 0.0 0.0 0.0 0.0 0.0 0.0 0.0 0.0 0.0 0.0 0.0 0.0 0.0 0.0 0.0 0.0 0.0 0.0 0.0 0.0 0.0 0.0 0.0 0.0 0.0 0.0 0.0 0.0 0.0 0.0 0.0 0.0 0.0 0.0 0.0 0.0 0.0 0.0 0.0 0.0 0.0 0.0 0.0 0.0 0.0 0.0 0.0 0.0 0.0 0.0 0.0 0.0 0.0 0.0 0.0 0.0 0.0 0.0 0.0 0.0 0.0 0.0 0.0 0.0 0.0 0.0 0.0 0.0 0.0 0.0 0.0 0.0
0.0 0.0 0.0 0.0 0.0 0.0 0.0 0.0 0.0 0.0 0.0 0.0 0.0 0.0 0.0 0.0 0.0 0.0 0.0 0.0 0.0 0.0 0.0 0.0 0.0 0.0 0.0 0.0 0.0 0.0 0.0 0.0 0.0 0.0 0.0 0.0 0.0 0.0 0.0 0.0 0.0 0.0 0.0 0.0 0.0 0.0 0.0 0.0 0.0 0.0 0.0 0.0 0.0 0.0 0.0 0.0 0.0 0.0 0.0 0.0 0.0 0.0 0.0 0.0 0.0 0.0 0.0 0.0 0.0 0.0 0.0 0.0 0.0 0.0 0.0 0.0 0.0 0.0 0.0 0.0 0.0 0.0 0.0 0.0 0.0 0.0 0.0 0.0 0.0 0.0 0.0 0.0 0.0 0.0 0.0 0.0 0.0 0.0 0.0 0.0
0.100195 -0.080192 0.098636 -0.002196 0.010816 -0.057799 -0.189106 0.035665 -0.158401 0.017096 0.057723 -0.073496 -0.154333 -0.058186 0.055717 0.179485 -0.09119 0.047592 -1.1E-5 -0.036447 0.069542 -0.026364 0.113772 0.231986 -0.134337 -0.215597 0.010651 -0.012594 -0.064549 -0.007239 -0.011789 -0.096077 0.077943 -0.071619 -8.0E-5 -0.047155 0.073651 0.037863 -0.040627 0.055824 0.044377 0.007974 0.031266 0.114302 -0.02862 -0.031345 -0.079388 -0.051952 -0.221712 0.085653 0.037433 -0.19096 0.086855 -0.018699 -0.0544 0.140116 -0.057536 -0.02972 0.014695 -0.057303 -0.13393 -0.114809 -0.125779 -0.174829 0.064946 0.061459 0.014127 -0.050541 0.147494 -0.078643 -0.089289 0.069975 -0.046343 0.105745 0.018637 0.028574 -0.076456 -0.003611 -0.026723 -0.119504 0.041653 -0.081001 0.007688 -0.065893 0.117237 -0.046508 -0.04831 0.071317 0.133236 0.021252 0.027556 0.093483 -0.054558 0.072389 -0.048773 -0.055195 -0.030206 -0.077247 -0.105549 -0.120534
0.06553 -0.125673 0.034491 0.043696 -0.08785 -0.070191 -0.104459 -0.048669 0.006119 0.030927 -0.13537 -0.036367 -0.163152 -0.059444 0.060532 -0.023973 0.098727 0.031182 -0.080261 0.051743 -0.07395 0.036216 -0.082271 -0.07694 -0.227916 8.49E-4 0.074039 -0.007776 0.046045 -0.104478 0.002922 0.032865 -0.001549 -0.142678 0.054115 -0.01641 0.00671 0.02971 0.075554 0.035918 0.017778 0.02266 0.074529 -0.007011 -0.166621 -0.149341 -0.036893 0.187838 -0.051182 0.035542 0.035646 -0.071808 0.164016 0.07998 0.087969 -0.192645 -0.030305 -0.225898 -0.106839 -0.021025 0.244137 -0.057087 -0.051305 0.059616 -0.184024 0.189175 0.205994 -0.054882 -0.034451 -0.087239 0.044602 -0.036991 -0.094929 -0.008204 0.212651 0.003758 -0.115127 0.104404 0.032918 0.078207 0.184447 0.044535 -0.025218 -0.026929 -0.017865 0.117728 0.029414 -0.031504 0.043071 0.093661 -0.096078 -0.012874 0.052235 0.078689 -0.053345 -0.059396 0.152948 -0.086422 -0.102222 -0.027954
0.011229 -0.012208 -0.133184 -3.1E-5 0.019974 -0.208975 -0.208095 -0.028163 0.107974 0.081057 0.175588 0.152718 0.040263 -0.168665 0.082177 0.221177 -0.008428 0.193929 0.050523 0.219374 -0.07091 0.213902 0.159735 0.082455 -0.07126 -0.070326 -0.087853 -0.094617 0.105264 0.056535 0.082015 0.153981 -0.103617 0.018327 -0.189221 0.011291 0.031403 0.01816 0.088033 0.321021 -0.039817 0.261594 0.142408 0.139651 0.058105 0.072888 0.106799 -0.066622 -0.015574 0.034777 0.07491 -0.357623 -0.166242 -0.051553 0.029567 0.008907 0.05498 -0.031034 -0.043996 0.060436 0.119278 -0.256612 -0.103219 -0.011283 0.001541 -0.039768 0.159102 0.021306 0.039309 -0.157537 -0.220554 -0.014979 0.01456 0.084289 0.271554 -0.205418 -0.162028 -0.001494 -0.079291 0.029684 0.020067 0.277398 0.099261 -0.026121 0.014558 0.049996 -0.033091 -0.035493 0.072332 0.115021 -0.062467 -0.048952 0.161681 -0.034652 0.027238 -0.185326 0.239147 0.101895 -0.064771 -0.112071
0.0 0.0 0.0 0.0 0.0 0.0 0.0 0.0 0.0 0.0 0.0 0.0 0.0 0.0 0.0 0.0 0.0 0.0 0.0 0.0 0.0 0.0 0.0 0.0 0.0 0.0 0.0 0.0 0.0 0.0 0.0 0.0 0.0 0.0 0.0 0.0 0.0 0.0 0.0 0.0 0.0 0.0 0.0 0.0 0.0 0.0 0.0 0.0 0.0 0.0 0.0 0.0 0.0 0.0 0.0 0.0 0.0 0.0 0.0 0.0 0.0 0.0 0.0 0.0 0.0 0.0 0.0 0.0 0.0 0.0 0.0 0.0 0.0 0.0 0.0 0.0 0.0 0.0 0.0 0.0 0.0 0.0 0.0 0.0 0.0 0.0 0.0 0.0 0.0 0.0 0.0 0.0 0.0 0.0 0.0 0.0 0.0 0.0 0.0 0.0
-0.151939 -0.216303 -0.037155 0.111318 -0.082544 0.156912 -0.120151 -0.028911 -0.098118 -0.028018 0.235381 0.082576 -0.081495 0.154177 0.014114 0.190296 0.103159 0.057692 0.143719 0.067991 -0.114985 -0.02182 0.182226 0.11849 0.011297 -0.108619 -0.072458 0.065231 0.195338 -0.108502 -0.035958 0.065354 -0.21518 0.069874 -0.036319 -0.187006 0.011828 -0.118826 0.036692 -0.058718 0.028465 -0.093708 0.187633 0.084403 -0.034937 -0.206809 0.079558 0.019842 -0.085444 -0.006552 -0.097544 -0.148362 -0.099248 0.057277 0.08706 -0.021998 -0.053895 0.085388 0.097941 -0.101847 0.103221 -0.033714 -0.101355 -0.011671 -0.025493 -0.022722 -0.179533 0.027989 0.001749 0.053087 -0.074861 -0.10856 0.105617 0.143523 -0.039909 -0.060923 -0.120108 0.056985 0.079958 -0.069029 -0.072152 0.185276 0.019487 -0.068546 -0.073094 0.044787 0.073343 0.019405 0.111441 -0.009642 -0.00222 -0.137597 -0.048132 0.286756 -0.102263 -0.087974 0.144787 -0.098846 -0.136554 0.071124
-0.026796 -0.042673 0.238879 0.086629 -0.138012 0.10396 -0.253822 -0.095431 0.040919 0.170772 0.041344 0.124978 0.020786 -0.119389 0.148704 -0.031682 -0.323068 0.136518 0.046353 0.11936 0.107688 0.061635 0.15761 0.055757 -0.271554 -0.161478 0.170483 -0.146057 0.185458 -0.185069 -0.255931 -0.199377 -0.09627 0.043844 -0.107663 -0.207045 0.217879 -0.004055 -0.228915 0.107414 0.026985 -0.049877 -0.096715 -0.065689 0.101159 0.176814 -0.014127 0.138586 -0.025157 -0.105818 0.147084 -0.026367 -0.129457 0.048116 0.154455 -0.0517 -0.130753 0.250435 0.113382 -0.104177 -0.120084 -0.038847 0.12467 0.019337 -0.213328 0.078201 -0.170862 0.103183 -0.006453 0.056958 -0.088844 -0.002764 -0.076232 0.015034 -0.032965 0.02451 -0.221616 -0.098836 -0.137238 -0.10204 -0.242392 0.131154 0.154015 0.101464 0.124106 0.03736 -0.162921 0.012638 -0.039242 0.190272 -0.033751 -0.011746 -0.158403 0.026714 0.075489 -0.128742 0.087661 -0.057824 0.012037 0.018141
0.100342 -0.046996 0.118235 -0.195914 -0.062845 -0.00263 -0.049219 -0.025702 0.070879 -0.088164 -0.065009 0.03587 -0.089495 0.200695 0.197936 -0.134646 -0.082224 -0.070048 -0.145857 0.084524 -0.062734 -0.0729 0.007797 0.175391 -0.101227 -0.157721 -0.084787 0.070467 0.110842 0.121566 0.010786 0.118229 -0.061778 0.140583 0.236701 0.12967 0.077058 -0.126444 0.138968 0.008993 -0.082232 -0.142226 -0.252312 -0.076795 0.025792 0.126785 -0.198613 0.115954 0.031074 0.049458 -0.036227 -0.047244 -0.072856 -0.047129 0.072417 0.286561 -0.197108 0.154958 -0.024637 -0.143688 -0.172099 -0.056494 -0.036697 -0.030624 0.102039 0.094845 -0.130347 0.005958 0.05083 0.076224 -0.109301 -0.01604 0.056115 -0.1556 -0.06116 -0.096975 -0.078609 0.096475 -0.006104 -0.21483 0.140204 0.106451 -0.001017 -0.16566 0.049768 -0.057636 0.107731 -0.120294 -0.05759 0.026303 -0.024757 -0.006144 0.035358 0.009715 -0.044794 -0.222967 -0.004228 -0.028474 0.152531 0.056453
-0.284848 0.082235 0.113352 0.030639 -0.164881 0.128437 -0.133941 0.119567 -0.046881 0.056134 -0.016288 1.22E-4 0.016033 0.069598 -0.025255 -0.024748 -0.192435 0.003466 0.018549 -0.011558 -0.142259 -0.059655 -0.03881 0.054848 -0.158702 -0.006384 0.090654 0.001003 0.053779 0.014847 -0.184539 -0.129095 -0.09383 -0.043162 0.004168 -0.111898 0.043134 0.043075 -0.140724 0.187056 0.163781 0.104665 0.115133 0.157366 0.086187 0.067832 0.037513 0.053012 -0.088916 0.041341 0.062205 0.050291 -0.214657 -0.01789 -0.043426 9.87E-4 -0.177344 0.2302 0.009498 -0.114376 -0.163538 0.013765 0.117126 -0.052701 -0.314903 -0.028113 -0.1125 0.158394 -0.309302 0.105325 -0.051897 -0.090511 -0.058253 0.136963 0.015243 0.024239 0.00939 0.096799 -0.186318 0.092793 0.022643 0.149871 0.101272 0.155272 0.11398 -0.128249 0.019516 0.028125 -0.014109 0.140507 0.064242 0.001189 -0.047523 0.124843 -0.056399 -0.038517 0.048198 0.070628 -0.105049 0.014504
0.0 0.0 0.0 0.0 0.0 0.0 0.0 0.0 0.0 0.0 0.0 0.0 0.0 0.0 0.0 0.0 0.0 0.0 0.0 0.0 0.0 0.0 0.0 0.0 0.0 0.0 0.0 0.0 0.0 0.0 0.0 0.0 0.0 0.0 0.0 0.0 0.0 0.0 0.0 0.0 0.0 0.0 0.0 0.0 0.0 0.0 0.0 0.0 0.0 0.0 0.0 0.0 0.0 0.0 0.0 0.0 0.0 0.0 0.0 0.0 0.0 0.0 0.0 0.0 0.0 0.0 0.0 0.0 0.0 0.0 0.0 0.0 0.0 0.0 0.0 0.0 0.0 0.0 0.0 0.0 0.0 0.0 0.0 0.0 0.0 0.0 0.0 0.0 0.0 0.0 0.0 0.0 0.0 0.0 0.0 0.0 0.0 0.0 0.0 0.0
0.020384 -0.052527 0.019922 -0.014866 -0.065346 -0.003369 0.039043 -0.024804 -0.026734 0.139375 0.075955 0.210518 0.138804 -0.069293 -0.039967 0.214539 -0.01651 0.106904 -0.152091 0.052466 -0.097076 0.012544 0.113352 0.096542 0.034003 -0.120766 -0.27144 0.01011 -0.15037 -0.033711 -0.12105 -0.036771 -0.03268 0.01936 -0.045393 -0.278888 0.031975 0.039334 0.122136 -0.024198 -0.009518 0.062616 0.123224 -0.0508 -0.139676 -0.008305 -0.016802 -0.139154 -0.227231 -0.093035 0.174529 -0.13181 -0.126564 -0.150879 -0.01003 -0.065253 -0.061056 -0.048407 0.068234 0.021077 -0.042112 -0.17028 -0.073332 -0.162616 0.044765 0.094427 0.019029 0.023327 0.070485 -0.048326 0.152672 0.036238 0.001747 -0.001051 -0.019773 0.026995 0.023048 -0.033271 0.049251 -0.013036 -0.020779 0.112209 -0.108407 -0.075866 -0.009562 0.067449 -0.062084 0.02937 0.046388 0.062264 -0.104379 0.003592 -0.085163 0.058256 -0.018717 -0.036453 -0.102332 0.061579 0.122884 0.112934
-2.648351 -0.794316 -2.108887 0.20446 0.883061 0.242784 1.848653 1.149137 -4.975573 0.237654 -1.499665 2.924494 0.344217 -1.640431 0.763777 0.138944 -3.029439 -2.813434 -0.761102 -1.057557 -1.373735 -0.870599 1.234095 0.127805 -1.372618 1.35802 -1.501738 0.80945 0.172993 -0.484995 1.783363 -0.047587 0.483285 -1.526831 2.103549 2.116639 4.583491 -4.022388 -0.843817 0.361243 -0.546655 -2.301259 -2.000973 2.64631 -1.604053 -1.914206 -1.581895 -0.464185 1.757769 1.056301 0.263866 -0.904419 -0.422466 0.007824 -1.651553 0.7499 1.638666 -0.336108 -3.288466 -2.953238 -1.135414 1.165223 -1.047256 -0.821696 -0.135806 0.434207 -2.389307 -3.56953 -0.656773 0.578325 3.337902 0.782195 -1.250815 2.925509 -1.981492 0.121786 0.836257 1.710923 -2.640405 -0.628995 0.247469 0.863847 1.749171 -0.214156 -0.274807 2.192709 -0.892334 -1.614644 -1.225919 -0.042182 2.51632 3.464583 -3.591523 -2.506587 0.990426 1.8843 -2.460629 0.953462 0.359605 2.267383
0.001781 0.005041 0.055006 0.076327 -0.161397 0.090492 -0.167109 -0.061038 -0.049084 0.012494 0.106214 0.137508 -0.052337 0.142475 -0.026992 0.100869 0.125038 0.064933 0.055016 -0.039872 0.059331 0.1182 0.04909 -0.001096 -0.118113 -0.156409 0.040878 0.004604 0.189044 -0.077361 -0.013047 0.062084 -0.068754 0.012386 -0.141155 0.046147 -0.123937 -0.007748 -0.040233 0.127076 -1.83E-4 -0.02944 -0.055823 -0.101933 0.11647 -0.135981 -0.075702 0.055341 0.052348 0.064447 0.036302 -0.231998 0.075035 0.149626 -0.008097 0.01006 -0.126553 0.114996 0.051417 0.019013 0.033991 -0.063664 -0.136277 0.076544 0.078973 -0.071457 -0.098728 0.117246 0.037441 -0.00486 0.029765 0.001077 -0.002235 0.042157 -0.005307 -0.064794 0.02202 0.101963 -0.010501 -0.082361 -1.1E-5 -0.077471 0.27819 -0.226425 0.011527 0.002821 0.080842 -0.067913 0.04494 0.001256 -0.022513 -0.052457 0.074417 0.049388 0.257535 -0.18758 0.050166 0.049746 -0.147338 -0.026292
0.036737 -0.032921 0.024463 0.001525 -0.14953 -0.081921 0.05195 0.033054 0.042371 0.187633 -0.169856 -0.043431 -0.173636 0.224604 -0.099043 -0.052621 -0.094147 -0.087315 -0.205223 0.126826 -0.051988 0.057934 0.007092 0.028646 0.030134 0.006318 0.118765 0.00841 -0.042876 -0.067148 -0.15148 -0.042306 0.047684 0.10077 -0.040846 -0.155266 0.173754 7.38E-4 -0.149543 -0.155015 0.042332 1.9E-5 0.164393 -0.109523 -0.01025 0.019395 0.060378 0.084138 0.12078 -0.042878 0.08194 -0.06976 0.047308 0.056745 0.006819 -0.026824 -0.156007 0.042841 -0.214906 -0.100455 0.001679 0.056153 0.00309 0.056995 -0.027269 0.054063 -0.021361 -0.118937 -0.039109 0.253888 -0.099679 0.068347 0.024916 0.004649 0.026359 0.067277 0.089904 -0.116294 -0.057639 -0.070171 0.238942 -0.101354 -0.104886 -0.195107 -0.268537 -0.124495 -0.010152 -7.27E-4 0.045996 0.182311 -0.129108 -0.070264 -0.013 0.100287 -0.131971 0.14376 -0.073632 0.262197 -0.055353 0.017675
1.689573 -3.33416 -0.965511 1.659158 -2.050425 0.905817 0.616603 -1.236455 0.264234 0.116286 2.828547 -0.818173 3.425179 0.32026 -0.230604 -0.933714 1.517891 -2.206357 -2.333181 1.706021 -1.337884 -1.802898 -3.115646 -2.161618 0.396112 1.045809 -0.535179 -1.029279 0.575166 1.168335 2.254203 -0.600774 -0.395665 0.105068 1.514405 -1.091109 0.454944 -2.441265 -0.065855 2.977762 -3.536724 1.513917 0.177496 -2.236573 0.88964 0.056402 -1.424071 4.912244 -0.847541 0.177235 2.607983 1.122429 0.466989 1.756088 -1.46236 1.090806 -0.102955 -1.618671 -0.618892 0.452311 0.862881 1.170666 -0.134624 0.793154 0.725869 -0.502087 3.166721 -1.875811 1.70199 1.531229 0.903765 -1.472035 0.202289 0.083957 -2.683779 2.354843 3.556185 1.287474 4.547928 0.2347 -0.142178 -1.887723 -1.267192 0.089062 -0.250018 1.020479 1.599436 -0.179524 -2.011244 -2.396106 -0.833792 -2.697081 1.037187 3.167086 -2.967411 -0.012214 -0.079422 2.516347 1.045697 -2.228649
-0.19975 -0.163397 0.046376 0.108494 -0.086906 -0.079634 -0.174304 -0.190655 -0.16796 0.054171 0.073367 0.100495 0.028349 0.089697 0.084377 0.226077 -0.144981 0.170875 0.030617 -0.002744 -0.049142 0.147196 0.014105 -0.098415 -0.097857 -0.116433 -0.221617 -0.031682 0.328072 0.174668 0.066348 0.00991 0.088367 -0.047556 0.007861 -0.096847 0.029124 0.106336 -0.027728 0.071993 -0.012189 0.143203 -0.02933 0.062494 -0.056761 -0.120269 -0.12018 -0.017668 -0.062963 0.101128 0.16565 -0.026171 -0.079002 -0.131484 -0.015915 0.040522 -0.181151 -0.002836 0.057121 -0.107145 0.126391 -0.080741 0.019065 -0.07346 -0.064256 0.100005 0.14671 -0.007299 -0.060089 0.006398 0.030183 0.114927 0.121747 -0.032423 0.073375 -0.013173 -0.065432 0.056931 -0.211812 0.024416 -0.072059 -0.018436 0.023346 -0.02972 0.040747 0.006594 0.315286 0.127171 0.034984 0.125694 -0.126999 -0.159279 0.204473 0.190888 -0.115081 -0.166722 0.05582 -0.005334 0.014762 -0.26041
-1.0412 -0.102394 -0.967072 -0.083061 0.401073 -0.262518 -1.993907 1.030038 0.316518 1.098045 -0.81358 -0.012075 1.193534 -0.12619 0.039313 -0.13884 0.378121 1.374596 0.250745 0.369425 -0.865415 0.023664 0.259636 0.402283 -0.10098 0.057526 0.68271 -0.163648 -0.23648 -0.067057 0.52054 0.434653 -0.235451 -0.281918 -0.543629 0.492117 -1.046474 0.381526 0.065389 1.652844 -0.028635 1.004955 -0.05367 -0.57022 0.632803 0.664178 1.114402 -0.159283 -0.466028 0.342295 0.106962 -0.195482 0.789124 0.642929 0.15768 0.21594 -0.480825 0.097695 -0.818582 -0.519309 1.062201 -0.267102 -0.39914 0.497858 0.002263 -0.49682 0.761056 0.185883 -0.359254 -0.118581 -0.616779 0.121825 0.196517 -0.280931 -0.041677 -0.034893 -0.198942 -0.723971 0.314308 0.528443 0.245835 -0.674366 0.273458 -0.647032 -0.262747 0.258329 0.009913 0.512022 -0.074202 0.729523 -0.493777 -0.835419 -0.064028 -0.9455 0.475454 -0.970863 0.195421 0.115918 -0.681787 -0.18797
0.0 0.0 0.0 0.0 0.0 0.0 0.0 0.0 0.0 0.0 0.0 0.0 0.0 0.0 0.0 0.0 0.0 0.0 0.0 0.0 0.0 0.0 0.0 0.0 0.0 0.0 0.0 0.0 0.0 0.0 0.0 0.0 0.0 0.0 0.0 0.0 0.0 0.0 0.0 0.0 0.0 0.0 0.0 0.0 0.0 0.0 0.0 0.0 0.0 0.0 0.0 0.0 0.0 0.0 0.0 0.0 0.0 0.0 0.0 0.0 0.0 0.0 0.0 0.0 0.0 0.0 0.0 0.0 0.0 0.0 0.0 0.0 0.0 0.0 0.0 0.0 0.0 0.0 0.0 0.0 0.0 0.0 0.0 0.0 0.0 0.0 0.0 0.0 0.0 0.0 0.0 0.0 0.0 0.0 0.0 0.0 0.0 0.0 0.0 0.0
0.0 0.0 0.0 0.0 0.0 0.0 0.0 0.0 0.0 0.0 0.0 0.0 0.0 0.0 0.0 0.0 0.0 0.0 0.0 0.0 0.0 0.0 0.0 0.0 0.0 0.0 0.0 0.0 0.0 0.0 0.0 0.0 0.0 0.0 0.0 0.0 0.0 0.0 0.0 0.0 0.0 0.0 0.0 0.0 0.0 0.0 0.0 0.0 0.0 0.0 0.0 0.0 0.0 0.0 0.0 0.0 0.0 0.0 0.0 0.0 0.0 0.0 0.0 0.0 0.0 0.0 0.0 0.0 0.0 0.0 0.0 0.0 0.0 0.0 0.0 0.0 0.0 0.0 0.0 0.0 0.0 0.0 0.0 0.0 0.0 0.0 0.0 0.0 0.0 0.0 0.0 0.0 0.0 0.0 0.0 0.0 0.0 0.0 0.0 0.0
-0.152438 -0.628154 -0.243475 0.301513 -0.089271 0.074747 -0.043922 0.179589 -0.293697 0.356325 0.318878 0.235156 0.152774 0.253818 -0.089443 0.237523 0.352747 0.384809 0.337301 0.491545 -0.177608 -0.048567 0.214402 -0.181297 0.201658 -0.561092 -0.050093 0.091368 0.246238 -0.36206 -0.140286 0.186958 0.05064 -0.056937 -0.177969 -0.254249 -0.350696 -0.104088 0.227345 -0.303521 -0.392617 0.451992 0.145379 0.272567 0.31754 -0.022661 -0.442745 0.057647 -0.093824 -0.022231 -0.257604 -0.062552 -0.08717 -0.178301 0.08135 -0.020634 0.330497 0.138713 0.185053 -0.210621 0.211312 -0.419576 -0.07428 0.108588 0.001447 0.076656 0.275694 0.180637 -0.009269 -0.361067 0.188428 -0.235858 -0.343024 -0.128312 -0.186501 -0.058683 -0.123138 -0.118315 -0.061425 0.011827 -0.334119 -0.020826 0.176148 0.232685 -0.142045 -0.119951 -0.182247 -0.411436 -0.127811 0.271722 -0.13395 0.35195 -0.465949 0.110964 0.167954 0.496951 0.295781 -0.077511 -0.093507 -0.018347
0.0 0.0 0.0 0.0 0.0 0.0 0.0 0.0 0.0 0.0 0.0 0.0 0.0 0.0 0.0 0.0 0.0 0.0 0.0 0.0 0.0 0.0 0.0 0.0 0.0 0.0 0.0 0.0 0.0 0.0 0.0 0.0 0.0 0.0 0.0 0.0 0.0 0.0 0.0 0.0 0.0 0.0 0.0 0.0 0.0 0.0 0.0 0.0 0.0 0.0 0.0 0.0 0.0 0.0 0.0 0.0 0.0 0.0 0.0 0.0 0.0 0.0 0.0 0.0 0.0 0.0 0.0 0.0 0.0 0.0 0.0 0.0 0.0 0.0 0.0 0.0 0.0 0.0 0.0 0.0 0.0 0.0 0.0 0.0 0.0 0.0 0.0 0.0 0.0 0.0 0.0 0.0 0.0 0.0 0.0 0.0 0.0 0.0 0.0 0.0
0.140104 0.05891 0.037966 -0.001113 0.074955 0.040251 0.127497 0.058781 -0.092614 0.098165 0.013521 0.124392 -0.048296 -0.013173 0.112214 0.063045 -0.214103 0.242036 0.162885 -0.076994 -0.065425 -0.197358 -0.028627 -0.008781 0.003928 -0.027237 0.11614 -0.042476 -0.067383 -0.068746 -0.03826 0.121669 0.05083 0.177278 0.134889 -0.069032 0.097862 -0.047504 0.063096 0.16361 -0.137263 -0.108739 0.062625 0.051451 -0.103947 0.084211 0.016037 0.012105 -0.104447 0.145424 0.114076 0.004434 -0.176574 0.134783 -0.179517 -0.214754 0.078313 -0.016796 -0.113555 -0.032433 -0.124687 -0.014217 0.0843 -0.056981 -0.089659 0.119278 0.07832 -0.038411 0.03742 0.180828 0.05858 0.027162 0.081055 0.182077 -0.104004 0.151638 -0.10275 0.002787 -0.055086 -0.262721 0.04972 -0.102289 0.08576 -0.070311 -0.211337 0.033201 0.108026 -0.090226 -0.096719 0.059408 0.024368 -0.175466 -0.116901 0.114729 -0.020404 -0.024427 0.010819 0.05791 -0.085707 -0.181845
-0.030251 -0.002667 0.001984 0.284396 -0.107028 0.00567 -0.12014 -0.045074 0.030263 -0.03106 0.149149 0.081562 -0.056953 0.01211 0.206208 0.210543 -0.11333 0.09188 0.073916 0.021828 -0.139457 -0.114631 0.087373 0.124622 -0.219465 -0.083093 -0.107944 0.135007 0.134604 0.10676 0.120073 0.113233 -0.048991 -0.066084 -5.34E-4 -0.084226 0.036805 -0.084578 0.098877 0.041311 -0.185444 -0.209086 -0.145751 0.119948 0.056282 0.009357 -0.044687 0.059589 -0.155189 0.113595 0.067982 -0.096933 -0.136652 0.16761 -0.23534 0.035903 -0.349854 0.185733 0.138201 -0.203143 0.195451 -0.198866 0.099933 -0.114757 -0.07715 -0.106643 0.14777 -0.081018 0.104653 -0.112016 -0.084882 0.097201 0.131303 0.015677 0.019526 -0.131105 -0.142682 0.298603 -0.093611 0.002069 -0.084336 0.091629 0.106686 0.037913 0.167457 -0.103412 0.117265 0.014757 0.064921 -0.013201 -0.034603 0.029913 -0.090512 0.145434 -0.123277 -0.180259 0.206602 -0.089753 -0.080927 0.035995
-0.152623 -0.07885 0.217408 -0.046437 0.011436 0.064771 0.001848 0.004504 0.032156 -0.025751 -0.059828 0.083732 -0.064995 -0.02937 0.083344 0.044884 -0.088082 0.062338 -0.063421 0.232054 -0.049186 -0.007815 0.071844 0.079157 -0.065794 -0.144354 0.004433 -0.03492 0.142019 -0.080491 -0.158223 0.033878 -0.009139 0.173222 -0.139138 0.052581 0.137947 -0.099265 -0.141269 0.073671 -0.003354 -0.066323 0.092077 0.197364 0.03651 -0.049935 -0.12316 0.171021 -0.042971 0.119145 0.251611 -0.11111 -0.100577 0.020278 0.233337 -0.153877 -0.12964 -0.139183 -0.00624 -0.079639 -0.010471 -0.152437 0.108958 -0.189595 -0.118281 0.049806 -0.221007 -0.048895 -0.008642 -0.242501 -0.153308 -0.055059 0.007259 -0.06607 -0.044856 -0.041063 -0.205565 0.095136 -0.19576 -0.288995 0.063136 0.106197 0.005448 -0.058999 -0.089572 0.037356 0.05741 -0.054848 0.092141 0.038457 0.051834 0.029403 -0.116998 0.230339 -0.025851 -0.005548 0.100648 -0.101787 -0.04887 -0.151374
0.032093 0.10565 0.07194 -0.10506 0.067235 -0.19423 -0.171559 -0.024872 -0.200596 -0.024021 0.081589 -0.134327 -0.133221 0.086563 0.035137 0.09023 -0.100221 -0.106837 0.216842 0.169637 -0.003546 -0.192428 0.026566 0.124055 -0.105236 -0.07848 -0.126731 0.139525 0.222664 -0.090607 -0.124343 0.162578 -0.11797 -0.040378 0.05487 -0.079472 0.01701 -0.189311 0.227341 0.071021 -0.038819 -0.184046 0.147 -0.091764 0.07601 -0.241426 -0.387516 -0.147508 -0.220456 -0.088583 0.035056 -0.086038 -0.204524 0.092743 -0.119635 -0.095464 -0.283729 -0.021 -0.056357 -0.143968 0.055836 -0.324437 0.105987 0.008046 -0.200878 0.013677 -0.124932 0.120835 0.008738 -0.22946 -0.008223 -0.04135 0.001859 -0.035757 0.290135 -0.016454 -0.251527 -0.091879 0.014693 -0.111384 0.234011 0.080886 0.195417 0.014571 -0.071411 0.018417 0.100924 0.06824 0.118381 0.038258 -0.140745 -0.154291 0.008683 0.183866 0.02895 0.005598 -0.0178 -0.029178 0.110665 -0.011781
1.233543 1.397694 -0.1659 0.544186 0.113484 -3.081304 -1.431282 1.000431 3.203048 3.330619 2.109486 -1.751168 3.598217 -1.103998 -1.135528 -0.230715 2.311185 0.681648 0.207692 3.650352 -1.335817 0.50896 0.919444 0.979859 0.597912 2.123994 1.09521 -1.50963 1.399145 -1.667972 2.029659 -0.024306 -0.283602 0.308095 0.357985 -1.272236 1.641382 1.393907 -0.960147 4.589907 -0.696546 1.483681 -1.883535 -0.033332 0.877212 2.234418 2.376586 1.617209 -1.354178 -1.449565 4.178986 1.041081 1.184602 0.542587 0.850849 -0.115088 -1.064397 -2.00471 -3.96324 -4.18671 -0.441869 2.60824 2.385324 1.52429 -2.687803 -1.19224 2.558578 -1.237675 1.017623 3.457445 -0.323301 -1.098413 1.258688 1.146464 0.552245 -2.062986 -0.333003 -1.692248 -1.16768 -0.63154 0.234341 -0.421805 0.321758 -1.009677 0.010224 -0.209476 1.144157 -1.948236 -1.457643 -1.074456 -1.463301 -0.739561 0.180921 -0.559778 -2.749257 -1.223473 -0.00418 -0.485969 0.810804 -2.766063
0.038999 -0.086898 0.241171 -0.007846 0.001691 -0.064539 0.252313 -0.189421 0.1305 0.02865 -0.066355 0.013941 -0.025085 -0.091814 -0.075578 0.114793 0.046347 0.014145 0.109631 0.069194 0.002711 0.210736 -0.155008 0.05043 -0.010908 0.048848 -0.11898 -0.07988 0.084295 -0.125725 0.042102 0.066448 -0.025675 -0.102024 0.051345 -0.058299 1.72E-4 -0.100617 -0.077823 0.11278 -0.040504 0.219775 -0.113515 -0.168229 -0.046543 -0.059591 0.005685 -0.014717 -0.159829 0.199225 -0.009116 -0.007297 0.03634 0.089394 -0.085225 0.022236 -0.008058 0.071846 0.134265 0.08776 0.097892 0.004365 -0.042977 -0.213248 -0.067846 0.001192 0.106613 -0.005001 -0.013497 0.074744 -0.053063 0.170681 0.061434 -0.130854 0.142855 0.150647 0.175623 0.041819 0.021288 -0.042793 -0.00212 0.011571 0.003688 -0.089313 0.00278 0.068299 0.069827 -0.085916 -0.058706 0.171379 -0.180816 -0.082046 -0.040151 0.055549 -0.087682 -0.028215 0.094162 0.070855 0.024039 -0.073007
-0.159312 -0.056981 0.094442 -0.018196 -0.005146 0.061885 -0.01321 -0.012881 0.075977 0.094494 0.065393 0.132916 0.014502 -0.016807 -0.066672 0.253005 -0.213921 0.055835 -0.029625 -0.20043 -0.190486 -0.050619 0.027876 0.187209 -0.127079 -0.004171 -0.051897 0.131731 0.173134 -0.057054 -0.015111 0.078633 -0.117031 0.184027 -0.106593 -0.055208 0.068361 -0.019783 0.041599 0.04051 0.03426 0.010959 0.005143 0.094998 0.059781 0.235787 -0.074931 -0.071562 -0.159647 0.200226 0.10411 -0.07946 0.104853 -0.074407 0.068846 -0.149776 -0.004595 -0.076336 0.123668 -0.104744 -0.029477 -0.18407 0.049248 -0.139676 -0.014797 0.083939 -0.135986 0.024398 -0.032166 -0.111615 -0.038582 0.122163 -0.147461 0.17681 -0.033877 -0.06994 -0.053317 -0.096498 0.049314 -0.136139 0.060602 0.133793 0.039822 0.035655 0.006819 0.156318 0.056663 0.079402 0.230258 0.134668 -0.010918 -0.097839 8.84E-4 -0.043341 -0.077417 -0.094724 -0.102189 0.065628 0.007741 -0.125325
-0.182302 -0.112798 0.03378 0.109041 0.107298 0.141493 -0.138773 -0.11371 0.072001 -0.003893 0.107662 0.152693 -0.180782 -0.079142 0.134166 0.321501 -0.238671 0.252411 -0.065869 -0.034593 -0.034766 -0.082098 0.248746 0.157354 -0.092911 0.033158 -0.02986 -0.093013 -0.026677 -0.076989 0.316673 0.038937 -0.134088 0.071576 -0.170454 -0.006004 0.093804 0.003973 0.037924 -0.144374 -0.059167 0.079979 0.148223 0.147972 -0.10058 -0.085331 0.024804 0.119357 -0.066142 0.220521 0.116092 0.052418 -0.045242 0.213986 -0.230442 0.080869 -0.144717 0.152708 0.105959 -0.135587 0.178521 0.019814 -0.048712 0.079666 -0.081583 0.031969 0.02435 0.027269 -0.034681 0.074022 -0.058272 0.057479 0.215193 0.092625 -0.080838 -0.113357 -0.083011 -0.051715 -0.037505 0.012863 0.204495 0.072734 0.042466 -0.111473 0.05466 -0.026153 0.13409 0.105322 0.072769 0.065104 -0.26794 -0.013805 -0.063947 -0.013876 -0.262993 -0.23605 -0.011693 0.03338 -0.150813 -0.060028
-0.083197 0.042169 0.007251 0.085623 0.149069 -0.037314 0.031303 -0.074649 -0.059866 0.080583 -0.005161 -0.056534 0.020731 -0.050226 1.41E-4 0.091944 -0.094437 0.011318 0.125819 0.025712 0.004166 -0.030956 -0.0109 -0.08016 0.085976 0.047147 -0.114921 0.071421 -0.05383 -0.015796 -0.033273 0.068871 0.044308 -0.018209 -0.058199 0.032505 -0.002323 0.023001 -0.045336 -0.008619 -0.031714 0.108655 -3.72E-4 -0.092261 -0.104231 0.019825 0.05464 -0.17322 0.050428 -0.139767 0.001493 -0.068199 -0.128915 -0.046173 0.023278 0.004473 -0.010468 0.139231 0.007367 -0.041738 -0.01343 -0.05746 0.055789 -0.064593 -0.004654 -0.132778 0.02947 0.084896 0.089655 0.001241 -0.035939 0.130829 0.072752 -0.008285 0.001398 0.126144 0.060522 -0.033181 -0.032531 -0.070669 0.029247 0.078381 -0.104521 -0.027636 -0.078119 0.002398 0.053679 -0.126753 0.021307 0.121168 0.065873 -0.029981 0.045461 -0.06806 -0.072871 -0.020383 -0.02873 -0.062765 0.007656 -0.072259
1.519526 1.445578 -1.609499 2.582747 2.460795 3.529971 0.431498 -0.524736 0.238502 0.565084 -2.150664 2.607871 -3.578636 0.22885 1.205379 0.400126 -2.365878 -2.228676 -0.500047 -1.958516 -2.734259 -2.028213 -0.339577 -2.726884 0.003785 -1.85554 -0.90189 1.042933 0.930181 0.561229 0.956561 0.220468 -1.219533 -0.188243 -0.649085 -0.117874 2.101841 -0.317004 1.300647 -1.49228 0.533457 -2.976113 -0.635474 -1.431524 -0.943268 0.543614 -2.072507 -1.004219 4.072807 -1.496014 2.612373 2.458477 -0.120651 0.418572 -2.53177 0.646754 2.04053 2.0667 -2.403623 -3.037353 -1.289071 1.269349 0.447478 0.512568 0.464348 -0.142416 -1.155552 0.32258 -0.986119 3.909852 3.839548 0.865499 -1.089316 -1.400134 0.517204 -3.398406 -0.576028 -0.612853 -0.573641 -1.979957 1.278503 1.159562 0.583915 -0.210028 0.851463 1.075476 2.276915 0.114312 2.2836 1.968815 1.899569 0.001135 -2.286771 -2.666814 -1.408445 1.975128 -0.085175 1.44887 -1.994305 2.796178
0.027642 -0.092779 -0.08733 0.037032 0.047598 -0.047318 -0.281671 0.088791 -0.340128 0.096939 0.36933 -0.055525 0.169036 0.091026 0.152904 0.016878 -0.069134 -0.055003 -0.056799 -0.094394 0.054449 0.060045 0.228347 -0.010525 0.035562 -0.002406 0.038047 0.043878 0.202693 -0.209886 -0.245407 -0.096477 -0.087691 -0.107453 0.098202 0.086454 0.162758 -0.227567 -0.14387 -0.058827 -0.135089 -0.203413 0.156791 -0.155511 -0.124304 -0.073511 -0.104371 0.12301 0.024712 -0.030005 0.031913 -0.159192 -0.054524 -0.010451 0.084582 0.213416 0.005204 -0.327462 -0.172775 0.056502 -0.113528 0.049324 -0.184062 -0.206112 -0.240551 0.155732 -0.197213 -0.274382 0.22822 0.234044 0.196474 -0.101095 0.11523 -0.056997 0.104646 0.25267 -0.084883 -0.240427 0.019487 -0.024008 0.074901 -0.098202 0.117781 -0.219351 -0.302147 -0.246094 -0.051708 0.007556 0.086189 0.048773 -0.217922 0.013612 -0.229821 0.1687 -0.027825 -0.131812 -0.011608 -0.110296 0.019438 -0.165422
0.047836 -0.260219 0.14638 0.007779 -0.104955 -0.050724 -0.319432 -0.027407 -0.104778 0.124311 0.14477 0.148278 -0.013076 -0.069917 0.254554 0.25292 0.091697 0.206138 0.168034 0.12307 -0.258927 -0.00695 0.102032 0.075771 -0.201948 -0.129118 -0.138297 -0.097396 0.264104 -0.141635 -0.00303 -0.004618 -0.171331 0.006413 -0.129962 -0.058793 -0.107657 -0.040955 0.117533 0.181708 -0.064138 0.225566 -0.062915 -0.035464 0.269723 -0.089994 -0.005719 -0.078063 -0.215832 0.079343 0.266575 -0.25419 -0.128297 0.038341 0.119308 -0.207662 -0.029523 0.019236 0.024436 -0.109361 0.007955 -0.078744 0.071111 -0.325345 -0.091151 0.006054 0.103893 0.156867 0.20827 -0.195221 -0.011492 -0.084134 -0.077224 -0.110934 0.098004 -0.068865 -0.108344 -0.153112 -0.094614 -0.187216 -0.01459 0.218526 0.241999 -0.141711 0.084584 0.252269 0.155438 -0.088298 0.260633 0.198838 -0.176457 -0.052125 -0.045839 0.131111 -0.115358 -0.197565 0.088973 -0.089591 0.060949 -0.086675
-0.124276 -2.054402 -0.343635 1.81865 -2.16991 1.782205 0.82505 0.982572 -2.067194 -1.156199 0.298204 0.610046 -4.440783 -0.456446 1.442584 1.853605 -0.146562 2.077692 0.195573 -0.915147 0.599326 0.594442 1.900077 -1.11832 -0.711089 1.802311 -0.934321 4.923428 0.778654 -0.69484 -0.912197 0.151877 -0.031909 -0.121674 -3.551828 0.057548 0.447763 -0.623346 2.678004 -1.345078 -3.955954 -4.075293 -1.036935 -1.334541 -0.166985 -0.129224 -1.031956 -2.988586 3.17002 0.328676 1.405671 0.778493 -1.163548 2.145235 -1.779305 1.663516 1.887483 0.848116 -1.423908 -2.594846 -0.535155 -0.166339 0.121853 -0.577388 -1.832659 -2.926389 -3.361567 0.159506 -0.752505 4.326194 2.90284 -1.469079 -0.616227 0.788738 -0.806913 2.13246 1.096647 1.237584 -0.288162 0.179698 1.570163 0.091941 -1.524701 -1.102449 -1.615839 -0.364109 -2.101004 -0.663784 -0.318699 0.051272 0.686067 -1.094801 1.568548 -3.03993 1.893188 -1.377119 -2.094228 3.564402 -2.235058 -0.581437
-0.063002 -0.234083 0.048008 -0.021485 0.118425 -0.069097 -0.089614 0.015575 -0.088887 0.008327 0.207637 0.145627 0.039454 -0.145483 0.089805 0.196481 -0.026693 0.037297 0.038377 -0.023252 -0.091593 0.155254 0.091762 0.050857 -0.144125 -0.075574 0.049194 -0.032084 0.088898 -0.067973 -0.157209 -0.065605 -0.063939 0.138195 -0.158256 -0.04692 0.110173 -0.083955 0.114583 -0.018865 -0.089491 -0.035668 -0.039526 -0.115205 0.064068 0.002368 -0.123687 -0.024408 -0.086747 -0.035676 0.106402 -0.137065 -0.237056 -0.05544 0.044405 -0.024529 -0.050672 -0.058347 0.091211 -0.044203 0.049511 -0.047131 -0.007296 -0.041396 -0.197592 0.039256 0.094077 0.002507 0.045318 -0.030448 -0.002259 0.129894 0.004666 -0.055742 0.17851 -0.088069 -0.097555 -0.041865 -0.069832 -0.013662 0.134387 0.047405 0.029899 -0.225063 -0.109655 -0.168055 0.098443 0.06128 0.226794 0.174187 -0.15428 5.93E-4 -0.052234 -0.024077 0.128116 -0.13384 -0.03913 0.070803 -0.065908 0.038777
