0.021801 0.047767 0.03396 0.045414 -0.116247 -0.055074 -0.024745 -0.074947 -4.79E-4 0.04414 0.181623 -0.224626 -0.073607 -0.060446 0.011759 -0.063758 -0.009581 -0.110683 -0.021059 -0.021534 -0.180234 0.032658 0.048933 0.018761 -0.03702 0.149393 0.035452 -0.019397 0.338091 -0.067393 -0.029922 0.053453 0.202563 0.139385 0.139224 0.024787 0.11352 0.091446 -0.017206 0.079608 -0.082898 0.043839 0.087418 0.1131 -0.026485 0.055588 -0.016671 -0.153957 0.296557 0.090681 -0.146927 -0.104523 -0.076023 -0.013352 0.168942 -0.123345 -0.015107 0.009174 -0.023022 -0.070333 0.100208 -0.195211 -0.036155 -0.079596 -0.209194 0.025225 -0.104081 -0.068625 0.096678 0.046218 0.046445 0.075604 0.059536 0.022914 -0.147549 -0.341762 0.078235 0.099777 -0.027845 0.151788 -0.205136 -0.039023 0.169104 0.026798 0.082909 0.008252 0.059797 -0.212183 0.046873 0.038391 0.033162 -0.112818 0.107139 -0.090984 0.104094 -0.085878 0.006286 0.16308 0.060007 -0.056075
0.00976 -0.029011 -0.167583 -0.136389 -0.04235 -0.087478 -0.06282 0.168848 -0.088873 -0.106764 0.099547 -0.118225 -0.060725 0.114486 -0.053095 0.156853 -0.014471 0.165533 0.078055 0.075475 0.002296 -0.080016 -0.067211 0.039424 -0.220619 0.124831 0.128278 -0.044997 0.17069 -0.025035 0.052021 0.05291 0.040505 0.036947 0.107447 0.053323 -0.079015 0.080809 0.088934 0.034707 -0.062037 -0.07338 0.042201 -0.02814 -0.069484 0.023902 0.029255 -0.054546 0.079837 -2.4E-4 0.085762 -0.170256 0.043985 -0.052561 0.087938 0.061837 -0.028307 -0.072329 3.63E-4 -0.063338 0.003446 0.168835 -0.093545 -0.098297 -0.077857 -0.061867 -0.141289 0.003553 -0.019723 -0.114562 -0.106439 -0.058728 -0.028213 -0.038634 0.047563 0.016434 0.003482 -0.087054 -0.07354 0.035877 0.080327 -0.113443 0.118096 -0.109026 -0.153241 0.061016 0.174513 -0.027935 0.146412 0.091721 -0.133203 0.053448 -0.103674 0.080885 -0.011991 -0.151354 0.095787 0.152927 0.007498 0.178358
1.939635 1.52901 1.289587 3.251535 -1.724015 -0.88548 -1.305419 2.302571 -1.417341 -1.68966 -0.63789 2.076267 -3.058223 1.539613 1.180597 0.029053 -0.321402 -2.23572 -2.38652 1.658533 -1.245721 -0.526509 -3.599429 0.754249 -0.80274 0.507379 -2.39552 1.105986 -0.056637 -0.438303 1.940801 -2.557426 0.985315 3.029874 0.213126 0.861485 3.121805 0.640059 -0.820139 -2.40745 -0.196076 -4.070904 0.803788 0.627065 2.287266 2.341116 0.489852 -1.57276 1.345608 0.42161 3.228641 4.822541 2.307207 0.997003 -2.753309 0.364194 3.286885 -0.854741 -0.545387 -4.263543 -0.321177 2.708668 -5.839749 -0.190246 1.192365 1.834868 0.85099 3.023894 0.019983 -0.356687 2.290085 -1.712409 1.283075 5.053623 2.119578 0.310527 -1.882558 -2.366862 0.130671 -0.478639 1.414622 1.526558 0.318589 2.752702 0.046978 -1.332104 0.951956 1.81757 -0.872666 2.804518 -1.758129 0.070445 -0.158419 -4.010314 -0.794193 0.288862 -0.172084 0.635215 -0.313457 -0.581935
-0.070629 0.025587 0.070437 0.073477 -0.099652 -0.04362 -0.135792 -0.031465 -0.002146 0.083546 0.129894 0.031545 -0.017508 -0.138639 0.075902 0.046048 -0.048947 0.107141 0.052795 0.089052 -0.070432 -0.075302 0.229281 0.118674 -0.09226 0.040469 -0.158682 -0.091506 0.107081 -0.053378 -0.025309 0.005569 -0.029907 -0.131359 0.105339 -0.112555 -0.116443 -0.129364 0.156439 0.104934 0.002983 -0.025669 -0.077876 -0.112692 -0.070669 -0.139543 0.041041 0.060082 -0.233926 0.064725 0.07136 -0.026596 -0.088346 -0.055049 -0.066827 -0.111899 0.013371 -0.032084 0.029234 0.028485 0.084092 -0.087175 0.042775 -0.002206 0.005524 -0.114932 0.053665 -0.070221 -0.009042 -0.082806 -0.03314 -0.115304 -0.155047 -0.019634 0.124178 -0.105165 -0.066353 -0.041453 3.61E-4 -0.044656 -0.030358 0.096046 0.095907 0.035875 -0.071259 0.001121 -0.102366 0.008884 0.038852 -0.04181 -0.121518 -0.082199 0.085753 -0.101258 0.078681 -0.123082 -0.063609 0.045314 0.006957 -0.124088
0.041182 -0.071701 -0.007566 -0.111173 0.078129 -0.015794 0.102992 0.084804 -0.294614 0.062785 -0.224475 0.044822 -0.054604 0.018822 -0.254624 0.187632 0.057536 -0.04948 0.077868 0.052887 -0.065284 -0.04327 -0.015092 0.035227 -0.120777 -0.01384 0.019468 0.133926 -0.002242 0.025286 0.056421 -0.140413 -0.062551 0.118069 0.067541 0.127629 -0.190311 0.209374 0.192921 0.054712 -0.148947 0.032204 -0.170128 -0.03032 -0.002925 0.169345 0.085453 -0.024603 -0.011659 -0.145112 -0.290293 -0.065943 -0.09053 -0.275955 0.113964 -0.118032 -0.172779 -0.215132 0.00824 0.127013 -0.169866 0.062208 0.042766 -0.087616 -0.10884 0.286924 0.050741 0.130539 0.292731 0.017204 -0.096873 -0.187146 0.25168 0.10377 0.08209 -0.05794 0.019952 -0.023549 -0.204179 -0.090327 0.135311 0.171028 -0.109687 0.012397 -0.001672 0.281126 0.051025 0.031007 0.309401 0.149164 -0.249441 -0.005679 -0.012549 0.20681 0.267068 -0.060891 -0.256129 0.182048 0.03837 0.01928
0.008138 2.715756 -1.677297 -0.446066 1.222 0.151542 -1.762243 0.355707 -2.194843 0.085219 0.834304 -4.027478 -3.048585 -1.469767 -2.324802 -1.352676 0.212052 1.405846 -4.00119 1.875607 -0.161262 -1.869564 -0.35256 -2.506663 -0.288244 -0.957409 -2.313962 -4.815368 -0.521159 -0.967103 1.824569 2.543373 -0.37074 -1.056057 2.663376 2.18318 1.123654 -0.09722 -3.802219 0.924891 0.65497 0.351402 -2.864532 3.356505 -1.626139 -0.595603 -0.505386 0.616499 -1.734152 -1.177668 1.239399 -5.705793 3.129643 1.039744 -2.494549 -2.255318 1.225781 4.154535 -0.888098 0.076241 1.650066 -1.479743 1.101515 4.299851 1.723126 -2.193294 2.470822 -0.142126 1.510795 -0.884865 1.422126 -0.089012 -0.167844 0.22478 -1.04203 -3.270422 1.675406 -1.614962 -0.510897 -0.397348 -0.420793 0.673493 0.95049 -2.279142 2.125196 -0.716272 -2.268734 -0.721086 -0.299103 0.208601 -0.748434 2.151634 -4.606356 0.483161 2.32494 -4.291002 0.315063 -0.513691 0.070598 -0.70922
1.056998 -0.302504 1.446885 0.884105 -1.513739 -2.310637 -2.911673 0.162894 -0.38437 1.784905 -1.918972 -0.027022 2.628253 0.369556 -3.840737 1.894677 0.605846 1.079586 -1.501597 -2.770552 -2.726069 -3.088928 -1.403452 0.389986 -3.601306 0.251412 -1.04147 -0.787088 -4.13345 0.147458 1.104992 1.167343 2.737135 -2.367303 1.392157 -1.875691 -0.622144 -0.778307 1.967609 0.400287 -1.121401 -1.255931 0.149366 1.501518 2.418399 -0.90873 3.428781 2.476013 -1.931436 1.406683 0.686584 -0.859193 0.688887 -1.160677 -2.536234 2.885993 1.793314 1.558063 -2.481822 -1.312822 2.80258 -0.016458 2.874461 0.138839 0.976219 -0.175167 0.841656 0.897277 -1.406917 0.835814 0.067134 -4.45435 0.870002 3.942963 1.139515 -1.138947 0.721689 1.378631 2.89404 -0.471613 2.171018 -3.143099 -1.673196 0.578668 -1.636482 1.579255 0.936823 -3.903658 -0.394437 -0.918384 -0.477128 -0.969646 1.607005 6.704129 1.218203 -0.662294 1.557211 2.35246 -3.627923 3.469814
0.352905 0.550922 -1.128945 -0.511125 0.774489 1.405335 -0.371647 0.106012 -0.779785 -0.640302 -0.68578 1.570717 -0.712288 -0.706705 -0.789609 -0.045278 -1.599722 -2.840112 -0.089543 -1.158838 -1.862605 -0.62748 -0.063542 -0.468696 0.750564 0.033551 -0.772222 -0.188991 -0.163115 0.455978 0.038455 -0.779588 0.172303 -1.114448 -0.548246 -0.008155 1.66721 -0.744821 -0.15746 -2.668482 -0.304702 -0.905716 0.479063 0.151803 -0.94063 -0.044338 -0.906122 -0.456182 0.281891 0.268287 0.47007 0.628019 0.328428 1.471286 -2.345457 0.072073 -0.345477 -0.998199 -1.496897 -0.053061 0.351206 -0.934426 0.295591 0.07336 0.24092 0.486976 0.390085 -0.621556 0.375246 -0.02625 1.957847 1.014101 0.004675 0.08874 -0.900479 -0.462149 0.922254 1.355385 -1.048724 0.105897 1.254466 0.410718 0.321258 1.066395 -0.171761 -0.128774 0.315556 0.697301 -0.180925 0.555334 1.005586 -0.891677 -1.232923 -1.994189 -0.567812 0.204184 -0.947385 -0.051526 -0.987029 0.725141
-0.020892 -0.118995 0.162166 0.122723 0.280551 0.110134 -0.170222 -0.094985 0.022663 -0.096152 0.256238 -0.100829 -0.080812 0.117885 0.071203 0.073747 -0.283052 -0.00865 0.053285 -0.06135 -0.20049 0.113432 0.184392 0.098893 -0.302982 -0.092137 -0.052162 -0.023556 0.127995 -0.164167 -0.093513 -0.20606 -0.112134 0.15593 -0.102057 -0.290756 0.094313 -0.190004 0.126246 0.124971 -0.067207 -0.022883 0.192596 -0.017167 -0.098132 -0.002793 0.073871 0.015025 0.144251 0.159564 0.152852 0.142563 -0.127496 0.218968 -0.01863 0.108195 -0.06489 0.056022 0.330959 -0.233376 0.163535 0.057803 -0.20535 -0.22593 -0.210829 0.059133 0.062431 -0.070913 -0.219805 -0.068653 -0.086861 0.008006 0.08474 0.025432 0.120814 0.095618 -0.093603 0.083745 -0.08213 -0.029395 0.019301 0.048208 -0.091801 -0.138467 0.030923 0.071388 -0.098868 0.17327 0.148358 0.232573 -0.143218 -0.030999 -0.127425 0.038931 -0.186786 -0.121369 0.048425 -0.0115 -0.055581 -0.050098
0.0 0.0 0.0 0.0 0.0 0.0 0.0 0.0 0.0 0.0 0.0 0.0 0.0 0.0 0.0 0.0 0.0 0.0 0.0 0.0 0.0 0.0 0.0 0.0 0.0 0.0 0.0 0.0 0.0 0.0 0.0 0.0 0.0 0.0 0.0 0.0 0.0 0.0 0.0 0.0 0.0 0.0 0.0 0.0 0.0 0.0 0.0 0.0 0.0 0.0 0.0 0.0 0.0 0.0 0.0 0.0 0.0 0.0 0.0 0.0 0.0 0.0 0.0 0.0 0.0 0.0 0.0 0.0 0.0 0.0 0.0 0.0 0.0 0.0 0.0 0.0 0.0 0.0 0.0 0.0 0.0 0.0 0.0 0.0 0.0 0.0 0.0 0.0 0.0 0.0 0.0 0.0 0.0 0.0 0.0 0.0 0.0 0.0 0.0 0.0
1.519526 1.445578 -1.609499 2.582747 2.460795 3.529971 0.431498 -0.524736 0.238502 0.565084 -2.150664 2.607871 -3.578636 0.22885 1.205379 0.400126 -2.365878 -2.228676 -0.500047 -1.958516 -2.734259 -2.028213 -0.339577 -2.726884 0.003785 -1.85554 -0.90189 1.042933 0.930181 0.561229 0.956561 0.220468 -1.219533 -0.188243 -0.649085 -0.117874 2.101841 -0.317004 1.300647 -1.49228 0.533457 -2.976113 -0.635474 -1.431524 -0.943268 0.543614 -2.072507 -1.004219 4.072807 -1.496014 2.612373 2.458477 -0.120651 0.418572 -2.53177 0.646754 2.04053 2.0667 -2.403623 -3.037353 -1.289071 1.269349 0.447478 0.512568 0.464348 -0.142416 -1.155552 0.32258 -0.986119 3.909852 3.839548 0.865499 -1.089316 -1.400134 0.517204 -3.398406 -0.576028 -0.612853 -0.573641 -1.979957 1.278503 1.159562 0.583915 -0.210028 0.851463 1.075476 2.276915 0.114312 2.2836 1.968815 1.899569 0.001135 -2.286771 -2.666814 -1.408445 1.975128 -0.085175 1.44887 -1.994305 2.796178
1.25209 0.537592 1.360256 0.37102 -4.554839 -0.010345 1.487213 1.265503 -2.9109 -2.776283 0.094445 3.431938 -0.618805 2.511029 0.151144 4.322725 -1.425707 2.51722 -1.388186 2.156646 -0.075652 -0.766063 -4.380255 0.027004 1.8963 3.270741 -1.625386 -0.178117 -5.031057 3.645674 3.45916 -1.75908 0.747451 -1.564948 -3.113564 0.019719 -1.222859 -2.032491 -1.884649 0.275456 -0.635363 -1.439062 -1.11407 -0.24509 -3.160208 2.556429 -2.875799 0.570209 -2.309874 -1.650407 -0.457718 -0.011546 -1.83022 -0.545929 -1.032941 -3.870833 0.009574 -2.517628 0.355023 -0.496013 -1.781101 -1.012441 1.622333 -0.123598 -0.138163 0.02427 -2.032633 -1.164386 0.711399 1.557732 3.879331 -1.960367 2.93458 0.700801 1.485817 0.156089 0.431468 1.08518 -1.521504 0.771356 4.714225 -4.233327 -0.129481 2.204439 -1.82151 -2.399426 1.528273 1.443153 1.449952 2.571533 -0.288152 0.365618 -2.71831 0.882481 1.49207 -1.246091 1.742274 3.086224 -0.725613 0.332399
-0.033059 -0.003841 0.030108 0.163011 0.105352 0.147194 -0.036178 -0.068444 0.038477 0.06238 0.121326 0.096957 -0.03952 0.059737 0.108019 0.088335 -0.065316 -0.055853 0.004409 0.284164 -0.120727 0.012958 0.211637 -0.05379 -0.076821 0.048247 -0.036615 0.131151 0.105124 -0.132452 -0.004586 0.047553 0.018431 0.082375 -0.037184 -0.057503 -0.05921 0.098712 0.126763 0.00903 -0.082714 -0.216583 0.133272 -0.007393 0.089772 -0.115459 0.110736 -0.118571 0.00702 0.039542 0.055305 -0.1787 -0.106418 -0.041918 -0.069195 0.051072 -0.156254 0.108775 0.05522 -0.136086 -0.016338 0.004462 -0.009961 -0.119515 0.133079 0.064662 -0.03509 -0.099412 0.227227 0.051663 0.156802 -0.189851 -0.023435 0.082887 0.088759 0.099828 -0.107043 0.02213 -0.023956 -0.070325 -0.032073 0.11249 0.114516 -0.11666 -0.042468 0.059348 -0.026855 0.038676 0.052443 0.077647 0.162325 -0.039425 -5.71E-4 0.002889 -0.038787 -0.036086 -0.056988 0.015773 -0.025481 0.004083
0.0 0.0 0.0 0.0 0.0 0.0 0.0 0.0 0.0 0.0 0.0 0.0 0.0 0.0 0.0 0.0 0.0 0.0 0.0 0.0 0.0 0.0 0.0 0.0 0.0 0.0 0.0 0.0 0.0 0.0 0.0 0.0 0.0 0.0 0.0 0.0 0.0 0.0 0.0 0.0 0.0 0.0 0.0 0.0 0.0 0.0 0.0 0.0 0.0 0.0 0.0 0.0 0.0 0.0 0.0 0.0 0.0 0.0 0.0 0.0 0.0 0.0 0.0 0.0 0.0 0.0 0.0 0.0 0.0 0.0 0.0 0.0 0.0 0.0 0.0 0.0 0.0 0.0 0.0 0.0 0.0 0.0 0.0 0.0 0.0 0.0 0.0 0.0 0.0 0.0 0.0 0.0 0.0 0.0 0.0 0.0 0.0 0.0 0.0 0.0
-0.17535 0.14021 -0.239979 0.117186 -0.120072 0.030181 0.093974 -0.077176 -0.065153 0.329103 0.014116 -0.055173 -0.057986 0.181986 -0.062306 -0.007034 -0.042224 0.079039 0.011306 -0.026587 0.052538 -0.037379 0.161744 -0.089928 0.071929 -0.002749 0.156593 -0.097756 0.047022 0.062899 0.052429 -0.005167 -0.04415 -0.070597 -0.122453 0.104671 0.002347 -0.094275 -0.010899 0.006114 0.060027 -0.001001 0.051646 -0.055022 -0.114433 -0.094409 -0.023604 -0.025444 0.041774 0.054935 0.007706 0.039698 -0.006223 -0.025849 -0.093565 -0.065588 -0.050727 -0.145967 -0.055588 0.017952 -0.078982 -0.030661 -0.10721 -0.037668 0.024524 0.112058 -0.002148 0.082225 -0.034908 0.160385 -0.019993 0.048543 -0.003693 0.068222 -0.087596 0.227347 -0.139762 0.029164 0.024565 -0.139246 -0.178826 0.003111 -0.084708 0.144843 -0.1259 -0.11286 -0.048099 0.085094 -0.175135 0.054902 0.011944 -0.102796 -0.104229 -0.103338 -0.090011 -0.120707 -0.069817 -0.151984 -0.005484 0.00265
-0.032258 -0.018216 0.084218 0.137079 0.07494 0.010693 -0.06759 0.015317 -0.028708 0.011758 0.005003 0.100863 0.024456 -0.119398 0.024284 0.143376 0.075431 -0.069767 0.022475 -0.018492 -0.101328 0.026879 0.074612 0.151187 -0.048297 -0.022602 0.134806 0.103482 0.183131 -0.332765 -0.096346 -0.062758 0.04555 0.174304 0.033256 -0.061823 0.034594 0.059245 -0.028448 0.007123 0.027663 -0.097076 -0.119193 0.071519 0.152655 0.207365 0.133892 0.102038 -0.014352 -0.103142 0.196944 0.020007 -0.022444 0.205441 0.258657 -0.180489 0.017867 -0.180154 -0.005264 -0.139387 0.018772 -0.118449 -0.021569 -0.082867 -0.173894 0.028285 -0.02639 -0.068446 0.009798 0.071408 -0.107288 -0.030864 -0.105211 -0.055785 0.12737 -0.009214 0.164603 -0.008871 -0.06811 -0.033108 -0.154667 -0.033676 0.035083 -0.047649 0.045336 -0.070942 0.006486 -0.008822 0.165403 -0.12703 -0.068671 -0.090951 -0.089883 0.132506 -0.061187 -9.3E-5 0.001586 0.066745 -0.099408 0.075028
0.0 0.0 0.0 0.0 0.0 0.0 0.0 0.0 0.0 0.0 0.0 0.0 0.0 0.0 0.0 0.0 0.0 0.0 0.0 0.0 0.0 0.0 0.0 0.0 0.0 0.0 0.0 0.0 0.0 0.0 0.0 0.0 0.0 0.0 0.0 0.0 0.0 0.0 0.0 0.0 0.0 0.0 0.0 0.0 0.0 0.0 0.0 0.0 0.0 0.0 0.0 0.0 0.0 0.0 0.0 0.0 0.0 0.0 0.0 0.0 0.0 0.0 0.0 0.0 0.0 0.0 0.0 0.0 0.0 0.0 0.0 0.0 0.0 0.0 0.0 0.0 0.0 0.0 0.0 0.0 0.0 0.0 0.0 0.0 0.0 0.0 0.0 0.0 0.0 0.0 0.0 0.0 0.0 0.0 0.0 0.0 0.0 0.0 0.0 0.0
0.228422 -0.015788 0.10302 -0.144938 -0.175292 -0.012617 0.213656 -0.227722 -0.090428 -0.028212 0.103072 -0.152923 0.032428 -0.042122 -0.040489 0.065658 -0.179804 -0.148991 -0.079673 0.032146 0.054129 0.043891 0.084087 0.077393 -0.187102 0.018497 -3.06E-4 -0.051215 0.077871 -0.234203 0.357194 -0.058018 -0.169593 -0.022715 -0.073352 0.110033 0.052702 0.064181 -0.055147 0.054077 0.026208 -0.138966 0.02268 0.145138 0.036856 -0.012152 0.094489 0.038662 -0.146804 0.01036 0.030519 -0.119447 -0.079253 -0.159712 -0.023704 -0.033492 -0.043377 -0.105769 -0.06019 -0.123674 -0.150866 -0.02082 0.036518 -0.208677 -0.092655 0.095915 -0.106067 -0.051378 -0.024287 -0.096015 0.048805 0.008045 -0.094985 0.256767 0.039988 -0.072568 -0.174361 0.039335 -0.08732 -0.103058 -0.098114 0.18447 -0.092326 -0.137848 0.153602 -0.023999 0.101147 0.068399 0.221921 0.27351 -0.045806 0.139018 -0.145142 -0.084467 -0.069915 0.050484 -0.006236 0.03002 0.067547 0.101181
-0.720161 -1.922616 1.473559 -2.009521 1.609445 1.949464 -1.179114 0.822385 -0.022991 1.255378 -1.03626 0.268001 0.153891 2.510805 0.205903 0.514293 1.893713 -1.37318 0.945159 0.125955 -2.74562 -0.383865 4.283734 -0.038581 1.234731 -1.032151 2.578996 3.758713 3.321246 0.305222 -0.874031 0.09423 1.077793 0.068167 -2.37467 -0.651624 -0.555268 -0.691536 0.665327 0.525238 -0.377178 -2.958149 -0.220918 -0.211442 2.298448 1.948544 -0.642459 0.875519 0.441986 -3.773554 2.042899 -1.054499 -0.59614 -0.637388 0.641973 -0.930683 1.114444 -1.788742 0.864007 -1.705999 -2.039726 -3.297323 -1.01081 -0.298428 2.335231 -0.328082 -0.854007 -1.233734 -0.955318 -0.672636 0.747937 0.525088 -1.52542 3.18459 -1.385489 -0.064882 1.072672 0.038073 -2.24789 -0.399258 0.311567 -0.611252 -0.52056 -1.978903 -1.437741 -0.232777 -1.001379 0.562039 -1.890448 -1.25758 -0.361654 1.957492 0.507914 1.383727 1.760024 -2.414054 -1.389952 0.365211 -0.232899 1.672842
0.815113 -0.462716 -0.353349 1.073452 -0.096337 -1.187901 -0.811617 0.027803 -1.819038 0.297489 -1.191996 0.539979 0.768098 0.83091 -0.023777 1.122772 0.623554 0.729202 0.489569 1.31882 -0.037631 0.595731 2.361876 -0.861889 1.071298 0.820875 2.007553 1.079531 -0.417326 -1.169459 -1.243001 1.291243 -0.303138 -1.004211 -1.376072 0.780707 -0.515122 -0.134307 1.347186 -0.885395 0.30389 -1.099776 -0.478627 0.147923 1.669821 0.683405 0.060061 0.24567 0.47346 1.095979 -0.902407 -1.15558 0.295432 -0.281479 1.2495 -0.179619 0.044065 0.5169 0.157394 0.046057 0.511513 -1.324841 0.836485 -0.940936 0.199004 -0.157046 0.886404 -1.715346 1.579719 0.033353 -1.582497 -0.615116 0.412104 0.54263 0.015901 0.003791 -0.847728 -0.158876 1.277484 1.414807 -0.475652 1.413838 1.896832 -0.09724 0.626036 0.238244 0.094134 0.112837 -0.397217 2.299787 -0.424692 -0.002114 -0.721074 0.71895 0.795119 -1.515509 0.048429 -0.320704 -0.769022 0.361963
0.148193 -0.076571 0.207333 0.088101 0.093856 0.002257 -0.010389 0.076975 -0.092787 0.080509 0.03011 0.072991 0.052004 -0.066311 0.090351 0.082086 0.056979 0.16854 0.03313 0.309604 -0.152333 0.060198 0.178852 0.057106 -0.046249 -0.057292 -0.036213 -0.136295 0.261536 -0.30418 -0.040227 0.022718 0.084411 -0.033037 -0.184401 -0.119671 -0.008565 0.001981 0.003206 -0.197683 -0.015985 0.063838 0.073994 -0.145876 0.144658 -0.040383 -0.064826 0.064585 -0.03888 0.005648 0.038207 -0.248787 -0.1433 -0.06058 0.107457 -0.273621 0.024145 -0.046633 -0.104186 -0.13449 -0.086749 -0.089383 0.00719 -0.132547 0.035828 -0.206634 0.028773 -0.212154 0.197999 -0.103259 0.014732 0.005446 0.031192 0.030489 -0.011089 -0.10939 -0.13457 0.141543 0.033558 0.052981 -0.044121 0.144747 0.096667 -0.106212 -0.035077 -0.023416 -0.112263 -0.105493 0.155952 0.043045 -0.106014 -0.096497 0.128501 0.068143 -0.037022 -0.113539 0.083367 0.014305 -0.144703 -0.009604
0.042965 0.091457 0.026244 -0.004545 -0.032671 0.011228 -0.027083 0.033221 0.053481 0.032875 -0.068344 0.046212 0.06243 -0.08466 0.041345 0.046895 -0.026535 0.150355 -0.04174 0.039699 -0.042765 0.003815 0.015208 -0.067987 -0.117689 -0.052636 -0.035928 0.056232 0.054946 -0.078945 -0.028883 -0.135246 0.121287 -0.013887 -0.104361 -0.052259 -0.049109 0.125782 0.080225 0.084947 -0.00491 -0.11172 8.82E-4 0.033622 0.131892 -0.06292 0.133915 0.041215 0.015206 0.115024 0.009945 -0.006799 -0.048487 -0.007956 0.114867 -0.086547 -0.018898 -0.005203 0.037294 -0.012925 0.117138 -0.016922 -2.05E-4 0.105855 -0.046617 -0.035222 -0.062591 -0.165809 -0.044917 -0.034163 0.015143 -0.060246 -0.120136 0.127429 -0.103166 -0.005485 -0.08819 0.009681 0.103155 0.05756 0.003185 0.193501 -0.07984 -0.039861 0.011136 0.092119 -0.070637 0.11431 -0.018449 -0.044468 -0.033716 0.028779 0.00968 -0.031002 0.144899 -0.048444 0.065353 -0.011243 -0.053199 -0.029479
-0.046114 -0.096927 0.169069 0.144269 -0.119074 -0.193156 -0.124727 -0.032294 -0.157273 0.08883 -0.03296 0.293558 0.07893 -0.047052 -0.119052 0.185173 0.196271 0.050811 -0.122053 0.089397 -0.091714 0.232699 0.113825 -0.068748 -0.147901 -0.107476 0.246612 -0.131633 -0.05764 0.05048 0.095109 -0.0877 0.146594 0.039324 -0.044364 -0.207138 0.124381 0.324543 -0.018863 0.104365 -0.045524 0.132069 -0.028297 -0.149431 0.018935 -0.055591 0.001973 -0.157042 -0.142966 0.039132 0.092991 -0.026374 -0.28532 0.05507 -0.092563 0.012103 0.024034 0.02716 0.062432 -0.164619 0.081968 0.040453 0.175791 -0.088481 -0.161604 -0.105879 0.21227 0.116576 -0.142894 0.031165 0.133612 0.206576 0.058895 -0.061574 -0.149486 -0.098667 -0.055111 0.184263 -0.18037 0.200018 -0.072303 0.137909 -0.078129 0.038057 -0.050973 -0.195379 0.117281 0.08288 0.252438 0.018566 0.026409 -0.122338 0.097277 0.076946 0.017598 -0.098627 -0.053671 -0.081359 -0.098846 -0.177147
-0.061018 0.157623 0.117298 -0.109258 0.01787 0.045393 -0.022422 -0.294216 0.022256 0.058558 0.038763 0.036359 0.07868 -0.152594 -0.142051 -0.006561 0.048106 -0.186814 -0.219902 -0.146332 -0.040248 0.162923 0.206328 0.008315 0.064041 -0.061214 0.088903 0.028344 0.024874 0.075935 -0.107993 -0.283393 0.084838 0.187131 0.046335 0.263285 0.01179 -0.091048 -0.068498 -0.122058 -0.038751 -0.129411 -0.058456 -0.131053 0.030694 -0.04914 0.090078 0.005105 0.098069 -0.099897 0.334519 -0.048818 0.274796 -0.137175 0.00266 0.139418 0.004345 0.119594 -0.040263 -0.21202 0.038889 -0.176923 0.158875 0.078129 0.025839 -0.016447 -0.02998 -0.060089 -0.040361 0.099583 -0.008088 -0.092105 -0.119375 0.043943 0.139698 -0.224044 0.190238 -0.066093 0.103458 -0.004324 -0.130908 0.064415 0.004283 -0.207982 0.059064 0.041556 -0.028417 0.088197 0.079813 -0.058325 -0.11522 -0.016049 -0.123872 0.006802 0.019293 0.070081 0.043632 0.294809 -0.077686 0.04626
0.00758 -0.096775 0.103433 0.113693 0.003266 -0.049464 -0.133022 0.033545 -0.015848 0.093735 -0.028448 -0.059931 0.001335 -0.038304 0.146178 0.326642 0.105793 0.196884 0.030045 -0.093089 -0.038883 0.116097 0.194599 0.179665 0.014743 0.133701 -0.035228 -0.01608 0.214348 -0.11076 -0.111054 -0.028211 0.096058 0.258003 -0.139718 -0.002898 0.134255 -0.097313 0.047844 0.129558 -0.088204 0.131468 0.01266 -0.302555 0.099029 -0.040012 0.00813 -0.123818 -0.195206 0.034397 0.122823 -0.219284 -0.118023 -0.151126 0.197709 -0.028438 0.099179 -0.261142 0.340898 -0.152584 0.230066 -0.349337 -0.035572 0.079967 -0.218221 -0.180089 -0.042794 0.067514 -0.021147 -0.086912 -0.196119 0.022411 0.115606 0.018831 -0.111955 -0.088345 0.073684 -0.069903 -0.002644 0.096368 0.04833 0.06703 0.14602 -0.275596 0.031774 0.086531 -0.232334 -0.026206 0.194846 -0.015041 -0.012345 -0.035012 0.104063 0.198949 -0.050172 -0.023153 0.061047 0.126548 -0.164114 -0.086592
-0.359777 -2.465054 2.882461 0.939938 3.348684 2.585976 1.682339 -1.899997 -2.490719 0.710049 0.502721 -0.382654 -0.647445 -4.213941 -2.743373 -1.015725 -0.966649 -3.184361 -0.158937 5.485148 -2.222748 -1.03087 2.660257 -2.037821 -0.598545 1.137486 0.855164 -0.09383 -0.021965 0.540775 2.860456 1.36724 1.829254 2.40486 -1.55964 2.903237 -0.690144 2.19759 -0.200682 -0.601951 2.129161 -5.497226 0.630884 -1.194251 -3.5332 3.001564 -4.727843 2.892083 4.741505 3.03613 -2.86987 -1.662984 -0.289236 0.39293 -2.703683 4.743021 0.515623 -2.610237 -0.55628 -4.42472 -2.811883 0.333764 1.027337 -1.608495 -1.768869 2.550002 0.008569 -0.033919 3.130137 -1.212566 -0.798563 -1.412037 1.483047 -3.014494 0.742874 0.922709 0.914801 -1.080324 -3.097724 -1.993648 1.342595 1.604417 2.263614 1.091698 3.023443 2.163206 -0.755941 0.051241 4.562863 1.113142 -0.191601 -2.250907 -1.559998 1.618655 -0.304178 -0.56191 2.812681 0.02586 -1.560488 0.38831
0.163638 0.022074 0.113841 -0.023072 -6.93E-4 -0.041759 -0.005872 -0.029067 0.021581 0.137374 0.212805 0.129077 -0.036653 0.021838 0.09407 0.017651 0.060458 0.082275 -0.040416 -0.078416 -0.09889 0.106136 -0.009218 0.030619 0.012424 -0.066087 -0.021785 0.021886 -0.011323 -0.190466 -0.027359 -0.093414 0.012287 0.108753 -0.008494 -0.203645 -0.116071 0.021036 -0.036116 -0.129988 0.004966 0.042436 0.055368 0.106689 0.142773 0.118336 -0.123389 -0.051977 0.037604 0.126407 -0.021407 0.137933 0.111343 0.02776 0.152151 0.036221 -0.022351 0.055823 -0.031077 -0.04194 -0.090857 0.039408 0.086757 -0.167938 -0.138669 0.199873 0.021458 0.056772 -0.027823 -8.76E-4 0.182338 0.194175 0.08631 -0.006016 -0.077001 -0.052767 -0.022077 -0.094115 -0.145112 -0.041266 -0.042396 0.029745 -0.076074 0.081713 -0.096983 0.004021 -0.04836 -0.035229 -0.07549 0.113304 0.001558 0.04237 -0.10916 0.028722 0.047159 0.003006 -0.048425 0.020975 0.02368 0.04439
1.323635 1.434096 1.103282 1.151148 -0.129659 -0.993044 -0.235572 1.490763 1.293566 1.233544 3.21093 -3.041915 0.729799 -0.679971 -0.292183 0.363945 -0.470346 0.82493 -0.135147 1.002724 -4.648623 -0.325181 -1.834857 -0.171975 2.659964 1.901687 1.049106 -4.686552 -3.134047 -4.318698 2.403951 -2.999207 -0.778896 -1.27961 0.909108 -4.43333 -0.97681 -0.356987 0.654782 -0.600225 -2.442989 -0.64013 0.053899 -2.649526 1.961234 -1.316157 -0.673578 2.488618 0.199261 -0.19111 3.336132 -1.456394 1.246182 -0.642183 0.613112 -2.510259 -3.43034 -1.207461 3.288563 2.439717 -1.398287 2.102935 -1.990268 -1.924342 -1.769676 -2.305405 -2.127598 0.468178 3.273042 2.666242 2.065805 -1.969993 -1.970828 2.392571 0.329856 1.089902 -0.440102 -0.511971 0.71722 -1.242146 -0.215391 1.686185 0.033625 -0.734022 -0.953579 -1.166258 2.077755 -1.46774 0.049195 -0.947892 -1.465729 1.035469 -1.670515 0.908471 -2.291626 0.04692 3.220793 0.569426 2.568025 -1.852826
0.35651 -0.060449 0.386573 0.036309 0.114313 -0.156781 0.021726 0.244893 -0.195732 -0.441572 0.049728 0.259435 -0.048209 0.109658 0.121064 0.143238 -0.159856 0.039267 -0.071781 0.351671 -0.196169 -0.342029 -0.103685 0.17052 0.111231 -0.430681 -0.001027 -0.204354 0.140107 -0.033202 -0.228213 -0.005456 -0.11605 0.058032 0.22073 -0.007392 0.118096 -0.235525 0.026186 -0.010847 0.022415 -0.006339 -0.048736 0.058109 0.038603 0.235194 0.02662 -0.230693 -0.085944 0.115193 0.268959 0.32215 0.070817 -0.19022 -0.256911 0.442878 0.123457 0.075746 -0.045983 -0.175578 -0.055899 -0.021816 -0.336069 -0.070789 -7.0E-5 0.171439 -0.200456 0.263501 0.181279 -0.175719 -0.070184 -0.005631 0.124414 0.267318 0.064657 0.26833 -0.016349 -0.369018 0.053205 -0.371146 -0.125814 -0.409653 0.332813 0.114839 -0.008653 0.058199 0.178131 0.239668 0.29187 0.126907 -0.135915 -0.113612 0.132418 -0.02971 -0.134162 -0.005104 0.04962 0.126928 -0.323408 -0.124012
2.591633 1.608701 -2.087245 2.00752 3.012652 4.995656 0.847355 -1.594905 -0.365708 -1.629805 -1.650237 3.712017 -0.231463 -0.537534 -2.036098 2.002639 -0.696666 -4.310136 -1.477319 -1.356504 -0.581823 -1.830239 -0.272773 -1.648095 0.090509 0.008711 0.330842 0.396714 2.341035 -0.526067 1.155793 -1.730906 -1.010387 -1.342646 -1.939355 0.734869 0.727366 0.700702 1.516974 -2.133831 -0.280653 -3.051674 0.017123 0.532043 1.478449 0.375441 0.920129 1.548929 1.087478 0.668327 0.707416 3.249232 -0.362503 1.273221 -2.929682 -0.245389 1.633444 -0.119836 0.103459 -3.445175 0.513245 0.427807 0.738792 1.448203 0.501908 0.362882 -0.731533 -0.391201 0.037778 3.053553 4.030229 1.793904 1.24136 0.081706 -1.401954 -0.638804 -0.487445 -0.267924 0.012844 0.538179 -0.241935 -0.068756 1.351665 -0.112558 0.001814 0.447262 0.833441 -0.023876 1.212707 1.514635 -0.568611 0.376173 -3.663739 -4.345135 -0.444319 2.139788 -2.53093 0.92131 -1.399435 1.763954
0.0 0.0 0.0 0.0 0.0 0.0 0.0 0.0 0.0 0.0 0.0 0.0 0.0 0.0 0.0 0.0 0.0 0.0 0.0 0.0 0.0 0.0 0.0 0.0 0.0 0.0 0.0 0.0 0.0 0.0 0.0 0.0 0.0 0.0 0.0 0.0 0.0 0.0 0.0 0.0 0.0 0.0 0.0 0.0 0.0 0.0 0.0 0.0 0.0 0.0 0.0 0.0 0.0 0.0 0.0 0.0 0.0 0.0 0.0 0.0 0.0 0.0 0.0 0.0 0.0 0.0 0.0 0.0 0.0 0.0 0.0 0.0 0.0 0.0 0.0 0.0 0.0 0.0 0.0 0.0 0.0 0.0 0.0 0.0 0.0 0.0 0.0 0.0 0.0 0.0 0.0 0.0 0.0 0.0 0.0 0.0 0.0 0.0 0.0 0.0
-0.027752 -0.078053 -0.168374 -0.04949 -0.017987 -0.006998 -0.084835 0.041077 -0.03925 0.140242 0.120046 -0.07195 0.019747 0.034849 -0.0699 0.087065 0.145727 -0.196418 0.130494 -0.147846 0.018663 0.044182 0.018208 0.054617 0.021357 -0.013453 0.015914 0.076414 0.036719 -0.127716 -0.082151 -0.033397 -0.111564 -0.037775 -0.122828 -0.058231 0.002753 -0.035885 -0.083939 -0.041179 -0.128828 0.126715 0.035257 -0.036841 -0.052283 -0.059519 0.061604 -0.036792 -0.118906 -0.108324 0.269964 -0.210783 0.006538 0.008704 0.185709 0.01414 -0.101531 0.230892 0.075212 -0.119841 -0.026776 -0.020363 0.148725 -0.003867 -0.117082 -0.069771 0.027103 -0.276878 0.111062 0.075204 -0.003132 -0.01994 0.072648 0.011328 -0.019488 0.08965 -0.060771 0.008701 -0.015867 0.030738 0.128464 -0.033351 0.089129 -0.137259 -0.162371 0.135435 0.107041 0.027241 0.001733 0.014827 -0.011509 -0.072752 0.082347 0.129743 -0.117094 0.06248 0.02429 -0.197987 -0.007616 -0.158359
0.646107 0.083461 0.717055 0.708677 -0.396407 0.322198 -1.442394 0.322996 -0.561346 -0.54038 -0.051116 -0.474504 -0.309846 0.097016 0.212804 0.467133 0.46195 0.252242 -0.416506 0.334825 -0.305468 0.352082 0.447101 -0.26378 0.200663 -0.163649 0.300798 0.652178 0.418008 -0.299717 -0.10579 -0.108036 0.895339 -0.367006 0.069762 -0.714271 0.197117 0.285332 -0.532706 -0.57162 -0.007403 -0.921446 0.258429 -0.17916 0.5538 -0.634663 0.595062 0.307452 0.121298 -0.379618 -0.125838 -0.501887 -0.049265 -0.361615 0.603095 -0.156288 0.128375 0.369831 -0.192139 -0.163033 -0.031447 0.259712 -0.881458 0.353725 -0.122373 -1.399294 -0.159952 -0.848739 0.054997 0.097434 0.375571 0.206237 -0.026765 0.089562 -0.130863 0.265846 0.212345 -0.317917 0.318806 0.619323 0.248729 -0.066306 0.530451 -0.384656 -0.339116 0.245279 0.404191 -0.463912 -0.393964 0.673108 -0.310849 0.013897 -0.144322 0.844601 0.26769 -0.069715 -0.734806 -0.185321 -0.326188 -0.594707
0.0 0.0 0.0 0.0 0.0 0.0 0.0 0.0 0.0 0.0 0.0 0.0 0.0 0.0 0.0 0.0 0.0 0.0 0.0 0.0 0.0 0.0 0.0 0.0 0.0 0.0 0.0 0.0 0.0 0.0 0.0 0.0 0.0 0.0 0.0 0.0 0.0 0.0 0.0 0.0 0.0 0.0 0.0 0.0 0.0 0.0 0.0 0.0 0.0 0.0 0.0 0.0 0.0 0.0 0.0 0.0 0.0 0.0 0.0 0.0 0.0 0.0 0.0 0.0 0.0 0.0 0.0 0.0 0.0 0.0 0.0 0.0 0.0 0.0 0.0 0.0 0.0 0.0 0.0 0.0 0.0 0.0 0.0 0.0 0.0 0.0 0.0 0.0 0.0 0.0 0.0 0.0 0.0 0.0 0.0 0.0 0.0 0.0 0.0 0.0
0.007841 -0.212766 -0.005545 -0.021372 0.027022 0.05446 -0.144521 0.004677 -0.118441 0.184306 0.243966 0.105317 0.028553 0.02922 0.003228 0.213672 0.019856 0.208628 0.117858 0.118324 -0.052759 0.042566 0.125152 0.002705 -0.069236 -0.165469 0.039247 -0.051793 0.092513 -0.041613 0.016721 0.085161 0.02428 0.033297 -0.085318 -0.068075 -0.035552 -0.028716 0.024253 -3.56E-4 -0.020508 0.183882 0.036353 0.010488 0.004335 -0.061166 -0.055729 0.019621 -0.143732 0.081543 0.023238 -0.138577 -0.011809 0.010973 0.083203 -0.078341 0.125079 -0.017326 0.068026 -0.069799 0.084735 -0.12101 -0.026827 -0.06568 -0.055177 -0.087354 0.010476 0.054856 -0.032542 -0.14824 -0.075008 -0.048016 -0.034812 -0.021842 0.008481 -0.084592 -0.081587 -0.027761 -0.020533 0.034263 -0.141045 0.017261 -0.014163 -0.07049 0.018691 -0.082123 0.007187 -0.155136 0.136723 0.064082 -0.173667 0.020434 -0.046341 0.053601 -0.017547 -0.019342 0.212946 0.10153 -0.027955 -0.070137
2.639274 0.860779 1.914535 0.075096 -2.067821 0.868151 2.41574 -0.571041 1.339049 -1.281174 -0.433602 0.871327 -1.548308 0.966946 -0.786386 -0.714393 -0.087621 -1.306236 -1.047139 -0.923836 -2.264294 -2.588521 -1.458217 -1.134626 3.310679 -0.54589 2.199729 -1.371259 0.466074 -3.369755 1.958229 3.033066 0.421195 1.634074 1.586538 1.129434 3.1813 -0.503733 0.596682 -1.070617 2.576208 -4.845244 0.269594 -0.305141 -0.001004 0.927763 -1.411168 -0.369687 5.073754 1.296224 2.814874 2.86693 1.155716 1.341413 0.524913 -2.458242 1.601557 1.575213 -1.137998 -0.420681 -0.255038 -1.034292 0.758403 1.042079 -2.456706 0.577587 2.169803 -0.212162 -0.74104 -0.859061 4.336587 1.523722 -1.638986 -0.00237 0.544093 -2.246276 -2.027173 0.113195 -2.980508 2.742148 0.260742 0.054881 -3.011818 -0.787116 2.629465 2.104289 4.309555 2.458298 -0.916654 -0.451662 0.519842 0.217335 -1.218073 1.333352 0.545333 1.80372 -1.063515 1.367284 -4.092412 2.91449
0.053284 -0.02831 0.073534 0.043655 -0.071761 0.023829 -0.089469 -0.149685 -0.02029 0.002805 -0.115475 0.10861 -0.187293 0.173159 0.10573 -0.027871 -0.046233 -0.019196 -0.123889 0.145442 -0.244349 -0.141501 0.058057 0.183622 -0.171211 -0.100848 -0.030764 -0.006491 0.033087 -0.010223 -0.099035 0.046627 -0.06875 0.271824 -0.227026 -0.065529 -0.022397 -0.104088 -0.155273 -0.113572 -0.201725 -0.123283 0.001715 -0.078569 0.141362 -0.079199 -0.092461 -0.16356 0.008255 0.01264 0.032743 -0.040167 -0.141769 -0.092711 0.13236 0.061398 -0.21891 0.014964 -0.088068 -0.097294 -0.04269 -0.23188 -0.022815 -0.018621 0.004086 0.036345 -0.005373 -0.048773 -0.07733 0.005778 0.17246 -0.043684 0.107732 0.1208 -0.018265 0.170388 0.011399 -0.032943 0.033442 0.026036 0.01454 0.053651 0.169479 -0.031658 -0.080207 0.056691 -0.007069 0.013756 0.031409 0.087834 0.008524 -0.098607 0.024264 0.189625 0.019321 -0.036829 -0.182828 0.059476 -0.001309 -0.070991
0.102552 -0.16986 0.176563 -0.016792 -0.075467 -0.145314 0.02184 -0.132824 -0.014519 0.080671 0.260322 0.177028 0.152792 0.010205 0.112916 0.238972 -0.083864 0.158997 -0.115616 0.086057 -0.087761 0.150296 0.078687 -0.050504 -0.228487 0.067191 0.040371 -0.027306 -0.120541 -0.056817 0.166968 -0.160496 0.091024 0.103811 -0.107916 -0.255359 0.156895 0.162379 -0.067521 -0.034548 0.01417 0.074665 -0.12552 -0.249095 0.038275 0.085202 -0.029517 0.009402 -0.120507 0.272002 0.221301 -0.228887 0.022212 -0.032619 0.049654 -0.2589 0.014059 -0.088643 -0.03042 0.021255 0.19797 0.067486 0.099511 -0.035845 -0.180838 -0.062864 0.154229 0.087381 0.118233 0.108047 -0.009006 0.058648 0.052429 -0.030079 -0.110129 0.048083 0.023506 0.071163 -0.042314 -0.03222 0.020556 -0.061379 -0.035855 -0.101175 -0.139598 -0.12239 0.169656 0.168243 0.159593 0.234457 0.006015 -0.046646 0.066652 0.205211 -0.002982 -0.061163 -0.010577 0.127874 -0.155092 -0.131251
0.107394 -0.219301 0.120873 -0.193571 -0.210206 -0.001264 -0.150451 -0.026785 0.0703 0.023766 -0.086625 -0.043945 -0.110121 -0.24098 0.027654 0.234395 -0.10212 -0.044313 0.056347 0.025326 -0.098068 0.011126 0.088236 0.047518 -0.104257 -0.132627 -0.046734 -0.206398 0.172152 0.067819 0.08648 0.010314 -0.092355 0.031151 -0.124546 0.015287 -0.047613 -0.040693 0.002365 0.114899 -0.01006 0.014506 -0.021658 0.091612 0.019659 0.040836 -0.049429 0.016028 -0.166992 -0.011495 -0.052609 -0.10393 -0.039429 -0.034543 0.036835 -0.129694 0.233566 0.093984 0.094158 0.040435 0.109344 0.070407 0.087217 0.00804 0.120919 0.240147 0.059949 0.066332 0.134864 -0.253624 0.019219 0.010136 -0.096022 0.118955 -0.027878 -0.050266 0.026725 0.127805 -0.068548 -0.058051 0.060925 0.091007 0.109865 -0.041007 0.013922 0.115113 0.021662 0.005952 0.300729 0.151116 -0.046146 0.135397 0.073665 0.022783 0.012179 -0.046304 -0.111613 0.117208 0.030591 -0.03354
-0.183479 -0.048731 0.05397 0.085137 -0.049637 0.023852 0.162362 0.13407 0.063616 0.151144 -0.136799 0.065878 0.008909 -0.196877 0.026541 -0.154639 0.174649 0.213374 0.229147 -0.10444 -0.091235 0.051611 0.021302 0.004539 -0.242356 -0.056614 -0.079564 -0.087788 -0.181456 -0.104612 -0.050045 0.244532 0.071385 -0.118197 0.027271 -0.091531 -0.004654 -0.005903 0.048103 -0.093707 0.106653 -0.0281 -0.001062 0.109551 0.034959 -0.193046 -0.192189 0.034222 0.081309 0.115193 0.1454 -0.155728 -0.09728 0.087806 -0.05977 -0.132969 -0.022818 -0.039456 -0.191359 -0.088908 0.166172 -0.082843 0.209119 -0.024497 -0.1034 0.210093 -0.088396 -0.038933 0.051596 0.054348 0.179003 0.018207 0.026621 0.290335 -0.006817 -0.29026 -0.182348 0.016422 0.091197 0.155795 0.17962 0.19094 0.118767 0.120413 0.086572 -0.134971 -0.019848 0.045235 -0.08239 0.076097 0.091587 0.028616 -0.060531 -0.133395 0.118191 0.109773 -0.071008 -0.011747 -0.08083 -0.088774
-0.068454 -0.122863 0.134262 0.083716 -0.146457 -0.05854 -0.046249 0.145899 -0.070309 0.010732 0.090118 0.029646 -0.134044 0.011502 0.13797 0.056779 -0.07073 0.176961 0.006425 -0.153893 -0.009753 0.0856 0.130737 0.060926 -0.08509 -0.0078 0.032945 0.025603 0.032755 -0.111281 4.93E-4 -0.017962 0.032708 0.128146 -0.085697 0.05081 0.0276 0.03696 0.01402 0.060028 -0.124086 0.028109 -0.015197 0.122354 0.089105 -0.142934 -0.046646 -0.03136 -0.088624 -0.018623 0.176395 0.059223 -0.037748 0.092775 0.211408 -0.085361 -0.007459 -0.099707 -0.09085 0.010112 0.047779 -0.174533 -0.067544 -0.18185 0.006312 -0.081968 0.046034 -0.073605 -0.048238 -0.084453 0.091696 0.038272 0.057807 0.027356 0.14928 -0.024513 -0.009631 -0.031003 -0.064339 0.046794 -0.17687 0.056175 -0.018763 -0.084626 0.021903 -0.031887 -0.026426 -0.017246 0.052909 -0.04163 -0.017914 -0.010917 -0.015599 0.164133 -0.056038 -0.053381 0.088108 0.022985 -0.007861 -0.03771
-0.107557 -0.098007 0.082426 0.117608 -0.035161 -0.094132 -0.274543 0.162428 -0.040325 0.178578 0.181539 0.042466 0.200892 -0.197607 -0.204085 0.399768 -0.098808 0.083558 0.014014 0.03584 -0.166873 0.135079 0.122074 0.120611 -0.156188 -0.112354 -0.037548 -0.084913 0.045831 -0.030069 -0.040419 0.080339 -0.141985 0.184245 -0.108803 0.014453 0.081056 -0.022319 0.218874 0.099654 -0.021886 0.154384 -0.150899 -0.080345 0.045616 -0.092212 -0.001837 0.226273 -0.292918 0.10915 -0.02482 0.099979 0.077714 -0.01487 0.001089 -0.048413 0.072712 -0.102899 0.24894 -0.171649 0.150528 -0.265136 0.047075 -0.042565 0.071296 -0.268515 -0.054925 0.080165 0.043057 -0.208831 -0.297392 0.201822 0.275144 -0.070668 -0.078639 0.022748 0.002609 0.017337 0.005759 -0.047024 -0.077866 0.164097 0.039053 -0.298368 0.046133 -0.30935 -0.023765 -0.12593 0.112043 -0.040279 -0.041215 -0.009935 0.046787 0.09117 0.145808 -0.28596 -0.001576 0.049918 -0.0239 -0.010873
-0.198993 -0.038833 0.084464 0.035459 0.072309 0.179254 -0.023182 -0.038349 -0.00192 -0.043359 0.05716 0.033052 -0.044886 -0.05034 0.040471 -0.007395 0.101527 0.026356 0.046298 0.183448 -0.070901 0.14118 0.138608 -0.056514 -0.119897 -0.030357 0.058616 -0.010924 0.056879 0.01442 0.034758 -0.143262 0.018721 -0.110238 -0.010141 -0.047775 -0.064593 -0.028203 0.238922 0.133151 0.055244 -0.013355 -0.069299 0.025915 -0.048973 -0.184971 0.168239 -0.017302 -0.134047 -0.04956 0.139145 -0.067974 -0.214556 -0.043842 -0.13873 0.060507 -0.0822 0.04571 0.202554 0.088807 -0.053065 0.134074 -0.084771 -0.082177 -0.200724 -0.154299 0.049874 -0.050157 -0.031405 -0.173391 -0.097618 -0.005724 -0.050184 0.122742 0.03889 -0.18666 -0.097963 -0.090014 -0.132312 -0.009465 -0.06537 0.043545 -0.006869 0.038956 0.222033 -0.069937 -0.022133 -0.035512 0.062168 0.002819 0.025548 0.057064 0.029098 -0.125841 0.003589 -0.112843 0.206959 -0.089189 -0.091126 -0.087675
0.706307 -0.420594 0.914645 -0.52312 0.148059 0.802887 -0.215891 0.160929 -1.081173 0.032025 -0.705195 -0.413299 0.16056 -0.27024 0.309198 0.265197 0.537681 0.69333 -0.041621 0.234157 -0.758039 -0.150773 0.164222 -0.172814 -0.365306 -0.25234 1.004509 0.48701 0.241714 0.49849 0.058762 0.729813 0.297591 0.257305 -1.254382 0.025972 -0.600491 -1.209304 -0.143838 0.385527 0.43802 -0.127316 -0.149106 -0.20801 0.455617 -0.464466 -0.213516 -0.237088 -0.07457 -0.181539 -0.884347 -0.130751 0.347775 -0.918201 0.613918 0.14251 -0.529948 -0.328501 -0.855026 -0.564905 -0.349333 -0.647227 -0.23143 -0.223572 0.906004 -0.924992 0.48248 -0.306711 0.090198 -0.924211 0.801102 0.313986 -0.860341 0.369483 0.381001 0.442809 0.346231 0.488398 0.175166 0.03904 0.534413 -0.083526 0.529591 -0.288029 0.285522 1.25624 0.619648 0.325799 -0.206822 1.737238 -0.55397 1.253529 -0.275692 0.264057 0.825525 0.601947 -1.879294 0.372943 -0.405366 -0.074676
-0.190763 -0.119109 0.292837 0.076106 -0.104219 -0.117272 0.076795 -0.236864 0.014675 0.025788 0.007234 0.168469 0.059751 -0.186152 0.116286 0.26215 -0.025455 0.226095 0.115929 0.0535 -0.297415 0.14616 0.122124 0.00926 -0.118763 -0.289316 0.037886 0.07056 0.291514 -0.003972 -0.067244 -0.120219 0.011894 0.270982 -0.202862 0.097198 0.002202 -0.036763 0.014131 0.187052 -0.053669 0.072074 0.075553 0.09399 -0.025906 -0.040688 -0.01142 0.012538 -0.309644 0.24525 0.258273 -0.060889 -0.138028 -0.080129 0.115168 -0.149973 -0.137186 -0.026667 -0.126945 -0.084833 0.065222 -0.096123 -0.135532 -0.103807 -0.034248 0.073888 0.152472 -0.020639 0.087546 0.006064 -0.16957 0.112168 -0.153283 0.045135 -0.129257 -0.002558 -0.018276 -0.134541 -0.143151 -0.108152 0.033464 0.148508 0.085607 -0.165725 -0.130489 0.092451 -0.059031 -0.104718 0.336391 0.22291 -0.182476 0.059875 -0.124678 0.161976 0.00699 -0.18379 -0.075828 -0.207085 -0.074091 -0.083246
0.082388 0.102349 0.148088 0.171462 0.070139 0.059498 -0.01402 0.12298 0.326572 -0.170329 0.297613 -0.225854 0.042541 0.100035 -0.141901 0.12507 0.142905 0.136061 -0.220581 -0.073297 0.095491 0.030166 -0.012627 -0.169428 -0.079442 0.048367 -0.201301 0.047924 -0.118254 0.088566 -0.059925 0.061097 0.111775 0.015108 0.040884 -0.134957 -0.212358 -9.42E-4 -0.174405 0.014797 0.134162 -0.041547 -0.140691 0.081664 0.268601 -0.168499 -0.003348 0.007262 -0.131925 0.162764 0.045619 -0.370049 -0.00953 -0.100821 0.162738 -0.17127 0.060866 0.001226 0.146398 0.042355 -0.018415 0.110513 0.096572 0.051389 -0.055728 0.030018 0.105448 -0.180169 -0.039329 -0.135059 -0.038624 0.073352 -0.094691 0.025911 0.205071 -0.052216 0.277724 -0.119297 -0.054964 0.147811 -0.21063 -0.087643 0.080809 0.072925 0.064436 0.135731 -0.22074 0.032742 -0.168021 -0.197882 0.025512 0.065007 0.252582 0.091221 0.150824 -0.203027 0.124053 -0.004508 -0.091488 0.10386
0.021801 0.047767 0.03396 0.045414 -0.116247 -0.055074 -0.024745 -0.074947 -4.79E-4 0.04414 0.181623 -0.224626 -0.073607 -0.060446 0.011759 -0.063758 -0.009581 -0.110683 -0.021059 -0.021534 -0.180234 0.032658 0.048933 0.018761 -0.03702 0.149393 0.035452 -0.019397 0.338091 -0.067393 -0.029922 0.053453 0.202563 0.139385 0.139224 0.024787 0.11352 0.091446 -0.017206 0.079608 -0.082898 0.043839 0.087418 0.1131 -0.026485 0.055588 -0.016671 -0.153957 0.296557 0.090681 -0.146927 -0.104523 -0.076023 -0.013352 0.168942 -0.123345 -0.015107 0.009174 -0.023022 -0.070333 0.100208 -0.195211 -0.036155 -0.079596 -0.209194 0.025225 -0.104081 -0.068625 0.096678 0.046218 0.046445 0.075604 0.059536 0.022914 -0.147549 -0.341762 0.078235 0.099777 -0.027845 0.151788 -0.205136 -0.039023 0.169104 0.026798 0.082909 0.008252 0.059797 -0.212183 0.046873 0.038391 0.033162 -0.112818 0.107139 -0.090984 0.104094 -0.085878 0.006286 0.16308 0.060007 -0.056075
0.00976 -0.029011 -0.167583 -0.136389 -0.04235 -0.087478 -0.06282 0.168848 -0.088873 -0.106764 0.099547 -0.118225 -0.060725 0.114486 -0.053095 0.156853 -0.014471 0.165533 0.078055 0.075475 0.002296 -0.080016 -0.067211 0.039424 -0.220619 0.124831 0.128278 -0.044997 0.17069 -0.025035 0.052021 0.05291 0.040505 0.036947 0.107447 0.053323 -0.079015 0.080809 0.088934 0.034707 -0.062037 -0.07338 0.042201 -0.02814 -0.069484 0.023902 0.029255 -0.054546 0.079837 -2.4E-4 0.085762 -0.170256 0.043985 -0.052561 0.087938 0.061837 -0.028307 -0.072329 3.63E-4 -0.063338 0.003446 0.168835 -0.093545 -0.098297 -0.077857 -0.061867 -0.141289 0.003553 -0.019723 -0.114562 -0.106439 -0.058728 -0.028213 -0.038634 0.047563 0.016434 0.003482 -0.087054 -0.07354 0.035877 0.080327 -0.113443 0.118096 -0.109026 -0.153241 0.061016 0.174513 -0.027935 0.146412 0.091721 -0.133203 0.053448 -0.103674 0.080885 -0.011991 -0.151354 0.095787 0.152927 0.007498 0.178358
-0.06675 -0.143392 0.147022 0.131797 -0.201094 0.041531 0.013612 -0.144758 0.036223 -0.044083 -0.008035 0.140126 -0.062076 0.010561 0.212689 0.150845 0.035666 0.131041 -0.033722 -0.088603 -0.187201 0.138265 0.417791 0.104076 -0.222771 0.005567 0.04475 0.075967 0.226025 -0.197398 -0.088961 -0.192846 0.0805 0.049462 -0.045417 -0.030686 -0.006622 -0.058118 -0.016524 0.067726 0.078763 0.006697 0.111742 -0.177687 -0.032966 -0.127396 -0.148758 -0.137248 -0.185302 0.028087 -0.096791 -0.008902 0.034521 0.099792 0.170422 0.036938 0.016948 -0.226897 -0.020086 0.029181 -0.007432 -0.02347 -0.09456 -0.102955 -0.064027 -0.291047 0.037351 0.016123 0.206862 -0.087322 0.094704 -0.054388 -0.045054 -0.01621 0.001764 -0.015056 -0.066216 -0.082793 -0.077487 0.119749 -7.97E-4 0.021772 0.170011 -0.240651 0.127559 0.034581 -0.11934 -0.044625 0.190032 0.069864 -0.156275 0.28794 -0.099497 0.275102 -0.124416 -0.074913 -0.082467 0.106271 -0.05499 -0.098364
2.01044 1.232296 -2.549912 -2.032197 2.108218 0.350754 3.984176 -0.781111 1.754388 -2.314295 2.355634 -1.525834 1.226472 -1.541329 -3.304575 2.991044 -1.391115 -2.323146 -2.15385 -2.980392 2.344315 -2.676041 1.909837 -5.523956 -1.061176 -1.804773 -0.560027 -2.255916 -1.094577 -1.063408 0.662731 -2.102897 -3.864523 -7.571391 -1.344896 0.094571 0.367136 1.570184 0.648031 -0.688728 -0.946578 -0.092235 -2.489474 -1.986418 -1.624544 2.498297 1.250083 -1.068359 1.883808 -2.927913 -1.745434 -2.058515 -0.512999 0.410537 1.644372 -2.957222 1.082306 2.233394 3.431873 -2.073999 1.844186 -1.494935 0.390434 1.564615 -2.929395 -0.086005 -1.048035 -6.680551 1.315066 2.524979 4.404657 4.649625 1.632009 -3.155071 -4.040797 -1.548602 1.77773 -0.139533 -0.426028 0.428942 0.053434 -1.593569 3.168037 1.766949 4.17124 2.646524 2.776018 3.211581 -0.17617 -0.149054 -1.677979 1.48727 -4.970527 -4.785122 -2.199308 0.014736 -3.178869 1.436958 -1.954018 -3.116458
-0.03565 -0.100696 -0.018209 0.141486 0.060372 0.092909 -0.015626 -0.002745 0.062568 0.036885 0.047103 0.182831 -0.129336 0.018142 0.103925 0.295781 -0.101293 0.02999 -0.077677 -0.058336 -0.055092 0.10057 0.13739 0.108688 -0.229841 0.003722 -0.051399 0.10737 0.081878 -0.100141 0.029502 -0.067911 -0.024437 0.031179 -0.046274 -0.124512 0.044924 -0.136048 -0.088552 0.155695 0.063187 0.009627 0.121183 0.132173 0.047165 -0.165771 -0.119729 0.020826 -0.002601 -0.036886 -0.042914 0.102129 -0.009303 0.125766 0.111736 0.094584 0.065628 -0.036816 0.144994 -0.085161 0.134878 -0.24026 -0.068417 0.019558 0.015414 0.135673 0.100891 0.02093 0.023804 -0.100704 -0.064668 0.022182 0.076249 0.027237 0.011886 -0.06533 -0.136987 -0.080291 -0.037063 -0.076144 0.066069 0.189403 0.122077 0.1833 -0.014154 -0.015402 0.134964 0.086471 0.096793 0.053529 -0.024095 -0.137494 0.084718 0.016831 -0.063593 -0.064013 0.124948 -0.102721 -0.027417 0.04525
0.043959 -0.042065 0.152873 -0.063135 0.135731 -0.100213 -0.003591 -0.026148 -0.178461 -0.035774 0.086589 0.094657 -0.191567 0.037829 -0.09744 0.114892 0.048295 -0.050466 -0.153502 0.077609 -0.175845 0.031356 0.060312 0.019628 0.017147 -0.124694 0.016325 -0.051315 0.007539 -0.054975 -0.188742 0.009841 -0.016424 0.124583 -0.104404 -0.045225 0.074569 0.052698 0.007289 -0.102672 -0.039751 0.025302 -0.075179 0.009583 -0.165844 -0.051432 -0.135855 -0.064711 0.015192 -0.021816 -0.067496 -0.151776 -0.140047 -0.087647 0.041429 0.07968 -0.061375 -0.126014 0.151498 -0.108681 -0.179376 -0.057954 -0.032214 -0.220841 -0.098692 0.087904 -0.106605 -0.090893 0.154821 0.165072 0.117309 -0.057541 -0.051152 -0.006049 0.005311 -0.120906 -0.010085 -0.008964 -0.063421 -0.017369 -0.06455 -0.040576 0.138925 0.038011 -0.097767 -0.029411 -0.117423 0.114436 0.162926 0.059376 -0.027113 -0.08066 -0.008813 0.138763 -0.081257 0.041472 -0.054326 0.083569 0.069001 -0.084584
0.004577 -0.077139 0.186696 0.192622 -0.122348 0.03174 -0.059208 -0.298223 -0.097779 0.049746 0.056097 0.240002 0.071719 0.068956 -0.03834 0.26472 -0.088507 0.336059 0.024975 0.081693 -0.025406 0.2262 0.20086 0.182967 -0.13429 -0.16792 0.0705 -0.047265 0.121626 -0.07506 -0.205217 -0.175597 -0.136736 0.135177 -0.017349 -0.206152 0.013709 0.103611 -0.102685 0.017773 -0.08926 0.153647 0.011442 -0.040664 -0.047171 -0.118774 -0.005246 0.044751 -0.058672 0.046157 0.080276 -0.048172 -0.03771 0.11095 0.029518 -0.070148 -0.033146 -0.008512 0.039747 -0.12649 0.006828 -0.086185 -0.00663 0.04893 -0.134276 -0.039226 0.118615 -0.071338 0.039573 0.041567 0.005918 0.051412 0.031927 -0.147693 0.180613 -0.124274 -0.281498 -0.032309 -0.057821 0.051871 0.100375 0.153059 0.088905 -0.204906 -0.017154 -0.053508 0.201842 0.070378 0.354441 -0.029274 -0.23367 0.03927 -0.015055 0.260397 -0.070372 -0.104677 0.127208 -0.056051 -0.229486 0.026219
0.102432 -0.038963 -0.066557 0.052934 -0.007181 -0.075667 -0.129982 -0.081979 -0.315768 -0.133217 -0.04844 0.054835 -0.018437 0.038751 -0.016356 0.199557 -0.190927 -0.100969 0.063353 0.028339 0.017272 0.108377 0.15299 0.023883 -0.114952 -0.01786 0.058432 0.03749 0.149619 -0.228841 0.014119 -0.063423 -0.116222 0.137744 -0.114143 -0.134175 -0.007301 -0.112753 -0.140935 -0.011079 0.073516 0.142714 0.085818 0.170176 0.198415 -0.040716 -0.130029 0.139677 -0.036228 0.097228 0.073218 -0.218378 -0.156472 -0.099332 -0.030178 0.041595 -0.116008 -0.107458 -0.054251 -0.093926 0.022197 -0.182841 -0.03532 0.018427 0.051467 -0.085815 -0.046089 0.150612 0.122466 -0.018713 -0.054461 0.069587 0.0254 0.05397 0.169086 -0.061174 0.074528 -0.044079 -0.025839 -0.07527 0.016358 0.23311 -0.03632 -0.054505 0.136809 -0.095996 0.162705 0.085047 0.260335 0.103024 -0.130624 0.00112 -0.099062 0.049551 6.4E-4 -0.04138 0.034836 -0.041526 0.007625 -0.072143
0.352905 0.550922 -1.128945 -0.511125 0.774489 1.405335 -0.371647 0.106012 -0.779785 -0.640302 -0.68578 1.570717 -0.712288 -0.706705 -0.789609 -0.045278 -1.599722 -2.840112 -0.089543 -1.158838 -1.862605 -0.62748 -0.063542 -0.468696 0.750564 0.033551 -0.772222 -0.188991 -0.163115 0.455978 0.038455 -0.779588 0.172303 -1.114448 -0.548246 -0.008155 1.66721 -0.744821 -0.15746 -2.668482 -0.304702 -0.905716 0.479063 0.151803 -0.94063 -0.044338 -0.906122 -0.456182 0.281891 0.268287 0.47007 0.628019 0.328428 1.471286 -2.345457 0.072073 -0.345477 -0.998199 -1.496897 -0.053061 0.351206 -0.934426 0.295591 0.07336 0.24092 0.486976 0.390085 -0.621556 0.375246 -0.02625 1.957847 1.014101 0.004675 0.08874 -0.900479 -0.462149 0.922254 1.355385 -1.048724 0.105897 1.254466 0.410718 0.321258 1.066395 -0.171761 -0.128774 0.315556 0.697301 -0.180925 0.555334 1.005586 -0.891677 -1.232923 -1.994189 -0.567812 0.204184 -0.947385 -0.051526 -0.987029 0.725141
-0.046114 -0.096927 0.169069 0.144269 -0.119074 -0.193156 -0.124727 -0.032294 -0.157273 0.08883 -0.03296 0.293558 0.07893 -0.047052 -0.119052 0.185173 0.196271 0.050811 -0.122053 0.089397 -0.091714 0.232699 0.113825 -0.068748 -0.147901 -0.107476 0.246612 -0.131633 -0.05764 0.05048 0.095109 -0.0877 0.146594 0.039324 -0.044364 -0.207138 0.124381 0.324543 -0.018863 0.104365 -0.045524 0.132069 -0.028297 -0.149431 0.018935 -0.055591 0.001973 -0.157042 -0.142966 0.039132 0.092991 -0.026374 -0.28532 0.05507 -0.092563 0.012103 0.024034 0.02716 0.062432 -0.164619 0.081968 0.040453 0.175791 -0.088481 -0.161604 -0.105879 0.21227 0.116576 -0.142894 0.031165 0.133612 0.206576 0.058895 -0.061574 -0.149486 -0.098667 -0.055111 0.184263 -0.18037 0.200018 -0.072303 0.137909 -0.078129 0.038057 -0.050973 -0.195379 0.117281 0.08288 0.252438 0.018566 0.026409 -0.122338 0.097277 0.076946 0.017598 -0.098627 -0.053671 -0.081359 -0.098846 -0.177147
-0.033059 -0.003841 0.030108 0.163011 0.105352 0.147194 -0.036178 -0.068444 0.038477 0.06238 0.121326 0.096957 -0.03952 0.059737 0.108019 0.088335 -0.065316 -0.055853 0.004409 0.284164 -0.120727 0.012958 0.211637 -0.05379 -0.076821 0.048247 -0.036615 0.131151 0.105124 -0.132452 -0.004586 0.047553 0.018431 0.082375 -0.037184 -0.057503 -0.05921 0.098712 0.126763 0.00903 -0.082714 -0.216583 0.133272 -0.007393 0.089772 -0.115459 0.110736 -0.118571 0.00702 0.039542 0.055305 -0.1787 -0.106418 -0.041918 -0.069195 0.051072 -0.156254 0.108775 0.05522 -0.136086 -0.016338 0.004462 -0.009961 -0.119515 0.133079 0.064662 -0.03509 -0.099412 0.227227 0.051663 0.156802 -0.189851 -0.023435 0.082887 0.088759 0.099828 -0.107043 0.02213 -0.023956 -0.070325 -0.032073 0.11249 0.114516 -0.11666 -0.042468 0.059348 -0.026855 0.038676 0.052443 0.077647 0.162325 -0.039425 -5.71E-4 0.002889 -0.038787 -0.036086 -0.056988 0.015773 -0.025481 0.004083
-0.049635 -0.103073 0.253887 0.04108 0.052319 -0.05142 -0.189597 -0.011542 0.097531 0.019262 0.114527 -0.061102 -0.133151 -0.113371 -0.033199 0.136072 0.054274 0.349724 0.038691 0.110156 -0.1179 0.163816 0.394264 -0.007222 -0.168843 0.098743 -0.10521 -0.087412 0.040951 -0.188737 0.098713 -0.043611 -0.055949 0.238297 -0.186196 -0.028662 -0.089183 0.183903 -0.066614 -0.103684 -0.131928 -0.00787 0.062976 0.041979 0.043564 0.032857 -0.123864 -0.037007 -0.173638 0.033704 0.18433 -0.12014 -0.10154 0.029101 0.183689 0.042064 0.013369 0.130856 0.0106 -0.243803 0.0724 0.002816 -0.314683 -0.183085 0.034406 -0.088406 -0.045928 -0.022786 -0.071209 -0.081021 -0.196672 0.062834 -0.075166 0.01034 0.069947 0.031525 -0.19813 -0.161053 -0.05765 -0.077149 -0.016348 -0.018007 0.043652 -0.363365 -0.062151 0.006908 0.152125 -0.071699 -0.087589 -0.033835 -0.160873 -0.101492 -0.02442 -0.017106 0.004936 -0.058972 -0.002956 -0.213757 0.042222 0.024238
-0.044698 -0.030866 0.067208 -0.023362 0.001588 -0.143258 -0.150608 0.031793 0.017507 -0.039211 0.116793 0.079085 -0.166813 0.109683 0.175545 0.158837 -0.00951 0.108005 0.025992 0.015567 -0.041601 0.173529 0.159149 0.09701 -0.136182 -0.103074 0.025796 -0.002071 0.179919 -0.113845 -0.101847 -0.044937 -0.076045 0.090954 -0.096416 -0.075836 0.023543 -0.044876 -0.024673 0.012696 0.102552 -0.053078 0.125659 0.060564 0.058775 -0.01482 -0.030471 -0.082313 -0.083804 0.064776 0.067582 -0.305645 0.074006 -0.008561 0.069958 0.138558 -0.025583 -0.029433 -0.030034 -0.008052 0.072695 -0.094653 -0.046802 -0.161979 -0.145393 -0.02186 -0.13489 -0.02689 0.130605 0.042335 -0.074996 -0.085804 -0.043747 -0.064319 0.103825 -0.033447 -0.064304 -0.03183 0.006656 -0.069848 0.026266 0.029747 -0.025321 -0.220697 -0.136514 0.043146 -0.044146 -0.020478 0.116375 -0.009825 -0.209126 -0.100329 -0.147475 0.263184 -0.012499 -0.058959 0.039589 -0.025855 -0.045559 -0.116405
1.519526 1.445578 -1.609499 2.582747 2.460795 3.529971 0.431498 -0.524736 0.238502 0.565084 -2.150664 2.607871 -3.578636 0.22885 1.205379 0.400126 -2.365878 -2.228676 -0.500047 -1.958516 -2.734259 -2.028213 -0.339577 -2.726884 0.003785 -1.85554 -0.90189 1.042933 0.930181 0.561229 0.956561 0.220468 -1.219533 -0.188243 -0.649085 -0.117874 2.101841 -0.317004 1.300647 -1.49228 0.533457 -2.976113 -0.635474 -1.431524 -0.943268 0.543614 -2.072507 -1.004219 4.072807 -1.496014 2.612373 2.458477 -0.120651 0.418572 -2.53177 0.646754 2.04053 2.0667 -2.403623 -3.037353 -1.289071 1.269349 0.447478 0.512568 0.464348 -0.142416 -1.155552 0.32258 -0.986119 3.909852 3.839548 0.865499 -1.089316 -1.400134 0.517204 -3.398406 -0.576028 -0.612853 -0.573641 -1.979957 1.278503 1.159562 0.583915 -0.210028 0.851463 1.075476 2.276915 0.114312 2.2836 1.968815 1.899569 0.001135 -2.286771 -2.666814 -1.408445 1.975128 -0.085175 1.44887 -1.994305 2.796178
-0.182864 -0.038947 0.166913 0.010447 -0.019219 -0.019767 0.098011 0.109026 -0.203726 -0.153951 -0.064453 0.11286 -0.115758 0.00708 -0.039404 0.131499 -0.061904 0.01792 -0.0392 0.191864 0.054795 0.157882 0.090497 -0.020864 -0.115395 -0.055863 -0.031403 -0.033697 0.157661 -0.115618 0.020875 -0.354846 -0.049422 -0.146825 -0.061482 -0.162948 0.112164 0.128123 0.027894 -0.064946 -0.070326 0.118878 -0.119644 -0.084868 -0.102224 -0.061502 -0.193953 0.027183 -0.027889 -0.05271 -0.136494 0.020565 -0.143352 -0.235998 0.013351 -0.164553 0.139243 -0.407559 0.100966 -0.112649 -0.028482 0.010345 0.052963 -0.005214 -0.26226 0.093745 0.006363 -0.114315 0.033298 -0.04094 0.10564 -0.164356 -0.033283 -0.021014 0.133308 -0.110912 0.068175 0.160443 0.071809 0.10091 -0.026991 4.81E-4 0.080584 -0.152938 -0.030824 -0.192088 0.018454 0.116047 0.234622 0.207572 -0.058265 0.025767 -0.120206 0.195837 0.101768 -0.096147 -0.072471 0.061297 -0.21137 -0.041404
2.435781 0.100349 0.308449 3.152133 1.825135 5.043144 3.475524 1.030966 -0.034425 -0.654124 0.54443 1.85661 0.966298 0.552882 -3.802456 1.108151 -0.250147 -3.79877 -1.904833 -0.011453 -2.159244 -1.572273 0.732551 0.260713 -0.645201 0.187067 1.392596 -0.244902 1.131114 -0.728669 3.354901 -1.622406 0.818601 -3.344845 -0.890048 -2.218333 1.226071 3.380607 0.571719 -2.18929 1.393823 -1.89321 0.90535 -0.21635 1.300456 0.529849 -0.278674 -0.392318 1.942874 1.160389 1.082429 3.002813 -1.929275 -0.063759 -3.057961 0.757342 3.298706 -0.827257 0.491665 -2.297385 -1.09161 0.13502 0.61725 0.757817 1.588338 0.095699 -1.589534 -0.620415 0.900094 3.029701 5.348423 0.97465 1.26103 1.909403 -0.68424 -1.054519 -2.714854 2.056666 0.763454 0.435456 1.053121 0.26585 -1.053407 0.188019 1.656854 0.11074 1.51996 -0.017017 1.002859 0.300488 -0.510804 0.786016 -1.453753 -2.532027 -2.289254 1.557155 -1.175717 1.880744 -2.001581 3.864802
-0.026799 -0.103797 0.112651 -0.259641 -0.103915 0.088316 -0.053088 -0.022809 0.009437 -0.09753 0.060073 0.126938 -0.120166 -0.201027 -0.031192 0.114149 -0.054812 0.193163 0.102408 0.014485 -0.142804 0.004168 0.106051 0.11444 -0.218755 -0.190187 0.08501 -0.064668 -0.128386 0.029669 -0.065954 0.042625 -0.391147 -0.09788 -0.127327 0.028785 0.023364 -0.057131 -0.029977 -0.052351 -0.109947 0.189529 -0.137615 0.126845 -0.031891 -0.070696 -0.021912 0.047885 0.00687 0.096735 0.088226 -0.067865 -0.012925 0.020968 -0.00858 0.059358 0.11823 -0.176081 -0.213955 -0.175354 0.240854 -0.072666 0.023853 -0.029982 0.089821 0.130766 0.016941 0.178835 -0.00797 -0.080021 -0.044534 0.049337 -0.037857 -0.1511 0.060476 -0.006618 0.145705 0.04376 -0.128786 -0.038244 0.01883 -0.008851 0.060935 -0.194196 0.098924 0.049666 0.05715 0.08558 0.098442 0.050731 -0.160965 -0.078077 -0.002686 -0.001068 -0.122167 -0.028315 -0.037337 -0.071233 -0.050617 -0.095917
0.102552 -0.16986 0.176563 -0.016792 -0.075467 -0.145314 0.02184 -0.132824 -0.014519 0.080671 0.260322 0.177028 0.152792 0.010205 0.112916 0.238972 -0.083864 0.158997 -0.115616 0.086057 -0.087761 0.150296 0.078687 -0.050504 -0.228487 0.067191 0.040371 -0.027306 -0.120541 -0.056817 0.166968 -0.160496 0.091024 0.103811 -0.107916 -0.255359 0.156895 0.162379 -0.067521 -0.034548 0.01417 0.074665 -0.12552 -0.249095 0.038275 0.085202 -0.029517 0.009402 -0.120507 0.272002 0.221301 -0.228887 0.022212 -0.032619 0.049654 -0.2589 0.014059 -0.088643 -0.03042 0.021255 0.19797 0.067486 0.099511 -0.035845 -0.180838 -0.062864 0.154229 0.087381 0.118233 0.108047 -0.009006 0.058648 0.052429 -0.030079 -0.110129 0.048083 0.023506 0.071163 -0.042314 -0.03222 0.020556 -0.061379 -0.035855 -0.101175 -0.139598 -0.12239 0.169656 0.168243 0.159593 0.234457 0.006015 -0.046646 0.066652 0.205211 -0.002982 -0.061163 -0.010577 0.127874 -0.155092 -0.131251
-0.020892 -0.118995 0.162166 0.122723 0.280551 0.110134 -0.170222 -0.094985 0.022663 -0.096152 0.256238 -0.100829 -0.080812 0.117885 0.071203 0.073747 -0.283052 -0.00865 0.053285 -0.06135 -0.20049 0.113432 0.184392 0.098893 -0.302982 -0.092137 -0.052162 -0.023556 0.127995 -0.164167 -0.093513 -0.20606 -0.112134 0.15593 -0.102057 -0.290756 0.094313 -0.190004 0.126246 0.124971 -0.067207 -0.022883 0.192596 -0.017167 -0.098132 -0.002793 0.073871 0.015025 0.144251 0.159564 0.152852 0.142563 -0.127496 0.218968 -0.01863 0.108195 -0.06489 0.056022 0.330959 -0.233376 0.163535 0.057803 -0.20535 -0.22593 -0.210829 0.059133 0.062431 -0.070913 -0.219805 -0.068653 -0.086861 0.008006 0.08474 0.025432 0.120814 0.095618 -0.093603 0.083745 -0.08213 -0.029395 0.019301 0.048208 -0.091801 -0.138467 0.030923 0.071388 -0.098868 0.17327 0.148358 0.232573 -0.143218 -0.030999 -0.127425 0.038931 -0.186786 -0.121369 0.048425 -0.0115 -0.055581 -0.050098
1.155368 3.302179 -0.818617 0.201583 -0.372035 -0.220049 -2.421694 1.24088 1.022918 0.281963 -0.56672 0.218504 -2.654141 0.687099 1.426786 -2.744465 -2.044989 -0.49789 -1.769702 -2.328375 -1.105508 0.104665 -0.061522 -2.669585 1.369504 1.778184 -0.869744 -1.441309 0.051265 1.116249 1.903031 -0.163683 1.731475 -0.652558 -1.459245 -0.212579 0.382415 1.861636 -0.394668 -0.423196 -0.983827 -1.176007 1.844253 0.853456 0.976233 -0.076248 -1.490589 -0.553926 0.506191 0.326236 0.251095 1.038919 -0.803142 0.658979 -3.236482 -1.07965 1.27678 -0.350029 -1.778651 0.292774 0.002745 0.267431 1.072933 -0.321661 -1.19536 -1.465055 -2.523761 -3.574044 -0.123843 -0.515256 3.2036 -0.08683 1.099575 -0.639959 -1.310584 0.629968 -0.142079 0.66081 -1.289981 -0.152693 -0.105374 0.388507 -1.068849 2.207516 -1.516502 0.618648 0.057959 1.61471 0.888036 -0.337188 -0.73306 -0.809614 -1.409634 -0.094797 -0.938314 1.210802 1.47048 2.210952 -1.933366 0.819087
0.053284 -0.02831 0.073534 0.043655 -0.071761 0.023829 -0.089469 -0.149685 -0.02029 0.002805 -0.115475 0.10861 -0.187293 0.173159 0.10573 -0.027871 -0.046233 -0.019196 -0.123889 0.145442 -0.244349 -0.141501 0.058057 0.183622 -0.171211 -0.100848 -0.030764 -0.006491 0.033087 -0.010223 -0.099035 0.046627 -0.06875 0.271824 -0.227026 -0.065529 -0.022397 -0.104088 -0.155273 -0.113572 -0.201725 -0.123283 0.001715 -0.078569 0.141362 -0.079199 -0.092461 -0.16356 0.008255 0.01264 0.032743 -0.040167 -0.141769 -0.092711 0.13236 0.061398 -0.21891 0.014964 -0.088068 -0.097294 -0.04269 -0.23188 -0.022815 -0.018621 0.004086 0.036345 -0.005373 -0.048773 -0.07733 0.005778 0.17246 -0.043684 0.107732 0.1208 -0.018265 0.170388 0.011399 -0.032943 0.033442 0.026036 0.01454 0.053651 0.169479 -0.031658 -0.080207 0.056691 -0.007069 0.013756 0.031409 0.087834 0.008524 -0.098607 0.024264 0.189625 0.019321 -0.036829 -0.182828 0.059476 -0.001309 -0.070991
0.004703 -0.062273 -0.025679 -0.101104 0.155037 -0.05007 -0.040433 -0.064963 -0.002024 0.043163 0.013145 0.20033 -0.040543 -0.019415 0.083808 0.151193 -0.053072 0.113034 0.052904 -0.11358 -0.096405 -0.062211 0.150597 0.212678 -0.043778 -0.017879 0.035163 0.009755 0.078208 -0.15732 0.047419 -0.046215 -0.08901 0.080005 -0.015931 -0.062026 -0.051508 0.049401 0.133039 0.079958 -0.133947 0.171195 0.126626 0.150075 0.048526 -0.063997 -0.120738 -0.079094 -0.147763 0.115538 0.107812 -0.094327 0.001089 0.077713 0.07065 -0.015121 0.023336 -0.056458 0.110967 0.032638 -0.003168 -0.170242 0.132499 0.019334 -0.054456 0.071198 -0.05854 0.123735 0.085028 -0.252915 -0.016834 -0.052474 0.019276 0.044861 0.052236 0.119567 -0.082146 -0.10515 0.04785 -0.056638 0.020079 0.054878 0.026394 -0.056494 0.015258 0.033388 -0.001474 0.052699 0.119387 0.095269 -0.008829 0.131707 0.050361 0.099774 -0.039855 0.010908 0.057211 0.102341 0.014816 -0.116547
-0.086123 0.074993 0.212462 0.00604 -0.19742 0.040974 -0.064998 0.055935 -0.105467 -0.007105 0.188499 0.096306 -0.009957 -0.090601 0.062213 0.135871 -0.133449 -0.010894 -0.229075 -0.14737 -0.039668 0.042208 0.336187 0.05031 0.017805 -0.034033 0.154546 0.11725 -0.022108 0.168697 0.290008 0.001064 0.142927 0.149561 -0.113623 -0.017583 0.019202 -0.044991 -0.028141 0.089949 0.083438 -0.017306 -0.06815 -0.100476 -0.089294 -0.112114 -0.12706 0.005884 0.034237 0.139264 -0.090823 0.227815 -0.110654 0.023136 -0.007846 -0.045796 0.026713 -0.219082 -0.1108 -0.193686 -0.010009 -0.010329 -0.087937 -0.083482 0.023197 0.003368 0.027477 0.036165 -0.011798 -0.082268 0.326539 -0.104259 0.050311 0.247771 -0.121703 0.046233 -0.042019 0.029867 -0.188337 0.027952 -0.055782 -0.119316 0.087341 -0.182749 0.114092 0.220757 -0.04856 -0.13461 0.235036 0.012536 -0.152967 -0.05819 -0.128229 0.043973 0.110166 -0.051561 -0.06428 -0.1141 0.096956 -0.054528
0.0 0.0 0.0 0.0 0.0 0.0 0.0 0.0 0.0 0.0 0.0 0.0 0.0 0.0 0.0 0.0 0.0 0.0 0.0 0.0 0.0 0.0 0.0 0.0 0.0 0.0 0.0 0.0 0.0 0.0 0.0 0.0 0.0 0.0 0.0 0.0 0.0 0.0 0.0 0.0 0.0 0.0 0.0 0.0 0.0 0.0 0.0 0.0 0.0 0.0 0.0 0.0 0.0 0.0 0.0 0.0 0.0 0.0 0.0 0.0 0.0 0.0 0.0 0.0 0.0 0.0 0.0 0.0 0.0 0.0 0.0 0.0 0.0 0.0 0.0 0.0 0.0 0.0 0.0 0.0 0.0 0.0 0.0 0.0 0.0 0.0 0.0 0.0 0.0 0.0 0.0 0.0 0.0 0.0 0.0 0.0 0.0 0.0 0.0 0.0
-0.0613 -0.11106 -0.052959 0.229594 -0.054717 0.059595 -0.045362 -0.281346 -0.132046 0.269261 0.13494 0.306914 0.155975 -0.181585 -0.012511 0.345477 -0.11638 0.220175 0.234299 -0.210975 0.045795 0.143811 0.145817 -0.006117 -0.143285 -0.057511 -0.038827 -0.072964 0.213627 -0.219317 -0.046339 -0.045021 -0.101356 0.155313 -0.028856 -0.014324 0.011857 0.06738 -0.024387 0.04253 -0.085083 0.296214 -0.053095 -0.003521 0.042165 0.099972 0.243786 -0.071785 -0.179649 0.116839 0.104035 -0.122439 -0.004972 0.039686 0.152906 -0.121927 -0.095233 -0.084629 0.031045 -0.177736 0.027978 -0.227395 0.023289 -0.0733 0.147145 0.139562 0.054815 -0.239151 0.214522 -0.164691 0.014716 0.295378 -0.070635 0.001946 -0.154581 -0.143385 -0.038692 -0.024335 0.035234 -0.029757 -0.092319 0.055777 0.107924 -0.088362 0.181068 0.04351 -0.08781 0.215159 0.153005 0.014047 -0.041724 0.093267 -0.091034 -0.094738 -0.23876 -0.218757 0.083161 0.210313 0.036354 -0.185967
-0.356434 0.660057 -0.023764 0.120418 -0.49055 0.333678 -0.575581 -0.341135 -0.213289 0.214214 -0.131633 0.147994 -0.24948 0.459456 -0.282314 0.908404 0.508009 -0.824827 0.105371 0.811331 -0.312724 -0.480442 0.538429 0.400444 -0.063976 0.660531 -0.608564 1.108085 0.524412 0.204491 -0.008202 1.44238 0.089106 -0.252379 -0.224315 -0.160666 0.32006 -0.586432 -0.548189 -0.191208 0.242029 -1.337134 0.267443 -0.509921 0.324408 -0.006127 -0.805121 0.102253 1.382036 0.320042 -0.397757 0.53072 0.300971 -0.43574 -0.801016 -0.494758 0.069175 0.204794 -0.8263 -0.68462 0.434558 -0.295219 0.222948 -0.133169 0.200104 0.489677 0.096703 0.332793 0.086599 0.254477 -0.112487 0.594727 0.208279 0.442855 0.037025 0.054833 -0.585872 0.65878 -0.133045 0.025995 0.916827 0.543162 -0.428137 0.292817 0.188769 0.008401 0.634132 -0.366009 0.565495 -0.76165 -0.685377 -0.475536 -0.331619 -0.187688 -0.088264 0.671864 -0.462561 -0.003308 0.200978 -0.262677
0.051727 -0.163019 0.080513 0.007001 0.026981 -0.139648 -0.070711 0.028251 0.057919 0.015079 0.018688 0.080039 -0.013169 -0.169415 0.229306 0.146242 0.080152 -0.13523 0.071961 0.079063 -0.057927 0.1413 0.136064 0.077363 -0.086358 -0.181423 0.056878 0.077006 0.193802 -0.207265 -0.125262 0.068635 0.066314 0.143827 -0.011856 -0.090492 -0.167857 -0.142853 -0.140182 0.069166 0.015465 -0.037624 -0.138479 0.072324 0.02261 -0.053816 -0.043915 -0.138623 0.11636 -0.030628 0.085947 -0.022334 -0.061743 0.215037 0.147303 0.210964 -0.175339 -0.095672 -0.10277 -0.294775 0.041114 0.031241 0.16528 -0.101715 -0.101105 0.023033 -0.149807 -0.13894 -0.068447 0.12591 0.065311 0.055002 -0.051104 0.038142 0.131558 0.041642 0.016612 0.066537 -0.057153 -0.111632 -0.058681 -0.035739 0.113734 -0.180174 -0.124521 0.227101 0.034789 -0.045129 -0.055464 -0.002681 -0.183934 -0.050067 -0.23769 -0.095259 0.01562 -0.025612 -0.116113 -0.08813 -0.135294 -0.076746
-0.059252 -0.025176 0.070285 0.081507 -0.015229 -0.050107 -0.129247 -0.178807 -0.169957 0.016466 0.005452 0.165018 0.004489 -0.054205 0.090438 0.101866 -0.043884 0.16612 0.054066 0.120554 -0.066594 0.141442 0.080576 0.198384 -0.194631 -0.188196 -0.049578 -0.014411 0.202454 -0.121414 -0.003544 0.066238 -0.209958 0.075549 -0.015115 -0.168287 -0.024187 0.074459 -0.188423 0.051161 0.014963 0.157264 -0.055622 0.279308 -0.006828 -0.010684 -0.005418 0.202035 -0.129557 0.259576 0.188608 -0.245774 -0.197173 -0.003852 0.092548 -0.10798 -0.072437 -0.118326 -0.06234 -0.077451 0.162204 -0.077348 -0.133084 0.028386 -0.255462 0.046184 0.001838 -0.003125 0.024894 -0.035619 -0.182069 0.087767 0.039145 0.112796 0.092064 -0.029065 -0.048578 0.021178 -0.071948 -0.128859 -0.026451 0.002812 0.037162 -0.080291 -0.028365 0.053804 0.048785 0.0587 0.134083 0.137743 -0.271321 -0.193593 -0.07656 -0.007044 -0.110767 -0.0165 0.202005 0.083232 0.164673 0.077539
1.155368 3.302179 -0.818617 0.201583 -0.372035 -0.220049 -2.421694 1.24088 1.022918 0.281963 -0.56672 0.218504 -2.654141 0.687099 1.426786 -2.744465 -2.044989 -0.49789 -1.769702 -2.328375 -1.105508 0.104665 -0.061522 -2.669585 1.369504 1.778184 -0.869744 -1.441309 0.051265 1.116249 1.903031 -0.163683 1.731475 -0.652558 -1.459245 -0.212579 0.382415 1.861636 -0.394668 -0.423196 -0.983827 -1.176007 1.844253 0.853456 0.976233 -0.076248 -1.490589 -0.553926 0.506191 0.326236 0.251095 1.038919 -0.803142 0.658979 -3.236482 -1.07965 1.27678 -0.350029 -1.778651 0.292774 0.002745 0.267431 1.072933 -0.321661 -1.19536 -1.465055 -2.523761 -3.574044 -0.123843 -0.515256 3.2036 -0.08683 1.099575 -0.639959 -1.310584 0.629968 -0.142079 0.66081 -1.289981 -0.152693 -0.105374 0.388507 -1.068849 2.207516 -1.516502 0.618648 0.057959 1.61471 0.888036 -0.337188 -0.73306 -0.809614 -1.409634 -0.094797 -0.938314 1.210802 1.47048 2.210952 -1.933366 0.819087
0.0 0.0 0.0 0.0 0.0 0.0 0.0 0.0 0.0 0.0 0.0 0.0 0.0 0.0 0.0 0.0 0.0 0.0 0.0 0.0 0.0 0.0 0.0 0.0 0.0 0.0 0.0 0.0 0.0 0.0 0.0 0.0 0.0 0.0 0.0 0.0 0.0 0.0 0.0 0.0 0.0 0.0 0.0 0.0 0.0 0.0 0.0 0.0 0.0 0.0 0.0 0.0 0.0 0.0 0.0 0.0 0.0 0.0 0.0 0.0 0.0 0.0 0.0 0.0 0.0 0.0 0.0 0.0 0.0 0.0 0.0 0.0 0.0 0.0 0.0 0.0 0.0 0.0 0.0 0.0 0.0 0.0 0.0 0.0 0.0 0.0 0.0 0.0 0.0 0.0 0.0 0.0 0.0 0.0 0.0 0.0 0.0 0.0 0.0 0.0
-0.181016 -0.126776 -0.00204 -0.121265 0.103095 0.037222 -0.040561 -0.006273 -0.070426 0.210671 0.027904 0.139159 0.158573 -0.198906 0.037756 0.160809 -0.257298 0.042275 0.15349 0.183653 -0.079227 0.158618 0.102353 -0.030057 -0.151801 -0.155387 0.087316 0.157636 0.177323 -0.138123 -0.245338 0.023218 -0.086855 0.23983 -0.217194 -0.326965 -0.014276 -0.136591 0.003146 0.075452 0.105114 0.037821 -0.033039 0.141366 0.133352 0.040019 0.141936 0.136758 -0.114451 -0.117631 0.063519 -0.181397 -0.102081 0.148578 0.002284 -0.239133 -0.110048 0.095141 -0.013837 -0.197638 0.143419 -0.126869 -0.03851 -0.08295 -0.133066 0.144363 -0.022699 -0.133583 0.101668 -0.12162 0.00473 0.196365 0.10772 -0.105911 0.124821 -0.127257 -0.164071 0.051662 -0.03433 -0.11206 0.030466 0.190672 0.177271 -0.005139 0.131751 0.191894 0.166605 -0.074512 -0.013007 0.039714 -0.052525 -0.035078 -0.024444 -0.089419 0.035711 -0.234373 0.170065 0.070902 0.16763 0.0911
0.0 0.0 0.0 0.0 0.0 0.0 0.0 0.0 0.0 0.0 0.0 0.0 0.0 0.0 0.0 0.0 0.0 0.0 0.0 0.0 0.0 0.0 0.0 0.0 0.0 0.0 0.0 0.0 0.0 0.0 0.0 0.0 0.0 0.0 0.0 0.0 0.0 0.0 0.0 0.0 0.0 0.0 0.0 0.0 0.0 0.0 0.0 0.0 0.0 0.0 0.0 0.0 0.0 0.0 0.0 0.0 0.0 0.0 0.0 0.0 0.0 0.0 0.0 0.0 0.0 0.0 0.0 0.0 0.0 0.0 0.0 0.0 0.0 0.0 0.0 0.0 0.0 0.0 0.0 0.0 0.0 0.0 0.0 0.0 0.0 0.0 0.0 0.0 0.0 0.0 0.0 0.0 0.0 0.0 0.0 0.0 0.0 0.0 0.0 0.0
0.133144 -0.044199 0.108877 0.124427 -0.066738 0.186109 -0.067011 0.080744 0.008025 0.062749 0.0356 0.097814 -0.036093 0.064094 0.086915 -0.046078 0.117013 0.052341 0.056322 0.073257 -0.023793 -0.027754 0.151548 0.118631 0.129059 -0.016441 0.106545 -0.056812 0.031686 0.059142 0.023374 -0.047582 -0.09548 -0.125731 -0.002883 -0.098507 -0.107889 -0.109139 -0.104965 -0.150702 0.101404 0.158212 0.141756 0.06291 0.012806 -0.26097 0.003295 -0.160959 0.110102 -0.139878 0.045816 -0.091344 -0.017966 0.004736 -0.001849 -0.057952 -0.083052 0.162722 0.044609 0.071145 -0.019402 0.01992 0.15405 -0.016777 0.19026 -0.100738 0.082974 -0.027586 0.040233 -0.27824 0.071935 -4.4E-4 0.201422 0.127079 -0.049423 -0.138459 0.00115 0.015266 -0.044575 0.276624 0.016688 0.065407 0.234307 -0.120265 0.072553 0.240948 -0.037669 0.033475 0.155346 0.156729 -0.211888 -0.07229 -0.15144 2.45E-4 -0.050106 0.054392 -0.183123 0.215552 -0.041958 0.14038
0.0 0.0 0.0 0.0 0.0 0.0 0.0 0.0 0.0 0.0 0.0 0.0 0.0 0.0 0.0 0.0 0.0 0.0 0.0 0.0 0.0 0.0 0.0 0.0 0.0 0.0 0.0 0.0 0.0 0.0 0.0 0.0 0.0 0.0 0.0 0.0 0.0 0.0 0.0 0.0 0.0 0.0 0.0 0.0 0.0 0.0 0.0 0.0 0.0 0.0 0.0 0.0 0.0 0.0 0.0 0.0 0.0 0.0 0.0 0.0 0.0 0.0 0.0 0.0 0.0 0.0 0.0 0.0 0.0 0.0 0.0 0.0 0.0 0.0 0.0 0.0 0.0 0.0 0.0 0.0 0.0 0.0 0.0 0.0 0.0 0.0 0.0 0.0 0.0 0.0 0.0 0.0 0.0 0.0 0.0 0.0 0.0 0.0 0.0 0.0
-0.070593 -0.04367 -0.050163 0.033543 0.047728 -0.005432 -0.034402 -0.00138 -0.14186 -0.075343 0.022782 0.051927 0.078133 -0.006335 0.025563 0.072972 -0.220873 -0.029911 -0.26609 0.011217 -0.173353 0.095055 0.033811 -0.207639 0.133949 -0.145851 -0.016941 0.226807 0.053732 0.032808 0.070375 -0.183597 0.098259 -0.122406 0.096226 -0.030796 0.056566 -0.050744 -0.23425 -0.048569 -0.243319 -0.154863 -0.080303 -0.129149 -0.058236 0.171726 -0.075891 -0.157417 0.295773 -0.172677 -0.01119 0.167908 -0.067119 -0.268121 -0.279979 -0.005414 -0.096276 0.080289 0.053234 0.0393 -0.08724 -0.062024 -0.127561 0.038635 0.04557 -0.013974 -0.041868 -0.09451 0.174387 0.187508 -0.011013 0.164915 -0.01194 -0.041686 0.003375 -0.345537 -0.140626 -0.142783 0.150294 0.124814 -0.054936 0.085427 -0.069343 -0.024661 -0.170834 -0.043492 0.1514 -0.204141 0.077822 0.123786 0.066079 -0.036748 0.046127 0.017924 -0.074286 0.182872 0.155034 0.25045 -0.136734 0.083626
0.352905 0.550922 -1.128945 -0.511125 0.774489 1.405335 -0.371647 0.106012 -0.779785 -0.640302 -0.68578 1.570717 -0.712288 -0.706705 -0.789609 -0.045278 -1.599722 -2.840112 -0.089543 -1.158838 -1.862605 -0.62748 -0.063542 -0.468696 0.750564 0.033551 -0.772222 -0.188991 -0.163115 0.455978 0.038455 -0.779588 0.172303 -1.114448 -0.548246 -0.008155 1.66721 -0.744821 -0.15746 -2.668482 -0.304702 -0.905716 0.479063 0.151803 -0.94063 -0.044338 -0.906122 -0.456182 0.281891 0.268287 0.47007 0.628019 0.328428 1.471286 -2.345457 0.072073 -0.345477 -0.998199 -1.496897 -0.053061 0.351206 -0.934426 0.295591 0.07336 0.24092 0.486976 0.390085 -0.621556 0.375246 -0.02625 1.957847 1.014101 0.004675 0.08874 -0.900479 -0.462149 0.922254 1.355385 -1.048724 0.105897 1.254466 0.410718 0.321258 1.066395 -0.171761 -0.128774 0.315556 0.697301 -0.180925 0.555334 1.005586 -0.891677 -1.232923 -1.994189 -0.567812 0.204184 -0.947385 -0.051526 -0.987029 0.725141
0.036737 -0.032921 0.024463 0.001525 -0.14953 -0.081921 0.05195 0.033054 0.042371 0.187633 -0.169856 -0.043431 -0.173636 0.224604 -0.099043 -0.052621 -0.094147 -0.087315 -0.205223 0.126826 -0.051988 0.057934 0.007092 0.028646 0.030134 0.006318 0.118765 0.00841 -0.042876 -0.067148 -0.15148 -0.042306 0.047684 0.10077 -0.040846 -0.155266 0.173754 7.38E-4 -0.149543 -0.155015 0.042332 1.9E-5 0.164393 -0.109523 -0.01025 0.019395 0.060378 0.084138 0.12078 -0.042878 0.08194 -0.06976 0.047308 0.056745 0.006819 -0.026824 -0.156007 0.042841 -0.214906 -0.100455 0.001679 0.056153 0.00309 0.056995 -0.027269 0.054063 -0.021361 -0.118937 -0.039109 0.253888 -0.099679 0.068347 0.024916 0.004649 0.026359 0.067277 0.089904 -0.116294 -0.057639 -0.070171 0.238942 -0.101354 -0.104886 -0.195107 -0.268537 -0.124495 -0.010152 -7.27E-4 0.045996 0.182311 -0.129108 -0.070264 -0.013 0.100287 -0.131971 0.14376 -0.073632 0.262197 -0.055353 0.017675
2.317943 0.43739 -1.342638 0.751477 -2.586309 -2.047289 2.237301 0.558662 0.033679 1.470522 -0.779094 0.316236 0.617606 -1.745041 -0.100429 -1.598316 1.315575 -3.331988 -1.825292 0.246414 0.530707 -4.916791 3.860913 -1.816258 -0.484334 -1.83224 0.289335 -0.570879 -0.75612 4.017932 6.810207 2.908354 0.956644 0.403392 -0.239919 0.328639 1.838441 1.063488 -1.716336 0.505101 1.774478 -2.755248 -0.54542 -1.784887 -4.460454 2.406811 -3.103841 -2.935841 1.964456 2.864989 -2.516547 4.060001 -4.194918 2.255117 -1.86668 -0.132302 1.372031 -1.388231 -2.718161 -1.70133 1.372523 0.170003 2.334241 -0.841764 -1.753915 1.951793 3.827968 3.796724 2.426736 -0.671427 -0.550934 0.18385 -0.228065 0.374491 -5.126599 -2.134302 2.710616 -1.183423 0.271425 1.168564 1.986072 -1.297142 0.804761 4.486616 1.368927 3.382586 1.032839 2.433663 1.353094 -3.107286 -2.07707 -5.206832 -2.477174 1.35968 -1.627537 -0.785492 2.612082 -2.950996 -3.877344 -3.92257
0.041213 0.24341 -0.118018 0.015795 -0.055301 -0.320541 -0.387345 -0.033666 -0.101911 0.03091 0.031676 0.084458 -0.052621 -0.014098 0.009984 0.144349 0.108026 0.149883 0.030844 -0.255721 -0.066282 0.021357 0.235835 0.200302 -0.230624 -0.045328 0.14505 0.170985 0.144134 -0.227915 0.110593 0.178954 -0.180685 -0.108713 -0.214146 0.085644 -0.028458 0.12576 -0.004227 -0.016973 -0.068223 -0.254063 0.020034 0.211945 0.178148 0.002154 -0.175991 -0.099075 0.053941 -0.023837 -0.064756 -0.468751 0.068405 0.113353 -0.023715 0.186584 0.025881 -0.057785 -0.264409 -0.063727 -0.150862 -0.089569 -0.003124 -0.078544 0.111197 -0.176664 0.084256 -0.167129 -0.058499 0.061159 -0.083413 0.092413 -0.009924 0.064667 0.228416 0.128532 -0.0823 -0.064247 0.124494 0.108377 -0.003688 -0.071769 -0.151899 -0.191196 -0.414344 0.07317 0.019237 0.014416 0.084247 0.193081 -0.418844 0.127144 -0.035346 0.088643 -0.030165 -0.053497 -0.100981 -0.098221 -0.012565 0.026764
-0.122631 0.128558 0.101251 0.101383 0.343641 -0.055849 -0.044729 -0.121503 0.162618 0.017017 0.00479 0.217074 -0.048278 -0.032868 -0.090584 0.071937 -0.146233 0.206465 -0.087447 0.010113 -0.101711 -0.082134 -0.042429 0.107218 -0.024382 -0.101942 0.046599 0.081553 -0.096163 -0.250086 -0.066914 0.045742 0.021268 0.14729 -0.186661 -0.030936 -0.043628 0.037247 -0.095854 -0.06126 -0.018754 0.066711 -0.132918 0.080139 -0.128483 0.117759 -0.006704 -0.117809 0.045961 -0.035101 -0.147484 0.045484 0.075963 -0.088211 0.263026 0.032648 -0.083645 -0.062752 0.002264 -0.067673 -0.006515 0.03846 -0.074372 -0.074802 0.045112 -0.111391 -0.045047 -0.023662 -0.20015 -0.020857 0.179506 0.02836 -0.018229 0.124193 -0.032268 -0.001133 -0.064416 -0.060862 -0.126574 -0.045871 0.073595 0.04722 0.035658 -0.09287 -0.137881 0.035751 -0.048815 -0.097574 0.045039 0.08144 0.107296 0.026119 0.132943 0.187861 0.159077 -0.163619 -0.106516 -0.204832 0.010503 0.121659
-2.38E-4 -0.090968 0.086467 -0.059743 0.034397 0.049744 0.062755 -0.11509 -0.051666 0.020333 0.187483 0.068148 -0.109525 -0.06184 0.112794 0.154434 -0.064106 0.097741 -0.030194 -0.140959 -0.032529 0.034396 0.170393 0.032024 0.153265 -0.044289 -0.054019 -0.02731 0.178528 -0.282341 -0.006185 -0.027075 -0.052958 0.21757 -0.129232 -0.034585 -0.107409 -0.033056 0.005939 -0.042863 0.008078 0.150399 0.115173 0.139642 0.080925 -0.063579 -0.005639 0.002743 -0.037031 -0.031197 0.171321 0.037256 0.017262 0.003802 0.009762 0.14323 0.12026 0.03337 -0.178021 0.021676 0.048139 0.052657 -0.222364 -0.173205 -0.008951 0.076952 -0.096787 0.135936 -0.092567 -0.004258 0.186503 0.051789 0.150439 0.064396 0.046566 0.033756 0.101983 0.057593 -0.166317 0.077234 0.117598 -3.41E-4 0.022804 -0.170562 0.116043 -0.205664 0.029222 -0.026916 0.106382 -0.023671 0.071098 -0.184076 -0.097653 -0.12711 0.035999 -0.097889 -0.087704 -0.074898 -0.03206 0.131802
0.12936 -0.165118 0.088515 0.452702 -0.078697 0.277927 -0.169924 0.190241 0.062129 0.094334 -0.134278 0.195522 -0.190652 0.247663 0.194382 0.233954 0.253493 -0.053378 0.019696 0.237855 -0.118228 0.27239 0.04123 -0.206471 -0.145897 0.244461 0.007559 0.423156 0.11478 -0.42215 -0.274471 0.076513 0.232145 0.107751 -0.124548 -0.016257 -0.144381 0.117533 -0.091291 0.035255 -0.196631 -0.130854 -0.017407 -0.724537 0.095303 -0.014388 -0.360143 -0.250435 -0.044243 0.079128 -0.009087 -0.219069 0.243369 -0.015308 0.322251 0.347211 -0.086461 9.54E-4 -0.090966 -0.12716 0.181337 -0.258638 -0.351592 -0.071305 0.075632 -0.357214 -0.020262 -0.078585 0.049129 0.019433 -0.06723 0.014888 -0.021029 -0.271327 -0.069415 0.058474 -0.002755 0.050343 -0.032779 -0.018106 0.071782 0.078053 0.250919 -0.377276 0.105439 0.174806 0.086896 0.142835 0.167549 0.372838 -0.028715 0.131741 -0.098943 -0.162368 0.138221 -0.012213 -0.072589 0.056106 -0.100675 -0.089952
0.162039 -0.112306 -0.051777 0.021906 0.037991 0.038502 -0.019051 0.035471 -0.191195 0.086582 -0.108859 0.184529 0.093322 -0.022001 0.021549 0.202432 0.075265 0.057637 -0.023687 0.187151 -0.132049 0.125037 0.19021 0.122186 0.015105 0.099862 0.071997 -0.15398 0.029569 -0.236686 -0.002736 -0.028475 -0.095147 0.015142 -0.147428 -0.12572 -0.118815 -0.026778 -0.013747 -0.089035 -0.023062 0.027932 0.086755 -0.021589 0.110155 0.132418 0.057038 -0.050621 -0.071949 0.173814 0.111239 -0.193808 -0.055789 -0.08264 0.165225 0.00309 0.050879 -0.009035 -0.05504 0.038331 0.2058 0.059563 0.230079 -0.084833 -0.030745 0.139614 0.110196 -0.060703 -6.37E-4 0.082402 -0.043442 0.176632 -0.080947 0.064402 0.015998 0.004918 -0.110461 -0.033787 0.037692 0.030352 -0.131412 0.109615 0.06673 -0.032842 0.007068 -0.160306 0.009926 0.142122 0.093128 0.125654 -0.247379 0.057091 -0.00451 -0.071425 -0.104398 -0.113027 0.075972 0.035238 0.005663 -0.013237
-0.020892 -0.118995 0.162166 0.122723 0.280551 0.110134 -0.170222 -0.094985 0.022663 -0.096152 0.256238 -0.100829 -0.080812 0.117885 0.071203 0.073747 -0.283052 -0.00865 0.053285 -0.06135 -0.20049 0.113432 0.184392 0.098893 -0.302982 -0.092137 -0.052162 -0.023556 0.127995 -0.164167 -0.093513 -0.20606 -0.112134 0.15593 -0.102057 -0.290756 0.094313 -0.190004 0.126246 0.124971 -0.067207 -0.022883 0.192596 -0.017167 -0.098132 -0.002793 0.073871 0.015025 0.144251 0.159564 0.152852 0.142563 -0.127496 0.218968 -0.01863 0.108195 -0.06489 0.056022 0.330959 -0.233376 0.163535 0.057803 -0.20535 -0.22593 -0.210829 0.059133 0.062431 -0.070913 -0.219805 -0.068653 -0.086861 0.008006 0.08474 0.025432 0.120814 0.095618 -0.093603 0.083745 -0.08213 -0.029395 0.019301 0.048208 -0.091801 -0.138467 0.030923 0.071388 -0.098868 0.17327 0.148358 0.232573 -0.143218 -0.030999 -0.127425 0.038931 -0.186786 -0.121369 0.048425 -0.0115 -0.055581 -0.050098
0.138073 -0.06497 -0.03552 -0.038965 0.160179 0.127303 -0.002198 -0.099062 -0.226279 0.054126 0.023779 -0.052675 0.030462 -0.229227 -0.093282 0.084332 0.22003 -0.047061 -0.080538 -0.23028 0.052609 -0.015952 0.218806 0.193246 0.067022 0.384018 0.134987 0.135729 0.0985 -0.141606 0.11398 0.064782 -0.195149 0.018495 0.10812 -0.184455 0.149537 0.098514 0.042417 -0.156347 -0.151913 -0.031109 0.037211 -0.058584 -0.032743 -0.209931 0.45561 0.120007 -0.210264 -0.174095 0.238769 0.134739 -0.092901 -0.022056 -0.029759 -0.135824 0.042104 0.010267 -0.08175 0.025119 -0.008711 0.202828 -0.312545 -0.157503 -0.061947 0.024399 -0.044317 -0.187207 0.134115 0.252406 0.105237 0.062241 -0.086687 -0.021932 -0.075136 0.194471 -0.186465 0.063938 0.272319 0.18095 -0.098389 0.097789 0.210854 -0.038931 0.015484 -0.219608 0.22423 0.177138 0.112354 0.028673 0.254718 0.247273 -0.020815 0.109226 -0.032276 0.088887 0.260615 0.172366 -0.155808 0.108781
-0.032258 -0.018216 0.084218 0.137079 0.07494 0.010693 -0.06759 0.015317 -0.028708 0.011758 0.005003 0.100863 0.024456 -0.119398 0.024284 0.143376 0.075431 -0.069767 0.022475 -0.018492 -0.101328 0.026879 0.074612 0.151187 -0.048297 -0.022602 0.134806 0.103482 0.183131 -0.332765 -0.096346 -0.062758 0.04555 0.174304 0.033256 -0.061823 0.034594 0.059245 -0.028448 0.007123 0.027663 -0.097076 -0.119193 0.071519 0.152655 0.207365 0.133892 0.102038 -0.014352 -0.103142 0.196944 0.020007 -0.022444 0.205441 0.258657 -0.180489 0.017867 -0.180154 -0.005264 -0.139387 0.018772 -0.118449 -0.021569 -0.082867 -0.173894 0.028285 -0.02639 -0.068446 0.009798 0.071408 -0.107288 -0.030864 -0.105211 -0.055785 0.12737 -0.009214 0.164603 -0.008871 -0.06811 -0.033108 -0.154667 -0.033676 0.035083 -0.047649 0.045336 -0.070942 0.006486 -0.008822 0.165403 -0.12703 -0.068671 -0.090951 -0.089883 0.132506 -0.061187 -9.3E-5 0.001586 0.066745 -0.099408 0.075028
-0.024322 -0.303699 6.57E-4 0.124013 0.096642 0.042796 0.078399 -0.043308 -0.039367 -0.030939 0.02516 -0.029414 -0.115077 -0.307309 0.071962 0.11219 -0.082688 -0.069067 0.068999 0.016192 -0.028041 0.198763 -0.032337 -0.011087 0.091512 -0.048044 -0.113547 0.011122 -0.004473 -0.060547 -0.104108 -0.030799 -0.092209 0.08433 -0.070757 -0.066028 0.039562 -0.090053 0.080573 -0.071696 -0.060823 -0.075948 0.110598 0.160809 0.022521 -0.159859 -0.015239 0.115199 -0.12507 -0.04408 -0.085618 0.011849 -0.15078 -0.064003 -0.050593 0.048569 0.072066 -0.039631 0.166476 0.071693 0.031732 0.025521 -0.155724 0.012469 0.070119 0.15155 0.003252 -0.071969 0.157402 -0.06635 -0.072398 0.026004 -0.136485 0.076075 0.056589 -0.064894 -0.249087 0.124056 0.065084 -0.085369 0.043376 -0.165438 -0.007667 0.039438 -0.106483 0.116727 -0.184719 -0.086273 0.029854 -0.045885 0.074966 -0.040103 0.001017 -0.194468 0.035261 -0.224162 0.096102 -0.025166 -0.050546 -0.067245
0.041213 0.24341 -0.118018 0.015795 -0.055301 -0.320541 -0.387345 -0.033666 -0.101911 0.03091 0.031676 0.084458 -0.052621 -0.014098 0.009984 0.144349 0.108026 0.149883 0.030844 -0.255721 -0.066282 0.021357 0.235835 0.200302 -0.230624 -0.045328 0.14505 0.170985 0.144134 -0.227915 0.110593 0.178954 -0.180685 -0.108713 -0.214146 0.085644 -0.028458 0.12576 -0.004227 -0.016973 -0.068223 -0.254063 0.020034 0.211945 0.178148 0.002154 -0.175991 -0.099075 0.053941 -0.023837 -0.064756 -0.468751 0.068405 0.113353 -0.023715 0.186584 0.025881 -0.057785 -0.264409 -0.063727 -0.150862 -0.089569 -0.003124 -0.078544 0.111197 -0.176664 0.084256 -0.167129 -0.058499 0.061159 -0.083413 0.092413 -0.009924 0.064667 0.228416 0.128532 -0.0823 -0.064247 0.124494 0.108377 -0.003688 -0.071769 -0.151899 -0.191196 -0.414344 0.07317 0.019237 0.014416 0.084247 0.193081 -0.418844 0.127144 -0.035346 0.088643 -0.030165 -0.053497 -0.100981 -0.098221 -0.012565 0.026764
0.042301 -0.021118 -0.002219 0.056439 0.020325 0.094558 -0.216911 0.048536 -0.159833 9.03E-4 0.239579 0.04729 -0.017582 -0.057755 -0.056331 0.175043 -0.010556 0.254134 -0.023952 0.001945 -0.161083 -0.005101 0.193145 0.073464 -0.055642 -0.035022 0.120662 0.018228 -0.107647 -0.102976 0.055227 0.018577 -0.308446 0.145268 -0.238507 -0.078004 0.017402 -0.023687 -0.106833 -0.029922 -0.061287 0.028024 0.079015 0.192533 -0.050487 -0.121277 -0.081093 0.090089 -0.111868 0.108836 -0.041103 -0.099423 -0.055836 0.142108 0.005729 -0.099871 -0.076428 0.169819 0.030807 0.026952 0.162379 -0.038806 0.077312 -0.153138 0.050308 -0.07769 0.056234 0.067894 0.116871 0.008203 0.047632 -0.043906 0.09895 0.09111 -0.031882 0.172238 -0.115888 0.016751 -0.153299 0.057254 -0.004629 0.131597 0.075967 0.048453 0.058252 -0.043846 0.037892 0.021069 0.144925 0.199647 -0.229249 -0.034252 0.02626 0.051142 -0.183994 -0.110028 -0.121121 -0.036865 0.029965 0.070637
-0.258308 -0.108394 0.022958 -0.004101 0.047779 -0.171712 -0.072103 0.131246 -0.048988 0.06657 0.123995 0.041433 -0.234884 -0.02199 0.30164 0.052077 0.079492 0.008455 0.006319 0.012655 -0.072702 0.12341 0.203618 0.014153 -0.0841 0.014383 0.029615 0.126504 0.14127 -0.087756 -0.062961 0.23386 -0.155911 0.00531 -0.011699 0.035597 0.051275 -0.065885 0.213869 -0.207487 -0.081531 -0.343385 0.068798 -0.001441 -0.094427 -0.05294 -0.066201 -6.09E-4 0.091683 0.135202 0.175144 0.022562 -0.001889 0.057189 0.273859 0.09827 -0.160663 0.021815 0.024199 -0.163398 0.141852 0.224879 -0.093696 0.039375 0.010414 0.056515 -0.183767 -0.211433 -0.194554 0.157222 -0.010812 -0.149703 -0.033354 0.0679 -0.019148 0.056006 0.133898 -0.096498 -0.080068 0.036891 0.118654 -0.040662 -0.125016 -0.202784 -0.0362 0.125578 0.086064 0.013093 0.063226 0.216142 0.156492 -0.119817 -0.342229 -0.030519 0.04713 0.061711 -0.239814 -0.134669 0.159457 0.187545
2.591633 1.608701 -2.087245 2.00752 3.012652 4.995656 0.847355 -1.594905 -0.365708 -1.629805 -1.650237 3.712017 -0.231463 -0.537534 -2.036098 2.002639 -0.696666 -4.310136 -1.477319 -1.356504 -0.581823 -1.830239 -0.272773 -1.648095 0.090509 0.008711 0.330842 0.396714 2.341035 -0.526067 1.155793 -1.730906 -1.010387 -1.342646 -1.939355 0.734869 0.727366 0.700702 1.516974 -2.133831 -0.280653 -3.051674 0.017123 0.532043 1.478449 0.375441 0.920129 1.548929 1.087478 0.668327 0.707416 3.249232 -0.362503 1.273221 -2.929682 -0.245389 1.633444 -0.119836 0.103459 -3.445175 0.513245 0.427807 0.738792 1.448203 0.501908 0.362882 -0.731533 -0.391201 0.037778 3.053553 4.030229 1.793904 1.24136 0.081706 -1.401954 -0.638804 -0.487445 -0.267924 0.012844 0.538179 -0.241935 -0.068756 1.351665 -0.112558 0.001814 0.447262 0.833441 -0.023876 1.212707 1.514635 -0.568611 0.376173 -3.663739 -4.345135 -0.444319 2.139788 -2.53093 0.92131 -1.399435 1.763954
1.313101 -1.828077 1.255073 -0.57291 -1.221992 -0.141653 0.892546 0.262095 -0.422972 0.52527 2.770927 -2.116018 -1.303039 2.034119 -1.042658 -1.877754 -0.113988 2.948427 -1.157758 0.228368 -1.62103 2.370189 -1.087966 -1.275151 0.610923 3.24562 1.0986 -0.229467 -3.034251 -1.557004 2.718354 -0.823788 -1.708001 -1.364332 0.304998 -1.19356 3.176471 -0.233449 -3.484355 -2.844404 -0.168624 -3.026944 2.318517 -0.33999 -1.533419 -0.264688 -2.004779 -1.258036 -0.82825 0.612678 2.337875 2.021732 1.255669 0.960029 -3.233 -0.309413 2.678803 -1.321722 -2.726613 1.188582 0.358215 2.072681 -2.899753 -1.608204 0.117954 -1.026589 -1.877072 0.22054 -0.516172 0.998566 1.496877 -0.451898 0.04087 3.884146 3.578913 0.680106 -1.856922 0.764707 -0.523331 -0.239934 1.850372 2.376356 -2.081512 2.089242 -1.78243 -2.297229 1.245129 1.257432 -0.202896 -1.347756 -1.270859 2.061053 -0.332924 -0.64474 -1.876097 2.53156 0.742881 -0.423323 2.234084 -1.244354
0.142855 2.096782 -0.44488 -0.186519 4.581101 0.368552 1.025096 -0.312802 -2.617651 -0.157005 2.963322 2.120705 -1.775955 -0.565663 0.972057 2.924774 -3.483148 -0.388176 -2.731071 -0.326463 1.005034 -0.173592 0.985748 -2.472826 -0.247049 -1.602126 -2.48254 -0.015307 0.921201 -0.634243 -0.734395 -4.469334 -2.338912 -3.86095 -2.404253 -1.170435 3.191081 0.66076 0.725646 -0.864367 -2.371157 -0.851367 -3.29822 -1.074393 -2.64488 2.784424 -0.996674 2.506345 2.15789 -2.159862 -0.441733 -0.926918 -0.098512 0.757891 -1.999629 -4.007104 0.387073 -3.003765 1.204233 -2.431844 -2.281004 -0.27222 1.915759 2.567541 -2.305997 0.668549 -1.469449 -4.443738 -0.244681 3.958085 3.663286 2.390184 0.145926 -1.914193 1.202993 0.085106 1.119028 1.764289 0.413107 1.270882 2.30135 -2.063297 -0.209725 -0.837978 1.54811 -1.075222 1.662849 3.024555 -0.817108 2.02425 0.827332 0.999754 -2.964958 -4.68355 2.112919 1.12159 -1.379614 1.011169 -1.034187 2.880255
0.189881 -0.151462 -0.060496 0.109119 -0.156337 0.047512 -0.18848 -0.018679 -0.133102 0.067209 0.087448 -0.171788 -0.1063 -0.114152 0.135855 0.236382 0.166338 0.091626 0.042098 0.038595 -0.00945 0.176443 0.064622 0.04392 -0.187024 -0.014915 0.159268 0.022213 0.120624 0.013123 -0.062454 0.078519 0.377221 0.107304 -0.039088 -0.027291 0.020217 -0.027171 -0.007803 -0.029963 -0.193166 -0.057976 -0.282597 -0.158915 0.085684 0.037716 -0.163692 -0.220808 0.008755 -0.147357 0.128677 -0.173496 0.071444 -0.024489 0.106747 0.07791 -0.110209 -0.004397 -0.083192 0.006328 0.042057 0.007814 -0.160273 -0.097866 0.08863 -0.103706 -0.173675 -0.199165 0.083486 -0.1257 0.21646 -0.183358 0.029639 -0.173521 -0.176986 0.182546 -0.031088 0.063361 0.073759 -0.107395 0.148535 -0.054495 0.020233 -0.110781 -0.050482 0.085144 0.153469 0.022452 0.050605 0.321636 -0.088265 0.043483 -0.036235 -0.066362 0.110418 0.142103 -0.209676 0.083111 -0.100595 0.007508
0.012593 -0.020155 0.005494 0.110936 0.018047 0.014515 -0.21836 0.053813 0.052008 -0.003068 0.088587 0.202013 -0.06574 0.008694 0.071866 0.057943 0.198451 -0.089267 0.021861 0.137135 -0.009475 0.043126 -0.037699 0.027498 -0.014757 0.048133 0.055184 0.019413 -0.024195 -0.035457 -0.084369 0.115726 -0.011382 -0.044782 -0.061713 -0.03726 -0.037422 0.084997 -0.131789 -0.034999 -0.089716 -0.114828 0.077687 -0.03228 -0.009706 -0.012022 0.028778 0.0746 0.078046 -0.116935 -0.09559 -0.141529 0.035388 0.08068 0.101253 0.071883 -0.169945 -0.016183 -0.190601 -0.10505 0.008387 0.09923 -0.050735 0.129318 -0.097653 -0.005814 -0.140139 -0.007774 -0.139964 0.198019 0.139053 0.130068 0.15969 -0.021118 0.043675 0.04377 0.013233 -0.15372 0.034904 -0.058296 0.03427 -0.04847 0.017462 -0.052034 -0.032081 0.079608 0.023381 0.10783 0.003626 -0.030408 -0.056953 0.087297 -0.07725 0.014439 0.034377 0.003526 -0.126521 -0.014397 -0.024092 0.079876
-0.234371 -0.2172 0.054159 0.04492 -0.073746 0.115734 -0.146253 -0.082146 -0.177985 0.258017 -0.027379 0.041469 0.137925 0.063719 -0.004577 -0.105912 0.108887 0.315142 0.047362 -0.048407 -0.075396 0.260411 0.30931 -0.011832 -0.080495 -0.056681 -0.192357 -0.06547 0.180036 -0.091977 -0.128039 -0.091502 -0.109572 0.183628 -0.183989 -0.057716 -0.198442 0.037215 -0.098675 -0.012597 0.046116 0.012307 -0.098996 -0.138155 -0.02149 -0.057386 0.132419 -0.050809 -0.179872 0.035542 0.041999 0.162555 0.077833 -0.061417 0.196788 0.13816 -0.048673 -0.075253 0.195589 0.122237 0.029835 0.102224 -0.129782 -0.028286 -0.027387 0.079697 -0.103255 0.064651 0.179761 -0.119184 -0.119174 0.07024 0.006106 -0.070833 0.074984 -0.231171 0.06297 0.063838 0.009574 0.005927 0.009703 0.207798 0.035721 -0.286629 1.07E-4 -0.017723 -0.042348 -0.112305 0.127695 -0.034447 -0.044447 -0.117834 0.1031 0.028541 0.026989 -0.093478 0.02283 0.029919 -0.030866 0.08408
-0.180509 -0.01931 0.054428 0.028487 -0.04128 -0.035789 -0.039361 -0.076884 -0.032031 0.135331 0.028721 0.245 -0.113095 0.051497 0.068438 0.064625 0.087401 -0.004135 0.051652 0.30594 -0.059916 0.015643 0.052778 -0.014821 -0.093608 -0.054531 0.004006 0.050479 0.058524 -0.201992 0.016115 0.016354 -0.121373 0.129336 -0.078207 -0.166502 0.030083 0.072679 -0.082626 -0.178256 -0.026169 0.10816 0.120541 0.06025 0.144619 -0.132233 -0.078054 0.027839 -0.010883 0.001455 0.008631 0.093596 -0.152995 0.099517 -0.042248 -0.216009 0.087222 -0.032374 -0.014416 -0.069745 0.019533 0.020807 -0.082323 -0.110173 0.001421 0.111849 0.146523 0.151455 0.163722 -0.145338 -0.08945 -0.008229 0.019831 -0.168396 0.082578 -0.050982 -0.100071 -0.019162 -0.107026 0.148082 -0.019864 0.261546 0.073706 -0.045427 0.046391 0.027996 -0.004274 0.014816 0.097018 0.124941 0.045368 0.004054 -0.007728 0.063171 0.081526 -0.141043 0.085082 0.047377 -0.047623 -0.087095
1.519526 1.445578 -1.609499 2.582747 2.460795 3.529971 0.431498 -0.524736 0.238502 0.565084 -2.150664 2.607871 -3.578636 0.22885 1.205379 0.400126 -2.365878 -2.228676 -0.500047 -1.958516 -2.734259 -2.028213 -0.339577 -2.726884 0.003785 -1.85554 -0.90189 1.042933 0.930181 0.561229 0.956561 0.220468 -1.219533 -0.188243 -0.649085 -0.117874 2.101841 -0.317004 1.300647 -1.49228 0.533457 -2.976113 -0.635474 -1.431524 -0.943268 0.543614 -2.072507 -1.004219 4.072807 -1.496014 2.612373 2.458477 -0.120651 0.418572 -2.53177 0.646754 2.04053 2.0667 -2.403623 -3.037353 -1.289071 1.269349 0.447478 0.512568 0.464348 -0.142416 -1.155552 0.32258 -0.986119 3.909852 3.839548 0.865499 -1.089316 -1.400134 0.517204 -3.398406 -0.576028 -0.612853 -0.573641 -1.979957 1.278503 1.159562 0.583915 -0.210028 0.851463 1.075476 2.276915 0.114312 2.2836 1.968815 1.899569 0.001135 -2.286771 -2.666814 -1.408445 1.975128 -0.085175 1.44887 -1.994305 2.796178
-2.339115 0.327917 -2.220163 2.440177 1.18834 -1.069885 -0.83194 -1.536493 -1.061577 1.331218 -1.298205 0.319904 0.611544 -2.862014 -2.683858 3.358463 -0.308954 -2.031215 0.144721 -1.677606 -0.623807 -1.863848 -0.459715 0.560224 2.05635 2.449481 0.22941 3.114407 0.2224 1.56904 -0.664854 4.049994 -0.488661 0.753615 -2.251778 -5.175084 0.751326 0.078784 -0.251571 -0.973666 1.440513 -0.625003 1.561818 0.018452 -1.561115 0.086603 0.318728 1.230795 0.666334 -0.07747 0.364817 1.588801 -1.537484 0.021497 -4.363564 -2.478164 -1.484788 1.206732 -3.452597 -2.144533 -1.576267 -1.060149 -0.520492 -0.06423 -0.153563 0.936844 -1.166678 -1.736456 -0.172358 0.055863 0.747727 2.312271 1.88865 -0.321718 -1.209056 0.789262 0.066176 -0.062542 -1.050928 0.521479 -0.720548 2.467767 0.336554 -0.218314 3.061856 2.551804 1.750168 0.662194 -0.591818 1.731937 -0.842458 0.521562 -1.121723 -1.109091 0.989784 -0.25683 -1.585259 0.433267 -0.061242 0.391274
1.919362 -1.060714 -0.866315 2.670592 0.153935 1.349246 -2.904364 -0.110029 0.494409 -1.293092 1.03242 0.180417 -2.067645 0.845365 1.277774 1.259439 1.149599 -1.18864 0.714321 -0.196499 -0.647662 0.862156 1.110672 0.930092 -2.510651 1.315988 1.922505 3.207766 1.613184 -1.601972 -0.317589 0.2573 1.063183 -0.607512 -1.792461 -2.033411 0.704013 -1.264559 -0.514023 -0.225984 -0.639901 -3.80214 1.140577 -0.296178 0.147836 0.267585 -2.594427 -1.771696 0.128395 0.578283 1.381662 -0.330516 -0.607037 0.162269 1.065418 1.630407 -0.70716 0.237599 -2.010554 -1.763105 -0.350038 1.921361 -0.539362 0.490283 1.233901 -1.148041 -1.130442 -2.020501 0.60612 1.781196 1.688327 -0.096428 -0.644367 -1.125927 0.557844 1.687875 1.47297 -0.551616 0.43204 0.237952 1.227013 -2.204836 0.346177 -1.559897 -0.091441 0.75017 -0.837835 1.240679 -1.68805 1.366253 0.011302 0.029066 -1.709553 -0.355115 0.513985 0.257889 -3.341166 0.971459 -1.460014 0.463999
0.406969 -1.506407 0.714929 0.842882 0.509693 -0.098329 -0.063624 0.487811 -0.457408 -0.214688 1.707403 -0.598869 -2.533977 0.528428 1.048044 0.836329 1.11753 -1.109673 -0.546098 -0.164622 -0.153227 0.771613 1.61347 -0.497286 0.047074 0.214964 0.791845 1.612508 1.387831 -0.739712 -0.959419 0.90549 -0.058061 0.998364 -0.087289 -0.091026 -0.647357 0.038455 -0.350775 0.626732 -0.987488 -3.578413 -0.549294 0.665586 0.466615 0.741755 -2.067558 -1.309167 0.34741 -0.296161 1.237943 -0.457797 -0.869929 -0.086438 0.049445 1.210147 -0.80792 0.094596 -1.664011 -1.284089 -1.139836 -0.091957 0.143553 -1.244131 0.669943 -0.046902 -1.082229 -1.860561 1.059351 1.98328 -0.063337 -0.413602 -0.287082 0.198702 0.761461 0.048689 -0.812928 -0.799058 0.112144 -0.88426 0.858754 -1.251409 0.260559 -1.932046 -1.997769 -0.009493 -0.665492 -0.610142 0.111646 1.462239 -0.810457 -1.202041 -1.926706 0.823758 1.046543 -1.081061 -1.517178 0.340405 -0.987729 1.134189
-0.054298 -0.049801 0.027204 0.145448 0.055727 0.046172 -0.120966 -0.034347 0.090085 -0.197689 0.069635 0.157168 -0.20903 0.043047 0.199445 -0.079972 0.215375 -0.156225 -0.097921 -0.157376 0.025384 0.167175 0.060007 0.17232 -0.120041 0.050838 0.033995 0.207229 0.170535 -0.25722 0.103541 0.197468 0.0827 -0.068227 -0.098826 -0.246404 0.188739 -0.04959 -0.201337 -0.052666 -0.029503 -0.358579 -0.018077 -0.146889 0.161842 -0.001954 -0.135403 0.008879 -0.037226 0.04881 0.046335 -0.095334 -0.270233 0.257764 0.168148 0.178805 0.008269 0.065996 -0.03486 0.113587 0.076436 0.010729 -0.092286 -0.03491 -0.082279 0.104463 -0.090425 -0.066251 0.00216 0.012342 0.007997 -0.173384 0.20453 -0.213245 -0.028317 0.10404 0.080145 -0.020373 0.041985 -0.123833 0.110649 -0.106818 0.235413 0.141662 -0.085238 -0.022145 0.085883 0.087121 0.219009 0.047587 -0.005186 1.94E-4 -0.393227 0.128835 -0.116837 -0.112537 -0.012039 -0.108311 0.064663 0.151601
1.601962 0.900949 0.635211 3.447764 4.556849 4.718793 1.173769 -3.436885 -1.051534 1.078983 -0.838181 1.967356 -2.331807 -1.547952 -2.257938 1.73556 -0.249706 -0.488316 -1.430589 2.418064 -0.579609 -1.310292 2.943575 1.371693 -0.068968 0.590496 -1.059454 3.26051 -1.564247 1.325481 2.480003 -1.068812 -1.405306 -0.989926 0.348447 1.334518 -0.341972 -1.279951 1.497169 -0.266984 0.310556 -1.181396 1.727869 -2.592004 -2.631376 0.46677 1.482348 2.716194 1.912714 -0.261197 -1.29787 0.133063 1.550387 1.345474 -0.438107 0.220559 -0.533512 -2.984415 -1.66402 -1.92472 0.913412 -0.106297 -1.21729 1.448115 -2.256391 -2.533578 0.626119 1.420162 -1.215115 -0.321127 -0.883991 -0.628644 -0.47982 2.7565 3.289245 0.697882 0.4752 1.076089 -0.944494 -1.346913 3.452797 -1.472294 -0.064429 3.111885 -3.51977 1.561284 2.545174 -1.357291 -1.62109 0.707262 2.474147 -2.281674 -2.342087 -0.713686 -1.224266 -1.652807 -0.212111 1.322653 -3.070063 -0.834083
0.0 0.0 0.0 0.0 0.0 0.0 0.0 0.0 0.0 0.0 0.0 0.0 0.0 0.0 0.0 0.0 0.0 0.0 0.0 0.0 0.0 0.0 0.0 0.0 0.0 0.0 0.0 0.0 0.0 0.0 0.0 0.0 0.0 0.0 0.0 0.0 0.0 0.0 0.0 0.0 0.0 0.0 0.0 0.0 0.0 0.0 0.0 0.0 0.0 0.0 0.0 0.0 0.0 0.0 0.0 0.0 0.0 0.0 0.0 0.0 0.0 0.0 0.0 0.0 0.0 0.0 0.0 0.0 0.0 0.0 0.0 0.0 0.0 0.0 0.0 0.0 0.0 0.0 0.0 0.0 0.0 0.0 0.0 0.0 0.0 0.0 0.0 0.0 0.0 0.0 0.0 0.0 0.0 0.0 0.0 0.0 0.0 0.0 0.0 0.0
