0.131104 -0.304931 0.170854 0.13682 -0.361002 0.029047 0.040582 -0.303101 -0.09 0.334487 0.121836 0.217386 0.079548 0.197536 0.220964 -0.124531 -0.122089 0.01949 -0.025198 0.056356 0.00404 0.014448 0.02468 -0.050191 0.057113 0.191405 -0.063207 0.065132 -0.053755 -0.355356 0.094915 -0.140245 0.196116 0.24599 0.083945 0.02135 -0.186583 -0.151586 0.194895 0.280674 -0.297213 0.539835 -0.283166 -0.30555 -0.298164 0.089077 -0.143106 0.062883 -0.479806 0.083089 0.073989 -0.194808 0.323924 -0.161043 0.195265 -0.258294 -0.223065 -0.631282 -0.023512 0.161957 0.058709 -0.020704 0.259553 -0.172058 -0.15181 -0.15074 0.120271 0.029085 0.036178 0.218384 -0.337647 -0.158316 -0.2537 -0.17508 -0.216411 0.434102 -0.374943 0.166206 0.010601 -0.317142 -0.210574 -0.121156 0.19333 -0.25928 -0.203438 -0.040662 0.463348 0.277696 0.342401 0.341713 -0.048916 -0.62363 0.423049 0.148717 0.149924 0.22396 0.109065 0.173898 0.226811 -0.29042
-0.774392 2.795093 0.409604 1.190438 -1.009686 -1.503551 1.834152 -1.569738 -1.692283 -2.060294 -0.955607 1.538496 -1.002519 0.754626 -0.306788 0.836143 1.600131 -0.003125 1.097863 -0.273328 0.899241 1.786134 -0.246458 -1.736029 0.866993 -2.235326 1.88342 3.331939 0.423617 2.271342 1.541649 0.150577 0.553882 -0.427772 -1.45858 -0.875385 0.052207 -0.065043 0.67693 -1.197317 -1.212448 -2.240627 0.379234 1.041466 0.152924 -2.117446 -0.250902 0.239374 3.212668 1.012978 0.845089 -1.311835 1.062804 3.806203 -1.785744 0.722809 -1.514991 -0.805588 -0.749634 -1.645253 -0.860686 0.410072 -0.040744 -0.30962 0.794392 -0.216324 0.669858 -1.393148 -0.041181 0.457601 1.509137 2.848498 1.352747 -1.668167 0.668661 -0.576252 -1.630245 0.794311 -1.676745 2.808904 3.396993 3.051439 -1.602049 -1.443491 -1.147514 -0.158143 0.392342 1.101068 1.488191 2.282922 0.135801 1.123111 -3.539323 -0.99091 -0.874984 1.827228 2.060217 1.993766 -0.997358 0.062024
0.047836 -0.260219 0.14638 0.007779 -0.104955 -0.050724 -0.319432 -0.027407 -0.104778 0.124311 0.14477 0.148278 -0.013076 -0.069917 0.254554 0.25292 0.091697 0.206138 0.168034 0.12307 -0.258927 -0.00695 0.102032 0.075771 -0.201948 -0.129118 -0.138297 -0.097396 0.264104 -0.141635 -0.00303 -0.004618 -0.171331 0.006413 -0.129962 -0.058793 -0.107657 -0.040955 0.117533 0.181708 -0.064138 0.225566 -0.062915 -0.035464 0.269723 -0.089994 -0.005719 -0.078063 -0.215832 0.079343 0.266575 -0.25419 -0.128297 0.038341 0.119308 -0.207662 -0.029523 0.019236 0.024436 -0.109361 0.007955 -0.078744 0.071111 -0.325345 -0.091151 0.006054 0.103893 0.156867 0.20827 -0.195221 -0.011492 -0.084134 -0.077224 -0.110934 0.098004 -0.068865 -0.108344 -0.153112 -0.094614 -0.187216 -0.01459 0.218526 0.241999 -0.141711 0.084584 0.252269 0.155438 -0.088298 0.260633 0.198838 -0.176457 -0.052125 -0.045839 0.131111 -0.115358 -0.197565 0.088973 -0.089591 0.060949 -0.086675
-0.113592 0.021734 -0.107796 -0.055351 -0.254265 0.192693 -0.030184 -0.204755 -0.032514 0.111876 -0.069056 0.148943 0.022106 0.088739 -0.244831 0.054588 0.057001 -0.117027 -0.09707 -0.196372 0.046108 0.042787 0.105808 -0.087283 -0.181546 0.031456 -0.306925 -0.052706 0.028012 -0.156616 0.123923 -0.102664 -0.039407 -0.158384 0.032382 0.027736 -0.137251 -0.065033 -0.151039 -0.159096 -0.019389 0.092833 0.082254 0.212047 0.073603 0.018875 -0.01008 -0.040293 0.133672 0.113824 -0.128214 0.137444 0.021716 0.077402 0.033978 -0.009936 0.113947 0.065402 -0.020108 0.037263 0.100731 0.145186 0.110231 -0.145082 -0.027738 -0.002764 0.073832 0.061556 0.159483 0.005298 -0.093692 0.075918 0.096387 0.016326 0.17705 -0.051498 -0.021815 -0.081634 0.07395 0.065289 0.015232 0.069114 0.302198 -0.206156 -0.038991 0.009985 0.007459 -0.126381 0.025956 0.155047 0.010664 -0.107695 -0.057463 -0.109059 0.189162 -0.332972 0.179268 -0.195442 -0.156902 0.018572
0.022601 -0.023569 -0.032796 0.087274 -0.05525 -0.125805 -0.083429 0.080311 -0.125149 0.106256 0.148385 0.173177 -0.093971 0.08358 0.027163 0.115353 -0.101953 0.050322 -0.025861 0.084382 0.119449 0.053943 0.217961 0.255346 0.056731 0.080892 0.103907 -0.126235 -0.03431 -0.11038 0.045216 -0.077642 0.063682 -0.061189 -0.07606 0.003876 0.12885 0.087522 -0.015259 -0.05557 -0.093873 0.083331 0.246033 0.01806 -0.108965 -0.078381 0.026749 -0.005417 -0.036903 0.185242 0.123361 -0.142295 -0.162819 0.0646 0.013233 -0.052103 -0.133982 -0.061703 0.133131 0.004652 0.021199 -0.01708 -0.014907 -0.201404 -0.10884 -0.147331 0.07938 -0.101486 -0.013116 0.087015 0.139966 0.00774 -0.003155 -0.037629 0.020508 0.095254 -0.200411 -0.052059 -0.05269 0.070415 -0.106641 0.01191 0.059088 -0.030742 -0.112337 -0.187975 0.102966 0.118789 0.135369 0.065288 -0.086208 0.072004 -0.1489 0.095254 -0.071854 -0.078586 0.093914 -0.004491 0.120449 -0.127054
-0.075442 -0.010081 0.084877 0.140316 -0.068948 0.125215 -0.014244 0.092048 0.004811 -0.009119 0.040138 3.97E-4 0.095064 0.063929 0.013199 -0.010794 -0.009497 0.136358 0.061422 -0.019905 0.022806 0.166345 0.014454 0.028831 -0.011444 -0.013173 0.037262 0.021223 0.001168 0.024977 -0.124504 0.010163 0.145381 0.101081 -0.026416 0.089411 0.01228 -0.137587 -0.016733 0.104509 0.043958 0.10353 0.053026 -0.1156 0.021313 0.004981 0.117507 0.062334 -0.027633 -0.091628 -0.075575 0.04923 0.097863 0.073845 0.047273 -0.047778 -0.153057 0.038681 0.052248 0.092835 0.090522 -0.00152 0.052274 0.028951 0.03712 -0.019412 0.118707 0.062001 0.067911 -0.137476 -0.005611 -0.066582 0.061383 -0.221176 -0.168343 0.201665 -0.108764 -0.114119 -0.08027 0.031289 0.060014 0.031016 -0.019222 -0.082244 -0.091619 0.024658 0.119492 0.131181 0.076526 -0.044609 -0.119732 -0.045183 -0.015879 -0.04461 0.102605 0.010953 0.027212 0.136535 0.011479 -0.011049
0.0 0.0 0.0 0.0 0.0 0.0 0.0 0.0 0.0 0.0 0.0 0.0 0.0 0.0 0.0 0.0 0.0 0.0 0.0 0.0 0.0 0.0 0.0 0.0 0.0 0.0 0.0 0.0 0.0 0.0 0.0 0.0 0.0 0.0 0.0 0.0 0.0 0.0 0.0 0.0 0.0 0.0 0.0 0.0 0.0 0.0 0.0 0.0 0.0 0.0 0.0 0.0 0.0 0.0 0.0 0.0 0.0 0.0 0.0 0.0 0.0 0.0 0.0 0.0 0.0 0.0 0.0 0.0 0.0 0.0 0.0 0.0 0.0 0.0 0.0 0.0 0.0 0.0 0.0 0.0 0.0 0.0 0.0 0.0 0.0 0.0 0.0 0.0 0.0 0.0 0.0 0.0 0.0 0.0 0.0 0.0 0.0 0.0 0.0 0.0
-0.130676 -0.199196 -0.035099 0.032604 -0.042615 -0.023303 0.060237 -0.076584 0.00545 -3.35E-4 0.118055 0.026695 0.105707 -0.087032 -0.074505 0.037002 0.065281 -0.0393 -0.02517 -0.164946 -0.046293 0.003275 0.142592 0.137317 -0.170921 -0.034709 -0.10291 0.048386 0.126692 -0.266657 -0.127747 -0.057535 0.122498 0.074111 0.291178 -0.160118 -0.075608 -0.043598 0.006866 0.015539 -0.137898 -0.115492 0.208727 -0.008284 0.052131 -0.116619 0.023857 0.210145 -0.047289 -0.018462 0.033972 0.011168 -0.074561 -0.257832 -0.0933 -0.024824 -0.097729 0.006717 0.038456 0.006223 -0.011547 0.063837 -0.152379 -0.094751 -0.137922 0.048831 1.73E-4 -0.012646 0.098069 0.060623 -0.129729 0.0301 -0.09719 -0.052737 0.068991 -0.122321 0.078189 -0.077004 0.078852 -0.080564 0.044351 0.069768 0.02003 -0.028151 -0.244601 0.090499 -0.068458 -0.008291 0.107898 -0.035807 -0.070642 0.014903 -0.141891 -0.031287 0.151151 -0.009146 -0.130039 -0.011589 0.097959 0.081507
-0.045034 -0.171359 0.184678 0.097529 -0.021152 -0.063557 0.165518 -0.095463 0.122723 0.005338 0.032194 0.104262 0.002841 0.035373 0.176075 0.074424 -0.237605 0.094492 0.176673 -0.095809 -0.176576 -0.008606 0.199225 0.115573 -0.093062 0.066268 -0.007132 -0.06829 0.05348 -0.030247 0.067004 -0.195815 -0.057617 0.051465 0.06698 -0.241073 0.129252 -0.04287 0.039021 -0.055443 -0.141548 0.125892 -0.024648 0.095763 0.081229 -0.296273 0.118912 0.001528 -0.008892 0.100446 0.029094 -0.107701 -0.094931 -0.031189 -0.237412 0.05769 0.026742 -0.188172 -0.070202 -0.185837 -0.118722 -0.188817 0.016652 -0.233815 -0.252807 -0.12861 -0.078005 0.163661 0.153729 -0.075312 -0.061938 -0.103743 0.009898 0.023548 0.220844 -0.15455 -0.024319 -0.177401 -0.004623 0.086814 -0.116381 0.132928 0.251795 -0.119481 -0.116005 0.073754 0.077959 0.198077 0.130755 0.16859 -0.051399 -0.107858 -0.037692 0.019149 -0.238987 -0.043204 0.282933 0.054821 -0.219089 0.104743
0.031162 0.166305 -1.227867 0.995924 0.779799 0.12409 -0.684761 -1.103809 1.259443 -0.948757 0.690516 1.131314 -1.113941 -0.915679 1.215407 1.384586 -1.876554 -3.117048 -1.620417 -1.146407 -2.106475 -2.141372 -0.73771 -0.470048 -0.265762 -1.841968 -0.185066 0.710846 -2.894356 -0.261925 1.145666 -1.304976 1.016044 -0.77286 -1.83919 -0.53353 1.235903 -1.942758 2.400647 -1.600522 0.655454 -0.869853 0.593991 0.324237 -0.17574 0.905198 -2.881218 -1.262429 2.734779 -0.056499 1.935973 -0.551708 -0.609893 1.192098 -2.152465 0.34045 -0.909619 1.07294 -2.070254 -2.71553 -1.332549 -0.664714 0.509525 -0.751712 -0.304399 0.949191 1.759596 -1.664947 1.601076 2.751728 2.346884 -0.44888 -1.156992 -1.137918 -1.348593 -2.109595 1.154202 -0.470482 -0.993362 -0.305981 1.189159 -1.110737 -1.692773 2.50984 1.76698 2.134093 1.945703 1.040998 -1.683312 -1.498721 1.961738 0.511195 -1.810232 0.745066 -1.26413 0.34794 -1.331159 0.991916 -1.070543 3.091609
0.090042 -0.208725 -0.134717 -0.031764 0.090363 -0.02682 -0.112133 0.173168 -0.10949 0.064061 0.056461 -0.103401 -0.063748 -0.042063 -0.127395 -0.175223 0.075588 0.095621 0.133171 0.02864 -0.145951 -0.065984 -0.203846 -0.10117 0.108036 0.044632 0.340734 -0.240121 -0.091735 -0.144901 0.105789 -0.050614 0.226057 -0.024757 0.051149 0.178589 0.104257 0.187385 0.066923 0.100643 0.01283 0.035342 0.232739 -0.364236 -0.246558 -0.056139 0.031297 -0.110933 0.033226 0.019353 -0.028991 0.069473 0.117366 -0.139662 -0.203047 0.150886 0.453196 -0.062686 -0.002765 0.072606 0.256505 0.085054 0.122737 0.108081 -0.255487 -0.246848 0.072868 -0.097432 0.14793 0.246482 0.236719 -0.031553 0.128062 0.049853 -0.087367 -0.078517 0.053076 0.200503 -0.008709 -0.006903 -0.005392 -0.337754 -0.165602 0.356471 0.283071 0.023249 0.047674 -0.046142 0.358365 -0.246711 0.27573 0.117416 0.072726 0.065269 -0.332732 -0.019645 -0.095092 -0.153604 -0.204311 5.0E-5
3.206997 -4.877361 -0.910472 -1.395845 1.572584 1.195669 -0.645877 1.514129 4.001514 1.012958 -3.145483 -0.395437 1.874785 5.030729 -0.714288 0.493562 2.05343 -0.729517 -2.326681 -4.578588 4.021246 1.018946 2.697827 -0.157538 -0.814339 -0.486008 0.989437 1.830659 2.35274 1.218592 0.83605 -0.84899 0.6027 -2.480923 0.003665 -0.862534 3.024495 1.349808 1.198729 -1.537208 -0.457143 0.652121 -3.708537 -0.665668 -1.704043 -1.144021 1.079376 1.529449 -1.413777 -4.361203 0.251599 0.959199 -3.679446 3.251751 -0.363336 -1.856911 1.311208 -0.087199 1.337398 -2.061584 0.277746 0.363671 1.62815 -2.562427 4.072415 2.277454 0.413444 0.269817 -3.077566 -2.043647 0.637895 -0.133715 -0.513107 4.057566 0.540331 -0.387082 4.579637 1.656738 0.39891 -4.182041 2.762143 1.010128 0.478 2.292752 0.772669 -0.49472 0.716144 -1.1895 2.324726 -3.328852 0.040878 2.011935 1.095551 -0.375816 -0.64119 -1.44337 -2.397953 0.997347 -0.139075 -1.143159
0.131104 -0.304931 0.170854 0.13682 -0.361002 0.029047 0.040582 -0.303101 -0.09 0.334487 0.121836 0.217386 0.079548 0.197536 0.220964 -0.124531 -0.122089 0.01949 -0.025198 0.056356 0.00404 0.014448 0.02468 -0.050191 0.057113 0.191405 -0.063207 0.065132 -0.053755 -0.355356 0.094915 -0.140245 0.196116 0.24599 0.083945 0.02135 -0.186583 -0.151586 0.194895 0.280674 -0.297213 0.539835 -0.283166 -0.30555 -0.298164 0.089077 -0.143106 0.062883 -0.479806 0.083089 0.073989 -0.194808 0.323924 -0.161043 0.195265 -0.258294 -0.223065 -0.631282 -0.023512 0.161957 0.058709 -0.020704 0.259553 -0.172058 -0.15181 -0.15074 0.120271 0.029085 0.036178 0.218384 -0.337647 -0.158316 -0.2537 -0.17508 -0.216411 0.434102 -0.374943 0.166206 0.010601 -0.317142 -0.210574 -0.121156 0.19333 -0.25928 -0.203438 -0.040662 0.463348 0.277696 0.342401 0.341713 -0.048916 -0.62363 0.423049 0.148717 0.149924 0.22396 0.109065 0.173898 0.226811 -0.29042
-0.026799 -0.103797 0.112651 -0.259641 -0.103915 0.088316 -0.053088 -0.022809 0.009437 -0.09753 0.060073 0.126938 -0.120166 -0.201027 -0.031192 0.114149 -0.054812 0.193163 0.102408 0.014485 -0.142804 0.004168 0.106051 0.11444 -0.218755 -0.190187 0.08501 -0.064668 -0.128386 0.029669 -0.065954 0.042625 -0.391147 -0.09788 -0.127327 0.028785 0.023364 -0.057131 -0.029977 -0.052351 -0.109947 0.189529 -0.137615 0.126845 -0.031891 -0.070696 -0.021912 0.047885 0.00687 0.096735 0.088226 -0.067865 -0.012925 0.020968 -0.00858 0.059358 0.11823 -0.176081 -0.213955 -0.175354 0.240854 -0.072666 0.023853 -0.029982 0.089821 0.130766 0.016941 0.178835 -0.00797 -0.080021 -0.044534 0.049337 -0.037857 -0.1511 0.060476 -0.006618 0.145705 0.04376 -0.128786 -0.038244 0.01883 -0.008851 0.060935 -0.194196 0.098924 0.049666 0.05715 0.08558 0.098442 0.050731 -0.160965 -0.078077 -0.002686 -0.001068 -0.122167 -0.028315 -0.037337 -0.071233 -0.050617 -0.095917
0.090042 -0.208725 -0.134717 -0.031764 0.090363 -0.02682 -0.112133 0.173168 -0.10949 0.064061 0.056461 -0.103401 -0.063748 -0.042063 -0.127395 -0.175223 0.075588 0.095621 0.133171 0.02864 -0.145951 -0.065984 -0.203846 -0.10117 0.108036 0.044632 0.340734 -0.240121 -0.091735 -0.144901 0.105789 -0.050614 0.226057 -0.024757 0.051149 0.178589 0.104257 0.187385 0.066923 0.100643 0.01283 0.035342 0.232739 -0.364236 -0.246558 -0.056139 0.031297 -0.110933 0.033226 0.019353 -0.028991 0.069473 0.117366 -0.139662 -0.203047 0.150886 0.453196 -0.062686 -0.002765 0.072606 0.256505 0.085054 0.122737 0.108081 -0.255487 -0.246848 0.072868 -0.097432 0.14793 0.246482 0.236719 -0.031553 0.128062 0.049853 -0.087367 -0.078517 0.053076 0.200503 -0.008709 -0.006903 -0.005392 -0.337754 -0.165602 0.356471 0.283071 0.023249 0.047674 -0.046142 0.358365 -0.246711 0.27573 0.117416 0.072726 0.065269 -0.332732 -0.019645 -0.095092 -0.153604 -0.204311 5.0E-5
0.185938 -0.089624 0.093234 0.147536 -0.11459 -0.129008 -0.09481 -0.008017 -0.075406 0.0206 0.119411 0.100719 -0.033793 -0.109748 0.239836 0.145497 0.032362 0.132324 -0.001636 0.056896 -0.207768 0.14385 0.103415 -0.067541 -0.08987 -0.002098 0.003064 0.060203 0.149974 -0.225837 0.178074 0.043982 0.12233 0.044586 -0.058302 0.17733 -0.198181 0.002445 -0.169354 0.158764 -0.047726 -0.005613 -0.108721 -0.188066 0.076265 -0.007771 -0.001382 -0.030905 0.0393 0.141754 0.159115 -0.006548 -0.01495 -0.030699 0.059923 0.007514 -0.081255 0.014984 -0.157812 -0.086708 0.051821 -0.228048 -0.183213 -0.164892 0.021959 -0.050445 -0.007444 -0.141708 -0.039219 -0.202261 0.013122 0.23699 -0.082318 0.070748 0.231225 0.002655 -0.105667 -0.196822 0.099719 0.039002 -0.142883 0.048344 0.164295 -0.164501 0.042459 0.006267 0.221968 0.201626 0.073428 0.235844 -0.12395 -0.056444 0.124315 0.063309 -0.00743 0.033688 0.071343 0.150496 0.072951 -0.079105
-0.125002 -0.066817 -0.180766 -0.059979 -0.092662 0.094897 -0.157281 0.149876 -0.054601 0.166557 -0.072196 0.088903 -0.020504 0.030954 0.011593 0.059236 -0.015654 0.027102 -0.072601 -6.44E-4 -0.078562 0.006416 0.115282 0.100459 -0.12915 0.113299 0.140987 -0.12095 -0.008716 -0.12589 0.203538 0.027711 -0.108113 0.027425 -0.207183 0.041097 0.067443 0.016476 0.109709 -0.043383 0.097247 0.087611 0.04971 0.11518 -0.029272 0.019313 0.044622 0.126768 0.085755 -0.041414 -0.035159 -0.020206 0.044492 -0.04271 0.164299 -0.173956 0.054438 -0.129314 0.01258 -0.154185 0.057271 -0.092325 0.08629 -0.193376 -0.149163 0.081389 0.135752 0.015912 3.93E-4 -0.028525 -0.160906 0.162119 0.114114 -0.051617 0.16827 -0.17756 -0.052901 0.055456 0.057253 -0.128881 0.052534 0.293794 0.215936 -0.042191 0.051492 -0.083139 -0.037911 0.10892 0.014079 0.182417 -0.069847 0.044903 -0.082355 0.156042 -0.11172 -0.100245 -0.050986 0.080645 -0.011823 0.110605
-1.412652 -1.601765 -0.61787 -0.680527 -0.844744 1.125504 0.301319 1.455374 0.644034 0.711205 0.314804 -0.594288 2.137748 1.038718 0.391388 -0.912103 2.034756 2.354074 0.331193 0.639682 -2.276802 -0.120719 0.33498 -1.217742 -0.097295 1.456992 -0.400321 0.808491 -0.265143 0.755066 -0.231528 -0.886736 0.003026 -0.711603 -1.011911 -0.023568 -0.068424 -0.404667 -0.77833 -0.148307 0.32691 0.431335 -0.71551 -1.552887 0.634951 0.009769 -0.485129 0.43602 -0.648991 -0.34579 -0.351223 0.538223 -0.025708 1.939752 0.841276 -0.150393 -0.320539 -0.088937 -0.166067 1.112882 0.487995 -1.273446 -0.491652 0.152753 0.005119 -0.506621 1.226343 0.369107 -0.284261 -0.27331 0.137515 0.986404 -1.303174 -0.564628 -0.537048 1.433155 -0.037197 -0.057702 -0.028 -0.110631 -0.871856 -0.89131 0.110804 -0.531367 0.188982 -0.415638 1.473004 0.464263 -0.278123 0.937018 -1.896533 -0.436924 0.694788 0.822083 0.458763 0.096024 0.307065 0.755614 0.958912 -9.9E-4
0.0 0.0 0.0 0.0 0.0 0.0 0.0 0.0 0.0 0.0 0.0 0.0 0.0 0.0 0.0 0.0 0.0 0.0 0.0 0.0 0.0 0.0 0.0 0.0 0.0 0.0 0.0 0.0 0.0 0.0 0.0 0.0 0.0 0.0 0.0 0.0 0.0 0.0 0.0 0.0 0.0 0.0 0.0 0.0 0.0 0.0 0.0 0.0 0.0 0.0 0.0 0.0 0.0 0.0 0.0 0.0 0.0 0.0 0.0 0.0 0.0 0.0 0.0 0.0 0.0 0.0 0.0 0.0 0.0 0.0 0.0 0.0 0.0 0.0 0.0 0.0 0.0 0.0 0.0 0.0 0.0 0.0 0.0 0.0 0.0 0.0 0.0 0.0 0.0 0.0 0.0 0.0 0.0 0.0 0.0 0.0 0.0 0.0 0.0 0.0
-0.036486 0.005401 0.040099 0.026889 0.05006 -0.091472 0.017121 0.123208 -0.181132 0.082191 0.350539 0.132306 0.104908 -0.114766 -0.009019 0.20523 -0.110896 -0.115572 0.170295 -0.084866 0.041985 0.124709 0.134185 -0.084192 -0.145134 -0.169725 -0.074694 0.045566 0.102397 -0.011389 -0.037438 -0.122909 0.04337 0.119853 -0.068184 -0.143118 0.239081 0.04104 0.048895 0.025586 -0.001485 -0.025357 0.204165 -0.028829 0.017361 0.039817 0.194285 0.107224 0.011202 0.005715 0.001488 -0.033153 -0.147939 -0.141705 -0.171433 -0.041721 -0.015832 -0.085395 0.126552 -0.074568 0.153934 0.003666 -0.066348 -0.18091 -0.115009 0.095708 0.02232 -6.58E-4 0.103283 -0.033384 0.007136 0.070525 0.071693 0.024884 0.028763 0.044025 -0.089645 0.032169 0.056176 -0.12927 -0.018552 0.174307 0.138283 -0.049134 0.190377 -0.134348 0.110502 0.055676 0.07763 0.021884 -0.085118 -0.002976 -0.001778 0.003432 -0.12478 -0.061896 0.00491 0.039518 -0.052617 -0.054114
0.352905 0.550922 -1.128945 -0.511125 0.774489 1.405335 -0.371647 0.106012 -0.779785 -0.640302 -0.68578 1.570717 -0.712288 -0.706705 -0.789609 -0.045278 -1.599722 -2.840112 -0.089543 -1.158838 -1.862605 -0.62748 -0.063542 -0.468696 0.750564 0.033551 -0.772222 -0.188991 -0.163115 0.455978 0.038455 -0.779588 0.172303 -1.114448 -0.548246 -0.008155 1.66721 -0.744821 -0.15746 -2.668482 -0.304702 -0.905716 0.479063 0.151803 -0.94063 -0.044338 -0.906122 -0.456182 0.281891 0.268287 0.47007 0.628019 0.328428 1.471286 -2.345457 0.072073 -0.345477 -0.998199 -1.496897 -0.053061 0.351206 -0.934426 0.295591 0.07336 0.24092 0.486976 0.390085 -0.621556 0.375246 -0.02625 1.957847 1.014101 0.004675 0.08874 -0.900479 -0.462149 0.922254 1.355385 -1.048724 0.105897 1.254466 0.410718 0.321258 1.066395 -0.171761 -0.128774 0.315556 0.697301 -0.180925 0.555334 1.005586 -0.891677 -1.232923 -1.994189 -0.567812 0.204184 -0.947385 -0.051526 -0.987029 0.725141
-0.046023 0.160756 0.174625 0.345797 -0.161349 -0.026825 -0.242914 -0.056228 -0.108625 0.232551 0.023254 0.143185 -0.112274 -0.029495 -0.041227 0.161269 -0.129636 -0.030374 -0.14385 -0.097721 0.067551 -0.193575 0.281338 -0.046387 -0.128471 0.070867 -0.082348 0.153601 0.243249 -0.084327 0.202243 0.061221 0.03868 0.142018 -0.230018 0.184264 0.105967 -0.070748 0.167264 0.295827 0.19578 0.292015 0.035763 -0.077467 0.083857 -0.265465 0.005498 -0.032104 -0.298358 0.111818 0.156679 -0.066687 -0.044737 0.163559 0.140282 -0.156636 0.152275 -0.027789 -0.065517 -0.189184 -0.02242 -0.197541 -0.040492 -0.118073 -0.345516 0.085243 0.031926 0.093578 0.118176 -0.139168 -0.0146 0.002825 0.153624 -0.089437 -0.076691 0.163261 -0.144709 0.104512 -0.155544 0.155385 -0.217908 0.072925 0.150649 -0.009368 0.049212 -0.218986 0.084323 0.130961 -0.032561 0.047667 -0.154719 -0.099329 0.098875 0.035473 -0.01967 -0.010768 0.085366 0.134787 0.147853 -0.093308
0.173344 0.005123 0.187749 -0.049865 0.057208 0.057459 -0.041715 0.028089 -0.044805 0.186164 -0.110167 0.309858 -0.12526 -0.032664 0.121115 0.160137 0.35197 -0.10555 0.090847 0.127465 -0.260305 -0.02115 -0.113191 -0.235864 0.104194 -0.051618 0.022992 0.100268 0.021842 -0.028781 -0.227781 -0.160656 -0.048679 -0.234753 -0.080746 0.191914 0.150376 0.075047 -0.028842 -0.087012 -0.007326 -0.117884 -0.066936 -0.20325 -0.021989 0.291898 0.190925 -0.077031 -0.046816 -0.085049 -0.309216 0.031541 0.128232 -0.047412 -0.192289 0.052757 0.079167 -0.058437 0.076467 -0.08972 0.099157 -0.133367 -0.21267 0.047824 -0.029809 -0.143088 0.172956 -0.020382 -0.055433 0.09554 0.043766 0.084842 -0.134482 0.022261 -0.261294 -0.261879 -0.215195 0.199523 -0.082589 0.092317 -0.061759 0.118913 0.001952 0.082131 0.048488 0.126695 0.002595 -0.024202 0.223999 0.062825 0.145027 0.066293 -0.014155 0.141782 0.045503 -0.149988 0.093483 -0.141832 -0.119461 0.019324
-0.19975 -0.163397 0.046376 0.108494 -0.086906 -0.079634 -0.174304 -0.190655 -0.16796 0.054171 0.073367 0.100495 0.028349 0.089697 0.084377 0.226077 -0.144981 0.170875 0.030617 -0.002744 -0.049142 0.147196 0.014105 -0.098415 -0.097857 -0.116433 -0.221617 -0.031682 0.328072 0.174668 0.066348 0.00991 0.088367 -0.047556 0.007861 -0.096847 0.029124 0.106336 -0.027728 0.071993 -0.012189 0.143203 -0.02933 0.062494 -0.056761 -0.120269 -0.12018 -0.017668 -0.062963 0.101128 0.16565 -0.026171 -0.079002 -0.131484 -0.015915 0.040522 -0.181151 -0.002836 0.057121 -0.107145 0.126391 -0.080741 0.019065 -0.07346 -0.064256 0.100005 0.14671 -0.007299 -0.060089 0.006398 0.030183 0.114927 0.121747 -0.032423 0.073375 -0.013173 -0.065432 0.056931 -0.211812 0.024416 -0.072059 -0.018436 0.023346 -0.02972 0.040747 0.006594 0.315286 0.127171 0.034984 0.125694 -0.126999 -0.159279 0.204473 0.190888 -0.115081 -0.166722 0.05582 -0.005334 0.014762 -0.26041
0.352905 0.550922 -1.128945 -0.511125 0.774489 1.405335 -0.371647 0.106012 -0.779785 -0.640302 -0.68578 1.570717 -0.712288 -0.706705 -0.789609 -0.045278 -1.599722 -2.840112 -0.089543 -1.158838 -1.862605 -0.62748 -0.063542 -0.468696 0.750564 0.033551 -0.772222 -0.188991 -0.163115 0.455978 0.038455 -0.779588 0.172303 -1.114448 -0.548246 -0.008155 1.66721 -0.744821 -0.15746 -2.668482 -0.304702 -0.905716 0.479063 0.151803 -0.94063 -0.044338 -0.906122 -0.456182 0.281891 0.268287 0.47007 0.628019 0.328428 1.471286 -2.345457 0.072073 -0.345477 -0.998199 -1.496897 -0.053061 0.351206 -0.934426 0.295591 0.07336 0.24092 0.486976 0.390085 -0.621556 0.375246 -0.02625 1.957847 1.014101 0.004675 0.08874 -0.900479 -0.462149 0.922254 1.355385 -1.048724 0.105897 1.254466 0.410718 0.321258 1.066395 -0.171761 -0.128774 0.315556 0.697301 -0.180925 0.555334 1.005586 -0.891677 -1.232923 -1.994189 -0.567812 0.204184 -0.947385 -0.051526 -0.987029 0.725141
-0.064357 -0.033406 -0.006591 0.181457 0.041885 0.1408 -0.109843 0.016376 0.068228 -0.045519 0.005233 0.012036 0.05064 -0.052642 0.185426 0.139427 -0.155023 0.12963 0.063368 -0.055016 -0.054854 -0.018229 0.216037 -0.004417 -0.285826 -0.095238 -0.069825 -0.021777 0.187402 -0.130867 -0.00675 -0.075803 -0.044586 0.061098 0.044502 -0.138919 0.031721 -0.005549 0.063477 5.3E-5 0.101342 0.067759 0.180205 0.110423 -0.107152 0.014466 -0.095647 -0.001514 -0.13148 0.090497 0.038783 -0.236052 -0.139813 -0.061498 0.050517 -0.013343 -0.001507 0.083055 0.065801 -0.03321 0.124938 -0.104659 -0.042903 -0.049201 -0.088403 -0.030678 0.055664 0.085579 0.303591 -0.024133 0.025756 -0.085778 0.02809 -0.058313 0.028445 -0.065808 -0.182156 -0.019053 0.014958 -0.002839 -0.024485 0.159415 0.06125 -0.100844 0.111327 0.042033 0.023134 -0.078359 0.169092 -0.074151 -0.058673 0.083338 0.03916 0.23854 -0.125673 0.017002 0.129169 0.039082 0.127676 0.034378
0.024174 -0.053819 -0.029045 0.052018 -0.130224 -0.02667 -0.035488 -0.046247 0.022179 -0.062903 -0.179084 -0.003827 -0.1454 0.005838 -0.129998 0.021808 0.046514 0.107757 0.087669 0.078274 -0.068508 0.028766 0.070452 -0.066499 -0.027169 0.06661 0.066321 0.007821 0.153725 0.050884 0.075944 0.119751 0.047542 -0.13598 -0.106419 0.169664 -0.153958 -0.061375 0.128959 0.041598 -0.094129 -0.171918 -0.011147 -0.166183 0.107599 0.049685 -0.182303 0.035974 0.021865 0.148205 0.018531 -0.070415 -0.027502 0.070257 -0.082732 -0.122803 -0.070657 0.120624 -0.143626 -0.104191 0.076249 -0.039518 -0.004656 -0.036797 -0.039319 -0.145951 -0.07851 -0.112065 -0.16906 0.062787 0.027018 -0.040582 0.039901 0.136325 0.058665 0.025279 -0.181123 -0.007475 0.040829 0.003869 0.088181 0.012514 -0.010705 -0.176638 -0.210194 0.045478 -0.102702 -0.00883 -0.064391 0.134251 -0.159387 0.108888 0.110725 -0.004544 0.210888 -0.040116 -0.02316 -0.062927 -0.042138 -0.079377
0.263856 -0.107408 0.007431 0.260802 -0.145029 -0.068955 0.065521 -0.169199 0.043825 -0.008054 -0.137215 0.099651 0.124902 0.024592 0.05065 -0.128334 -0.007049 -0.081145 -0.033514 0.08697 0.104768 0.045208 0.041689 -0.068464 -0.029283 0.318126 -0.275695 0.128041 0.191453 -0.004779 -0.074386 -0.100264 -0.050629 -0.048019 0.280456 -0.053918 -0.03308 0.091543 -0.07298 0.120944 0.0772 0.10344 -0.002219 -0.274543 0.048161 -0.055833 -0.084553 0.004582 -0.053097 -0.034466 -0.013793 0.071572 0.097245 -0.007388 0.14306 -0.078318 -0.007637 -0.199103 -0.105885 0.212315 -0.127268 -0.039504 -0.008328 0.043361 0.066741 0.085472 -0.113991 0.175146 -0.034867 -0.025454 0.065864 -0.073648 0.110723 -0.096529 -0.088678 0.098203 0.103915 0.110565 -0.141214 0.032246 -0.122562 -0.059347 -0.066983 0.034201 0.024457 0.05833 0.032545 -0.026972 0.080581 -0.037108 -0.136367 -0.056624 0.164332 0.126177 -0.217575 0.050805 0.043839 -0.107597 0.124416 -0.109561
-0.036257 0.088219 0.150305 0.234917 0.034188 -0.115587 0.096451 -0.030381 0.128418 0.100611 -0.091136 -0.017061 -0.01111 0.224005 0.109497 0.069584 -0.127864 0.060817 0.077625 0.242065 -0.188903 -0.024223 -0.211458 0.080641 0.141656 -9.2E-5 0.037286 0.090819 -0.028767 0.070507 -0.041704 0.033463 0.082641 -0.023127 0.032582 0.095975 -0.003229 -0.038724 0.006311 -0.035155 0.022131 -0.081716 0.024937 -0.045163 -0.163513 -0.045356 -0.038507 0.131802 -0.020762 0.0351 -0.004589 0.146763 -0.156765 -0.048674 0.075029 0.089037 -0.212484 0.039319 -0.126942 -0.178135 0.005555 -0.018067 -0.055415 -0.105151 0.037906 -0.021931 -0.002154 -0.059475 -0.112857 0.179929 0.196381 0.086803 0.168593 0.014567 -0.012316 0.090799 0.125299 -0.1118 -0.358017 0.026891 0.011203 -0.002282 0.016005 0.113583 -0.134211 -0.114355 0.246063 -0.1935 0.00133 0.097893 0.069522 -0.100014 0.003858 0.049321 0.068655 0.021155 -0.055938 -0.058162 0.092122 0.201773
-0.056999 -0.158509 -0.018362 0.070992 0.147826 -0.064124 -0.108268 -0.130334 -0.17257 0.073087 0.071047 0.174835 -0.036911 -0.027515 0.271218 0.248133 0.058208 0.047987 -0.064434 0.060639 0.019902 0.030471 0.116566 0.070869 -0.042572 -0.10112 -0.159462 -0.015594 0.199727 -0.270593 -0.223599 0.042439 4.63E-4 -0.008276 -0.0531 -0.103463 -0.044228 -0.106284 0.043963 -0.00853 -0.077059 0.0943 -0.07686 0.137008 0.05912 0.074989 -0.059077 -0.048718 -0.059362 -0.042617 0.178518 -0.278492 -0.129127 -0.070142 0.063248 -0.012159 -0.135296 0.036728 -0.067895 -0.032111 -0.147431 -0.005939 -0.033109 -0.132893 0.032005 0.024213 -9.08E-4 -0.043175 -0.004361 0.010211 -0.054773 0.135012 0.097594 -0.069736 0.04815 -0.175826 -0.14525 -0.049826 0.034553 -0.321595 -0.045485 0.118925 0.148454 -0.16954 0.102646 0.150185 5.66E-4 0.152498 0.087681 0.094117 -0.038354 -0.006521 -0.183671 -0.006654 0.091454 0.119018 -0.128132 -0.009501 -0.004531 0.003262
-0.15176 -0.140086 0.092499 0.125997 0.056779 0.026434 -0.146647 -0.070961 -0.046891 0.034014 0.009504 0.17291 0.004594 -0.015805 0.09093 0.135721 -5.64E-4 0.245651 0.039693 0.013898 -0.099901 0.066561 0.118646 0.135953 -0.13085 -0.013966 -0.041617 -0.072902 0.170373 -0.123883 -0.026356 0.002465 -0.0303 0.067918 -0.070008 -0.081531 0.008108 -0.008457 -0.01364 0.085365 -0.081552 0.252997 -0.061348 -0.070236 0.035851 -0.088156 0.010801 -0.002095 -0.223116 0.071224 0.02705 -0.024185 -0.013114 -0.054405 -0.005797 0.015937 -0.034342 -0.035166 0.064026 -0.076798 0.068071 -0.090144 -0.027761 -0.118654 0.011504 0.049716 0.037354 0.141299 0.111765 -0.097165 0.003268 0.016274 -0.037869 -0.057546 0.036754 0.007341 -0.092563 -0.056447 -0.093776 -0.04269 -0.03509 0.070838 -0.038693 -0.178611 0.084337 0.069707 0.108712 0.018304 0.219668 -0.048094 -0.073911 -0.096291 0.029794 0.110149 -0.019774 -0.119618 0.009982 0.136233 0.063926 -0.12673
-0.159312 -0.056981 0.094442 -0.018196 -0.005146 0.061885 -0.01321 -0.012881 0.075977 0.094494 0.065393 0.132916 0.014502 -0.016807 -0.066672 0.253005 -0.213921 0.055835 -0.029625 -0.20043 -0.190486 -0.050619 0.027876 0.187209 -0.127079 -0.004171 -0.051897 0.131731 0.173134 -0.057054 -0.015111 0.078633 -0.117031 0.184027 -0.106593 -0.055208 0.068361 -0.019783 0.041599 0.04051 0.03426 0.010959 0.005143 0.094998 0.059781 0.235787 -0.074931 -0.071562 -0.159647 0.200226 0.10411 -0.07946 0.104853 -0.074407 0.068846 -0.149776 -0.004595 -0.076336 0.123668 -0.104744 -0.029477 -0.18407 0.049248 -0.139676 -0.014797 0.083939 -0.135986 0.024398 -0.032166 -0.111615 -0.038582 0.122163 -0.147461 0.17681 -0.033877 -0.06994 -0.053317 -0.096498 0.049314 -0.136139 0.060602 0.133793 0.039822 0.035655 0.006819 0.156318 0.056663 0.079402 0.230258 0.134668 -0.010918 -0.097839 8.84E-4 -0.043341 -0.077417 -0.094724 -0.102189 0.065628 0.007741 -0.125325
-0.001889 -0.015376 0.011577 -0.079922 0.019615 0.005975 0.018085 -0.133459 0.07886 -0.019014 -0.010821 0.041669 -0.011128 0.097962 -0.060935 0.042309 0.015014 8.49E-4 -0.002449 0.038756 0.0685 -0.030124 0.021652 -0.079703 0.075875 -0.122727 0.144977 0.073106 0.120718 -0.115022 0.047765 0.225363 -0.061747 -0.035103 0.080005 0.064342 -0.011293 0.032618 0.076202 0.118833 0.299047 0.176216 0.148892 -0.105455 -0.022399 0.118571 -0.05437 -0.136016 -0.04767 0.112361 0.012505 0.001737 0.056998 -0.132972 0.205737 0.014869 0.130993 0.242588 0.100312 0.073252 -0.019374 -0.073147 -0.042245 -0.05193 0.119558 0.067972 -0.198268 0.013905 0.103121 -0.09962 -0.010563 -0.219254 -0.117595 0.0375 -0.028297 0.03039 -0.116152 0.021365 0.041774 -0.247365 -0.187561 -0.063496 -0.088808 -0.029223 0.057963 0.069802 -0.07258 -0.052825 0.064478 0.040761 0.149345 0.085248 0.239559 0.137326 -0.140966 0.005439 0.083517 -0.02486 -0.028184 0.111642
0.0 0.0 0.0 0.0 0.0 0.0 0.0 0.0 0.0 0.0 0.0 0.0 0.0 0.0 0.0 0.0 0.0 0.0 0.0 0.0 0.0 0.0 0.0 0.0 0.0 0.0 0.0 0.0 0.0 0.0 0.0 0.0 0.0 0.0 0.0 0.0 0.0 0.0 0.0 0.0 0.0 0.0 0.0 0.0 0.0 0.0 0.0 0.0 0.0 0.0 0.0 0.0 0.0 0.0 0.0 0.0 0.0 0.0 0.0 0.0 0.0 0.0 0.0 0.0 0.0 0.0 0.0 0.0 0.0 0.0 0.0 0.0 0.0 0.0 0.0 0.0 0.0 0.0 0.0 0.0 0.0 0.0 0.0 0.0 0.0 0.0 0.0 0.0 0.0 0.0 0.0 0.0 0.0 0.0 0.0 0.0 0.0 0.0 0.0 0.0
-0.073843 -0.059589 0.02079 -0.003026 -0.015378 0.129731 -0.092164 -0.128453 0.1896 -0.04828 -0.073998 0.071628 -0.00721 0.119706 0.012321 0.106497 -0.154551 0.003301 0.279209 0.012427 -0.020755 0.182223 -0.205611 0.136663 -0.259656 -0.15838 0.01209 -0.025937 0.125639 -0.005184 6.03E-4 0.04732 -0.115644 0.096034 -0.125977 -0.056277 -0.095195 -0.082141 0.235645 -0.125572 -0.126572 -0.008714 0.101081 -0.073142 -0.126814 -0.137044 -0.11119 0.056072 -0.131195 -0.100049 0.136518 0.023079 -0.131634 0.030597 -0.094821 0.031327 -0.040237 0.159037 0.041189 0.071674 -0.008435 0.011013 -0.028878 -0.082541 -0.010232 -0.003002 -0.090612 0.033738 0.171709 0.052142 -0.022712 -0.031116 0.183779 -0.183957 0.129417 -0.062634 0.021567 -0.052125 -0.040465 0.11769 0.048514 -0.030506 -0.088549 0.068723 0.053593 -0.053114 0.163471 -0.136948 0.102235 -0.013556 -0.046679 -0.016717 0.033372 0.169048 -0.15101 -0.234252 0.192945 0.114441 0.021103 -0.032814
0.675315 0.277138 0.395812 1.410016 3.121596 2.130178 0.31776 -1.262249 -0.139719 -0.0983 0.577214 -1.279501 -1.094662 0.238719 1.742968 1.441346 -0.31446 -1.434238 -0.429253 -0.757469 -0.339637 -0.138327 3.581607 -0.300279 -0.286309 -0.487837 0.976383 2.519929 1.396765 -0.289502 0.533494 1.190966 0.914699 1.456595 -1.518646 -0.87343 -0.726746 -2.709795 -0.136766 -0.261024 0.87605 -4.007036 0.271838 -0.976447 -1.745022 -0.113863 -1.540698 0.073784 2.378682 0.703357 0.876635 0.165118 1.089586 2.19634 0.25768 1.90486 -1.254248 -0.416521 -1.645552 -2.969322 -0.763587 1.25007 -0.328784 -1.504951 1.434571 -0.1305 -0.672384 -1.863885 -0.13018 2.067778 2.119085 -0.708085 -0.827303 1.084238 -0.156663 2.274084 -0.709376 -0.389175 -0.731548 -0.044347 0.344365 -2.30621 0.805844 -1.733295 0.109243 2.686219 -0.304459 0.432224 -0.8058 2.297473 -1.260832 -1.021705 -1.486068 -0.496095 0.741892 -1.583908 -2.10667 -0.188524 -3.362179 -0.341073
0.100692 -0.157131 0.139302 0.123578 0.151543 0.178422 -0.012679 -0.103362 0.233611 0.029945 -0.033496 -0.02353 -0.150988 -0.078962 0.230475 0.006161 -0.201667 0.084881 -0.295978 -0.216595 -0.152078 -0.096403 -0.182565 -0.034674 -0.008271 0.123985 -0.225344 0.060741 0.064737 -0.027452 -0.020276 -0.040379 -0.062847 -0.021902 -0.155636 0.098869 0.118253 -0.054786 -0.035252 0.089718 -0.093516 0.108242 -0.165133 -0.010665 -0.002421 -0.171869 -0.111112 -0.041381 -0.044332 -0.069941 -0.02046 0.052983 -0.30701 0.053758 -0.133805 0.122561 8.2E-4 0.037855 -0.034898 0.091687 -0.127096 0.09488 -0.140734 -0.009746 -0.040595 0.12427 0.130515 0.010606 0.177229 0.063676 0.149195 0.026542 -0.108012 0.401386 -0.015993 -0.159563 0.171247 0.017552 -0.091249 -0.185777 0.041517 -0.021989 -0.300138 0.0411 -0.232056 0.111526 -0.051533 0.011578 0.198834 -0.128702 0.184857 -0.029913 -0.123641 -0.092647 0.286203 -0.109599 0.093666 0.015337 -0.091583 0.060957
0.263856 -0.107408 0.007431 0.260802 -0.145029 -0.068955 0.065521 -0.169199 0.043825 -0.008054 -0.137215 0.099651 0.124902 0.024592 0.05065 -0.128334 -0.007049 -0.081145 -0.033514 0.08697 0.104768 0.045208 0.041689 -0.068464 -0.029283 0.318126 -0.275695 0.128041 0.191453 -0.004779 -0.074386 -0.100264 -0.050629 -0.048019 0.280456 -0.053918 -0.03308 0.091543 -0.07298 0.120944 0.0772 0.10344 -0.002219 -0.274543 0.048161 -0.055833 -0.084553 0.004582 -0.053097 -0.034466 -0.013793 0.071572 0.097245 -0.007388 0.14306 -0.078318 -0.007637 -0.199103 -0.105885 0.212315 -0.127268 -0.039504 -0.008328 0.043361 0.066741 0.085472 -0.113991 0.175146 -0.034867 -0.025454 0.065864 -0.073648 0.110723 -0.096529 -0.088678 0.098203 0.103915 0.110565 -0.141214 0.032246 -0.122562 -0.059347 -0.066983 0.034201 0.024457 0.05833 0.032545 -0.026972 0.080581 -0.037108 -0.136367 -0.056624 0.164332 0.126177 -0.217575 0.050805 0.043839 -0.107597 0.124416 -0.109561
0.103956 -0.140772 0.076148 0.049515 -0.184693 0.109126 -0.267456 -0.11611 0.060944 -0.048892 -0.061782 0.151812 -0.23555 0.252049 0.142781 0.050929 -0.188641 0.022965 -0.046946 0.187557 -0.097036 0.112368 0.196104 0.074978 0.034929 -0.023959 0.024186 0.003353 0.161928 -0.062683 0.220613 -0.037358 -0.111357 0.110103 -0.08183 0.237042 0.212284 0.137059 0.061163 -0.091121 -0.190844 -0.194079 0.069371 0.106315 0.17894 -0.018639 0.043633 0.053139 0.128429 -0.052972 -0.032922 0.062169 -0.097531 -0.267057 -0.124351 0.056724 0.006192 0.176139 -0.109581 0.174048 -0.151524 0.135164 -0.020556 -0.041189 -0.195984 -0.062533 0.148367 0.038293 -0.130023 0.124458 0.020798 -0.177317 0.034438 -0.025424 -0.195464 -0.077802 0.227252 -0.262908 -0.014062 -0.097806 0.069063 0.094582 -0.054805 -0.177807 -0.053097 0.082406 0.129906 0.116614 -0.232762 -0.185289 0.169621 0.041861 0.017556 -0.153014 0.126191 0.158469 -0.1953 -0.039057 0.120849 0.110751
-0.182302 -0.112798 0.03378 0.109041 0.107298 0.141493 -0.138773 -0.11371 0.072001 -0.003893 0.107662 0.152693 -0.180782 -0.079142 0.134166 0.321501 -0.238671 0.252411 -0.065869 -0.034593 -0.034766 -0.082098 0.248746 0.157354 -0.092911 0.033158 -0.02986 -0.093013 -0.026677 -0.076989 0.316673 0.038937 -0.134088 0.071576 -0.170454 -0.006004 0.093804 0.003973 0.037924 -0.144374 -0.059167 0.079979 0.148223 0.147972 -0.10058 -0.085331 0.024804 0.119357 -0.066142 0.220521 0.116092 0.052418 -0.045242 0.213986 -0.230442 0.080869 -0.144717 0.152708 0.105959 -0.135587 0.178521 0.019814 -0.048712 0.079666 -0.081583 0.031969 0.02435 0.027269 -0.034681 0.074022 -0.058272 0.057479 0.215193 0.092625 -0.080838 -0.113357 -0.083011 -0.051715 -0.037505 0.012863 0.204495 0.072734 0.042466 -0.111473 0.05466 -0.026153 0.13409 0.105322 0.072769 0.065104 -0.26794 -0.013805 -0.063947 -0.013876 -0.262993 -0.23605 -0.011693 0.03338 -0.150813 -0.060028
0.0 0.0 0.0 0.0 0.0 0.0 0.0 0.0 0.0 0.0 0.0 0.0 0.0 0.0 0.0 0.0 0.0 0.0 0.0 0.0 0.0 0.0 0.0 0.0 0.0 0.0 0.0 0.0 0.0 0.0 0.0 0.0 0.0 0.0 0.0 0.0 0.0 0.0 0.0 0.0 0.0 0.0 0.0 0.0 0.0 0.0 0.0 0.0 0.0 0.0 0.0 0.0 0.0 0.0 0.0 0.0 0.0 0.0 0.0 0.0 0.0 0.0 0.0 0.0 0.0 0.0 0.0 0.0 0.0 0.0 0.0 0.0 0.0 0.0 0.0 0.0 0.0 0.0 0.0 0.0 0.0 0.0 0.0 0.0 0.0 0.0 0.0 0.0 0.0 0.0 0.0 0.0 0.0 0.0 0.0 0.0 0.0 0.0 0.0 0.0
