-0.098513 0.105692 0.030325 -0.082913 -0.101971 -0.160935 -0.148515 -0.108101 -0.046061 0.158412 0.076181 0.136029 -0.014867 -0.036817 0.18416 0.171711 0.105708 0.188782 0.189945 -0.017203 0.003223 0.118295 0.139557 0.090117 -0.079274 -0.046713 0.009294 -0.165555 0.167971 -0.073241 -0.109104 0.033998 -0.087932 -0.02013 -0.061829 0.068415 0.043247 0.034602 0.026338 0.151464 0.002239 0.150113 0.089355 0.023872 -0.073345 -0.002644 0.0715 -0.046966 -0.120231 0.151086 0.019711 0.024837 -0.072606 0.121172 0.027173 -0.120475 0.032321 0.050192 -0.038653 0.052068 0.056621 0.010363 -0.03509 -0.031462 -0.075598 -0.079086 0.238504 -0.047199 0.008195 -0.106233 -0.185297 -0.126646 -0.021988 -0.011561 0.161499 -0.109245 -0.12245 0.072037 0.084938 -0.184826 0.011814 0.24152 0.09503 -0.072033 0.001589 0.081391 6.6E-4 0.001239 -0.012732 0.071768 -0.212927 -0.108879 -0.038726 -0.034537 -0.019281 -0.114473 0.085057 -0.006486 -0.060776 0.020438
0.0 0.0 0.0 0.0 0.0 0.0 0.0 0.0 0.0 0.0 0.0 0.0 0.0 0.0 0.0 0.0 0.0 0.0 0.0 0.0 0.0 0.0 0.0 0.0 0.0 0.0 0.0 0.0 0.0 0.0 0.0 0.0 0.0 0.0 0.0 0.0 0.0 0.0 0.0 0.0 0.0 0.0 0.0 0.0 0.0 0.0 0.0 0.0 0.0 0.0 0.0 0.0 0.0 0.0 0.0 0.0 0.0 0.0 0.0 0.0 0.0 0.0 0.0 0.0 0.0 0.0 0.0 0.0 0.0 0.0 0.0 0.0 0.0 0.0 0.0 0.0 0.0 0.0 0.0 0.0 0.0 0.0 0.0 0.0 0.0 0.0 0.0 0.0 0.0 0.0 0.0 0.0 0.0 0.0 0.0 0.0 0.0 0.0 0.0 0.0
-0.096904 -0.049504 -0.082471 -0.050801 -0.175429 0.021206 0.034848 0.045176 -0.193814 0.016602 0.164478 0.025249 -0.024159 -0.110062 -0.136905 0.065549 0.103004 0.160755 -0.009444 -0.125299 -0.114883 0.040214 0.191318 -0.081817 0.066316 -0.065548 -0.067374 -0.085891 0.113077 -0.121134 -0.10236 0.003337 -0.18259 -0.194313 -0.039843 -0.331344 -0.047765 -0.082314 -0.072703 0.049634 -0.144728 0.101607 -0.160328 0.150916 -0.001313 -0.182803 0.231857 0.098347 -0.006359 0.071247 -0.106722 -0.262918 0.005404 0.108825 0.097083 -0.109244 0.053893 -0.128451 0.190794 -0.069653 0.238598 -0.146518 0.037883 -0.085972 0.02993 0.106087 0.336965 -0.160098 0.129957 0.065108 -0.147377 0.095608 0.178532 -0.033717 -0.023657 0.038147 -0.146698 -0.014592 0.163545 -0.012975 0.050209 0.038704 0.231172 -0.015421 -0.038847 0.011368 -0.004337 0.04574 0.057537 0.210886 -0.060135 0.090964 0.080115 -0.014874 -0.066099 0.035194 -0.020067 -0.273852 0.060846 -0.102303
-0.216608 -0.135263 0.271362 0.064631 -0.058472 0.007236 -0.105295 -0.067634 -0.178555 -0.063222 0.176318 0.001652 -0.070044 0.037822 0.172801 0.12771 0.058199 0.16586 -0.077341 0.120071 -0.154733 0.161664 0.291504 0.113562 -0.051629 -0.227728 -0.120683 -0.018789 0.021112 -0.156981 -0.055216 -0.150219 0.028774 0.006067 0.008834 0.083017 0.087725 0.10309 0.144559 0.230401 -0.145693 -0.003684 0.046353 0.177527 0.089936 -0.188201 -0.014907 -0.080068 -0.009225 0.080584 0.247199 0.027727 -0.023643 -0.333408 0.080675 -0.009407 0.001642 -0.139457 0.103284 -0.065379 -0.067105 -0.208892 -0.147464 -0.189518 0.068986 -0.133539 -0.101328 -0.17995 -0.04107 -0.066256 0.014339 0.094617 -0.039733 -0.009701 0.132607 -0.0652 -0.233482 -0.146858 -0.004052 -0.222281 -0.051324 -0.077138 0.144242 -0.164035 -0.018531 -0.175091 0.132275 -0.148507 0.099047 0.175248 0.122157 0.03334 0.073291 0.004423 -0.025155 -0.054521 0.05249 -0.01786 0.107547 -0.007077
-1.033822 -0.232789 -1.267744 3.491525 -2.975703 2.113587 0.716417 -1.506171 3.641349 -1.477345 3.238727 0.54781 2.801339 3.373027 0.975123 1.17601 -2.306454 -2.388752 -0.506718 3.115658 -3.780682 0.423115 -0.677388 -0.70774 2.073943 1.883518 1.456456 -0.860924 -1.329486 2.330994 2.604699 1.031958 -0.157242 -0.518602 1.21978 1.340841 1.056427 0.779631 0.65975 -1.016002 -0.595105 -2.367702 -0.293474 0.75287 1.900482 0.878061 -0.608205 3.132097 0.948734 2.39721 2.246803 -1.412438 2.194403 -0.838775 0.66532 -1.5554 0.293271 3.780939 -0.234812 -1.099887 1.033049 0.513326 -0.219997 1.707979 -2.623377 -0.215748 0.018596 -1.407121 0.257128 2.208089 5.812384 -0.860355 1.235807 0.052424 -3.678019 3.941217 0.399014 0.88516 -1.997506 -0.643059 1.897951 2.025272 -2.008299 -0.887741 -2.280441 -1.233678 3.730445 0.38907 -1.516019 4.17445 1.358006 -1.796088 -0.699118 -0.187931 -0.661655 -1.881469 -0.395749 0.581649 1.954221 1.137854
-1.445697 -0.376991 0.605131 -2.927773 -2.545095 -0.012935 0.304803 -1.289168 2.935763 -3.30048 2.013736 0.601604 0.463606 -2.513579 -3.111959 1.509581 -2.270566 -3.193746 -0.683823 1.11226 2.641423 -0.439638 -1.461155 -0.230057 -3.083891 1.464638 -3.482595 0.292508 -2.961341 2.670694 2.633844 0.530248 -0.915058 -5.213341 1.151417 2.088477 0.077027 1.987321 -2.701086 -1.896473 -1.396191 -0.28458 3.471924 3.377009 0.510478 -0.338405 -1.080892 -0.17368 -0.293555 -0.092374 -0.194442 -0.035597 -0.210813 3.880518 -1.574683 0.838801 3.22272 2.935631 -0.150343 1.362463 2.574235 3.434764 2.104742 1.146516 1.989767 1.356181 1.46733 1.525646 1.808291 -1.537805 -0.288857 -0.65458 0.173075 -0.698576 0.239921 -0.800718 2.227096 -0.11127 0.137437 0.862853 3.100754 -0.68748 2.771815 -0.865885 0.747454 -2.708324 2.056632 -2.880682 -0.510213 -0.75684 1.062552 3.109441 -4.090577 -0.19873 0.562437 -4.868546 1.064819 1.171282 -1.742815 -0.694478
-0.125002 -0.066817 -0.180766 -0.059979 -0.092662 0.094897 -0.157281 0.149876 -0.054601 0.166557 -0.072196 0.088903 -0.020504 0.030954 0.011593 0.059236 -0.015654 0.027102 -0.072601 -6.44E-4 -0.078562 0.006416 0.115282 0.100459 -0.12915 0.113299 0.140987 -0.12095 -0.008716 -0.12589 0.203538 0.027711 -0.108113 0.027425 -0.207183 0.041097 0.067443 0.016476 0.109709 -0.043383 0.097247 0.087611 0.04971 0.11518 -0.029272 0.019313 0.044622 0.126768 0.085755 -0.041414 -0.035159 -0.020206 0.044492 -0.04271 0.164299 -0.173956 0.054438 -0.129314 0.01258 -0.154185 0.057271 -0.092325 0.08629 -0.193376 -0.149163 0.081389 0.135752 0.015912 3.93E-4 -0.028525 -0.160906 0.162119 0.114114 -0.051617 0.16827 -0.17756 -0.052901 0.055456 0.057253 -0.128881 0.052534 0.293794 0.215936 -0.042191 0.051492 -0.083139 -0.037911 0.10892 0.014079 0.182417 -0.069847 0.044903 -0.082355 0.156042 -0.11172 -0.100245 -0.050986 0.080645 -0.011823 0.110605
-0.140785 -0.14728 -0.027616 0.08445 -0.152002 0.023071 0.025384 -0.125483 -0.174535 0.123511 0.183223 0.057582 -0.114695 -0.126659 0.312273 0.107716 0.076027 -0.022061 -0.033984 -0.035121 -0.196234 0.084876 0.242653 0.041485 -0.033119 0.006834 0.068452 0.09493 -0.009738 -0.022149 0.04009 0.025885 -0.102782 0.076223 -0.119503 -0.163882 0.006091 -0.143649 0.042611 0.081483 -0.033372 0.179769 0.068813 -0.090208 0.071727 -0.153766 0.05288 0.091442 0.004049 0.058936 0.088653 -0.241223 0.034444 0.149167 -0.015737 -0.019929 0.114689 0.067139 -0.021938 -0.176811 0.159565 -0.13655 -0.091767 -0.318583 -0.315485 -0.007252 0.060879 0.042017 0.030844 -0.125873 0.016578 0.08261 -0.159142 0.013366 -0.060969 -0.012505 -0.13003 0.010829 -0.002904 -0.100702 -0.084819 0.117446 0.074885 -0.146817 0.13477 -0.058325 0.044237 -0.04391 0.144159 -0.039606 0.042236 -0.111675 -0.092263 0.084575 -0.225227 -0.206438 0.308123 -0.030676 -0.100911 0.028808
0.446852 -1.212988 -0.497597 -3.047619 -2.090394 -1.04038 0.849727 1.454674 0.069813 -1.252514 -0.962337 0.078341 -0.784684 0.745615 0.061262 1.191723 0.169841 1.104521 1.114066 -1.809905 0.526225 2.859826 -2.631186 -2.254327 -0.078708 -0.077923 -0.365773 -1.190728 -0.108252 -1.373708 -0.371923 0.703807 0.205851 -4.586969 0.299248 -1.804843 -0.906292 1.461343 0.098116 -0.56983 -2.540069 0.067226 1.166529 -0.207136 -1.795322 -1.46943 1.331527 2.597954 0.372724 1.477575 -0.265938 0.315748 -0.867183 2.33437 2.757705 0.808962 0.781735 0.316818 0.78048 1.501872 2.635624 1.317128 1.942942 -0.142963 -1.46779 0.344278 1.830076 0.07126 0.052265 1.114563 1.177863 -2.567159 0.31805 -0.328136 -0.065191 -2.207726 -0.238549 0.067034 0.580425 -0.096638 0.862851 1.249385 -1.071905 0.338267 -0.573116 0.187883 0.004545 -1.277832 0.879238 2.094269 -1.755222 0.293979 0.810594 2.361949 0.673422 -0.283934 2.65725 -0.928008 -1.916975 -1.371877
0.17872 0.088151 -0.061908 -0.036826 -0.155211 -0.021478 -0.037156 -0.083116 -0.085868 0.218256 -0.115515 0.216838 -0.081632 0.006412 0.211967 0.063632 0.157506 0.042701 0.178918 0.035514 0.028231 0.001009 0.118407 0.015401 -0.062557 -0.04222 0.022304 -0.254642 0.194626 -0.062906 -0.079597 -0.001112 0.118019 0.122737 0.02639 -0.124877 -0.054461 0.069574 -0.10026 0.297008 0.06825 0.108245 -0.185502 -0.048056 -0.102759 -0.219367 0.083771 0.021198 -0.058394 0.140077 -0.01266 -0.105272 -0.165465 -0.134614 0.039674 -0.110581 0.13409 0.090975 0.090321 0.027329 -0.105755 0.094073 -0.071374 0.010499 -0.01486 -0.164924 0.006045 -0.085451 0.045715 -0.106425 -0.002098 0.001391 0.051872 0.020683 -0.081749 0.059076 -0.137045 -0.067427 0.103182 -0.056051 0.062047 0.079718 -0.047328 -0.111121 0.058416 0.12935 0.051146 -0.097484 -0.033317 0.001308 -0.137533 -0.016315 0.040716 -0.079903 -0.002791 -0.323042 -0.047495 -0.074028 -0.119924 0.157007
-0.125002 -0.066817 -0.180766 -0.059979 -0.092662 0.094897 -0.157281 0.149876 -0.054601 0.166557 -0.072196 0.088903 -0.020504 0.030954 0.011593 0.059236 -0.015654 0.027102 -0.072601 -6.44E-4 -0.078562 0.006416 0.115282 0.100459 -0.12915 0.113299 0.140987 -0.12095 -0.008716 -0.12589 0.203538 0.027711 -0.108113 0.027425 -0.207183 0.041097 0.067443 0.016476 0.109709 -0.043383 0.097247 0.087611 0.04971 0.11518 -0.029272 0.019313 0.044622 0.126768 0.085755 -0.041414 -0.035159 -0.020206 0.044492 -0.04271 0.164299 -0.173956 0.054438 -0.129314 0.01258 -0.154185 0.057271 -0.092325 0.08629 -0.193376 -0.149163 0.081389 0.135752 0.015912 3.93E-4 -0.028525 -0.160906 0.162119 0.114114 -0.051617 0.16827 -0.17756 -0.052901 0.055456 0.057253 -0.128881 0.052534 0.293794 0.215936 -0.042191 0.051492 -0.083139 -0.037911 0.10892 0.014079 0.182417 -0.069847 0.044903 -0.082355 0.156042 -0.11172 -0.100245 -0.050986 0.080645 -0.011823 0.110605
-0.11719 0.157112 -0.014117 -0.088458 -0.080283 0.118121 -0.031509 -0.018573 -0.083695 0.070928 0.089856 0.085562 0.01686 -0.109276 0.14001 0.040275 -0.128641 0.025602 -0.042511 -0.070822 -0.095003 0.099692 0.143652 0.141249 -0.040176 0.080077 -0.08681 0.030607 -0.020226 0.142357 0.07923 0.088488 -0.322635 0.060545 0.157514 -0.083109 0.042134 0.069799 0.002264 -0.247601 -0.0496 -0.088127 -0.00728 0.14979 -0.12509 -0.133064 -0.160255 0.02237 -0.08645 0.070527 0.143149 0.137326 -0.054762 0.137942 -0.195493 -0.06551 -0.154348 0.135263 -0.161696 -0.042704 -0.006986 0.099685 0.061137 -0.044457 -0.059555 0.216352 0.054275 -0.015218 0.045034 -0.014972 -0.007714 -0.012673 0.066129 0.02302 -0.013105 0.013703 -0.197739 0.021511 0.056039 -0.097501 -0.128551 0.359602 0.084534 -0.132362 -0.049248 0.040423 -0.009948 0.066171 0.073117 -0.121229 -0.056422 0.103031 -0.047446 -0.131591 -0.061782 0.034015 -0.026256 0.001815 -0.010916 0.008569
0.016319 -0.135503 0.097919 -0.038407 0.029531 0.131423 -0.129696 -0.039736 0.046751 0.14453 -0.169886 0.162548 0.103302 0.071881 0.219986 0.147942 -0.140797 0.05396 -0.0082 -0.029119 -0.090812 0.076456 0.054444 0.010755 -0.028737 -0.006085 -0.131912 0.029369 -0.036535 -0.077485 -0.154849 0.12215 -0.028074 0.14663 -0.086443 -0.192267 -0.056751 0.038686 -0.014241 0.057407 -0.219929 0.016215 -0.02454 0.131885 -0.031538 -0.072711 0.046724 -0.013618 0.039089 -0.133212 -0.023444 0.095497 -0.080258 -0.184968 0.069143 -0.082839 -0.056776 -0.104977 0.163196 -0.136818 -0.013473 -0.072824 0.064416 -0.152627 -0.086521 0.035898 0.063362 0.080699 -0.012306 0.007801 -0.13149 0.049264 -0.208181 0.138772 0.013746 -0.224416 -0.112791 -0.076399 0.0897 -0.075149 0.090946 0.13543 -0.053076 -0.277499 -0.120551 0.050582 0.103103 -0.091255 0.10064 0.062843 -0.053478 -0.012937 -0.115598 0.328191 -0.003485 -0.063004 0.048221 0.115128 -0.031602 0.076763
-0.043693 -0.194727 0.21627 0.133759 -0.21547 -9.37E-4 -0.157182 -0.069137 -0.04804 0.180368 0.069764 0.115107 -0.099461 -0.02395 -0.016882 0.115046 0.025647 0.011909 -0.046419 -0.094053 -0.162318 0.076997 0.056752 0.058888 -0.172132 -0.005302 -0.134088 0.06246 0.197039 -0.094161 -0.034401 -0.079426 0.101388 0.098227 0.04371 0.063156 0.04227 0.149537 0.038783 0.066062 -0.034075 0.112723 -0.100995 -0.121958 0.094412 -0.1383 0.077065 -0.008616 -0.127921 -0.091687 -0.087586 0.11863 0.029906 0.069506 0.114008 0.12209 -0.01395 -0.092647 0.039031 0.007106 0.075748 -0.028041 0.128659 -0.071746 -0.088685 -0.078771 0.022923 0.032249 0.033834 -0.085306 -0.01805 -0.137844 0.060509 -0.03597 0.014518 -0.057669 -0.042752 -0.10377 -0.016855 -0.02794 -0.018116 -0.074676 0.013509 -0.020775 0.083727 0.064997 0.074278 -0.007353 0.032153 -0.007387 0.083105 -0.100546 0.182071 -0.029901 -0.094472 -0.162615 0.171907 -0.057711 0.008084 0.052213
0.006599 -0.174628 0.02306 0.129584 -0.003864 0.146674 -0.252025 0.043441 0.135443 -0.064367 0.171663 0.162274 -0.102276 -0.054774 0.088218 0.018087 0.030148 0.21844 0.138798 0.023864 -0.193472 0.069383 0.126224 0.097154 -0.341254 -0.207503 0.025933 -0.149577 -0.119172 -0.199055 -0.066671 0.034846 -0.057776 0.272041 -0.140804 -0.143627 0.127502 -0.010386 -0.037882 0.046157 -0.038366 0.207984 -0.074969 -0.151288 0.048715 -0.230531 0.091726 -0.058676 -9.84E-4 0.206182 0.102563 0.116276 0.117333 0.162199 0.102654 -0.139353 -0.038066 -0.001987 0.044312 -0.032569 0.161357 -0.008608 -0.047107 -0.141086 -0.090385 -0.034727 0.139694 0.048075 0.008102 -0.234896 0.010922 0.00528 0.120597 -0.064936 0.026668 -0.088449 0.026203 -0.055617 0.006251 0.06188 0.028263 0.330223 0.237868 -0.142478 0.044972 0.175135 0.119707 0.095305 0.03396 -0.037129 -0.226777 -0.175262 -0.010989 0.03514 -0.283795 -0.372992 -0.073743 -0.056745 0.011102 0.061266
0.007246 0.053204 0.100928 0.006342 -0.101763 -0.085197 -0.083461 -0.123321 -0.100071 -0.042788 -0.155182 0.073053 -0.120455 0.059108 0.2188 0.103057 0.06081 0.00949 -0.182921 0.034294 -0.122566 -0.124692 0.14027 0.020579 -0.119203 -0.013958 -0.156626 0.105013 0.218325 -0.087863 -0.012293 -0.149912 -0.102018 0.191563 0.052477 0.053501 0.163665 0.035356 0.069416 0.115013 -0.105517 0.133498 0.044305 0.046916 -0.031637 0.092181 -0.128598 0.004537 -0.117556 -0.017436 0.142292 -0.170739 -0.094203 -0.159656 0.003728 0.017704 -0.079291 -0.10274 0.020011 -0.019057 -0.097359 -0.03764 -0.0914 -0.086059 0.119906 0.067012 0.096686 0.157964 0.068966 -0.023785 0.046974 -0.008436 -0.065665 0.102192 0.01846 0.034072 0.013473 -0.054716 0.045957 -0.220794 -0.231742 0.033982 0.162247 0.016021 0.050697 0.09313 2.07E-4 -0.205807 -0.080609 0.012886 -0.152411 -0.018133 -0.019331 0.073492 -0.026605 -0.060685 -0.069619 0.142252 -0.100558 -0.024004
-0.002881 -0.212725 0.055 0.03938 0.019411 0.004379 -0.153715 -0.063061 -0.034585 -0.133832 0.098343 0.11924 -0.090656 -0.011681 -0.034239 0.182098 -0.128273 0.107271 0.0928 0.029879 -0.124943 0.094096 0.252623 0.03585 -0.102942 -0.146062 -0.058523 0.073006 0.260082 -0.181418 0.030339 -0.032625 -0.191712 0.048507 -0.204241 -0.167863 -0.02443 0.0689 0.144335 0.06725 -0.068866 -0.014821 -0.024964 -0.003691 -0.090472 -0.054228 -0.023012 -0.130143 -0.115993 0.099615 0.049697 -0.107102 -0.121198 -0.168261 0.059138 -0.131467 0.057014 -0.088353 0.065103 0.118594 0.001005 -0.018703 -0.095887 -0.395247 -0.134634 -0.07493 0.029887 0.007397 0.021202 0.040519 0.145398 -0.023117 -0.010855 -0.102801 0.145994 -0.103298 -0.052892 0.050904 -0.143789 -0.033344 -0.169643 0.018402 -0.018267 -0.161238 -0.065375 -0.019086 -0.101153 0.10378 0.104127 0.013094 -0.045967 0.054758 -0.150995 0.076506 0.064548 0.017641 -0.020439 -0.152494 0.050792 0.066425
-0.13233 0.094297 0.122605 0.139304 0.056805 0.217019 -0.023641 -0.078375 -0.09726 0.145374 -0.013648 0.188216 -0.002126 -0.160146 -0.182764 -0.016356 0.009173 0.193431 0.083732 0.002577 0.034122 0.078856 0.407109 -0.036467 0.042113 0.145458 -0.097834 -0.057666 -0.024821 0.006735 0.095773 0.026856 0.020776 0.127472 -0.01547 -0.193234 0.119098 -0.040105 -0.033701 -0.072104 0.044449 -0.221449 -0.008893 0.018724 -0.122396 -0.187475 -0.07132 -0.092676 0.119988 0.006224 0.068174 0.168951 -0.179841 -0.080007 -0.21278 0.089166 0.046965 -0.226293 0.080477 -0.125557 -0.080215 0.0854 -0.209888 0.024201 -0.18794 -0.057426 0.11844 0.176927 0.073403 -0.024965 -0.059744 -0.015428 -0.006324 -0.104719 -0.052033 -0.107669 0.044023 0.161289 -0.027355 -0.129217 0.039391 0.090138 0.200571 -0.166763 0.20315 0.15852 -0.012717 0.152667 0.129585 -0.114656 0.221865 0.039231 -0.117882 0.108514 -0.001588 -0.029161 -0.05157 0.134712 -0.240573 0.057199
-0.068759 -0.062445 0.182382 0.037128 0.035125 -0.103116 -0.13262 0.140754 -0.126754 -0.152814 0.136196 0.043808 -0.051974 0.038579 -0.022589 0.205978 0.155224 0.132294 0.096713 0.123243 -0.047381 0.087577 0.141748 -0.087084 -0.177416 -0.250392 0.161403 0.086053 0.234762 -0.034489 -0.066977 -0.117103 0.080786 0.05229 -0.18347 -0.159171 0.01215 0.034183 0.164185 0.076886 -0.050733 0.010621 -0.017608 -0.064713 0.019567 -0.068933 0.031154 -0.055857 0.104228 0.116472 -0.010954 -0.023242 -0.1226 -0.061688 -0.004724 -0.038246 0.183075 -0.091681 -0.032275 0.013801 -0.023072 -0.066021 0.037165 -0.094424 -0.036101 0.074463 0.083003 -0.130318 -0.110595 -0.054816 -0.013203 -0.061651 0.03673 0.007097 -0.108422 -0.034805 -0.009232 0.067775 -0.207577 -0.219044 0.070803 -0.047027 0.087173 -0.071169 0.074718 -0.042341 0.083496 -0.090401 0.107729 0.11732 0.006681 0.024404 -0.122581 -0.097413 0.082874 -0.058237 -0.036424 -0.089454 -0.109563 -0.035092
0.01548 0.025151 -0.171811 -0.125964 -0.264697 0.086684 -0.215925 -0.110016 -0.078016 0.013371 -0.077479 0.225295 -0.089887 0.12108 0.002062 0.206942 -0.040461 0.076426 0.011493 0.093152 -0.049979 0.077854 0.01193 -0.02458 -0.142604 -0.124212 -0.054299 0.041692 0.155918 -0.087436 0.051924 -0.070559 -0.082198 0.040906 -0.179043 -0.077939 0.080188 -0.073962 -0.147347 -0.009196 -0.0053 0.124506 0.032741 -0.088478 0.071644 0.082317 -0.130234 0.068279 -0.017972 0.117363 -0.009807 -0.033293 -0.039965 0.147942 0.112202 0.02891 -0.206359 0.007467 -0.218025 -0.007707 0.103338 -0.211612 -0.055968 0.055725 -0.075463 -0.010635 0.064548 -0.010017 0.12974 0.098223 0.026881 0.067197 0.044252 -0.037663 0.174462 0.077017 -0.134254 -0.087728 -0.082737 -0.09783 0.068261 0.313639 0.015114 -0.065801 -0.059541 -0.100969 0.082645 0.179258 0.005976 -0.122086 -0.053574 -0.012123 -0.073684 0.13819 -0.158909 -0.085395 -3.6E-5 -0.135644 0.051405 -0.046334
-0.098513 0.105692 0.030325 -0.082913 -0.101971 -0.160935 -0.148515 -0.108101 -0.046061 0.158412 0.076181 0.136029 -0.014867 -0.036817 0.18416 0.171711 0.105708 0.188782 0.189945 -0.017203 0.003223 0.118295 0.139557 0.090117 -0.079274 -0.046713 0.009294 -0.165555 0.167971 -0.073241 -0.109104 0.033998 -0.087932 -0.02013 -0.061829 0.068415 0.043247 0.034602 0.026338 0.151464 0.002239 0.150113 0.089355 0.023872 -0.073345 -0.002644 0.0715 -0.046966 -0.120231 0.151086 0.019711 0.024837 -0.072606 0.121172 0.027173 -0.120475 0.032321 0.050192 -0.038653 0.052068 0.056621 0.010363 -0.03509 -0.031462 -0.075598 -0.079086 0.238504 -0.047199 0.008195 -0.106233 -0.185297 -0.126646 -0.021988 -0.011561 0.161499 -0.109245 -0.12245 0.072037 0.084938 -0.184826 0.011814 0.24152 0.09503 -0.072033 0.001589 0.081391 6.6E-4 0.001239 -0.012732 0.071768 -0.212927 -0.108879 -0.038726 -0.034537 -0.019281 -0.114473 0.085057 -0.006486 -0.060776 0.020438
0.171061 0.110068 0.111172 0.137973 -0.064367 0.203514 8.3E-4 -0.026794 0.185212 -0.081869 0.070278 0.056231 0.003144 -0.048509 -0.044132 0.024165 -0.072967 -0.096946 0.102045 0.021014 0.078829 0.083111 -0.030962 0.234 0.039312 -0.119463 -0.018174 -0.117065 -0.011517 0.050756 0.01244 -0.061179 0.134999 -0.029484 0.002558 0.078109 0.011466 -0.15874 -0.0833 -0.00238 -0.087334 0.102862 -0.039086 0.156556 0.079788 -0.085359 0.026261 0.02633 0.098523 -0.175086 -0.017985 0.081274 0.148016 -0.059826 0.024649 0.033273 -0.049956 -0.047987 0.071144 0.002898 -0.038109 -0.127703 0.131439 -0.032181 -0.100413 0.039852 -0.08117 0.00451 -0.04436 0.126124 1.7E-4 0.084173 0.183954 0.085583 0.099494 -0.068806 -0.033388 -0.024293 0.110067 -0.010119 -0.004875 0.124218 0.047267 -0.004055 -0.141362 0.061917 0.208229 0.065637 -0.054122 -0.135276 0.021061 -0.102733 0.026057 0.024518 -0.071959 -0.072903 0.041144 0.160919 0.227007 -0.078715
-0.029286 -0.014455 0.059149 0.033118 -0.032637 -0.067667 -0.08093 0.027355 -0.160822 0.06104 0.064252 -0.015261 -0.23257 0.159481 0.071223 0.078452 0.02138 0.031978 -0.070376 0.051055 0.167258 -0.024817 0.197827 0.065265 -0.076168 0.011676 -0.029734 0.143341 0.05525 -0.036865 -0.015966 0.031316 0.07905 0.08625 0.02865 0.036293 -0.052834 -0.183621 0.138387 0.091953 -0.154564 -0.126113 -0.090987 0.031969 0.097322 0.022643 -0.092082 -0.019082 -8.9E-4 -0.133906 0.06438 -0.089912 0.03693 0.137816 -0.11469 0.064534 -0.08614 0.001976 0.0226 -0.148874 -0.107001 0.042298 -0.03552 -0.084001 -0.01756 -0.03727 0.068266 -0.097254 0.068175 0.036138 0.111631 0.014317 -0.061953 -0.078465 0.038628 -0.078335 -0.164786 -0.038389 0.117773 -0.136854 0.103996 -0.032816 0.069406 0.009716 -0.086636 0.182745 0.01029 -0.019687 -0.087212 -6.07E-4 0.063293 -0.016581 -0.118043 -0.009156 0.083954 0.032562 0.046468 -0.053734 -0.025457 -0.002224
0.11752 0.081551 0.0936 0.08641 0.60707 -0.011842 -0.073599 -0.251984 0.248365 0.653659 -0.003695 0.275106 -0.33423 -0.459989 0.141284 0.276046 -0.662139 -0.26481 -0.171247 0.022711 -0.104172 -0.244387 0.316483 -0.077394 0.200551 0.064381 -0.255965 -0.055724 0.137597 0.095021 0.300985 0.087278 0.083496 -0.099994 0.047376 -6.58E-4 0.231717 -0.144593 0.054355 0.098774 0.285151 0.195694 -0.239271 -0.102359 0.024488 0.037606 -0.083783 -0.024512 0.162409 0.139432 0.054816 0.120929 -0.096705 0.215098 -0.069708 0.332749 0.196493 -0.068991 0.212432 -0.126032 0.375845 -0.065417 0.419379 -0.001067 0.224906 0.134951 0.204443 -0.094004 -0.009093 -0.06843 0.056679 0.060346 -0.492317 0.281791 -0.068231 0.099062 -0.236304 0.029767 0.217691 -0.043024 0.162971 0.09031 -0.388005 0.059224 -0.187857 0.231207 0.059115 -0.303454 -0.341425 0.123083 0.237167 0.244613 -0.216184 -0.237312 -0.198601 0.158972 -0.014881 -0.125342 -0.395068 -0.115908
-0.047732 0.078923 -0.121413 0.119551 -0.041651 0.149891 0.018882 -0.041476 0.003324 0.068064 0.16091 0.134005 -0.148474 0.138174 0.0613 0.258561 -0.072396 0.105425 0.038373 0.105517 0.017427 0.1497 0.152091 0.019141 -0.034982 0.12159 -0.05331 0.079145 0.082308 -0.044369 -0.139055 0.060252 -0.103032 0.135726 -0.076697 -0.029361 -0.021512 -0.016469 0.071614 -0.02541 0.097238 -0.212042 0.042965 -0.06092 0.003858 0.035726 -0.011319 -0.054828 -0.029093 -0.145807 -0.010406 -0.065536 0.053348 -0.087967 0.168824 0.058367 0.028439 0.164454 -0.051058 -0.045423 -0.015269 0.038774 -0.041949 -0.038773 0.072196 -0.0348 -0.06559 0.02825 6.91E-4 0.082126 -0.043497 -0.068128 -0.140106 -0.001932 -0.027916 -0.078163 -0.004472 0.043301 0.07472 -0.049203 0.04446 0.00272 0.062952 -0.222518 -0.062935 0.124137 -0.062734 0.093714 0.077341 0.094721 5.79E-4 0.107267 -0.050016 0.095195 0.056999 -0.029809 -0.027887 -0.061261 0.082284 0.132924
-0.035483 0.13077 0.047712 0.048461 0.128698 0.055845 0.109076 -0.037997 -0.164579 -0.080559 -0.015901 0.041614 0.030601 -0.059599 0.016922 0.051622 0.023268 -0.153572 -0.099325 0.050667 -0.079146 0.062673 0.026817 0.127672 -0.004836 -0.182055 -0.099402 0.027373 0.042299 -0.254536 0.031779 -0.166455 -0.081671 0.126276 -0.133213 -0.05851 0.140722 0.029829 -0.099927 -0.099523 0.067995 0.033067 0.014203 0.180896 -7.65E-4 0.158002 -0.036774 -0.037708 0.176561 -0.048627 0.0278 -0.032879 -0.049195 -0.111352 0.029365 -0.092361 -0.048287 -0.057419 -3.15E-4 -0.05238 0.054853 -0.051783 -0.071843 -0.053739 -0.154582 0.138842 0.005397 -0.097293 -0.034062 -0.041724 0.144805 0.024319 0.0196 -0.176876 0.117256 -0.113565 -0.079536 -0.008861 -0.161015 -0.10222 -0.025343 0.065408 -0.077145 0.00588 0.136741 0.050132 0.152136 0.084782 0.18012 0.040537 -0.197618 -0.09622 -0.256707 -0.109016 -0.032534 -0.115987 -0.148453 0.011028 0.037776 0.080958
-2.648351 -0.794316 -2.108887 0.20446 0.883061 0.242784 1.848653 1.149137 -4.975573 0.237654 -1.499665 2.924494 0.344217 -1.640431 0.763777 0.138944 -3.029439 -2.813434 -0.761102 -1.057557 -1.373735 -0.870599 1.234095 0.127805 -1.372618 1.35802 -1.501738 0.80945 0.172993 -0.484995 1.783363 -0.047587 0.483285 -1.526831 2.103549 2.116639 4.583491 -4.022388 -0.843817 0.361243 -0.546655 -2.301259 -2.000973 2.64631 -1.604053 -1.914206 -1.581895 -0.464185 1.757769 1.056301 0.263866 -0.904419 -0.422466 0.007824 -1.651553 0.7499 1.638666 -0.336108 -3.288466 -2.953238 -1.135414 1.165223 -1.047256 -0.821696 -0.135806 0.434207 -2.389307 -3.56953 -0.656773 0.578325 3.337902 0.782195 -1.250815 2.925509 -1.981492 0.121786 0.836257 1.710923 -2.640405 -0.628995 0.247469 0.863847 1.749171 -0.214156 -0.274807 2.192709 -0.892334 -1.614644 -1.225919 -0.042182 2.51632 3.464583 -3.591523 -2.506587 0.990426 1.8843 -2.460629 0.953462 0.359605 2.267383
0.0 0.0 0.0 0.0 0.0 0.0 0.0 0.0 0.0 0.0 0.0 0.0 0.0 0.0 0.0 0.0 0.0 0.0 0.0 0.0 0.0 0.0 0.0 0.0 0.0 0.0 0.0 0.0 0.0 0.0 0.0 0.0 0.0 0.0 0.0 0.0 0.0 0.0 0.0 0.0 0.0 0.0 0.0 0.0 0.0 0.0 0.0 0.0 0.0 0.0 0.0 0.0 0.0 0.0 0.0 0.0 0.0 0.0 0.0 0.0 0.0 0.0 0.0 0.0 0.0 0.0 0.0 0.0 0.0 0.0 0.0 0.0 0.0 0.0 0.0 0.0 0.0 0.0 0.0 0.0 0.0 0.0 0.0 0.0 0.0 0.0 0.0 0.0 0.0 0.0 0.0 0.0 0.0 0.0 0.0 0.0 0.0 0.0 0.0 0.0
-0.096904 -0.049504 -0.082471 -0.050801 -0.175429 0.021206 0.034848 0.045176 -0.193814 0.016602 0.164478 0.025249 -0.024159 -0.110062 -0.136905 0.065549 0.103004 0.160755 -0.009444 -0.125299 -0.114883 0.040214 0.191318 -0.081817 0.066316 -0.065548 -0.067374 -0.085891 0.113077 -0.121134 -0.10236 0.003337 -0.18259 -0.194313 -0.039843 -0.331344 -0.047765 -0.082314 -0.072703 0.049634 -0.144728 0.101607 -0.160328 0.150916 -0.001313 -0.182803 0.231857 0.098347 -0.006359 0.071247 -0.106722 -0.262918 0.005404 0.108825 0.097083 -0.109244 0.053893 -0.128451 0.190794 -0.069653 0.238598 -0.146518 0.037883 -0.085972 0.02993 0.106087 0.336965 -0.160098 0.129957 0.065108 -0.147377 0.095608 0.178532 -0.033717 -0.023657 0.038147 -0.146698 -0.014592 0.163545 -0.012975 0.050209 0.038704 0.231172 -0.015421 -0.038847 0.011368 -0.004337 0.04574 0.057537 0.210886 -0.060135 0.090964 0.080115 -0.014874 -0.066099 0.035194 -0.020067 -0.273852 0.060846 -0.102303
-0.216608 -0.135263 0.271362 0.064631 -0.058472 0.007236 -0.105295 -0.067634 -0.178555 -0.063222 0.176318 0.001652 -0.070044 0.037822 0.172801 0.12771 0.058199 0.16586 -0.077341 0.120071 -0.154733 0.161664 0.291504 0.113562 -0.051629 -0.227728 -0.120683 -0.018789 0.021112 -0.156981 -0.055216 -0.150219 0.028774 0.006067 0.008834 0.083017 0.087725 0.10309 0.144559 0.230401 -0.145693 -0.003684 0.046353 0.177527 0.089936 -0.188201 -0.014907 -0.080068 -0.009225 0.080584 0.247199 0.027727 -0.023643 -0.333408 0.080675 -0.009407 0.001642 -0.139457 0.103284 -0.065379 -0.067105 -0.208892 -0.147464 -0.189518 0.068986 -0.133539 -0.101328 -0.17995 -0.04107 -0.066256 0.014339 0.094617 -0.039733 -0.009701 0.132607 -0.0652 -0.233482 -0.146858 -0.004052 -0.222281 -0.051324 -0.077138 0.144242 -0.164035 -0.018531 -0.175091 0.132275 -0.148507 0.099047 0.175248 0.122157 0.03334 0.073291 0.004423 -0.025155 -0.054521 0.05249 -0.01786 0.107547 -0.007077
-0.129067 -0.113554 0.195234 -0.008662 -0.095153 -0.027319 -0.034125 -0.031034 0.022977 -0.056288 0.065937 0.185001 -0.073688 -0.018591 0.080667 0.237784 -0.091857 0.042956 0.101388 0.067695 -0.234587 0.039212 0.077909 0.10557 -0.086965 -0.082327 -0.141033 -0.139811 0.037951 0.036272 0.035441 0.09111 -0.112334 0.1592 -0.060622 0.055438 -0.101821 -0.047715 0.065265 -0.100946 -0.041227 -2.51E-4 0.074069 0.024549 -0.019402 0.159318 -0.0153 -0.037385 -0.048032 0.189327 0.134551 -0.103409 0.080822 -0.065011 -0.03315 -0.062305 -0.055327 -0.073002 -0.133805 -0.086127 0.090105 -0.017355 0.029598 0.055139 -0.016446 -0.024824 0.026846 -0.057991 0.090426 -0.045962 -0.069375 0.068885 0.110666 0.012184 -0.149988 -0.026693 -0.029167 0.120767 0.011413 -0.079894 0.084013 0.112918 0.179038 -0.048838 0.00904 -0.109606 0.15987 0.093522 0.107501 0.138552 -0.051446 -0.062928 -0.067289 0.051458 0.011289 -0.049704 -0.04783 -0.030251 -0.016002 -0.014731
-0.081243 0.014288 0.141832 0.169835 -0.07063 0.050423 0.007212 0.023369 0.028444 0.065155 0.029187 0.144009 0.017439 0.058671 0.179832 0.294625 -0.077976 0.072793 -0.083347 -0.052646 -0.139295 -0.174095 0.05428 0.096476 -0.146998 -0.137157 -0.091675 0.110618 0.039667 -0.003738 0.001405 0.046183 -0.165569 0.071849 0.026565 -0.040881 0.022336 -0.076486 -0.233142 -0.086342 0.116275 0.050207 -0.061 -0.004084 -0.063425 0.080617 0.010602 0.021403 -0.027368 0.093415 0.20316 -0.078762 0.113226 0.082109 0.027331 -0.190902 -0.160979 0.007501 -0.010056 -0.044335 0.019743 -0.033257 -0.155777 -0.038802 -0.016117 0.087647 0.140413 0.013305 0.093126 0.003327 0.028678 0.019731 0.195813 0.003292 -0.037918 -0.044588 -0.063843 0.189522 -0.122383 -0.139708 0.00695 0.029982 0.073643 -0.076897 -0.036372 -0.112628 0.124654 0.048208 0.049204 -0.042779 -0.071155 -0.050936 -0.0422 0.147996 -0.183973 -0.145161 0.074129 -0.074563 0.065068 -0.012333
-0.123206 -0.100466 0.033243 0.077 0.179319 0.017614 -0.213811 0.006909 0.040688 -0.005939 0.169882 -0.011291 0.039273 -0.072059 0.265201 0.131076 -0.197205 0.18388 0.101345 -0.031916 -0.174318 -0.027724 0.09908 0.042575 -0.156309 -0.085915 -0.007616 -0.01886 0.014835 -0.178846 0.04764 0.155708 -0.058266 0.108582 -0.22361 -0.158065 0.055741 -0.106418 0.0566 0.056205 0.068477 -0.015639 0.07966 0.217827 -0.087038 -0.013006 0.045994 0.061203 -0.240925 0.174703 0.013485 0.1065 -0.1214 0.120009 0.073172 0.163889 -0.035355 -0.014525 0.003944 -0.185124 0.064569 -0.174246 0.088216 -0.058944 -0.040741 0.031097 0.04478 0.0277 0.069906 0.013228 -0.039618 -0.031374 -0.101997 0.014663 0.134126 -0.120279 -0.089788 5.05E-4 0.037787 -0.091697 0.095113 0.242647 0.048629 -0.06049 -0.043156 0.026519 -0.168255 -0.118608 0.074704 0.047452 -0.18402 -0.115334 -0.056956 0.115259 0.098713 -0.367984 -0.133056 -0.058586 0.008264 0.00623
0.0 0.0 0.0 0.0 0.0 0.0 0.0 0.0 0.0 0.0 0.0 0.0 0.0 0.0 0.0 0.0 0.0 0.0 0.0 0.0 0.0 0.0 0.0 0.0 0.0 0.0 0.0 0.0 0.0 0.0 0.0 0.0 0.0 0.0 0.0 0.0 0.0 0.0 0.0 0.0 0.0 0.0 0.0 0.0 0.0 0.0 0.0 0.0 0.0 0.0 0.0 0.0 0.0 0.0 0.0 0.0 0.0 0.0 0.0 0.0 0.0 0.0 0.0 0.0 0.0 0.0 0.0 0.0 0.0 0.0 0.0 0.0 0.0 0.0 0.0 0.0 0.0 0.0 0.0 0.0 0.0 0.0 0.0 0.0 0.0 0.0 0.0 0.0 0.0 0.0 0.0 0.0 0.0 0.0 0.0 0.0 0.0 0.0 0.0 0.0
0.171061 0.110068 0.111172 0.137973 -0.064367 0.203514 8.3E-4 -0.026794 0.185212 -0.081869 0.070278 0.056231 0.003144 -0.048509 -0.044132 0.024165 -0.072967 -0.096946 0.102045 0.021014 0.078829 0.083111 -0.030962 0.234 0.039312 -0.119463 -0.018174 -0.117065 -0.011517 0.050756 0.01244 -0.061179 0.134999 -0.029484 0.002558 0.078109 0.011466 -0.15874 -0.0833 -0.00238 -0.087334 0.102862 -0.039086 0.156556 0.079788 -0.085359 0.026261 0.02633 0.098523 -0.175086 -0.017985 0.081274 0.148016 -0.059826 0.024649 0.033273 -0.049956 -0.047987 0.071144 0.002898 -0.038109 -0.127703 0.131439 -0.032181 -0.100413 0.039852 -0.08117 0.00451 -0.04436 0.126124 1.7E-4 0.084173 0.183954 0.085583 0.099494 -0.068806 -0.033388 -0.024293 0.110067 -0.010119 -0.004875 0.124218 0.047267 -0.004055 -0.141362 0.061917 0.208229 0.065637 -0.054122 -0.135276 0.021061 -0.102733 0.026057 0.024518 -0.071959 -0.072903 0.041144 0.160919 0.227007 -0.078715
-0.003218 -0.036101 -0.059231 -0.001127 0.014124 0.005413 0.00343 -0.056782 -0.037893 0.0689 0.048685 -0.012564 0.025562 -0.051684 0.239455 0.046485 0.159055 0.143192 0.173494 0.175263 -0.103381 0.010224 0.066108 0.00612 -0.075308 -0.192718 -0.126632 -0.105019 0.034192 -0.024139 0.04949 -0.03363 -0.085504 0.0179 -0.046726 0.046642 -0.130038 -0.047797 -0.018427 0.063936 0.08517 -0.151439 -0.008437 -0.142255 0.04557 -0.115962 0.078783 -0.042521 -0.007522 -0.074195 0.035151 -0.130373 -0.190693 0.06235 -0.037573 -0.076337 0.265261 0.035975 0.063372 -0.194083 -0.117997 -0.106172 0.016848 -0.129619 -0.054422 -0.106075 0.161969 -0.025577 0.058268 -0.092 -0.035424 -0.081305 -0.072037 0.129908 0.181676 -0.043833 -0.046212 -0.030479 -0.167498 -0.091206 -0.01067 0.029134 0.24822 -0.249481 -0.084039 -0.031421 0.063229 -0.067843 0.085299 0.025977 -0.114149 -0.048993 -0.05236 0.070057 -0.067076 -0.086107 0.021418 -0.047022 -0.045914 0.195308
0.352905 0.550922 -1.128945 -0.511125 0.774489 1.405335 -0.371647 0.106012 -0.779785 -0.640302 -0.68578 1.570717 -0.712288 -0.706705 -0.789609 -0.045278 -1.599722 -2.840112 -0.089543 -1.158838 -1.862605 -0.62748 -0.063542 -0.468696 0.750564 0.033551 -0.772222 -0.188991 -0.163115 0.455978 0.038455 -0.779588 0.172303 -1.114448 -0.548246 -0.008155 1.66721 -0.744821 -0.15746 -2.668482 -0.304702 -0.905716 0.479063 0.151803 -0.94063 -0.044338 -0.906122 -0.456182 0.281891 0.268287 0.47007 0.628019 0.328428 1.471286 -2.345457 0.072073 -0.345477 -0.998199 -1.496897 -0.053061 0.351206 -0.934426 0.295591 0.07336 0.24092 0.486976 0.390085 -0.621556 0.375246 -0.02625 1.957847 1.014101 0.004675 0.08874 -0.900479 -0.462149 0.922254 1.355385 -1.048724 0.105897 1.254466 0.410718 0.321258 1.066395 -0.171761 -0.128774 0.315556 0.697301 -0.180925 0.555334 1.005586 -0.891677 -1.232923 -1.994189 -0.567812 0.204184 -0.947385 -0.051526 -0.987029 0.725141
-0.301003 -0.104514 -0.061956 0.146717 -0.040725 -0.1588 0.029211 -0.064189 -0.18958 0.161304 -0.057593 0.219603 -0.120038 0.033487 -0.035875 0.222413 -0.127467 -0.079677 0.073621 -0.163412 -0.138081 -0.086122 0.163846 0.143247 0.015795 -0.191218 -0.047366 -0.17648 -0.091304 -0.162709 0.095472 -0.045481 -0.072739 0.064539 -0.098008 0.019513 -0.004289 0.102843 -0.02594 -0.079586 0.111636 0.030328 2.93E-4 -0.055575 -0.08076 0.044681 -0.05919 0.054732 0.055942 0.281925 -0.011567 -0.103552 0.049186 -0.058535 -0.065991 0.068196 -0.03194 0.083512 -0.108334 -0.299013 0.082526 -0.062222 -0.078709 -0.036158 -0.11367 0.122562 0.063293 0.021402 0.100572 0.025905 0.030018 0.044003 0.253677 -0.085289 -0.119433 -0.186868 -0.087402 0.031722 0.035378 0.00725 -0.015944 0.110563 0.061118 0.132946 0.089788 0.056923 -0.052286 0.163094 -0.001857 0.115403 0.033433 -0.114648 -0.049209 0.130114 -0.011276 -0.100948 0.116037 -0.139046 -0.030976 0.0108
-0.053833 0.079877 0.072856 0.139498 -0.105369 0.004769 -0.27073 -0.096518 -0.168103 -0.103006 0.202092 0.363744 -0.141267 -0.129923 0.01534 0.19683 -0.187167 0.111945 0.109179 -0.016332 0.035184 0.139347 0.315416 0.181261 -0.257633 -0.053217 -0.053058 -0.098832 0.23437 -0.331022 -0.084191 -0.075678 -0.001831 -0.110346 -0.013756 -0.266761 0.034555 -0.008762 -0.150297 0.165393 -0.060494 -0.197826 0.147763 -0.035721 0.031472 -0.210231 -0.085577 -0.109783 -0.244063 0.165008 0.054471 -0.00802 0.010601 -0.037268 0.221023 -0.133451 0.002637 -0.019477 0.129964 0.041991 -0.012534 -0.093924 -0.069187 -0.137315 -0.125857 -0.019287 -0.075852 -0.025292 0.08558 -0.045041 0.044839 -0.045932 0.096927 -0.044108 0.128249 -0.290646 -0.150284 -0.045275 0.037713 0.15651 0.143393 -0.066424 0.296246 -0.291488 0.055917 0.059085 0.065453 0.001004 0.226514 0.017525 -0.201115 -0.040421 -0.006957 -0.001567 -0.074785 -0.124046 0.079696 -0.095859 -0.218243 -0.010996
-0.172505 -0.108995 -0.072356 -0.055235 -0.170521 0.041729 0.006456 -0.129572 -0.043894 0.045639 0.040698 0.064007 -0.00405 -0.152533 -0.140209 -0.002731 -0.036314 0.098804 0.016442 0.13655 0.035944 0.110125 0.176303 -0.064243 -0.009379 0.011711 -0.036277 -0.069603 0.158625 -0.02755 -0.121909 0.203211 0.019894 -0.075472 -0.097468 -0.078748 -0.018818 -0.023387 0.072791 0.068684 -0.169469 0.132397 0.0715 0.1694 -0.073489 -0.084362 -0.016339 0.084673 -0.089777 0.178333 0.15979 -0.055646 -0.037781 0.144338 0.136735 -0.058706 -0.084196 -0.119408 -0.032048 -0.158647 0.170224 -0.154083 0.238225 -0.121937 0.019423 0.033277 0.025997 0.004046 0.019727 -0.075005 -0.098129 0.086746 0.041696 -0.072847 0.140905 -0.101501 0.016934 -0.021668 0.004997 -0.029448 -0.082344 0.143292 0.105839 -0.183547 -0.011943 0.044354 0.035772 -0.010104 0.013189 0.16713 -0.078802 -0.066197 0.092576 -0.142162 0.032502 -0.062696 0.019335 -0.089299 0.089381 -0.099409
-0.098513 0.105692 0.030325 -0.082913 -0.101971 -0.160935 -0.148515 -0.108101 -0.046061 0.158412 0.076181 0.136029 -0.014867 -0.036817 0.18416 0.171711 0.105708 0.188782 0.189945 -0.017203 0.003223 0.118295 0.139557 0.090117 -0.079274 -0.046713 0.009294 -0.165555 0.167971 -0.073241 -0.109104 0.033998 -0.087932 -0.02013 -0.061829 0.068415 0.043247 0.034602 0.026338 0.151464 0.002239 0.150113 0.089355 0.023872 -0.073345 -0.002644 0.0715 -0.046966 -0.120231 0.151086 0.019711 0.024837 -0.072606 0.121172 0.027173 -0.120475 0.032321 0.050192 -0.038653 0.052068 0.056621 0.010363 -0.03509 -0.031462 -0.075598 -0.079086 0.238504 -0.047199 0.008195 -0.106233 -0.185297 -0.126646 -0.021988 -0.011561 0.161499 -0.109245 -0.12245 0.072037 0.084938 -0.184826 0.011814 0.24152 0.09503 -0.072033 0.001589 0.081391 6.6E-4 0.001239 -0.012732 0.071768 -0.212927 -0.108879 -0.038726 -0.034537 -0.019281 -0.114473 0.085057 -0.006486 -0.060776 0.020438
-0.029286 -0.014455 0.059149 0.033118 -0.032637 -0.067667 -0.08093 0.027355 -0.160822 0.06104 0.064252 -0.015261 -0.23257 0.159481 0.071223 0.078452 0.02138 0.031978 -0.070376 0.051055 0.167258 -0.024817 0.197827 0.065265 -0.076168 0.011676 -0.029734 0.143341 0.05525 -0.036865 -0.015966 0.031316 0.07905 0.08625 0.02865 0.036293 -0.052834 -0.183621 0.138387 0.091953 -0.154564 -0.126113 -0.090987 0.031969 0.097322 0.022643 -0.092082 -0.019082 -8.9E-4 -0.133906 0.06438 -0.089912 0.03693 0.137816 -0.11469 0.064534 -0.08614 0.001976 0.0226 -0.148874 -0.107001 0.042298 -0.03552 -0.084001 -0.01756 -0.03727 0.068266 -0.097254 0.068175 0.036138 0.111631 0.014317 -0.061953 -0.078465 0.038628 -0.078335 -0.164786 -0.038389 0.117773 -0.136854 0.103996 -0.032816 0.069406 0.009716 -0.086636 0.182745 0.01029 -0.019687 -0.087212 -6.07E-4 0.063293 -0.016581 -0.118043 -0.009156 0.083954 0.032562 0.046468 -0.053734 -0.025457 -0.002224
-0.128641 -0.183213 -0.025735 -0.034176 0.160712 -0.036422 -0.036115 -0.077515 -1.15E-4 0.064225 0.097519 0.040625 -0.15152 0.142198 0.188817 0.411136 0.084774 -0.074436 0.095654 0.155364 -0.112567 0.133825 0.171567 0.1377 0.038063 -0.058251 -0.102751 0.210723 0.240286 -0.112156 -0.168119 -0.042751 0.036296 0.040575 0.036436 0.039973 -0.04516 -0.110347 0.099325 0.109729 0.020007 -0.122481 0.010572 0.057796 0.002663 0.13818 -0.090978 -0.091819 0.047471 0.079869 0.133509 -0.122069 -0.185639 -0.09021 0.080296 0.081482 -0.16927 0.20784 -0.029878 -0.165858 -0.094827 -0.056128 -0.036886 -0.055492 -0.027106 -0.165992 -0.106628 -0.10127 -0.078411 0.062786 -0.055879 0.102041 0.023516 0.006048 -0.059012 0.085451 0.150937 -0.062654 0.01721 -0.277391 0.143405 -0.030187 0.034032 -0.211539 -0.170891 0.113003 -0.013435 -0.030922 0.083932 0.142354 0.136289 0.057324 -0.264924 -0.092581 0.063097 0.032443 0.025964 0.052933 -0.01686 0.10931
-0.043693 -0.194727 0.21627 0.133759 -0.21547 -9.37E-4 -0.157182 -0.069137 -0.04804 0.180368 0.069764 0.115107 -0.099461 -0.02395 -0.016882 0.115046 0.025647 0.011909 -0.046419 -0.094053 -0.162318 0.076997 0.056752 0.058888 -0.172132 -0.005302 -0.134088 0.06246 0.197039 -0.094161 -0.034401 -0.079426 0.101388 0.098227 0.04371 0.063156 0.04227 0.149537 0.038783 0.066062 -0.034075 0.112723 -0.100995 -0.121958 0.094412 -0.1383 0.077065 -0.008616 -0.127921 -0.091687 -0.087586 0.11863 0.029906 0.069506 0.114008 0.12209 -0.01395 -0.092647 0.039031 0.007106 0.075748 -0.028041 0.128659 -0.071746 -0.088685 -0.078771 0.022923 0.032249 0.033834 -0.085306 -0.01805 -0.137844 0.060509 -0.03597 0.014518 -0.057669 -0.042752 -0.10377 -0.016855 -0.02794 -0.018116 -0.074676 0.013509 -0.020775 0.083727 0.064997 0.074278 -0.007353 0.032153 -0.007387 0.083105 -0.100546 0.182071 -0.029901 -0.094472 -0.162615 0.171907 -0.057711 0.008084 0.052213
0.006599 -0.174628 0.02306 0.129584 -0.003864 0.146674 -0.252025 0.043441 0.135443 -0.064367 0.171663 0.162274 -0.102276 -0.054774 0.088218 0.018087 0.030148 0.21844 0.138798 0.023864 -0.193472 0.069383 0.126224 0.097154 -0.341254 -0.207503 0.025933 -0.149577 -0.119172 -0.199055 -0.066671 0.034846 -0.057776 0.272041 -0.140804 -0.143627 0.127502 -0.010386 -0.037882 0.046157 -0.038366 0.207984 -0.074969 -0.151288 0.048715 -0.230531 0.091726 -0.058676 -9.84E-4 0.206182 0.102563 0.116276 0.117333 0.162199 0.102654 -0.139353 -0.038066 -0.001987 0.044312 -0.032569 0.161357 -0.008608 -0.047107 -0.141086 -0.090385 -0.034727 0.139694 0.048075 0.008102 -0.234896 0.010922 0.00528 0.120597 -0.064936 0.026668 -0.088449 0.026203 -0.055617 0.006251 0.06188 0.028263 0.330223 0.237868 -0.142478 0.044972 0.175135 0.119707 0.095305 0.03396 -0.037129 -0.226777 -0.175262 -0.010989 0.03514 -0.283795 -0.372992 -0.073743 -0.056745 0.011102 0.061266
0.0 0.0 0.0 0.0 0.0 0.0 0.0 0.0 0.0 0.0 0.0 0.0 0.0 0.0 0.0 0.0 0.0 0.0 0.0 0.0 0.0 0.0 0.0 0.0 0.0 0.0 0.0 0.0 0.0 0.0 0.0 0.0 0.0 0.0 0.0 0.0 0.0 0.0 0.0 0.0 0.0 0.0 0.0 0.0 0.0 0.0 0.0 0.0 0.0 0.0 0.0 0.0 0.0 0.0 0.0 0.0 0.0 0.0 0.0 0.0 0.0 0.0 0.0 0.0 0.0 0.0 0.0 0.0 0.0 0.0 0.0 0.0 0.0 0.0 0.0 0.0 0.0 0.0 0.0 0.0 0.0 0.0 0.0 0.0 0.0 0.0 0.0 0.0 0.0 0.0 0.0 0.0 0.0 0.0 0.0 0.0 0.0 0.0 0.0 0.0
0.20461 -0.166756 0.038146 0.047243 0.125238 -0.073833 -0.085065 0.00104 0.019704 -0.243412 0.016709 0.0694 -0.130919 0.200043 0.217566 0.002633 0.126128 0.095798 -0.079815 0.041479 -0.029584 0.147163 0.036164 -0.031427 -0.199607 0.047198 -0.004909 0.069272 0.195524 0.001992 -0.099026 0.003667 -0.048972 -0.019635 -0.013023 0.004434 0.018591 -0.032837 0.088044 0.050994 0.076305 -0.226519 -0.011972 0.11313 0.025772 0.085519 -0.037052 0.057438 0.107295 0.049766 0.00145 0.023882 0.146907 -0.167524 0.069246 -0.25554 0.04342 0.059759 -0.152636 0.136538 -0.097229 0.048584 -0.019764 0.099383 -0.06156 0.043025 0.007856 -0.042876 -0.144602 0.086851 0.016789 0.083486 0.079693 -0.05871 -0.020907 -0.048861 0.160337 0.148756 -0.068688 -0.041918 0.109307 -0.209784 -0.055152 -0.202888 0.12491 -0.026853 0.020186 -0.041216 0.003019 -0.025021 -0.207269 0.152877 -0.034352 0.170913 -0.007669 -0.084765 -0.014427 -0.005015 0.069233 0.097403
0.007246 0.053204 0.100928 0.006342 -0.101763 -0.085197 -0.083461 -0.123321 -0.100071 -0.042788 -0.155182 0.073053 -0.120455 0.059108 0.2188 0.103057 0.06081 0.00949 -0.182921 0.034294 -0.122566 -0.124692 0.14027 0.020579 -0.119203 -0.013958 -0.156626 0.105013 0.218325 -0.087863 -0.012293 -0.149912 -0.102018 0.191563 0.052477 0.053501 0.163665 0.035356 0.069416 0.115013 -0.105517 0.133498 0.044305 0.046916 -0.031637 0.092181 -0.128598 0.004537 -0.117556 -0.017436 0.142292 -0.170739 -0.094203 -0.159656 0.003728 0.017704 -0.079291 -0.10274 0.020011 -0.019057 -0.097359 -0.03764 -0.0914 -0.086059 0.119906 0.067012 0.096686 0.157964 0.068966 -0.023785 0.046974 -0.008436 -0.065665 0.102192 0.01846 0.034072 0.013473 -0.054716 0.045957 -0.220794 -0.231742 0.033982 0.162247 0.016021 0.050697 0.09313 2.07E-4 -0.205807 -0.080609 0.012886 -0.152411 -0.018133 -0.019331 0.073492 -0.026605 -0.060685 -0.069619 0.142252 -0.100558 -0.024004
-0.002881 -0.212725 0.055 0.03938 0.019411 0.004379 -0.153715 -0.063061 -0.034585 -0.133832 0.098343 0.11924 -0.090656 -0.011681 -0.034239 0.182098 -0.128273 0.107271 0.0928 0.029879 -0.124943 0.094096 0.252623 0.03585 -0.102942 -0.146062 -0.058523 0.073006 0.260082 -0.181418 0.030339 -0.032625 -0.191712 0.048507 -0.204241 -0.167863 -0.02443 0.0689 0.144335 0.06725 -0.068866 -0.014821 -0.024964 -0.003691 -0.090472 -0.054228 -0.023012 -0.130143 -0.115993 0.099615 0.049697 -0.107102 -0.121198 -0.168261 0.059138 -0.131467 0.057014 -0.088353 0.065103 0.118594 0.001005 -0.018703 -0.095887 -0.395247 -0.134634 -0.07493 0.029887 0.007397 0.021202 0.040519 0.145398 -0.023117 -0.010855 -0.102801 0.145994 -0.103298 -0.052892 0.050904 -0.143789 -0.033344 -0.169643 0.018402 -0.018267 -0.161238 -0.065375 -0.019086 -0.101153 0.10378 0.104127 0.013094 -0.045967 0.054758 -0.150995 0.076506 0.064548 0.017641 -0.020439 -0.152494 0.050792 0.066425
3.272915 0.815848 -1.174533 4.385144 0.524426 1.531284 -0.657749 -0.377525 0.687513 -2.439077 -3.464925 1.262172 -3.876401 0.632571 1.06346 -0.082445 -0.708844 -1.030423 -0.897187 1.618196 -2.087389 -0.548424 -0.328731 -2.951426 0.609206 -0.854115 0.572122 1.913802 0.597543 -1.571538 -0.329062 0.442052 -0.837796 1.168394 -0.795191 0.490829 1.003677 -0.318318 2.054393 -0.931082 1.083188 -2.284117 -2.386791 -0.421463 -0.761037 -1.00601 1.077742 -2.244967 4.900448 1.126803 3.343485 1.255126 0.563865 0.915854 0.221197 -1.017705 1.588296 3.475881 0.77764 -2.169942 0.060356 2.395727 0.746241 0.206615 -2.870158 -3.382245 -5.84E-4 -1.884076 0.358889 1.198429 0.914709 1.310388 -1.786353 0.581463 3.703629 -1.299082 0.623407 -0.516954 3.112407 -2.113873 -2.311625 0.872551 0.956237 0.077288 2.046968 2.104138 2.784744 1.559513 -0.989362 0.021333 -0.75829 -0.836621 -1.53654 0.065124 0.01169 1.935328 -0.860723 0.330949 -3.226011 -0.295441
2.509146 -0.552161 1.034535 1.378933 0.121525 1.267112 -0.264166 1.44874 -0.585351 0.814742 -0.556444 -0.769829 0.721693 3.504652 2.522097 0.698651 -2.00194 1.27341 -3.938691 -1.249814 1.206217 2.236896 -2.105178 2.803302 0.476807 1.734094 -0.304557 -1.727252 -6.730148 2.015861 7.327693 -2.709538 -0.991304 -4.232084 -1.93599 -1.471528 -0.332715 -1.233527 -6.406514 0.046641 0.97283 -0.994667 1.86544 -0.041745 -2.464909 -0.251897 -0.88735 0.232848 -2.86783 -0.039329 0.834739 1.260419 0.129091 -0.430997 -3.704259 -2.831278 0.963296 -3.750342 -1.569821 1.286868 -3.171957 -2.014259 1.227737 0.595818 0.410501 1.398568 -0.483599 -3.157001 2.474234 2.699517 2.327858 -3.891064 -0.294445 1.084606 0.59068 -0.277707 -0.669147 2.024913 0.165398 2.562466 2.359209 -3.092515 -1.052526 -1.255511 1.589703 -4.733644 -0.797907 -0.877859 -0.593432 1.52866 -0.748336 2.11786 -1.366948 -0.910751 -0.194893 -2.824154 0.189273 2.667272 -0.730916 1.569461
0.352905 0.550922 -1.128945 -0.511125 0.774489 1.405335 -0.371647 0.106012 -0.779785 -0.640302 -0.68578 1.570717 -0.712288 -0.706705 -0.789609 -0.045278 -1.599722 -2.840112 -0.089543 -1.158838 -1.862605 -0.62748 -0.063542 -0.468696 0.750564 0.033551 -0.772222 -0.188991 -0.163115 0.455978 0.038455 -0.779588 0.172303 -1.114448 -0.548246 -0.008155 1.66721 -0.744821 -0.15746 -2.668482 -0.304702 -0.905716 0.479063 0.151803 -0.94063 -0.044338 -0.906122 -0.456182 0.281891 0.268287 0.47007 0.628019 0.328428 1.471286 -2.345457 0.072073 -0.345477 -0.998199 -1.496897 -0.053061 0.351206 -0.934426 0.295591 0.07336 0.24092 0.486976 0.390085 -0.621556 0.375246 -0.02625 1.957847 1.014101 0.004675 0.08874 -0.900479 -0.462149 0.922254 1.355385 -1.048724 0.105897 1.254466 0.410718 0.321258 1.066395 -0.171761 -0.128774 0.315556 0.697301 -0.180925 0.555334 1.005586 -0.891677 -1.232923 -1.994189 -0.567812 0.204184 -0.947385 -0.051526 -0.987029 0.725141
0.0 0.0 0.0 0.0 0.0 0.0 0.0 0.0 0.0 0.0 0.0 0.0 0.0 0.0 0.0 0.0 0.0 0.0 0.0 0.0 0.0 0.0 0.0 0.0 0.0 0.0 0.0 0.0 0.0 0.0 0.0 0.0 0.0 0.0 0.0 0.0 0.0 0.0 0.0 0.0 0.0 0.0 0.0 0.0 0.0 0.0 0.0 0.0 0.0 0.0 0.0 0.0 0.0 0.0 0.0 0.0 0.0 0.0 0.0 0.0 0.0 0.0 0.0 0.0 0.0 0.0 0.0 0.0 0.0 0.0 0.0 0.0 0.0 0.0 0.0 0.0 0.0 0.0 0.0 0.0 0.0 0.0 0.0 0.0 0.0 0.0 0.0 0.0 0.0 0.0 0.0 0.0 0.0 0.0 0.0 0.0 0.0 0.0 0.0 0.0
2.591633 1.608701 -2.087245 2.00752 3.012652 4.995656 0.847355 -1.594905 -0.365708 -1.629805 -1.650237 3.712017 -0.231463 -0.537534 -2.036098 2.002639 -0.696666 -4.310136 -1.477319 -1.356504 -0.581823 -1.830239 -0.272773 -1.648095 0.090509 0.008711 0.330842 0.396714 2.341035 -0.526067 1.155793 -1.730906 -1.010387 -1.342646 -1.939355 0.734869 0.727366 0.700702 1.516974 -2.133831 -0.280653 -3.051674 0.017123 0.532043 1.478449 0.375441 0.920129 1.548929 1.087478 0.668327 0.707416 3.249232 -0.362503 1.273221 -2.929682 -0.245389 1.633444 -0.119836 0.103459 -3.445175 0.513245 0.427807 0.738792 1.448203 0.501908 0.362882 -0.731533 -0.391201 0.037778 3.053553 4.030229 1.793904 1.24136 0.081706 -1.401954 -0.638804 -0.487445 -0.267924 0.012844 0.538179 -0.241935 -0.068756 1.351665 -0.112558 0.001814 0.447262 0.833441 -0.023876 1.212707 1.514635 -0.568611 0.376173 -3.663739 -4.345135 -0.444319 2.139788 -2.53093 0.92131 -1.399435 1.763954
-0.236244 -0.001076 0.002423 0.040057 -0.232205 -0.117315 0.044139 -0.076072 -0.193371 -0.027175 0.142028 -0.057997 0.128593 -0.006486 0.082974 -0.198631 -0.044977 0.145271 0.095218 0.060691 -0.116042 0.107253 -0.080375 -0.198438 -0.047876 0.044757 -0.098956 0.003481 -0.004971 -0.064893 -0.00479 0.081618 -0.027421 0.120028 -0.110185 -0.052119 -0.034392 0.077136 0.22603 -0.147918 -0.089305 0.049505 0.029614 0.042957 -0.037857 -0.162968 -0.151876 -0.062664 -0.004629 0.026596 -0.016461 -0.052156 0.030496 0.106709 -0.176175 -0.219214 -0.006586 0.012827 -0.164306 -0.053089 -0.01087 -0.294483 -0.069931 -0.086331 -0.079982 0.026852 0.176207 0.094267 0.069478 0.03202 -0.044739 0.023171 0.058971 0.009627 -0.046434 -0.219629 -0.214895 0.122356 0.101868 0.168911 -0.1254 0.25946 0.11079 -0.128535 -0.047819 0.006112 -0.017982 -0.045127 0.104151 0.13567 -0.114894 -0.039339 -0.17256 -0.015824 0.127119 -0.118224 0.029943 -0.042216 -0.150181 -0.063563
0.060854 -0.011986 -0.038491 -0.215355 -0.196333 0.013959 -0.162443 0.134481 -0.212497 0.029634 0.027952 0.080762 -0.014948 0.07979 0.015262 0.106256 -0.140167 0.062221 0.056658 0.003705 -0.127495 0.040146 0.071066 0.123334 -0.170067 0.049084 0.064598 0.034576 -0.153861 0.059129 -0.122907 0.101599 -0.03729 -0.144749 -0.054557 -0.088295 -0.096698 -0.031594 -0.004937 -0.058224 0.001627 0.103749 0.057639 0.173077 -0.067248 -0.148184 0.083801 0.091989 -0.051326 0.080511 -0.039954 -0.034848 -0.141769 0.053141 0.11912 -0.065528 0.056766 -0.008784 0.041694 -0.183181 0.047779 -0.041783 0.00709 -0.08381 0.007302 0.024247 -0.021254 -0.09643 -0.074851 -0.010163 -0.029143 -0.169037 0.234911 -0.065547 0.066872 -0.113811 0.166807 0.067121 -0.162991 0.064033 0.092899 0.075295 0.092263 0.124227 -0.013228 -0.080937 0.005278 0.092741 0.111105 0.017927 -0.012814 0.028827 -0.039962 0.069081 -0.075695 -0.087783 -0.156934 -0.049833 0.008716 -0.058487
-0.13233 0.094297 0.122605 0.139304 0.056805 0.217019 -0.023641 -0.078375 -0.09726 0.145374 -0.013648 0.188216 -0.002126 -0.160146 -0.182764 -0.016356 0.009173 0.193431 0.083732 0.002577 0.034122 0.078856 0.407109 -0.036467 0.042113 0.145458 -0.097834 -0.057666 -0.024821 0.006735 0.095773 0.026856 0.020776 0.127472 -0.01547 -0.193234 0.119098 -0.040105 -0.033701 -0.072104 0.044449 -0.221449 -0.008893 0.018724 -0.122396 -0.187475 -0.07132 -0.092676 0.119988 0.006224 0.068174 0.168951 -0.179841 -0.080007 -0.21278 0.089166 0.046965 -0.226293 0.080477 -0.125557 -0.080215 0.0854 -0.209888 0.024201 -0.18794 -0.057426 0.11844 0.176927 0.073403 -0.024965 -0.059744 -0.015428 -0.006324 -0.104719 -0.052033 -0.107669 0.044023 0.161289 -0.027355 -0.129217 0.039391 0.090138 0.200571 -0.166763 0.20315 0.15852 -0.012717 0.152667 0.129585 -0.114656 0.221865 0.039231 -0.117882 0.108514 -0.001588 -0.029161 -0.05157 0.134712 -0.240573 0.057199
0.0 0.0 0.0 0.0 0.0 0.0 0.0 0.0 0.0 0.0 0.0 0.0 0.0 0.0 0.0 0.0 0.0 0.0 0.0 0.0 0.0 0.0 0.0 0.0 0.0 0.0 0.0 0.0 0.0 0.0 0.0 0.0 0.0 0.0 0.0 0.0 0.0 0.0 0.0 0.0 0.0 0.0 0.0 0.0 0.0 0.0 0.0 0.0 0.0 0.0 0.0 0.0 0.0 0.0 0.0 0.0 0.0 0.0 0.0 0.0 0.0 0.0 0.0 0.0 0.0 0.0 0.0 0.0 0.0 0.0 0.0 0.0 0.0 0.0 0.0 0.0 0.0 0.0 0.0 0.0 0.0 0.0 0.0 0.0 0.0 0.0 0.0 0.0 0.0 0.0 0.0 0.0 0.0 0.0 0.0 0.0 0.0 0.0 0.0 0.0
-0.096904 -0.049504 -0.082471 -0.050801 -0.175429 0.021206 0.034848 0.045176 -0.193814 0.016602 0.164478 0.025249 -0.024159 -0.110062 -0.136905 0.065549 0.103004 0.160755 -0.009444 -0.125299 -0.114883 0.040214 0.191318 -0.081817 0.066316 -0.065548 -0.067374 -0.085891 0.113077 -0.121134 -0.10236 0.003337 -0.18259 -0.194313 -0.039843 -0.331344 -0.047765 -0.082314 -0.072703 0.049634 -0.144728 0.101607 -0.160328 0.150916 -0.001313 -0.182803 0.231857 0.098347 -0.006359 0.071247 -0.106722 -0.262918 0.005404 0.108825 0.097083 -0.109244 0.053893 -0.128451 0.190794 -0.069653 0.238598 -0.146518 0.037883 -0.085972 0.02993 0.106087 0.336965 -0.160098 0.129957 0.065108 -0.147377 0.095608 0.178532 -0.033717 -0.023657 0.038147 -0.146698 -0.014592 0.163545 -0.012975 0.050209 0.038704 0.231172 -0.015421 -0.038847 0.011368 -0.004337 0.04574 0.057537 0.210886 -0.060135 0.090964 0.080115 -0.014874 -0.066099 0.035194 -0.020067 -0.273852 0.060846 -0.102303
-0.216608 -0.135263 0.271362 0.064631 -0.058472 0.007236 -0.105295 -0.067634 -0.178555 -0.063222 0.176318 0.001652 -0.070044 0.037822 0.172801 0.12771 0.058199 0.16586 -0.077341 0.120071 -0.154733 0.161664 0.291504 0.113562 -0.051629 -0.227728 -0.120683 -0.018789 0.021112 -0.156981 -0.055216 -0.150219 0.028774 0.006067 0.008834 0.083017 0.087725 0.10309 0.144559 0.230401 -0.145693 -0.003684 0.046353 0.177527 0.089936 -0.188201 -0.014907 -0.080068 -0.009225 0.080584 0.247199 0.027727 -0.023643 -0.333408 0.080675 -0.009407 0.001642 -0.139457 0.103284 -0.065379 -0.067105 -0.208892 -0.147464 -0.189518 0.068986 -0.133539 -0.101328 -0.17995 -0.04107 -0.066256 0.014339 0.094617 -0.039733 -0.009701 0.132607 -0.0652 -0.233482 -0.146858 -0.004052 -0.222281 -0.051324 -0.077138 0.144242 -0.164035 -0.018531 -0.175091 0.132275 -0.148507 0.099047 0.175248 0.122157 0.03334 0.073291 0.004423 -0.025155 -0.054521 0.05249 -0.01786 0.107547 -0.007077
-0.041152 -0.058765 0.239753 -0.07433 0.119412 -0.022946 -0.164608 -0.11906 -0.09751 0.06308 0.233486 0.052962 -0.074969 0.210551 0.133547 0.153505 -0.044234 0.109736 0.077856 0.140856 -0.021252 0.033017 0.069787 0.055207 -0.10887 -0.168747 0.091712 -0.018534 0.20433 -0.119372 0.027071 0.103849 0.020855 0.180289 0.191154 -0.137163 0.204511 -0.008304 -0.100247 0.076504 0.096807 -0.019805 0.115192 0.135553 0.152185 0.033255 0.11349 0.030371 -0.11985 0.186437 -0.036775 0.035232 0.078169 0.039443 0.201806 -0.018164 -0.008474 -0.054042 0.133953 -0.055359 0.029841 -0.021871 -0.034267 -0.101562 -0.017965 0.057546 0.021227 0.303484 0.059384 -0.315525 -0.29615 -0.082597 0.001246 0.083529 0.112149 0.014997 -0.053167 -0.0877 -0.079434 -0.0795 0.015774 0.006711 -0.011683 -0.134941 -0.018682 -0.095195 0.01551 0.072427 0.141806 0.025021 0.047396 -0.045954 0.112652 0.198619 -0.12295 -0.056053 0.135586 -0.08597 0.029818 -0.062826
-0.13982 -0.070825 0.118315 -0.188916 -0.048283 -0.132856 -0.029281 0.019655 0.085709 0.086609 -1.09E-4 -0.165678 -0.168657 0.064968 0.117705 -0.089967 0.060461 0.154044 0.159206 -0.216385 -0.034292 0.002616 0.114454 0.012079 -0.101054 -0.066247 -0.019818 0.041505 0.08108 -0.193241 0.068194 0.076214 0.125376 -0.052328 0.091661 0.081679 -0.014446 0.060696 -0.224715 0.121678 0.111638 0.099933 -0.210582 -0.010916 -0.042724 -0.052161 0.059768 0.005555 -0.012583 0.011093 0.255467 -0.151262 0.143106 0.058177 -0.061392 0.09274 0.044614 -0.077992 0.039983 0.041117 0.050478 -0.036416 -0.244948 -0.113915 0.055078 0.070349 -0.061488 0.015295 -0.138233 0.021685 -0.017643 -0.02245 0.109452 0.020738 0.047203 -0.046728 0.127734 -0.069984 -0.010974 -0.151913 -0.108325 -0.106444 0.117066 0.045376 0.06448 0.087222 -0.020649 0.009947 0.146502 -0.081502 -0.023772 -0.027065 0.059738 0.169912 -0.134561 -0.043472 -0.114556 -0.049832 0.014935 -0.004474
0.352905 0.550922 -1.128945 -0.511125 0.774489 1.405335 -0.371647 0.106012 -0.779785 -0.640302 -0.68578 1.570717 -0.712288 -0.706705 -0.789609 -0.045278 -1.599722 -2.840112 -0.089543 -1.158838 -1.862605 -0.62748 -0.063542 -0.468696 0.750564 0.033551 -0.772222 -0.188991 -0.163115 0.455978 0.038455 -0.779588 0.172303 -1.114448 -0.548246 -0.008155 1.66721 -0.744821 -0.15746 -2.668482 -0.304702 -0.905716 0.479063 0.151803 -0.94063 -0.044338 -0.906122 -0.456182 0.281891 0.268287 0.47007 0.628019 0.328428 1.471286 -2.345457 0.072073 -0.345477 -0.998199 -1.496897 -0.053061 0.351206 -0.934426 0.295591 0.07336 0.24092 0.486976 0.390085 -0.621556 0.375246 -0.02625 1.957847 1.014101 0.004675 0.08874 -0.900479 -0.462149 0.922254 1.355385 -1.048724 0.105897 1.254466 0.410718 0.321258 1.066395 -0.171761 -0.128774 0.315556 0.697301 -0.180925 0.555334 1.005586 -0.891677 -1.232923 -1.994189 -0.567812 0.204184 -0.947385 -0.051526 -0.987029 0.725141
-0.104054 0.098958 0.164743 0.084701 -0.177 -0.099491 -0.175552 0.150903 0.051633 -0.10303 -0.061201 -0.097516 -0.043308 -0.108088 -0.094529 0.031105 -0.010435 -0.085885 -0.272049 -0.376378 0.11136 -0.001218 0.227651 0.117687 0.077731 0.048289 -0.299824 -0.108813 -0.066322 0.119624 0.220128 -0.115142 0.142039 0.023971 0.246916 -3.58E-4 0.052285 0.119065 -0.153726 0.00344 0.160432 0.104999 -0.060669 0.074377 -0.101186 -0.214792 0.173532 0.234289 -0.282393 -0.071202 0.018287 -0.086698 -0.286666 -0.049134 0.007115 -0.073184 -0.10094 -0.123559 -0.143698 -0.06026 0.05438 0.112642 -0.132852 0.071278 -0.105831 0.097973 -0.080161 -0.012918 0.056857 -0.028939 0.085628 0.124121 0.020865 -0.143224 0.155326 0.304119 -0.041868 0.072869 0.012124 -0.14319 -0.043484 0.319503 -0.031636 0.057689 0.03357 -0.163811 -0.113422 0.064611 0.004525 0.010296 0.06045 0.104093 -0.097744 0.164141 -0.02015 0.062465 -0.011397 -0.112392 -0.196271 0.016922
-0.043693 -0.194727 0.21627 0.133759 -0.21547 -9.37E-4 -0.157182 -0.069137 -0.04804 0.180368 0.069764 0.115107 -0.099461 -0.02395 -0.016882 0.115046 0.025647 0.011909 -0.046419 -0.094053 -0.162318 0.076997 0.056752 0.058888 -0.172132 -0.005302 -0.134088 0.06246 0.197039 -0.094161 -0.034401 -0.079426 0.101388 0.098227 0.04371 0.063156 0.04227 0.149537 0.038783 0.066062 -0.034075 0.112723 -0.100995 -0.121958 0.094412 -0.1383 0.077065 -0.008616 -0.127921 -0.091687 -0.087586 0.11863 0.029906 0.069506 0.114008 0.12209 -0.01395 -0.092647 0.039031 0.007106 0.075748 -0.028041 0.128659 -0.071746 -0.088685 -0.078771 0.022923 0.032249 0.033834 -0.085306 -0.01805 -0.137844 0.060509 -0.03597 0.014518 -0.057669 -0.042752 -0.10377 -0.016855 -0.02794 -0.018116 -0.074676 0.013509 -0.020775 0.083727 0.064997 0.074278 -0.007353 0.032153 -0.007387 0.083105 -0.100546 0.182071 -0.029901 -0.094472 -0.162615 0.171907 -0.057711 0.008084 0.052213
0.006599 -0.174628 0.02306 0.129584 -0.003864 0.146674 -0.252025 0.043441 0.135443 -0.064367 0.171663 0.162274 -0.102276 -0.054774 0.088218 0.018087 0.030148 0.21844 0.138798 0.023864 -0.193472 0.069383 0.126224 0.097154 -0.341254 -0.207503 0.025933 -0.149577 -0.119172 -0.199055 -0.066671 0.034846 -0.057776 0.272041 -0.140804 -0.143627 0.127502 -0.010386 -0.037882 0.046157 -0.038366 0.207984 -0.074969 -0.151288 0.048715 -0.230531 0.091726 -0.058676 -9.84E-4 0.206182 0.102563 0.116276 0.117333 0.162199 0.102654 -0.139353 -0.038066 -0.001987 0.044312 -0.032569 0.161357 -0.008608 -0.047107 -0.141086 -0.090385 -0.034727 0.139694 0.048075 0.008102 -0.234896 0.010922 0.00528 0.120597 -0.064936 0.026668 -0.088449 0.026203 -0.055617 0.006251 0.06188 0.028263 0.330223 0.237868 -0.142478 0.044972 0.175135 0.119707 0.095305 0.03396 -0.037129 -0.226777 -0.175262 -0.010989 0.03514 -0.283795 -0.372992 -0.073743 -0.056745 0.011102 0.061266
-0.002881 -0.212725 0.055 0.03938 0.019411 0.004379 -0.153715 -0.063061 -0.034585 -0.133832 0.098343 0.11924 -0.090656 -0.011681 -0.034239 0.182098 -0.128273 0.107271 0.0928 0.029879 -0.124943 0.094096 0.252623 0.03585 -0.102942 -0.146062 -0.058523 0.073006 0.260082 -0.181418 0.030339 -0.032625 -0.191712 0.048507 -0.204241 -0.167863 -0.02443 0.0689 0.144335 0.06725 -0.068866 -0.014821 -0.024964 -0.003691 -0.090472 -0.054228 -0.023012 -0.130143 -0.115993 0.099615 0.049697 -0.107102 -0.121198 -0.168261 0.059138 -0.131467 0.057014 -0.088353 0.065103 0.118594 0.001005 -0.018703 -0.095887 -0.395247 -0.134634 -0.07493 0.029887 0.007397 0.021202 0.040519 0.145398 -0.023117 -0.010855 -0.102801 0.145994 -0.103298 -0.052892 0.050904 -0.143789 -0.033344 -0.169643 0.018402 -0.018267 -0.161238 -0.065375 -0.019086 -0.101153 0.10378 0.104127 0.013094 -0.045967 0.054758 -0.150995 0.076506 0.064548 0.017641 -0.020439 -0.152494 0.050792 0.066425
0.014401 0.056522 -0.067027 0.003451 -0.029767 0.073351 -0.024849 0.036841 0.040807 0.005458 0.13335 -0.120096 -0.117021 -0.119265 0.024171 -0.015156 0.05961 -0.1094 -0.023646 -0.066864 -0.026603 0.054721 0.037844 -0.047458 0.049247 0.214332 -0.031197 -0.081032 0.0982 -0.06176 -0.187928 0.07447 0.140843 0.089594 0.127182 -0.106684 -0.115247 0.047985 0.017104 -0.188258 0.201881 0.035723 0.17568 -0.081601 0.023983 0.109685 -0.107213 -0.203239 -0.014228 0.042078 0.128434 -0.15446 -0.162105 -0.057687 -0.123467 0.099686 -0.003883 0.05067 0.065316 -0.21982 0.00112 -0.059011 -0.046757 0.11549 0.023983 -0.006561 -0.066449 -0.189888 -0.017994 0.220568 0.052927 -0.029092 0.221103 -0.013212 3.38E-4 -0.022332 0.015746 0.1407 0.033685 0.174891 -0.062061 -0.068634 0.002461 -0.013492 0.017944 0.018135 0.023988 -0.324442 0.001304 0.173735 -0.02299 0.007869 0.154087 -0.09733 0.080793 0.236875 -0.030117 0.131032 0.157627 -0.019791
0.0 0.0 0.0 0.0 0.0 0.0 0.0 0.0 0.0 0.0 0.0 0.0 0.0 0.0 0.0 0.0 0.0 0.0 0.0 0.0 0.0 0.0 0.0 0.0 0.0 0.0 0.0 0.0 0.0 0.0 0.0 0.0 0.0 0.0 0.0 0.0 0.0 0.0 0.0 0.0 0.0 0.0 0.0 0.0 0.0 0.0 0.0 0.0 0.0 0.0 0.0 0.0 0.0 0.0 0.0 0.0 0.0 0.0 0.0 0.0 0.0 0.0 0.0 0.0 0.0 0.0 0.0 0.0 0.0 0.0 0.0 0.0 0.0 0.0 0.0 0.0 0.0 0.0 0.0 0.0 0.0 0.0 0.0 0.0 0.0 0.0 0.0 0.0 0.0 0.0 0.0 0.0 0.0 0.0 0.0 0.0 0.0 0.0 0.0 0.0
0.20461 -0.166756 0.038146 0.047243 0.125238 -0.073833 -0.085065 0.00104 0.019704 -0.243412 0.016709 0.0694 -0.130919 0.200043 0.217566 0.002633 0.126128 0.095798 -0.079815 0.041479 -0.029584 0.147163 0.036164 -0.031427 -0.199607 0.047198 -0.004909 0.069272 0.195524 0.001992 -0.099026 0.003667 -0.048972 -0.019635 -0.013023 0.004434 0.018591 -0.032837 0.088044 0.050994 0.076305 -0.226519 -0.011972 0.11313 0.025772 0.085519 -0.037052 0.057438 0.107295 0.049766 0.00145 0.023882 0.146907 -0.167524 0.069246 -0.25554 0.04342 0.059759 -0.152636 0.136538 -0.097229 0.048584 -0.019764 0.099383 -0.06156 0.043025 0.007856 -0.042876 -0.144602 0.086851 0.016789 0.083486 0.079693 -0.05871 -0.020907 -0.048861 0.160337 0.148756 -0.068688 -0.041918 0.109307 -0.209784 -0.055152 -0.202888 0.12491 -0.026853 0.020186 -0.041216 0.003019 -0.025021 -0.207269 0.152877 -0.034352 0.170913 -0.007669 -0.084765 -0.014427 -0.005015 0.069233 0.097403
0.166865 -0.033351 -0.013364 -0.059014 -0.095169 -0.021507 -0.126788 0.103728 -0.200711 -0.063152 0.044354 0.134222 0.002393 0.071524 0.209815 0.100187 0.025401 0.083631 0.120448 0.173878 -0.091184 0.033918 0.054121 0.121356 -0.168415 -0.048991 -0.209931 -0.016042 0.202225 -0.007166 -0.110802 -0.028926 -0.11468 0.016808 -0.064513 -0.05835 -0.015135 0.093734 0.167046 -0.014056 0.02555 -0.101082 -0.016676 -0.00246 -0.017495 0.184926 -0.038011 -0.106257 0.001132 0.03659 0.080797 -0.16487 -0.164051 -0.024617 0.144233 0.037146 0.064814 -0.135114 0.218106 -0.087954 0.024218 -0.008723 0.020657 -0.10933 -0.0401 -0.009808 -0.283523 0.179888 -0.016468 0.100665 -0.045627 0.125868 0.040189 0.113707 0.238166 -0.079786 0.009467 -0.061173 -0.064632 -0.277119 0.084403 -0.091058 0.212317 -0.16461 -0.095926 -0.049768 -0.09268 0.023356 0.096515 0.010373 -0.174271 -0.082788 -0.155016 0.104184 0.044246 0.051147 0.02525 -0.044468 -0.064392 -0.011243
0.17872 0.088151 -0.061908 -0.036826 -0.155211 -0.021478 -0.037156 -0.083116 -0.085868 0.218256 -0.115515 0.216838 -0.081632 0.006412 0.211967 0.063632 0.157506 0.042701 0.178918 0.035514 0.028231 0.001009 0.118407 0.015401 -0.062557 -0.04222 0.022304 -0.254642 0.194626 -0.062906 -0.079597 -0.001112 0.118019 0.122737 0.02639 -0.124877 -0.054461 0.069574 -0.10026 0.297008 0.06825 0.108245 -0.185502 -0.048056 -0.102759 -0.219367 0.083771 0.021198 -0.058394 0.140077 -0.01266 -0.105272 -0.165465 -0.134614 0.039674 -0.110581 0.13409 0.090975 0.090321 0.027329 -0.105755 0.094073 -0.071374 0.010499 -0.01486 -0.164924 0.006045 -0.085451 0.045715 -0.106425 -0.002098 0.001391 0.051872 0.020683 -0.081749 0.059076 -0.137045 -0.067427 0.103182 -0.056051 0.062047 0.079718 -0.047328 -0.111121 0.058416 0.12935 0.051146 -0.097484 -0.033317 0.001308 -0.137533 -0.016315 0.040716 -0.079903 -0.002791 -0.323042 -0.047495 -0.074028 -0.119924 0.157007
-1.445697 -0.376991 0.605131 -2.927773 -2.545095 -0.012935 0.304803 -1.289168 2.935763 -3.30048 2.013736 0.601604 0.463606 -2.513579 -3.111959 1.509581 -2.270566 -3.193746 -0.683823 1.11226 2.641423 -0.439638 -1.461155 -0.230057 -3.083891 1.464638 -3.482595 0.292508 -2.961341 2.670694 2.633844 0.530248 -0.915058 -5.213341 1.151417 2.088477 0.077027 1.987321 -2.701086 -1.896473 -1.396191 -0.28458 3.471924 3.377009 0.510478 -0.338405 -1.080892 -0.17368 -0.293555 -0.092374 -0.194442 -0.035597 -0.210813 3.880518 -1.574683 0.838801 3.22272 2.935631 -0.150343 1.362463 2.574235 3.434764 2.104742 1.146516 1.989767 1.356181 1.46733 1.525646 1.808291 -1.537805 -0.288857 -0.65458 0.173075 -0.698576 0.239921 -0.800718 2.227096 -0.11127 0.137437 0.862853 3.100754 -0.68748 2.771815 -0.865885 0.747454 -2.708324 2.056632 -2.880682 -0.510213 -0.75684 1.062552 3.109441 -4.090577 -0.19873 0.562437 -4.868546 1.064819 1.171282 -1.742815 -0.694478
-0.125002 -0.066817 -0.180766 -0.059979 -0.092662 0.094897 -0.157281 0.149876 -0.054601 0.166557 -0.072196 0.088903 -0.020504 0.030954 0.011593 0.059236 -0.015654 0.027102 -0.072601 -6.44E-4 -0.078562 0.006416 0.115282 0.100459 -0.12915 0.113299 0.140987 -0.12095 -0.008716 -0.12589 0.203538 0.027711 -0.108113 0.027425 -0.207183 0.041097 0.067443 0.016476 0.109709 -0.043383 0.097247 0.087611 0.04971 0.11518 -0.029272 0.019313 0.044622 0.126768 0.085755 -0.041414 -0.035159 -0.020206 0.044492 -0.04271 0.164299 -0.173956 0.054438 -0.129314 0.01258 -0.154185 0.057271 -0.092325 0.08629 -0.193376 -0.149163 0.081389 0.135752 0.015912 3.93E-4 -0.028525 -0.160906 0.162119 0.114114 -0.051617 0.16827 -0.17756 -0.052901 0.055456 0.057253 -0.128881 0.052534 0.293794 0.215936 -0.042191 0.051492 -0.083139 -0.037911 0.10892 0.014079 0.182417 -0.069847 0.044903 -0.082355 0.156042 -0.11172 -0.100245 -0.050986 0.080645 -0.011823 0.110605
-0.140785 -0.14728 -0.027616 0.08445 -0.152002 0.023071 0.025384 -0.125483 -0.174535 0.123511 0.183223 0.057582 -0.114695 -0.126659 0.312273 0.107716 0.076027 -0.022061 -0.033984 -0.035121 -0.196234 0.084876 0.242653 0.041485 -0.033119 0.006834 0.068452 0.09493 -0.009738 -0.022149 0.04009 0.025885 -0.102782 0.076223 -0.119503 -0.163882 0.006091 -0.143649 0.042611 0.081483 -0.033372 0.179769 0.068813 -0.090208 0.071727 -0.153766 0.05288 0.091442 0.004049 0.058936 0.088653 -0.241223 0.034444 0.149167 -0.015737 -0.019929 0.114689 0.067139 -0.021938 -0.176811 0.159565 -0.13655 -0.091767 -0.318583 -0.315485 -0.007252 0.060879 0.042017 0.030844 -0.125873 0.016578 0.08261 -0.159142 0.013366 -0.060969 -0.012505 -0.13003 0.010829 -0.002904 -0.100702 -0.084819 0.117446 0.074885 -0.146817 0.13477 -0.058325 0.044237 -0.04391 0.144159 -0.039606 0.042236 -0.111675 -0.092263 0.084575 -0.225227 -0.206438 0.308123 -0.030676 -0.100911 0.028808
0.011509 -0.124021 -0.108067 0.01025 0.087191 -0.366656 -0.106965 0.010145 0.050521 0.040402 0.219637 0.188916 -0.109389 0.050997 0.046062 -0.010969 0.030806 0.075774 -0.041265 0.030153 0.110567 0.076163 0.059857 -0.176423 -0.118124 -0.00447 -0.00927 0.105422 0.273782 -0.2481 0.081474 -0.019701 0.060827 0.134548 -0.055201 -0.057896 -0.008739 0.12876 -0.139871 0.10324 0.050941 -0.128915 -0.05222 0.142861 0.095357 0.054697 -0.003735 0.05236 -0.037203 -0.006182 -0.013594 -0.028187 -0.213196 -0.013794 0.217705 -0.086522 -0.25467 -0.01858 0.089151 -0.248998 0.06175 -0.182467 -0.0397 -0.01122 -0.180952 0.034994 -0.040328 -0.162072 0.024643 0.030647 0.044414 -0.069485 0.045912 -0.094881 0.287906 -0.142365 -0.189261 -0.10683 -0.079001 -0.101719 -0.097923 0.063141 -0.008342 -0.415027 -0.094685 0.067276 -0.009266 0.126287 0.155147 -0.030591 0.050569 -0.210343 -0.180902 0.134353 0.141423 -0.056436 -0.033643 -0.084602 -0.137726 -0.146211
-0.08102 0.060817 -0.024562 -0.054298 0.084348 -0.071574 -0.051536 -0.06006 0.070486 0.125942 0.07635 0.091321 -0.088033 -0.011853 0.027985 0.273812 -0.165403 0.167528 0.107063 -0.10792 -0.175529 -0.106001 0.184936 -0.036869 -0.180321 -0.112929 -0.066833 -0.135766 0.187471 -0.219856 -0.029425 -0.038705 -0.073581 0.142564 -0.206264 -0.168513 -0.069954 -0.032491 -0.065789 0.030867 0.071024 0.096198 -0.131234 0.223129 0.02999 0.164157 0.023734 0.123004 -0.160463 -0.065925 0.15942 0.012938 0.060983 0.093927 0.182828 -0.061819 -0.121536 0.130906 -0.032631 -0.096864 0.074887 -0.085242 -0.03473 -0.19401 0.012587 0.166042 0.059764 -0.059549 0.111341 0.013006 0.025756 0.047056 0.123582 0.183161 0.064878 0.090089 -0.057612 0.112871 -0.031022 -0.15847 0.10268 0.029182 -0.133201 0.062665 -0.164541 0.082379 -0.015878 -0.026281 0.073887 0.08588 -0.110423 0.08276 -0.178963 -0.100888 0.109255 -0.21032 0.19364 0.036528 0.034802 -0.053225
1.939635 1.52901 1.289587 3.251535 -1.724015 -0.88548 -1.305419 2.302571 -1.417341 -1.68966 -0.63789 2.076267 -3.058223 1.539613 1.180597 0.029053 -0.321402 -2.23572 -2.38652 1.658533 -1.245721 -0.526509 -3.599429 0.754249 -0.80274 0.507379 -2.39552 1.105986 -0.056637 -0.438303 1.940801 -2.557426 0.985315 3.029874 0.213126 0.861485 3.121805 0.640059 -0.820139 -2.40745 -0.196076 -4.070904 0.803788 0.627065 2.287266 2.341116 0.489852 -1.57276 1.345608 0.42161 3.228641 4.822541 2.307207 0.997003 -2.753309 0.364194 3.286885 -0.854741 -0.545387 -4.263543 -0.321177 2.708668 -5.839749 -0.190246 1.192365 1.834868 0.85099 3.023894 0.019983 -0.356687 2.290085 -1.712409 1.283075 5.053623 2.119578 0.310527 -1.882558 -2.366862 0.130671 -0.478639 1.414622 1.526558 0.318589 2.752702 0.046978 -1.332104 0.951956 1.81757 -0.872666 2.804518 -1.758129 0.070445 -0.158419 -4.010314 -0.794193 0.288862 -0.172084 0.635215 -0.313457 -0.581935
0.0 0.0 0.0 0.0 0.0 0.0 0.0 0.0 0.0 0.0 0.0 0.0 0.0 0.0 0.0 0.0 0.0 0.0 0.0 0.0 0.0 0.0 0.0 0.0 0.0 0.0 0.0 0.0 0.0 0.0 0.0 0.0 0.0 0.0 0.0 0.0 0.0 0.0 0.0 0.0 0.0 0.0 0.0 0.0 0.0 0.0 0.0 0.0 0.0 0.0 0.0 0.0 0.0 0.0 0.0 0.0 0.0 0.0 0.0 0.0 0.0 0.0 0.0 0.0 0.0 0.0 0.0 0.0 0.0 0.0 0.0 0.0 0.0 0.0 0.0 0.0 0.0 0.0 0.0 0.0 0.0 0.0 0.0 0.0 0.0 0.0 0.0 0.0 0.0 0.0 0.0 0.0 0.0 0.0 0.0 0.0 0.0 0.0 0.0 0.0
0.10139 0.068873 0.147976 0.00353 -0.174471 0.024519 -0.033053 -0.047629 -0.064484 0.129612 0.099776 0.047772 0.105331 0.132094 -0.063609 0.05362 -0.159655 0.065383 0.035102 -0.15129 -0.066128 -0.046079 0.038413 -0.059674 -0.056743 0.244685 -0.022607 -0.023572 0.0774 0.015552 0.144645 -0.150664 0.060218 -0.097619 -0.075966 0.176998 0.054409 -0.156015 -0.156475 -5.23E-4 -0.163084 0.127096 0.296095 0.240639 0.09654 -0.027204 0.203911 -0.051081 -0.01348 -0.001566 -0.111833 0.016615 -0.028599 -0.052275 6.18E-4 -0.110646 0.051564 -0.074074 -0.20786 0.02229 -0.125153 0.173984 -0.266842 0.051056 -0.216065 -0.092632 0.025627 -0.119144 0.151285 0.07958 0.083788 0.018087 -0.004724 0.109147 0.004077 0.007569 0.006455 -0.090762 0.14678 0.05137 -0.149194 0.045081 0.150498 -0.312461 -0.011093 -0.094081 -0.003273 -0.136612 0.080192 -0.090731 -0.026167 -0.123585 -0.113893 -0.067016 -0.050181 -0.218802 0.094765 -0.01753 -0.152036 0.009443
-0.079125 0.165496 0.110897 -0.05513 -0.065724 -0.016421 -0.129675 -0.099214 0.02807 -0.013086 0.098924 0.006428 0.015865 0.019545 -0.032119 -0.00207 -0.045287 -0.050114 0.055247 0.03426 0.233659 0.072283 -0.012443 -0.03855 0.031879 -0.210001 -0.099797 -0.143277 0.004465 -0.144344 0.108815 0.013896 0.093599 -0.034792 0.068236 0.288351 0.068627 0.01563 0.272114 0.010639 -0.007226 -0.080718 -0.127818 -0.11284 -0.050929 -0.118455 0.067435 0.03741 -0.036989 -0.080063 0.041965 -0.124513 -0.086496 0.030034 0.236339 -0.182109 -0.019218 -0.122632 -0.245188 0.10252 0.060751 0.064868 -0.041636 -0.091022 0.104927 0.017689 0.096578 0.10721 0.097177 0.042127 0.07152 -0.005611 0.094549 0.007239 -0.062212 -0.051875 0.108705 0.011637 -0.124956 -0.015681 -0.121867 -0.007958 0.040644 0.024469 0.141174 0.121792 0.197302 -0.088771 0.159092 -0.241288 -0.069209 -0.034296 0.127442 -0.006425 -0.121656 -0.116899 0.054485 0.121344 0.041694 0.048051
-0.098513 0.105692 0.030325 -0.082913 -0.101971 -0.160935 -0.148515 -0.108101 -0.046061 0.158412 0.076181 0.136029 -0.014867 -0.036817 0.18416 0.171711 0.105708 0.188782 0.189945 -0.017203 0.003223 0.118295 0.139557 0.090117 -0.079274 -0.046713 0.009294 -0.165555 0.167971 -0.073241 -0.109104 0.033998 -0.087932 -0.02013 -0.061829 0.068415 0.043247 0.034602 0.026338 0.151464 0.002239 0.150113 0.089355 0.023872 -0.073345 -0.002644 0.0715 -0.046966 -0.120231 0.151086 0.019711 0.024837 -0.072606 0.121172 0.027173 -0.120475 0.032321 0.050192 -0.038653 0.052068 0.056621 0.010363 -0.03509 -0.031462 -0.075598 -0.079086 0.238504 -0.047199 0.008195 -0.106233 -0.185297 -0.126646 -0.021988 -0.011561 0.161499 -0.109245 -0.12245 0.072037 0.084938 -0.184826 0.011814 0.24152 0.09503 -0.072033 0.001589 0.081391 6.6E-4 0.001239 -0.012732 0.071768 -0.212927 -0.108879 -0.038726 -0.034537 -0.019281 -0.114473 0.085057 -0.006486 -0.060776 0.020438
-0.125002 -0.066817 -0.180766 -0.059979 -0.092662 0.094897 -0.157281 0.149876 -0.054601 0.166557 -0.072196 0.088903 -0.020504 0.030954 0.011593 0.059236 -0.015654 0.027102 -0.072601 -6.44E-4 -0.078562 0.006416 0.115282 0.100459 -0.12915 0.113299 0.140987 -0.12095 -0.008716 -0.12589 0.203538 0.027711 -0.108113 0.027425 -0.207183 0.041097 0.067443 0.016476 0.109709 -0.043383 0.097247 0.087611 0.04971 0.11518 -0.029272 0.019313 0.044622 0.126768 0.085755 -0.041414 -0.035159 -0.020206 0.044492 -0.04271 0.164299 -0.173956 0.054438 -0.129314 0.01258 -0.154185 0.057271 -0.092325 0.08629 -0.193376 -0.149163 0.081389 0.135752 0.015912 3.93E-4 -0.028525 -0.160906 0.162119 0.114114 -0.051617 0.16827 -0.17756 -0.052901 0.055456 0.057253 -0.128881 0.052534 0.293794 0.215936 -0.042191 0.051492 -0.083139 -0.037911 0.10892 0.014079 0.182417 -0.069847 0.044903 -0.082355 0.156042 -0.11172 -0.100245 -0.050986 0.080645 -0.011823 0.110605
-0.013698 -0.023095 -0.058456 -0.03195 -0.034398 -0.04118 -0.023354 0.004781 -0.122381 -0.113633 0.151917 0.107985 -0.016987 -0.052931 0.001215 0.079985 -0.164868 0.103133 0.172941 0.063287 0.04419 0.139557 0.168571 -0.053489 -0.252181 -0.100945 -0.16491 0.144152 0.265533 0.043668 0.004951 0.144841 -0.163475 0.100613 -0.087922 -0.010674 0.03778 0.069699 0.011267 0.040228 -0.101552 0.024714 -0.012933 0.06985 0.028083 -0.021545 0.004893 -0.117548 -0.144417 0.027679 0.129874 0.077289 -0.203466 -0.046501 0.045284 -0.031293 -0.078261 -0.032056 0.086122 0.031898 -0.088967 -0.074202 -0.211753 -0.175907 -0.119172 0.096754 -0.144319 0.035316 0.135785 -0.075594 -0.066007 0.054066 -0.009872 -0.091325 0.250657 0.063803 -0.038366 -0.043134 -0.02471 -0.116206 0.026293 0.049256 0.056219 -0.196025 0.020496 0.136805 0.124839 0.041895 0.043661 -0.006771 -0.232792 -0.113832 -0.045685 0.007308 0.019672 -0.142545 -0.027193 -0.035709 -0.042056 -0.023388
-0.098513 0.105692 0.030325 -0.082913 -0.101971 -0.160935 -0.148515 -0.108101 -0.046061 0.158412 0.076181 0.136029 -0.014867 -0.036817 0.18416 0.171711 0.105708 0.188782 0.189945 -0.017203 0.003223 0.118295 0.139557 0.090117 -0.079274 -0.046713 0.009294 -0.165555 0.167971 -0.073241 -0.109104 0.033998 -0.087932 -0.02013 -0.061829 0.068415 0.043247 0.034602 0.026338 0.151464 0.002239 0.150113 0.089355 0.023872 -0.073345 -0.002644 0.0715 -0.046966 -0.120231 0.151086 0.019711 0.024837 -0.072606 0.121172 0.027173 -0.120475 0.032321 0.050192 -0.038653 0.052068 0.056621 0.010363 -0.03509 -0.031462 -0.075598 -0.079086 0.238504 -0.047199 0.008195 -0.106233 -0.185297 -0.126646 -0.021988 -0.011561 0.161499 -0.109245 -0.12245 0.072037 0.084938 -0.184826 0.011814 0.24152 0.09503 -0.072033 0.001589 0.081391 6.6E-4 0.001239 -0.012732 0.071768 -0.212927 -0.108879 -0.038726 -0.034537 -0.019281 -0.114473 0.085057 -0.006486 -0.060776 0.020438
0.07611 6.176937 -4.024954 -0.152799 -2.611577 -0.115381 0.932446 1.946854 1.311749 -0.324909 -0.427938 1.262544 -0.68511 3.632591 1.927551 1.270604 2.426764 -0.977381 -0.421679 -1.494797 -2.423079 0.333647 2.486931 -0.104988 1.926675 -1.838044 -1.601556 3.130612 -2.23777 -1.452693 -0.454798 1.310511 1.673438 2.141662 -2.485883 -0.304088 1.858173 1.644059 1.345879 -1.347004 -2.571566 -3.26268 1.576922 1.958896 -2.542197 -4.008856 -0.937075 0.586795 1.228258 1.083476 1.167285 -2.397261 2.037039 2.522987 0.662491 5.506076 0.171352 1.72639 0.260488 -3.582518 -4.282837 -0.768711 -3.866513 1.338652 0.729399 0.19433 2.075198 1.005766 -1.587821 0.855072 1.177313 0.970442 -1.559649 0.667002 1.205354 1.776141 0.068128 1.277045 3.049097 1.409261 2.45482 -2.465083 2.571739 -3.216688 -1.342003 -0.907837 2.906307 0.454904 3.753747 2.751511 -2.881533 2.515108 1.234815 -2.305182 -2.053955 -2.38751 0.287504 -1.379754 -1.367956 3.266842
-0.053833 0.079877 0.072856 0.139498 -0.105369 0.004769 -0.27073 -0.096518 -0.168103 -0.103006 0.202092 0.363744 -0.141267 -0.129923 0.01534 0.19683 -0.187167 0.111945 0.109179 -0.016332 0.035184 0.139347 0.315416 0.181261 -0.257633 -0.053217 -0.053058 -0.098832 0.23437 -0.331022 -0.084191 -0.075678 -0.001831 -0.110346 -0.013756 -0.266761 0.034555 -0.008762 -0.150297 0.165393 -0.060494 -0.197826 0.147763 -0.035721 0.031472 -0.210231 -0.085577 -0.109783 -0.244063 0.165008 0.054471 -0.00802 0.010601 -0.037268 0.221023 -0.133451 0.002637 -0.019477 0.129964 0.041991 -0.012534 -0.093924 -0.069187 -0.137315 -0.125857 -0.019287 -0.075852 -0.025292 0.08558 -0.045041 0.044839 -0.045932 0.096927 -0.044108 0.128249 -0.290646 -0.150284 -0.045275 0.037713 0.15651 0.143393 -0.066424 0.296246 -0.291488 0.055917 0.059085 0.065453 0.001004 0.226514 0.017525 -0.201115 -0.040421 -0.006957 -0.001567 -0.074785 -0.124046 0.079696 -0.095859 -0.218243 -0.010996
0.090883 0.526332 0.121659 0.058767 0.068004 -0.052939 -0.03036 0.019917 -0.100749 0.022209 0.118165 0.218106 0.030294 0.35558 0.06607 -0.095375 -0.552281 0.497461 0.063421 -0.204522 -0.082645 -0.234211 -0.443169 0.003893 0.006802 -0.180411 0.180154 -0.187724 0.193379 0.064344 0.0297 0.196403 -0.353689 0.225649 0.25053 -0.109914 0.332521 0.095775 0.123978 -0.006529 0.064103 -0.081479 -0.180861 -0.204943 -0.23158 0.327401 0.046328 0.311984 0.122373 0.031536 0.220764 -0.068801 -0.214679 0.143114 -0.433783 0.088131 -0.401839 0.154728 0.065682 -0.216492 -0.067131 -0.148045 -0.03601 -0.237866 -0.128177 0.04055 0.059027 0.339236 0.670093 0.235338 0.294024 -0.078505 0.323344 0.012815 0.145244 0.294084 -0.359553 -0.209934 0.051978 -0.247773 0.165837 0.10845 0.046671 -0.10159 -0.086392 0.028085 0.445767 -0.250072 -0.007437 -0.023365 -0.140992 -0.110577 -0.242099 0.226784 0.029636 -0.542972 0.237689 0.008885 0.596097 0.154759
0.060854 -0.011986 -0.038491 -0.215355 -0.196333 0.013959 -0.162443 0.134481 -0.212497 0.029634 0.027952 0.080762 -0.014948 0.07979 0.015262 0.106256 -0.140167 0.062221 0.056658 0.003705 -0.127495 0.040146 0.071066 0.123334 -0.170067 0.049084 0.064598 0.034576 -0.153861 0.059129 -0.122907 0.101599 -0.03729 -0.144749 -0.054557 -0.088295 -0.096698 -0.031594 -0.004937 -0.058224 0.001627 0.103749 0.057639 0.173077 -0.067248 -0.148184 0.083801 0.091989 -0.051326 0.080511 -0.039954 -0.034848 -0.141769 0.053141 0.11912 -0.065528 0.056766 -0.008784 0.041694 -0.183181 0.047779 -0.041783 0.00709 -0.08381 0.007302 0.024247 -0.021254 -0.09643 -0.074851 -0.010163 -0.029143 -0.169037 0.234911 -0.065547 0.066872 -0.113811 0.166807 0.067121 -0.162991 0.064033 0.092899 0.075295 0.092263 0.124227 -0.013228 -0.080937 0.005278 0.092741 0.111105 0.017927 -0.012814 0.028827 -0.039962 0.069081 -0.075695 -0.087783 -0.156934 -0.049833 0.008716 -0.058487
0.0 0.0 0.0 0.0 0.0 0.0 0.0 0.0 0.0 0.0 0.0 0.0 0.0 0.0 0.0 0.0 0.0 0.0 0.0 0.0 0.0 0.0 0.0 0.0 0.0 0.0 0.0 0.0 0.0 0.0 0.0 0.0 0.0 0.0 0.0 0.0 0.0 0.0 0.0 0.0 0.0 0.0 0.0 0.0 0.0 0.0 0.0 0.0 0.0 0.0 0.0 0.0 0.0 0.0 0.0 0.0 0.0 0.0 0.0 0.0 0.0 0.0 0.0 0.0 0.0 0.0 0.0 0.0 0.0 0.0 0.0 0.0 0.0 0.0 0.0 0.0 0.0 0.0 0.0 0.0 0.0 0.0 0.0 0.0 0.0 0.0 0.0 0.0 0.0 0.0 0.0 0.0 0.0 0.0 0.0 0.0 0.0 0.0 0.0 0.0
-0.096904 -0.049504 -0.082471 -0.050801 -0.175429 0.021206 0.034848 0.045176 -0.193814 0.016602 0.164478 0.025249 -0.024159 -0.110062 -0.136905 0.065549 0.103004 0.160755 -0.009444 -0.125299 -0.114883 0.040214 0.191318 -0.081817 0.066316 -0.065548 -0.067374 -0.085891 0.113077 -0.121134 -0.10236 0.003337 -0.18259 -0.194313 -0.039843 -0.331344 -0.047765 -0.082314 -0.072703 0.049634 -0.144728 0.101607 -0.160328 0.150916 -0.001313 -0.182803 0.231857 0.098347 -0.006359 0.071247 -0.106722 -0.262918 0.005404 0.108825 0.097083 -0.109244 0.053893 -0.128451 0.190794 -0.069653 0.238598 -0.146518 0.037883 -0.085972 0.02993 0.106087 0.336965 -0.160098 0.129957 0.065108 -0.147377 0.095608 0.178532 -0.033717 -0.023657 0.038147 -0.146698 -0.014592 0.163545 -0.012975 0.050209 0.038704 0.231172 -0.015421 -0.038847 0.011368 -0.004337 0.04574 0.057537 0.210886 -0.060135 0.090964 0.080115 -0.014874 -0.066099 0.035194 -0.020067 -0.273852 0.060846 -0.102303
-0.216608 -0.135263 0.271362 0.064631 -0.058472 0.007236 -0.105295 -0.067634 -0.178555 -0.063222 0.176318 0.001652 -0.070044 0.037822 0.172801 0.12771 0.058199 0.16586 -0.077341 0.120071 -0.154733 0.161664 0.291504 0.113562 -0.051629 -0.227728 -0.120683 -0.018789 0.021112 -0.156981 -0.055216 -0.150219 0.028774 0.006067 0.008834 0.083017 0.087725 0.10309 0.144559 0.230401 -0.145693 -0.003684 0.046353 0.177527 0.089936 -0.188201 -0.014907 -0.080068 -0.009225 0.080584 0.247199 0.027727 -0.023643 -0.333408 0.080675 -0.009407 0.001642 -0.139457 0.103284 -0.065379 -0.067105 -0.208892 -0.147464 -0.189518 0.068986 -0.133539 -0.101328 -0.17995 -0.04107 -0.066256 0.014339 0.094617 -0.039733 -0.009701 0.132607 -0.0652 -0.233482 -0.146858 -0.004052 -0.222281 -0.051324 -0.077138 0.144242 -0.164035 -0.018531 -0.175091 0.132275 -0.148507 0.099047 0.175248 0.122157 0.03334 0.073291 0.004423 -0.025155 -0.054521 0.05249 -0.01786 0.107547 -0.007077
-0.129067 -0.113554 0.195234 -0.008662 -0.095153 -0.027319 -0.034125 -0.031034 0.022977 -0.056288 0.065937 0.185001 -0.073688 -0.018591 0.080667 0.237784 -0.091857 0.042956 0.101388 0.067695 -0.234587 0.039212 0.077909 0.10557 -0.086965 -0.082327 -0.141033 -0.139811 0.037951 0.036272 0.035441 0.09111 -0.112334 0.1592 -0.060622 0.055438 -0.101821 -0.047715 0.065265 -0.100946 -0.041227 -2.51E-4 0.074069 0.024549 -0.019402 0.159318 -0.0153 -0.037385 -0.048032 0.189327 0.134551 -0.103409 0.080822 -0.065011 -0.03315 -0.062305 -0.055327 -0.073002 -0.133805 -0.086127 0.090105 -0.017355 0.029598 0.055139 -0.016446 -0.024824 0.026846 -0.057991 0.090426 -0.045962 -0.069375 0.068885 0.110666 0.012184 -0.149988 -0.026693 -0.029167 0.120767 0.011413 -0.079894 0.084013 0.112918 0.179038 -0.048838 0.00904 -0.109606 0.15987 0.093522 0.107501 0.138552 -0.051446 -0.062928 -0.067289 0.051458 0.011289 -0.049704 -0.04783 -0.030251 -0.016002 -0.014731
-0.081243 0.014288 0.141832 0.169835 -0.07063 0.050423 0.007212 0.023369 0.028444 0.065155 0.029187 0.144009 0.017439 0.058671 0.179832 0.294625 -0.077976 0.072793 -0.083347 -0.052646 -0.139295 -0.174095 0.05428 0.096476 -0.146998 -0.137157 -0.091675 0.110618 0.039667 -0.003738 0.001405 0.046183 -0.165569 0.071849 0.026565 -0.040881 0.022336 -0.076486 -0.233142 -0.086342 0.116275 0.050207 -0.061 -0.004084 -0.063425 0.080617 0.010602 0.021403 -0.027368 0.093415 0.20316 -0.078762 0.113226 0.082109 0.027331 -0.190902 -0.160979 0.007501 -0.010056 -0.044335 0.019743 -0.033257 -0.155777 -0.038802 -0.016117 0.087647 0.140413 0.013305 0.093126 0.003327 0.028678 0.019731 0.195813 0.003292 -0.037918 -0.044588 -0.063843 0.189522 -0.122383 -0.139708 0.00695 0.029982 0.073643 -0.076897 -0.036372 -0.112628 0.124654 0.048208 0.049204 -0.042779 -0.071155 -0.050936 -0.0422 0.147996 -0.183973 -0.145161 0.074129 -0.074563 0.065068 -0.012333
-0.123206 -0.100466 0.033243 0.077 0.179319 0.017614 -0.213811 0.006909 0.040688 -0.005939 0.169882 -0.011291 0.039273 -0.072059 0.265201 0.131076 -0.197205 0.18388 0.101345 -0.031916 -0.174318 -0.027724 0.09908 0.042575 -0.156309 -0.085915 -0.007616 -0.01886 0.014835 -0.178846 0.04764 0.155708 -0.058266 0.108582 -0.22361 -0.158065 0.055741 -0.106418 0.0566 0.056205 0.068477 -0.015639 0.07966 0.217827 -0.087038 -0.013006 0.045994 0.061203 -0.240925 0.174703 0.013485 0.1065 -0.1214 0.120009 0.073172 0.163889 -0.035355 -0.014525 0.003944 -0.185124 0.064569 -0.174246 0.088216 -0.058944 -0.040741 0.031097 0.04478 0.0277 0.069906 0.013228 -0.039618 -0.031374 -0.101997 0.014663 0.134126 -0.120279 -0.089788 5.05E-4 0.037787 -0.091697 0.095113 0.242647 0.048629 -0.06049 -0.043156 0.026519 -0.168255 -0.118608 0.074704 0.047452 -0.18402 -0.115334 -0.056956 0.115259 0.098713 -0.367984 -0.133056 -0.058586 0.008264 0.00623
0.073978 -0.132071 0.159513 0.056146 -0.063102 0.046065 -0.035753 -0.092846 -0.078191 -0.026107 0.215206 0.103492 -0.104358 -0.004707 0.065615 0.101643 -0.204928 0.111922 -0.073225 0.091111 0.108652 -0.099917 -0.037111 0.061356 -0.269968 0.010343 0.086444 0.022215 0.225009 -0.181001 -0.058045 -0.009519 -0.171949 -0.03447 -0.005729 0.041119 0.138192 -0.063637 -0.117963 0.002045 0.112797 -0.203134 0.085518 -0.036679 0.06091 0.139162 -0.012989 0.135919 -0.112389 -0.057426 0.175547 -0.231012 -0.12999 -0.019157 0.150613 -0.069222 -0.122846 0.168485 -0.057241 -0.038375 -0.109202 -0.147838 0.118627 -0.013549 -0.111634 -0.08108 -0.184899 -0.13827 0.063954 -0.003242 0.083679 0.022958 0.048618 -0.115389 -0.006092 0.088548 -0.04818 -0.113192 -0.017698 -0.063982 0.054088 -0.11563 0.187888 0.079867 -0.154587 0.013477 -0.083385 -0.084912 0.051787 0.094155 -0.08032 -0.059453 0.026693 -0.029322 -0.004369 -0.048063 -0.080665 0.052223 -0.13938 -0.029253
-0.046453 -0.114089 0.048378 0.039697 0.205342 -0.134425 0.195579 -0.187425 0.012362 -0.056148 -0.131226 -0.036605 -0.166618 -0.005606 0.011423 -0.035289 0.073024 0.049955 -0.03056 -0.116564 -4.0E-4 0.248965 0.168589 -0.016666 -0.127127 -3.18E-4 0.127741 -0.107854 0.05539 -0.111124 -0.041902 -0.11626 0.086201 0.191946 -0.031307 -0.026238 0.135582 -0.138117 -0.118683 -0.205278 -0.118941 0.075416 -0.021621 -0.074612 0.105553 0.141257 -0.097239 0.031083 -0.191864 0.157126 0.157338 0.018714 -0.190255 -0.078835 0.160698 0.051121 -0.022634 0.282011 -0.210636 0.065967 0.011387 -0.10215 -0.014587 8.06E-4 -0.126806 0.10146 -0.051249 -0.166886 0.138311 -0.092453 -0.203714 0.163209 0.126385 -0.163049 0.060969 -0.136489 -0.119169 0.143901 -0.166778 -0.074124 -0.205023 0.138254 -0.069697 -0.023512 0.056226 -0.151985 0.057434 -0.163405 0.084998 0.19969 0.169875 -0.038445 0.015784 -0.127481 -0.113888 -0.245198 0.065981 0.165014 0.001608 -0.042748
-0.029286 -0.014455 0.059149 0.033118 -0.032637 -0.067667 -0.08093 0.027355 -0.160822 0.06104 0.064252 -0.015261 -0.23257 0.159481 0.071223 0.078452 0.02138 0.031978 -0.070376 0.051055 0.167258 -0.024817 0.197827 0.065265 -0.076168 0.011676 -0.029734 0.143341 0.05525 -0.036865 -0.015966 0.031316 0.07905 0.08625 0.02865 0.036293 -0.052834 -0.183621 0.138387 0.091953 -0.154564 -0.126113 -0.090987 0.031969 0.097322 0.022643 -0.092082 -0.019082 -8.9E-4 -0.133906 0.06438 -0.089912 0.03693 0.137816 -0.11469 0.064534 -0.08614 0.001976 0.0226 -0.148874 -0.107001 0.042298 -0.03552 -0.084001 -0.01756 -0.03727 0.068266 -0.097254 0.068175 0.036138 0.111631 0.014317 -0.061953 -0.078465 0.038628 -0.078335 -0.164786 -0.038389 0.117773 -0.136854 0.103996 -0.032816 0.069406 0.009716 -0.086636 0.182745 0.01029 -0.019687 -0.087212 -6.07E-4 0.063293 -0.016581 -0.118043 -0.009156 0.083954 0.032562 0.046468 -0.053734 -0.025457 -0.002224
-0.055181 -0.092678 -0.022107 0.08712 -0.101184 -0.177112 -0.076408 0.006569 -0.135864 0.009218 0.149526 0.046041 -0.184596 0.105353 0.061596 0.159773 0.012365 0.006049 0.17019 0.058319 -0.103075 0.189919 0.142835 0.068681 -0.163124 -0.217384 -0.080896 0.041775 0.206721 -0.18616 0.081685 0.031375 -0.142672 0.057867 -0.038573 0.077913 -0.002953 -0.079231 0.019953 0.061209 0.033035 -0.076174 -0.019854 0.086351 0.163353 -0.029554 0.045185 0.008684 -0.035896 0.170436 0.106 -0.230473 -0.114574 -0.054562 0.179283 0.124264 -0.021861 -8.14E-4 0.010991 -0.082285 -0.061133 -0.209933 -0.042535 -0.24434 -0.052061 0.055039 -0.0765 0.011459 -0.186665 0.108366 0.004851 0.039243 -0.054653 -0.003782 0.15306 -0.006873 -0.008529 -0.074 -0.113743 -0.132941 0.188758 -0.134712 0.120189 -0.075198 0.13826 -0.06336 0.089864 -0.043055 0.095522 0.090066 -0.021111 -0.187141 -0.086231 -0.031694 -0.020262 -0.162338 -0.067745 -0.094713 0.256494 -0.045589
0.01548 0.025151 -0.171811 -0.125964 -0.264697 0.086684 -0.215925 -0.110016 -0.078016 0.013371 -0.077479 0.225295 -0.089887 0.12108 0.002062 0.206942 -0.040461 0.076426 0.011493 0.093152 -0.049979 0.077854 0.01193 -0.02458 -0.142604 -0.124212 -0.054299 0.041692 0.155918 -0.087436 0.051924 -0.070559 -0.082198 0.040906 -0.179043 -0.077939 0.080188 -0.073962 -0.147347 -0.009196 -0.0053 0.124506 0.032741 -0.088478 0.071644 0.082317 -0.130234 0.068279 -0.017972 0.117363 -0.009807 -0.033293 -0.039965 0.147942 0.112202 0.02891 -0.206359 0.007467 -0.218025 -0.007707 0.103338 -0.211612 -0.055968 0.055725 -0.075463 -0.010635 0.064548 -0.010017 0.12974 0.098223 0.026881 0.067197 0.044252 -0.037663 0.174462 0.077017 -0.134254 -0.087728 -0.082737 -0.09783 0.068261 0.313639 0.015114 -0.065801 -0.059541 -0.100969 0.082645 0.179258 0.005976 -0.122086 -0.053574 -0.012123 -0.073684 0.13819 -0.158909 -0.085395 -3.6E-5 -0.135644 0.051405 -0.046334
0.094223 -0.104534 -0.058178 -0.064336 -0.012363 -0.162254 2.77E-4 -0.215028 0.052711 -0.134746 -0.102826 0.362072 -0.106484 0.087898 -0.008254 0.090119 0.138544 -0.057429 0.028453 -0.11556 0.133543 0.265763 0.158603 -0.192007 -0.076262 -0.043757 0.156408 0.187246 0.27243 -0.261297 -0.086126 -0.008257 0.084365 -0.036606 -0.10291 -0.229943 -0.191614 0.047426 -0.123834 -0.20206 -0.137034 -0.300277 -0.100594 0.140474 0.177006 0.116518 0.062702 0.022283 0.30298 -0.193076 -0.012676 0.010878 0.031993 -0.219469 -0.001472 0.00779 -0.08782 0.14855 -0.120736 0.284018 0.096455 0.028455 -0.218594 -0.089837 0.05349 -0.143472 -0.082003 -0.076166 0.065492 0.207805 -0.063866 0.066365 -0.003418 -0.086923 0.073735 0.104185 0.216182 -0.136043 0.010958 -0.163906 -0.019109 0.187181 0.075821 -0.095325 -0.013923 -0.091047 -0.102799 -0.07506 -0.036313 0.16803 -0.108852 0.05121 -0.207043 0.089349 -0.013639 0.068065 -0.151776 0.051012 0.00879 0.06711
-1.174438 -1.779496 -2.884643 -1.980569 -1.811442 0.802219 3.24162 2.13542 1.072113 -6.30087 -0.536639 -1.391427 -2.88417 4.246961 -3.027189 0.946365 -0.026784 0.247014 -0.762893 2.913034 -0.263349 -0.956588 0.152459 -0.316076 -2.226356 0.573865 1.412833 -0.226441 1.261183 -0.212977 1.771552 -2.369826 -4.170671 0.13249 0.868273 1.147922 2.430621 -1.968543 -4.578587 -2.986281 3.871865 -0.823217 2.595884 3.480093 0.533133 0.878431 0.387692 2.462725 0.223327 1.141813 -0.441701 2.712278 2.231814 -2.734433 -2.793043 -1.460152 -1.258203 -0.320362 -0.011213 3.948059 2.23208 0.576536 -2.914066 2.651914 -0.503334 1.199899 -4.674464 -1.500644 1.760803 2.473771 0.178545 2.73978 1.645898 1.133394 -0.108783 0.105876 2.282132 1.002993 -0.423922 -1.306339 1.345819 -2.456647 -2.401045 4.065031 0.113419 -2.520884 1.615937 1.110972 1.543527 -2.373648 -2.88938 0.002854 -1.364661 3.250194 -4.113174 -3.347918 -4.282845 0.18644 -3.493049 -2.841606
