-0.026799 -0.103797 0.112651 -0.259641 -0.103915 0.088316 -0.053088 -0.022809 0.009437 -0.09753 0.060073 0.126938 -0.120166 -0.201027 -0.031192 0.114149 -0.054812 0.193163 0.102408 0.014485 -0.142804 0.004168 0.106051 0.11444 -0.218755 -0.190187 0.08501 -0.064668 -0.128386 0.029669 -0.065954 0.042625 -0.391147 -0.09788 -0.127327 0.028785 0.023364 -0.057131 -0.029977 -0.052351 -0.109947 0.189529 -0.137615 0.126845 -0.031891 -0.070696 -0.021912 0.047885 0.00687 0.096735 0.088226 -0.067865 -0.012925 0.020968 -0.00858 0.059358 0.11823 -0.176081 -0.213955 -0.175354 0.240854 -0.072666 0.023853 -0.029982 0.089821 0.130766 0.016941 0.178835 -0.00797 -0.080021 -0.044534 0.049337 -0.037857 -0.1511 0.060476 -0.006618 0.145705 0.04376 -0.128786 -0.038244 0.01883 -0.008851 0.060935 -0.194196 0.098924 0.049666 0.05715 0.08558 0.098442 0.050731 -0.160965 -0.078077 -0.002686 -0.001068 -0.122167 -0.028315 -0.037337 -0.071233 -0.050617 -0.095917
2.01044 1.232296 -2.549912 -2.032197 2.108218 0.350754 3.984176 -0.781111 1.754388 -2.314295 2.355634 -1.525834 1.226472 -1.541329 -3.304575 2.991044 -1.391115 -2.323146 -2.15385 -2.980392 2.344315 -2.676041 1.909837 -5.523956 -1.061176 -1.804773 -0.560027 -2.255916 -1.094577 -1.063408 0.662731 -2.102897 -3.864523 -7.571391 -1.344896 0.094571 0.367136 1.570184 0.648031 -0.688728 -0.946578 -0.092235 -2.489474 -1.986418 -1.624544 2.498297 1.250083 -1.068359 1.883808 -2.927913 -1.745434 -2.058515 -0.512999 0.410537 1.644372 -2.957222 1.082306 2.233394 3.431873 -2.073999 1.844186 -1.494935 0.390434 1.564615 -2.929395 -0.086005 -1.048035 -6.680551 1.315066 2.524979 4.404657 4.649625 1.632009 -3.155071 -4.040797 -1.548602 1.77773 -0.139533 -0.426028 0.428942 0.053434 -1.593569 3.168037 1.766949 4.17124 2.646524 2.776018 3.211581 -0.17617 -0.149054 -1.677979 1.48727 -4.970527 -4.785122 -2.199308 0.014736 -3.178869 1.436958 -1.954018 -3.116458
0.023642 -0.033418 -0.065368 -0.077237 -0.023131 -0.01666 0.109329 -0.071902 0.062801 0.039845 0.148795 0.022279 -0.033313 0.021808 0.239187 -0.08721 -0.175498 0.029081 -0.040827 -0.029276 -0.086098 -0.15902 -0.033398 0.042278 0.124981 -0.030765 0.028417 0.073894 0.00855 0.035667 0.163449 0.099048 0.038305 0.314216 -0.005392 0.066826 0.260304 -0.189638 0.116148 -0.02674 -0.202298 -0.147073 0.073175 0.053558 0.012863 -0.065298 -0.053548 0.046997 0.014493 -0.044561 0.024142 -0.019223 -0.004661 0.10688 -0.154323 -0.118686 -0.028957 0.035459 0.064979 -0.101714 -0.025905 0.022247 0.012568 -0.044777 0.097248 0.19805 0.003512 0.018858 -0.090285 -0.060881 0.118181 -0.047211 0.105442 -0.116777 0.073733 -0.093917 -0.004179 -0.060928 -0.124383 -0.099921 -0.177899 -0.120009 -0.020528 -0.038147 0.030294 -0.114024 0.168003 -0.110367 0.103009 0.112822 0.19629 -0.164199 -0.072139 0.020273 -0.021859 0.072884 0.002728 0.055319 0.086852 0.084518
0.218334 -0.102072 0.017695 -0.150327 0.175791 0.04384 -0.120304 -0.21911 -0.051189 0.008236 0.058693 0.239972 0.023075 -0.082684 0.081915 0.142156 -0.056908 0.058243 0.121187 -0.129128 -0.089684 -0.042328 0.148075 -0.057426 -0.144873 -0.063199 -0.173262 -0.073955 0.098928 0.09511 0.029228 0.018614 -0.221443 0.238896 -0.013021 -0.071592 -0.018425 -0.121919 0.024562 0.092997 0.011834 0.073757 -0.154458 0.227941 -0.059304 -0.138254 -0.079277 0.202736 -0.190544 0.149728 0.137853 0.166227 -0.19684 -0.012013 -0.069598 -0.031689 -0.065739 -0.051362 0.170307 -0.020565 -0.034294 -0.31549 0.018852 -0.151771 0.131043 0.255453 0.065445 0.126197 0.122998 0.008633 -0.048714 0.223198 -0.025164 -0.180798 -0.018399 -0.118801 -0.006148 0.069329 -0.085397 -0.044707 -0.199218 0.251135 0.162042 -0.12222 0.127733 0.026814 0.139295 0.005052 0.132109 0.044974 0.126601 0.024166 0.150338 0.128724 -0.159042 -0.088518 0.024277 0.002801 0.075393 -0.077829
0.058611 -0.025707 0.009083 0.281898 -0.107077 -0.063898 -0.069111 -0.055276 -0.00743 0.057279 0.248092 0.257205 0.25241 -0.115909 0.040802 0.08175 -0.102271 0.155509 0.149172 0.110325 -0.007143 0.322777 0.222061 0.059627 -0.13034 0.045511 -0.118192 -0.171304 0.184581 -0.164376 -0.022539 0.215194 0.074216 0.089487 -0.125267 -0.328539 0.096161 -0.049843 0.054126 0.156474 -0.022333 0.008632 -0.3084 -0.192104 -0.059978 -0.224112 0.05014 -0.09453 -0.226503 0.039381 0.225197 -0.182 -0.101529 -0.13443 0.249428 -0.148625 0.04889 0.017878 0.266663 -0.04005 -0.019303 -0.089275 -0.05738 -0.103893 -0.112942 -0.280967 0.067351 -0.056787 0.142197 -0.230646 -0.267832 0.023288 -0.007063 0.029684 -0.032071 -0.072642 -0.167821 -0.1502 0.007036 -0.025185 0.143752 0.169394 0.028253 -0.235047 0.057009 -0.060481 -0.155239 -0.270344 0.169783 0.098671 -0.058447 0.097549 -0.016037 -0.005357 -0.111782 -0.143322 -0.079327 -0.164459 -0.124413 -0.217765
0.051237 -0.139437 0.047599 0.138706 -0.260028 -0.135098 0.108012 0.029211 0.119639 -0.036176 0.298166 -0.037248 0.29938 0.097709 0.051032 -0.150747 0.078452 2.02E-4 -0.020691 -0.009569 -0.288112 -0.104467 -0.012865 -0.083482 0.026646 0.173788 -0.221455 -0.056052 0.012784 0.211935 0.13111 -0.003991 0.085962 0.106441 -0.145648 -0.085398 -0.028018 -0.093372 -0.090829 0.019145 -0.040941 -0.002546 -0.156202 -0.187785 0.138427 0.124643 -0.114068 0.079216 -0.012363 0.057702 0.260935 0.018578 -0.008276 0.059932 0.095004 -0.15551 -0.028137 -0.319332 -0.050855 0.083543 0.154201 -0.025567 0.083891 -0.093628 -0.101399 0.02701 0.051254 -0.01557 0.011846 -0.097278 0.165947 0.248113 -0.252472 -0.169089 0.068755 -0.053146 0.036404 -0.054959 0.229116 -0.087714 -0.180585 -0.005845 -0.040225 0.045608 0.003736 -0.017018 0.140606 0.043035 -0.229877 -0.132084 -0.181893 -0.17784 0.10736 -0.147987 -0.055678 -0.153436 0.289803 -0.02371 0.210645 0.054602
0.013883 -0.28098 -0.297355 0.071706 0.080866 0.087137 0.077144 0.06957 0.007659 -0.099745 -0.006756 -0.046749 -0.08005 -0.009102 -0.1461 0.041284 -0.040279 -0.115848 0.223701 0.120415 -0.015305 0.143659 0.050198 0.132634 -0.550212 0.111231 0.033643 -0.353848 0.274659 -0.07763 -0.093695 0.447562 -0.022228 -0.132173 -0.263503 -0.310375 0.074264 -0.223452 -0.324164 -0.305555 -0.091102 0.060829 0.174302 0.091978 0.12474 -0.410404 -0.043659 0.29657 0.054975 0.019371 -0.028528 0.184481 -0.141713 0.373909 0.142827 0.114857 0.160542 -0.001889 -0.044079 -0.059214 0.342195 0.261266 0.029529 -0.447311 -0.299753 0.023449 0.063243 0.042939 0.041818 -0.002839 -0.077664 -0.255822 -0.245325 -0.134952 0.108221 -0.287312 -0.193231 -0.186374 -0.119567 0.121479 0.04744 0.505578 0.261505 -0.05878 0.340179 -0.16902 0.119797 0.125583 0.311746 0.28275 -0.063502 -0.050259 -0.400715 0.320676 0.245458 -0.399957 0.079094 -0.156388 0.136565 0.058158
-0.125639 0.007775 0.063113 0.043013 -0.105364 0.098299 -0.270587 -0.26087 -0.28413 0.158877 -0.142315 -0.096949 0.084617 0.102914 0.043798 0.096377 -0.002532 0.070942 0.043849 -0.004767 0.020748 -0.078788 0.235073 0.084422 -0.104876 -0.035789 -0.254292 -0.213096 0.017324 -0.277665 3.97E-4 0.151322 -0.063431 0.090051 -0.054254 -0.047159 0.004453 0.093534 -0.163237 0.128707 0.106315 0.168286 -0.152768 -0.017894 -0.097432 -0.102532 0.041699 0.040345 -0.174541 0.012375 0.040193 0.126647 0.020608 0.101553 0.147668 -0.043473 -0.021233 0.012197 0.036481 -0.221988 -0.036222 -0.16215 -0.192712 -0.076165 -0.157223 0.058902 0.120369 -0.02637 0.251153 -0.090504 0.107011 -0.093113 0.008781 0.056272 0.14265 -0.217934 -0.281515 0.120096 -0.115322 -0.046669 -0.058418 0.110613 0.063535 -0.123797 0.065984 -0.094872 0.183437 0.020636 0.146837 -0.045586 -0.101833 -0.147428 0.005713 0.154838 -0.045928 -0.171086 0.186705 0.076499 0.05521 -0.039688
0.092506 -0.190181 -0.169651 -0.176859 -0.157274 0.117434 -0.246053 -0.095055 -0.226845 0.056095 -0.066084 0.025004 -0.043226 -0.06793 -0.068137 0.165682 0.061116 0.071951 0.064888 0.034774 -0.026295 0.078465 0.039067 -0.01204 -0.068662 -0.153453 0.017397 -0.052319 0.055524 -0.091639 0.124383 0.018886 -0.198151 0.077424 -0.103548 0.018512 -0.201059 0.101664 0.168027 0.022853 0.047591 -0.143808 -0.088134 0.074183 -0.119839 -0.069799 -0.289185 -0.063018 -0.136762 0.08873 0.186365 0.03422 -0.076668 -0.108907 0.163803 0.019469 -0.087732 -0.04543 1.34E-4 -0.053077 -0.090084 -0.032118 0.017588 -0.110636 0.093312 0.082828 -0.008866 -0.122675 0.005555 -0.156537 0.059343 0.058546 0.136846 -0.008335 0.094648 -0.058541 0.079997 0.127917 -0.051985 -0.109897 0.141124 -0.007186 0.001759 0.100589 -0.004111 0.049543 -0.027096 0.154899 0.081346 0.093517 -0.033063 -0.068032 0.135419 7.35E-4 -0.010201 0.097192 -0.043545 -0.058325 0.031733 0.071254
-0.108733 -0.061423 -0.098863 -0.132174 0.184499 -0.159858 0.044677 0.091311 0.018223 0.206392 0.081431 0.184179 0.086857 -0.192188 0.062003 0.012817 -0.027886 0.136135 0.138969 -0.074148 0.157175 0.23459 0.08172 0.162628 -0.009311 0.056522 0.039702 0.086811 -0.104706 -0.112551 -0.082889 -0.070624 -0.169422 0.088699 -0.159366 0.019041 0.045287 0.042583 0.102902 -0.249259 -0.127177 0.005548 0.100066 0.140519 -0.113002 0.106162 -0.007585 -0.092711 -0.339348 -0.016454 0.327331 -0.065714 -0.053133 0.046734 -0.078521 -0.151404 -0.054898 0.120586 0.031034 -0.242538 -0.111968 0.087063 0.162687 -0.245404 -0.050231 -0.015502 -0.306047 -0.169036 -0.107036 0.126173 -0.088695 0.239271 -0.065743 0.175986 -0.147415 -0.182975 -0.107658 -0.289069 -0.144229 -0.006646 -0.025676 0.269919 0.169115 -0.18592 -0.171916 0.156869 0.058985 -0.044186 -0.091025 -0.205298 -0.183991 0.011627 0.369494 0.13835 0.141525 0.027377 -0.19293 0.150134 0.254698 -0.015459
0.051237 -0.139437 0.047599 0.138706 -0.260028 -0.135098 0.108012 0.029211 0.119639 -0.036176 0.298166 -0.037248 0.29938 0.097709 0.051032 -0.150747 0.078452 2.02E-4 -0.020691 -0.009569 -0.288112 -0.104467 -0.012865 -0.083482 0.026646 0.173788 -0.221455 -0.056052 0.012784 0.211935 0.13111 -0.003991 0.085962 0.106441 -0.145648 -0.085398 -0.028018 -0.093372 -0.090829 0.019145 -0.040941 -0.002546 -0.156202 -0.187785 0.138427 0.124643 -0.114068 0.079216 -0.012363 0.057702 0.260935 0.018578 -0.008276 0.059932 0.095004 -0.15551 -0.028137 -0.319332 -0.050855 0.083543 0.154201 -0.025567 0.083891 -0.093628 -0.101399 0.02701 0.051254 -0.01557 0.011846 -0.097278 0.165947 0.248113 -0.252472 -0.169089 0.068755 -0.053146 0.036404 -0.054959 0.229116 -0.087714 -0.180585 -0.005845 -0.040225 0.045608 0.003736 -0.017018 0.140606 0.043035 -0.229877 -0.132084 -0.181893 -0.17784 0.10736 -0.147987 -0.055678 -0.153436 0.289803 -0.02371 0.210645 0.054602
-0.168901 0.054492 0.072622 -0.026832 -0.061067 -0.065863 -0.040159 0.070495 -0.378667 0.071998 -0.0955 0.144678 0.163352 0.010203 0.061378 0.028427 -0.003352 0.290598 0.060476 0.079441 -0.121982 0.317985 0.378215 0.062831 -0.269183 -0.179195 -0.033057 -0.248127 0.179879 -0.140706 -0.054795 0.058283 -0.096844 0.087269 -0.159018 -0.052015 -0.030394 0.144866 -0.01789 0.080117 0.019935 0.13281 0.257111 -0.036541 -0.103489 -0.151543 -0.028161 3.5E-4 -0.054608 0.148443 0.116509 -0.169115 -0.178019 -0.077511 0.132461 -0.369784 0.089306 0.021407 0.255164 -0.019943 0.115504 -0.150847 -0.072612 -0.299716 -0.083056 0.124042 0.072113 0.074343 0.290595 -0.048057 -0.092798 -0.144987 -0.007426 -0.041234 0.153301 -0.091728 -0.07889 0.0163 0.018892 -0.017968 0.009823 0.314245 0.125526 0.218539 0.011483 0.157251 0.08197 -0.0147 -0.01526 0.138049 -0.104289 -0.249611 0.048139 -0.00772 -0.031712 -0.186274 0.113544 -0.091269 -0.092864 0.117331
-0.007343 -0.130395 -0.117898 0.052371 0.03976 -0.026888 -0.06984 -0.136085 -0.083718 0.076402 0.071049 0.107433 0.044127 0.085112 0.035476 -0.008399 -0.12269 0.004796 0.166003 -0.037139 -0.24001 -0.185058 0.272498 -0.191906 -0.020745 -0.130465 -0.110206 -0.005245 0.083831 0.013438 -0.090739 -0.102646 -0.09667 0.115072 0.003449 0.092229 0.10476 -0.029689 -0.092576 0.098445 -0.037352 0.064121 0.071781 0.248932 0.033733 -0.00103 -0.030162 0.092862 0.049813 -0.120404 0.052445 -0.078153 -0.110764 0.062863 0.22773 0.098973 -0.039269 -0.07014 0.088543 -0.092513 -0.02194 -0.216017 0.070921 -0.060721 0.120881 0.20247 0.057136 -0.02344 0.273102 -0.128525 -0.033988 -0.018558 -0.07418 -0.195685 -0.04484 -0.093741 0.033587 -0.046373 -0.047552 -0.068256 -0.043175 0.099313 0.106767 -0.126748 0.065089 0.087677 -0.016351 -0.046476 0.148911 -0.00801 0.123517 -0.028531 0.100896 0.299367 -0.122614 0.086749 -0.077316 0.085888 -0.013076 0.032294
-0.09067 -0.072452 -0.029969 0.041195 0.008034 -0.067001 0.027088 0.013088 -0.056415 0.020037 0.027725 0.03864 0.077856 0.057204 -0.126794 -0.075962 0.084863 -0.193561 -0.115548 -0.031015 -0.148968 -0.026676 0.01073 0.182989 0.069126 0.23577 -0.039018 0.115624 0.036649 -0.252333 -0.050148 0.09057 0.011043 0.160366 0.084074 0.062182 -0.129155 0.136218 0.258716 -0.035953 -0.046743 -0.229426 -0.065967 0.079041 0.111649 0.202503 -0.003308 -0.192093 -0.006333 -0.029196 -0.020928 -0.103588 -0.029498 0.060413 -0.214528 -0.019681 -0.241893 -0.062558 -0.025506 -0.034589 -0.185146 0.028277 -0.057065 -0.178886 0.07281 0.18637 0.031707 -0.026575 0.114957 0.183242 0.14145 -0.021234 -0.050322 0.181065 -0.023229 0.011694 -0.07374 -0.124929 0.173044 -0.283091 -0.02144 -0.065629 0.014598 0.011121 -0.13138 -0.211611 -0.066388 0.09092 -0.160608 -0.198549 -0.002838 0.044207 -0.100996 -0.08377 0.074862 0.145048 -0.020364 0.078934 -0.132652 -0.042272
-0.116389 0.09765 0.066104 0.158726 0.198379 0.047531 -0.008535 0.007456 0.158862 0.254073 -0.106314 -0.111249 -0.114792 0.071367 -0.156668 0.091674 0.008873 0.162859 0.070636 0.013168 -0.039059 0.042028 -0.017592 0.014581 -0.178261 -0.085911 -0.083454 -0.20639 -0.018141 -0.316969 -0.103959 0.026988 -0.027065 -0.112156 -0.183115 -0.006264 0.208403 0.125982 -0.054792 0.099994 0.189853 0.167484 0.082528 -0.03701 -0.098977 -0.051888 0.042046 0.156355 0.184488 -0.02542 -0.111231 0.018101 0.092701 -0.002172 0.135279 0.038887 -0.085099 -0.140704 0.108973 -0.10444 0.009482 0.087387 0.058725 -0.177286 -0.090671 0.161506 0.230349 0.09953 0.103142 -0.28976 -0.076213 0.093662 -0.05207 -0.072385 0.203237 0.12338 0.049389 0.210835 -0.124511 0.103745 -0.155276 0.052321 0.01464 0.134148 0.109781 0.029633 0.223994 0.129898 -0.061686 0.04951 -0.213677 -0.18188 0.006181 0.149627 -0.014129 -0.106723 -0.071732 -0.057015 -0.014188 0.08451
-0.068105 0.057237 0.070866 0.05373 -0.003941 -0.08651 0.017033 0.112962 0.238407 0.038327 -0.017675 0.083767 0.206155 0.054489 -0.028753 0.128266 0.050878 0.194653 0.071142 0.033408 -0.113644 0.116705 0.050537 -0.148958 0.124025 0.117311 0.075298 0.005352 0.080236 -0.156765 -0.029906 -0.004555 0.017032 0.017664 0.059945 0.093066 -0.133059 0.110377 -0.146383 0.031234 -0.058896 -0.04839 -0.093693 -0.237095 -0.016087 -0.025867 0.117389 -0.078465 0.015002 -0.013864 0.034387 0.094285 -0.02824 0.113394 0.194121 0.111633 -0.063858 0.071596 0.054361 0.143123 -0.154574 -0.05272 0.085481 0.05882 0.00774 -0.150699 0.005443 0.078771 0.050416 -0.025795 -0.201005 0.086822 -0.136799 -0.065465 -0.047896 0.012784 -0.053782 -0.166173 0.072936 -0.011467 0.059143 0.025011 0.007603 0.050581 -0.122112 -0.193371 -0.089002 0.047332 -0.070227 0.008569 -0.088575 -0.190693 -0.031023 0.029353 0.065397 -0.053644 0.014195 -0.031919 0.022766 0.056341
0.051237 -0.139437 0.047599 0.138706 -0.260028 -0.135098 0.108012 0.029211 0.119639 -0.036176 0.298166 -0.037248 0.29938 0.097709 0.051032 -0.150747 0.078452 2.02E-4 -0.020691 -0.009569 -0.288112 -0.104467 -0.012865 -0.083482 0.026646 0.173788 -0.221455 -0.056052 0.012784 0.211935 0.13111 -0.003991 0.085962 0.106441 -0.145648 -0.085398 -0.028018 -0.093372 -0.090829 0.019145 -0.040941 -0.002546 -0.156202 -0.187785 0.138427 0.124643 -0.114068 0.079216 -0.012363 0.057702 0.260935 0.018578 -0.008276 0.059932 0.095004 -0.15551 -0.028137 -0.319332 -0.050855 0.083543 0.154201 -0.025567 0.083891 -0.093628 -0.101399 0.02701 0.051254 -0.01557 0.011846 -0.097278 0.165947 0.248113 -0.252472 -0.169089 0.068755 -0.053146 0.036404 -0.054959 0.229116 -0.087714 -0.180585 -0.005845 -0.040225 0.045608 0.003736 -0.017018 0.140606 0.043035 -0.229877 -0.132084 -0.181893 -0.17784 0.10736 -0.147987 -0.055678 -0.153436 0.289803 -0.02371 0.210645 0.054602
-0.671963 -1.356401 3.602218 0.823366 -0.502176 -0.026847 2.688116 0.953721 0.412325 -0.074957 -2.563688 0.379861 -0.279054 0.512633 -0.426346 -0.669122 -2.193019 -1.985633 1.195718 -0.843091 -3.07709 -2.336138 0.676971 -1.157188 0.84245 -0.067074 1.662677 -0.902702 0.573933 0.762577 1.605777 -0.494156 -0.764054 -4.857189 1.199538 0.081996 1.582965 -1.800896 1.133021 -2.874443 -0.067305 0.527258 -0.963475 2.056148 -0.810059 -2.590427 0.192699 -0.925293 0.533123 0.50128 0.198265 1.047486 -1.15476 -0.133629 -3.660616 2.9145 0.67414 -1.747608 -1.472014 0.506851 -0.089567 -1.009712 -0.989767 -0.231732 -1.20197 -0.899847 -0.180586 -0.280434 1.214359 0.601947 3.002038 1.452004 1.898121 0.64863 -0.773459 -0.546508 1.482508 0.349815 -0.022055 1.977613 1.349274 -0.187718 2.026595 2.419264 -2.256871 -0.764584 -0.110956 2.609596 -0.511332 0.497735 1.205947 -0.553892 0.146347 -2.201324 -0.117853 -0.193777 0.312823 3.388883 -4.036498 2.412019
-0.035128 -0.004635 0.103617 0.130451 -0.029409 -0.121051 0.043187 0.070834 0.120511 0.04104 -0.084016 0.114321 -0.113274 0.045725 0.14604 0.052035 -0.057068 0.009963 -0.141161 0.06982 0.09722 -0.064314 0.091325 -0.020204 0.052001 -0.033704 -0.133857 -0.053958 0.146923 0.053363 -0.0586 -0.047389 0.095693 -0.041621 -0.137363 0.131729 -0.04096 -0.172088 0.07359 -0.003864 -0.144826 2.5E-5 -0.079387 0.08565 0.108478 0.044995 -0.059245 0.064874 -0.007821 -0.042446 -0.011822 0.052097 -0.084828 0.034789 0.061945 0.125374 -0.055996 0.020738 0.004995 0.044627 0.037096 -0.078419 -0.064436 -0.059685 -0.102795 -0.080579 0.020665 -0.048857 0.164814 -0.026796 -0.095203 0.034331 -0.023374 0.147247 0.024371 -0.001258 -0.157049 0.031101 0.131538 -0.022934 -0.005558 -0.158126 0.061786 -0.089837 -0.186633 0.100753 -0.121289 0.015091 -2.25E-4 0.109191 -0.016197 -0.064237 0.087074 -0.113613 -0.009957 -0.044301 0.060829 -0.077952 -0.02778 0.064282
-0.162025 0.102074 -0.187529 -0.013859 0.006433 -0.092926 0.024955 0.043412 -0.038733 0.069989 -0.123861 0.147637 -0.176919 0.011186 -0.240437 0.060167 0.073611 0.133444 0.072377 -0.046647 -0.053791 -0.166202 0.038037 -0.089412 -0.204558 -0.026865 0.035634 0.083495 -0.125289 0.054907 0.016126 0.021358 0.036649 -0.045001 -0.157142 -0.128037 -0.076373 -0.062705 -0.015578 -0.013558 -0.142545 -0.074228 0.04057 0.145427 -0.017548 0.078389 -0.183299 0.084835 0.117821 0.116763 -0.207619 0.178404 -0.251387 0.240437 -0.003779 -0.061806 -0.061749 -0.019827 -0.120459 -0.032552 -0.118214 0.047277 0.069816 0.153133 -0.005757 0.13632 -0.043305 0.197871 0.02674 -0.275518 -0.030734 -0.18406 -0.01204 0.006695 0.10457 -0.065778 0.147944 0.107602 0.005474 0.007919 -0.031363 0.101537 0.131831 -0.019001 0.232183 0.181545 0.143605 0.072471 -0.005958 0.228728 0.180371 -0.13407 0.05825 -0.013669 0.115625 -0.102017 0.003976 -0.189595 -0.004904 0.192612
0.068309 -0.087153 0.064088 0.029203 -0.01056 -0.05189 -0.319101 0.018184 0.046379 0.074911 0.057877 0.116514 0.064875 0.048157 0.218086 0.140645 0.009322 0.070816 0.044347 -0.052735 -0.210997 0.059279 0.196713 0.039629 -0.115573 -0.180613 -0.031741 0.00392 0.18097 -0.05016 -0.050022 -0.113127 -0.119195 0.172167 -0.053294 -0.057206 -0.033516 -0.012544 0.097178 0.132225 0.034236 0.246164 0.066823 0.125837 -0.104736 -0.092266 0.003926 0.039428 -0.11496 0.064544 0.080264 0.03101 -0.061713 -0.115002 0.073857 1.7E-4 0.059467 0.019265 0.095627 0.027502 -6.75E-4 -0.093541 0.01298 -0.136598 -0.027045 -0.114165 0.001047 0.096691 0.163498 -0.171826 0.030981 -0.062518 -0.079589 0.018883 0.049457 -0.068213 -0.149212 -0.007308 -0.116269 -0.056372 -0.107137 0.116841 0.041356 -0.167596 -0.142247 0.061077 -0.044624 0.081563 0.181855 0.098523 -0.040912 -0.032021 -0.026201 0.21486 -0.194414 -0.140253 0.220125 -0.03751 -0.198192 -0.010955
1.506174 -0.513634 -1.189036 -0.212344 -1.857237 1.662008 -1.784178 -0.167004 -0.941829 -1.05092 -1.58949 0.183769 -1.457905 1.614924 -1.455063 -0.426703 1.748969 1.898826 0.45782 0.446887 0.297067 -0.275089 2.128415 -0.960063 -1.11339 1.842482 1.896505 0.627723 -1.085148 -2.394326 1.152269 -0.057259 -1.113827 -0.44514 -5.161321 -0.627358 -1.756313 -0.970751 -1.370118 -3.5746 -0.603789 -0.899153 1.390147 0.004023 1.209302 -3.16524 1.664557 0.046358 4.277781 -0.377202 -2.845911 -0.343967 -0.136155 0.599924 0.332483 -0.783247 0.056121 1.387769 -2.788021 -0.820772 -0.006854 0.830708 0.9554 0.142277 0.642098 -0.714876 -0.746878 -1.253131 -0.220407 -0.451083 2.726243 0.044914 1.943193 0.251174 0.543908 -0.454845 -1.298095 0.259519 1.695038 2.775174 0.015773 -0.230887 2.624226 -0.022015 0.37412 0.419164 0.922266 2.561587 -0.81206 4.630909 -4.065351 -1.125227 -0.864972 -1.107843 0.174708 0.514833 -1.603136 1.716693 1.346128 1.209531
-0.217622 0.099551 -0.1788 0.148128 0.131541 -0.071998 -0.088706 -0.090213 -0.168853 0.151684 -0.04797 0.203297 0.0948 0.213809 -0.023789 0.042139 -0.078633 0.103449 0.00966 -0.202018 -0.011194 -0.127344 0.024803 0.126006 0.049995 -0.10908 -0.057699 -0.13152 -0.005173 -0.052793 0.151821 0.05043 -0.255439 -0.002872 -0.031667 -0.066219 0.074826 0.071271 0.11909 -0.088312 0.003708 0.038564 -0.001743 -0.010963 -0.007699 -0.029344 0.067294 0.051736 -0.248372 0.193963 0.186096 -0.014138 -0.039565 0.108706 0.102777 -0.19065 0.010801 0.089382 0.022675 -0.007416 0.008789 0.015136 -9.99E-4 -0.123342 -0.014369 0.187522 -0.141317 -0.041627 0.064227 -0.03007 -0.006382 0.177663 0.211161 0.041135 -0.041127 0.030943 -0.155315 -0.143258 -0.091196 0.125358 -0.120306 0.12258 0.039654 -0.05828 -0.018611 0.028777 -0.020865 0.14492 -0.031455 0.071133 -0.037407 -0.156116 0.031923 0.132171 -0.012344 -0.158414 0.054987 -0.121596 0.101989 0.032146
0.0 0.0 0.0 0.0 0.0 0.0 0.0 0.0 0.0 0.0 0.0 0.0 0.0 0.0 0.0 0.0 0.0 0.0 0.0 0.0 0.0 0.0 0.0 0.0 0.0 0.0 0.0 0.0 0.0 0.0 0.0 0.0 0.0 0.0 0.0 0.0 0.0 0.0 0.0 0.0 0.0 0.0 0.0 0.0 0.0 0.0 0.0 0.0 0.0 0.0 0.0 0.0 0.0 0.0 0.0 0.0 0.0 0.0 0.0 0.0 0.0 0.0 0.0 0.0 0.0 0.0 0.0 0.0 0.0 0.0 0.0 0.0 0.0 0.0 0.0 0.0 0.0 0.0 0.0 0.0 0.0 0.0 0.0 0.0 0.0 0.0 0.0 0.0 0.0 0.0 0.0 0.0 0.0 0.0 0.0 0.0 0.0 0.0 0.0 0.0
0.113954 -0.036066 -0.127841 0.006226 -0.051363 0.01801 -0.237007 0.205913 -0.125782 0.190338 -0.055309 0.004612 -0.010897 0.007168 0.02975 0.183516 0.069764 0.074302 0.105171 0.171477 0.024018 0.159166 0.104548 0.155283 -0.055019 -0.168445 -0.031028 -0.170344 0.036883 0.007955 -0.068725 -0.028093 0.11358 0.062501 -0.250197 -0.049377 0.04075 -0.073589 0.033323 -0.008343 -0.138034 0.011704 0.019049 -0.119544 0.15641 -0.115435 -0.077372 -0.059435 0.10521 0.093445 -0.201418 -0.008728 0.177719 -0.229835 0.022446 0.026001 0.259976 -0.01434 -0.087358 -0.085072 -0.052724 -0.143633 -0.058711 -0.017294 -0.226983 0.005293 0.144928 0.044911 -0.136862 -0.221138 0.168357 -0.086635 -0.016802 0.069184 0.078671 0.04839 -0.077389 0.100863 -0.114159 0.069378 0.081542 0.046567 0.017143 -0.006024 0.07895 0.043916 0.100158 -0.030677 0.074427 0.195971 -0.038933 -0.028542 -0.092603 0.1355 0.110275 0.043032 -0.138216 -0.022819 -0.209067 -0.067689
0.132913 0.085294 0.206462 0.133748 0.080586 0.171016 0.144394 -0.04789 0.097394 0.018222 -0.102224 0.020874 -0.156384 -0.001642 0.096039 -0.022487 0.022755 0.151758 -0.196383 0.108904 -0.102514 -0.017927 0.015027 0.032554 -0.229815 0.062625 -0.017189 -0.14418 0.058953 -0.022832 -0.133301 -0.108419 0.054641 0.113726 -0.152828 0.136929 0.025819 0.047115 -0.253943 -0.079927 -0.070466 0.188672 -0.197462 -0.086911 0.051443 0.302772 0.029114 -0.020039 0.240646 0.14791 -0.240443 -0.152747 0.113222 -0.107093 0.168259 -0.08668 0.002691 -0.131349 -0.010405 -0.04541 0.143721 -0.076439 -0.130058 -0.151946 0.069806 0.038373 0.200386 0.097891 -0.00368 0.005252 -0.130372 0.102046 0.038469 0.011143 0.084561 -0.200583 -0.104396 0.294496 0.040806 -0.030726 0.019635 0.014922 -0.041927 -0.244208 0.069564 -0.002467 0.058598 0.087592 0.149848 0.160886 -0.030186 -0.134573 0.056611 0.261604 0.116253 -0.027847 -0.098467 -0.04332 0.057965 -0.19988
-0.478215 0.656726 0.529231 -0.116093 0.950481 0.519043 1.113448 0.474525 -0.950752 -0.17529 -0.395292 0.877888 0.092743 -0.248313 0.210097 0.075589 -0.258614 -0.68859 -0.241264 -0.196551 -0.66335 -0.006193 1.307401 -0.594214 0.831982 -0.17997 0.261676 0.091026 0.057433 0.389577 0.384127 -1.08002 -0.750879 1.097117 -0.927201 -0.043651 0.686702 -1.166972 0.997287 -0.597057 0.245937 -0.352506 0.014047 0.147232 -0.627091 -0.536974 0.226588 0.528227 -0.440345 0.07041 0.450101 0.155491 -0.789476 -0.036283 -0.391569 0.662706 0.883125 -0.240556 0.47303 -1.041901 -0.23686 0.546495 -0.797447 -0.200034 -0.617846 -0.161195 -0.676156 -0.030822 0.473531 0.23818 0.319413 -0.158608 0.327375 0.761178 -0.505521 0.50716 0.321654 0.353641 -1.380226 0.26087 -0.328333 0.167929 0.150299 -0.929258 -0.529053 -0.047747 0.409668 -0.407582 0.331683 1.031251 1.063112 0.437079 -0.569391 -0.073844 0.671548 -0.601753 0.391698 -0.423898 0.108593 0.771096
-0.061215 -0.072259 0.084243 -0.030504 -0.013459 -0.068481 -0.110691 -0.041203 -0.011781 0.201335 0.164634 0.100152 0.059381 -0.007293 0.007503 0.258327 0.023949 0.200135 0.160624 0.141867 -0.140884 0.009392 0.095937 -0.060625 -0.145273 -0.083304 -0.065534 0.00228 0.196047 -0.086997 -0.09548 0.144964 -0.010154 0.00676 -0.072258 -0.11042 -0.059686 0.092534 0.028576 -0.019117 -0.14082 0.171613 0.017974 0.105935 0.031365 -0.13258 0.016517 -0.034317 -0.175513 -0.033515 0.140521 -0.104039 -0.07902 -0.047517 0.030399 -0.040971 0.126207 -0.077338 0.167458 -0.100885 0.104016 -0.069127 -0.060114 -0.092072 -0.092672 -0.074532 0.080547 0.040309 -0.002105 -0.106835 -0.019157 -0.134797 -0.227205 -0.041914 0.024843 -0.090399 -0.120544 -0.038663 -0.049082 0.158767 -0.108226 0.075645 0.030504 -0.04743 0.146468 -0.023749 0.028419 -0.100328 0.22493 -0.105859 -0.067244 0.049096 -1.04E-4 0.202169 0.02616 -0.110856 0.173905 -0.07442 0.044634 -0.139452
-0.195124 0.094089 0.236517 -0.11621 0.442304 0.246494 -0.173188 -0.086686 0.027526 0.187306 -0.155501 0.023641 -0.134924 0.03178 0.008285 0.060439 -0.213789 0.100775 -0.233289 0.151081 0.084196 -0.163129 0.100651 -0.148642 -0.080148 -0.076606 0.08081 0.072613 0.195848 -0.213885 -0.023367 0.173884 -0.148904 -0.018416 -0.22651 -0.137979 0.031026 -0.118977 -0.069481 -0.004953 0.10908 -0.114975 -0.064858 -0.048373 -0.012443 0.069781 0.01786 -0.069517 0.118982 0.091017 0.193706 -0.106579 0.028191 0.032537 0.119204 0.16324 -0.175172 0.190201 0.104296 -0.012909 -0.099754 0.073987 -0.12196 -0.089846 0.103089 -0.118624 0.150758 -0.093015 -0.020021 0.073107 0.078078 -0.071656 -0.002373 0.022035 -0.103574 0.39176 -0.206306 -0.007621 0.055148 -0.24952 0.099478 -0.214048 -0.095406 -0.068086 -0.00341 0.045156 0.023584 -0.083893 -0.137361 0.229894 -0.039713 -0.133575 -0.331355 -0.110142 -0.07767 -0.31097 -0.057855 -0.15025 -0.300689 -0.048315
0.076366 -0.113758 0.198914 -0.086313 0.036109 -0.067986 -0.2657 0.029907 -0.078939 0.256784 -0.058089 0.126061 0.004952 -0.008668 0.170726 0.179781 0.090461 0.284357 -0.096045 0.316709 -0.022347 -0.010218 0.134477 -0.097373 0.001973 0.184655 -0.172801 0.046019 0.032277 -0.2827 0.12387 -0.093307 -0.090799 0.140858 0.001926 -0.171345 -0.002987 -0.154995 -0.091065 0.096881 -0.072253 0.127105 -0.112285 -0.077252 0.029511 -0.013843 -0.137983 -0.104437 0.08774 0.225358 0.044083 -0.154899 -0.083061 0.174348 -0.032597 -0.08616 0.030219 -0.170082 -0.125118 -0.198104 0.089416 -0.044511 0.074327 -0.147045 -0.011408 -0.13262 0.039725 -0.147556 0.035978 0.044765 0.056961 -0.022516 -0.017659 -0.012649 0.061245 -0.001877 0.105214 0.091813 0.189283 0.02412 -0.046732 -0.043772 -0.182393 0.002609 0.097663 0.039182 0.191466 -0.181607 0.037817 0.094593 -0.19255 0.094633 0.003271 0.033055 -0.051123 -0.221446 0.190835 0.054897 -0.1195 0.12647
-0.38434 -0.570338 -3.334123 -0.990325 -0.281295 3.633702 1.320934 0.804616 -0.499895 -0.831205 0.460112 1.388349 -2.264975 3.215568 -3.90167 1.353361 -1.448904 -2.546085 -1.024352 -1.734034 -1.344124 0.93203 0.532723 0.23208 -0.507331 0.823317 0.659701 0.36019 1.191168 -0.162178 -0.263719 -1.148898 -0.733443 1.049014 -0.463284 0.424462 1.721949 -2.279087 -0.239497 -3.509027 0.274708 -0.478871 -0.254635 1.092364 -0.333634 -0.504492 -0.065145 -0.538987 0.565458 0.780359 -0.571438 2.952173 0.370658 -0.759209 -2.924849 1.720769 0.511283 1.62778 2.047539 0.727555 2.155394 -1.325505 -0.576841 2.155423 -1.025197 1.359344 -0.744288 -2.504187 -1.775349 1.348846 2.846446 1.640962 1.869469 1.38429 0.797755 -0.790083 2.739745 1.110482 1.051984 -1.114181 2.453474 -0.002451 -1.249565 3.986771 0.736882 -1.32782 1.044597 0.12676 2.039398 0.327395 0.179204 -1.66492 -0.55174 -2.138355 -3.629091 -1.09422 -3.320013 0.282001 -1.758182 -2.017416
-0.068105 0.057237 0.070866 0.05373 -0.003941 -0.08651 0.017033 0.112962 0.238407 0.038327 -0.017675 0.083767 0.206155 0.054489 -0.028753 0.128266 0.050878 0.194653 0.071142 0.033408 -0.113644 0.116705 0.050537 -0.148958 0.124025 0.117311 0.075298 0.005352 0.080236 -0.156765 -0.029906 -0.004555 0.017032 0.017664 0.059945 0.093066 -0.133059 0.110377 -0.146383 0.031234 -0.058896 -0.04839 -0.093693 -0.237095 -0.016087 -0.025867 0.117389 -0.078465 0.015002 -0.013864 0.034387 0.094285 -0.02824 0.113394 0.194121 0.111633 -0.063858 0.071596 0.054361 0.143123 -0.154574 -0.05272 0.085481 0.05882 0.00774 -0.150699 0.005443 0.078771 0.050416 -0.025795 -0.201005 0.086822 -0.136799 -0.065465 -0.047896 0.012784 -0.053782 -0.166173 0.072936 -0.011467 0.059143 0.025011 0.007603 0.050581 -0.122112 -0.193371 -0.089002 0.047332 -0.070227 0.008569 -0.088575 -0.190693 -0.031023 0.029353 0.065397 -0.053644 0.014195 -0.031919 0.022766 0.056341
0.051237 -0.139437 0.047599 0.138706 -0.260028 -0.135098 0.108012 0.029211 0.119639 -0.036176 0.298166 -0.037248 0.29938 0.097709 0.051032 -0.150747 0.078452 2.02E-4 -0.020691 -0.009569 -0.288112 -0.104467 -0.012865 -0.083482 0.026646 0.173788 -0.221455 -0.056052 0.012784 0.211935 0.13111 -0.003991 0.085962 0.106441 -0.145648 -0.085398 -0.028018 -0.093372 -0.090829 0.019145 -0.040941 -0.002546 -0.156202 -0.187785 0.138427 0.124643 -0.114068 0.079216 -0.012363 0.057702 0.260935 0.018578 -0.008276 0.059932 0.095004 -0.15551 -0.028137 -0.319332 -0.050855 0.083543 0.154201 -0.025567 0.083891 -0.093628 -0.101399 0.02701 0.051254 -0.01557 0.011846 -0.097278 0.165947 0.248113 -0.252472 -0.169089 0.068755 -0.053146 0.036404 -0.054959 0.229116 -0.087714 -0.180585 -0.005845 -0.040225 0.045608 0.003736 -0.017018 0.140606 0.043035 -0.229877 -0.132084 -0.181893 -0.17784 0.10736 -0.147987 -0.055678 -0.153436 0.289803 -0.02371 0.210645 0.054602
-0.671963 -1.356401 3.602218 0.823366 -0.502176 -0.026847 2.688116 0.953721 0.412325 -0.074957 -2.563688 0.379861 -0.279054 0.512633 -0.426346 -0.669122 -2.193019 -1.985633 1.195718 -0.843091 -3.07709 -2.336138 0.676971 -1.157188 0.84245 -0.067074 1.662677 -0.902702 0.573933 0.762577 1.605777 -0.494156 -0.764054 -4.857189 1.199538 0.081996 1.582965 -1.800896 1.133021 -2.874443 -0.067305 0.527258 -0.963475 2.056148 -0.810059 -2.590427 0.192699 -0.925293 0.533123 0.50128 0.198265 1.047486 -1.15476 -0.133629 -3.660616 2.9145 0.67414 -1.747608 -1.472014 0.506851 -0.089567 -1.009712 -0.989767 -0.231732 -1.20197 -0.899847 -0.180586 -0.280434 1.214359 0.601947 3.002038 1.452004 1.898121 0.64863 -0.773459 -0.546508 1.482508 0.349815 -0.022055 1.977613 1.349274 -0.187718 2.026595 2.419264 -2.256871 -0.764584 -0.110956 2.609596 -0.511332 0.497735 1.205947 -0.553892 0.146347 -2.201324 -0.117853 -0.193777 0.312823 3.388883 -4.036498 2.412019
-0.162025 0.102074 -0.187529 -0.013859 0.006433 -0.092926 0.024955 0.043412 -0.038733 0.069989 -0.123861 0.147637 -0.176919 0.011186 -0.240437 0.060167 0.073611 0.133444 0.072377 -0.046647 -0.053791 -0.166202 0.038037 -0.089412 -0.204558 -0.026865 0.035634 0.083495 -0.125289 0.054907 0.016126 0.021358 0.036649 -0.045001 -0.157142 -0.128037 -0.076373 -0.062705 -0.015578 -0.013558 -0.142545 -0.074228 0.04057 0.145427 -0.017548 0.078389 -0.183299 0.084835 0.117821 0.116763 -0.207619 0.178404 -0.251387 0.240437 -0.003779 -0.061806 -0.061749 -0.019827 -0.120459 -0.032552 -0.118214 0.047277 0.069816 0.153133 -0.005757 0.13632 -0.043305 0.197871 0.02674 -0.275518 -0.030734 -0.18406 -0.01204 0.006695 0.10457 -0.065778 0.147944 0.107602 0.005474 0.007919 -0.031363 0.101537 0.131831 -0.019001 0.232183 0.181545 0.143605 0.072471 -0.005958 0.228728 0.180371 -0.13407 0.05825 -0.013669 0.115625 -0.102017 0.003976 -0.189595 -0.004904 0.192612
0.068309 -0.087153 0.064088 0.029203 -0.01056 -0.05189 -0.319101 0.018184 0.046379 0.074911 0.057877 0.116514 0.064875 0.048157 0.218086 0.140645 0.009322 0.070816 0.044347 -0.052735 -0.210997 0.059279 0.196713 0.039629 -0.115573 -0.180613 -0.031741 0.00392 0.18097 -0.05016 -0.050022 -0.113127 -0.119195 0.172167 -0.053294 -0.057206 -0.033516 -0.012544 0.097178 0.132225 0.034236 0.246164 0.066823 0.125837 -0.104736 -0.092266 0.003926 0.039428 -0.11496 0.064544 0.080264 0.03101 -0.061713 -0.115002 0.073857 1.7E-4 0.059467 0.019265 0.095627 0.027502 -6.75E-4 -0.093541 0.01298 -0.136598 -0.027045 -0.114165 0.001047 0.096691 0.163498 -0.171826 0.030981 -0.062518 -0.079589 0.018883 0.049457 -0.068213 -0.149212 -0.007308 -0.116269 -0.056372 -0.107137 0.116841 0.041356 -0.167596 -0.142247 0.061077 -0.044624 0.081563 0.181855 0.098523 -0.040912 -0.032021 -0.026201 0.21486 -0.194414 -0.140253 0.220125 -0.03751 -0.198192 -0.010955
1.506174 -0.513634 -1.189036 -0.212344 -1.857237 1.662008 -1.784178 -0.167004 -0.941829 -1.05092 -1.58949 0.183769 -1.457905 1.614924 -1.455063 -0.426703 1.748969 1.898826 0.45782 0.446887 0.297067 -0.275089 2.128415 -0.960063 -1.11339 1.842482 1.896505 0.627723 -1.085148 -2.394326 1.152269 -0.057259 -1.113827 -0.44514 -5.161321 -0.627358 -1.756313 -0.970751 -1.370118 -3.5746 -0.603789 -0.899153 1.390147 0.004023 1.209302 -3.16524 1.664557 0.046358 4.277781 -0.377202 -2.845911 -0.343967 -0.136155 0.599924 0.332483 -0.783247 0.056121 1.387769 -2.788021 -0.820772 -0.006854 0.830708 0.9554 0.142277 0.642098 -0.714876 -0.746878 -1.253131 -0.220407 -0.451083 2.726243 0.044914 1.943193 0.251174 0.543908 -0.454845 -1.298095 0.259519 1.695038 2.775174 0.015773 -0.230887 2.624226 -0.022015 0.37412 0.419164 0.922266 2.561587 -0.81206 4.630909 -4.065351 -1.125227 -0.864972 -1.107843 0.174708 0.514833 -1.603136 1.716693 1.346128 1.209531
0.102519 0.028331 -0.323752 -0.030371 0.104924 -0.018281 0.016625 0.097465 0.083907 0.042919 0.182849 0.180972 0.021027 0.084685 -0.03502 0.052915 0.021381 0.027639 0.138573 -0.029942 -0.076517 0.082537 0.147973 0.028719 -0.012541 -0.183043 0.099658 0.245425 0.125143 -0.016801 -0.126491 -0.088197 -0.059153 0.181222 0.004954 -0.021093 0.093898 0.1473 0.037113 -0.041264 0.084385 -0.277585 0.046048 0.123366 -0.1312 0.057693 0.07317 0.075514 -0.00736 0.022486 -0.064039 -0.104485 -0.129569 0.008917 -0.043765 -0.031673 -0.224168 -0.125023 -0.181158 -0.020923 0.007337 -0.03322 -0.003247 -0.016517 0.027804 0.039792 -0.112792 -0.066678 0.060736 -0.02802 0.020393 -0.090665 0.047658 -0.069936 -0.048246 0.009147 0.079742 -0.184286 -0.059049 -0.151283 0.087534 -0.067633 0.062004 -0.075468 -0.186111 0.007025 -0.104962 0.126863 -0.105695 0.040183 -0.148772 0.00369 -0.055889 -0.114913 -0.007486 -0.011989 -0.054275 0.092619 0.014127 0.185005
2.591633 1.608701 -2.087245 2.00752 3.012652 4.995656 0.847355 -1.594905 -0.365708 -1.629805 -1.650237 3.712017 -0.231463 -0.537534 -2.036098 2.002639 -0.696666 -4.310136 -1.477319 -1.356504 -0.581823 -1.830239 -0.272773 -1.648095 0.090509 0.008711 0.330842 0.396714 2.341035 -0.526067 1.155793 -1.730906 -1.010387 -1.342646 -1.939355 0.734869 0.727366 0.700702 1.516974 -2.133831 -0.280653 -3.051674 0.017123 0.532043 1.478449 0.375441 0.920129 1.548929 1.087478 0.668327 0.707416 3.249232 -0.362503 1.273221 -2.929682 -0.245389 1.633444 -0.119836 0.103459 -3.445175 0.513245 0.427807 0.738792 1.448203 0.501908 0.362882 -0.731533 -0.391201 0.037778 3.053553 4.030229 1.793904 1.24136 0.081706 -1.401954 -0.638804 -0.487445 -0.267924 0.012844 0.538179 -0.241935 -0.068756 1.351665 -0.112558 0.001814 0.447262 0.833441 -0.023876 1.212707 1.514635 -0.568611 0.376173 -3.663739 -4.345135 -0.444319 2.139788 -2.53093 0.92131 -1.399435 1.763954
0.100195 -0.080192 0.098636 -0.002196 0.010816 -0.057799 -0.189106 0.035665 -0.158401 0.017096 0.057723 -0.073496 -0.154333 -0.058186 0.055717 0.179485 -0.09119 0.047592 -1.1E-5 -0.036447 0.069542 -0.026364 0.113772 0.231986 -0.134337 -0.215597 0.010651 -0.012594 -0.064549 -0.007239 -0.011789 -0.096077 0.077943 -0.071619 -8.0E-5 -0.047155 0.073651 0.037863 -0.040627 0.055824 0.044377 0.007974 0.031266 0.114302 -0.02862 -0.031345 -0.079388 -0.051952 -0.221712 0.085653 0.037433 -0.19096 0.086855 -0.018699 -0.0544 0.140116 -0.057536 -0.02972 0.014695 -0.057303 -0.13393 -0.114809 -0.125779 -0.174829 0.064946 0.061459 0.014127 -0.050541 0.147494 -0.078643 -0.089289 0.069975 -0.046343 0.105745 0.018637 0.028574 -0.076456 -0.003611 -0.026723 -0.119504 0.041653 -0.081001 0.007688 -0.065893 0.117237 -0.046508 -0.04831 0.071317 0.133236 0.021252 0.027556 0.093483 -0.054558 0.072389 -0.048773 -0.055195 -0.030206 -0.077247 -0.105549 -0.120534
-0.020122 -0.129551 0.079111 0.044247 2.7E-4 -0.085409 0.019656 0.046379 -0.021388 0.122181 0.116338 0.061277 0.152274 -0.07715 0.124793 0.199206 0.0521 0.201831 0.234933 0.152275 -0.031276 -0.011689 0.100916 -0.039356 -0.008555 -0.035747 0.110653 -0.111704 0.084497 -0.082074 -0.101207 0.004416 -0.090269 0.158027 -0.045056 -0.008315 0.146116 -0.110983 -0.2082 -0.037338 -0.132452 0.150695 -0.066258 -0.003108 0.035437 0.142012 0.091725 0.095529 -0.18968 -0.046861 0.036816 -0.115391 -0.138596 -0.023145 0.05101 0.073666 -0.145695 -0.028714 -0.028434 -0.056494 -0.107789 -0.209914 -0.079517 -0.293056 0.030036 0.258249 0.01353 -0.03007 0.208269 -0.095619 -0.104322 -0.068665 -0.06787 0.021478 -0.009794 -0.174201 -0.131599 0.160091 -0.003468 -0.094913 -0.198302 0.090664 0.031848 -0.341998 0.008816 -0.022153 -0.015105 -0.016854 0.170241 -0.016689 -0.147599 -0.039071 0.118536 0.075877 0.031159 -0.249255 0.093822 0.077269 -0.021608 -0.074188
-0.138592 -0.271833 0.118814 -0.02021 -0.266493 0.161467 -0.265617 0.099836 -0.190334 -0.12667 -0.029054 0.221119 -0.033505 0.007077 0.069918 0.063172 -0.14928 0.075313 -0.078727 0.11767 0.040559 -0.062533 0.107711 -0.013662 -0.194602 -0.027123 0.02078 0.017081 0.202102 -0.175173 -0.177316 0.045238 -0.107053 -0.077784 -0.048914 -0.065415 -0.056133 -0.004421 -0.231409 0.146404 0.088599 -0.169967 0.130374 0.144953 0.227703 0.013735 0.014891 0.196793 0.203234 -0.115706 0.040348 -0.277525 -0.258434 -0.039265 0.049736 -0.159048 -0.261463 -0.061389 -0.116186 -0.065953 -0.020217 -0.015362 -0.005119 -0.077227 -0.193008 0.087169 0.104908 0.108972 -0.024335 0.003069 -0.0114 -0.07505 0.146028 0.092169 0.009984 0.009441 -0.089921 -0.076484 0.149382 -0.129716 -0.030101 0.241964 0.221506 0.163706 0.116518 0.157613 -0.029026 0.013605 -0.156119 0.108773 0.016597 -0.048682 -0.181749 0.07382 0.002511 -0.142316 -0.145874 -0.013444 -0.094413 -0.047403
-0.020892 -0.118995 0.162166 0.122723 0.280551 0.110134 -0.170222 -0.094985 0.022663 -0.096152 0.256238 -0.100829 -0.080812 0.117885 0.071203 0.073747 -0.283052 -0.00865 0.053285 -0.06135 -0.20049 0.113432 0.184392 0.098893 -0.302982 -0.092137 -0.052162 -0.023556 0.127995 -0.164167 -0.093513 -0.20606 -0.112134 0.15593 -0.102057 -0.290756 0.094313 -0.190004 0.126246 0.124971 -0.067207 -0.022883 0.192596 -0.017167 -0.098132 -0.002793 0.073871 0.015025 0.144251 0.159564 0.152852 0.142563 -0.127496 0.218968 -0.01863 0.108195 -0.06489 0.056022 0.330959 -0.233376 0.163535 0.057803 -0.20535 -0.22593 -0.210829 0.059133 0.062431 -0.070913 -0.219805 -0.068653 -0.086861 0.008006 0.08474 0.025432 0.120814 0.095618 -0.093603 0.083745 -0.08213 -0.029395 0.019301 0.048208 -0.091801 -0.138467 0.030923 0.071388 -0.098868 0.17327 0.148358 0.232573 -0.143218 -0.030999 -0.127425 0.038931 -0.186786 -0.121369 0.048425 -0.0115 -0.055581 -0.050098
-0.068454 -0.122863 0.134262 0.083716 -0.146457 -0.05854 -0.046249 0.145899 -0.070309 0.010732 0.090118 0.029646 -0.134044 0.011502 0.13797 0.056779 -0.07073 0.176961 0.006425 -0.153893 -0.009753 0.0856 0.130737 0.060926 -0.08509 -0.0078 0.032945 0.025603 0.032755 -0.111281 4.93E-4 -0.017962 0.032708 0.128146 -0.085697 0.05081 0.0276 0.03696 0.01402 0.060028 -0.124086 0.028109 -0.015197 0.122354 0.089105 -0.142934 -0.046646 -0.03136 -0.088624 -0.018623 0.176395 0.059223 -0.037748 0.092775 0.211408 -0.085361 -0.007459 -0.099707 -0.09085 0.010112 0.047779 -0.174533 -0.067544 -0.18185 0.006312 -0.081968 0.046034 -0.073605 -0.048238 -0.084453 0.091696 0.038272 0.057807 0.027356 0.14928 -0.024513 -0.009631 -0.031003 -0.064339 0.046794 -0.17687 0.056175 -0.018763 -0.084626 0.021903 -0.031887 -0.026426 -0.017246 0.052909 -0.04163 -0.017914 -0.010917 -0.015599 0.164133 -0.056038 -0.053381 0.088108 0.022985 -0.007861 -0.03771
1.709049 -0.241854 -1.964069 0.896246 -0.265823 -0.813604 0.061787 0.035651 -0.797708 -2.233744 -0.759974 0.653819 -0.841201 1.245719 2.053944 3.190658 0.299622 -1.13584 -2.119026 0.643628 -0.591288 -0.43081 0.530563 1.803925 0.853056 0.081592 2.126469 3.477157 2.233028 -2.854767 -0.663068 -0.092408 1.200876 1.652074 -3.823889 -1.233957 1.136059 -0.896801 0.408643 -0.779322 -0.115242 -1.941155 1.513496 0.864226 2.687529 1.202938 -2.458349 0.494939 3.189148 -1.045203 2.450843 1.502928 -0.938168 0.963905 -0.59942 -1.077117 0.301158 1.342674 0.044432 -3.817072 -1.974524 0.694558 -2.319904 -0.914547 -1.767233 -0.356706 -0.820455 -1.192577 1.534861 3.817737 1.467049 -0.795508 1.371364 1.318918 -0.725583 0.001055 1.580994 1.210247 0.663401 -0.060071 0.325036 -2.212825 0.232142 -0.178146 -1.062922 -0.034164 3.604011 -0.401558 0.005038 2.228723 0.231238 -0.539729 -2.624794 -2.092806 0.524439 3.068943 0.206235 -2.372268 -0.405579 1.744956
-0.011401 -0.148384 0.198507 0.014281 -0.112075 -0.043296 -0.0896 -0.172698 -0.112186 0.088068 0.143385 0.190086 0.016383 -0.059187 0.177615 0.164917 -0.076105 0.157518 0.080312 0.038369 -0.126254 0.157889 0.189299 0.1266 -0.218361 -0.030584 -0.167432 0.012597 0.231352 -0.133925 -0.024844 1.58E-4 -0.026968 0.053663 -0.099208 -0.073596 -0.003551 -0.053953 0.005108 0.103921 -0.072911 0.202477 -0.013601 -0.043473 -0.004453 -0.032077 -0.050562 0.005374 -0.247736 0.142506 0.086329 -0.161261 -0.061927 9.68E-4 0.13499 -0.093917 -0.08376 -0.159776 0.062987 -0.051299 0.111697 -0.172846 -0.048841 -0.13167 -0.088857 -0.022418 0.075589 0.064087 0.169376 -0.103409 -0.112249 0.021501 -0.045088 -0.101752 0.065418 0.011421 -0.173935 -4.36E-4 0.009245 -0.088695 -0.060097 0.180829 0.087706 -0.212514 -0.008053 0.035302 0.176063 0.065895 0.265278 0.092446 -0.15587 -0.146044 0.118119 0.175072 -0.075941 -0.042854 0.090929 0.066769 0.032815 -0.099912
0.016511 -0.070325 -0.026982 -0.090148 -0.005354 0.12678 -0.110184 -0.01699 0.070692 -0.106805 0.020386 0.004047 -0.042753 0.027173 0.228631 0.075902 -0.086006 -0.071569 0.0228 0.154819 -0.102557 0.083233 0.010634 -0.108381 -0.109136 -0.063962 -0.110126 -0.099216 0.131313 0.01557 -0.138203 -0.150297 -0.076999 -0.100168 -0.021414 -0.13162 -0.01781 0.221051 0.118575 0.094144 -0.017239 -0.034143 0.03933 0.144931 -0.10626 -0.234883 0.049414 0.01248 0.094809 -0.028564 0.072838 -0.075161 -0.201836 -0.008018 -0.040385 -0.068407 -0.119575 -0.056023 0.077827 -0.069921 0.11684 -0.23102 0.174361 -0.080222 0.03048 -0.039171 0.124366 0.113566 0.073449 -0.107536 0.06473 -0.083823 -0.01014 -0.012548 0.001919 -0.206411 -0.039077 -0.04125 -0.039285 0.068914 -0.086903 -0.197752 0.072298 -0.051373 -0.060387 -0.084158 -0.095123 0.035555 0.040875 0.085634 -0.01892 0.050415 -0.056136 0.15442 -0.038009 -0.083819 0.084071 -0.008024 -0.018907 0.02197
0.060854 -0.011986 -0.038491 -0.215355 -0.196333 0.013959 -0.162443 0.134481 -0.212497 0.029634 0.027952 0.080762 -0.014948 0.07979 0.015262 0.106256 -0.140167 0.062221 0.056658 0.003705 -0.127495 0.040146 0.071066 0.123334 -0.170067 0.049084 0.064598 0.034576 -0.153861 0.059129 -0.122907 0.101599 -0.03729 -0.144749 -0.054557 -0.088295 -0.096698 -0.031594 -0.004937 -0.058224 0.001627 0.103749 0.057639 0.173077 -0.067248 -0.148184 0.083801 0.091989 -0.051326 0.080511 -0.039954 -0.034848 -0.141769 0.053141 0.11912 -0.065528 0.056766 -0.008784 0.041694 -0.183181 0.047779 -0.041783 0.00709 -0.08381 0.007302 0.024247 -0.021254 -0.09643 -0.074851 -0.010163 -0.029143 -0.169037 0.234911 -0.065547 0.066872 -0.113811 0.166807 0.067121 -0.162991 0.064033 0.092899 0.075295 0.092263 0.124227 -0.013228 -0.080937 0.005278 0.092741 0.111105 0.017927 -0.012814 0.028827 -0.039962 0.069081 -0.075695 -0.087783 -0.156934 -0.049833 0.008716 -0.058487
0.102971 -7.87E-4 0.055361 -0.050191 -0.093891 -0.011795 -0.049333 0.099353 -0.131363 -0.091723 -0.091613 -0.013832 0.086489 -0.030762 -0.092583 0.149045 -0.019044 0.096966 0.104689 0.019614 -0.174305 -0.075525 0.086064 0.002615 -0.089308 0.002234 0.065088 0.05792 -0.019714 -0.027501 -0.110809 0.029122 -0.157867 -0.058606 -0.247537 0.080163 -0.109618 0.102575 0.026808 0.016685 -0.054767 0.184823 0.071206 -0.044388 0.061074 0.00719 -0.048749 -0.050775 -0.048262 0.136412 -0.05305 -0.115044 -0.001738 0.015155 -0.002723 -0.079174 0.013518 0.099302 -0.03451 -0.168666 -0.060229 -0.153039 -0.016194 -0.006526 0.048422 -0.063605 0.048224 0.10035 0.046594 -0.130182 -0.031508 0.031362 0.051957 0.063961 -0.039669 0.046215 -0.009755 0.0614 0.001738 -0.040218 0.018619 0.025374 -0.008964 -0.007509 0.015611 0.11996 0.100096 -0.019929 0.155187 0.075493 -0.106887 -0.111606 0.096072 -0.049379 0.123322 -0.012019 0.114949 -0.12124 -0.036666 0.057436
-0.206178 -0.274525 0.087903 0.494162 0.14366 0.21369 0.291711 0.128376 -0.098601 0.062948 0.237777 0.276588 0.217415 -0.011598 0.053496 0.375776 -0.659025 -0.149368 0.339948 0.289285 0.480134 0.13834 -0.022521 -0.585435 0.658285 0.119108 -0.169259 0.352222 0.354455 0.265429 0.11192 -0.477372 -0.461487 0.813869 -0.558735 0.073509 0.419588 -0.413518 0.879219 -0.174128 -0.30105 -0.463676 0.32476 0.038441 -0.113801 -0.130497 0.190672 0.279292 0.07403 0.145522 0.185626 0.275302 -0.520591 -0.440563 -0.270622 -0.47608 0.119214 -0.035033 0.465836 -0.160325 0.124448 0.015761 -0.469389 0.037604 -0.248352 -0.12689 0.387078 -0.021719 0.517081 -0.193485 0.340915 0.343279 0.137821 -0.418157 -0.444681 -0.30607 -0.99438 0.185054 -0.412027 -0.091578 0.424944 0.588679 -0.076794 -0.314132 -0.131976 0.282787 0.402755 0.053344 0.499774 0.465598 0.680945 0.63225 -0.263669 -0.212452 0.059421 -0.69005 0.699825 0.075234 0.139421 0.014555
-0.013698 -0.023095 -0.058456 -0.03195 -0.034398 -0.04118 -0.023354 0.004781 -0.122381 -0.113633 0.151917 0.107985 -0.016987 -0.052931 0.001215 0.079985 -0.164868 0.103133 0.172941 0.063287 0.04419 0.139557 0.168571 -0.053489 -0.252181 -0.100945 -0.16491 0.144152 0.265533 0.043668 0.004951 0.144841 -0.163475 0.100613 -0.087922 -0.010674 0.03778 0.069699 0.011267 0.040228 -0.101552 0.024714 -0.012933 0.06985 0.028083 -0.021545 0.004893 -0.117548 -0.144417 0.027679 0.129874 0.077289 -0.203466 -0.046501 0.045284 -0.031293 -0.078261 -0.032056 0.086122 0.031898 -0.088967 -0.074202 -0.211753 -0.175907 -0.119172 0.096754 -0.144319 0.035316 0.135785 -0.075594 -0.066007 0.054066 -0.009872 -0.091325 0.250657 0.063803 -0.038366 -0.043134 -0.02471 -0.116206 0.026293 0.049256 0.056219 -0.196025 0.020496 0.136805 0.124839 0.041895 0.043661 -0.006771 -0.232792 -0.113832 -0.045685 0.007308 0.019672 -0.142545 -0.027193 -0.035709 -0.042056 -0.023388
0.021664 0.027702 -0.199391 -0.096922 -0.075046 -0.026343 -0.093195 -0.079504 0.007325 -0.246419 -0.068932 0.147794 -0.188436 -0.0271 0.052419 -0.098256 -0.114459 -0.010631 -0.131577 0.079401 0.019506 -0.026024 -0.046881 -8.66E-4 -0.117182 -0.044945 -0.043637 -0.057317 0.172823 -0.189559 0.110503 0.340181 0.09487 -0.029102 0.022616 0.055068 0.32921 0.00857 0.052753 0.067711 -0.006574 -0.224085 0.006713 0.020932 -0.008492 0.070528 -0.013046 0.059184 -0.073514 -0.016901 -0.084964 0.09026 0.091914 -0.098072 0.138469 0.055464 -0.055989 -0.087712 -0.197719 0.005058 0.052378 -0.172117 -0.087499 0.215147 0.104773 -0.192062 0.015252 0.025736 -0.134099 -0.163455 0.057399 0.188056 -0.122024 -0.153516 0.043398 -0.025425 0.10921 0.193404 0.104687 0.025006 0.07257 -0.121035 0.057816 0.077162 0.088411 0.008306 -0.018059 -0.140635 0.215662 -0.005193 0.266697 -0.218006 0.377577 -0.170038 0.130027 0.007419 0.106786 0.065258 0.240408 0.158517
-0.053603 -0.093806 0.129127 0.014075 -0.098105 0.100069 -0.18867 -0.059743 -0.137765 0.022935 0.044529 0.108985 -0.085451 -0.082304 0.067147 0.361989 0.049177 0.243155 3.13E-4 0.088971 0.013545 0.08807 0.233161 0.087545 -0.027097 -0.112183 0.004422 -0.127545 0.136831 -0.203708 0.015348 -0.185809 -0.005115 0.134667 -0.173785 -0.198679 0.12992 0.069469 -0.017008 -0.059793 -0.065511 0.117003 0.065818 0.053649 -0.014411 -0.154378 8.4E-4 0.038972 -0.104549 0.018623 -0.018957 -0.16084 -0.142669 -0.068021 0.192816 -0.186752 0.082667 -0.097589 0.174349 -0.071412 0.002741 -0.104112 0.015078 -0.100904 0.03533 -0.021101 0.031832 0.100146 0.187045 0.006799 0.087284 -0.036087 -0.056076 -0.030717 0.037828 -0.123221 -0.213425 -0.16389 -0.055578 -0.085777 0.020523 0.093259 0.135718 -0.159565 -0.029669 -0.137468 -0.009441 0.014614 0.126369 0.070727 -0.158955 0.152934 -0.035678 0.010272 -0.013119 -0.079618 0.114285 -0.051805 0.13149 -0.051865
1.035361 1.319725 0.388011 1.220811 -0.236045 1.447081 -1.78193 3.520004 0.063077 -1.681862 0.545208 0.767849 -1.479444 -1.152839 0.669301 0.685509 -2.946755 -2.239533 -1.187422 -1.793336 0.607402 0.130687 0.296681 -1.569517 1.825066 1.715849 -1.639836 0.849724 -1.742086 0.427502 3.84844 -1.377145 0.671096 -1.312902 -1.152387 0.705431 2.180344 2.97496 1.402098 -0.909545 -1.649212 -0.253421 1.186817 1.193823 3.167747 -0.387379 -0.12198 0.872223 0.13285 0.490844 0.029473 1.345032 0.297008 2.724698 -1.656047 -0.109585 1.500583 -1.148555 -3.658389 1.022988 -1.211381 0.342059 -0.023586 1.22536 -1.874871 -1.957746 -0.188066 -0.235303 -0.067175 1.107354 1.448404 0.838301 1.67396 -0.238039 -0.504146 -1.334739 0.688005 0.37731 -2.953094 0.650433 0.307563 -0.457962 -1.694326 2.40152 -0.816994 0.208705 1.853393 0.15935 -0.989952 1.089235 1.087388 -2.786835 -2.248864 -0.788939 0.405791 0.907533 -1.516669 1.970717 -0.345554 -0.134731
0.036737 -0.032921 0.024463 0.001525 -0.14953 -0.081921 0.05195 0.033054 0.042371 0.187633 -0.169856 -0.043431 -0.173636 0.224604 -0.099043 -0.052621 -0.094147 -0.087315 -0.205223 0.126826 -0.051988 0.057934 0.007092 0.028646 0.030134 0.006318 0.118765 0.00841 -0.042876 -0.067148 -0.15148 -0.042306 0.047684 0.10077 -0.040846 -0.155266 0.173754 7.38E-4 -0.149543 -0.155015 0.042332 1.9E-5 0.164393 -0.109523 -0.01025 0.019395 0.060378 0.084138 0.12078 -0.042878 0.08194 -0.06976 0.047308 0.056745 0.006819 -0.026824 -0.156007 0.042841 -0.214906 -0.100455 0.001679 0.056153 0.00309 0.056995 -0.027269 0.054063 -0.021361 -0.118937 -0.039109 0.253888 -0.099679 0.068347 0.024916 0.004649 0.026359 0.067277 0.089904 -0.116294 -0.057639 -0.070171 0.238942 -0.101354 -0.104886 -0.195107 -0.268537 -0.124495 -0.010152 -7.27E-4 0.045996 0.182311 -0.129108 -0.070264 -0.013 0.100287 -0.131971 0.14376 -0.073632 0.262197 -0.055353 0.017675
-0.017908 0.062922 -0.080841 0.015158 -0.076844 -0.058741 -0.07281 -0.007146 -0.389329 -0.027298 0.28599 0.128872 0.287168 0.152796 0.111164 0.125078 -0.061031 -0.14347 0.169433 -0.061312 -0.06895 -0.016563 0.149425 0.442699 -0.115467 0.175152 -0.114383 0.065176 0.12079 -0.0609 0.0454 -0.316096 -0.045762 0.289634 0.12428 -0.128029 0.430796 -0.113884 -0.008239 -0.001762 0.080876 -0.083791 0.229553 0.386911 -0.04754 7.63E-4 0.125065 -0.126542 -0.191879 0.263965 0.105107 -0.050416 -0.313427 -0.029448 0.081824 0.110562 0.105031 -0.161657 0.073703 0.030172 -0.06895 -0.285864 -0.231914 -0.067584 -0.183184 0.233066 -0.055071 -0.1256 0.102278 -0.118209 0.108132 -0.283656 0.149334 0.453495 0.112638 0.162796 0.074956 -0.228222 -0.060214 -0.062294 0.033232 -0.151917 -0.166547 -0.230804 0.11376 -0.011009 -0.093958 0.055484 0.113491 0.089999 -0.206905 -0.133202 -0.101026 -0.157465 0.212235 0.02 0.264874 -0.045573 0.1 -0.173185
-1.371364 -0.905838 -2.28994 -1.283174 -1.310577 -1.606454 0.910305 1.305647 -4.371454 0.628874 1.806303 0.828653 -2.382652 -0.686732 0.545703 1.326346 0.154753 -3.264551 1.126633 -1.969114 -0.800301 -1.436766 3.728197 -1.038718 -2.327168 -1.817844 -1.522537 3.301526 -0.516965 -1.374094 -0.051603 -1.351815 -0.389973 -0.502437 0.25835 0.846892 1.917309 -2.564942 1.743738 0.299837 -0.077633 -0.203545 -1.348593 -0.075214 -1.608776 -1.418613 -1.239597 1.346437 1.05542 -0.955862 -1.024128 -0.739272 -1.267341 -0.406832 -0.563292 1.91249 -0.495804 -1.8464 -2.951108 -2.501113 -2.256394 0.158864 1.280809 0.511105 1.438967 -1.170372 -0.297717 -2.259045 1.504669 -0.129935 2.657114 -0.654912 -1.802167 1.676283 -1.228934 1.0964 1.563019 0.572077 -0.396552 -2.394884 0.52895 2.143209 0.307586 -0.887167 -1.371926 0.836945 0.408248 -0.956246 -1.326029 0.678732 3.122775 -1.439952 -0.709464 -1.94331 -0.773044 1.524834 1.347463 -1.037819 -0.217821 2.595661
2.097164 -0.684685 -0.553311 1.458123 -0.361984 1.488648 1.630849 -0.547477 0.47489 0.560779 1.147556 1.539561 -1.932941 -0.11562 0.57818 0.806424 -1.418521 -2.667003 -0.404307 -0.989205 -1.565511 -0.075045 -0.224478 -1.593667 -0.559622 1.609323 2.101845 1.713226 0.339484 -0.764511 0.677974 -0.946163 0.391299 -1.386644 -1.354432 -0.47665 1.338354 -0.707447 -0.991086 -1.892278 0.948519 -1.548238 0.87698 -0.199978 -0.431374 0.788559 -0.81503 0.171272 0.574567 -0.922672 -0.541769 1.441391 -0.539436 1.61253 -0.535686 0.383211 1.146898 -1.381123 -0.560221 -1.975539 -0.725461 0.781178 -0.379347 -0.175998 -1.317066 -1.041156 -0.854758 -0.983401 0.970127 1.811068 3.418947 0.275835 0.602118 0.250477 1.673823 -0.047512 1.019559 0.701407 0.301924 -0.204249 1.558021 0.467911 -0.656596 -0.659069 -1.000279 -0.825337 1.172484 0.135611 -0.399185 0.803773 0.206766 0.004044 -0.451418 -0.835186 -0.620386 0.953422 -0.936139 1.506188 -0.979472 2.919243
0.102971 -7.87E-4 0.055361 -0.050191 -0.093891 -0.011795 -0.049333 0.099353 -0.131363 -0.091723 -0.091613 -0.013832 0.086489 -0.030762 -0.092583 0.149045 -0.019044 0.096966 0.104689 0.019614 -0.174305 -0.075525 0.086064 0.002615 -0.089308 0.002234 0.065088 0.05792 -0.019714 -0.027501 -0.110809 0.029122 -0.157867 -0.058606 -0.247537 0.080163 -0.109618 0.102575 0.026808 0.016685 -0.054767 0.184823 0.071206 -0.044388 0.061074 0.00719 -0.048749 -0.050775 -0.048262 0.136412 -0.05305 -0.115044 -0.001738 0.015155 -0.002723 -0.079174 0.013518 0.099302 -0.03451 -0.168666 -0.060229 -0.153039 -0.016194 -0.006526 0.048422 -0.063605 0.048224 0.10035 0.046594 -0.130182 -0.031508 0.031362 0.051957 0.063961 -0.039669 0.046215 -0.009755 0.0614 0.001738 -0.040218 0.018619 0.025374 -0.008964 -0.007509 0.015611 0.11996 0.100096 -0.019929 0.155187 0.075493 -0.106887 -0.111606 0.096072 -0.049379 0.123322 -0.012019 0.114949 -0.12124 -0.036666 0.057436
-0.206178 -0.274525 0.087903 0.494162 0.14366 0.21369 0.291711 0.128376 -0.098601 0.062948 0.237777 0.276588 0.217415 -0.011598 0.053496 0.375776 -0.659025 -0.149368 0.339948 0.289285 0.480134 0.13834 -0.022521 -0.585435 0.658285 0.119108 -0.169259 0.352222 0.354455 0.265429 0.11192 -0.477372 -0.461487 0.813869 -0.558735 0.073509 0.419588 -0.413518 0.879219 -0.174128 -0.30105 -0.463676 0.32476 0.038441 -0.113801 -0.130497 0.190672 0.279292 0.07403 0.145522 0.185626 0.275302 -0.520591 -0.440563 -0.270622 -0.47608 0.119214 -0.035033 0.465836 -0.160325 0.124448 0.015761 -0.469389 0.037604 -0.248352 -0.12689 0.387078 -0.021719 0.517081 -0.193485 0.340915 0.343279 0.137821 -0.418157 -0.444681 -0.30607 -0.99438 0.185054 -0.412027 -0.091578 0.424944 0.588679 -0.076794 -0.314132 -0.131976 0.282787 0.402755 0.053344 0.499774 0.465598 0.680945 0.63225 -0.263669 -0.212452 0.059421 -0.69005 0.699825 0.075234 0.139421 0.014555
1.725517 3.199838 2.296431 -1.287282 -1.629582 0.825703 1.873576 -2.964964 2.867329 3.558063 -3.104311 -2.132154 0.346695 0.670631 -2.109846 -1.155064 -1.055145 0.21337 -3.033657 4.29578 -2.05286 -2.387686 -1.446236 4.116015 -2.613943 -2.843381 -0.564344 2.922279 -1.01653 -2.393449 1.961195 0.33442 1.562914 1.215132 0.169315 3.662376 0.102979 1.312486 0.018515 -1.575273 5.292305 -0.554193 0.016968 1.96118 -0.98613 -0.497512 -0.673132 2.20721 4.150383 -1.90382 0.670411 3.059789 -5.293422 3.117249 -0.107537 -2.527717 -0.052544 -1.541086 -0.464693 -1.893736 -3.894243 -5.974736 -3.132026 0.070656 -2.756682 1.101864 1.107655 -4.764395 0.070586 -1.941249 1.677928 0.210842 1.403168 0.734493 -1.094176 2.406036 3.366479 -0.60583 0.198598 -0.065572 1.943996 1.160857 -2.525498 0.902442 -0.80989 1.26962 5.652436 0.074296 -0.642953 -1.935157 -2.945685 3.328185 0.679313 3.813791 0.284892 0.354154 -0.429818 3.762865 -5.144363 5.935817
0.0 0.0 0.0 0.0 0.0 0.0 0.0 0.0 0.0 0.0 0.0 0.0 0.0 0.0 0.0 0.0 0.0 0.0 0.0 0.0 0.0 0.0 0.0 0.0 0.0 0.0 0.0 0.0 0.0 0.0 0.0 0.0 0.0 0.0 0.0 0.0 0.0 0.0 0.0 0.0 0.0 0.0 0.0 0.0 0.0 0.0 0.0 0.0 0.0 0.0 0.0 0.0 0.0 0.0 0.0 0.0 0.0 0.0 0.0 0.0 0.0 0.0 0.0 0.0 0.0 0.0 0.0 0.0 0.0 0.0 0.0 0.0 0.0 0.0 0.0 0.0 0.0 0.0 0.0 0.0 0.0 0.0 0.0 0.0 0.0 0.0 0.0 0.0 0.0 0.0 0.0 0.0 0.0 0.0 0.0 0.0 0.0 0.0 0.0 0.0
0.201522 -0.038247 0.199364 0.232119 0.335323 0.294617 -0.319506 -0.087817 0.073441 0.199354 0.130732 0.035695 -0.152396 0.114294 0.148531 0.201758 -0.382773 -0.008134 -0.218538 -0.225887 -0.038921 -0.042941 0.172595 -0.043109 -0.166686 -0.018235 0.043095 -0.147864 0.086438 -0.125118 0.024659 -0.135408 0.121817 -0.104121 -0.214651 -0.072714 -0.045089 -0.150489 0.108806 0.11444 0.021035 -0.040482 0.030944 -0.132224 -0.058658 0.117341 0.083027 -0.020076 0.302271 0.055671 0.04098 0.142556 -0.135397 0.198693 0.325696 0.331319 -0.007252 0.034834 0.328798 -0.110615 0.065567 0.017401 0.027532 0.095048 0.262877 -0.033632 0.324186 -0.018797 -0.078261 0.082797 0.082349 -0.035289 0.057175 0.112314 0.038199 0.439272 0.104365 0.160945 0.088402 0.049369 -0.214149 -0.158766 -0.286513 -0.270742 0.118211 0.021953 -0.154609 -0.042126 -0.022771 0.233359 -0.315244 -0.073453 -0.107278 -0.095932 0.044489 -0.362543 0.032558 0.270737 -0.116556 -0.035789
0.241136 -2.675148 -1.065717 0.69798 -3.733836 -0.524003 0.803449 3.450087 0.061053 -3.325698 4.515945 5.446378 1.034946 2.097065 -2.082487 0.266984 -3.305491 -0.67329 0.622904 -3.109632 -0.30494 -3.005757 -1.809697 5.06518 1.223244 -2.194768 -0.594544 0.181497 -1.63633 -2.090887 -0.167001 -0.992125 1.262372 0.40405 1.765541 -0.22244 2.431408 -1.596351 0.867472 1.77198 -5.791278 -2.536203 4.016088 2.14964 -0.104003 0.376547 0.261065 -4.292746 -0.852583 -0.872132 -0.700585 -2.285809 0.002464 -4.514367 -5.009871 -0.946054 1.329667 4.520755 -2.412363 -0.15797 -0.260579 1.970605 -1.769096 -2.038663 1.268061 -0.777002 0.356194 0.583671 -0.97177 0.651415 -2.248309 -2.136726 -1.903623 -2.851158 -4.106599 -2.256189 6.065419 -2.46208 -0.119085 -0.984045 1.073519 2.989832 -0.387268 -2.42036 5.250014 -2.687369 -0.69312 2.400352 -2.055109 0.335421 -1.324247 -3.77112 3.060263 -0.786036 1.670615 3.130669 -1.182669 -1.417921 3.344155 4.031028
1.326097 0.607724 1.053651 -0.156297 -0.033681 -0.348193 -0.346256 1.489056 -0.236936 0.803845 -0.243284 0.584787 -1.758599 0.570846 1.463065 0.638307 -1.361117 -0.099708 1.046875 1.803301 -1.613603 -1.198738 0.083704 0.308364 0.267399 0.355332 -0.907292 0.447506 0.856273 -1.419372 -1.109746 0.652797 0.567693 -2.087698 -0.699255 -0.853978 0.886508 -0.61779 -0.456521 -1.066281 1.215282 -1.050193 0.628581 1.191738 0.422239 -1.384712 -1.604641 -0.661121 0.512927 -0.457958 0.528342 1.852826 -1.526292 0.975089 -1.490365 -0.330317 -0.547525 -1.290932 -2.082532 -0.337959 0.603973 -0.481267 1.101812 1.225719 0.904264 -0.499557 0.61795 -0.150889 -0.516179 1.270157 1.255724 0.936329 0.665226 0.265329 0.791565 -0.154668 0.265611 -0.173514 -0.221723 -0.119393 0.875401 0.371588 1.997596 0.760024 -0.163486 0.390095 0.829531 0.030502 -1.331955 -0.913168 -0.046836 -1.277372 -1.079804 -0.282856 0.580263 2.013217 0.816806 -0.436898 0.631992 0.920794
-0.132487 0.094703 -0.044739 0.074146 0.077934 -0.035725 -0.07617 0.163802 0.058779 0.042299 -0.192938 0.189969 0.074102 -0.14084 -0.066363 0.039933 0.065187 -0.082146 0.112446 0.087808 -0.160352 -0.009849 0.147941 0.008724 0.001965 0.051444 0.072642 0.115385 0.102308 -0.057652 0.00323 -0.112954 0.091396 0.10553 0.025353 -0.089918 -0.023985 0.039749 -0.137362 0.007044 0.029902 -1.0E-4 0.106243 -0.135402 -0.071529 -0.090481 0.078449 -0.010967 0.040289 -0.009141 -0.009611 0.005957 -0.024074 0.187229 0.116527 -0.352349 -0.177939 -0.062101 -0.151301 0.123314 0.111387 0.036913 -0.066029 -0.002741 -0.113741 -0.105726 -0.017879 -0.146113 -0.138918 6.53E-4 0.065718 0.107256 -0.05254 0.072179 0.003146 -0.020879 -0.098193 -0.022799 -0.015521 -0.126999 0.034299 -0.141309 0.039734 -0.203566 -2.24E-4 -0.065759 0.055602 0.01007 -0.057772 0.091771 -0.396469 0.023423 0.208479 0.278339 0.011859 0.082957 -0.146107 0.011012 0.006461 -0.120343
-0.043493 0.068041 0.027357 -0.00449 0.045969 0.212229 -0.136762 -0.006551 -0.039166 -0.021778 -0.014962 0.168769 -0.021348 0.025401 0.071197 0.197736 -0.190327 -0.13488 -0.131632 -0.073814 -0.174072 -0.057868 -0.006272 -0.056045 0.043638 -0.125027 -0.09811 0.193711 0.060269 0.159901 -0.019926 0.114584 0.065624 0.028473 -0.093484 -0.168592 0.088401 -0.02733 0.047739 0.037934 0.019429 -0.156215 -0.18199 0.223582 -0.042127 0.128786 -0.015499 0.082004 0.030697 -0.133407 -0.063078 -0.106211 -0.051813 -0.05388 -0.146621 -0.026877 -0.014861 0.215687 0.256922 -0.162099 -0.024897 -5.17E-4 0.035351 -0.120522 0.046668 0.02134 0.035778 -0.150643 0.103052 -0.035885 0.008598 -0.023232 -0.074518 0.056675 0.081494 -0.071999 -0.055206 -0.094751 -0.017867 -0.156815 0.145292 -0.018903 0.099551 -0.049034 0.056381 0.133272 0.204716 0.028873 0.215886 0.06758 -0.049342 0.032697 -0.056927 0.047245 0.202724 0.037292 -0.250656 -0.003707 0.105397 0.130675
-0.162025 0.102074 -0.187529 -0.013859 0.006433 -0.092926 0.024955 0.043412 -0.038733 0.069989 -0.123861 0.147637 -0.176919 0.011186 -0.240437 0.060167 0.073611 0.133444 0.072377 -0.046647 -0.053791 -0.166202 0.038037 -0.089412 -0.204558 -0.026865 0.035634 0.083495 -0.125289 0.054907 0.016126 0.021358 0.036649 -0.045001 -0.157142 -0.128037 -0.076373 -0.062705 -0.015578 -0.013558 -0.142545 -0.074228 0.04057 0.145427 -0.017548 0.078389 -0.183299 0.084835 0.117821 0.116763 -0.207619 0.178404 -0.251387 0.240437 -0.003779 -0.061806 -0.061749 -0.019827 -0.120459 -0.032552 -0.118214 0.047277 0.069816 0.153133 -0.005757 0.13632 -0.043305 0.197871 0.02674 -0.275518 -0.030734 -0.18406 -0.01204 0.006695 0.10457 -0.065778 0.147944 0.107602 0.005474 0.007919 -0.031363 0.101537 0.131831 -0.019001 0.232183 0.181545 0.143605 0.072471 -0.005958 0.228728 0.180371 -0.13407 0.05825 -0.013669 0.115625 -0.102017 0.003976 -0.189595 -0.004904 0.192612
0.068309 -0.087153 0.064088 0.029203 -0.01056 -0.05189 -0.319101 0.018184 0.046379 0.074911 0.057877 0.116514 0.064875 0.048157 0.218086 0.140645 0.009322 0.070816 0.044347 -0.052735 -0.210997 0.059279 0.196713 0.039629 -0.115573 -0.180613 -0.031741 0.00392 0.18097 -0.05016 -0.050022 -0.113127 -0.119195 0.172167 -0.053294 -0.057206 -0.033516 -0.012544 0.097178 0.132225 0.034236 0.246164 0.066823 0.125837 -0.104736 -0.092266 0.003926 0.039428 -0.11496 0.064544 0.080264 0.03101 -0.061713 -0.115002 0.073857 1.7E-4 0.059467 0.019265 0.095627 0.027502 -6.75E-4 -0.093541 0.01298 -0.136598 -0.027045 -0.114165 0.001047 0.096691 0.163498 -0.171826 0.030981 -0.062518 -0.079589 0.018883 0.049457 -0.068213 -0.149212 -0.007308 -0.116269 -0.056372 -0.107137 0.116841 0.041356 -0.167596 -0.142247 0.061077 -0.044624 0.081563 0.181855 0.098523 -0.040912 -0.032021 -0.026201 0.21486 -0.194414 -0.140253 0.220125 -0.03751 -0.198192 -0.010955
0.142855 2.096782 -0.44488 -0.186519 4.581101 0.368552 1.025096 -0.312802 -2.617651 -0.157005 2.963322 2.120705 -1.775955 -0.565663 0.972057 2.924774 -3.483148 -0.388176 -2.731071 -0.326463 1.005034 -0.173592 0.985748 -2.472826 -0.247049 -1.602126 -2.48254 -0.015307 0.921201 -0.634243 -0.734395 -4.469334 -2.338912 -3.86095 -2.404253 -1.170435 3.191081 0.66076 0.725646 -0.864367 -2.371157 -0.851367 -3.29822 -1.074393 -2.64488 2.784424 -0.996674 2.506345 2.15789 -2.159862 -0.441733 -0.926918 -0.098512 0.757891 -1.999629 -4.007104 0.387073 -3.003765 1.204233 -2.431844 -2.281004 -0.27222 1.915759 2.567541 -2.305997 0.668549 -1.469449 -4.443738 -0.244681 3.958085 3.663286 2.390184 0.145926 -1.914193 1.202993 0.085106 1.119028 1.764289 0.413107 1.270882 2.30135 -2.063297 -0.209725 -0.837978 1.54811 -1.075222 1.662849 3.024555 -0.817108 2.02425 0.827332 0.999754 -2.964958 -4.68355 2.112919 1.12159 -1.379614 1.011169 -1.034187 2.880255
1.939635 1.52901 1.289587 3.251535 -1.724015 -0.88548 -1.305419 2.302571 -1.417341 -1.68966 -0.63789 2.076267 -3.058223 1.539613 1.180597 0.029053 -0.321402 -2.23572 -2.38652 1.658533 -1.245721 -0.526509 -3.599429 0.754249 -0.80274 0.507379 -2.39552 1.105986 -0.056637 -0.438303 1.940801 -2.557426 0.985315 3.029874 0.213126 0.861485 3.121805 0.640059 -0.820139 -2.40745 -0.196076 -4.070904 0.803788 0.627065 2.287266 2.341116 0.489852 -1.57276 1.345608 0.42161 3.228641 4.822541 2.307207 0.997003 -2.753309 0.364194 3.286885 -0.854741 -0.545387 -4.263543 -0.321177 2.708668 -5.839749 -0.190246 1.192365 1.834868 0.85099 3.023894 0.019983 -0.356687 2.290085 -1.712409 1.283075 5.053623 2.119578 0.310527 -1.882558 -2.366862 0.130671 -0.478639 1.414622 1.526558 0.318589 2.752702 0.046978 -1.332104 0.951956 1.81757 -0.872666 2.804518 -1.758129 0.070445 -0.158419 -4.010314 -0.794193 0.288862 -0.172084 0.635215 -0.313457 -0.581935
1.155368 3.302179 -0.818617 0.201583 -0.372035 -0.220049 -2.421694 1.24088 1.022918 0.281963 -0.56672 0.218504 -2.654141 0.687099 1.426786 -2.744465 -2.044989 -0.49789 -1.769702 -2.328375 -1.105508 0.104665 -0.061522 -2.669585 1.369504 1.778184 -0.869744 -1.441309 0.051265 1.116249 1.903031 -0.163683 1.731475 -0.652558 -1.459245 -0.212579 0.382415 1.861636 -0.394668 -0.423196 -0.983827 -1.176007 1.844253 0.853456 0.976233 -0.076248 -1.490589 -0.553926 0.506191 0.326236 0.251095 1.038919 -0.803142 0.658979 -3.236482 -1.07965 1.27678 -0.350029 -1.778651 0.292774 0.002745 0.267431 1.072933 -0.321661 -1.19536 -1.465055 -2.523761 -3.574044 -0.123843 -0.515256 3.2036 -0.08683 1.099575 -0.639959 -1.310584 0.629968 -0.142079 0.66081 -1.289981 -0.152693 -0.105374 0.388507 -1.068849 2.207516 -1.516502 0.618648 0.057959 1.61471 0.888036 -0.337188 -0.73306 -0.809614 -1.409634 -0.094797 -0.938314 1.210802 1.47048 2.210952 -1.933366 0.819087
-0.130974 -0.112318 0.157221 0.085962 -0.063368 0.076295 -0.086595 -0.05331 -0.099596 0.118038 0.151446 0.10832 0.012365 0.003407 0.138204 0.107297 -0.024699 0.296783 0.083546 0.028176 -0.055304 0.181851 0.121102 0.10818 -0.160284 -0.173263 -0.079079 -0.011196 0.213956 -0.091735 -0.142677 -0.053815 0.061741 0.154703 -0.041203 -0.047572 -0.05149 -0.06694 -0.067508 0.039876 -0.003954 0.132646 0.007986 -0.11102 0.047832 -0.061563 0.062487 -0.04567 -0.197181 -0.013123 0.121474 -0.054545 -0.014542 0.039408 0.163127 -0.059516 -0.016383 -0.061746 0.144925 -0.023901 0.078052 -0.092145 -1.74E-4 -0.109874 -0.032049 0.003953 0.108545 0.095312 0.100044 -0.135824 -0.112887 -0.030076 0.038707 -0.073147 -0.047057 -0.032887 -0.133122 -0.062855 -0.0031 -0.029235 0.016653 0.179251 0.0605 -0.269787 0.083438 -0.006227 0.067538 0.012615 0.263406 0.056452 -0.115465 -0.020556 -0.002455 0.015122 0.024599 -0.047254 0.059027 0.069598 0.028257 -0.06297
-0.341617 1.271173 -0.130955 0.795787 -2.761413 -0.037935 -2.08451 -0.749854 0.456374 0.189509 -1.784466 1.321352 -0.024572 0.775721 0.351052 -0.494201 0.597239 -2.035014 -1.822623 -1.26338 -1.852038 -3.261221 1.17085 -0.884857 0.341201 1.056519 -0.475283 -0.906839 -0.359697 -0.03678 0.485601 -0.573014 1.410657 0.602444 -0.65226 0.019708 2.334166 -4.120307 2.452699 0.37493 -0.43807 -0.885798 -0.909782 -0.866844 0.863746 -0.109914 -1.745782 -0.759427 1.102647 -0.229513 0.72866 5.020656 0.453599 0.948257 -0.341321 1.003234 1.507241 0.335139 -0.119095 -0.324834 2.432309 -1.518503 1.178541 1.207634 -1.537357 0.986701 1.190043 1.531747 -0.881239 0.152745 2.223002 -0.773424 1.003136 -1.671927 1.512302 -1.435468 2.471683 -0.288325 -0.945258 1.550236 1.231926 -1.03075 -3.561653 2.778667 1.207369 -1.904946 0.700824 -0.061776 -1.652007 -1.511937 -0.523117 -3.702699 1.471395 1.453605 -0.015539 0.288359 -0.016453 0.953476 -0.698522 -1.664865
-0.014396 0.082447 -0.109268 0.082441 -0.038427 0.044959 0.08352 -0.097354 -0.124596 0.069881 0.114373 0.175699 -0.278408 -0.068332 -0.011784 0.173558 -0.139559 0.028685 -0.00473 0.06413 -0.180627 0.158804 0.258376 -0.100247 0.084898 0.054906 0.029596 0.04115 -0.089845 -0.095533 0.206413 -0.257796 0.061659 -0.063879 0.070665 0.010502 0.085251 -0.04332 -0.046657 0.04108 -0.04291 -0.146298 0.065803 0.001192 -0.225191 -0.100141 0.015416 -0.131741 -0.143418 0.122845 0.118215 -0.189256 -0.011975 -0.023515 -0.119716 -0.045592 -0.067528 0.048595 -0.069715 -0.039977 -0.195763 -0.02676 -0.143712 -0.09207 -0.04767 -0.230304 0.072053 -0.177982 0.094911 0.043541 0.068832 0.099011 0.058238 -0.003209 -0.147618 0.215826 -0.194987 -0.054128 -0.28095 -0.123122 -0.235107 0.12491 0.083253 0.125093 0.081769 -0.098388 0.045012 0.107848 0.210614 0.09562 0.193032 0.002507 -0.151159 0.016803 -0.061331 0.045844 0.169206 -0.064913 -0.025154 -0.00117
0.09576 -0.098004 -0.106568 0.074397 -0.040875 -0.152321 0.19116 0.023902 0.00628 0.098652 0.054112 0.032805 0.094532 0.041258 -0.022226 0.052494 0.116263 0.039275 0.045265 -0.191539 -0.172502 -0.056243 -0.025182 0.046224 -0.110255 0.025619 -0.046542 0.182606 0.159782 -0.173316 0.157067 -0.096032 -0.100027 -0.08644 0.076363 -0.142909 -0.019154 -0.135714 -0.14712 0.105099 -0.007121 -0.119551 -0.129838 -0.145447 -0.016169 -5.82E-4 -0.364261 0.01213 0.149342 -0.269451 0.193455 0.011762 -0.029444 0.027533 0.266819 0.029134 0.121279 -0.051195 -0.034757 0.201852 -0.178791 0.080369 0.075856 -0.020191 -0.159726 0.004099 -0.070089 -0.092496 -0.117542 -0.112977 0.126694 -0.084325 0.07382 0.035756 -0.039917 0.00757 -0.1319 -0.202254 -0.087732 -0.08485 0.020051 -0.179413 -0.111027 0.066531 -0.158572 -0.022933 -0.022481 0.086715 -0.127336 0.159179 -0.005092 -0.125853 0.056492 2.81E-4 -0.135336 0.137918 0.047966 0.01247 0.118745 0.027926
0.03493 -0.068118 0.132844 0.176315 0.107823 0.053858 0.006985 -0.018157 -0.213415 0.111053 0.020741 0.043736 -0.027093 0.137052 0.11699 0.059177 0.100954 0.141361 0.052933 0.055522 0.054073 0.153422 0.070043 -0.048292 0.038189 0.120294 -0.035213 0.046511 0.025829 0.011882 -0.127926 -0.144195 0.057105 -0.059021 -0.177076 0.206158 -0.101386 0.122123 -0.063389 -0.028613 -0.020374 -0.005995 -0.106676 -0.153741 0.041566 0.051899 -0.215131 -0.101061 0.096232 0.033951 -0.088936 0.043976 0.046066 -0.24792 0.106176 0.054334 -0.042923 -0.019118 -0.11611 0.1546 -0.002811 0.106799 0.119332 0.064634 -0.128624 -0.146718 -0.016856 0.012809 0.122706 0.163665 0.126128 0.213675 -0.162849 -0.055501 -0.129859 -0.028247 -0.074913 0.104947 0.045839 0.115419 -0.005842 -0.163038 -0.041627 -0.133011 -0.046627 -0.053558 0.101631 0.153348 0.217873 -0.109352 0.016815 0.063175 0.19653 -0.138073 0.049502 0.118835 0.074912 -0.123203 0.045501 0.157464
-0.671963 -1.356401 3.602218 0.823366 -0.502176 -0.026847 2.688116 0.953721 0.412325 -0.074957 -2.563688 0.379861 -0.279054 0.512633 -0.426346 -0.669122 -2.193019 -1.985633 1.195718 -0.843091 -3.07709 -2.336138 0.676971 -1.157188 0.84245 -0.067074 1.662677 -0.902702 0.573933 0.762577 1.605777 -0.494156 -0.764054 -4.857189 1.199538 0.081996 1.582965 -1.800896 1.133021 -2.874443 -0.067305 0.527258 -0.963475 2.056148 -0.810059 -2.590427 0.192699 -0.925293 0.533123 0.50128 0.198265 1.047486 -1.15476 -0.133629 -3.660616 2.9145 0.67414 -1.747608 -1.472014 0.506851 -0.089567 -1.009712 -0.989767 -0.231732 -1.20197 -0.899847 -0.180586 -0.280434 1.214359 0.601947 3.002038 1.452004 1.898121 0.64863 -0.773459 -0.546508 1.482508 0.349815 -0.022055 1.977613 1.349274 -0.187718 2.026595 2.419264 -2.256871 -0.764584 -0.110956 2.609596 -0.511332 0.497735 1.205947 -0.553892 0.146347 -2.201324 -0.117853 -0.193777 0.312823 3.388883 -4.036498 2.412019
1.815418 0.654852 -0.256483 -1.397407 2.101842 1.802144 0.385527 2.62131 -2.104203 2.033119 -3.526781 0.092577 0.341161 -0.002891 0.571047 4.609436 1.150391 -4.177905 -2.28919 2.579473 0.094588 -3.001034 -2.291169 -2.804683 0.549761 -1.088593 -0.577049 -1.444589 0.215522 -1.710604 0.815599 -1.145555 2.183792 1.684825 -2.399412 -0.199692 2.755002 -4.765173 -0.211239 -2.361275 2.043496 -6.213054 0.143804 -1.141037 -0.167978 -2.013893 -1.801212 0.128754 0.607318 2.293955 4.997328 4.457933 0.624194 1.0149 -1.872277 -0.111373 2.908833 0.237943 -1.067192 -0.826865 -1.561504 -1.192556 -1.311968 0.727627 1.634309 -0.557627 2.040709 0.621674 -1.590427 -1.427803 1.08292 -0.633078 -1.880037 1.151657 0.483396 -1.245704 -0.391996 -1.074685 0.546417 1.938725 1.355645 1.00482 1.007191 1.431956 -1.261764 -0.704501 4.181545 -1.494449 1.834674 -0.418833 -1.774271 -2.066933 -1.337595 0.111644 1.270495 3.44202 0.964179 2.28273 1.161315 0.280188
-0.034619 -0.118161 -0.03208 0.119363 -0.289276 -0.113859 -0.008637 -0.054313 -0.249319 -0.041533 -0.070203 0.078997 0.084154 0.013728 0.001662 0.171291 0.077073 0.321654 0.185935 0.225228 -0.141763 0.059874 0.006196 0.080651 -0.101606 0.068326 -0.118365 0.08016 0.099506 -0.080152 -0.08134 0.036014 0.027518 0.109969 -0.126604 -0.025204 -0.080005 -0.195268 0.054564 -0.050012 -0.245457 -0.027457 -0.15381 0.021808 -0.003057 -0.047086 -0.081924 0.016879 -0.209179 -0.030424 0.069484 -0.090391 -0.113695 -0.015036 -0.035689 -0.306072 -0.187492 -0.044381 0.015562 -0.036898 0.122547 -0.092884 -0.126803 -0.165335 -0.094774 0.17417 -0.055284 0.049574 -0.139513 0.034238 0.053265 0.174716 0.184393 0.0427 0.104614 -0.112107 -0.055945 -0.054923 -0.077621 -0.074994 0.13115 -0.119209 0.053278 -0.021921 -0.194023 -0.124223 0.143287 -0.008007 0.060987 0.133328 -0.101395 -0.099724 -0.047674 0.21519 -0.065638 0.041596 -0.062902 0.096619 0.050133 -0.017696
2.591633 1.608701 -2.087245 2.00752 3.012652 4.995656 0.847355 -1.594905 -0.365708 -1.629805 -1.650237 3.712017 -0.231463 -0.537534 -2.036098 2.002639 -0.696666 -4.310136 -1.477319 -1.356504 -0.581823 -1.830239 -0.272773 -1.648095 0.090509 0.008711 0.330842 0.396714 2.341035 -0.526067 1.155793 -1.730906 -1.010387 -1.342646 -1.939355 0.734869 0.727366 0.700702 1.516974 -2.133831 -0.280653 -3.051674 0.017123 0.532043 1.478449 0.375441 0.920129 1.548929 1.087478 0.668327 0.707416 3.249232 -0.362503 1.273221 -2.929682 -0.245389 1.633444 -0.119836 0.103459 -3.445175 0.513245 0.427807 0.738792 1.448203 0.501908 0.362882 -0.731533 -0.391201 0.037778 3.053553 4.030229 1.793904 1.24136 0.081706 -1.401954 -0.638804 -0.487445 -0.267924 0.012844 0.538179 -0.241935 -0.068756 1.351665 -0.112558 0.001814 0.447262 0.833441 -0.023876 1.212707 1.514635 -0.568611 0.376173 -3.663739 -4.345135 -0.444319 2.139788 -2.53093 0.92131 -1.399435 1.763954
0.060854 -0.011986 -0.038491 -0.215355 -0.196333 0.013959 -0.162443 0.134481 -0.212497 0.029634 0.027952 0.080762 -0.014948 0.07979 0.015262 0.106256 -0.140167 0.062221 0.056658 0.003705 -0.127495 0.040146 0.071066 0.123334 -0.170067 0.049084 0.064598 0.034576 -0.153861 0.059129 -0.122907 0.101599 -0.03729 -0.144749 -0.054557 -0.088295 -0.096698 -0.031594 -0.004937 -0.058224 0.001627 0.103749 0.057639 0.173077 -0.067248 -0.148184 0.083801 0.091989 -0.051326 0.080511 -0.039954 -0.034848 -0.141769 0.053141 0.11912 -0.065528 0.056766 -0.008784 0.041694 -0.183181 0.047779 -0.041783 0.00709 -0.08381 0.007302 0.024247 -0.021254 -0.09643 -0.074851 -0.010163 -0.029143 -0.169037 0.234911 -0.065547 0.066872 -0.113811 0.166807 0.067121 -0.162991 0.064033 0.092899 0.075295 0.092263 0.124227 -0.013228 -0.080937 0.005278 0.092741 0.111105 0.017927 -0.012814 0.028827 -0.039962 0.069081 -0.075695 -0.087783 -0.156934 -0.049833 0.008716 -0.058487
-0.01962 -0.05695 -0.107025 0.054649 0.052361 0.085034 0.024466 -0.158673 -0.158075 -0.116891 0.029933 0.047456 -0.118 -0.059339 -0.059388 0.061936 -0.143942 0.031008 0.086891 0.153955 -0.050165 0.024443 0.007827 0.124126 0.080677 -0.029323 0.091258 0.053866 0.081644 0.064287 -0.054257 -0.028253 -0.256732 0.081018 -0.088313 0.032974 0.042676 -0.117601 0.061631 -0.140403 -0.07452 -0.054501 0.032488 -4.88E-4 -0.002733 -0.172753 0.080065 0.080482 -0.078265 -0.007758 -0.006831 0.192073 -0.226863 -0.148704 -0.077058 0.095931 -0.101971 0.007738 0.002738 -0.183185 -0.078416 0.085421 0.059795 -0.001629 0.254022 0.097468 0.133822 -0.286067 -0.040077 -0.152735 -0.022574 -0.055336 0.070615 0.049166 -0.010149 0.124306 -0.200914 0.0219 -0.057625 -0.098357 0.051517 0.133641 0.087347 -0.228762 -0.142815 0.287694 0.017566 -0.007529 0.013309 0.111164 -0.041189 0.0265 -0.082694 0.06888 -0.005759 -0.144865 -0.019904 0.042003 -0.114617 -0.141964
