0.0 0.0 0.0 0.0 0.0 0.0 0.0 0.0 0.0 0.0 0.0 0.0 0.0 0.0 0.0 0.0 0.0 0.0 0.0 0.0 0.0 0.0 0.0 0.0 0.0 0.0 0.0 0.0 0.0 0.0 0.0 0.0 0.0 0.0 0.0 0.0 0.0 0.0 0.0 0.0 0.0 0.0 0.0 0.0 0.0 0.0 0.0 0.0 0.0 0.0 0.0 0.0 0.0 0.0 0.0 0.0 0.0 0.0 0.0 0.0 0.0 0.0 0.0 0.0 0.0 0.0 0.0 0.0 0.0 0.0 0.0 0.0 0.0 0.0 0.0 0.0 0.0 0.0 0.0 0.0 0.0 0.0 0.0 0.0 0.0 0.0 0.0 0.0 0.0 0.0 0.0 0.0 0.0 0.0 0.0 0.0 0.0 0.0 0.0 0.0
4.09546 -2.282237 1.560777 -1.501211 -1.35074 -0.415266 -1.242711 -2.590696 -1.33992 0.210722 0.638315 0.677155 1.838753 -0.562853 -0.770779 0.286342 1.055852 -0.41167 0.23418 2.00118 -0.307869 -0.120556 -0.187204 -1.542111 3.456205 3.55073 -0.112753 -0.516519 0.939152 0.67428 -1.352463 -1.59465 0.64529 0.100873 -0.693588 -1.451396 1.009306 -0.346548 -0.949409 0.989568 -1.136258 0.954176 -0.262594 -0.149053 1.905464 -1.106072 -0.50272 -0.626569 -0.642468 -1.063999 -0.197208 -1.702689 0.569973 1.08782 -1.534137 1.357036 1.287423 -1.530617 -0.301645 -0.446224 1.298418 -0.757032 1.230007 -0.905219 -0.842275 0.921656 2.269439 -1.273352 -1.170364 1.113564 1.836859 -1.908085 0.737833 -0.360646 -3.471805 -0.993132 2.174768 -1.625098 1.590848 0.265645 -0.540379 -0.488286 -0.782854 -0.630813 0.573406 0.78568 2.476748 -1.622003 -1.242167 -1.823344 1.98524 1.285475 -2.045451 2.533998 -2.743841 0.087987 -0.28101 3.293372 0.420925 -1.513104
0.042073 -0.04842 0.19777 0.105992 -0.147167 -8.79E-4 0.035673 -0.2248 -0.011774 0.109034 0.121706 -0.075898 -0.021454 0.010515 0.083152 0.279004 0.005445 0.181972 -0.024128 0.215169 -0.071534 0.150165 0.133256 0.093808 -0.24995 -0.124576 0.043665 0.010737 0.083782 -0.256944 0.008616 -0.076191 -0.247966 0.165418 0.04838 -0.148447 0.169279 -0.196105 -0.237028 0.05749 -0.012047 0.170882 0.093254 0.101128 0.011619 -0.098392 -0.041343 0.239809 -0.144969 0.056826 0.060227 -0.035978 -0.160176 0.028136 0.041426 -0.0243 0.174787 -0.059005 0.108101 0.00292 0.184141 -0.060595 0.016423 -0.242279 -0.130339 -0.080119 0.056443 -0.104359 0.131527 -0.012953 -0.205221 0.151199 -0.083828 0.080973 0.131528 -0.080467 -0.062853 0.14609 0.149817 -0.062415 0.007214 -0.095099 -0.033119 -0.2174 -0.040931 -0.118067 0.013366 0.042482 -0.043211 -0.055878 -0.066733 -0.049178 0.016288 0.044974 -0.0985 -0.150254 0.160717 -0.011585 0.03681 -0.029117
0.0 0.0 0.0 0.0 0.0 0.0 0.0 0.0 0.0 0.0 0.0 0.0 0.0 0.0 0.0 0.0 0.0 0.0 0.0 0.0 0.0 0.0 0.0 0.0 0.0 0.0 0.0 0.0 0.0 0.0 0.0 0.0 0.0 0.0 0.0 0.0 0.0 0.0 0.0 0.0 0.0 0.0 0.0 0.0 0.0 0.0 0.0 0.0 0.0 0.0 0.0 0.0 0.0 0.0 0.0 0.0 0.0 0.0 0.0 0.0 0.0 0.0 0.0 0.0 0.0 0.0 0.0 0.0 0.0 0.0 0.0 0.0 0.0 0.0 0.0 0.0 0.0 0.0 0.0 0.0 0.0 0.0 0.0 0.0 0.0 0.0 0.0 0.0 0.0 0.0 0.0 0.0 0.0 0.0 0.0 0.0 0.0 0.0 0.0 0.0
-0.237603 -0.322869 1.57988 0.017533 -1.525795 0.020333 0.044794 -0.015665 1.152958 0.291213 0.940759 -0.530241 0.381716 -0.5093 1.920509 -1.103562 -0.043506 0.748156 1.564475 -0.860019 0.098513 1.730979 -2.632284 -0.153174 0.174876 -0.542692 -0.672136 -0.478952 1.626644 1.316375 0.304106 0.490587 -0.928002 0.630735 2.294378 -0.549211 -0.897221 -1.390372 0.41502 -1.1772 0.77457 -0.174123 -1.336602 -0.233446 0.220443 -1.484625 2.647639 1.114956 -2.759864 -0.127619 -0.532204 0.068716 -0.48858 1.966067 -0.359381 -0.178236 -0.291328 0.056269 0.937314 0.184892 0.535374 -0.584545 -0.428033 2.88764 -1.031248 -0.271645 1.150753 1.192559 1.37581 -1.542177 -0.373325 -2.533493 -1.382718 -0.440781 -0.529452 0.349893 -0.585985 1.67864 1.937183 0.034396 -0.851214 0.963828 0.227334 -0.506606 1.085239 0.606116 -0.162256 -0.64197 2.174728 -0.728368 1.016807 -0.346933 -0.656301 1.599789 1.508362 0.841724 -2.199468 0.530352 1.167717 -1.188172
-0.367298 1.852956 0.851637 3.879449 0.67329 -0.437611 -3.740025 -0.819029 -0.034197 -1.125678 1.583054 0.641084 1.760521 -2.417966 2.071559 1.541403 -0.364456 -2.045233 -1.291425 -0.374072 0.100676 1.839637 1.894462 -3.333383 2.159593 2.122563 0.913584 -0.201719 1.900225 0.705046 -3.04343 -3.182626 -0.576891 1.831513 -0.060742 0.205095 0.091152 -2.520165 0.353316 -3.077898 2.573116 -0.724479 1.20538 1.379056 -1.738512 1.392854 0.858945 0.057221 1.213615 1.020141 0.850385 -0.153843 -0.793735 0.739919 -2.677098 0.658607 1.660899 2.347171 2.144111 -2.465367 -1.509209 -1.222343 -1.816739 0.707265 1.303236 -0.416975 3.080741 -2.929158 -2.661182 2.257514 2.172203 -0.933568 -0.618328 -0.748699 -3.98723 -1.835054 -0.456234 2.056715 -0.791524 3.560835 -0.411818 1.098612 1.324841 -1.227352 1.32943 -0.692619 1.632958 -2.695266 1.492363 0.355869 1.124378 -1.581521 -0.504656 1.428062 -0.175915 1.52847 -1.635602 4.087485 -0.414234 -1.191379
0.211973 -0.092191 0.01682 0.00752 -0.11148 -0.047151 -0.25211 -0.003559 -0.041992 -0.017392 0.122586 0.034418 0.291369 -0.102373 -0.070912 0.044721 -0.037685 0.08884 -0.12695 0.052702 -0.138448 -0.099887 0.082444 -0.152166 -0.132671 -0.010184 0.109569 0.040997 -0.034255 0.047064 -0.148467 -0.018285 -0.147244 -0.042001 -0.140929 -0.010691 0.04411 -0.119782 0.172568 0.126907 0.105579 0.15357 0.14665 0.145278 0.091117 -0.05353 -0.193694 0.066034 -0.138542 0.096085 -0.005513 -0.069577 -0.011472 0.010994 0.003303 0.010795 0.160352 -0.11605 -0.06194 0.155729 0.121073 -0.029254 -0.068439 -0.077468 -0.01889 0.238292 0.150529 0.086785 0.059525 -0.055921 0.002162 0.009488 0.078624 -0.01507 -0.122375 0.092598 0.123685 -0.136243 -0.014708 0.146005 -0.103784 0.036213 -0.001301 -0.15136 0.045672 0.035058 0.208834 -0.02604 0.113545 -0.054453 -0.180944 0.107466 -0.150036 0.21497 -0.025215 -0.011393 -0.072722 -0.081144 -0.046588 -0.073746
0.272925 0.074589 0.053428 0.149729 -0.038595 1.94E-4 -0.02082 -0.061328 0.073214 -0.014886 -0.219131 0.034796 0.13956 -0.066053 0.079904 0.055773 0.028209 -0.009729 -0.011094 -0.004949 0.001401 0.01321 -0.116146 0.039404 -0.01961 -0.145184 0.079976 0.040052 -0.056554 -0.147645 -0.102994 0.032806 -0.092969 -0.027893 -0.163734 -0.026898 -0.026666 0.033049 0.005013 -0.154728 -0.102823 0.086701 0.007689 0.072597 0.074765 -0.061317 -0.068223 0.070875 0.083477 -0.046414 0.093183 -0.099545 0.063144 0.007826 -0.063721 0.048271 0.013551 -0.075612 -0.177011 -0.110105 0.031273 -0.108415 0.011442 -0.005059 0.073814 -5.11E-4 0.055663 0.144559 0.076007 -0.006402 -0.01815 -0.029863 0.074295 0.144931 -0.072884 -0.147686 0.015881 0.031682 0.01925 -0.017849 0.14015 0.102573 -0.009642 0.029305 -0.004816 -0.001338 -0.08489 0.049403 0.067985 0.001653 0.052317 0.082771 -0.13526 0.06272 -0.20429 -0.14213 -0.115382 -0.001077 -0.03825 -0.039527
3.322062 -0.265634 -0.735154 2.489034 -1.549194 -0.370133 -2.85541 0.499724 -0.172708 -3.397511 0.143702 0.456534 -1.93133 1.644423 -0.23368 -0.12296 0.093273 -1.427844 -0.169109 -0.509316 -0.580429 0.786699 0.175151 -1.03489 0.337075 0.36145 -0.211685 0.21299 2.950213 -1.105234 -0.113019 -0.031153 -0.080691 0.990142 -0.445701 0.665022 0.019549 -1.90728 -0.505327 0.482388 -0.184872 -4.355522 0.03715 -1.044724 2.722995 0.318193 -0.279438 -2.660588 1.186675 -0.192276 1.613599 1.060277 -0.104392 -1.269176 0.756831 2.352934 0.202164 -0.616742 -2.141583 -1.126701 -1.132055 0.456225 -0.316684 1.434659 0.315292 -3.012048 0.10395 0.289529 2.018274 -1.852321 1.148049 -0.519265 -1.203755 1.144202 1.552803 1.064291 -0.586655 -0.588132 1.197221 0.825025 -0.481297 -0.345366 -1.794823 -2.117278 -0.459074 0.815676 0.137778 1.134037 -1.061045 1.852647 -2.738344 0.285432 -1.804952 1.025348 1.028271 1.79492 -2.875999 1.219375 -2.91363 -1.359497
-0.121524 -0.227351 0.113353 0.169352 -0.130114 -0.124717 -0.108175 0.040505 -0.232562 -0.018037 0.374124 0.169692 -0.028565 0.073213 0.031387 0.294315 -0.019125 0.077106 -0.00298 -0.065813 -0.064717 0.035303 0.244328 0.134513 -0.083201 0.00608 -0.024715 0.077917 0.205389 -0.343129 0.031506 0.016586 -0.063619 0.15852 -0.060664 -0.11862 0.022578 0.015366 0.147319 0.168964 -0.310328 0.002891 0.0445 0.063564 -0.053177 -0.070132 0.006053 -0.05789 -0.032352 0.039979 0.252424 -0.082549 -0.072584 0.126057 -0.031413 -0.048988 0.078736 -0.037162 0.028203 -0.226004 0.167711 -0.003229 0.005191 -0.088668 -0.133734 0.0116 0.037407 0.014827 -0.033767 -0.130143 -0.034844 -0.045446 0.110328 -0.080159 0.001987 -0.059285 -0.126979 -0.085273 -0.029149 -0.093646 -0.076419 0.011192 0.021982 -0.043225 -0.129479 -0.091502 -0.071658 0.126855 -0.063095 -0.021848 -0.141352 -0.026111 -0.191287 0.050296 -0.129445 1.84E-4 0.034024 0.02912 0.021536 0.066421
-0.131412 -0.153548 -0.015992 0.062269 -0.088461 -0.045761 -0.287168 0.014868 -0.06698 0.191395 0.078403 0.22703 0.126178 -0.005813 0.132048 0.235961 -0.064137 0.163278 0.042551 -0.107035 -0.003995 0.085457 0.281796 0.038868 -0.187028 -0.150025 -0.097858 -0.052855 0.165882 -0.194736 0.041902 0.015882 -0.072836 0.037878 -0.021233 -0.065937 -0.076355 -0.092079 0.045042 0.035157 -0.101657 0.053954 0.105623 0.057097 0.02385 -0.212707 0.069661 0.054448 -0.271268 -0.025172 0.140201 -0.197679 -0.040296 0.168729 0.187148 -0.061838 0.108259 0.00643 0.120259 -0.003719 0.045585 -0.156169 -0.018631 -0.076812 -0.125059 -0.043788 0.134941 0.003964 0.130733 -0.214949 -0.029034 0.071575 0.004423 -0.121553 -0.011078 -0.057322 -0.193979 -0.122124 -0.034401 0.024891 -0.082347 0.031802 0.100564 -0.123503 0.031103 0.134733 0.062006 0.134019 0.121023 -0.02549 -0.284112 -0.078451 -0.085209 0.137794 -0.046257 -0.067393 0.190402 -0.193309 -0.074527 -0.013619
0.0 0.0 0.0 0.0 0.0 0.0 0.0 0.0 0.0 0.0 0.0 0.0 0.0 0.0 0.0 0.0 0.0 0.0 0.0 0.0 0.0 0.0 0.0 0.0 0.0 0.0 0.0 0.0 0.0 0.0 0.0 0.0 0.0 0.0 0.0 0.0 0.0 0.0 0.0 0.0 0.0 0.0 0.0 0.0 0.0 0.0 0.0 0.0 0.0 0.0 0.0 0.0 0.0 0.0 0.0 0.0 0.0 0.0 0.0 0.0 0.0 0.0 0.0 0.0 0.0 0.0 0.0 0.0 0.0 0.0 0.0 0.0 0.0 0.0 0.0 0.0 0.0 0.0 0.0 0.0 0.0 0.0 0.0 0.0 0.0 0.0 0.0 0.0 0.0 0.0 0.0 0.0 0.0 0.0 0.0 0.0 0.0 0.0 0.0 0.0
0.036737 -0.032921 0.024463 0.001525 -0.14953 -0.081921 0.05195 0.033054 0.042371 0.187633 -0.169856 -0.043431 -0.173636 0.224604 -0.099043 -0.052621 -0.094147 -0.087315 -0.205223 0.126826 -0.051988 0.057934 0.007092 0.028646 0.030134 0.006318 0.118765 0.00841 -0.042876 -0.067148 -0.15148 -0.042306 0.047684 0.10077 -0.040846 -0.155266 0.173754 7.38E-4 -0.149543 -0.155015 0.042332 1.9E-5 0.164393 -0.109523 -0.01025 0.019395 0.060378 0.084138 0.12078 -0.042878 0.08194 -0.06976 0.047308 0.056745 0.006819 -0.026824 -0.156007 0.042841 -0.214906 -0.100455 0.001679 0.056153 0.00309 0.056995 -0.027269 0.054063 -0.021361 -0.118937 -0.039109 0.253888 -0.099679 0.068347 0.024916 0.004649 0.026359 0.067277 0.089904 -0.116294 -0.057639 -0.070171 0.238942 -0.101354 -0.104886 -0.195107 -0.268537 -0.124495 -0.010152 -7.27E-4 0.045996 0.182311 -0.129108 -0.070264 -0.013 0.100287 -0.131971 0.14376 -0.073632 0.262197 -0.055353 0.017675
0.104903 0.047798 0.270268 -0.13093 -0.060625 -0.162685 -0.141898 -0.037236 -0.102428 0.026918 0.013486 0.09772 0.068518 0.058852 -0.088293 0.098675 -0.195484 -0.04071 0.033783 0.300416 -0.053359 0.088899 -0.090925 0.001489 -0.005114 -0.072226 -0.226401 0.099779 0.035939 0.072239 -0.166759 -0.100003 0.032373 0.09018 -0.16884 -0.201112 0.037788 -0.114858 -0.096921 -0.113661 -0.15007 0.030828 -0.080091 -0.014413 0.143144 0.091899 0.033192 0.131995 -0.132175 0.151441 -0.187628 -0.075196 -0.033282 -0.211935 -0.061562 -0.140429 -0.035336 -0.241092 -0.127997 -0.043274 -0.027253 -0.085262 0.114711 0.006374 -0.206265 0.064929 0.185568 -0.006563 -0.053707 0.018988 -0.032982 0.132066 0.081614 0.13098 -0.099082 -0.049519 0.137891 -0.068149 0.088497 -0.109237 0.037558 0.100419 -0.085668 -0.077566 -0.179044 -0.067753 0.033294 0.056566 0.048861 0.002365 -0.042033 0.0863 -0.115848 -0.031431 0.15967 0.006357 -0.006167 -0.139574 0.059853 0.004861
0.065306 0.063686 -0.012566 0.154984 -0.014401 0.059244 -0.077658 -0.092783 -0.138815 -0.075704 -0.012575 0.18126 -0.020271 0.13377 -0.108647 0.199521 -0.255838 -0.147322 0.011326 0.033619 0.002653 -0.068512 0.110284 0.164298 0.079722 0.111501 0.065638 0.197626 0.105318 -0.233858 -0.052579 -0.004917 -0.065369 0.104232 0.025214 -0.046018 0.065418 0.020588 -0.072886 0.069364 -0.008921 0.177066 0.096943 0.170122 -0.062214 -0.12942 -0.087833 -0.006706 -0.066541 0.099457 0.076236 0.011103 -0.101043 -0.172596 -0.123384 -0.025379 0.101168 0.007367 -0.06959 -0.019615 0.046156 0.008659 -0.056448 -0.060091 0.025334 0.004767 -0.008621 0.12476 -0.096496 0.062108 0.080699 0.030222 -0.074782 0.118934 0.016842 0.167276 -0.08019 0.080375 -0.00227 -0.148371 -0.151306 0.003533 -0.07835 0.007443 0.092128 0.014502 0.098558 0.017676 0.138183 -0.104973 -0.070305 0.00377 -0.034174 0.073549 -0.08994 -0.023395 0.03066 -0.099567 -0.098802 0.075536
-0.09934 -0.062029 -0.012865 -0.023035 0.077935 -0.141662 -0.038637 -0.126917 -0.047713 0.01353 -0.083063 0.091854 0.034232 -0.093364 -0.047834 0.094061 0.049415 -0.013824 0.283973 -0.047889 -0.193213 -0.022274 0.036753 0.058758 -0.160258 -0.145685 -0.054265 -0.004506 0.057219 0.083314 -0.200878 0.052735 -0.127008 0.034037 -0.201518 0.060764 0.023506 0.060494 0.053049 -0.068594 -0.077978 0.131147 0.132948 0.195361 0.124343 0.008687 -0.099827 -0.056502 0.004792 0.052042 -0.01264 -0.022933 0.063065 -0.126756 -0.008828 0.077112 -0.122466 0.038396 0.068816 -0.189609 0.007604 0.009846 0.040228 -0.058016 0.124251 -0.013238 0.028348 -0.038512 -0.024977 -0.021307 0.002455 0.052456 -0.19217 0.06577 0.014619 -0.084058 0.020845 0.099508 -0.104539 -0.121184 0.034928 0.133663 -0.081276 0.234717 -0.021473 0.085531 -0.007376 -0.041755 -0.043337 -0.030765 0.074405 0.143148 -0.170614 -0.168356 0.09912 -0.034545 0.069818 0.036555 0.057072 0.133352
0.352905 0.550922 -1.128945 -0.511125 0.774489 1.405335 -0.371647 0.106012 -0.779785 -0.640302 -0.68578 1.570717 -0.712288 -0.706705 -0.789609 -0.045278 -1.599722 -2.840112 -0.089543 -1.158838 -1.862605 -0.62748 -0.063542 -0.468696 0.750564 0.033551 -0.772222 -0.188991 -0.163115 0.455978 0.038455 -0.779588 0.172303 -1.114448 -0.548246 -0.008155 1.66721 -0.744821 -0.15746 -2.668482 -0.304702 -0.905716 0.479063 0.151803 -0.94063 -0.044338 -0.906122 -0.456182 0.281891 0.268287 0.47007 0.628019 0.328428 1.471286 -2.345457 0.072073 -0.345477 -0.998199 -1.496897 -0.053061 0.351206 -0.934426 0.295591 0.07336 0.24092 0.486976 0.390085 -0.621556 0.375246 -0.02625 1.957847 1.014101 0.004675 0.08874 -0.900479 -0.462149 0.922254 1.355385 -1.048724 0.105897 1.254466 0.410718 0.321258 1.066395 -0.171761 -0.128774 0.315556 0.697301 -0.180925 0.555334 1.005586 -0.891677 -1.232923 -1.994189 -0.567812 0.204184 -0.947385 -0.051526 -0.987029 0.725141
-0.086123 0.074993 0.212462 0.00604 -0.19742 0.040974 -0.064998 0.055935 -0.105467 -0.007105 0.188499 0.096306 -0.009957 -0.090601 0.062213 0.135871 -0.133449 -0.010894 -0.229075 -0.14737 -0.039668 0.042208 0.336187 0.05031 0.017805 -0.034033 0.154546 0.11725 -0.022108 0.168697 0.290008 0.001064 0.142927 0.149561 -0.113623 -0.017583 0.019202 -0.044991 -0.028141 0.089949 0.083438 -0.017306 -0.06815 -0.100476 -0.089294 -0.112114 -0.12706 0.005884 0.034237 0.139264 -0.090823 0.227815 -0.110654 0.023136 -0.007846 -0.045796 0.026713 -0.219082 -0.1108 -0.193686 -0.010009 -0.010329 -0.087937 -0.083482 0.023197 0.003368 0.027477 0.036165 -0.011798 -0.082268 0.326539 -0.104259 0.050311 0.247771 -0.121703 0.046233 -0.042019 0.029867 -0.188337 0.027952 -0.055782 -0.119316 0.087341 -0.182749 0.114092 0.220757 -0.04856 -0.13461 0.235036 0.012536 -0.152967 -0.05819 -0.128229 0.043973 0.110166 -0.051561 -0.06428 -0.1141 0.096956 -0.054528
0.051928 -0.022718 0.110346 0.03064 0.002081 -0.087092 -0.070299 -0.221204 -0.066588 0.07649 -0.04425 -0.050563 -0.087615 0.062057 0.145147 0.08858 0.009595 -0.052583 -0.085349 -0.130967 -0.118299 -0.073203 0.067784 0.10048 -0.027444 -0.169472 0.008493 0.055386 -0.021438 -0.149794 0.050534 0.006987 -0.168696 0.08202 0.166599 0.00266 0.229066 0.090162 0.063977 0.133318 0.183913 0.023843 0.121141 0.248397 -0.034866 -0.060796 -0.139046 0.013533 0.030086 0.025125 0.142544 0.040122 -0.068194 -0.04874 -0.076652 -0.071966 -0.077834 0.149645 -0.180418 0.105814 0.118648 0.019608 -0.171083 -0.117154 -0.104872 0.060325 -0.142854 -0.19365 -0.049879 0.084074 0.064405 0.104407 -0.075773 0.110656 -0.138055 -0.044067 -0.03438 -0.126981 0.020552 -0.169156 0.057998 0.149067 -0.066041 0.062834 0.003317 0.061552 0.080059 -0.146803 -0.036021 0.126223 2.96E-4 -0.042447 -0.106418 0.003645 -0.076306 0.238658 -0.019856 0.075482 0.113458 -0.02293
0.387672 -1.732787 -2.004218 -0.773066 1.114708 -1.625194 0.597522 -0.849092 -1.274183 -1.111856 0.016078 -1.425523 -1.928905 0.409109 -2.073362 -0.676562 0.092101 -2.287414 -0.188861 0.678645 -1.039282 -0.648278 -0.318096 -0.152726 -1.696499 -0.658952 -0.249829 0.223182 0.408639 0.503734 0.176632 0.601779 0.098571 1.778491 -0.631246 1.31265 1.789412 0.725486 0.871041 0.208045 0.298766 0.094122 0.986638 0.801102 -1.502634 -0.338193 0.792533 0.409166 -0.7796 0.966077 -1.73351 0.151283 -0.559451 1.312039 -0.489192 0.404165 0.110213 -0.210456 0.066614 -0.880009 -0.762134 -0.565187 0.497653 -0.308668 -1.32012 1.1416 -0.623998 -1.327518 1.484636 0.029533 -0.902689 0.060369 -0.794649 0.031928 -0.503438 -0.091516 -0.456738 -0.037197 -1.4345 -0.354366 0.9707 0.153371 0.924517 4.78E-4 -0.451954 0.023629 1.43153 0.395734 0.19795 0.36742 0.59103 -1.001405 0.158356 -0.355038 -0.146283 -0.153247 -1.361329 0.079936 0.372051 -0.214187
1.519526 1.445578 -1.609499 2.582747 2.460795 3.529971 0.431498 -0.524736 0.238502 0.565084 -2.150664 2.607871 -3.578636 0.22885 1.205379 0.400126 -2.365878 -2.228676 -0.500047 -1.958516 -2.734259 -2.028213 -0.339577 -2.726884 0.003785 -1.85554 -0.90189 1.042933 0.930181 0.561229 0.956561 0.220468 -1.219533 -0.188243 -0.649085 -0.117874 2.101841 -0.317004 1.300647 -1.49228 0.533457 -2.976113 -0.635474 -1.431524 -0.943268 0.543614 -2.072507 -1.004219 4.072807 -1.496014 2.612373 2.458477 -0.120651 0.418572 -2.53177 0.646754 2.04053 2.0667 -2.403623 -3.037353 -1.289071 1.269349 0.447478 0.512568 0.464348 -0.142416 -1.155552 0.32258 -0.986119 3.909852 3.839548 0.865499 -1.089316 -1.400134 0.517204 -3.398406 -0.576028 -0.612853 -0.573641 -1.979957 1.278503 1.159562 0.583915 -0.210028 0.851463 1.075476 2.276915 0.114312 2.2836 1.968815 1.899569 0.001135 -2.286771 -2.666814 -1.408445 1.975128 -0.085175 1.44887 -1.994305 2.796178
2.509146 -0.552161 1.034535 1.378933 0.121525 1.267112 -0.264166 1.44874 -0.585351 0.814742 -0.556444 -0.769829 0.721693 3.504652 2.522097 0.698651 -2.00194 1.27341 -3.938691 -1.249814 1.206217 2.236896 -2.105178 2.803302 0.476807 1.734094 -0.304557 -1.727252 -6.730148 2.015861 7.327693 -2.709538 -0.991304 -4.232084 -1.93599 -1.471528 -0.332715 -1.233527 -6.406514 0.046641 0.97283 -0.994667 1.86544 -0.041745 -2.464909 -0.251897 -0.88735 0.232848 -2.86783 -0.039329 0.834739 1.260419 0.129091 -0.430997 -3.704259 -2.831278 0.963296 -3.750342 -1.569821 1.286868 -3.171957 -2.014259 1.227737 0.595818 0.410501 1.398568 -0.483599 -3.157001 2.474234 2.699517 2.327858 -3.891064 -0.294445 1.084606 0.59068 -0.277707 -0.669147 2.024913 0.165398 2.562466 2.359209 -3.092515 -1.052526 -1.255511 1.589703 -4.733644 -0.797907 -0.877859 -0.593432 1.52866 -0.748336 2.11786 -1.366948 -0.910751 -0.194893 -2.824154 0.189273 2.667272 -0.730916 1.569461
2.986683 0.891048 0.502242 2.563102 -0.833594 1.074317 3.695644 -0.777531 2.188026 -0.699979 0.036443 0.733135 -1.432868 -0.891451 -1.142959 -0.942936 1.068958 -1.874863 -5.092594 -1.1966 -1.959903 -2.195483 -2.042068 -1.143233 -1.459129 -1.317735 2.335449 -2.434227 0.201016 -0.60309 3.022425 -0.350954 -0.742291 -3.692008 -0.428454 2.260322 1.299332 2.709176 1.349321 -0.696621 1.114271 -3.635821 0.008208 1.672507 -0.838007 2.333875 -2.054475 0.380345 1.490836 -0.726134 0.769087 3.405334 -1.16381 3.050478 -0.068498 -4.041586 4.555243 -0.814241 -1.668317 0.224789 -0.566141 -0.288359 0.917884 0.934006 -3.229766 1.334999 2.586487 0.072999 0.113326 0.865491 3.495866 2.934418 -0.434585 -2.448313 -1.514856 -0.37738 0.862876 1.158082 -2.049671 3.100108 -0.871714 -1.041083 -2.50899 0.427097 1.673651 2.875635 3.071153 2.417479 -1.666681 -0.917672 -0.608627 3.287783 -1.69514 -2.40585 -1.155071 1.198252 -1.330375 1.26239 -2.958205 2.412288
1.313101 -1.828077 1.255073 -0.57291 -1.221992 -0.141653 0.892546 0.262095 -0.422972 0.52527 2.770927 -2.116018 -1.303039 2.034119 -1.042658 -1.877754 -0.113988 2.948427 -1.157758 0.228368 -1.62103 2.370189 -1.087966 -1.275151 0.610923 3.24562 1.0986 -0.229467 -3.034251 -1.557004 2.718354 -0.823788 -1.708001 -1.364332 0.304998 -1.19356 3.176471 -0.233449 -3.484355 -2.844404 -0.168624 -3.026944 2.318517 -0.33999 -1.533419 -0.264688 -2.004779 -1.258036 -0.82825 0.612678 2.337875 2.021732 1.255669 0.960029 -3.233 -0.309413 2.678803 -1.321722 -2.726613 1.188582 0.358215 2.072681 -2.899753 -1.608204 0.117954 -1.026589 -1.877072 0.22054 -0.516172 0.998566 1.496877 -0.451898 0.04087 3.884146 3.578913 0.680106 -1.856922 0.764707 -0.523331 -0.239934 1.850372 2.376356 -2.081512 2.089242 -1.78243 -2.297229 1.245129 1.257432 -0.202896 -1.347756 -1.270859 2.061053 -0.332924 -0.64474 -1.876097 2.53156 0.742881 -0.423323 2.234084 -1.244354
4.09546 -2.282237 1.560777 -1.501211 -1.35074 -0.415266 -1.242711 -2.590696 -1.33992 0.210722 0.638315 0.677155 1.838753 -0.562853 -0.770779 0.286342 1.055852 -0.41167 0.23418 2.00118 -0.307869 -0.120556 -0.187204 -1.542111 3.456205 3.55073 -0.112753 -0.516519 0.939152 0.67428 -1.352463 -1.59465 0.64529 0.100873 -0.693588 -1.451396 1.009306 -0.346548 -0.949409 0.989568 -1.136258 0.954176 -0.262594 -0.149053 1.905464 -1.106072 -0.50272 -0.626569 -0.642468 -1.063999 -0.197208 -1.702689 0.569973 1.08782 -1.534137 1.357036 1.287423 -1.530617 -0.301645 -0.446224 1.298418 -0.757032 1.230007 -0.905219 -0.842275 0.921656 2.269439 -1.273352 -1.170364 1.113564 1.836859 -1.908085 0.737833 -0.360646 -3.471805 -0.993132 2.174768 -1.625098 1.590848 0.265645 -0.540379 -0.488286 -0.782854 -0.630813 0.573406 0.78568 2.476748 -1.622003 -1.242167 -1.823344 1.98524 1.285475 -2.045451 2.533998 -2.743841 0.087987 -0.28101 3.293372 0.420925 -1.513104
0.042073 -0.04842 0.19777 0.105992 -0.147167 -8.79E-4 0.035673 -0.2248 -0.011774 0.109034 0.121706 -0.075898 -0.021454 0.010515 0.083152 0.279004 0.005445 0.181972 -0.024128 0.215169 -0.071534 0.150165 0.133256 0.093808 -0.24995 -0.124576 0.043665 0.010737 0.083782 -0.256944 0.008616 -0.076191 -0.247966 0.165418 0.04838 -0.148447 0.169279 -0.196105 -0.237028 0.05749 -0.012047 0.170882 0.093254 0.101128 0.011619 -0.098392 -0.041343 0.239809 -0.144969 0.056826 0.060227 -0.035978 -0.160176 0.028136 0.041426 -0.0243 0.174787 -0.059005 0.108101 0.00292 0.184141 -0.060595 0.016423 -0.242279 -0.130339 -0.080119 0.056443 -0.104359 0.131527 -0.012953 -0.205221 0.151199 -0.083828 0.080973 0.131528 -0.080467 -0.062853 0.14609 0.149817 -0.062415 0.007214 -0.095099 -0.033119 -0.2174 -0.040931 -0.118067 0.013366 0.042482 -0.043211 -0.055878 -0.066733 -0.049178 0.016288 0.044974 -0.0985 -0.150254 0.160717 -0.011585 0.03681 -0.029117
0.352905 0.550922 -1.128945 -0.511125 0.774489 1.405335 -0.371647 0.106012 -0.779785 -0.640302 -0.68578 1.570717 -0.712288 -0.706705 -0.789609 -0.045278 -1.599722 -2.840112 -0.089543 -1.158838 -1.862605 -0.62748 -0.063542 -0.468696 0.750564 0.033551 -0.772222 -0.188991 -0.163115 0.455978 0.038455 -0.779588 0.172303 -1.114448 -0.548246 -0.008155 1.66721 -0.744821 -0.15746 -2.668482 -0.304702 -0.905716 0.479063 0.151803 -0.94063 -0.044338 -0.906122 -0.456182 0.281891 0.268287 0.47007 0.628019 0.328428 1.471286 -2.345457 0.072073 -0.345477 -0.998199 -1.496897 -0.053061 0.351206 -0.934426 0.295591 0.07336 0.24092 0.486976 0.390085 -0.621556 0.375246 -0.02625 1.957847 1.014101 0.004675 0.08874 -0.900479 -0.462149 0.922254 1.355385 -1.048724 0.105897 1.254466 0.410718 0.321258 1.066395 -0.171761 -0.128774 0.315556 0.697301 -0.180925 0.555334 1.005586 -0.891677 -1.232923 -1.994189 -0.567812 0.204184 -0.947385 -0.051526 -0.987029 0.725141
-0.102614 -0.099475 0.085657 0.114214 -0.174633 0.00167 -0.128489 -0.27251 -0.122477 0.010324 -0.04905 0.20052 0.036703 -0.085413 -0.14657 -0.111772 -0.046451 0.144664 0.071125 0.056407 0.128629 -0.043865 0.279001 0.00216 -0.001147 0.043021 -0.172072 -0.033501 0.120288 -0.033281 0.03452 0.062926 -0.042581 0.126131 0.046009 -0.223817 -0.080349 -0.037007 -0.006182 0.161916 0.078662 0.016513 -0.033871 -0.084106 -6.08E-4 -0.074789 -0.001596 0.105068 -0.2456 -0.159232 0.048982 -0.021171 -0.040227 -0.084268 0.057845 -0.191311 -0.062788 0.099843 0.03478 0.13319 0.150124 -0.054815 0.053543 -0.075255 -0.143864 -0.003571 -0.039694 -0.007446 -0.052385 -0.009662 -0.007843 0.113192 0.206043 -0.085786 0.082453 0.037012 -0.224118 -2.21E-4 0.177387 0.033138 -0.079091 0.228129 0.017452 0.017177 0.118917 0.109724 0.040268 -0.008909 -0.077777 0.080633 -0.053898 0.011918 0.081279 0.047961 0.012235 -0.069943 0.24665 0.063567 -0.070276 -0.05648
0.121575 -0.079788 0.103187 0.042526 -0.02565 -0.2098 0.100189 0.112957 -0.02249 0.121232 0.100742 0.045981 0.361736 -0.103104 -0.084388 0.022914 -0.056345 -0.064711 -0.057715 -0.088808 -0.122989 -0.169835 -0.152485 0.035916 0.058326 -0.001706 -0.030846 -0.031978 -0.104542 -0.071331 0.315373 -0.110795 -0.185749 0.177601 -0.002242 0.043156 0.025239 -0.197476 0.039382 0.158826 -0.011778 -0.060275 -0.087892 -0.015741 0.018871 0.070085 0.139952 0.062823 0.012539 0.162533 0.071327 -0.243084 -0.063715 -0.10766 0.024442 0.036355 -0.105432 0.057394 0.078546 -0.038671 -0.095157 0.040178 -0.044842 -0.040839 0.044461 0.129862 -0.01832 -0.00354 -0.083689 0.022793 0.041592 0.171666 6.47E-4 0.039823 0.055176 0.050015 0.055454 -0.086412 -0.059563 0.079669 -0.251376 0.077438 0.018824 0.017041 0.094691 0.057114 0.196196 0.168369 0.02414 -0.020079 0.001146 0.134422 0.001206 0.033213 -0.276667 -0.151795 0.265972 0.085725 0.076361 0.08591
1.035361 1.319725 0.388011 1.220811 -0.236045 1.447081 -1.78193 3.520004 0.063077 -1.681862 0.545208 0.767849 -1.479444 -1.152839 0.669301 0.685509 -2.946755 -2.239533 -1.187422 -1.793336 0.607402 0.130687 0.296681 -1.569517 1.825066 1.715849 -1.639836 0.849724 -1.742086 0.427502 3.84844 -1.377145 0.671096 -1.312902 -1.152387 0.705431 2.180344 2.97496 1.402098 -0.909545 -1.649212 -0.253421 1.186817 1.193823 3.167747 -0.387379 -0.12198 0.872223 0.13285 0.490844 0.029473 1.345032 0.297008 2.724698 -1.656047 -0.109585 1.500583 -1.148555 -3.658389 1.022988 -1.211381 0.342059 -0.023586 1.22536 -1.874871 -1.957746 -0.188066 -0.235303 -0.067175 1.107354 1.448404 0.838301 1.67396 -0.238039 -0.504146 -1.334739 0.688005 0.37731 -2.953094 0.650433 0.307563 -0.457962 -1.694326 2.40152 -0.816994 0.208705 1.853393 0.15935 -0.989952 1.089235 1.087388 -2.786835 -2.248864 -0.788939 0.405791 0.907533 -1.516669 1.970717 -0.345554 -0.134731
0.040639 0.081814 0.04287 0.062167 0.092794 0.114908 -5.3E-4 -0.061893 -0.128806 0.029658 -0.102642 0.050736 0.021353 0.278962 0.156361 -0.045776 -0.059025 0.007615 0.069272 0.03742 0.044666 -0.205296 -0.009373 0.060588 0.130976 -0.007905 -0.098053 0.083234 0.088487 0.073668 -0.063313 0.05638 -0.149995 0.040243 0.139103 0.120814 0.186168 0.077513 0.035539 -0.137722 0.149343 -0.011946 0.157701 0.051791 -0.073664 0.096946 -0.283681 0.058369 -0.065895 0.126711 -0.040991 -0.045914 -0.057224 -0.17697 0.066608 0.102407 -0.15335 -0.00258 -0.222251 -0.069709 -9.96E-4 0.033302 -0.223593 -0.01348 0.109527 0.085455 -0.086426 0.046289 0.047765 0.150103 -0.094972 -0.019492 -0.08396 0.061637 0.042416 0.083935 -0.175169 -0.031524 -0.150901 -0.072843 -0.056665 0.199748 0.160562 -0.070466 0.072887 0.025233 0.011767 0.031496 0.08045 -0.027642 0.037393 0.123465 -0.042501 0.013419 0.046506 -0.08898 -0.024989 -0.132646 0.135167 0.194549
0.272925 0.074589 0.053428 0.149729 -0.038595 1.94E-4 -0.02082 -0.061328 0.073214 -0.014886 -0.219131 0.034796 0.13956 -0.066053 0.079904 0.055773 0.028209 -0.009729 -0.011094 -0.004949 0.001401 0.01321 -0.116146 0.039404 -0.01961 -0.145184 0.079976 0.040052 -0.056554 -0.147645 -0.102994 0.032806 -0.092969 -0.027893 -0.163734 -0.026898 -0.026666 0.033049 0.005013 -0.154728 -0.102823 0.086701 0.007689 0.072597 0.074765 -0.061317 -0.068223 0.070875 0.083477 -0.046414 0.093183 -0.099545 0.063144 0.007826 -0.063721 0.048271 0.013551 -0.075612 -0.177011 -0.110105 0.031273 -0.108415 0.011442 -0.005059 0.073814 -5.11E-4 0.055663 0.144559 0.076007 -0.006402 -0.01815 -0.029863 0.074295 0.144931 -0.072884 -0.147686 0.015881 0.031682 0.01925 -0.017849 0.14015 0.102573 -0.009642 0.029305 -0.004816 -0.001338 -0.08489 0.049403 0.067985 0.001653 0.052317 0.082771 -0.13526 0.06272 -0.20429 -0.14213 -0.115382 -0.001077 -0.03825 -0.039527
-0.01875 -0.285329 -0.002424 0.108049 -0.121485 0.011509 -0.309429 0.071278 0.030139 -0.09504 0.026686 -0.113073 0.095932 -0.179022 0.042966 0.129678 0.08961 0.196302 0.063608 0.023636 0.017566 0.282635 0.203737 -0.001727 -0.166336 0.016611 0.066798 0.070245 -0.044842 -0.010532 0.02894 0.068283 0.222737 -0.011348 -0.061199 -0.009894 -0.096135 0.074612 0.011411 0.061689 -0.114957 0.107116 0.054659 -0.135911 0.206663 -0.107839 -0.106604 0.14633 0.055843 0.071442 0.032643 -0.128132 0.097352 -0.140302 -0.003045 -0.183681 0.160041 -0.078107 0.0398 -0.116372 -0.065673 -0.00229 -0.127849 0.022587 0.141333 -0.050803 0.054219 -0.019527 0.040823 -0.187221 -0.087694 0.011191 -0.043953 -0.204306 0.081344 -0.016947 -0.105763 -0.100188 -0.004993 0.025402 0.12403 0.063183 0.003483 0.031502 -0.006452 0.015156 -0.143862 -0.149512 -0.053303 0.05853 -0.072347 -0.161299 0.009473 0.162584 0.023232 0.039946 -0.041596 -0.076351 -0.12545 -0.034996
2.530173 0.327177 0.044399 2.625334 0.517888 3.557013 2.451318 1.203172 0.111454 -0.877836 0.993505 0.925239 1.70411 0.184584 -3.344441 1.315561 -0.223449 -2.33738 -2.700772 -0.177901 -1.208876 -0.974611 0.664627 0.037142 -0.411572 -1.077825 -0.024273 -1.794378 -0.79838 -0.926177 3.292136 -1.096174 0.976798 -1.896207 -1.609797 -1.230844 0.232738 2.949578 -0.057924 -1.08101 1.370068 -0.923634 0.013831 -0.366606 1.583532 1.295864 0.295803 -0.518726 2.034311 1.638716 1.043836 2.014617 -1.517668 -0.761905 -2.216174 -0.119334 3.167721 0.564994 0.454407 -1.398431 -0.704063 0.182806 0.235055 0.009481 2.114973 0.423103 -0.915837 0.320128 -0.302114 1.741244 4.241235 1.532705 0.087395 1.733089 -1.914919 -1.555496 -2.553138 1.728217 0.554317 -0.161995 -0.15281 1.367703 -2.754788 0.402091 1.267373 0.151077 2.107006 0.23132 0.858491 -0.235151 -0.562467 1.447642 0.923927 -1.409843 -1.953653 0.852024 -1.663305 0.809944 -2.182186 3.15735
2.591633 1.608701 -2.087245 2.00752 3.012652 4.995656 0.847355 -1.594905 -0.365708 -1.629805 -1.650237 3.712017 -0.231463 -0.537534 -2.036098 2.002639 -0.696666 -4.310136 -1.477319 -1.356504 -0.581823 -1.830239 -0.272773 -1.648095 0.090509 0.008711 0.330842 0.396714 2.341035 -0.526067 1.155793 -1.730906 -1.010387 -1.342646 -1.939355 0.734869 0.727366 0.700702 1.516974 -2.133831 -0.280653 -3.051674 0.017123 0.532043 1.478449 0.375441 0.920129 1.548929 1.087478 0.668327 0.707416 3.249232 -0.362503 1.273221 -2.929682 -0.245389 1.633444 -0.119836 0.103459 -3.445175 0.513245 0.427807 0.738792 1.448203 0.501908 0.362882 -0.731533 -0.391201 0.037778 3.053553 4.030229 1.793904 1.24136 0.081706 -1.401954 -0.638804 -0.487445 -0.267924 0.012844 0.538179 -0.241935 -0.068756 1.351665 -0.112558 0.001814 0.447262 0.833441 -0.023876 1.212707 1.514635 -0.568611 0.376173 -3.663739 -4.345135 -0.444319 2.139788 -2.53093 0.92131 -1.399435 1.763954
1.645496 -1.752086 -2.830571 -1.054982 -1.079069 1.403389 0.748278 -1.949334 -2.216442 -2.023381 -0.13921 -5.199272 -0.4568 0.438897 0.294446 2.225049 2.992516 -4.437229 -2.858034 0.088572 -2.745615 -4.805355 -2.081676 -0.054173 -2.917201 -2.466804 -1.474815 -5.440045 1.74954 -1.933369 2.091968 0.268781 2.244256 3.776333 -2.025334 -1.754825 1.087721 2.351612 1.308409 0.602403 1.846822 0.691434 1.351243 1.427828 -5.605643 0.877831 2.028826 2.707525 2.024516 1.143245 -3.413446 0.306086 4.072926 4.650352 -3.23923 -1.463191 -1.301777 -2.476546 0.063102 -0.859236 -2.012634 -4.599081 1.259772 -2.045433 0.272725 -0.51335 0.465264 -4.10729 5.626825 0.925096 1.635578 -0.917793 -2.78683 -0.151473 -4.345518 -0.37098 -1.354027 -1.23557 -1.685086 1.498929 -0.517867 2.622731 2.199554 2.291852 -2.886335 -2.368492 3.000562 -3.02E-4 -0.078724 -0.715195 3.680484 -6.04159 0.755848 -4.019189 3.190495 -0.82118 -1.74472 1.00616 -1.862514 1.839674
0.352905 0.550922 -1.128945 -0.511125 0.774489 1.405335 -0.371647 0.106012 -0.779785 -0.640302 -0.68578 1.570717 -0.712288 -0.706705 -0.789609 -0.045278 -1.599722 -2.840112 -0.089543 -1.158838 -1.862605 -0.62748 -0.063542 -0.468696 0.750564 0.033551 -0.772222 -0.188991 -0.163115 0.455978 0.038455 -0.779588 0.172303 -1.114448 -0.548246 -0.008155 1.66721 -0.744821 -0.15746 -2.668482 -0.304702 -0.905716 0.479063 0.151803 -0.94063 -0.044338 -0.906122 -0.456182 0.281891 0.268287 0.47007 0.628019 0.328428 1.471286 -2.345457 0.072073 -0.345477 -0.998199 -1.496897 -0.053061 0.351206 -0.934426 0.295591 0.07336 0.24092 0.486976 0.390085 -0.621556 0.375246 -0.02625 1.957847 1.014101 0.004675 0.08874 -0.900479 -0.462149 0.922254 1.355385 -1.048724 0.105897 1.254466 0.410718 0.321258 1.066395 -0.171761 -0.128774 0.315556 0.697301 -0.180925 0.555334 1.005586 -0.891677 -1.232923 -1.994189 -0.567812 0.204184 -0.947385 -0.051526 -0.987029 0.725141
0.0 0.0 0.0 0.0 0.0 0.0 0.0 0.0 0.0 0.0 0.0 0.0 0.0 0.0 0.0 0.0 0.0 0.0 0.0 0.0 0.0 0.0 0.0 0.0 0.0 0.0 0.0 0.0 0.0 0.0 0.0 0.0 0.0 0.0 0.0 0.0 0.0 0.0 0.0 0.0 0.0 0.0 0.0 0.0 0.0 0.0 0.0 0.0 0.0 0.0 0.0 0.0 0.0 0.0 0.0 0.0 0.0 0.0 0.0 0.0 0.0 0.0 0.0 0.0 0.0 0.0 0.0 0.0 0.0 0.0 0.0 0.0 0.0 0.0 0.0 0.0 0.0 0.0 0.0 0.0 0.0 0.0 0.0 0.0 0.0 0.0 0.0 0.0 0.0 0.0 0.0 0.0 0.0 0.0 0.0 0.0 0.0 0.0 0.0 0.0
0.0 0.0 0.0 0.0 0.0 0.0 0.0 0.0 0.0 0.0 0.0 0.0 0.0 0.0 0.0 0.0 0.0 0.0 0.0 0.0 0.0 0.0 0.0 0.0 0.0 0.0 0.0 0.0 0.0 0.0 0.0 0.0 0.0 0.0 0.0 0.0 0.0 0.0 0.0 0.0 0.0 0.0 0.0 0.0 0.0 0.0 0.0 0.0 0.0 0.0 0.0 0.0 0.0 0.0 0.0 0.0 0.0 0.0 0.0 0.0 0.0 0.0 0.0 0.0 0.0 0.0 0.0 0.0 0.0 0.0 0.0 0.0 0.0 0.0 0.0 0.0 0.0 0.0 0.0 0.0 0.0 0.0 0.0 0.0 0.0 0.0 0.0 0.0 0.0 0.0 0.0 0.0 0.0 0.0 0.0 0.0 0.0 0.0 0.0 0.0
-0.070971 -0.064854 0.004986 0.061964 -0.103726 0.208108 -0.045402 0.013717 -0.072056 -0.096217 0.147479 0.08622 0.026679 0.006955 0.050267 0.113365 -0.087714 -0.032501 0.012783 -0.035611 -0.166181 0.153913 0.026235 0.137809 -0.181254 -0.096843 -0.020289 0.077251 0.208079 -0.001088 -0.025673 -0.009426 -0.074272 -0.017198 -0.026982 -0.240008 -0.020063 -0.05605 0.171424 0.020122 0.065468 0.015502 0.040366 0.092929 0.011346 -0.051348 0.066473 -0.082357 -0.06156 -0.08698 0.043746 -0.087755 -0.031002 0.114776 -0.256847 -0.026437 -0.155105 -0.029106 0.095888 -0.058717 -0.102588 -0.12305 -0.050077 -0.17907 -0.04543 0.150673 0.163283 -0.022418 0.104048 -0.050214 0.178961 0.100213 -0.031743 -0.00891 0.02628 -0.180775 -0.141311 0.100586 0.057878 -0.12643 0.030562 0.134144 0.179218 -0.040294 0.055233 0.024144 0.026894 -0.047326 0.196354 0.014809 -0.137309 -0.033345 -0.158903 0.130053 -0.097632 0.07278 -0.134722 0.065336 -0.035322 0.008441
0.030704 -0.206462 0.064976 -0.00687 -0.209351 -0.168003 -0.06931 0.060265 -0.03732 0.046542 0.025542 0.041684 0.047167 0.161303 -0.055177 -0.033293 0.033523 0.072761 0.058267 0.086034 -0.013935 0.049555 -0.017706 0.074921 0.019471 0.086714 -0.096246 -0.025452 0.086065 -0.035741 0.060105 -0.112978 -0.129534 0.258079 -0.162157 -0.032915 -0.131184 -0.231986 -0.077578 0.175834 -0.151475 0.117953 -0.201249 0.066729 0.177812 7.04E-4 -0.214068 0.005722 -0.02784 0.11653 -0.101423 0.009237 -0.142269 -0.017764 0.006809 0.165093 -0.135994 -0.226114 -0.118639 0.009669 -0.066443 0.037287 -0.091448 -0.053515 -0.105391 0.140502 0.124786 -0.103088 -0.095539 -0.033559 -0.112676 0.02652 0.082417 0.119307 -0.030018 0.052599 -0.020961 0.085254 0.041477 -0.012481 0.042914 0.048682 -0.018737 8.45E-4 0.001595 0.033773 0.061552 0.030925 -0.049348 0.01485 -0.06277 -0.165623 -0.190792 0.049753 -0.02772 0.078959 0.109236 0.222668 0.034369 -0.055595
0.185938 -0.089624 0.093234 0.147536 -0.11459 -0.129008 -0.09481 -0.008017 -0.075406 0.0206 0.119411 0.100719 -0.033793 -0.109748 0.239836 0.145497 0.032362 0.132324 -0.001636 0.056896 -0.207768 0.14385 0.103415 -0.067541 -0.08987 -0.002098 0.003064 0.060203 0.149974 -0.225837 0.178074 0.043982 0.12233 0.044586 -0.058302 0.17733 -0.198181 0.002445 -0.169354 0.158764 -0.047726 -0.005613 -0.108721 -0.188066 0.076265 -0.007771 -0.001382 -0.030905 0.0393 0.141754 0.159115 -0.006548 -0.01495 -0.030699 0.059923 0.007514 -0.081255 0.014984 -0.157812 -0.086708 0.051821 -0.228048 -0.183213 -0.164892 0.021959 -0.050445 -0.007444 -0.141708 -0.039219 -0.202261 0.013122 0.23699 -0.082318 0.070748 0.231225 0.002655 -0.105667 -0.196822 0.099719 0.039002 -0.142883 0.048344 0.164295 -0.164501 0.042459 0.006267 0.221968 0.201626 0.073428 0.235844 -0.12395 -0.056444 0.124315 0.063309 -0.00743 0.033688 0.071343 0.150496 0.072951 -0.079105
0.04085 0.020294 0.030758 0.145131 -0.103897 -0.037075 0.010537 -0.079658 -0.139335 -0.09515 -0.221669 0.19133 0.010928 -0.016761 0.073982 0.035694 -0.108615 -0.049893 0.072463 0.090303 -0.003118 0.075402 0.204109 -0.013495 -0.034201 0.041194 0.012401 -0.061924 0.005573 -0.163728 0.034713 -0.169838 0.019492 0.061929 -0.141001 0.01793 0.056398 0.019986 -0.046904 -0.023738 0.007318 0.017959 -0.048712 0.013833 -0.051139 0.107722 -0.192108 -0.040825 -0.031239 0.028031 -0.04503 -0.351384 0.056992 -0.180194 0.038295 0.206999 -0.015198 0.127417 -0.054079 -0.017226 0.203103 0.008971 0.033423 -0.02163 -0.083162 0.004417 0.009069 0.089076 0.142411 0.157173 0.071527 0.079105 -0.02407 0.037876 0.114782 0.03421 -0.051246 0.027421 -0.034876 0.017961 -0.078123 0.193338 0.087768 0.048162 -0.021618 0.016852 -0.190618 -0.16027 0.013001 0.123145 -0.084532 -0.043707 -7.33E-4 0.050065 -0.150524 -0.235844 0.081908 -0.112951 -0.056839 0.105284
-0.061018 0.157623 0.117298 -0.109258 0.01787 0.045393 -0.022422 -0.294216 0.022256 0.058558 0.038763 0.036359 0.07868 -0.152594 -0.142051 -0.006561 0.048106 -0.186814 -0.219902 -0.146332 -0.040248 0.162923 0.206328 0.008315 0.064041 -0.061214 0.088903 0.028344 0.024874 0.075935 -0.107993 -0.283393 0.084838 0.187131 0.046335 0.263285 0.01179 -0.091048 -0.068498 -0.122058 -0.038751 -0.129411 -0.058456 -0.131053 0.030694 -0.04914 0.090078 0.005105 0.098069 -0.099897 0.334519 -0.048818 0.274796 -0.137175 0.00266 0.139418 0.004345 0.119594 -0.040263 -0.21202 0.038889 -0.176923 0.158875 0.078129 0.025839 -0.016447 -0.02998 -0.060089 -0.040361 0.099583 -0.008088 -0.092105 -0.119375 0.043943 0.139698 -0.224044 0.190238 -0.066093 0.103458 -0.004324 -0.130908 0.064415 0.004283 -0.207982 0.059064 0.041556 -0.028417 0.088197 0.079813 -0.058325 -0.11522 -0.016049 -0.123872 0.006802 0.019293 0.070081 0.043632 0.294809 -0.077686 0.04626
0.46614 -0.48121 -0.628632 -0.310621 -0.18549 -0.155703 0.149708 -0.313284 0.125907 0.262019 0.113617 -0.416148 0.103062 0.03736 -0.071418 -0.183426 -0.160021 0.12108 -0.048671 -0.137747 -0.177325 -0.886235 -0.019159 0.007207 0.150816 0.230367 -0.060541 -0.092101 -0.002094 -0.122872 0.058421 -0.235817 -0.055425 0.524405 0.097146 -0.176745 0.351023 0.004758 0.195602 -0.195869 0.144896 0.153682 0.03546 -0.078932 -0.271199 0.186094 -0.017122 -0.015055 -0.264444 0.336666 0.117298 -0.110749 -0.372175 0.143371 -0.265705 0.210962 -0.111659 -0.247683 -0.645904 0.300749 -0.142777 0.176702 0.053494 -0.169244 0.120452 0.521298 0.031318 0.045369 0.044431 -0.030838 0.17546 0.275324 0.108199 -0.485468 -0.073608 0.023118 -0.109632 0.006752 -0.112119 -0.13245 -0.200267 0.243669 0.059729 -0.174978 0.017191 0.208367 0.257728 0.021765 -0.130715 0.097004 -0.189494 -0.035125 -0.308647 0.123327 -0.309289 0.013011 0.191384 0.081145 -0.03686 -0.006402
-0.09067 -0.072452 -0.029969 0.041195 0.008034 -0.067001 0.027088 0.013088 -0.056415 0.020037 0.027725 0.03864 0.077856 0.057204 -0.126794 -0.075962 0.084863 -0.193561 -0.115548 -0.031015 -0.148968 -0.026676 0.01073 0.182989 0.069126 0.23577 -0.039018 0.115624 0.036649 -0.252333 -0.050148 0.09057 0.011043 0.160366 0.084074 0.062182 -0.129155 0.136218 0.258716 -0.035953 -0.046743 -0.229426 -0.065967 0.079041 0.111649 0.202503 -0.003308 -0.192093 -0.006333 -0.029196 -0.020928 -0.103588 -0.029498 0.060413 -0.214528 -0.019681 -0.241893 -0.062558 -0.025506 -0.034589 -0.185146 0.028277 -0.057065 -0.178886 0.07281 0.18637 0.031707 -0.026575 0.114957 0.183242 0.14145 -0.021234 -0.050322 0.181065 -0.023229 0.011694 -0.07374 -0.124929 0.173044 -0.283091 -0.02144 -0.065629 0.014598 0.011121 -0.13138 -0.211611 -0.066388 0.09092 -0.160608 -0.198549 -0.002838 0.044207 -0.100996 -0.08377 0.074862 0.145048 -0.020364 0.078934 -0.132652 -0.042272
-0.019706 -0.145242 -0.122787 -0.025671 0.145106 0.031524 -0.275041 -0.0709 -0.006053 0.073354 0.286241 0.343709 -0.212871 -0.07867 -0.045261 0.186722 0.170896 0.305223 0.354803 0.088141 -0.030515 0.042086 0.02879 0.169761 -0.133984 -0.226611 -0.123985 -0.004098 0.120111 -0.147155 -0.048636 -0.263586 -0.069398 0.071883 -0.039912 -0.213113 -0.020763 -0.006976 0.062398 0.013356 -0.004257 0.519273 -0.017954 0.199207 0.073616 -0.144031 -0.001655 -0.206376 -0.227646 -0.059971 -0.058292 -0.020765 -0.065085 -0.023748 0.090468 -0.073725 0.069063 0.114197 -0.326625 -0.26851 0.198798 -0.297594 -0.044988 -0.148157 -0.043126 -0.157496 0.180401 0.117417 0.023881 -0.20358 0.03505 -0.016076 -0.212179 0.099587 -0.052272 -0.092711 -0.058712 -0.012781 -0.036761 -0.098762 -0.078315 0.067382 0.034245 -0.093544 0.132454 -0.083435 0.121453 -0.149926 0.285521 0.124799 0.05276 0.04325 -0.05441 0.059682 -0.139771 0.157769 0.166039 0.23828 -0.0291 -0.129086
-0.19975 -0.163397 0.046376 0.108494 -0.086906 -0.079634 -0.174304 -0.190655 -0.16796 0.054171 0.073367 0.100495 0.028349 0.089697 0.084377 0.226077 -0.144981 0.170875 0.030617 -0.002744 -0.049142 0.147196 0.014105 -0.098415 -0.097857 -0.116433 -0.221617 -0.031682 0.328072 0.174668 0.066348 0.00991 0.088367 -0.047556 0.007861 -0.096847 0.029124 0.106336 -0.027728 0.071993 -0.012189 0.143203 -0.02933 0.062494 -0.056761 -0.120269 -0.12018 -0.017668 -0.062963 0.101128 0.16565 -0.026171 -0.079002 -0.131484 -0.015915 0.040522 -0.181151 -0.002836 0.057121 -0.107145 0.126391 -0.080741 0.019065 -0.07346 -0.064256 0.100005 0.14671 -0.007299 -0.060089 0.006398 0.030183 0.114927 0.121747 -0.032423 0.073375 -0.013173 -0.065432 0.056931 -0.211812 0.024416 -0.072059 -0.018436 0.023346 -0.02972 0.040747 0.006594 0.315286 0.127171 0.034984 0.125694 -0.126999 -0.159279 0.204473 0.190888 -0.115081 -0.166722 0.05582 -0.005334 0.014762 -0.26041
-0.016095 -0.221284 0.154147 0.093093 -0.120192 0.173908 -0.009705 -0.062873 -0.097971 0.137386 0.059271 0.045163 -0.065457 0.01889 -0.037035 0.045368 0.1175 0.198912 0.027443 0.049138 -0.042477 0.075536 0.202853 0.161862 -0.146452 -0.063646 -0.104058 -0.063138 0.129651 -0.168296 -0.002577 -0.201428 -0.111876 0.014249 -0.123669 0.114499 0.087389 0.002974 0.04855 0.008512 -0.042541 0.277842 -0.001672 -0.050937 -0.046334 -0.066218 0.042947 -0.042938 -0.186846 0.030015 -0.10853 -0.017529 0.039545 -0.011386 0.134336 0.017813 -0.024028 -0.223112 -0.028306 -0.146831 0.074678 -0.10251 0.053908 -0.090249 0.05946 0.029108 0.159652 0.239093 0.131553 -0.085899 -0.158752 0.111013 -0.005195 -0.102156 0.082513 0.012178 0.041918 -0.038406 0.020171 -0.023594 -0.186237 -0.048326 -0.017435 -0.139643 0.051259 -0.004046 0.168775 0.021147 0.119302 0.125884 -0.196788 -0.0487 0.121817 0.079223 0.066627 -0.023851 -0.042194 0.036156 0.066127 -0.313196
-0.00748 0.008934 0.084012 0.058355 0.014717 -0.007749 0.049191 -0.004629 -0.19388 0.002544 0.023517 -0.017794 -0.041612 0.118092 0.030013 0.06713 0.059148 -0.063731 0.026805 0.045672 0.091358 -0.026115 -0.012112 -0.084014 0.084465 0.046661 -0.046214 0.124803 0.169411 -0.120919 0.04224 -0.049386 0.002178 4.99E-4 -0.077977 0.099082 0.160779 0.015714 -0.038237 -0.038505 -0.15526 -0.029645 -0.016159 0.011524 -0.033447 0.234569 -0.117053 -0.152178 9.83E-4 0.032873 -0.170528 0.014042 -0.035236 -0.16959 -0.047424 0.118509 0.01316 0.012827 -0.022312 0.00153 0.028431 -0.301698 -0.098529 -0.119883 -0.007442 0.051439 0.016674 -0.135401 0.012726 0.116778 -0.153128 0.033551 0.020124 -0.034638 -0.081244 -0.019062 0.060226 0.199609 0.148264 0.174214 -0.052223 -0.009188 -0.005825 0.024146 0.228024 -0.050454 0.091037 0.028217 0.149879 0.17964 0.195036 0.033133 0.031735 -0.040466 -0.041427 -0.04243 -0.127373 0.015268 -0.053538 -0.07438
1.035361 1.319725 0.388011 1.220811 -0.236045 1.447081 -1.78193 3.520004 0.063077 -1.681862 0.545208 0.767849 -1.479444 -1.152839 0.669301 0.685509 -2.946755 -2.239533 -1.187422 -1.793336 0.607402 0.130687 0.296681 -1.569517 1.825066 1.715849 -1.639836 0.849724 -1.742086 0.427502 3.84844 -1.377145 0.671096 -1.312902 -1.152387 0.705431 2.180344 2.97496 1.402098 -0.909545 -1.649212 -0.253421 1.186817 1.193823 3.167747 -0.387379 -0.12198 0.872223 0.13285 0.490844 0.029473 1.345032 0.297008 2.724698 -1.656047 -0.109585 1.500583 -1.148555 -3.658389 1.022988 -1.211381 0.342059 -0.023586 1.22536 -1.874871 -1.957746 -0.188066 -0.235303 -0.067175 1.107354 1.448404 0.838301 1.67396 -0.238039 -0.504146 -1.334739 0.688005 0.37731 -2.953094 0.650433 0.307563 -0.457962 -1.694326 2.40152 -0.816994 0.208705 1.853393 0.15935 -0.989952 1.089235 1.087388 -2.786835 -2.248864 -0.788939 0.405791 0.907533 -1.516669 1.970717 -0.345554 -0.134731
0.205983 -0.01757 -0.056239 -0.011962 -0.058786 0.01487 0.048078 -0.076479 0.03824 -0.203017 0.092517 -0.230178 -0.098774 -0.132256 0.006848 0.042904 -0.121787 -0.063099 -0.029771 0.008218 -0.040566 0.017573 -0.048595 0.007341 -0.033025 -0.080857 -0.093199 -0.017946 0.178134 0.03977 0.025577 -0.015398 -0.108572 -0.054545 -0.016022 -0.047966 -0.03646 -0.17021 0.126505 0.062268 0.086196 0.118707 0.041492 0.224393 0.011258 -0.135581 -0.234435 0.09645 -0.04413 0.083256 -0.064108 0.116327 0.042212 -0.184964 -0.237055 -0.059747 -0.015533 -0.109227 -0.081848 -0.051396 0.040712 0.030972 -0.032607 -0.014596 0.017509 0.135804 0.097069 -0.007319 0.03155 -0.081575 -0.139801 0.063244 -0.161877 0.049278 -0.036336 -0.021302 -0.167077 -0.152733 -0.116478 -0.120703 0.181406 0.152188 0.072446 0.00262 0.150907 0.098867 -0.083174 -0.011632 0.12173 0.127395 0.029174 0.22871 -0.140809 0.127612 -0.053826 0.169155 0.1052 -0.002879 -0.110539 -0.025626
0.086907 -0.131506 0.139674 -0.04117 0.380264 0.056617 0.306648 -0.09318 0.146475 0.130978 0.070514 -0.079385 0.122424 -0.133037 0.193298 -0.019464 0.031829 -0.254492 0.214216 0.236874 -0.07483 -0.109205 -0.075951 0.061352 0.139889 0.19528 -0.114155 0.220009 0.078016 -0.281501 0.187071 -0.002318 -0.014962 0.320968 0.044219 -0.126777 0.019012 -0.096482 0.182838 0.057653 0.183269 0.137193 -0.1396 -0.031069 0.061134 0.020339 -0.122941 -0.025332 -1.02E-4 0.109609 -0.028795 -0.251744 0.01114 -0.031784 -0.184373 -0.038041 -0.159717 0.128919 0.098926 0.068513 -0.153114 0.036273 0.166039 -0.301713 0.082272 -0.089392 -0.17252 0.049843 -0.250541 0.086442 0.220322 0.112848 0.191978 0.013881 0.057074 -0.061004 0.02504 -0.190384 0.1789 -0.17337 -0.196934 -0.129968 0.002266 0.048077 0.072385 -0.004377 0.303968 0.049065 -0.025255 0.014256 -0.059107 0.075701 -0.114667 0.046928 -0.236022 -0.023217 -0.117127 -0.155955 0.009279 0.043627
2.639274 0.860779 1.914535 0.075096 -2.067821 0.868151 2.41574 -0.571041 1.339049 -1.281174 -0.433602 0.871327 -1.548308 0.966946 -0.786386 -0.714393 -0.087621 -1.306236 -1.047139 -0.923836 -2.264294 -2.588521 -1.458217 -1.134626 3.310679 -0.54589 2.199729 -1.371259 0.466074 -3.369755 1.958229 3.033066 0.421195 1.634074 1.586538 1.129434 3.1813 -0.503733 0.596682 -1.070617 2.576208 -4.845244 0.269594 -0.305141 -0.001004 0.927763 -1.411168 -0.369687 5.073754 1.296224 2.814874 2.86693 1.155716 1.341413 0.524913 -2.458242 1.601557 1.575213 -1.137998 -0.420681 -0.255038 -1.034292 0.758403 1.042079 -2.456706 0.577587 2.169803 -0.212162 -0.74104 -0.859061 4.336587 1.523722 -1.638986 -0.00237 0.544093 -2.246276 -2.027173 0.113195 -2.980508 2.742148 0.260742 0.054881 -3.011818 -0.787116 2.629465 2.104289 4.309555 2.458298 -0.916654 -0.451662 0.519842 0.217335 -1.218073 1.333352 0.545333 1.80372 -1.063515 1.367284 -4.092412 2.91449
-0.130164 -0.187953 0.144406 0.174656 -0.077117 0.039888 -0.193869 -0.041281 -0.105436 0.074729 0.119843 0.156117 -0.072708 -0.069583 0.116153 0.231153 0.020629 0.206416 0.134536 0.097755 -0.097777 0.197873 0.24626 0.099782 -0.23611 -0.137214 -0.119742 -0.07529 0.184674 -0.081489 -0.040968 -0.009743 0.005189 0.130197 -0.066131 -0.039399 -0.021028 -0.053901 -0.036153 0.056895 -0.055839 0.221577 0.036025 -0.107652 0.153219 -0.1358 -0.072192 -0.055033 -0.211391 0.0609 0.153305 -0.076466 -0.06142 0.02834 0.047927 0.014312 -0.030226 0.008804 0.06576 -0.080365 0.201824 -0.175889 -0.052142 -0.081267 -0.035925 -0.110725 0.130939 0.022002 0.145222 -0.073833 -0.035926 -0.008361 0.019765 -0.03487 -0.03352 -0.038814 -0.163654 0.025095 -0.013035 0.048879 0.019235 0.195218 0.105204 -0.264004 -0.010729 0.045505 0.037127 0.058709 0.231443 0.065061 -0.085906 -0.085544 0.008585 0.079536 0.019914 -0.127723 0.097586 0.05478 0.012018 -0.096895
