-0.04169 -0.105299 -0.276958 0.221569 0.069754 0.040672 0.147065 0.082105 -0.087735 0.101138 -0.048014 -0.008499 -0.132384 -0.006617 -0.121804 -0.233015 -0.129039 -0.254297 -0.054359 -0.208818 0.010215 -0.046017 -0.078753 -0.049204 0.087704 0.085354 0.005725 -0.364829 -0.061675 -0.04181 -0.025826 0.246134 0.225051 -0.04164 -0.209991 0.094342 0.014653 -0.109673 0.058856 -0.094238 -0.155179 -0.157288 0.014112 0.065545 0.029863 0.116911 0.007643 0.077581 0.214187 -0.01168 -0.282325 0.208995 0.025505 -0.091111 -0.06968 0.001262 0.1681 -0.152423 -0.089449 0.027871 0.321313 0.139387 0.007667 -0.043941 -0.043834 -0.120764 -0.120855 -0.226608 0.151418 0.064065 0.099566 0.260645 0.044217 0.015674 0.060596 -5.95E-4 -0.124172 0.190625 0.044822 0.307721 -0.147324 0.152525 0.014622 0.158458 0.041513 0.010112 -0.086799 0.083616 -0.198371 0.290665 0.101182 -0.125028 -0.055493 -0.272758 0.133139 -0.141071 -5.05E-4 0.059027 -0.022267 -0.008009
-0.018101 -0.039888 -0.036261 0.114984 -0.124457 -0.071297 -0.204933 0.011718 -0.011985 0.138319 0.126027 -0.002546 0.122621 -0.07039 0.097202 0.163901 0.074268 0.190391 -0.047034 0.019611 -0.084126 0.097253 0.027479 0.042089 -0.322129 0.015706 0.212983 -0.06635 0.131006 -0.082807 0.00278 0.055811 -0.127199 -0.035696 -0.08052 -0.012026 -0.024813 -0.067145 0.099963 0.104669 0.016579 0.218841 -0.091052 -0.045417 0.009448 -0.116424 2.1E-5 0.011433 -0.116448 0.067368 0.176245 -0.058201 0.04836 0.171338 0.177126 -0.214648 0.040418 -0.090861 0.029859 -0.080024 0.081085 -0.060734 -0.068959 -0.069189 -0.087293 -0.138507 -0.075152 -0.036366 0.021281 -0.247795 -0.190482 0.108232 0.034419 0.082834 -0.017065 -0.094542 -0.091109 -0.081127 0.153061 0.075596 -0.079921 0.207722 0.192228 -0.156386 -0.025153 -0.073117 0.00578 0.163167 0.102287 0.072563 -0.202908 -0.065255 0.086575 0.222958 -0.057536 -0.118018 0.07784 -0.006855 0.066177 -0.124484
0.002932 -0.001975 -0.240209 -0.069071 0.098768 0.058042 -0.056308 -0.086712 -0.082222 -0.123098 -0.061122 0.026806 0.072605 0.080513 0.014043 -0.058305 0.087774 0.175109 0.091013 0.002833 0.032064 0.016194 0.067953 -0.091456 -0.01209 0.057362 0.005109 -0.094048 0.097472 0.107052 -0.269103 0.105321 0.165736 -0.01562 -0.049671 0.043885 -0.012794 0.019574 -0.014625 -0.086755 0.06733 0.020977 0.050033 0.043617 0.06478 0.0021 0.034557 0.013902 0.048295 0.139991 -0.036749 0.153702 -0.149764 0.090717 0.094573 0.003108 0.038295 0.019973 -0.056795 0.170376 0.055436 -0.079649 0.091663 -0.014512 0.188796 -0.089327 0.095219 -0.012471 0.038442 -0.034805 0.022296 0.021748 0.191959 -0.013715 0.025909 0.008474 -0.037594 -0.028712 0.210117 -0.078802 0.144664 0.128832 0.13089 -0.00574 -0.128385 0.020142 0.178941 0.049297 -0.128375 0.140123 -0.070174 -0.156538 0.119753 -0.032606 0.11802 -0.158292 -0.027325 -0.102514 -0.028343 -0.061973
-0.022545 -0.091568 0.107447 0.027881 0.088861 -0.136136 0.030705 0.102582 -4.12E-4 -0.009438 0.136359 -0.075439 -0.077605 -0.039592 0.07102 0.137265 -0.076499 0.103273 0.087381 0.047752 -0.013455 0.054815 -0.007363 -0.013916 -0.039661 -0.037683 -0.135882 0.007138 -0.007044 0.137182 -0.048149 0.02665 -0.157671 0.113669 -0.14391 -0.056729 -0.097252 -0.060313 -0.032234 0.130245 -0.017016 0.194943 -0.095197 0.031771 0.10622 -0.196762 0.143395 0.013471 -0.033169 0.136122 0.025104 0.226794 0.049866 0.011595 -0.009065 -0.028173 -0.04996 -0.07924 0.195737 0.005772 -0.154776 -0.102133 0.008658 -0.028261 -0.054734 0.198853 0.011074 0.031107 0.071212 -0.161208 0.092166 -0.150214 0.021475 0.049377 -0.075854 -0.064504 -0.07918 0.060801 -0.321678 0.084951 -0.065653 0.17025 0.034968 -0.130145 0.073121 0.117604 0.03527 -0.100846 0.17721 -0.148676 0.180025 0.09495 -0.068808 0.030273 0.028665 -0.004902 -0.094304 0.018222 -0.140442 0.02657
0.0 0.0 0.0 0.0 0.0 0.0 0.0 0.0 0.0 0.0 0.0 0.0 0.0 0.0 0.0 0.0 0.0 0.0 0.0 0.0 0.0 0.0 0.0 0.0 0.0 0.0 0.0 0.0 0.0 0.0 0.0 0.0 0.0 0.0 0.0 0.0 0.0 0.0 0.0 0.0 0.0 0.0 0.0 0.0 0.0 0.0 0.0 0.0 0.0 0.0 0.0 0.0 0.0 0.0 0.0 0.0 0.0 0.0 0.0 0.0 0.0 0.0 0.0 0.0 0.0 0.0 0.0 0.0 0.0 0.0 0.0 0.0 0.0 0.0 0.0 0.0 0.0 0.0 0.0 0.0 0.0 0.0 0.0 0.0 0.0 0.0 0.0 0.0 0.0 0.0 0.0 0.0 0.0 0.0 0.0 0.0 0.0 0.0 0.0 0.0
0.311386 -0.088869 -0.104218 0.130087 0.183488 0.022315 -0.082123 0.133895 -0.162771 -0.035674 0.062013 0.068237 0.160958 0.027073 -0.100362 0.167218 -0.042139 -0.102363 0.051867 0.210541 -0.049528 0.077626 -0.081211 0.124142 0.154735 -0.092879 -0.098679 -0.086667 -0.09524 -0.180662 -0.069217 0.051259 -0.163076 0.09531 -0.210824 0.131975 0.024457 0.009266 -0.002694 -0.037793 0.025627 -0.095514 0.10237 0.054793 -0.091383 -0.032542 0.037963 0.051818 0.04797 0.108934 0.299935 0.148108 0.02485 -0.041405 -0.014041 -0.079868 0.124825 0.082945 0.208714 -0.190215 0.089154 0.032792 -0.228709 -0.080581 0.121245 0.103708 0.242305 -0.127837 -0.008612 0.049873 0.151503 0.011067 0.006107 0.092054 -0.034946 0.223306 -0.336444 0.025374 0.022252 -0.069033 -0.231604 0.066545 0.052049 0.116581 -0.120114 -0.1049 0.217058 0.061186 0.084725 0.124448 0.085271 0.223431 0.029766 0.067547 -0.155722 -0.157657 0.230428 0.145588 0.022589 -0.06954
-0.110651 -0.173398 0.101909 0.067269 0.17956 0.108908 0.125747 0.00318 -0.070452 0.069928 -0.157624 0.08367 -0.054363 -0.02635 -0.052663 0.087998 0.065655 -0.11842 0.103341 0.063926 -0.050702 0.071707 0.325356 -0.201229 0.024214 -0.053235 0.028217 0.126726 -0.049247 6.3E-4 0.049279 -0.03711 0.064563 0.160079 -0.23697 -0.097316 0.044317 0.115374 -0.061548 -0.21192 -0.210261 -0.309193 0.117032 -0.022843 0.02802 0.128846 -0.243904 0.053219 0.038696 -0.116121 -0.26448 -0.071067 -0.046603 -0.162343 -0.016114 -0.03295 -0.114393 -0.105456 0.041408 -0.074951 -0.086702 -0.064309 0.100984 -0.313513 0.005323 0.039077 -0.017903 -0.043287 0.149058 -0.25114 -0.009081 0.095673 0.108376 0.061094 0.036786 0.196532 0.076844 0.248075 -0.07681 -0.113205 0.092681 0.126026 0.088743 -0.060631 -0.106194 0.031337 -0.085588 -0.061222 0.013251 0.118296 -0.076785 0.051161 -0.035687 0.101416 0.139062 -0.146569 0.001285 0.162515 -0.166458 0.052769
-1.15502 -1.561738 0.016371 0.176392 -0.548604 -0.777268 0.800449 1.01561 1.039235 -0.278374 -0.103341 -0.78069 0.831682 0.893273 1.08396 -0.591385 -0.558829 1.773841 -0.716209 1.982223 -0.35869 0.88869 -0.441284 -2.101358 -1.116913 0.510297 0.357166 -0.341336 0.630921 -0.413565 -0.5708 0.306441 -0.768726 -1.83429 1.57064 -1.546656 -0.496698 0.867303 -0.136119 0.150598 0.28263 0.301426 1.251205 0.822587 -0.69134 -0.178058 0.181425 0.384754 -0.213092 1.608124 0.262012 0.173671 -2.018581 1.59103 0.033295 -0.524809 0.227271 -1.103215 1.248974 0.531236 0.587005 0.839926 1.822853 -0.13064 -1.554556 0.940562 0.950648 1.110938 -0.108372 -1.606862 1.144605 -1.417774 1.093397 0.552293 0.135681 -1.364819 0.773207 0.615012 1.673988 0.229345 0.135487 1.838294 0.401681 -0.521766 0.214257 0.047714 -0.40645 -0.078937 -0.791862 0.447829 -0.423802 1.031758 -0.357214 0.019588 0.189094 0.816787 0.186142 -1.309294 0.605478 0.588354
2.591633 1.608701 -2.087245 2.00752 3.012652 4.995656 0.847355 -1.594905 -0.365708 -1.629805 -1.650237 3.712017 -0.231463 -0.537534 -2.036098 2.002639 -0.696666 -4.310136 -1.477319 -1.356504 -0.581823 -1.830239 -0.272773 -1.648095 0.090509 0.008711 0.330842 0.396714 2.341035 -0.526067 1.155793 -1.730906 -1.010387 -1.342646 -1.939355 0.734869 0.727366 0.700702 1.516974 -2.133831 -0.280653 -3.051674 0.017123 0.532043 1.478449 0.375441 0.920129 1.548929 1.087478 0.668327 0.707416 3.249232 -0.362503 1.273221 -2.929682 -0.245389 1.633444 -0.119836 0.103459 -3.445175 0.513245 0.427807 0.738792 1.448203 0.501908 0.362882 -0.731533 -0.391201 0.037778 3.053553 4.030229 1.793904 1.24136 0.081706 -1.401954 -0.638804 -0.487445 -0.267924 0.012844 0.538179 -0.241935 -0.068756 1.351665 -0.112558 0.001814 0.447262 0.833441 -0.023876 1.212707 1.514635 -0.568611 0.376173 -3.663739 -4.345135 -0.444319 2.139788 -2.53093 0.92131 -1.399435 1.763954
0.228422 -0.015788 0.10302 -0.144938 -0.175292 -0.012617 0.213656 -0.227722 -0.090428 -0.028212 0.103072 -0.152923 0.032428 -0.042122 -0.040489 0.065658 -0.179804 -0.148991 -0.079673 0.032146 0.054129 0.043891 0.084087 0.077393 -0.187102 0.018497 -3.06E-4 -0.051215 0.077871 -0.234203 0.357194 -0.058018 -0.169593 -0.022715 -0.073352 0.110033 0.052702 0.064181 -0.055147 0.054077 0.026208 -0.138966 0.02268 0.145138 0.036856 -0.012152 0.094489 0.038662 -0.146804 0.01036 0.030519 -0.119447 -0.079253 -0.159712 -0.023704 -0.033492 -0.043377 -0.105769 -0.06019 -0.123674 -0.150866 -0.02082 0.036518 -0.208677 -0.092655 0.095915 -0.106067 -0.051378 -0.024287 -0.096015 0.048805 0.008045 -0.094985 0.256767 0.039988 -0.072568 -0.174361 0.039335 -0.08732 -0.103058 -0.098114 0.18447 -0.092326 -0.137848 0.153602 -0.023999 0.101147 0.068399 0.221921 0.27351 -0.045806 0.139018 -0.145142 -0.084467 -0.069915 0.050484 -0.006236 0.03002 0.067547 0.101181
1.219979 0.840896 -0.889874 1.497061 0.359939 0.146731 -2.201161 0.483676 -1.725902 -0.978197 -0.356077 -0.234536 -1.475796 -0.289149 0.770841 2.620823 -1.409437 -2.538311 -1.120352 -1.693365 0.145075 -0.605518 0.982137 -0.159265 2.12607 0.308494 -1.876083 2.079224 1.353198 -0.963628 -0.046424 -0.806909 0.625672 1.849321 -2.230211 -1.820351 2.264509 -1.234566 1.239084 -1.665912 -1.112559 -3.463763 0.494633 0.282674 2.0141 2.000156 -1.575268 -0.706065 2.560699 0.202354 2.03992 0.343462 -0.582066 0.846577 -0.270955 0.712605 0.339486 1.417198 -1.110318 -1.571178 -1.529763 0.220338 -0.505979 -1.763048 -1.044964 0.249273 -1.121451 -1.860006 -0.322231 2.972221 1.748183 0.605485 0.208847 -1.113874 -0.261203 -0.387651 1.487286 0.603139 -2.605518 -1.142366 0.503438 -1.086088 -0.12459 -0.056509 -1.660534 0.534014 0.942284 -0.088356 0.703531 3.071906 0.348358 -0.478752 -3.365751 -0.561459 1.56756 2.364135 1.053051 0.51308 -1.024781 1.110015
0.355074 0.2446 -1.273352 2.878268 0.656271 2.865081 -2.833161 0.025221 0.060956 1.165275 1.428299 2.010992 -1.075912 0.094513 2.478501 -0.363477 -0.709369 -3.717667 -3.645847 1.145661 -1.706752 -0.381683 -0.479194 -0.485725 -0.195731 -0.823955 -1.068555 1.464783 -1.734963 -0.109786 2.182783 -0.158637 0.199891 -0.349835 0.199515 -0.004615 2.763619 1.415474 1.545146 -1.218202 -0.247796 -1.453429 1.638472 -1.085479 -1.152499 -2.600019 -1.554189 -1.528221 0.011457 -0.370472 1.232949 0.345995 -2.302633 1.027858 -1.822288 1.299092 1.588733 -0.467213 0.425563 -4.035477 -1.799606 -0.834129 0.77344 -1.302265 3.365039 0.908444 -2.417 0.497665 -2.124904 3.43289 4.377977 -1.287214 -0.67298 -0.157473 -0.115411 -0.003771 -1.702981 0.840996 0.236813 -0.626319 0.130761 -1.430449 -1.287482 1.095561 0.891632 -0.317835 1.815351 0.366705 0.648673 -0.023929 1.981404 1.041381 0.702114 0.178212 -0.470162 2.614008 0.869687 0.702801 -1.657572 4.001463
0.100717 -0.070554 -0.003014 -0.001589 5.22E-4 -0.024131 -0.016337 -0.01084 -0.158946 0.214879 0.18413 0.270534 0.011403 -0.008081 -0.078069 0.099042 4.72E-4 0.038864 0.200956 0.081622 0.05246 0.01862 0.132759 0.19182 0.080038 -0.121643 0.004133 -0.002545 0.033133 -0.076769 -0.101658 -0.137832 0.043696 0.175712 -0.164391 -0.147199 0.043423 -0.10114 0.115136 6.8E-5 -0.076612 0.077994 -0.080981 0.102024 0.065452 -0.067604 -0.053381 -0.057195 -0.030846 0.032628 -0.036415 -0.144399 -0.00405 0.031264 0.010042 0.081896 0.142702 0.045944 -0.002613 6.6E-5 0.072674 -0.176811 0.013697 -0.033088 0.080741 0.107245 0.093504 -0.156041 -0.151143 6.79E-4 0.142216 0.07611 -0.162515 -0.049638 0.020768 0.074648 0.037265 -0.043769 -0.095245 -0.044843 -0.031817 -0.002871 0.096508 -0.007998 0.101041 0.008613 -0.024792 -0.078169 -0.025804 0.164361 -0.008997 0.009429 -0.135583 0.068574 0.142867 -0.006828 0.176816 0.053643 -0.04929 -0.021243
-0.04169 -0.105299 -0.276958 0.221569 0.069754 0.040672 0.147065 0.082105 -0.087735 0.101138 -0.048014 -0.008499 -0.132384 -0.006617 -0.121804 -0.233015 -0.129039 -0.254297 -0.054359 -0.208818 0.010215 -0.046017 -0.078753 -0.049204 0.087704 0.085354 0.005725 -0.364829 -0.061675 -0.04181 -0.025826 0.246134 0.225051 -0.04164 -0.209991 0.094342 0.014653 -0.109673 0.058856 -0.094238 -0.155179 -0.157288 0.014112 0.065545 0.029863 0.116911 0.007643 0.077581 0.214187 -0.01168 -0.282325 0.208995 0.025505 -0.091111 -0.06968 0.001262 0.1681 -0.152423 -0.089449 0.027871 0.321313 0.139387 0.007667 -0.043941 -0.043834 -0.120764 -0.120855 -0.226608 0.151418 0.064065 0.099566 0.260645 0.044217 0.015674 0.060596 -5.95E-4 -0.124172 0.190625 0.044822 0.307721 -0.147324 0.152525 0.014622 0.158458 0.041513 0.010112 -0.086799 0.083616 -0.198371 0.290665 0.101182 -0.125028 -0.055493 -0.272758 0.133139 -0.141071 -5.05E-4 0.059027 -0.022267 -0.008009
0.247328 -0.102554 0.042737 -0.052897 -0.228985 -0.136291 -0.212807 0.051113 -0.128825 0.116673 0.056588 0.200556 -0.122152 0.073058 0.187568 0.013268 0.072224 0.009512 0.05753 0.186516 -0.192723 -0.078876 0.067419 -0.005001 -0.093222 -0.028071 -0.072405 0.15937 0.328059 -0.136584 -0.107481 -0.194231 -0.259715 0.04193 -0.079565 0.036019 0.316396 -0.058969 -0.070916 0.090081 -0.129062 -0.069802 0.044042 0.086705 0.107116 0.078673 0.064876 0.016296 -0.024669 0.058148 -0.31018 -0.165408 -0.136523 0.027775 0.200088 0.128773 0.084056 -0.030931 -0.033076 -0.074887 0.192327 -0.275528 -0.107002 -0.043918 0.070016 0.057016 0.008411 0.030185 0.12011 -0.122443 -0.128786 -0.089767 0.029318 0.020281 0.016305 -0.100551 -0.025685 0.095338 -0.096595 -0.086516 0.019551 -0.098789 0.060221 -0.150248 -0.0823 0.065692 -0.126437 -0.00211 0.24621 0.052308 -0.072763 0.039321 0.125525 0.077287 0.081152 0.010417 0.259859 -0.206685 -0.009872 -0.099053
-0.148633 -0.068114 0.064287 0.119882 0.160994 -0.002219 -0.127022 -0.048078 0.008842 -0.152247 0.111393 0.180024 -0.125117 -0.054163 0.215514 0.221999 -0.10735 0.203174 0.01617 -0.095797 -0.082799 -0.116488 0.004625 -0.07806 -0.284213 0.020197 -0.093932 -0.14192 0.180777 -0.189204 -0.094358 0.01264 -0.12915 0.03942 -0.100302 -0.121036 0.13597 -0.034249 0.062436 0.199773 -0.087144 0.172065 0.083752 0.105631 0.037858 -0.060594 0.014958 -0.014917 -0.003047 -0.050928 0.075059 0.003666 0.035096 0.044765 0.006531 -0.045564 0.031028 0.094723 -0.075531 -0.111516 0.109927 -0.075547 -0.152214 -0.012048 0.07498 0.07718 0.01894 -0.083362 -0.020462 -0.022194 0.028366 0.149555 0.118168 0.077251 -0.002387 0.008192 -0.071522 0.047399 -0.05069 -0.137145 -0.095684 0.09661 0.14821 -0.198791 -0.04893 0.173683 0.18577 -0.045496 0.140994 -0.015408 -0.112654 -0.126968 -0.186831 0.228317 -0.05587 -0.030331 0.045537 -0.092484 0.072181 0.018729
-0.699237 0.075844 0.130819 0.11123 1.297913 -0.651156 -0.127922 -0.076851 -2.809016 -0.677689 0.29667 0.550162 -0.377336 0.51204 -0.202898 0.506095 0.749297 -0.063413 -0.155096 -0.82287 0.731087 0.359108 2.601419 0.867201 -0.64444 1.086091 0.562799 0.178827 0.347437 -0.624033 1.724504 -0.006416 0.112568 0.217625 0.155296 -2.028226 0.626395 -0.287237 -1.675054 -1.082794 -0.766897 -1.991434 1.700634 -0.919757 -0.400579 -2.13373 0.399499 -0.362233 -0.795055 0.680759 0.429191 -1.36243 -1.376884 -0.481702 -0.190694 1.211439 -1.204947 -0.605299 -0.874042 -0.758564 -1.310217 -0.133766 -0.437018 -0.083805 0.504452 0.782088 -0.115213 -3.026305 0.064191 2.17866 2.137953 -0.811413 0.001003 1.701759 -0.102922 2.072026 -0.610154 -0.062115 0.196143 0.618083 0.131085 -0.553116 1.04583 -1.782863 0.480664 0.309505 0.298208 0.468593 -0.542179 1.732147 0.197564 -1.809695 -2.253221 -2.155144 0.613764 0.383253 1.029448 -0.791729 -0.458602 0.912269
-0.069159 -0.027833 -0.003239 0.054753 -0.103123 0.026747 -0.026075 -0.135114 -0.013364 0.157431 0.006557 0.083933 -0.071533 0.025515 -0.044166 0.208472 -0.037189 0.053885 -0.027483 0.079925 -0.145532 0.069296 0.116436 -0.018744 0.004142 -0.037588 -0.064473 0.059549 0.175459 -0.069095 -0.054609 -0.100185 -0.122934 0.021899 -0.158521 0.010062 0.09297 -0.039998 0.004662 -0.025748 -0.037249 0.030709 0.047603 -0.00714 0.005286 0.008724 -0.056686 -0.057773 -0.181348 0.043071 -0.010797 -0.080771 -0.081015 -0.086426 -0.014991 -0.052765 0.112725 -0.099316 0.065974 -0.087692 -0.059407 -0.013112 -0.104484 -0.151371 0.01025 0.010907 0.115989 0.140221 0.089452 -0.115562 -6.75E-4 -0.118789 -0.074383 0.034438 0.020424 -0.059134 -0.126158 -0.012108 -0.108836 0.013363 -0.09303 0.025614 0.037865 -0.023423 -0.09503 0.047697 0.015522 -0.051912 0.223283 -0.036177 -0.141672 -0.046233 -0.053984 0.19976 0.021005 -0.107931 0.071409 0.030154 0.090067 -0.002575
-0.047421 -0.15849 0.107499 0.089927 0.167776 0.08617 -0.300314 -0.309623 0.108092 0.189928 0.056687 0.033222 -0.077897 -0.080874 0.159018 0.266839 -0.245001 0.016831 -0.085825 0.058383 -0.059198 -0.055262 0.240707 -0.12969 -0.22039 0.060318 -0.047124 -0.139865 0.089529 -0.172326 0.039714 -0.133083 -0.093917 0.050088 -0.217563 -0.099461 0.041898 -0.126919 0.020688 0.317283 0.16597 0.022872 0.046324 -0.073254 -0.180954 0.079862 0.019486 0.185367 0.118476 0.006355 -0.032953 -0.037425 0.063885 0.11699 0.184923 0.052025 0.128145 -0.13686 0.190992 -0.211976 0.013083 -0.015876 -0.029147 0.01214 -0.021098 0.071397 0.239282 -0.021331 -0.132596 -0.213218 -0.047197 -0.061747 0.108005 0.06585 0.170104 0.21 0.017802 0.149472 0.139998 -0.100998 0.016478 -0.071088 -0.215638 -0.123884 -0.172349 0.055991 -0.115719 -0.021301 0.071983 0.092645 -0.139537 0.078519 -0.099633 0.035876 -0.078405 -0.346964 0.042416 0.013565 -0.105723 -0.0419
-0.022545 -0.091568 0.107447 0.027881 0.088861 -0.136136 0.030705 0.102582 -4.12E-4 -0.009438 0.136359 -0.075439 -0.077605 -0.039592 0.07102 0.137265 -0.076499 0.103273 0.087381 0.047752 -0.013455 0.054815 -0.007363 -0.013916 -0.039661 -0.037683 -0.135882 0.007138 -0.007044 0.137182 -0.048149 0.02665 -0.157671 0.113669 -0.14391 -0.056729 -0.097252 -0.060313 -0.032234 0.130245 -0.017016 0.194943 -0.095197 0.031771 0.10622 -0.196762 0.143395 0.013471 -0.033169 0.136122 0.025104 0.226794 0.049866 0.011595 -0.009065 -0.028173 -0.04996 -0.07924 0.195737 0.005772 -0.154776 -0.102133 0.008658 -0.028261 -0.054734 0.198853 0.011074 0.031107 0.071212 -0.161208 0.092166 -0.150214 0.021475 0.049377 -0.075854 -0.064504 -0.07918 0.060801 -0.321678 0.084951 -0.065653 0.17025 0.034968 -0.130145 0.073121 0.117604 0.03527 -0.100846 0.17721 -0.148676 0.180025 0.09495 -0.068808 0.030273 0.028665 -0.004902 -0.094304 0.018222 -0.140442 0.02657
-0.110651 -0.173398 0.101909 0.067269 0.17956 0.108908 0.125747 0.00318 -0.070452 0.069928 -0.157624 0.08367 -0.054363 -0.02635 -0.052663 0.087998 0.065655 -0.11842 0.103341 0.063926 -0.050702 0.071707 0.325356 -0.201229 0.024214 -0.053235 0.028217 0.126726 -0.049247 6.3E-4 0.049279 -0.03711 0.064563 0.160079 -0.23697 -0.097316 0.044317 0.115374 -0.061548 -0.21192 -0.210261 -0.309193 0.117032 -0.022843 0.02802 0.128846 -0.243904 0.053219 0.038696 -0.116121 -0.26448 -0.071067 -0.046603 -0.162343 -0.016114 -0.03295 -0.114393 -0.105456 0.041408 -0.074951 -0.086702 -0.064309 0.100984 -0.313513 0.005323 0.039077 -0.017903 -0.043287 0.149058 -0.25114 -0.009081 0.095673 0.108376 0.061094 0.036786 0.196532 0.076844 0.248075 -0.07681 -0.113205 0.092681 0.126026 0.088743 -0.060631 -0.106194 0.031337 -0.085588 -0.061222 0.013251 0.118296 -0.076785 0.051161 -0.035687 0.101416 0.139062 -0.146569 0.001285 0.162515 -0.166458 0.052769
0.062522 -0.14401 -0.001482 0.105199 -0.004925 -0.042687 -0.122233 0.029886 -0.128466 0.19125 0.05426 0.105584 -0.023435 -0.133626 0.273104 0.276843 0.020197 0.068255 0.163732 -0.007876 -0.117574 0.100282 0.305571 0.072216 -0.156179 -0.045617 -0.009269 -0.024426 0.065556 -0.359507 -0.051771 -0.108227 -0.14362 0.195042 -0.03045 0.074046 -0.110848 0.031238 0.049085 0.122117 -0.11719 0.258337 -0.061496 0.019917 -0.013162 -0.082861 -0.024269 -0.111005 -0.141643 -0.037213 0.11058 -0.209959 0.049935 0.047854 0.045576 0.006442 0.049303 -0.208688 -0.007247 -0.186497 0.060443 -0.080912 0.144786 -0.255699 -0.189857 0.130603 -0.060516 0.151876 0.143049 -0.069666 -0.023531 0.167617 -0.230491 0.132738 0.076997 -0.125239 -0.15613 0.002294 -0.039685 -0.137649 0.085502 0.113264 0.312524 -0.138582 0.08871 -0.016901 -0.047516 0.038886 0.228398 0.163581 -0.081154 -0.045722 0.048329 0.221347 -0.018802 -0.242436 0.14059 0.081484 0.009134 -0.11946
-0.061397 0.053003 0.357175 -0.062365 0.164877 -0.221416 0.228852 -0.149379 -0.126103 -0.051973 -0.051144 -0.164151 0.111288 -0.015677 0.043452 0.045264 -0.037674 0.1363 0.041821 0.454189 -0.360524 0.115698 -0.015093 0.028041 -0.017339 0.118643 0.192239 0.098792 0.13853 -0.228873 0.32606 0.046568 0.181004 0.030525 0.275761 -0.155066 0.079584 0.095594 0.046207 0.152214 0.10048 -0.163969 0.039851 -0.148471 0.381728 0.076287 0.160875 -0.041395 -0.040398 -0.174117 -0.081612 -0.074003 -0.104514 -0.231713 0.08721 -0.206153 0.115341 -0.085524 -0.04658 0.102806 0.011231 -0.032856 0.184461 -0.222969 -0.109908 -0.10843 0.075181 -0.143239 0.013618 0.232317 0.089452 -0.01768 -0.074942 0.106579 -0.176958 -0.106505 -0.086323 -0.024058 0.164741 -0.220476 -0.060008 0.185108 -0.052272 -0.098529 0.050181 0.058501 0.199154 -0.010842 -0.226267 0.125676 -0.20553 0.271834 -0.038975 0.219768 0.036507 -0.033345 -0.058802 -0.080222 0.128869 -0.08539
0.020574 0.200869 0.092684 0.156568 -0.032404 0.220451 -0.299577 0.241758 -0.040404 0.031305 -0.026398 0.244921 0.067198 0.108569 0.109435 0.115185 -0.371225 0.009294 0.0518 0.010313 -0.079167 0.034605 -0.11792 0.148267 0.067563 0.137806 -0.057818 0.226225 -0.014489 -0.174505 -0.031383 -0.142988 0.022474 0.032826 -0.107616 -0.146795 0.241796 -0.048059 -0.045943 0.034725 -0.218804 -0.246061 0.131229 0.308159 0.034344 0.118029 0.108244 -0.16787 0.040471 -0.204563 -0.023833 0.071534 0.145512 -0.203334 -0.198895 -0.142681 0.00612 0.056755 0.035946 0.011433 -0.054005 0.059786 0.009793 0.056759 0.038573 0.144785 -0.003387 0.246791 0.025603 0.007704 0.089673 0.151142 0.19442 0.175582 0.111066 0.022305 0.163829 -0.291858 -0.015888 -0.015892 0.235505 0.187569 -0.086653 1.47E-4 -0.230994 -0.059013 0.01745 0.007853 -0.028658 -0.213234 -0.179477 -0.153881 -0.124447 0.168726 0.091945 -0.015156 -0.240935 -3.92E-4 0.093343 0.019286
-0.127746 -0.125213 -0.048378 -0.165859 0.001562 0.016142 -0.126105 -0.020751 -0.260839 0.05845 0.068416 0.138612 -0.161704 -0.027111 0.061787 0.159827 0.100725 -0.004618 0.088351 -0.040872 -0.044057 0.143384 0.160839 0.056216 -0.246354 -0.2287 0.054679 -0.047755 0.014427 -0.131805 0.060752 -0.123791 -0.133597 0.184621 -0.00298 -3.83E-4 -0.009207 0.039333 0.088212 -0.074739 -0.083442 -0.035297 -0.022873 0.161359 0.044174 -0.160403 -0.074664 0.095062 0.005588 -0.070049 0.180119 0.028177 -0.271309 0.042623 0.069962 0.020087 -0.059271 -0.104752 0.039116 -0.151001 0.098034 -0.263201 0.089747 -2.35E-4 -0.100391 0.085561 -0.07713 0.030912 -0.142091 -0.043521 -0.0315 -0.117394 0.13209 0.018462 0.223702 0.078628 -0.030144 0.189883 -0.202723 -0.114256 0.110718 0.165935 0.032605 -0.064142 -0.021252 0.020114 0.008019 0.039848 0.145416 0.06872 -0.044924 0.099748 0.079249 -0.030689 -0.034169 -0.086629 -0.03579 -0.160458 0.108487 0.068177
0.0 0.0 0.0 0.0 0.0 0.0 0.0 0.0 0.0 0.0 0.0 0.0 0.0 0.0 0.0 0.0 0.0 0.0 0.0 0.0 0.0 0.0 0.0 0.0 0.0 0.0 0.0 0.0 0.0 0.0 0.0 0.0 0.0 0.0 0.0 0.0 0.0 0.0 0.0 0.0 0.0 0.0 0.0 0.0 0.0 0.0 0.0 0.0 0.0 0.0 0.0 0.0 0.0 0.0 0.0 0.0 0.0 0.0 0.0 0.0 0.0 0.0 0.0 0.0 0.0 0.0 0.0 0.0 0.0 0.0 0.0 0.0 0.0 0.0 0.0 0.0 0.0 0.0 0.0 0.0 0.0 0.0 0.0 0.0 0.0 0.0 0.0 0.0 0.0 0.0 0.0 0.0 0.0 0.0 0.0 0.0 0.0 0.0 0.0 0.0
0.123314 0.024232 0.067758 -0.019176 0.04035 0.102721 0.022867 0.004876 -0.130388 -0.025998 -0.111174 -0.099004 0.08676 0.050864 -0.09914 -0.024014 -0.171609 -0.023554 -0.121212 -0.180475 0.179989 0.036153 -0.154862 -0.046345 0.094379 -0.14447 -0.041587 -0.048431 -0.136792 0.120946 0.186365 -0.07131 -0.07154 -0.104935 0.223496 -0.046738 -0.060067 -0.130754 -0.062099 -0.018454 0.144663 0.005022 0.142013 0.055336 -0.079464 0.134955 -0.01171 0.012333 -0.042385 0.102204 0.067493 0.045559 0.08181 -0.037308 -0.105499 0.04795 0.127704 0.287375 0.072091 0.04644 0.063593 0.228401 -0.07889 -0.03959 0.122115 0.054482 0.084107 0.013265 0.011559 -0.014696 0.109437 0.025601 -0.204002 0.310683 0.003437 0.019704 0.139319 0.086808 -0.081497 -0.018019 -0.014725 -0.169411 -0.017058 0.108817 -0.009525 -0.201578 -0.092985 0.072472 0.005488 0.045185 0.12776 0.042456 -0.19091 0.059921 -0.111423 0.013748 -0.096482 0.111096 0.034894 -0.026429
-0.04169 -0.105299 -0.276958 0.221569 0.069754 0.040672 0.147065 0.082105 -0.087735 0.101138 -0.048014 -0.008499 -0.132384 -0.006617 -0.121804 -0.233015 -0.129039 -0.254297 -0.054359 -0.208818 0.010215 -0.046017 -0.078753 -0.049204 0.087704 0.085354 0.005725 -0.364829 -0.061675 -0.04181 -0.025826 0.246134 0.225051 -0.04164 -0.209991 0.094342 0.014653 -0.109673 0.058856 -0.094238 -0.155179 -0.157288 0.014112 0.065545 0.029863 0.116911 0.007643 0.077581 0.214187 -0.01168 -0.282325 0.208995 0.025505 -0.091111 -0.06968 0.001262 0.1681 -0.152423 -0.089449 0.027871 0.321313 0.139387 0.007667 -0.043941 -0.043834 -0.120764 -0.120855 -0.226608 0.151418 0.064065 0.099566 0.260645 0.044217 0.015674 0.060596 -5.95E-4 -0.124172 0.190625 0.044822 0.307721 -0.147324 0.152525 0.014622 0.158458 0.041513 0.010112 -0.086799 0.083616 -0.198371 0.290665 0.101182 -0.125028 -0.055493 -0.272758 0.133139 -0.141071 -5.05E-4 0.059027 -0.022267 -0.008009
-0.207519 -0.195716 -0.046561 0.311511 -0.320736 -0.016391 -0.212097 0.198355 -0.082561 0.067201 -0.022086 0.093085 0.035058 0.378379 -0.121117 0.215271 -0.120812 -0.015108 0.106953 0.023272 -0.129732 0.066008 0.346788 0.119123 -0.18159 0.048959 0.048481 -0.078342 0.10487 -0.039707 -0.073552 0.134725 -0.05583 -0.258904 0.04329 -0.351873 0.017793 0.185026 -0.16749 0.006183 0.339435 0.454294 -0.114223 -0.124084 0.154838 -0.218978 0.024766 0.006561 -0.104761 0.114093 0.235262 0.096904 0.081478 0.132347 -0.266141 -0.375719 0.100305 0.327899 0.178361 -0.166147 0.236268 -0.326369 -0.225366 0.189515 -0.247901 0.108119 0.090916 -0.062222 -0.019315 -0.136153 -0.27661 -0.065114 -0.083922 -0.048043 -0.067653 -0.181272 0.020016 -0.124764 -0.061073 0.17065 0.074001 0.505008 0.460444 -0.29915 0.091202 0.338566 0.242781 0.185437 0.016172 -0.182094 -0.461392 -0.382294 -0.193227 0.038342 -0.064907 -0.487951 0.274717 0.327319 0.082029 -0.065252
0.100195 -0.080192 0.098636 -0.002196 0.010816 -0.057799 -0.189106 0.035665 -0.158401 0.017096 0.057723 -0.073496 -0.154333 -0.058186 0.055717 0.179485 -0.09119 0.047592 -1.1E-5 -0.036447 0.069542 -0.026364 0.113772 0.231986 -0.134337 -0.215597 0.010651 -0.012594 -0.064549 -0.007239 -0.011789 -0.096077 0.077943 -0.071619 -8.0E-5 -0.047155 0.073651 0.037863 -0.040627 0.055824 0.044377 0.007974 0.031266 0.114302 -0.02862 -0.031345 -0.079388 -0.051952 -0.221712 0.085653 0.037433 -0.19096 0.086855 -0.018699 -0.0544 0.140116 -0.057536 -0.02972 0.014695 -0.057303 -0.13393 -0.114809 -0.125779 -0.174829 0.064946 0.061459 0.014127 -0.050541 0.147494 -0.078643 -0.089289 0.069975 -0.046343 0.105745 0.018637 0.028574 -0.076456 -0.003611 -0.026723 -0.119504 0.041653 -0.081001 0.007688 -0.065893 0.117237 -0.046508 -0.04831 0.071317 0.133236 0.021252 0.027556 0.093483 -0.054558 0.072389 -0.048773 -0.055195 -0.030206 -0.077247 -0.105549 -0.120534
-0.1385 -0.202605 -0.072402 0.105625 -0.271594 -0.099525 0.031251 0.085315 0.107756 -0.169286 0.011872 0.051772 0.0315 0.03944 0.132353 0.070774 -0.006037 0.053539 0.012131 -0.213242 -0.274398 0.025016 -0.060264 -0.139357 -0.226218 -0.035118 0.062963 -0.288711 0.095555 -0.109246 -0.021356 0.044735 0.046356 0.115688 -0.101268 0.04534 -0.091581 -0.103218 -0.016062 -0.064716 -0.029287 0.066453 -0.182559 -0.163202 0.131515 -0.028214 -0.273297 0.162669 -0.091171 0.150729 0.170288 0.013895 0.013705 0.22962 -0.03481 -0.146983 0.185089 0.057634 0.153078 -0.048909 0.086588 0.017734 0.14866 -0.030413 -0.170963 -0.230448 0.044438 -0.089273 -0.02514 -0.041688 -0.041522 0.118509 -0.14481 0.204921 0.081428 -0.352351 -0.031009 0.052856 -0.011597 0.14693 -0.093572 -0.05481 -0.002336 -0.020667 -0.058719 0.031069 0.204926 0.150443 0.125944 0.067903 -0.042613 -0.160978 -0.029438 -0.030978 0.035504 -0.193177 0.046486 0.137498 0.008053 -0.072597
2.591633 1.608701 -2.087245 2.00752 3.012652 4.995656 0.847355 -1.594905 -0.365708 -1.629805 -1.650237 3.712017 -0.231463 -0.537534 -2.036098 2.002639 -0.696666 -4.310136 -1.477319 -1.356504 -0.581823 -1.830239 -0.272773 -1.648095 0.090509 0.008711 0.330842 0.396714 2.341035 -0.526067 1.155793 -1.730906 -1.010387 -1.342646 -1.939355 0.734869 0.727366 0.700702 1.516974 -2.133831 -0.280653 -3.051674 0.017123 0.532043 1.478449 0.375441 0.920129 1.548929 1.087478 0.668327 0.707416 3.249232 -0.362503 1.273221 -2.929682 -0.245389 1.633444 -0.119836 0.103459 -3.445175 0.513245 0.427807 0.738792 1.448203 0.501908 0.362882 -0.731533 -0.391201 0.037778 3.053553 4.030229 1.793904 1.24136 0.081706 -1.401954 -0.638804 -0.487445 -0.267924 0.012844 0.538179 -0.241935 -0.068756 1.351665 -0.112558 0.001814 0.447262 0.833441 -0.023876 1.212707 1.514635 -0.568611 0.376173 -3.663739 -4.345135 -0.444319 2.139788 -2.53093 0.92131 -1.399435 1.763954
0.092506 -0.190181 -0.169651 -0.176859 -0.157274 0.117434 -0.246053 -0.095055 -0.226845 0.056095 -0.066084 0.025004 -0.043226 -0.06793 -0.068137 0.165682 0.061116 0.071951 0.064888 0.034774 -0.026295 0.078465 0.039067 -0.01204 -0.068662 -0.153453 0.017397 -0.052319 0.055524 -0.091639 0.124383 0.018886 -0.198151 0.077424 -0.103548 0.018512 -0.201059 0.101664 0.168027 0.022853 0.047591 -0.143808 -0.088134 0.074183 -0.119839 -0.069799 -0.289185 -0.063018 -0.136762 0.08873 0.186365 0.03422 -0.076668 -0.108907 0.163803 0.019469 -0.087732 -0.04543 1.34E-4 -0.053077 -0.090084 -0.032118 0.017588 -0.110636 0.093312 0.082828 -0.008866 -0.122675 0.005555 -0.156537 0.059343 0.058546 0.136846 -0.008335 0.094648 -0.058541 0.079997 0.127917 -0.051985 -0.109897 0.141124 -0.007186 0.001759 0.100589 -0.004111 0.049543 -0.027096 0.154899 0.081346 0.093517 -0.033063 -0.068032 0.135419 7.35E-4 -0.010201 0.097192 -0.043545 -0.058325 0.031733 0.071254
-0.053061 0.037018 -0.169664 -0.054197 0.062199 -0.090493 0.168104 -0.215463 0.006664 0.060901 0.122024 -0.025368 0.148503 0.126963 0.136634 0.06143 -0.11128 0.158032 0.010059 -0.017682 0.003446 0.085946 0.100846 -0.01015 0.115594 -0.018042 -0.153679 -0.002623 0.138565 -0.093132 0.080173 -0.119201 -0.10393 0.230571 -0.146249 -0.081459 -0.081941 0.105891 0.040961 -0.089913 -0.259372 0.087867 0.05566 -0.085926 0.050779 -0.251592 -0.012656 -0.067027 0.028355 0.009977 -0.016877 -0.224582 0.006423 0.201346 -0.002869 0.056184 -0.012669 0.117249 -0.092271 -0.104519 0.02248 -0.052512 0.043657 -0.063265 0.046884 0.072546 0.153486 -0.057216 0.076468 -0.025795 0.076852 -0.025648 -0.034183 0.0973 0.071031 -0.038481 -0.15161 -0.002136 -0.014189 0.017172 -0.07907 0.090713 0.112909 -0.452928 -0.177323 0.138897 -0.073653 -0.050658 0.262098 -0.107029 -0.226713 0.024083 -0.098788 -0.099925 -0.004867 -0.228869 -0.074424 -0.028851 0.06492 0.023671
0.132615 -0.067738 0.144921 -0.070652 0.285714 0.009219 -0.149162 -0.011606 -0.279423 -0.076516 -0.049189 0.125755 0.012283 0.14469 0.10283 0.080149 -0.220533 0.163791 0.085609 0.080021 0.116158 0.195278 0.0559 -0.091269 -0.209908 -0.140602 0.044022 0.004846 -0.053479 -0.086002 -0.061676 -0.119705 -0.054719 -0.094517 -0.07982 -0.177671 0.07156 0.149193 0.079411 0.099143 -0.131442 0.044631 0.001847 0.078508 -0.120107 -0.012578 -0.074565 0.035564 -0.059714 -0.047986 -0.063732 0.03986 -0.122845 -0.135855 -0.074361 -0.166091 0.33802 -0.172756 0.019881 0.09711 -0.033975 -0.088392 0.006303 0.085869 -0.124851 -0.005417 -0.177558 0.05514 0.036664 0.147545 0.101387 0.003954 0.120145 -0.074756 -0.038315 0.124689 0.052326 0.152487 -0.177587 0.076794 0.087322 0.072746 -0.151492 -0.118139 -0.041269 -0.16844 0.096218 0.145533 0.062196 0.102882 -0.127923 0.003111 -0.064313 0.141061 0.063924 0.055305 -0.013763 0.055272 -0.068272 0.038454
