3.90875 -0.775872 -4.069722 -1.856369 -1.614063 2.231884 -0.163266 1.854242 -1.316526 1.741527 0.251237 -0.572977 0.507976 -1.427378 0.146712 1.43769 -1.736456 1.183988 -1.545016 0.843761 -1.041588 1.157047 0.274636 -2.003952 -1.371254 0.545484 3.236019 -3.339342 -1.679852 1.421753 3.28147 -1.619218 0.385373 -3.122856 -1.422223 0.723628 -3.071501 -0.124561 0.842527 2.134378 -1.016808 -2.779109 -0.206146 1.709793 1.02276 -0.806191 1.264282 -0.059605 -1.023988 1.290036 1.492276 -0.952164 3.855714 0.85805 0.713078 0.290677 1.571821 1.438561 0.52767 2.927897 2.927171 2.519514 -1.297348 0.520199 -0.319479 0.837937 -0.682799 -1.436541 2.950626 -0.585634 -0.320662 -1.788408 -0.543926 1.013817 0.829789 4.163737 0.9304 0.810282 0.521247 1.373348 4.028029 -0.302544 4.004861 0.962325 -0.539316 -0.144025 0.049979 1.262323 0.998084 2.443006 1.464235 2.757598 -0.54278 1.961658 2.722021 0.598959 1.591548 2.1234 -1.961742 0.038742
-0.019953 -0.156203 -0.017647 -0.00205 -0.118735 0.005117 0.034334 0.039408 -0.036951 -0.006131 0.007997 0.02798 -0.14519 0.011926 0.068672 -0.108998 -0.206176 0.106194 -0.056445 -0.161229 -0.078431 -0.025415 0.004622 0.083742 -0.117453 -0.083102 0.015034 -0.066662 0.095862 -0.152719 0.00462 -0.053702 -0.090832 0.07098 -0.019074 -0.014109 -0.108047 -0.104652 0.119829 0.216876 -0.0685 0.166772 0.024489 -0.125117 0.245664 0.008356 -0.163724 0.215224 -0.134735 0.143222 0.223167 -0.026711 -0.033996 0.080991 -0.035591 0.139071 0.001523 -0.009212 0.157379 -0.041525 0.054241 0.085847 -0.019314 -0.070452 0.022642 -0.040549 0.326971 -0.023304 0.041382 -0.022598 -0.143792 -0.1265 -0.117557 0.003528 -0.085072 -0.125831 0.097739 0.074937 -0.070052 0.009836 -0.031274 -0.076859 0.282914 -0.236092 -0.032104 0.035157 -0.041757 0.062985 0.036333 -0.012623 -0.105152 0.102009 0.077331 0.049552 0.112618 -0.059177 -0.189099 -0.081923 0.067246 -0.040976
-0.219936 -0.067721 -0.013209 -0.042437 0.04851 0.035264 -0.078125 -0.076667 -0.130761 0.155857 0.112074 0.060985 -0.004626 -0.015667 0.071499 0.061208 -0.026755 0.179012 0.143729 -0.076798 -0.098111 0.035587 0.150621 0.121856 -0.124475 -0.089416 -0.123457 0.074356 0.139182 0.038751 -0.005272 0.073431 -0.100427 0.012423 -0.013406 -0.001636 0.010209 -0.110047 -0.09609 0.127815 -0.068851 0.060821 -0.081765 -0.141657 -0.044266 -0.121606 0.033188 0.085272 -0.113091 -5.96E-4 0.115973 -0.104378 0.07202 -0.015882 0.021182 0.066903 -0.025513 -0.103935 0.05927 -0.067645 -0.109436 -0.005406 -0.03647 -0.030517 -0.005681 0.009377 0.152324 0.153507 -0.042793 -0.17006 -0.023583 0.061818 -0.040371 0.052568 -0.03188 0.088115 -0.095357 -0.016481 -0.012866 0.027737 -0.075782 0.044474 -0.031837 -0.07029 0.081726 -0.042527 0.086457 0.09411 0.192308 0.126992 -0.175601 -0.072075 0.023172 0.195318 0.039686 0.028802 0.013654 -0.023731 0.113933 -0.027616
-1.174438 -1.779496 -2.884643 -1.980569 -1.811442 0.802219 3.24162 2.13542 1.072113 -6.30087 -0.536639 -1.391427 -2.88417 4.246961 -3.027189 0.946365 -0.026784 0.247014 -0.762893 2.913034 -0.263349 -0.956588 0.152459 -0.316076 -2.226356 0.573865 1.412833 -0.226441 1.261183 -0.212977 1.771552 -2.369826 -4.170671 0.13249 0.868273 1.147922 2.430621 -1.968543 -4.578587 -2.986281 3.871865 -0.823217 2.595884 3.480093 0.533133 0.878431 0.387692 2.462725 0.223327 1.141813 -0.441701 2.712278 2.231814 -2.734433 -2.793043 -1.460152 -1.258203 -0.320362 -0.011213 3.948059 2.23208 0.576536 -2.914066 2.651914 -0.503334 1.199899 -4.674464 -1.500644 1.760803 2.473771 0.178545 2.73978 1.645898 1.133394 -0.108783 0.105876 2.282132 1.002993 -0.423922 -1.306339 1.345819 -2.456647 -2.401045 4.065031 0.113419 -2.520884 1.615937 1.110972 1.543527 -2.373648 -2.88938 0.002854 -1.364661 3.250194 -4.113174 -3.347918 -4.282845 0.18644 -3.493049 -2.841606
-1.942718 -1.497116 -0.613593 -0.211509 1.447543 2.601059 1.3044 0.772325 -1.063905 0.346191 1.32291 3.941281 1.717394 -0.671718 0.876891 -0.939926 -1.516724 -1.118786 -8.11E-4 2.025258 0.089303 1.690977 1.176375 -2.09502 3.120319 -2.670736 0.582226 1.263049 -0.691267 0.163458 -0.513855 -1.460894 -0.893226 2.948305 0.136721 -0.554282 1.451317 -1.033992 2.126124 -0.689554 -1.580149 -0.69404 0.21605 1.448698 -0.882228 -1.029116 0.452448 2.003288 -1.7192 -1.512328 0.248151 1.381856 -1.245606 1.483319 -2.514998 -1.040668 -0.888429 -0.714193 2.523381 0.097103 -0.332611 0.980289 -1.938349 -1.696489 1.824288 -0.625347 0.790207 -1.436453 0.814429 0.304754 0.003106 0.115236 0.962602 -2.49441 -2.26214 -0.628873 -2.93211 2.542278 -2.992106 1.620094 0.406728 0.008843 -0.336516 -0.80737 -0.942855 0.217594 -0.283235 -0.916626 1.247103 -0.564428 2.278388 -0.518771 -0.985911 0.519219 -1.289235 -1.016811 1.315834 0.529658 -0.643007 -2.306842
-0.149867 0.077854 -0.057384 0.049305 -0.009405 0.154921 -0.014387 0.146394 -0.044434 -0.047309 0.057275 0.129201 0.002547 0.012529 -0.070844 0.097135 0.036736 -0.069666 0.151797 0.181036 -0.129967 4.09E-4 0.179857 -0.067386 0.057926 -0.070265 0.239 -0.059135 0.013238 0.131437 0.061445 -0.066996 -0.085886 0.318437 -0.107762 0.048981 0.124937 0.111594 0.133462 -0.073227 0.038944 -0.072997 -0.049897 -0.062633 -0.022548 -0.155043 0.163285 -0.082676 -0.00869 -0.023808 -0.113895 0.021677 -0.103078 -0.056982 0.014668 -0.07451 0.063208 -0.081803 0.141512 -0.058697 0.226632 0.084855 -0.148581 -0.107751 0.023714 -0.060122 0.002241 0.054781 0.10372 -0.10369 0.138238 0.092693 -0.104515 -0.01009 -0.056401 -0.043878 -0.069163 0.067243 -0.040751 0.080922 -0.037099 0.069864 -0.035231 -0.127025 0.022087 -0.051938 -0.063553 0.103248 0.095141 0.065783 0.095867 0.024102 -0.096936 -0.01374 -0.05914 -0.155662 0.07266 0.013251 -0.137238 -0.16063
0.236562 0.067972 0.17456 -0.027258 0.041543 0.001538 -0.085557 0.100192 -0.251712 0.013754 0.002453 0.049291 0.230792 -0.173071 0.06393 0.249623 -0.088985 0.155883 0.097481 0.206674 0.276642 0.017895 -0.184499 -0.06328 0.262098 0.091884 -0.154985 0.090898 0.299151 0.14826 -0.156581 -0.01666 -0.348142 -0.026722 -0.125668 0.179466 0.094998 -0.391324 0.039103 -0.056166 -0.116732 0.11204 0.066775 0.243965 -0.061184 -0.059724 0.131471 -0.102592 0.189473 -0.111753 0.002193 -0.104088 -0.408179 -0.123471 -0.004562 0.054162 -0.102658 -0.165405 0.066834 0.112255 -0.080324 -0.221638 -0.121783 0.074829 0.055334 -0.191641 0.108087 -0.002897 -0.001271 -0.28503 0.086441 -0.244952 -0.255148 0.062095 -0.230545 0.068155 -0.070623 0.062777 -0.159407 0.001631 0.257162 0.03029 -0.176927 -0.128973 0.252934 0.077434 0.13232 -0.257731 0.162169 0.26486 0.016398 -0.035211 -0.182263 -0.150862 -0.150752 -0.233571 0.147139 0.234238 0.005638 -0.186073
-0.071467 0.09241 0.093054 0.022088 -0.020783 -0.049943 0.039033 -0.032935 0.11793 0.227922 0.072088 0.089867 0.031782 0.070693 0.019912 -0.006001 -0.083549 0.190851 -0.041653 0.058876 -0.081907 0.064478 -0.035396 -0.005546 0.088402 -0.172013 0.098473 0.048535 -0.13432 -0.080192 -0.015958 -0.09909 -0.186925 0.10453 -0.098171 -0.227143 0.03706 0.006324 0.067564 -0.065931 -0.195258 0.072984 0.071101 0.019767 -0.058542 0.011016 0.072513 0.005317 -0.019051 -0.037117 0.013952 -0.036223 -0.109823 0.042267 -0.110384 -0.201595 -0.03857 0.075589 0.116448 -0.01964 -0.021369 -0.084535 0.096905 -0.054398 -0.052366 -0.108927 0.05396 0.0154 0.201949 -0.134812 -0.013363 0.022458 -0.121895 -0.03651 0.014667 -0.171051 -0.203526 0.00795 -0.178799 -0.009211 0.030343 0.156114 -0.006663 -0.015936 -0.066805 0.023245 0.295312 -0.107383 0.151832 0.1447 -0.001011 0.020163 -0.043939 0.208479 -0.041544 -0.111444 0.134237 0.093998 -0.035548 -0.128426
0.215552 -0.36315 -0.033043 0.133546 -0.195678 0.126911 -0.318458 0.052593 0.013177 0.256448 -0.112313 0.231608 0.300978 -0.136417 0.413391 -0.239342 -0.119249 0.038486 -0.153388 0.009824 -0.107302 0.149099 -0.146399 0.261197 -0.206453 -0.216968 0.016104 0.018567 -0.082719 -0.232659 0.361511 -0.467573 -0.444515 -0.030422 0.03864 0.347784 -0.181653 -0.072907 0.085407 0.307976 -0.451663 -0.106906 0.255342 0.082942 0.208273 -0.005781 0.112188 0.058324 -0.210167 0.141788 -0.019216 -0.025358 0.10626 0.02257 -0.027901 0.314836 0.251176 0.209622 -0.260806 0.254639 0.213316 -0.339407 -0.045008 0.300614 -0.011271 -0.434972 -0.030563 -0.271207 0.161916 -0.1688 0.246914 -0.252546 0.200295 0.12283 0.002965 0.128975 0.031621 -0.004761 -0.051323 0.096868 0.201809 -0.021059 -0.104539 -0.374199 0.303502 0.340856 -0.045782 0.055904 0.134279 -0.272258 0.116652 -0.026297 -0.014039 0.207685 -0.545278 -0.231379 0.125787 0.106327 -0.149541 0.060784
0.496363 -1.686794 1.206147 0.425719 0.478783 -0.073551 0.404884 0.156178 -0.864706 0.095392 0.301317 -0.649012 0.096079 -0.505905 0.628367 0.357972 0.123421 -0.233853 -0.326353 -0.35714 -0.675138 -0.311141 0.126674 -0.525047 -0.073132 -1.832782 0.29225 1.388113 -0.166548 1.709136 -1.032642 -0.807305 1.428473 0.012271 0.916726 -1.233027 0.370769 -1.998102 1.97264 1.017244 -0.331758 -1.131889 -0.747308 2.249991 -1.152032 1.025235 -0.4346 0.470216 -1.71885 0.811723 1.537848 0.14642 -1.637482 0.804725 -2.033004 1.521034 -0.093606 0.124914 1.02956 1.982626 -0.696157 1.392824 -0.630934 -0.519162 0.893075 1.093332 -0.238248 -0.418924 -2.146454 -0.378194 0.51876 0.936723 -0.523774 0.452794 -0.112199 -1.454609 -0.988185 0.682547 -0.761772 -1.902619 1.122161 1.711156 0.113941 -0.295757 1.137365 1.913558 2.424451 1.053087 0.904882 0.626433 0.551926 0.099761 -1.906624 -0.991478 -0.145962 0.095705 0.243125 -1.532093 1.157565 1.957623
-0.08438 -0.153256 -0.037503 0.051935 0.163505 -0.111511 -0.17095 0.033056 0.006956 6.23E-4 0.201904 0.094537 -0.010563 -0.123152 0.06118 0.184865 -0.148195 0.072117 0.051382 -0.168713 -0.056236 -0.007279 0.057362 -0.042858 0.027345 -0.038474 -0.07182 -0.018634 6.93E-4 0.054588 -0.15142 -0.284033 -0.079455 0.027292 0.024823 -0.217023 0.037941 -0.063723 0.221494 0.070232 -0.025808 -0.056345 0.1775 0.05132 -0.086704 -0.136905 -0.003789 -0.12514 -0.00996 0.009989 -0.034486 -0.035138 -0.039727 0.113108 -0.228467 -0.095753 -0.081625 -0.155598 0.143952 0.034433 0.037699 -0.147416 0.100574 -0.054061 -0.035661 0.118845 0.17326 -0.020536 0.150179 -0.03812 -0.10443 -0.040749 0.01925 -0.02954 0.071313 -0.334159 -0.052176 -0.05586 0.115515 -0.070981 -0.064591 0.206792 0.126589 0.019383 0.02267 0.057197 -0.001635 -0.105064 0.144781 0.008476 0.045251 0.009627 0.057288 0.140594 0.076096 -0.044927 0.046975 -0.144983 -0.183368 0.166561
-1.445697 -0.376991 0.605131 -2.927773 -2.545095 -0.012935 0.304803 -1.289168 2.935763 -3.30048 2.013736 0.601604 0.463606 -2.513579 -3.111959 1.509581 -2.270566 -3.193746 -0.683823 1.11226 2.641423 -0.439638 -1.461155 -0.230057 -3.083891 1.464638 -3.482595 0.292508 -2.961341 2.670694 2.633844 0.530248 -0.915058 -5.213341 1.151417 2.088477 0.077027 1.987321 -2.701086 -1.896473 -1.396191 -0.28458 3.471924 3.377009 0.510478 -0.338405 -1.080892 -0.17368 -0.293555 -0.092374 -0.194442 -0.035597 -0.210813 3.880518 -1.574683 0.838801 3.22272 2.935631 -0.150343 1.362463 2.574235 3.434764 2.104742 1.146516 1.989767 1.356181 1.46733 1.525646 1.808291 -1.537805 -0.288857 -0.65458 0.173075 -0.698576 0.239921 -0.800718 2.227096 -0.11127 0.137437 0.862853 3.100754 -0.68748 2.771815 -0.865885 0.747454 -2.708324 2.056632 -2.880682 -0.510213 -0.75684 1.062552 3.109441 -4.090577 -0.19873 0.562437 -4.868546 1.064819 1.171282 -1.742815 -0.694478
-2.413501 -1.046265 0.084413 2.234596 0.208749 0.004878 -1.736897 -0.913701 0.95779 1.63075 1.920616 1.62481 0.110082 0.017345 2.614076 0.048128 0.105178 -2.675493 1.080505 -3.46141 0.222292 -0.335833 -1.260783 -1.966969 0.887571 0.710823 -1.407303 1.785691 -1.103336 1.575555 -0.519405 -0.195956 -1.710035 -0.024302 0.8981 2.718253 1.419094 -0.744132 0.780919 -1.209672 -1.400432 -1.40144 0.236949 3.306008 -0.235107 2.689443 0.409565 1.477113 -0.270796 0.384068 0.188723 1.565949 -1.605375 2.046662 -3.146765 -0.043561 -0.926765 3.626242 -0.885928 -0.992105 2.152496 -1.51897 -1.606927 0.342464 1.296684 0.446665 2.809501 -4.662972 1.922611 -0.114187 -2.854502 -1.651282 -0.869215 -0.423355 -2.516783 1.030379 -1.441689 1.98489 -0.346274 2.303822 -0.757293 -0.159383 2.628364 0.579873 0.162431 0.119156 1.413736 0.36466 0.197296 -2.136963 2.803895 0.263279 0.057192 1.20831 -1.961622 0.08736 -1.173938 -0.632139 -1.91799 -1.634194
0.352905 0.550922 -1.128945 -0.511125 0.774489 1.405335 -0.371647 0.106012 -0.779785 -0.640302 -0.68578 1.570717 -0.712288 -0.706705 -0.789609 -0.045278 -1.599722 -2.840112 -0.089543 -1.158838 -1.862605 -0.62748 -0.063542 -0.468696 0.750564 0.033551 -0.772222 -0.188991 -0.163115 0.455978 0.038455 -0.779588 0.172303 -1.114448 -0.548246 -0.008155 1.66721 -0.744821 -0.15746 -2.668482 -0.304702 -0.905716 0.479063 0.151803 -0.94063 -0.044338 -0.906122 -0.456182 0.281891 0.268287 0.47007 0.628019 0.328428 1.471286 -2.345457 0.072073 -0.345477 -0.998199 -1.496897 -0.053061 0.351206 -0.934426 0.295591 0.07336 0.24092 0.486976 0.390085 -0.621556 0.375246 -0.02625 1.957847 1.014101 0.004675 0.08874 -0.900479 -0.462149 0.922254 1.355385 -1.048724 0.105897 1.254466 0.410718 0.321258 1.066395 -0.171761 -0.128774 0.315556 0.697301 -0.180925 0.555334 1.005586 -0.891677 -1.232923 -1.994189 -0.567812 0.204184 -0.947385 -0.051526 -0.987029 0.725141
0.0 0.0 0.0 0.0 0.0 0.0 0.0 0.0 0.0 0.0 0.0 0.0 0.0 0.0 0.0 0.0 0.0 0.0 0.0 0.0 0.0 0.0 0.0 0.0 0.0 0.0 0.0 0.0 0.0 0.0 0.0 0.0 0.0 0.0 0.0 0.0 0.0 0.0 0.0 0.0 0.0 0.0 0.0 0.0 0.0 0.0 0.0 0.0 0.0 0.0 0.0 0.0 0.0 0.0 0.0 0.0 0.0 0.0 0.0 0.0 0.0 0.0 0.0 0.0 0.0 0.0 0.0 0.0 0.0 0.0 0.0 0.0 0.0 0.0 0.0 0.0 0.0 0.0 0.0 0.0 0.0 0.0 0.0 0.0 0.0 0.0 0.0 0.0 0.0 0.0 0.0 0.0 0.0 0.0 0.0 0.0 0.0 0.0 0.0 0.0
0.131653 -0.078453 -0.190626 0.028867 -0.092842 0.108014 0.016623 -0.079682 -0.110049 -0.062293 -0.009954 -0.014466 -0.08349 -0.072015 0.20082 0.069582 -0.204432 -0.009666 0.028616 -0.24254 -0.1373 -0.146904 0.092573 0.318973 0.241216 0.00568 -0.129391 0.135077 0.104979 -0.06681 0.086101 -0.162768 -0.235686 0.114465 -0.049902 0.269136 0.095732 0.077529 0.076106 -0.049327 -0.035259 -0.182078 -0.067188 -0.186646 -0.080108 0.176828 -0.079778 0.002854 -0.060756 -0.073775 0.167502 0.013176 0.125638 -0.04508 -0.239345 -0.139583 -0.069091 0.013791 0.118036 0.118845 -0.037258 0.064985 0.034167 -0.069379 -0.065142 0.172227 0.275312 0.049312 0.046245 0.028981 0.163347 -0.212242 0.114489 0.278049 0.129004 0.026621 0.343221 0.114231 -0.159549 0.025671 -0.209885 -0.12192 -0.075082 0.01044 -4.66E-4 -0.033596 -0.165144 0.164023 -0.078681 -0.140803 0.188044 0.272091 0.074587 -0.138527 0.072066 -0.095037 -0.003339 0.164649 -0.103004 0.010991
-0.023725 -0.265581 -0.041655 0.122232 0.026794 -0.088378 -0.095963 -0.07173 -0.107796 -0.053451 0.244892 0.188711 -0.170801 0.022715 -8.47E-4 0.204389 -0.068086 0.024141 0.111102 0.050266 -0.042829 -0.104548 0.056634 0.106866 -0.035671 -0.111641 0.164909 0.066612 0.15263 -0.04625 0.072838 0.047495 -0.171938 0.101539 -0.079368 -0.007698 0.092885 -0.147097 0.195496 -0.035855 -0.218068 -0.098775 0.231561 0.129023 -0.111343 -0.171763 -0.061107 -0.054208 0.042218 0.022472 0.07198 -0.214236 -0.161899 -0.018452 0.010509 -0.022686 0.086178 0.078149 -0.072518 -0.183167 0.119658 -0.068118 0.051934 -0.01767 -0.158406 -0.063514 -0.107352 0.120173 0.133667 0.053117 0.01506 -0.054873 0.029177 -0.089398 -0.004805 -0.012248 0.112717 -0.080168 -0.105325 -0.109812 -0.087183 -0.176569 0.227813 -0.2492 -0.148258 -0.003471 0.100996 0.024248 0.093904 0.123002 -0.140595 0.053374 -0.09475 -0.046893 -0.002508 -0.046196 0.066997 0.183339 -0.060206 -0.072608
-0.132587 -0.184429 0.061453 -0.075114 0.019565 -0.09807 -0.023578 -0.081584 0.016927 -0.028889 0.249726 0.057195 -0.033509 -0.11421 0.160232 0.088145 0.024179 0.098273 -0.035416 0.126913 -0.125701 0.192833 0.146657 0.105211 -0.224797 -0.104902 -0.080807 -0.108298 0.264349 -0.208716 -0.167413 -0.03528 -0.045213 0.121735 0.06632 -0.051004 -0.071962 0.051348 -0.019848 0.224365 -0.003735 0.009629 -0.015135 0.102185 0.019837 -0.045659 -0.139395 -0.11097 -0.047548 -0.027481 0.146608 -0.119803 -0.097453 0.048928 0.241056 0.049687 0.001724 0.026899 0.008957 -0.256442 -0.030099 -0.050389 -0.034987 -0.119145 -0.165109 -0.103864 -0.050245 -0.064299 0.027636 -0.107412 0.005004 -0.119647 -0.188808 0.063594 0.115292 -0.100342 -0.177453 -0.059243 -0.145291 -0.043908 0.013761 -0.095177 0.172208 -0.180068 -0.181875 -0.034543 -0.113358 0.028653 0.049114 0.093095 -0.074252 -0.069993 -0.046385 0.145403 -0.05085 -0.154796 0.004637 -0.007015 -0.01638 0.006862
0.050937 0.285624 -0.002051 -0.129913 -0.108839 -0.071828 0.065826 -0.273373 -0.115427 0.197249 0.025857 0.269591 0.017033 -0.235882 0.232091 0.083436 -0.115885 -0.023282 0.163289 -0.006107 -0.224972 0.052159 -0.049551 -0.019359 -0.063074 -0.172758 0.009967 -0.130001 0.093337 0.007925 -0.110419 0.178635 0.079633 0.135919 0.131999 -0.109901 0.063014 -0.04907 -0.323235 0.025342 0.01949 0.125494 -0.00442 0.062251 0.18786 -0.318988 -0.122761 0.073055 -0.029813 0.124536 -0.063617 0.011427 -0.091457 -0.235585 0.111724 -0.193511 0.118635 0.062541 0.154852 0.001914 0.083634 0.165211 -0.053158 -0.157641 -0.056342 -0.204136 -0.028993 -0.001161 0.04448 -0.238601 0.131155 -0.203773 -0.001744 0.004363 0.03109 -0.127558 -0.161423 0.188935 0.076646 0.115878 0.209277 -0.025258 -0.027076 0.032355 -0.001904 -0.063376 -0.027664 0.059271 -0.034922 -0.22258 -0.240904 -0.064588 0.10631 -0.006292 -0.050369 -0.403559 -0.174116 -0.111844 -0.270312 -0.079597
-0.100678 -0.154449 -0.106939 0.090241 0.072362 -0.085626 -0.188968 -0.030932 -0.08659 0.031899 -0.151622 0.19776 -0.055731 -0.06112 -0.135391 0.246336 0.119886 -0.051766 0.140524 0.029097 -0.126097 0.137603 0.028588 -0.053973 0.025666 0.001632 0.047064 -0.009642 0.163244 -0.008208 -0.153253 0.072349 -0.073437 -0.055129 -0.017573 -0.062464 0.019293 -0.012092 0.154359 0.14884 -0.044178 0.243331 0.164164 0.055441 0.01022 -0.129052 0.061729 -0.05584 -0.058865 0.10578 -0.197961 0.108557 -0.067851 0.024482 0.079837 -0.138802 0.240963 -0.177551 0.144683 -0.072789 0.028412 -0.045093 0.028155 0.028417 -0.049322 -0.104076 0.085016 0.120295 -0.024117 -0.022975 0.051948 -0.012776 -0.034355 0.106428 0.05339 -0.142985 -0.078092 0.037719 -0.042194 0.136045 0.005872 0.142055 -0.0573 0.079947 0.254025 -0.010228 -0.087251 -0.100753 -0.018992 0.117401 -0.04506 0.076749 -0.010579 -0.026872 9.59E-4 -0.198615 0.064842 0.087362 -0.228983 -0.139207
-1.942718 -1.497116 -0.613593 -0.211509 1.447543 2.601059 1.3044 0.772325 -1.063905 0.346191 1.32291 3.941281 1.717394 -0.671718 0.876891 -0.939926 -1.516724 -1.118786 -8.11E-4 2.025258 0.089303 1.690977 1.176375 -2.09502 3.120319 -2.670736 0.582226 1.263049 -0.691267 0.163458 -0.513855 -1.460894 -0.893226 2.948305 0.136721 -0.554282 1.451317 -1.033992 2.126124 -0.689554 -1.580149 -0.69404 0.21605 1.448698 -0.882228 -1.029116 0.452448 2.003288 -1.7192 -1.512328 0.248151 1.381856 -1.245606 1.483319 -2.514998 -1.040668 -0.888429 -0.714193 2.523381 0.097103 -0.332611 0.980289 -1.938349 -1.696489 1.824288 -0.625347 0.790207 -1.436453 0.814429 0.304754 0.003106 0.115236 0.962602 -2.49441 -2.26214 -0.628873 -2.93211 2.542278 -2.992106 1.620094 0.406728 0.008843 -0.336516 -0.80737 -0.942855 0.217594 -0.283235 -0.916626 1.247103 -0.564428 2.278388 -0.518771 -0.985911 0.519219 -1.289235 -1.016811 1.315834 0.529658 -0.643007 -2.306842
-0.062889 0.025252 0.007798 0.119826 0.102817 -0.044701 -0.03633 0.039297 -0.044315 0.014563 0.08302 0.026846 -0.010923 0.010575 -0.019566 0.180665 0.061246 0.01373 0.099063 -0.048502 -0.063236 0.110622 0.030625 0.025481 -0.143957 -0.166882 -0.196883 0.01391 -0.008263 -0.002555 -0.110334 -0.166371 -0.087142 0.022273 0.057823 -0.256901 0.085173 -0.074906 0.146934 0.146458 0.151132 0.183635 0.040313 0.079573 0.044018 -0.101134 0.152798 0.040934 -0.159563 0.125851 5.43E-4 0.075197 -0.139757 -0.045361 0.022445 -0.029929 0.047018 0.120385 0.226065 -0.023498 0.075055 -0.001438 -0.049132 -0.021696 -0.078554 -0.057839 -0.07828 0.001745 0.095857 -0.051098 -0.170549 0.058578 -0.036141 -0.014753 -0.052143 0.007509 -0.268401 0.124887 -0.058916 0.019077 -0.036411 0.205014 0.020516 0.009096 0.210407 -0.014334 0.020223 0.016129 0.108539 -0.081157 -0.003089 0.01231 0.040309 0.10197 -0.076506 -0.056289 0.168869 0.045357 -0.146283 -0.088026
-0.077844 -0.095127 -0.111959 0.065958 -0.003771 0.093852 0.030974 -0.075409 -0.074892 0.013177 0.101977 0.027327 0.05946 -0.080095 0.014705 -0.09859 -0.026689 -0.016633 0.072144 -0.081778 -0.183838 -0.047565 0.085606 -0.003651 -0.043222 -0.020795 -0.160589 -0.241323 0.016205 0.120565 -0.038762 -0.067004 0.088518 0.04372 -0.238674 -0.048688 -0.014105 -0.036928 0.075668 0.128212 0.086474 0.036517 0.061158 0.039984 -0.204918 -0.122368 -0.096009 0.158666 -0.065896 -0.183033 0.022882 0.070648 -0.007476 0.140778 -0.201101 -0.0146 0.029869 -0.115793 0.095508 -0.088153 -0.144524 -0.009662 0.146956 -0.009012 -0.014679 0.241462 0.004318 0.068123 -0.001405 -0.04821 0.082995 -0.007983 -0.078808 0.002809 0.119805 -0.099238 -0.095953 -0.219711 -0.150567 -0.004243 0.020732 0.186372 0.011305 0.018282 0.091077 0.140092 0.023684 -0.071639 0.082287 0.007248 -0.029663 0.080984 -0.017821 -0.128594 0.126463 0.063795 -0.218613 0.051722 -3.48E-4 -0.033175
-0.634129 -0.116628 -0.403844 1.589822 -0.216009 1.455066 -0.529508 0.771788 -0.648176 -2.453316 1.917732 -0.800627 3.276225 -1.54024 -1.498602 0.444358 -1.190708 -2.87305 -2.718677 -1.564559 0.008554 1.554967 -2.085095 -1.524454 -3.697245 -3.801369 -0.841317 0.30622 -1.846837 5.341967 -2.401416 -3.074007 -1.053654 0.868767 -1.749135 0.827992 -0.087086 0.539376 0.64962 1.077137 1.827695 -1.758335 -1.085645 4.210859 -4.128051 -2.368457 -2.576973 -0.731455 1.527519 0.22005 6.129143 3.222704 2.375077 0.886784 -3.942258 1.291699 1.961008 0.291086 -0.316456 0.080337 2.467371 0.896314 -1.23679 -0.475635 0.053093 -1.04327 1.411485 -1.402452 -1.840482 1.896568 0.727823 -0.987723 0.75011 3.684237 -0.753541 1.225596 0.910247 -1.166294 1.714927 3.199465 0.764568 0.714025 0.91388 1.021949 0.074568 3.306388 3.836719 1.984248 -1.433158 -0.755905 0.677207 1.989384 -3.407877 1.015886 0.037496 0.975344 -0.479796 2.107396 -2.380342 -0.630028
1.909944 2.997681 -1.981798 1.305575 0.710175 3.565015 -0.840653 -1.217757 -3.749776 -0.188907 1.764462 0.091279 0.251247 -1.616417 -2.408204 -1.358768 -1.465919 0.650822 -3.809985 -2.008968 0.045203 -0.51078 2.202454 1.717699 2.959695 4.349425 -0.98369 2.447828 0.633017 -0.62272 -1.745182 -0.395017 2.559239 0.84834 -0.947815 -0.737563 0.565 -3.098051 0.981339 -4.049623 0.77219 -1.827749 -0.241241 1.043291 -0.184688 -1.708882 -0.585047 -4.623209 -2.459881 -1.024159 0.359817 2.082124 0.408798 -0.042681 0.205754 -0.772647 -2.029265 -2.555421 -0.285333 -2.162693 0.540565 -0.70232 -0.474244 1.890309 -2.681386 1.362267 -0.776701 3.111236 -0.453224 -2.327625 0.315126 -2.289385 1.41416 -1.077764 -2.933997 -0.03893 1.140879 3.222929 0.991675 1.676205 -0.140677 -0.063421 1.700469 0.192882 2.406299 3.095651 4.4545 0.906273 1.703614 0.731013 0.05359 0.243414 0.305108 0.109407 2.780591 1.369774 -2.567047 1.282738 0.743173 -0.271938
-0.102214 -0.052987 0.068455 -0.037875 0.013323 0.103773 -0.05269 0.128281 -0.11088 0.067902 0.159048 -0.120102 0.071736 -0.016256 0.047868 0.023772 0.102799 0.207122 0.055978 0.14846 0.108237 0.115331 -0.117742 -0.182248 0.043044 -0.064803 0.028596 -0.098313 -0.096479 -0.005389 -0.12476 -0.071036 -0.052265 -0.088858 -0.094427 -0.074645 -0.174356 0.179761 -0.033855 -0.084202 0.062058 0.062612 -0.084057 0.001412 0.018493 -0.061669 0.056959 0.005164 0.06617 0.01551 -0.07576 -0.075063 -0.015271 -0.089165 0.17962 0.001513 -0.123561 -0.13834 0.129769 0.066137 0.190666 0.044313 0.145769 -0.112865 -0.078414 0.05572 0.102542 0.021993 0.075595 -0.1392 -0.063516 -0.056837 -0.193181 0.219192 0.076168 0.053337 -0.089707 0.014527 0.226527 0.070278 -0.018249 0.172699 0.054142 -0.094898 0.099324 0.1002 -0.094546 0.092288 0.081287 0.112272 -0.095078 0.087977 -0.061701 0.093424 0.200636 -0.142134 -0.073012 -0.183468 0.084962 0.053438
-0.169983 -0.237335 0.026271 0.114057 0.061937 0.015413 -0.191873 0.072955 0.014363 -0.166541 0.201339 0.053392 0.076335 -0.172307 0.251682 0.088022 -0.09025 0.067027 0.215485 -0.17642 -0.056057 0.024486 0.21825 0.172488 0.132017 -0.070891 -0.088221 0.050348 0.098699 -0.009445 0.035077 -0.149208 0.033747 0.12191 0.05696 0.038637 0.025122 -0.026912 0.168429 0.117168 0.013101 0.027411 -0.192263 -0.169479 -0.100438 -0.180431 0.112138 0.144572 -0.118797 0.064777 0.207131 -0.055546 -0.192446 0.242519 -0.060101 -0.096289 -0.050058 -0.161396 0.111939 -0.119966 0.151733 0.041049 -0.109157 -0.101048 -0.110585 0.041265 0.054418 -0.020331 0.035434 -0.141278 0.141098 -0.141594 0.08919 -0.145691 0.12054 -0.12482 -0.101304 0.076278 -0.084285 0.046276 -0.011349 0.123497 0.10807 -0.016148 -0.015907 -0.065652 -0.056542 -0.027535 0.196791 -0.25582 0.190245 0.220684 -0.107744 0.076865 -0.096161 -0.150546 0.015529 -0.127145 0.07061 0.114
0.078167 -0.073333 -0.092109 -0.065243 0.119627 -0.058675 0.128436 0.020475 -0.01228 -0.090399 -0.347931 0.059294 -0.081813 0.077384 0.163592 0.108034 0.136083 0.129813 0.157539 0.039815 -0.094348 0.045872 0.019834 -0.094643 -0.178086 0.010657 0.036587 0.024584 0.125884 -0.197722 -0.103599 0.257331 0.10009 0.080706 -0.157509 -0.06166 -0.141348 0.073321 -0.069082 0.061784 0.083855 -0.133938 0.086678 -0.254293 0.140099 -0.136879 -0.042846 -0.012828 0.163501 0.188484 -0.009084 -0.024892 -0.013541 0.088367 0.084209 0.018297 -0.093453 0.030204 -0.184 -0.180824 0.009056 0.079662 0.112029 -0.32369 0.161488 0.053189 0.036678 -0.028272 -0.089101 0.012619 0.064379 -0.024677 0.184016 0.073272 -0.044837 0.089895 0.291571 0.060272 -0.027747 0.102382 0.038145 0.088176 0.077789 -0.106419 -0.0474 0.097354 -0.098132 0.091895 0.089876 0.140749 -0.165918 -0.04959 -0.023229 -0.041909 0.032437 -0.143261 -0.14711 -0.022768 -0.045811 0.090815
0.0 0.0 0.0 0.0 0.0 0.0 0.0 0.0 0.0 0.0 0.0 0.0 0.0 0.0 0.0 0.0 0.0 0.0 0.0 0.0 0.0 0.0 0.0 0.0 0.0 0.0 0.0 0.0 0.0 0.0 0.0 0.0 0.0 0.0 0.0 0.0 0.0 0.0 0.0 0.0 0.0 0.0 0.0 0.0 0.0 0.0 0.0 0.0 0.0 0.0 0.0 0.0 0.0 0.0 0.0 0.0 0.0 0.0 0.0 0.0 0.0 0.0 0.0 0.0 0.0 0.0 0.0 0.0 0.0 0.0 0.0 0.0 0.0 0.0 0.0 0.0 0.0 0.0 0.0 0.0 0.0 0.0 0.0 0.0 0.0 0.0 0.0 0.0 0.0 0.0 0.0 0.0 0.0 0.0 0.0 0.0 0.0 0.0 0.0 0.0
0.234577 0.102791 0.211305 -0.223764 -0.16733 0.012448 0.223222 0.138365 0.27169 -0.038392 0.01162 -0.14895 -0.234476 -0.102912 -0.009811 -0.359592 0.103009 0.13031 0.118888 -0.098276 -0.045957 0.108286 -0.188921 0.004421 -0.186816 -0.018779 0.149179 -0.05931 0.059878 -0.020949 0.207224 -0.227862 -0.117468 0.071526 0.023319 0.141342 0.013159 0.287413 -0.153109 -0.175893 -0.003682 0.022514 0.247315 -0.048851 0.186896 -0.058263 0.015254 -0.168798 -0.100857 0.16786 0.041005 -0.043257 0.025628 0.090783 0.279711 -0.132447 0.052951 -0.043017 0.055498 0.101047 -0.043701 0.162048 0.105463 -0.207177 -0.136176 0.134265 0.100611 -0.145416 0.34044 -0.105936 0.156119 -0.091022 0.044191 0.377367 0.095166 0.001874 -4.5E-4 -0.10729 -0.037111 -0.160112 -0.043365 0.233275 -0.131462 -0.147338 -0.061192 -0.063922 -0.019442 0.162724 0.082165 0.146079 -0.155321 0.081439 -0.124829 0.082889 -0.003661 -0.19542 -0.01039 -0.173227 0.224731 0.078344
-0.023725 -0.265581 -0.041655 0.122232 0.026794 -0.088378 -0.095963 -0.07173 -0.107796 -0.053451 0.244892 0.188711 -0.170801 0.022715 -8.47E-4 0.204389 -0.068086 0.024141 0.111102 0.050266 -0.042829 -0.104548 0.056634 0.106866 -0.035671 -0.111641 0.164909 0.066612 0.15263 -0.04625 0.072838 0.047495 -0.171938 0.101539 -0.079368 -0.007698 0.092885 -0.147097 0.195496 -0.035855 -0.218068 -0.098775 0.231561 0.129023 -0.111343 -0.171763 -0.061107 -0.054208 0.042218 0.022472 0.07198 -0.214236 -0.161899 -0.018452 0.010509 -0.022686 0.086178 0.078149 -0.072518 -0.183167 0.119658 -0.068118 0.051934 -0.01767 -0.158406 -0.063514 -0.107352 0.120173 0.133667 0.053117 0.01506 -0.054873 0.029177 -0.089398 -0.004805 -0.012248 0.112717 -0.080168 -0.105325 -0.109812 -0.087183 -0.176569 0.227813 -0.2492 -0.148258 -0.003471 0.100996 0.024248 0.093904 0.123002 -0.140595 0.053374 -0.09475 -0.046893 -0.002508 -0.046196 0.066997 0.183339 -0.060206 -0.072608
-0.052161 -0.042507 0.253167 0.026542 -0.102293 -0.151604 -0.147281 -0.106571 -0.169437 -0.061026 -0.098977 0.246794 0.054439 -0.115814 0.08538 0.054967 -0.036877 0.07669 0.029273 0.026213 -0.128552 0.201593 0.257153 0.112587 -0.219201 -0.134496 -0.011612 0.01204 0.177564 -0.077947 0.028021 -0.007954 -0.006511 0.025605 -0.081798 -0.097948 -0.083321 0.01452 -0.120772 0.183814 0.013817 -0.028674 -0.127345 0.083952 0.241962 0.008216 0.002481 -0.021414 0.01585 -0.013604 -0.117263 -0.191607 -0.122662 0.029128 -0.129 -0.104692 -0.049558 -0.245183 0.009614 -0.056431 0.056934 -0.041923 0.105327 -0.252622 -0.131731 0.038648 0.199703 0.065642 -0.020541 -0.135342 -0.00504 0.104393 -0.212745 0.047493 0.060538 -0.146235 -0.163403 0.13087 0.057419 0.14675 -0.059268 0.179919 0.027248 -0.198152 0.094173 0.120682 0.141272 0.072405 0.067514 0.090427 -0.176193 0.089706 -0.173904 0.003476 0.134075 0.201659 -0.173832 -0.082398 0.080334 -0.042422
0.01891 -0.060665 0.135969 0.183092 -0.055761 -0.076547 -0.222809 0.044102 -0.010539 0.189162 0.021543 0.105088 0.052464 0.106578 0.014072 -0.030556 0.001304 -0.009971 0.084897 -0.006616 -0.008994 -0.08879 -0.020135 0.107845 -0.014012 -0.087822 -0.084146 -0.025894 0.128106 -0.065299 -0.076678 -0.030183 -0.039492 -0.038769 0.035698 0.004731 0.135535 0.081022 -0.085718 -0.085159 0.051488 0.035486 -0.017824 0.205306 -0.150968 -0.046718 -0.089217 0.102943 0.009137 0.007239 0.210947 -0.084459 0.16431 0.077647 0.21221 -0.051225 0.111011 -0.059967 0.130746 0.149758 0.098683 -0.020428 0.132569 -0.058797 0.016501 -0.054702 0.116284 -0.152144 0.027769 -0.108143 0.051962 0.07111 0.045641 0.005755 -0.010936 -0.071829 0.061753 -0.077299 -0.123208 0.137011 -0.020861 -0.153239 0.054479 0.014044 0.059868 0.038198 0.029808 0.02053 0.145425 -0.259012 -0.029823 0.014488 0.015157 0.209326 0.003128 -0.199791 0.128203 -0.151176 0.138139 0.097779
-0.01962 -0.05695 -0.107025 0.054649 0.052361 0.085034 0.024466 -0.158673 -0.158075 -0.116891 0.029933 0.047456 -0.118 -0.059339 -0.059388 0.061936 -0.143942 0.031008 0.086891 0.153955 -0.050165 0.024443 0.007827 0.124126 0.080677 -0.029323 0.091258 0.053866 0.081644 0.064287 -0.054257 -0.028253 -0.256732 0.081018 -0.088313 0.032974 0.042676 -0.117601 0.061631 -0.140403 -0.07452 -0.054501 0.032488 -4.88E-4 -0.002733 -0.172753 0.080065 0.080482 -0.078265 -0.007758 -0.006831 0.192073 -0.226863 -0.148704 -0.077058 0.095931 -0.101971 0.007738 0.002738 -0.183185 -0.078416 0.085421 0.059795 -0.001629 0.254022 0.097468 0.133822 -0.286067 -0.040077 -0.152735 -0.022574 -0.055336 0.070615 0.049166 -0.010149 0.124306 -0.200914 0.0219 -0.057625 -0.098357 0.051517 0.133641 0.087347 -0.228762 -0.142815 0.287694 0.017566 -0.007529 0.013309 0.111164 -0.041189 0.0265 -0.082694 0.06888 -0.005759 -0.144865 -0.019904 0.042003 -0.114617 -0.141964
0.100692 -0.157131 0.139302 0.123578 0.151543 0.178422 -0.012679 -0.103362 0.233611 0.029945 -0.033496 -0.02353 -0.150988 -0.078962 0.230475 0.006161 -0.201667 0.084881 -0.295978 -0.216595 -0.152078 -0.096403 -0.182565 -0.034674 -0.008271 0.123985 -0.225344 0.060741 0.064737 -0.027452 -0.020276 -0.040379 -0.062847 -0.021902 -0.155636 0.098869 0.118253 -0.054786 -0.035252 0.089718 -0.093516 0.108242 -0.165133 -0.010665 -0.002421 -0.171869 -0.111112 -0.041381 -0.044332 -0.069941 -0.02046 0.052983 -0.30701 0.053758 -0.133805 0.122561 8.2E-4 0.037855 -0.034898 0.091687 -0.127096 0.09488 -0.140734 -0.009746 -0.040595 0.12427 0.130515 0.010606 0.177229 0.063676 0.149195 0.026542 -0.108012 0.401386 -0.015993 -0.159563 0.171247 0.017552 -0.091249 -0.185777 0.041517 -0.021989 -0.300138 0.0411 -0.232056 0.111526 -0.051533 0.011578 0.198834 -0.128702 0.184857 -0.029913 -0.123641 -0.092647 0.286203 -0.109599 0.093666 0.015337 -0.091583 0.060957
0.115721 0.052927 0.041419 0.081069 0.02703 -0.012163 0.039988 0.093846 -0.007659 0.0977 -0.039416 0.085147 -0.041401 -0.013308 0.071694 0.117161 -0.038863 0.040405 -0.068495 0.054036 -0.209494 0.033892 0.081037 -0.143405 0.063465 0.092514 -0.033584 0.109042 -0.117637 -0.011181 -0.009556 0.074916 0.008122 0.059717 0.03396 0.007782 0.091168 0.048913 -0.009698 -0.007819 -0.109464 -0.079209 0.025237 -0.063099 -0.04298 0.074869 0.03584 -0.070115 0.057416 0.074424 -0.057784 0.071023 -0.074321 -0.041628 0.118983 0.063976 -0.036279 -0.090261 -0.105097 0.024131 0.023556 -0.039987 0.07151 0.014267 0.023886 -0.169095 -0.0751 -0.019314 -0.087458 -0.004711 0.047652 0.089148 -0.030169 0.111546 -0.087 0.026244 -0.089843 0.117473 0.014482 0.070587 -0.075417 0.07343 0.016564 -0.021522 0.114416 0.007001 -0.133272 -0.009915 0.012981 0.162293 -0.040007 -0.005901 0.015393 0.036314 0.018299 -0.042898 0.051084 -0.037656 -0.079854 0.075405
-0.259035 -0.03544 0.068662 0.233622 0.044005 -0.059957 -0.096752 0.009094 -0.07691 -0.001971 0.093255 0.009386 -0.032454 -0.126627 0.113945 0.314729 -0.03801 0.090597 -0.0126 0.009467 0.042303 0.080073 -0.035165 0.014249 -0.04233 0.009341 -0.096693 0.097912 0.095635 -0.104512 -0.173536 -0.098517 -0.040519 0.121149 -0.074563 -0.260754 0.132754 -0.305702 0.048906 7.24E-4 -0.004688 -0.062211 -0.157643 0.163787 -0.051187 -0.033076 -0.076364 -0.032618 -0.072498 0.128717 0.134201 -0.076602 -0.123722 0.083496 -0.028438 -0.183214 0.040369 0.0031 -0.033715 0.034729 -0.077765 -0.048612 -0.0688 -0.17546 -0.161476 0.108912 0.2117 -0.045156 0.084458 -0.266194 0.033087 0.178347 -0.02546 0.220646 0.003983 -0.205559 -0.152822 -0.086942 -0.068308 -0.084219 0.088495 0.168408 0.036985 -0.064849 0.133697 0.187529 0.036237 -0.085146 0.187172 0.188673 -0.158358 0.076023 -0.139607 -0.106972 0.089002 -0.125668 0.078949 0.10434 0.003305 0.044417
-0.08438 -0.153256 -0.037503 0.051935 0.163505 -0.111511 -0.17095 0.033056 0.006956 6.23E-4 0.201904 0.094537 -0.010563 -0.123152 0.06118 0.184865 -0.148195 0.072117 0.051382 -0.168713 -0.056236 -0.007279 0.057362 -0.042858 0.027345 -0.038474 -0.07182 -0.018634 6.93E-4 0.054588 -0.15142 -0.284033 -0.079455 0.027292 0.024823 -0.217023 0.037941 -0.063723 0.221494 0.070232 -0.025808 -0.056345 0.1775 0.05132 -0.086704 -0.136905 -0.003789 -0.12514 -0.00996 0.009989 -0.034486 -0.035138 -0.039727 0.113108 -0.228467 -0.095753 -0.081625 -0.155598 0.143952 0.034433 0.037699 -0.147416 0.100574 -0.054061 -0.035661 0.118845 0.17326 -0.020536 0.150179 -0.03812 -0.10443 -0.040749 0.01925 -0.02954 0.071313 -0.334159 -0.052176 -0.05586 0.115515 -0.070981 -0.064591 0.206792 0.126589 0.019383 0.02267 0.057197 -0.001635 -0.105064 0.144781 0.008476 0.045251 0.009627 0.057288 0.140594 0.076096 -0.044927 0.046975 -0.144983 -0.183368 0.166561
-0.170205 -0.144595 -0.013509 0.181564 -0.062616 -7.61E-4 -0.181672 -0.075145 -0.211158 0.253109 0.094722 0.233225 0.143612 -0.357472 0.003962 0.074906 0.045027 0.140368 0.018154 0.264137 -0.19999 0.091775 0.241394 -0.017813 -0.31342 -0.134544 -0.329471 -0.037148 0.185241 -0.139347 -0.050331 -0.152643 -0.244624 0.02758 -0.128341 -0.085833 0.299353 -0.162725 0.001509 0.294342 0.012933 -0.02625 -0.067183 0.067065 -0.098696 -0.082849 -0.129815 0.010112 -0.120436 0.308658 -0.040452 -0.228609 0.114784 0.032307 0.069598 -0.12964 0.048075 -0.064014 0.009056 -0.196887 -0.027548 -0.019696 0.085198 -0.102368 -0.044609 -0.068371 -0.035304 0.162054 0.068598 -0.125131 -0.069339 -0.014665 -0.18047 0.013859 -0.073747 -0.068685 -0.104832 0.071499 -0.257915 -0.104579 -0.04522 0.130665 0.141386 -0.207987 -0.06382 0.196213 -0.142391 0.018659 0.149278 0.067008 -0.03666 -0.011896 -0.033402 0.109002 0.079188 -0.026246 -0.07679 -0.105647 0.090802 -0.074765
0.130605 -0.058529 0.24451 0.047331 -6.9E-5 0.07215 -0.184002 -0.164718 -0.124088 0.087012 0.081204 0.204693 -0.00824 -0.17547 -0.017782 0.141176 0.052755 0.170752 -0.020488 -0.005808 -0.156647 0.035376 0.058828 -0.321829 -0.053001 -0.040592 -0.125099 0.177295 -0.104068 -0.060637 0.026067 -0.018816 0.009417 0.001121 -0.150652 -0.233783 0.026212 -0.139306 0.075529 -0.138711 -0.06667 0.221803 -0.001568 0.11388 0.174315 -0.081523 0.0251 -0.063593 -0.100645 0.162383 -0.004691 -0.033605 0.035739 0.071783 0.085843 -0.208563 0.165292 -0.040916 -0.003405 -0.041054 0.083808 -0.025358 0.016526 -0.015834 0.027945 -0.015363 0.217919 0.010549 0.119456 -0.171058 0.098693 0.071989 -0.111448 0.088114 0.002182 -0.152161 -0.068127 0.103357 -0.059305 0.018386 -0.086725 0.101334 0.089982 -0.069024 0.128317 -0.009137 0.16621 0.11455 0.150193 0.113068 0.010486 0.022042 -0.131632 0.06527 -0.081486 0.048737 6.29E-4 0.156624 -0.201436 -0.151869
0.010578 -0.037374 -0.063987 0.041365 0.107443 -0.002955 0.073234 -0.017895 -0.006291 -0.071225 0.050112 -0.064215 -0.015144 0.128322 0.076186 -0.022083 -0.021009 -0.09281 0.141242 -0.009291 0.01012 0.001119 -0.001752 -0.072226 0.093665 0.026996 0.081468 -0.097889 -0.064381 0.256553 0.193319 -0.201049 0.040298 0.080353 -0.029279 -0.126594 -0.038462 -0.110457 -0.002106 0.063496 -0.068524 -0.269987 0.104714 0.193664 -0.245767 -0.017809 0.07974 -0.025746 -0.210495 0.038373 0.06762 -0.084154 -0.079187 -0.135253 -0.208074 0.050795 -0.055234 -0.048423 0.202452 -0.010123 -0.077469 0.093876 -0.037348 -0.006489 0.026468 0.021657 -0.00562 -0.055776 -0.034526 0.161929 0.125648 0.135 -0.007892 0.096344 -0.059023 -0.018161 -0.290918 0.011877 -0.152491 -0.068929 -0.166579 0.073078 -0.056825 -0.137106 0.292851 -0.047969 -0.004827 0.025006 0.234811 -0.12746 0.109223 -0.026045 -0.103715 0.06945 -0.074863 0.00958 0.016699 0.100628 -0.021556 0.111977
-0.089712 0.007848 0.012629 0.065429 0.041631 0.100514 -0.034368 -0.111556 0.106337 -0.092196 -0.21623 0.010814 0.081395 0.084733 0.265044 -0.073327 0.079481 0.078686 0.304876 0.109826 -0.10464 0.035457 -0.111935 -0.039079 -0.081577 -0.154843 -0.146263 -0.077171 0.345002 -0.14379 0.044819 -0.05014 0.016006 -0.055961 -0.005092 -0.109836 -0.018816 0.074496 0.072223 -0.115007 0.065996 0.005896 0.024485 0.059913 0.223341 -0.110677 -0.038621 -0.048468 -0.092362 0.158544 0.175042 -0.03226 -0.150672 -0.003421 0.221171 0.223929 -0.114552 0.119556 0.003761 -0.002178 0.06602 -0.095944 -0.072484 -0.121138 -0.035258 -0.007152 -0.137867 -0.013036 0.117318 -0.086232 -0.20318 0.033402 0.02138 -0.070048 0.08982 -0.045666 0.064289 -0.110156 0.167763 -0.291921 0.08956 0.131763 -0.047938 -0.187648 -0.12642 0.030396 -0.09325 0.17436 0.169548 0.050727 -0.165986 0.033857 -0.008825 0.154651 -0.140299 -0.115698 -0.209645 -0.209293 0.091343 -0.017085
2.591633 1.608701 -2.087245 2.00752 3.012652 4.995656 0.847355 -1.594905 -0.365708 -1.629805 -1.650237 3.712017 -0.231463 -0.537534 -2.036098 2.002639 -0.696666 -4.310136 -1.477319 -1.356504 -0.581823 -1.830239 -0.272773 -1.648095 0.090509 0.008711 0.330842 0.396714 2.341035 -0.526067 1.155793 -1.730906 -1.010387 -1.342646 -1.939355 0.734869 0.727366 0.700702 1.516974 -2.133831 -0.280653 -3.051674 0.017123 0.532043 1.478449 0.375441 0.920129 1.548929 1.087478 0.668327 0.707416 3.249232 -0.362503 1.273221 -2.929682 -0.245389 1.633444 -0.119836 0.103459 -3.445175 0.513245 0.427807 0.738792 1.448203 0.501908 0.362882 -0.731533 -0.391201 0.037778 3.053553 4.030229 1.793904 1.24136 0.081706 -1.401954 -0.638804 -0.487445 -0.267924 0.012844 0.538179 -0.241935 -0.068756 1.351665 -0.112558 0.001814 0.447262 0.833441 -0.023876 1.212707 1.514635 -0.568611 0.376173 -3.663739 -4.345135 -0.444319 2.139788 -2.53093 0.92131 -1.399435 1.763954
-0.019953 -0.156203 -0.017647 -0.00205 -0.118735 0.005117 0.034334 0.039408 -0.036951 -0.006131 0.007997 0.02798 -0.14519 0.011926 0.068672 -0.108998 -0.206176 0.106194 -0.056445 -0.161229 -0.078431 -0.025415 0.004622 0.083742 -0.117453 -0.083102 0.015034 -0.066662 0.095862 -0.152719 0.00462 -0.053702 -0.090832 0.07098 -0.019074 -0.014109 -0.108047 -0.104652 0.119829 0.216876 -0.0685 0.166772 0.024489 -0.125117 0.245664 0.008356 -0.163724 0.215224 -0.134735 0.143222 0.223167 -0.026711 -0.033996 0.080991 -0.035591 0.139071 0.001523 -0.009212 0.157379 -0.041525 0.054241 0.085847 -0.019314 -0.070452 0.022642 -0.040549 0.326971 -0.023304 0.041382 -0.022598 -0.143792 -0.1265 -0.117557 0.003528 -0.085072 -0.125831 0.097739 0.074937 -0.070052 0.009836 -0.031274 -0.076859 0.282914 -0.236092 -0.032104 0.035157 -0.041757 0.062985 0.036333 -0.012623 -0.105152 0.102009 0.077331 0.049552 0.112618 -0.059177 -0.189099 -0.081923 0.067246 -0.040976
-0.671963 -1.356401 3.602218 0.823366 -0.502176 -0.026847 2.688116 0.953721 0.412325 -0.074957 -2.563688 0.379861 -0.279054 0.512633 -0.426346 -0.669122 -2.193019 -1.985633 1.195718 -0.843091 -3.07709 -2.336138 0.676971 -1.157188 0.84245 -0.067074 1.662677 -0.902702 0.573933 0.762577 1.605777 -0.494156 -0.764054 -4.857189 1.199538 0.081996 1.582965 -1.800896 1.133021 -2.874443 -0.067305 0.527258 -0.963475 2.056148 -0.810059 -2.590427 0.192699 -0.925293 0.533123 0.50128 0.198265 1.047486 -1.15476 -0.133629 -3.660616 2.9145 0.67414 -1.747608 -1.472014 0.506851 -0.089567 -1.009712 -0.989767 -0.231732 -1.20197 -0.899847 -0.180586 -0.280434 1.214359 0.601947 3.002038 1.452004 1.898121 0.64863 -0.773459 -0.546508 1.482508 0.349815 -0.022055 1.977613 1.349274 -0.187718 2.026595 2.419264 -2.256871 -0.764584 -0.110956 2.609596 -0.511332 0.497735 1.205947 -0.553892 0.146347 -2.201324 -0.117853 -0.193777 0.312823 3.388883 -4.036498 2.412019
2.591633 1.608701 -2.087245 2.00752 3.012652 4.995656 0.847355 -1.594905 -0.365708 -1.629805 -1.650237 3.712017 -0.231463 -0.537534 -2.036098 2.002639 -0.696666 -4.310136 -1.477319 -1.356504 -0.581823 -1.830239 -0.272773 -1.648095 0.090509 0.008711 0.330842 0.396714 2.341035 -0.526067 1.155793 -1.730906 -1.010387 -1.342646 -1.939355 0.734869 0.727366 0.700702 1.516974 -2.133831 -0.280653 -3.051674 0.017123 0.532043 1.478449 0.375441 0.920129 1.548929 1.087478 0.668327 0.707416 3.249232 -0.362503 1.273221 -2.929682 -0.245389 1.633444 -0.119836 0.103459 -3.445175 0.513245 0.427807 0.738792 1.448203 0.501908 0.362882 -0.731533 -0.391201 0.037778 3.053553 4.030229 1.793904 1.24136 0.081706 -1.401954 -0.638804 -0.487445 -0.267924 0.012844 0.538179 -0.241935 -0.068756 1.351665 -0.112558 0.001814 0.447262 0.833441 -0.023876 1.212707 1.514635 -0.568611 0.376173 -3.663739 -4.345135 -0.444319 2.139788 -2.53093 0.92131 -1.399435 1.763954
-0.079336 0.02554 -0.055993 0.11993 -0.123074 -0.129949 -0.265414 -0.03032 0.121201 0.149793 0.19238 0.009453 0.018454 -0.116661 0.052875 0.142395 -0.135296 0.061625 0.001447 -0.016438 0.030371 -0.081185 0.151603 -0.011075 -0.233596 -0.250515 0.158647 -0.14413 -0.053265 -0.12424 -0.119686 -0.130153 -0.023399 0.086865 -0.137079 -0.146139 -0.089248 -0.051364 0.084454 0.145988 0.067661 0.273411 0.093085 0.041986 0.110559 0.048029 0.058047 -0.022857 -0.033381 0.199933 0.060434 -0.179096 0.043147 -9.66E-4 0.232974 -0.136456 -0.026745 0.214622 0.229358 0.038234 0.135292 -0.162126 0.081956 -0.243894 -0.048496 0.161347 -0.024256 0.06643 0.227236 -0.293778 -0.284126 -0.032619 0.040399 -0.070796 -0.144274 4.64E-4 0.023138 -0.104335 0.030846 0.015942 -0.086622 0.12868 -0.065697 -0.242926 0.021507 -0.030372 0.122647 -0.120329 0.038002 -0.096134 -0.013412 0.113547 -0.088509 0.237348 -0.013326 -0.139658 -0.004306 -0.009667 -0.148797 0.042361
-0.194977 -0.191712 -0.028738 0.195597 -0.007643 -0.010319 -0.243991 0.111146 -0.168544 0.010767 0.03594 0.041394 0.071105 -0.020495 0.044485 0.051535 -0.266681 -0.008576 0.015291 -0.034209 0.072282 -0.014594 0.187983 -0.108233 -0.204713 -0.077605 -0.064448 0.004331 0.013754 -0.052022 -0.161444 0.095197 -0.153723 0.131475 -0.021448 0.00378 -0.024918 -0.093878 0.091227 0.104299 -0.180557 0.058662 0.266321 0.126798 0.126399 -0.107508 -0.209168 0.193418 -0.069718 0.048003 0.054884 0.008705 -0.181796 0.033984 -0.052087 -0.04152 -0.013525 0.004166 0.056246 -0.128917 0.192342 -0.118166 0.021746 -0.124438 0.040002 0.026188 0.212755 0.02586 0.066576 -0.165463 -0.165114 -0.084072 -0.038845 -0.093477 -0.184102 -0.030543 -0.121763 0.013133 -0.089907 -0.045213 0.168343 -0.04435 0.083401 -0.104953 -0.061763 0.010657 0.125493 -0.065179 0.045797 0.078751 -0.078821 0.115011 -0.013964 0.120986 -0.156654 -0.160348 0.153975 -0.229095 0.010826 -0.022129
-0.036515 -0.108364 -0.031801 0.267436 -0.171927 0.171588 -0.281176 -0.145397 0.035462 0.028305 0.130313 0.133629 -0.065908 0.047673 0.061338 0.34388 -0.030672 0.160015 0.077708 -0.015457 -0.060468 0.223702 0.236137 0.064994 -0.033854 -0.251204 -0.112697 0.254302 0.27391 -0.197557 -0.091613 -0.122841 -0.097085 0.022496 0.001318 -0.26321 1.04E-4 -0.007363 0.089253 0.139805 -0.067894 -0.09202 0.128974 0.070594 0.109777 -0.156658 -0.096962 -0.100005 -0.188515 -0.04154 0.119 -0.241156 -0.108324 -0.11287 0.187418 -0.184823 -0.044265 -0.141394 -0.004715 -0.066813 0.135263 -0.026324 0.003442 -0.252304 -0.039972 0.019757 0.039482 -0.153252 0.239949 -0.059473 -0.10857 -0.185077 0.072681 0.049182 0.03457 -0.092837 0.034295 -0.066374 0.029226 -0.024167 0.017149 0.062964 0.213126 -0.29822 0.115206 -0.10231 0.104477 0.0561 0.083084 -0.004185 -0.035549 -0.038487 -0.184816 0.215103 0.021952 -0.069623 -0.091406 -0.162304 -0.081617 0.08437
-0.123845 0.135724 0.063945 0.008495 -0.071315 -0.101018 -0.098054 -0.195442 -0.129442 -0.070409 0.038949 -0.108542 0.006544 -0.112776 -0.062042 0.108024 -0.131452 0.067863 0.130759 -0.022042 -0.249819 -0.124466 0.003496 -0.046669 0.056594 -0.135129 -0.140216 0.066409 0.180188 -0.048016 0.003146 -0.132821 0.096498 0.042357 -0.057652 0.084316 -0.144163 -0.01497 -0.173562 -0.179512 0.131871 0.226386 0.028592 0.02153 0.01678 0.031022 -0.173416 -0.105619 -0.12555 0.014931 0.003793 0.098297 0.036106 -0.063345 -0.022197 -0.082526 -0.21091 -0.229551 -0.1157 0.005646 -0.149395 -0.059469 -0.158925 -0.178189 -0.081572 0.049905 0.198045 -0.01575 0.072963 -0.082074 -0.034053 0.074196 -0.012864 0.189567 -0.113034 -0.108895 0.020059 0.03735 -0.147462 -0.021767 -0.00378 0.245085 0.151786 0.0873 0.291374 0.180376 0.230969 -0.074106 0.230405 -0.2549 -0.05204 0.06992 -0.074553 0.070315 0.125039 -0.076376 -0.237159 0.111739 0.041393 -0.02706
0.032396 -0.153017 0.013261 0.047099 -0.16096 -0.002847 -0.14501 0.068005 -0.149359 0.076423 0.087914 0.08774 -0.052729 0.078781 0.117473 0.074295 0.151985 0.072683 0.119518 0.122415 -0.135198 0.247231 0.180758 0.015866 -0.113795 -0.127057 -0.071395 0.168229 0.095199 -0.336627 -0.153192 -0.143154 -0.026817 0.033279 -0.138762 -0.11222 0.10966 -0.08999 0.082217 0.118244 -0.209306 -0.145128 0.075727 0.090038 -0.029107 0.029357 -0.046449 0.077719 -0.03284 -0.077257 -0.012984 -0.045672 -0.116 -0.276832 0.093682 -0.058702 0.12833 -0.142148 0.008875 0.083015 -0.016207 -0.124211 -0.089497 -0.070414 -0.053119 -0.049462 -0.046969 0.093573 -0.213675 0.119268 -0.018275 3.93E-4 0.116123 -0.134844 0.078802 -0.103423 -0.118698 -0.023437 0.037259 0.011934 0.026229 -0.010741 0.123861 -0.243128 -0.03501 -0.001409 -0.172359 -0.035735 0.189753 0.012574 -0.164292 0.135864 0.031712 0.210915 -0.032895 0.034045 -0.017284 -0.092774 0.076027 0.134429
-0.172636 0.01033 0.161959 -0.183546 0.084826 0.001454 -0.012333 0.025399 -0.140257 -0.043156 0.065558 -0.05232 0.099666 0.00853 0.143223 0.114338 0.12441 0.125198 0.033525 0.036631 -0.100414 0.095781 0.079415 0.218911 -0.202953 -0.176273 0.003928 -0.080203 0.064255 -0.151939 -0.015762 -0.091797 0.058406 0.259075 0.142232 0.005009 -0.027051 -0.151772 -0.009225 0.087933 -0.047953 0.058876 -0.00632 0.200481 -0.051352 -0.062672 -0.004913 0.138106 0.006286 0.095799 0.155862 0.073325 -0.063141 -0.126818 0.080382 -0.03216 0.029759 0.0419 0.073559 0.032012 0.00921 -0.174483 -0.047889 -0.051292 -0.092714 0.114818 -0.104232 -0.056323 -0.006118 -0.033086 -0.071821 -0.058985 -0.082653 -0.01357 0.127079 -0.029265 0.032993 0.09375 -0.047027 -0.121647 0.078634 0.058114 0.019442 1.0E-5 0.027019 0.006064 0.011752 0.078438 0.206987 0.051293 -0.026753 -0.10776 0.076365 -7.58E-4 -0.123035 -0.129837 -0.027931 -0.05268 0.159075 3.06E-4
0.074757 -0.05906 0.01562 0.181656 -0.175959 0.010277 -0.062268 -0.057631 -0.150796 -0.036375 0.173422 0.054085 0.010028 0.142861 0.174969 0.279526 -0.004149 0.109246 -0.059843 -0.107459 -0.001039 -0.039934 0.127998 0.136795 -0.075617 0.029341 0.018871 0.05077 0.164144 -0.266009 0.002573 0.093495 -0.055975 -0.009844 0.007574 -0.038169 0.117655 -0.05886 -0.126737 0.042928 -0.12444 -0.045746 0.115596 0.092833 -0.063185 0.045829 -0.122795 -0.010598 -0.096215 0.101301 0.013462 -0.186223 0.015957 0.003387 0.082961 -0.027861 -0.065933 0.058198 -0.120227 0.018835 0.011436 -0.0788 0.021846 -0.119527 -0.026098 0.027669 0.008754 -0.00594 -0.00832 -0.07948 -0.024563 0.044942 0.036015 0.00218 0.130718 -0.079834 -0.037979 -0.116608 -0.101738 0.00203 -0.008531 -0.098894 0.019502 -0.070881 0.156904 -0.02521 0.114561 0.161956 0.108791 0.020847 -0.130243 -0.172932 -0.051354 0.267358 -0.051044 -0.100274 -0.098952 -0.112333 0.04834 0.040567
-0.008146 -0.005648 0.059531 0.125535 0.011328 0.024558 -0.165969 -0.019482 -0.076996 -0.167427 -0.035646 0.020818 -0.028113 -0.036329 -0.071534 -0.002174 -0.032754 -0.131044 -0.062638 -0.094554 -0.034763 -0.156622 -0.035706 -0.093561 0.027306 0.116182 0.031816 -0.094699 0.01367 -0.093147 -0.221748 0.003871 0.035001 -0.032771 0.015245 0.075022 -0.03079 0.059095 -0.140093 -0.093351 0.063765 0.064153 -0.036182 -0.007205 0.056318 -0.054911 -0.068876 -0.020263 -0.114443 -0.0113 -0.166841 0.023401 0.163193 0.030154 -0.040468 -0.037734 -0.144155 -0.07559 -0.067957 -0.135068 0.029689 -0.149559 -0.055197 -0.039455 0.185154 0.073544 -0.115102 0.115653 0.111712 -0.10039 -0.071982 0.010746 0.15125 0.026204 0.016248 0.085703 0.168286 -0.023663 0.005723 -0.237316 0.070247 0.079136 0.040366 -0.02896 -0.063939 -0.016178 0.023626 -0.078918 0.141125 0.036686 -0.156999 0.121274 0.089779 0.202551 0.070942 -0.023656 -0.075331 -0.043597 0.048624 -0.137596
-0.073916 -0.068975 -0.018874 0.041272 0.038935 0.144034 -0.169403 0.001304 0.227505 -0.208283 0.067178 0.095152 -0.057624 -0.048593 -0.051696 0.044408 -0.117138 0.437323 0.090236 0.202429 -0.061604 0.269161 0.224825 0.006973 -0.331958 -0.053179 0.133534 -0.184337 0.276892 0.102846 -0.201886 -0.002687 -0.162115 -0.085593 -0.05193 -2.92E-4 -0.16866 -0.014821 -0.113438 0.273597 -0.017846 0.061345 0.168035 0.2303 -0.164862 -0.221304 0.390499 -0.110687 -0.142463 0.210514 -0.110539 -0.05975 -0.148957 0.179598 0.405811 -0.123899 0.182451 0.071479 0.213654 -0.034442 0.572183 0.144219 0.146872 -0.201579 -0.184409 0.071456 0.270759 -0.247407 0.255449 0.131132 -0.29672 -0.228415 0.208771 -0.007181 0.087488 -0.184543 -0.276567 0.080206 0.24318 0.170304 0.103418 0.224785 0.234177 -0.413015 -0.121422 0.093151 0.10886 0.156203 -0.155619 0.10448 -0.025097 -0.041236 0.066419 0.159544 -0.132356 -0.09269 0.342095 -0.132275 -0.058943 -0.034244
-0.104054 0.098958 0.164743 0.084701 -0.177 -0.099491 -0.175552 0.150903 0.051633 -0.10303 -0.061201 -0.097516 -0.043308 -0.108088 -0.094529 0.031105 -0.010435 -0.085885 -0.272049 -0.376378 0.11136 -0.001218 0.227651 0.117687 0.077731 0.048289 -0.299824 -0.108813 -0.066322 0.119624 0.220128 -0.115142 0.142039 0.023971 0.246916 -3.58E-4 0.052285 0.119065 -0.153726 0.00344 0.160432 0.104999 -0.060669 0.074377 -0.101186 -0.214792 0.173532 0.234289 -0.282393 -0.071202 0.018287 -0.086698 -0.286666 -0.049134 0.007115 -0.073184 -0.10094 -0.123559 -0.143698 -0.06026 0.05438 0.112642 -0.132852 0.071278 -0.105831 0.097973 -0.080161 -0.012918 0.056857 -0.028939 0.085628 0.124121 0.020865 -0.143224 0.155326 0.304119 -0.041868 0.072869 0.012124 -0.14319 -0.043484 0.319503 -0.031636 0.057689 0.03357 -0.163811 -0.113422 0.064611 0.004525 0.010296 0.06045 0.104093 -0.097744 0.164141 -0.02015 0.062465 -0.011397 -0.112392 -0.196271 0.016922
-0.023725 -0.265581 -0.041655 0.122232 0.026794 -0.088378 -0.095963 -0.07173 -0.107796 -0.053451 0.244892 0.188711 -0.170801 0.022715 -8.47E-4 0.204389 -0.068086 0.024141 0.111102 0.050266 -0.042829 -0.104548 0.056634 0.106866 -0.035671 -0.111641 0.164909 0.066612 0.15263 -0.04625 0.072838 0.047495 -0.171938 0.101539 -0.079368 -0.007698 0.092885 -0.147097 0.195496 -0.035855 -0.218068 -0.098775 0.231561 0.129023 -0.111343 -0.171763 -0.061107 -0.054208 0.042218 0.022472 0.07198 -0.214236 -0.161899 -0.018452 0.010509 -0.022686 0.086178 0.078149 -0.072518 -0.183167 0.119658 -0.068118 0.051934 -0.01767 -0.158406 -0.063514 -0.107352 0.120173 0.133667 0.053117 0.01506 -0.054873 0.029177 -0.089398 -0.004805 -0.012248 0.112717 -0.080168 -0.105325 -0.109812 -0.087183 -0.176569 0.227813 -0.2492 -0.148258 -0.003471 0.100996 0.024248 0.093904 0.123002 -0.140595 0.053374 -0.09475 -0.046893 -0.002508 -0.046196 0.066997 0.183339 -0.060206 -0.072608
-0.087255 -0.05591 0.054305 -0.024922 0.12279 0.041971 0.011628 -0.098172 0.13061 0.088978 0.139548 0.154385 0.10967 -0.074364 0.077608 0.342633 -0.019875 0.008986 0.121981 0.055307 -0.003396 0.250389 -0.003606 -0.027202 -0.077535 -1.16E-4 -0.00206 0.156913 0.196292 -0.041947 -0.256602 -0.075561 -0.331833 -0.028169 -0.227118 -0.023069 -0.031505 -0.123196 0.067817 0.109003 -0.150311 -0.176863 -0.003222 0.297853 0.06886 0.054723 0.197442 -0.009663 0.124548 -0.115984 -0.107457 -0.134223 -0.057877 0.014351 -0.020055 -0.038021 0.086742 0.251573 0.36257 0.003758 0.053095 -0.086013 -0.02227 -0.136233 -0.017961 0.053643 0.053971 -0.264445 0.141244 -0.001727 0.102822 -0.045402 0.072919 -0.05572 -0.011331 -0.015733 -0.123198 -0.088768 0.042072 -0.014455 -0.084923 -0.030051 0.101633 -0.145179 0.084003 0.006179 0.137993 -0.044962 0.159725 0.029218 -0.030525 -0.103093 -0.1477 -0.002794 0.039423 -0.078334 0.05768 0.210979 -0.090714 -0.257268
-0.08438 -0.153256 -0.037503 0.051935 0.163505 -0.111511 -0.17095 0.033056 0.006956 6.23E-4 0.201904 0.094537 -0.010563 -0.123152 0.06118 0.184865 -0.148195 0.072117 0.051382 -0.168713 -0.056236 -0.007279 0.057362 -0.042858 0.027345 -0.038474 -0.07182 -0.018634 6.93E-4 0.054588 -0.15142 -0.284033 -0.079455 0.027292 0.024823 -0.217023 0.037941 -0.063723 0.221494 0.070232 -0.025808 -0.056345 0.1775 0.05132 -0.086704 -0.136905 -0.003789 -0.12514 -0.00996 0.009989 -0.034486 -0.035138 -0.039727 0.113108 -0.228467 -0.095753 -0.081625 -0.155598 0.143952 0.034433 0.037699 -0.147416 0.100574 -0.054061 -0.035661 0.118845 0.17326 -0.020536 0.150179 -0.03812 -0.10443 -0.040749 0.01925 -0.02954 0.071313 -0.334159 -0.052176 -0.05586 0.115515 -0.070981 -0.064591 0.206792 0.126589 0.019383 0.02267 0.057197 -0.001635 -0.105064 0.144781 0.008476 0.045251 0.009627 0.057288 0.140594 0.076096 -0.044927 0.046975 -0.144983 -0.183368 0.166561
0.20461 -0.166756 0.038146 0.047243 0.125238 -0.073833 -0.085065 0.00104 0.019704 -0.243412 0.016709 0.0694 -0.130919 0.200043 0.217566 0.002633 0.126128 0.095798 -0.079815 0.041479 -0.029584 0.147163 0.036164 -0.031427 -0.199607 0.047198 -0.004909 0.069272 0.195524 0.001992 -0.099026 0.003667 -0.048972 -0.019635 -0.013023 0.004434 0.018591 -0.032837 0.088044 0.050994 0.076305 -0.226519 -0.011972 0.11313 0.025772 0.085519 -0.037052 0.057438 0.107295 0.049766 0.00145 0.023882 0.146907 -0.167524 0.069246 -0.25554 0.04342 0.059759 -0.152636 0.136538 -0.097229 0.048584 -0.019764 0.099383 -0.06156 0.043025 0.007856 -0.042876 -0.144602 0.086851 0.016789 0.083486 0.079693 -0.05871 -0.020907 -0.048861 0.160337 0.148756 -0.068688 -0.041918 0.109307 -0.209784 -0.055152 -0.202888 0.12491 -0.026853 0.020186 -0.041216 0.003019 -0.025021 -0.207269 0.152877 -0.034352 0.170913 -0.007669 -0.084765 -0.014427 -0.005015 0.069233 0.097403
2.986683 0.891048 0.502242 2.563102 -0.833594 1.074317 3.695644 -0.777531 2.188026 -0.699979 0.036443 0.733135 -1.432868 -0.891451 -1.142959 -0.942936 1.068958 -1.874863 -5.092594 -1.1966 -1.959903 -2.195483 -2.042068 -1.143233 -1.459129 -1.317735 2.335449 -2.434227 0.201016 -0.60309 3.022425 -0.350954 -0.742291 -3.692008 -0.428454 2.260322 1.299332 2.709176 1.349321 -0.696621 1.114271 -3.635821 0.008208 1.672507 -0.838007 2.333875 -2.054475 0.380345 1.490836 -0.726134 0.769087 3.405334 -1.16381 3.050478 -0.068498 -4.041586 4.555243 -0.814241 -1.668317 0.224789 -0.566141 -0.288359 0.917884 0.934006 -3.229766 1.334999 2.586487 0.072999 0.113326 0.865491 3.495866 2.934418 -0.434585 -2.448313 -1.514856 -0.37738 0.862876 1.158082 -2.049671 3.100108 -0.871714 -1.041083 -2.50899 0.427097 1.673651 2.875635 3.071153 2.417479 -1.666681 -0.917672 -0.608627 3.287783 -1.69514 -2.40585 -1.155071 1.198252 -1.330375 1.26239 -2.958205 2.412288
-0.175328 -0.049269 0.182621 0.092527 -0.13626 -0.234234 -0.095359 -0.014424 0.019652 0.097325 0.018858 0.036683 -0.019102 -0.202394 -0.118578 0.13395 -0.025143 0.04412 0.063792 0.119437 -0.06228 0.144523 0.033319 -0.059996 0.140662 -0.0534 0.084258 0.062466 -0.019665 -0.141776 0.070586 -0.139087 -0.02688 0.187799 -0.068526 0.024505 0.007854 0.143015 -0.146562 0.101909 0.129675 0.181776 0.23316 -0.133348 -0.110777 0.028866 0.029227 -0.199745 0.044108 -0.013139 0.101899 -0.023458 0.054814 -0.116986 0.064844 -0.047431 -0.108874 0.007642 -0.122495 -0.215627 0.03898 -0.028985 -0.061847 -0.242858 -0.079407 0.12066 0.018312 0.135039 0.021902 -0.067896 -0.122618 0.109771 -0.078429 0.031701 0.127918 -0.123027 -0.102267 0.006632 0.006597 0.091273 -0.151938 0.039314 -0.015198 -0.096233 0.042084 -0.069582 0.195578 0.052564 0.214438 0.04108 -0.141349 0.003577 -0.023046 -0.009939 0.093336 -0.038911 0.007006 0.059789 -0.0061 -0.160141
-0.184807 -0.250413 0.108367 0.103633 -0.11112 0.009547 -0.268821 -0.1136 0.001591 0.194507 0.214826 0.091249 0.124781 -0.063135 0.135559 0.090225 0.239979 0.251478 0.209633 0.044773 -0.177639 0.167322 0.155816 0.238392 -0.108849 -0.286048 -0.154333 -0.163908 0.186506 -0.268813 -0.018272 -0.237862 -0.220587 0.0996 0.030698 -0.225058 -0.063798 -0.007136 0.048061 0.231466 0.033978 0.271249 -0.031543 0.099894 0.114934 -0.035948 0.017605 0.078096 -0.15737 0.132564 0.224507 -0.185707 -0.220423 -0.14237 0.317317 -0.063606 0.222488 0.130014 0.159881 0.001606 0.12589 -0.060497 -0.031465 -0.016293 -0.145989 -0.01276 0.129902 -0.133187 0.055576 -0.340599 -0.167141 0.126453 -0.152907 -0.170684 0.301332 -0.234863 -0.257627 -0.132453 -0.172277 0.019696 -0.035691 0.107791 -0.08384 -0.229386 -0.034635 0.091784 -0.167291 -0.188273 0.27018 0.041775 -0.119326 0.210658 0.066701 0.015816 0.087745 -0.080048 0.174699 -0.136123 -0.129018 -0.042891
0.003975 0.233376 0.206865 0.044066 -0.100108 0.149918 -0.146444 -0.01347 0.071671 -0.154438 -0.029209 0.078794 0.00684 0.190365 0.056489 0.002102 -0.080506 -0.010757 -0.008844 -0.014871 0.078795 0.044897 0.018635 0.224715 -0.066566 -0.257931 0.138345 0.133516 -0.161362 -0.041161 0.031941 -0.172223 0.040614 -0.209023 0.0426 -0.053353 0.255656 0.009232 -0.004729 -0.165368 0.095724 0.011324 -0.057681 0.104552 -0.002566 -0.058591 -0.054954 -0.14607 0.154534 -0.021654 0.031088 -0.017749 0.169394 -0.043134 0.102461 0.10141 -0.058927 0.174724 0.086374 -0.010442 0.078118 -0.042521 -0.164614 0.035898 0.042252 -0.034134 -0.018443 0.072376 -0.033874 0.012278 0.112472 -0.027405 -0.053075 -0.004187 -0.009247 0.067955 -0.061701 -0.027891 0.02785 -0.090933 0.20097 0.01701 0.087342 0.143574 -0.055626 0.107379 0.139271 -0.032874 -0.071794 0.138622 0.081009 -0.057221 -0.081025 0.193161 -0.096266 -0.130449 -0.105389 -0.063152 0.053004 0.24393
0.166865 -0.033351 -0.013364 -0.059014 -0.095169 -0.021507 -0.126788 0.103728 -0.200711 -0.063152 0.044354 0.134222 0.002393 0.071524 0.209815 0.100187 0.025401 0.083631 0.120448 0.173878 -0.091184 0.033918 0.054121 0.121356 -0.168415 -0.048991 -0.209931 -0.016042 0.202225 -0.007166 -0.110802 -0.028926 -0.11468 0.016808 -0.064513 -0.05835 -0.015135 0.093734 0.167046 -0.014056 0.02555 -0.101082 -0.016676 -0.00246 -0.017495 0.184926 -0.038011 -0.106257 0.001132 0.03659 0.080797 -0.16487 -0.164051 -0.024617 0.144233 0.037146 0.064814 -0.135114 0.218106 -0.087954 0.024218 -0.008723 0.020657 -0.10933 -0.0401 -0.009808 -0.283523 0.179888 -0.016468 0.100665 -0.045627 0.125868 0.040189 0.113707 0.238166 -0.079786 0.009467 -0.061173 -0.064632 -0.277119 0.084403 -0.091058 0.212317 -0.16461 -0.095926 -0.049768 -0.09268 0.023356 0.096515 0.010373 -0.174271 -0.082788 -0.155016 0.104184 0.044246 0.051147 0.02525 -0.044468 -0.064392 -0.011243
