0.095843 0.066762 0.106952 0.082578 -0.182674 -0.078786 -0.159945 -0.018917 -0.108964 0.047181 0.046793 -0.036586 -0.051075 -0.009774 0.206148 -0.036855 0.044379 -0.022926 0.055118 -0.055762 -0.163323 0.153869 0.144023 0.051231 0.057045 0.017622 -0.014636 0.026875 0.16045 -0.162801 -0.060714 -0.134573 -0.129428 0.028635 -0.073724 -0.064996 0.171819 -0.11136 0.117964 0.035653 -0.065851 -0.070702 0.017512 -0.118803 0.033118 -0.008121 0.074915 0.022834 -0.088841 -0.089236 -0.16797 0.016179 -0.20527 0.026747 0.135346 -0.077529 0.190623 -0.076172 -0.0149 0.018469 0.147809 -0.193364 -0.082084 0.103809 0.01441 -0.001492 0.153834 -0.129344 0.054116 0.017411 0.182797 -0.068492 0.007395 -0.013654 -0.250699 -0.093934 -0.255946 0.023625 -0.181807 0.185444 -0.025758 0.162261 0.197296 -0.123202 0.17799 0.198177 0.015548 -0.122409 0.158373 -0.091105 0.009983 -0.036162 0.169742 0.053802 -0.030157 -0.097042 0.003105 0.007606 -0.094964 -0.103717
0.0 0.0 0.0 0.0 0.0 0.0 0.0 0.0 0.0 0.0 0.0 0.0 0.0 0.0 0.0 0.0 0.0 0.0 0.0 0.0 0.0 0.0 0.0 0.0 0.0 0.0 0.0 0.0 0.0 0.0 0.0 0.0 0.0 0.0 0.0 0.0 0.0 0.0 0.0 0.0 0.0 0.0 0.0 0.0 0.0 0.0 0.0 0.0 0.0 0.0 0.0 0.0 0.0 0.0 0.0 0.0 0.0 0.0 0.0 0.0 0.0 0.0 0.0 0.0 0.0 0.0 0.0 0.0 0.0 0.0 0.0 0.0 0.0 0.0 0.0 0.0 0.0 0.0 0.0 0.0 0.0 0.0 0.0 0.0 0.0 0.0 0.0 0.0 0.0 0.0 0.0 0.0 0.0 0.0 0.0 0.0 0.0 0.0 0.0 0.0
2.174546 0.839277 0.053674 -0.70617 -0.201142 -1.36884 3.046614 -1.81939 -0.571499 -2.146105 2.398192 -3.212801 0.324658 1.983374 -1.267279 2.189345 -2.198303 1.389423 0.170601 2.174585 -3.344255 -0.469351 -0.162392 1.21042 4.011686 1.274478 1.216451 0.988687 -2.070765 0.453329 0.707236 0.114953 -3.074452 3.545354 -0.498811 -0.9241 -0.795483 0.16204 -1.770728 -0.183006 1.123212 -1.728186 0.177395 1.27155 0.602779 0.857352 -5.161198 5.368242 2.89051 2.731278 -0.079885 -2.920901 4.133426 1.927927 -0.882299 -2.268217 3.138875 -2.238427 4.068031 -0.585244 -2.740566 2.70546 1.735492 -2.375272 -0.035117 -3.996313 1.488321 -1.358982 0.427254 2.150983 4.218776 -0.351139 0.135569 -1.465569 2.427535 -1.632687 -4.883166 2.009376 2.15406 -2.250604 -1.271555 0.184093 0.374956 -0.75456 3.694378 -0.129805 -0.54946 -0.237188 -1.510777 1.706751 -2.633371 0.274782 -1.201073 0.448455 0.015946 0.311567 0.174641 -1.763391 -1.292767 -0.568384
-0.058202 -0.218554 0.181324 -0.029677 -0.053185 0.071929 -0.125173 -0.109739 -0.066665 0.031245 0.125554 0.202281 -0.114862 -0.03187 0.094817 0.238345 -0.118755 0.139332 0.093098 -0.056164 -0.12454 0.135346 0.287017 0.020376 -0.196492 -0.053818 -0.007408 -0.028697 0.088764 -0.103449 0.022212 -0.013209 0.047267 0.132525 0.061401 -0.194299 0.102226 -0.034948 -0.003297 0.11265 0.069566 -0.067795 0.028066 0.102081 0.059138 -0.111158 -0.056268 -0.105411 -0.09656 0.011861 0.184797 0.02031 -0.188639 0.014529 0.096118 0.064246 -0.031808 -0.137203 -0.034539 -0.197599 -0.013124 -0.130597 -0.051409 -0.365486 -0.143798 0.08349 -0.09353 0.021009 0.070157 0.028392 -0.071742 -0.056638 0.036957 0.135268 0.142016 -0.046662 -0.112282 -0.024526 -0.186828 -0.17944 0.001259 0.041757 -0.053097 -0.155752 -0.068244 -0.08002 -0.001545 -0.063978 0.225607 0.010846 -0.126094 -0.088076 -0.098759 0.046259 0.005154 -0.071684 0.066039 0.021341 0.010557 -0.157073
0.171593 -0.085188 -0.005011 0.309169 -0.152905 0.00381 -0.249387 -0.038448 -0.157923 0.037731 0.104605 0.346345 0.244978 0.024678 0.032649 0.310071 -0.065622 0.036396 0.052969 0.124156 -0.043828 -0.06566 0.269065 -0.177152 0.005016 0.077923 -0.302495 0.040821 0.286835 0.001567 0.013001 -0.230026 -0.074903 -0.033747 -0.205199 -0.039013 0.158052 -0.224509 -0.025489 -0.047903 -0.192269 0.165546 0.069635 -0.04257 0.06969 0.085811 0.04252 -0.017744 -0.24138 0.017786 0.049939 -0.111088 -0.074083 -0.048444 0.073146 -0.056241 -0.005692 0.009777 -0.018746 -0.086046 -0.136093 -0.368411 0.058549 -0.057995 0.004658 -0.164634 0.183809 -0.114823 0.198303 -0.19652 -0.183127 0.044565 -0.09434 -0.054044 0.105077 -0.030626 0.03893 -2.26E-4 -0.247097 0.052807 0.04372 0.275303 -0.041172 0.004343 0.04562 -0.052336 0.091936 -0.411318 0.007728 0.266991 0.171496 0.069051 0.089662 0.12008 0.01404 0.091993 0.086905 0.02851 -0.047985 -0.099695
0.084243 0.007628 0.493754 0.225472 -0.086598 0.480126 -0.308845 -0.1124 0.335962 0.012665 0.277338 -0.034479 -0.049592 0.196169 -0.211585 -1.110047 0.185835 0.357988 -0.15722 0.182253 -0.096554 0.463095 0.232314 0.175245 0.155892 0.192197 -0.163328 -0.234403 0.252453 -0.055947 0.109235 -0.403985 0.224676 0.219353 -0.197944 0.278446 -0.070862 0.203867 -0.84226 0.038833 -0.460605 0.564104 0.047785 -0.600792 0.291002 -0.449993 0.511362 0.725747 -0.584425 -0.269484 -0.427455 0.073273 0.135028 0.454697 0.094015 0.505669 0.230545 -0.403392 -0.117817 -0.832308 0.648342 0.191025 -0.424554 -0.180981 -0.115141 -0.194726 0.626505 -0.038768 0.212553 -0.139704 -0.164261 -0.449042 -0.203078 -0.457768 -0.239067 0.040969 -0.145022 0.106531 0.216587 0.712405 0.067958 0.354721 -0.327481 -0.504011 0.143306 0.160805 0.498311 0.156542 0.426937 -0.122198 -0.173165 -0.253286 -0.026502 0.714936 -0.405325 -0.011564 -0.157258 0.535381 -0.002014 -0.513426
1.519037 1.15489 1.575203 0.634063 -1.277293 -2.504633 0.060314 0.096309 1.130145 1.34718 -0.454688 -3.303766 -3.206063 -0.76715 0.402714 -1.639355 4.439936 -0.128634 -0.326115 3.61588 -1.3563 -0.474335 -1.829534 0.249375 -3.024923 1.834896 0.32314 -3.888025 1.353852 0.884432 -1.848731 -0.295235 -1.799063 0.26771 1.285462 -3.29049 1.065701 0.437895 2.066683 2.334625 -0.353768 3.355313 1.078317 -2.864851 3.500098 -2.521635 1.119921 0.363053 -1.979558 0.123121 1.145694 -1.81391 -0.10134 -0.17495 -0.453798 -0.509869 -0.564224 -1.631604 2.652339 -0.723982 2.833795 3.342698 -1.912676 -1.802744 -2.975178 -0.238729 1.916368 -2.62312 2.865125 -2.648213 2.473356 1.882224 -1.577818 2.379443 0.497559 0.451408 1.522343 -0.138075 0.500482 0.299571 1.181605 -3.44013 -1.045053 -0.793874 -0.865958 -0.029614 1.538537 -0.617955 -2.700833 -0.54646 -0.308253 0.417827 -0.250858 0.569591 0.109832 -1.552848 1.798835 -2.753952 3.226396 -3.831009
-0.039977 -0.060274 -0.029094 -0.006415 0.090629 -0.094163 -0.114038 0.008975 -0.10827 0.133498 0.187769 0.173398 0.080784 -0.073703 0.067895 0.082066 0.021651 0.312842 0.066496 0.106245 -0.136281 0.220906 0.21055 0.031228 -0.201498 -0.18615 -0.053949 0.025534 0.327289 0.008877 -0.081598 0.17068 -0.150913 0.023493 -0.093883 -0.074477 -0.059463 0.041914 -0.086023 -0.016668 -0.095052 0.176277 0.025584 -0.058695 0.019417 -0.142157 0.115045 -0.01594 -0.057218 0.008062 0.225236 0.00785 0.013799 -0.032677 0.025628 -0.064327 0.113788 0.017579 0.215322 -0.187011 0.119736 -0.062928 -0.107778 -0.1882 -0.135052 -0.074505 0.173985 0.058275 0.170495 -0.037143 -0.046121 -0.193512 -0.007805 -0.047227 0.13532 -0.20058 -0.100947 0.08513 -0.059144 0.036481 -0.077708 0.218717 0.140816 -0.12866 0.088695 0.077138 -0.017839 0.051314 0.042115 -0.084313 -0.063593 -0.160358 0.014224 -0.015682 0.002141 -0.28867 0.13952 -0.060847 -0.052076 0.168506
0.0 0.0 0.0 0.0 0.0 0.0 0.0 0.0 0.0 0.0 0.0 0.0 0.0 0.0 0.0 0.0 0.0 0.0 0.0 0.0 0.0 0.0 0.0 0.0 0.0 0.0 0.0 0.0 0.0 0.0 0.0 0.0 0.0 0.0 0.0 0.0 0.0 0.0 0.0 0.0 0.0 0.0 0.0 0.0 0.0 0.0 0.0 0.0 0.0 0.0 0.0 0.0 0.0 0.0 0.0 0.0 0.0 0.0 0.0 0.0 0.0 0.0 0.0 0.0 0.0 0.0 0.0 0.0 0.0 0.0 0.0 0.0 0.0 0.0 0.0 0.0 0.0 0.0 0.0 0.0 0.0 0.0 0.0 0.0 0.0 0.0 0.0 0.0 0.0 0.0 0.0 0.0 0.0 0.0 0.0 0.0 0.0 0.0 0.0 0.0
-0.046795 0.065498 -0.090288 -0.15443 -0.174664 0.062825 -0.199215 -1.69E-4 -0.09179 -0.294911 -0.093717 0.061663 -0.166139 0.069289 -0.09831 -0.093233 0.022324 0.030848 0.115399 -0.082777 -0.160793 -0.065526 0.133221 -0.048052 0.022524 0.008832 0.124248 -0.198092 0.060541 0.183147 -0.011295 0.09562 0.250527 -0.038112 -0.31055 0.194624 -0.187763 -0.15182 -0.069097 0.047592 0.063592 -0.061033 0.155767 -0.012217 0.129098 -0.278468 -0.012968 0.107424 -0.082054 -0.155546 -0.450702 0.133798 0.141995 0.158253 -0.056732 -0.185178 -0.096913 0.214026 -0.051384 0.064459 0.010651 -0.12791 -0.04749 0.102012 0.093965 -0.332258 -0.239685 -0.102285 -0.08125 -0.025704 -0.074411 0.150237 -0.488105 -0.075756 0.107115 -0.215233 -0.321395 0.19946 -0.0131 0.169642 0.124643 0.002302 0.210361 0.164391 0.085145 0.25432 0.067896 0.21036 0.074294 0.244167 -0.491163 0.057786 -0.104787 -0.373241 -0.106033 -0.009849 -0.215659 -0.170895 0.034096 -0.046044
0.185728 0.078205 0.028013 0.24405 -0.070455 0.060664 -0.240733 -0.10789 -0.022831 0.008145 -0.062805 0.207817 0.009333 0.021514 -0.002854 0.018292 0.193739 -0.165165 -0.157959 -0.231696 0.061405 -0.111033 -0.002267 -0.023135 -0.09326 0.389797 -0.138521 0.065672 0.127924 -0.128624 0.005271 0.030409 -0.105791 -0.200945 -0.019917 -0.017767 -0.054293 0.106483 -0.080918 0.019556 0.094183 -0.039519 0.097173 -0.19712 -0.074827 -0.138581 -0.153476 0.154649 -0.169484 -0.155709 -0.046778 -0.14537 0.114909 0.05774 0.191728 -0.00517 0.256285 -0.114783 0.074522 -0.046734 0.024581 -0.114751 -0.074197 -0.165459 -0.21379 0.06408 0.024581 0.140232 -0.080719 -0.213621 0.046548 -0.065965 0.116263 0.011385 0.031973 -0.064853 -0.033803 -0.10028 -0.065857 0.158761 -0.159827 -0.013313 0.029584 0.013816 0.160071 0.116388 0.200751 0.081424 -0.101007 0.046661 0.046086 -0.066615 -0.153612 0.054212 0.017095 0.064077 0.130097 -0.210483 -0.074623 0.194036
-0.098389 -0.096893 -0.077237 0.036968 -0.031453 -0.128401 -0.201742 -0.124489 0.221506 0.035649 0.155408 -0.081859 0.012803 -0.26374 0.08621 0.192492 0.02959 0.16208 0.01052 0.134687 0.124177 0.250011 -0.094643 0.152951 -0.004557 0.070481 -0.055673 -0.152366 0.031647 -0.040854 0.101086 0.036788 -0.005676 0.134194 -0.040703 -0.03461 0.049643 0.017076 0.133914 0.236731 -0.040427 0.002383 -0.043853 -0.154493 0.24496 -0.028639 -0.239555 -0.079778 -0.210664 0.018336 0.028756 -0.006505 0.055481 0.06932 -0.147877 -0.153433 -0.04725 -0.101515 0.089189 -0.004806 -0.009616 -0.146244 -0.24941 0.199065 -0.006107 -0.089878 0.052757 -0.145255 0.22938 -0.216267 -0.218587 -0.05224 0.09485 0.050469 0.067819 -0.145165 0.088673 0.120063 0.157248 -0.039366 -0.009665 0.210493 0.161281 -0.030194 -0.113 0.191373 -0.144517 -0.115702 -0.099164 -0.103893 -0.142294 -0.049918 -0.018548 0.219829 -0.031536 -0.038589 0.112003 -0.10621 -0.008975 -0.069164
-0.102214 -0.052987 0.068455 -0.037875 0.013323 0.103773 -0.05269 0.128281 -0.11088 0.067902 0.159048 -0.120102 0.071736 -0.016256 0.047868 0.023772 0.102799 0.207122 0.055978 0.14846 0.108237 0.115331 -0.117742 -0.182248 0.043044 -0.064803 0.028596 -0.098313 -0.096479 -0.005389 -0.12476 -0.071036 -0.052265 -0.088858 -0.094427 -0.074645 -0.174356 0.179761 -0.033855 -0.084202 0.062058 0.062612 -0.084057 0.001412 0.018493 -0.061669 0.056959 0.005164 0.06617 0.01551 -0.07576 -0.075063 -0.015271 -0.089165 0.17962 0.001513 -0.123561 -0.13834 0.129769 0.066137 0.190666 0.044313 0.145769 -0.112865 -0.078414 0.05572 0.102542 0.021993 0.075595 -0.1392 -0.063516 -0.056837 -0.193181 0.219192 0.076168 0.053337 -0.089707 0.014527 0.226527 0.070278 -0.018249 0.172699 0.054142 -0.094898 0.099324 0.1002 -0.094546 0.092288 0.081287 0.112272 -0.095078 0.087977 -0.061701 0.093424 0.200636 -0.142134 -0.073012 -0.183468 0.084962 0.053438
0.0 0.0 0.0 0.0 0.0 0.0 0.0 0.0 0.0 0.0 0.0 0.0 0.0 0.0 0.0 0.0 0.0 0.0 0.0 0.0 0.0 0.0 0.0 0.0 0.0 0.0 0.0 0.0 0.0 0.0 0.0 0.0 0.0 0.0 0.0 0.0 0.0 0.0 0.0 0.0 0.0 0.0 0.0 0.0 0.0 0.0 0.0 0.0 0.0 0.0 0.0 0.0 0.0 0.0 0.0 0.0 0.0 0.0 0.0 0.0 0.0 0.0 0.0 0.0 0.0 0.0 0.0 0.0 0.0 0.0 0.0 0.0 0.0 0.0 0.0 0.0 0.0 0.0 0.0 0.0 0.0 0.0 0.0 0.0 0.0 0.0 0.0 0.0 0.0 0.0 0.0 0.0 0.0 0.0 0.0 0.0 0.0 0.0 0.0 0.0
-0.141953 0.064765 -0.04659 0.1132 -0.093026 0.11833 -0.105405 -0.100658 -0.044064 0.09821 0.097048 0.155441 -0.057639 -0.095071 -0.072778 0.139054 0.127284 0.030496 0.078817 0.087983 -0.017666 0.031313 -0.096696 0.121666 0.145648 -0.345046 0.105184 0.037846 -0.053757 -0.207579 0.090426 -0.008537 0.146995 0.144466 -0.09361 -0.124425 0.0966 -0.175656 0.120161 -0.087928 0.040291 0.033104 0.022227 0.091673 -0.120298 -0.155931 -0.023216 0.16448 0.038437 -0.068408 0.189635 0.043183 -0.361046 0.059543 -0.038566 0.085116 0.025387 -0.01921 -0.144421 -0.090296 0.079066 -0.0456 0.014281 -0.215266 0.111156 0.200562 -0.050527 -0.081821 -0.016618 0.193914 0.088539 0.074081 0.224609 -0.155082 0.046571 -0.062241 0.036443 -0.112005 -0.299556 0.092561 -9.25E-4 0.135534 0.126714 0.086017 0.060868 0.008974 0.073231 -0.020367 0.151156 0.189684 0.018746 -0.022627 -0.314743 -0.083034 -0.045752 0.00537 -0.127451 -0.121616 -0.005269 0.180682
-0.212809 -0.114798 0.198838 0.155358 0.073802 -0.037605 -0.151535 -0.034919 0.05694 0.110568 0.059176 0.138427 -0.099466 0.117451 0.17532 0.281939 -0.135804 0.213775 0.073418 0.08515 -0.100718 0.013056 0.117123 0.208383 -0.197459 0.015525 0.004106 0.00325 0.189666 -0.192572 -0.185637 -0.136961 -0.030323 0.231917 -0.123543 -0.177639 0.015818 0.030433 0.022825 0.066139 0.039027 0.173602 0.105262 -0.096041 0.084154 0.044753 0.006254 0.092513 -0.171585 0.111469 0.089279 -0.098711 -0.056476 0.062133 0.102796 -0.031542 0.209046 -0.129467 0.217794 -0.245518 0.190679 -0.205587 0.032004 -0.066522 -0.042702 0.02979 -0.008973 0.090505 0.149999 -0.200552 -0.047067 -0.019309 -0.093339 -0.027837 0.044257 -0.116437 -0.075254 0.047783 -0.156661 0.047858 -0.084244 0.019979 0.228819 -0.159135 0.084698 0.113855 -0.043723 -0.0911 0.373602 0.056777 -0.110616 0.012581 0.040652 0.316946 -0.017816 -0.157373 -0.115118 -0.042145 -0.049808 -0.105789
-0.031681 -0.025926 0.002311 0.088616 -0.005279 0.229943 -0.091336 0.121553 -0.013276 0.091039 0.265665 -0.239618 -0.095729 0.259465 -0.159401 0.177351 -0.079983 0.085771 -0.111417 -0.022357 -0.031479 0.188035 -0.223992 0.037407 -0.065773 -0.096753 -0.043203 0.058736 0.137546 -0.018395 0.115464 0.093723 -0.032092 0.023119 -0.221956 0.074111 0.223543 -0.010513 -0.055811 0.0182 0.050774 -0.044404 0.018116 0.028518 0.099633 -0.079552 -0.01078 0.086563 0.382955 -0.358129 -0.085996 0.083764 -0.029042 -0.026587 -0.023945 -0.139076 -0.145822 0.050035 -0.004846 -0.305791 0.113622 0.055889 -0.045629 0.217818 -0.447971 0.132536 -0.074719 0.022054 0.063048 -0.175088 -0.152459 0.110954 -0.104046 -0.210579 -0.038256 -0.188949 -0.129401 0.022657 -0.175717 0.210278 -0.251648 0.130795 0.3137 -0.207975 -0.064418 -0.019634 0.169592 0.085146 -0.028981 -0.075625 -0.29669 -0.168596 -0.12469 0.059629 -0.014143 -0.151539 0.147927 0.023401 0.045858 0.165674
0.094813 0.117309 -0.001274 0.152066 -0.064586 -0.141143 -0.023825 0.02196 0.020262 -0.061845 -0.268483 0.077498 -0.008761 -0.09925 -0.096639 0.135279 -0.048213 0.033862 0.085887 0.109258 0.142124 -0.249674 -0.043441 -0.075167 -0.023964 0.143121 -0.041322 0.0441 0.167735 -0.156285 0.106829 0.180057 0.130779 -0.042515 -0.165895 0.058004 -0.066892 -0.087366 0.020009 -0.081486 -0.031855 0.097811 -0.017519 0.076865 0.111324 -0.089961 -0.150683 0.061799 0.078692 0.099306 0.098633 0.124768 -0.024231 0.032065 -0.052224 -0.222714 0.068721 0.137627 -0.222517 -0.092256 -0.033699 -0.205046 0.115193 -0.30744 0.051257 0.116453 0.045021 -0.105204 -0.010987 0.048304 0.049788 -0.047717 -0.221061 -0.021706 -0.009274 0.085995 0.025494 0.147942 -0.294596 -0.020253 -0.034498 0.070121 0.049284 -0.009881 0.02326 -0.072956 0.134654 -0.079613 -0.073377 0.042196 -0.017164 -0.072544 -0.014649 -0.066976 -0.026034 -0.058362 0.194931 0.16323 0.029312 -0.025253
-0.002066 -0.208874 0.563424 3.154895 -0.326606 0.08751 -0.190847 -0.985647 0.215882 -2.01409 -1.496005 3.2525 -1.993987 2.202645 -1.680578 0.855601 1.014863 -2.797354 0.307824 0.25863 -0.778041 0.945444 0.938628 1.292307 -0.689182 0.022988 -1.571945 1.173715 0.407801 -2.141363 -1.228584 -2.11095 0.586788 0.128944 1.268093 -0.885542 -1.185058 1.01921 -2.316283 -1.882753 -2.908027 -1.352838 0.54839 2.389061 1.806348 1.722256 -1.097909 -2.603815 0.019602 -2.723388 -1.694351 -1.782007 0.136417 -2.69172 -2.022015 -2.858882 1.13015 -2.362057 -2.034497 0.735217 -0.976984 0.01884 0.532716 -2.462079 -0.356324 -1.098424 -0.48991 0.18145 -0.061239 1.93336 1.496153 1.086513 0.875898 -0.664861 -1.162905 -1.137674 1.484037 0.334311 -0.483765 -0.69085 0.834048 2.849714 1.341534 -0.983891 -1.515706 0.054537 1.103608 1.382906 1.676767 -0.464494 0.033525 -0.020232 -0.89626 0.721081 1.859034 2.401405 -2.210024 -1.179032 3.336503 0.5807
0.132615 -0.067738 0.144921 -0.070652 0.285714 0.009219 -0.149162 -0.011606 -0.279423 -0.076516 -0.049189 0.125755 0.012283 0.14469 0.10283 0.080149 -0.220533 0.163791 0.085609 0.080021 0.116158 0.195278 0.0559 -0.091269 -0.209908 -0.140602 0.044022 0.004846 -0.053479 -0.086002 -0.061676 -0.119705 -0.054719 -0.094517 -0.07982 -0.177671 0.07156 0.149193 0.079411 0.099143 -0.131442 0.044631 0.001847 0.078508 -0.120107 -0.012578 -0.074565 0.035564 -0.059714 -0.047986 -0.063732 0.03986 -0.122845 -0.135855 -0.074361 -0.166091 0.33802 -0.172756 0.019881 0.09711 -0.033975 -0.088392 0.006303 0.085869 -0.124851 -0.005417 -0.177558 0.05514 0.036664 0.147545 0.101387 0.003954 0.120145 -0.074756 -0.038315 0.124689 0.052326 0.152487 -0.177587 0.076794 0.087322 0.072746 -0.151492 -0.118139 -0.041269 -0.16844 0.096218 0.145533 0.062196 0.102882 -0.127923 0.003111 -0.064313 0.141061 0.063924 0.055305 -0.013763 0.055272 -0.068272 0.038454
-0.026861 -0.059936 -0.30122 -0.183638 -0.041082 0.003878 -0.168746 0.080296 -0.02788 0.134797 -0.029002 0.10639 -0.075486 0.061482 0.017035 0.108637 -0.172526 -0.020709 0.242282 0.117067 -0.045977 -0.211162 0.095746 -0.043785 -0.088074 -0.060915 -0.038264 0.024549 0.061117 -0.294384 0.148805 -0.117992 -0.204547 0.132656 -0.021759 -0.127489 0.086916 -0.126858 0.103964 -0.326881 -0.185106 -0.011721 0.01194 0.078637 0.060396 2.55E-4 -0.190426 -0.065073 0.132617 0.26652 0.025821 -0.105265 -0.287357 0.070465 -0.123063 0.027944 -0.10452 0.063431 -0.041835 -0.119338 0.205697 0.151223 0.108848 -0.10616 0.078547 -0.024297 0.049487 -0.063837 -0.035777 0.081761 -0.049619 0.194429 0.140672 -0.256386 -0.0473 0.173198 -0.041376 -0.086901 -0.075354 -0.131391 -0.032801 0.109123 0.05627 -0.014988 -0.109892 0.155909 -0.040184 -0.047971 -0.025526 -0.048861 0.203515 -0.053851 -0.187738 -0.191312 -0.002733 -0.07469 0.06412 -0.144256 -0.011854 0.193107
-0.128721 -0.020717 -0.03651 0.229706 0.051809 0.224327 0.123493 -0.038363 -0.063055 0.133587 0.069802 0.253002 0.135808 0.134685 -0.183566 0.161938 -0.071543 -0.060325 0.096975 0.111357 -0.135095 0.136486 -0.042982 -0.168204 0.178548 -0.135189 -0.098937 0.248464 0.105809 -0.012574 -0.092208 -0.148274 -0.138621 0.130555 -0.211548 -0.067794 0.168902 -0.138029 0.076011 -0.134448 0.043642 0.030261 0.118017 0.020174 0.104538 0.081722 0.022119 0.006976 -0.136463 0.003213 -0.13625 -0.119046 -0.15545 0.038575 0.011051 -0.096325 0.00649 -0.069671 0.152018 -0.110598 -0.075381 -0.047279 -0.020438 -0.09987 -0.090597 -0.122285 -0.03943 -0.115171 0.12068 -0.182765 0.094394 0.016552 -0.029941 -0.070159 -0.060483 0.024403 -0.015144 0.075776 -0.041238 0.116011 -0.063014 0.032542 -0.044304 0.078091 -0.118008 -0.041363 0.110233 -0.021164 0.091178 0.117985 0.072149 -0.036737 -0.172187 -0.081211 -0.091472 -0.030862 0.160934 0.157104 0.099529 0.069457
-0.177982 5.42E-4 -0.058787 -0.042986 0.019088 -0.07301 -0.113567 -0.048602 -0.111994 0.077081 -0.064429 -0.052309 0.107101 0.010132 -0.051043 -0.06249 0.034221 0.089497 0.034881 0.122433 -0.283278 0.026441 0.072924 -0.172696 -0.010091 0.121215 0.018512 0.014511 0.07091 -0.123185 0.021533 0.003516 0.016005 0.038951 -0.018904 0.016269 -0.131781 -0.040631 0.083819 0.218937 -0.005684 0.139408 0.044022 -0.012295 0.046568 -0.005967 0.108357 -0.023956 -0.178152 0.169509 0.054656 0.02338 0.048805 -0.018066 0.143428 -0.04062 0.080443 -0.163864 0.144698 -0.108681 -0.114589 -0.067844 0.109382 0.05381 -0.085662 0.098589 0.016784 0.03693 0.004596 -0.053567 -0.020095 0.211614 0.123797 -0.159272 -0.006375 0.004273 0.165679 0.003847 0.010679 -0.013199 0.065202 0.148104 0.045966 -0.179081 -0.050832 -0.046846 -0.001358 -0.12108 -0.13557 -0.149647 -0.089195 -0.036174 0.148524 -0.003514 0.004657 -0.093048 0.012667 0.116611 0.096985 0.047356
0.04638 0.084651 -0.047326 -0.360825 -0.267693 -0.041 0.042013 0.074692 0.012729 -0.033728 -0.037797 0.018026 -0.137492 -0.004249 -0.096124 -0.025067 0.036437 -0.004565 -0.172747 -0.155899 -0.07228 0.054561 0.022394 -0.009443 -0.197926 -0.026367 0.193093 -0.119754 0.020623 0.082947 0.014353 0.032847 -0.139957 0.022493 -0.182905 0.041514 -0.013932 0.161205 0.053491 0.027261 -0.081334 0.005421 -0.154199 0.024965 -0.011818 -0.096124 -0.069872 0.028464 0.195904 0.107377 -0.34343 -0.0781 0.188986 -0.167166 -0.027906 0.035301 -0.0727 -0.07741 -0.018542 -0.051571 0.063807 0.001605 0.026243 -0.117973 0.003921 0.054212 0.093347 0.055704 0.084389 -0.080522 -0.133084 -0.170045 -0.130651 0.04577 -0.007305 -0.087716 -0.13632 -0.014304 -0.107102 -0.160997 0.102931 0.15833 0.05093 -0.01358 0.102738 -0.042346 0.100767 0.128895 0.068898 0.285796 -0.127291 0.112381 -0.138326 0.078845 0.056817 0.102927 0.037438 0.085991 0.058668 0.009152
4.088196 0.297704 -1.028615 4.747435 1.110235 3.134462 1.265814 0.610371 -0.19393 -2.629615 0.757407 2.031496 -1.681606 -0.750734 0.607439 1.730475 -0.575801 -4.9484 -3.106981 1.433708 -2.933383 -0.607278 0.21502 -0.936141 2.201521 -3.425759 0.586913 1.130422 0.587819 -0.544596 0.736509 0.737671 0.264796 0.179184 -4.64829 0.041762 0.734897 0.498987 2.005224 -0.478501 -0.946017 -3.056592 0.966226 -1.025565 0.551075 0.107511 -0.35197 -2.926284 3.608778 0.68242 1.34705 3.202598 -2.869086 -0.732502 -1.947601 1.534661 1.056872 2.271927 0.48151 -4.047965 -0.142861 1.538222 0.398362 -0.676201 0.098441 0.236745 -0.520654 -2.577075 -1.766508 3.842722 3.056848 1.899663 0.194581 1.398197 0.852022 -0.084509 -1.080607 0.04108 1.806659 -3.684653 -2.340004 0.651856 0.016765 1.240274 3.416146 5.020018 2.589897 0.918731 3.34579 -1.734813 2.131855 2.079846 1.246448 0.333801 -2.336565 1.727393 -1.314646 0.072673 -2.721992 3.204293
1.520346 0.582521 -0.566722 0.672926 -3.445116 1.658963 2.198538 -0.08167 -0.989839 -2.163993 -0.863694 -0.894638 -0.578166 1.188526 1.959891 2.365635 -0.395062 -0.02765 -2.108514 1.120336 -1.88414 -1.013965 -1.787603 -1.997053 1.760792 -1.333675 -0.293454 -0.726163 0.094776 -2.284538 2.504797 0.565388 0.023872 3.085597 0.307704 1.998303 -0.147506 -0.366739 0.412013 0.195531 3.729466 -3.013559 0.931348 0.951273 -1.43188 -0.104025 0.084536 2.305703 1.677983 0.995194 -0.107804 0.131143 0.786624 1.309492 -1.77684 -3.353511 -0.959324 -1.494036 0.632148 -1.541332 -0.766978 0.940467 -1.987767 -0.154009 0.217205 -2.748383 1.682925 -1.945856 0.627521 -0.213196 4.809887 -0.44873 -2.747047 -1.212698 -0.173429 -2.488667 -2.686184 0.463817 0.770117 0.806446 1.328574 -2.189878 -0.813051 -1.256556 0.334516 -1.78635 2.290336 -0.57806 -0.393639 0.185468 1.580344 -2.354734 -0.027256 0.145929 3.273494 -0.079207 -1.113277 1.959356 -1.42397 1.465904
0.100692 -0.157131 0.139302 0.123578 0.151543 0.178422 -0.012679 -0.103362 0.233611 0.029945 -0.033496 -0.02353 -0.150988 -0.078962 0.230475 0.006161 -0.201667 0.084881 -0.295978 -0.216595 -0.152078 -0.096403 -0.182565 -0.034674 -0.008271 0.123985 -0.225344 0.060741 0.064737 -0.027452 -0.020276 -0.040379 -0.062847 -0.021902 -0.155636 0.098869 0.118253 -0.054786 -0.035252 0.089718 -0.093516 0.108242 -0.165133 -0.010665 -0.002421 -0.171869 -0.111112 -0.041381 -0.044332 -0.069941 -0.02046 0.052983 -0.30701 0.053758 -0.133805 0.122561 8.2E-4 0.037855 -0.034898 0.091687 -0.127096 0.09488 -0.140734 -0.009746 -0.040595 0.12427 0.130515 0.010606 0.177229 0.063676 0.149195 0.026542 -0.108012 0.401386 -0.015993 -0.159563 0.171247 0.017552 -0.091249 -0.185777 0.041517 -0.021989 -0.300138 0.0411 -0.232056 0.111526 -0.051533 0.011578 0.198834 -0.128702 0.184857 -0.029913 -0.123641 -0.092647 0.286203 -0.109599 0.093666 0.015337 -0.091583 0.060957
-0.099779 -0.088851 -0.036921 0.088425 -0.040922 0.072369 -0.154586 0.011688 -0.007618 0.076278 0.089523 0.224786 0.062236 -0.233317 0.06423 0.133326 -0.132016 0.100983 -0.096608 0.02889 -0.116602 0.025416 0.115793 0.091144 -0.181606 0.01795 -0.140598 -0.079933 0.06915 -0.108515 0.060402 0.033142 -0.039611 0.073342 -0.337017 -0.119071 0.154116 0.004965 0.122293 -0.024123 -0.094374 0.202871 0.064663 -0.093456 -0.016288 -0.107149 -0.02292 -0.015554 -0.210102 0.17543 0.117124 -0.187922 0.003764 0.002373 0.07756 -0.167652 0.007686 -0.033869 0.020928 -0.055266 0.082302 -0.15228 0.001255 -0.170724 0.066994 0.10561 0.053247 0.006181 0.130398 -0.056247 0.049538 0.055487 0.010175 0.04748 0.065952 -0.050069 -0.103701 -0.065108 -0.023664 -0.057811 -0.024543 0.009046 0.093955 -0.110368 -0.096206 -0.04799 0.09091 0.135345 0.033909 0.149976 -0.22925 0.022657 -0.119194 0.012082 -0.17202 0.012624 0.055093 0.005004 -0.105271 -0.143153
0.094813 0.117309 -0.001274 0.152066 -0.064586 -0.141143 -0.023825 0.02196 0.020262 -0.061845 -0.268483 0.077498 -0.008761 -0.09925 -0.096639 0.135279 -0.048213 0.033862 0.085887 0.109258 0.142124 -0.249674 -0.043441 -0.075167 -0.023964 0.143121 -0.041322 0.0441 0.167735 -0.156285 0.106829 0.180057 0.130779 -0.042515 -0.165895 0.058004 -0.066892 -0.087366 0.020009 -0.081486 -0.031855 0.097811 -0.017519 0.076865 0.111324 -0.089961 -0.150683 0.061799 0.078692 0.099306 0.098633 0.124768 -0.024231 0.032065 -0.052224 -0.222714 0.068721 0.137627 -0.222517 -0.092256 -0.033699 -0.205046 0.115193 -0.30744 0.051257 0.116453 0.045021 -0.105204 -0.010987 0.048304 0.049788 -0.047717 -0.221061 -0.021706 -0.009274 0.085995 0.025494 0.147942 -0.294596 -0.020253 -0.034498 0.070121 0.049284 -0.009881 0.02326 -0.072956 0.134654 -0.079613 -0.073377 0.042196 -0.017164 -0.072544 -0.014649 -0.066976 -0.026034 -0.058362 0.194931 0.16323 0.029312 -0.025253
3.615108 -1.85925 1.101128 -0.297136 0.093382 -0.56188 0.915799 0.843226 1.552093 0.04599 0.295156 -0.541709 0.36653 4.668517 -1.682322 1.44432 2.842021 0.83422 -0.434621 -2.056376 -3.500736 -2.215464 3.928643 0.370235 2.665826 0.005907 3.880749 -0.532789 -3.905782 -4.388954 -0.07753 -0.028812 -3.839915 -4.429721 0.093117 -0.674758 2.404011 -3.262805 -1.953915 0.549423 -2.064354 -2.04078 -0.61412 -0.825382 2.791001 0.395311 -3.514284 -0.539476 -1.026401 0.756741 -0.190268 4.753198 -0.72912 0.804408 1.937346 -1.888898 -0.199499 0.193842 2.764453 3.783363 1.066273 1.670282 0.622402 -0.438219 -3.591963 0.725616 -0.670652 1.374311 -0.581818 1.527305 -2.372867 2.104037 -3.954724 -1.499936 0.434513 0.649802 1.84953 1.065065 -0.133547 -3.512305 3.445676 1.265562 1.112202 -0.98901 2.747772 -1.46101 1.038765 1.058414 -2.610144 -0.872361 -1.655071 0.846523 -2.983643 0.380186 -0.150197 4.076491 -0.674637 -2.113332 3.924467 -0.616494
-0.031681 -0.025926 0.002311 0.088616 -0.005279 0.229943 -0.091336 0.121553 -0.013276 0.091039 0.265665 -0.239618 -0.095729 0.259465 -0.159401 0.177351 -0.079983 0.085771 -0.111417 -0.022357 -0.031479 0.188035 -0.223992 0.037407 -0.065773 -0.096753 -0.043203 0.058736 0.137546 -0.018395 0.115464 0.093723 -0.032092 0.023119 -0.221956 0.074111 0.223543 -0.010513 -0.055811 0.0182 0.050774 -0.044404 0.018116 0.028518 0.099633 -0.079552 -0.01078 0.086563 0.382955 -0.358129 -0.085996 0.083764 -0.029042 -0.026587 -0.023945 -0.139076 -0.145822 0.050035 -0.004846 -0.305791 0.113622 0.055889 -0.045629 0.217818 -0.447971 0.132536 -0.074719 0.022054 0.063048 -0.175088 -0.152459 0.110954 -0.104046 -0.210579 -0.038256 -0.188949 -0.129401 0.022657 -0.175717 0.210278 -0.251648 0.130795 0.3137 -0.207975 -0.064418 -0.019634 0.169592 0.085146 -0.028981 -0.075625 -0.29669 -0.168596 -0.12469 0.059629 -0.014143 -0.151539 0.147927 0.023401 0.045858 0.165674
0.15811 -0.051242 -0.13997 -0.322822 -0.07003 -0.033128 -0.260146 -0.017447 0.005466 0.094839 -0.0486 0.051785 0.014327 -0.235954 0.048999 0.117035 -0.013664 0.033411 -0.097794 -0.056832 -0.196592 -0.072245 0.128746 -0.026799 -0.117098 -0.076194 -0.110566 0.021201 0.36462 0.174884 0.034756 0.02259 -0.170361 0.035251 -0.144752 0.175427 -0.051023 -0.079171 0.180706 0.220322 -0.010691 -0.030352 0.080836 0.012269 -0.003589 0.02306 -0.155894 0.027446 -0.091631 0.27328 -0.094637 -0.074168 0.127003 -0.086547 -0.017816 -0.12843 0.168769 -0.059107 0.10288 -0.246527 -0.087292 0.016267 0.049159 -0.241109 -0.112898 0.073943 -0.092358 0.169411 0.257095 -0.070193 0.00738 -0.018826 -0.03842 0.083848 0.160512 -0.228397 -0.051281 0.060024 -0.132917 -0.171399 -0.040578 0.055841 0.003662 -0.027892 0.009311 0.120827 -0.077791 -0.137709 0.141787 0.170706 -0.150008 0.024178 0.091136 0.227253 -0.036998 0.097125 -0.086042 0.122305 0.086376 0.021784
1.560996 0.842868 -0.966121 0.794535 0.732082 2.167424 0.982662 0.057444 0.504819 0.07841 0.055279 1.416647 -0.670558 0.122239 -1.875473 -0.339444 -1.661959 -1.985793 -0.005729 -2.592115 -2.183448 0.044516 0.671895 -0.589479 0.827514 1.432932 1.133599 0.800224 0.356391 -1.617423 1.243533 -0.771712 1.46062 -1.283942 -0.283672 -0.793244 2.250382 0.636489 -0.035825 -2.112469 -0.960024 -2.532577 1.013875 -0.496549 -0.535743 1.359858 0.125133 -0.377994 0.914883 0.328853 0.713591 1.260942 -0.948324 1.504832 -1.93683 0.311228 0.965607 -1.013595 0.329382 -0.198887 0.96078 -0.013681 0.350227 0.828392 -1.894402 -0.039104 0.283785 -0.554694 -1.197001 0.540337 2.851685 1.269162 -1.080219 0.093043 0.787903 -0.091276 2.31099 1.354835 -1.181959 0.872145 0.826596 0.712391 -0.103207 1.442596 -0.009761 -0.491948 1.238818 0.369032 -0.415171 1.980595 2.066964 0.180408 -0.553874 -1.180511 -2.075199 0.329212 -1.398948 0.834816 -1.169907 1.291362
0.024723 0.127299 -0.172515 -0.215256 0.122533 0.230206 0.055559 0.072318 0.045884 0.008286 -0.156355 -0.069533 0.061162 0.158357 0.250813 0.25209 -0.06245 -0.051581 -0.132847 -0.038739 -0.171737 -0.05541 0.073886 0.014353 0.111505 -0.02746 -0.007878 0.037755 0.054501 -0.152824 -0.17725 -0.109705 -0.140079 -0.008796 0.08239 -0.10643 0.088486 -0.019107 -0.178254 -0.159884 0.104603 -0.049937 0.011294 0.129051 -0.101514 0.085149 0.075428 0.07964 0.056489 -0.199156 -0.198055 -0.294873 0.02193 -0.087654 0.02194 0.118939 0.134621 0.161098 -0.028437 0.101765 0.20192 0.056095 -0.06922 -0.086783 0.01914 0.103907 -0.202596 0.101186 -0.066934 0.066643 -0.017281 0.019229 -0.097729 -0.123382 7.03E-4 0.048341 0.097053 0.058805 -0.055883 -0.141272 -0.072807 -0.0359 0.034252 0.008318 0.059905 -0.090682 -0.176036 0.090358 0.055292 0.170097 -0.067816 -0.007051 -0.117293 0.04385 -0.143147 -0.069697 -0.047416 0.246942 -0.220013 -0.060946
-0.04832 0.090324 -0.194188 0.317462 0.032722 -0.006961 -0.002056 -0.026079 -0.038491 0.117021 -0.0279 0.001159 0.026274 0.006893 0.063322 0.006811 -0.167466 0.077843 -0.218526 -0.049729 0.184506 0.017787 0.106408 -0.074128 0.153078 0.045399 -0.019661 0.199252 -0.079072 0.077981 -0.002528 -0.076294 0.070905 -0.1362 -0.021728 -0.123094 0.099832 0.034697 0.155263 -0.013553 -0.135902 -0.064673 0.116065 -0.048622 -0.210925 -0.049275 0.086711 -0.009717 -0.003816 0.178711 -0.092914 -0.170189 0.018779 -0.055215 -0.145297 0.041179 0.138721 0.057468 0.041091 0.005365 0.115135 0.01779 0.068525 -0.011633 0.018509 -0.020141 0.106587 -0.118159 0.028942 0.035181 0.182344 0.073337 -0.124911 0.011314 -0.125504 -0.007116 -0.052859 -0.040021 -0.036749 -0.080962 -0.086283 -0.12496 0.085925 0.157881 -0.009772 -0.164802 -0.028382 0.077599 0.001925 0.063885 0.121283 0.082976 0.018347 -0.246429 -0.184076 -0.19077 -0.045764 -0.016816 0.010814 0.053251
-0.253313 -0.011669 0.118994 0.073782 -0.12197 0.082215 -0.091985 -0.145117 0.137304 0.05342 0.076411 0.184456 0.025223 -0.172177 0.096143 0.205529 0.012401 0.056904 -0.084749 0.015403 -0.063431 0.190379 0.100507 0.017202 -0.107924 0.054241 0.046193 0.142495 0.102504 0.08729 0.066586 -0.098855 0.023272 0.07352 -0.193009 -0.087837 0.040061 -0.01653 -0.099192 -0.102304 -6.51E-4 0.112913 0.021825 -0.055398 0.013775 -0.12491 -0.094102 0.057799 0.092422 0.025687 -0.009384 0.024817 -0.050939 0.159246 0.023134 0.007526 0.118953 -0.034079 0.141116 -0.245055 0.250452 0.062814 0.14196 -0.163914 0.07494 0.063559 0.142866 0.096105 0.155659 -0.112934 0.133719 0.028865 -0.150449 -0.080325 -0.030608 -0.007615 0.008917 0.137176 -0.204966 -0.018115 -0.059625 0.073389 0.182854 -0.077647 0.12814 -0.045901 0.055981 0.059072 0.139878 -0.075122 -0.034386 -0.109798 -0.179243 0.16043 -0.103287 -0.20537 -0.021451 0.093099 0.0021 -0.075002
0.244846 0.008423 -0.321803 0.075429 -0.168917 -0.240826 0.035983 -0.182301 -0.227966 0.321749 0.130858 0.18936 0.104314 -0.061886 -0.066201 0.161347 0.228162 0.224636 -0.14367 -0.090403 0.121903 0.122438 -0.045674 -0.1457 -0.019312 -0.143753 0.031351 -0.023381 0.093774 0.037571 -0.185982 -0.198598 -0.105834 -0.021367 -0.248722 -0.0314 0.223078 0.126255 0.047725 -0.185312 -0.068554 0.059766 -0.199794 0.105814 0.241212 -0.195476 -0.097708 0.009249 -0.036295 0.067208 -0.037115 -0.188749 0.173588 0.380423 -0.172419 -0.120369 0.335785 0.02211 -0.094284 0.187817 0.225245 0.275937 0.091572 -0.058213 -0.084509 -0.106452 0.378563 0.022608 0.295106 -0.219769 0.175275 0.016409 0.108856 0.079876 0.095992 -0.120842 -0.022428 0.122198 -0.135668 0.191553 -0.137339 0.008656 -0.014708 -0.014497 0.135376 0.172565 -0.029642 -0.173998 0.159802 -0.113861 -0.162641 0.092535 -0.145933 -0.001909 -0.139173 -0.25196 0.130577 -0.062997 -0.157974 -0.206728
-0.056914 -0.217986 0.089741 -0.202397 -0.111876 3.58E-4 0.103781 -0.078983 -0.099879 0.03409 0.115647 -0.083219 0.256699 0.026267 -0.111952 0.097758 0.004936 0.113418 0.025651 -0.017128 -0.105235 -0.11542 0.271633 0.177784 -0.248305 -0.234808 0.002026 -0.153928 0.140914 -0.155503 0.235502 -0.105196 -0.070666 -0.039014 -0.132116 0.003968 -0.030979 -0.191948 0.123079 0.086435 -0.09775 -0.039066 0.045015 0.073815 -0.033826 -0.005732 -0.035222 -0.192003 -0.080778 0.134891 0.20254 -0.040938 -0.007388 0.037378 -0.093975 -0.057653 0.130649 -0.005688 0.003766 0.071896 0.209541 -0.105452 0.018233 -0.043691 -0.105979 -0.022797 0.053277 -0.036101 0.080818 -0.043414 0.018528 0.04212 -0.047058 -0.165309 -0.022808 0.045116 -0.228238 0.047629 -0.110446 -0.106899 0.031418 0.093544 0.152496 -0.22961 -0.013462 0.057347 -0.079868 0.055385 0.208318 0.035764 -0.17485 -0.098348 0.087533 -0.033752 -0.078916 -0.125425 0.02397 -0.084893 0.164204 -0.189526
2.174546 0.839277 0.053674 -0.70617 -0.201142 -1.36884 3.046614 -1.81939 -0.571499 -2.146105 2.398192 -3.212801 0.324658 1.983374 -1.267279 2.189345 -2.198303 1.389423 0.170601 2.174585 -3.344255 -0.469351 -0.162392 1.21042 4.011686 1.274478 1.216451 0.988687 -2.070765 0.453329 0.707236 0.114953 -3.074452 3.545354 -0.498811 -0.9241 -0.795483 0.16204 -1.770728 -0.183006 1.123212 -1.728186 0.177395 1.27155 0.602779 0.857352 -5.161198 5.368242 2.89051 2.731278 -0.079885 -2.920901 4.133426 1.927927 -0.882299 -2.268217 3.138875 -2.238427 4.068031 -0.585244 -2.740566 2.70546 1.735492 -2.375272 -0.035117 -3.996313 1.488321 -1.358982 0.427254 2.150983 4.218776 -0.351139 0.135569 -1.465569 2.427535 -1.632687 -4.883166 2.009376 2.15406 -2.250604 -1.271555 0.184093 0.374956 -0.75456 3.694378 -0.129805 -0.54946 -0.237188 -1.510777 1.706751 -2.633371 0.274782 -1.201073 0.448455 0.015946 0.311567 0.174641 -1.763391 -1.292767 -0.568384
0.05445 -0.154969 0.166303 0.137215 0.054534 -0.055247 -0.03007 -0.029194 -0.041704 -0.03219 -0.044052 0.158211 0.018569 0.079159 0.222411 0.273041 -0.05517 -0.059452 -0.007637 0.024361 -0.107348 -0.155667 -0.01122 0.058027 -0.020956 0.012614 -0.01486 -0.08957 0.081073 -0.10561 0.00956 -0.119328 -0.026298 -0.131649 -0.027708 -0.09139 0.06201 -0.094384 0.097205 -0.077073 -0.004379 -0.069626 -0.063017 0.080011 0.22157 0.049305 0.03294 -0.067514 0.024777 -0.01973 -0.072228 0.017215 -0.080971 -0.199317 0.122434 0.071172 -0.015927 -0.089741 -0.041939 -0.042975 -0.040509 -0.103942 -0.055095 0.049877 -0.117821 -0.027318 -0.08616 0.028884 0.057418 -0.024416 0.027208 0.016066 0.100084 -0.222348 0.114991 -0.195646 -0.06204 0.048645 0.029994 -0.086205 0.067047 -0.099119 0.080772 0.025108 -0.152555 -0.096488 -0.11049 0.005272 0.068805 -0.128175 0.034361 0.18292 0.060455 0.147935 0.109379 -0.042941 -0.120867 -0.12911 0.044019 0.177504
2.87464 -0.701464 -1.945087 0.798465 -1.901464 1.233586 0.415548 0.910772 -0.151839 1.954772 -2.264912 0.994107 0.647736 1.938717 -1.183067 0.135941 1.050214 0.11356 0.379275 1.268901 0.645368 0.378905 1.320608 -1.295395 0.750989 0.976305 1.28864 -0.982362 -1.931958 -1.239804 1.587084 0.099185 -0.294902 0.436027 0.579342 -1.183696 2.604155 -3.317551 -3.743154 -0.710407 -1.556585 -0.511151 -0.532478 0.756932 1.957984 -0.225002 -2.678844 0.397858 3.112323 3.965641 -0.165851 0.658701 -0.352562 2.544936 -1.39593 -0.599487 1.586211 -0.84923 -1.311629 -0.481193 1.327159 -0.223012 1.456903 -1.794692 0.410009 1.426936 2.365917 0.247322 -1.171522 1.262023 0.9894 3.527386 0.238687 -0.61635 1.079046 0.388121 -2.076334 0.369052 0.602814 0.861609 -0.099859 -1.472652 -1.350623 2.55205 2.553534 -0.407998 0.322457 1.532821 -1.233828 -0.554601 -1.412275 -1.700174 0.034869 0.921896 0.269059 1.176658 0.871542 0.570573 0.448573 0.170237
0.06553 -0.125673 0.034491 0.043696 -0.08785 -0.070191 -0.104459 -0.048669 0.006119 0.030927 -0.13537 -0.036367 -0.163152 -0.059444 0.060532 -0.023973 0.098727 0.031182 -0.080261 0.051743 -0.07395 0.036216 -0.082271 -0.07694 -0.227916 8.49E-4 0.074039 -0.007776 0.046045 -0.104478 0.002922 0.032865 -0.001549 -0.142678 0.054115 -0.01641 0.00671 0.02971 0.075554 0.035918 0.017778 0.02266 0.074529 -0.007011 -0.166621 -0.149341 -0.036893 0.187838 -0.051182 0.035542 0.035646 -0.071808 0.164016 0.07998 0.087969 -0.192645 -0.030305 -0.225898 -0.106839 -0.021025 0.244137 -0.057087 -0.051305 0.059616 -0.184024 0.189175 0.205994 -0.054882 -0.034451 -0.087239 0.044602 -0.036991 -0.094929 -0.008204 0.212651 0.003758 -0.115127 0.104404 0.032918 0.078207 0.184447 0.044535 -0.025218 -0.026929 -0.017865 0.117728 0.029414 -0.031504 0.043071 0.093661 -0.096078 -0.012874 0.052235 0.078689 -0.053345 -0.059396 0.152948 -0.086422 -0.102222 -0.027954
-0.021036 -0.188623 0.138492 0.102153 -0.037262 0.010201 -0.038628 0.047735 -0.171132 0.210905 0.151942 0.205359 0.152366 -0.021651 0.071972 0.138844 0.057871 0.206774 0.235995 0.103519 0.005348 0.06255 0.120182 0.053022 0.038634 -0.222823 -0.041613 0.025005 0.107309 -0.108681 -0.073721 -0.099586 -0.001032 -0.008776 -0.073218 -0.053329 -0.017532 -0.02374 -0.003238 -0.099007 -0.190598 0.212902 0.237921 0.089574 0.086833 -0.038016 -0.062258 -0.115358 -0.154121 -0.004609 -0.003856 -0.179057 -0.077914 0.043648 0.027654 -0.137898 0.085846 -0.039577 0.029291 -0.152 0.026018 -0.180648 0.056705 -0.125588 -0.044279 -0.091858 0.160561 -0.1916 0.142984 -0.09915 -0.04716 0.012775 -0.1339 -0.001082 -0.055588 -0.114543 -0.11378 -0.011095 -0.065965 -0.111169 -0.065489 -0.017951 0.025608 0.031221 -0.078672 -0.037713 0.093777 -0.133661 0.041973 0.112997 -0.007962 0.050439 -0.13413 0.003685 0.04125 -0.127316 0.052599 0.077239 -0.088381 -0.083783
0.015872 0.117475 -0.164605 -0.044562 -1.68E-4 -0.078736 -0.014769 0.148055 0.024605 -0.051596 0.122847 -0.114196 -0.034196 -0.08628 0.041075 -0.12801 -0.140659 -0.106422 -0.075058 0.015382 0.047613 0.019425 -0.018779 0.096796 0.064069 0.195055 0.11645 -0.225899 0.055938 0.118386 -0.030051 0.075175 0.172643 -0.010721 0.012511 -0.007709 -0.097905 -0.042 -0.131495 0.032958 0.052204 0.110851 -0.128992 -0.203617 0.070093 0.013654 0.038703 0.008368 0.052076 -0.019311 0.05722 0.042832 0.026559 -0.012542 0.003995 -0.094257 0.148511 0.049346 -0.078435 -0.013606 -0.087522 0.231987 0.006039 -0.107406 -0.127821 -0.081953 0.021243 -0.020465 -0.007731 -0.121249 -0.084151 -0.278442 -0.035624 -0.10373 -0.049941 -0.062158 0.115939 -0.009107 0.002831 0.006272 0.035047 -0.144923 -0.111177 0.00897 0.063085 0.067298 -0.168059 0.008305 -0.158213 0.028688 -0.068434 0.117865 0.309336 -0.047789 -0.060615 -0.065124 -0.038478 -0.051154 -0.018319 0.001234
0.027978 0.094682 0.152862 0.072917 0.023867 -0.162749 0.004305 0.020752 -0.129828 0.052499 0.065871 0.072787 0.205646 -0.096355 -0.375323 -1.76E-4 0.216897 0.135958 0.343136 0.066512 -0.149224 -0.129307 0.242503 -0.037577 0.164107 0.014107 0.007609 0.147555 0.004793 0.005097 -0.219606 -0.153617 0.019818 0.126963 -0.159804 -0.08022 0.120115 -0.016991 -0.127224 -0.070778 -8.3E-5 0.239583 0.165893 0.142013 -0.083199 0.039004 0.150494 -0.0189 -0.255873 -0.103474 -0.140302 -0.094893 -0.09648 0.041055 0.020233 -0.034501 0.190181 0.009598 -0.040219 0.007908 0.119888 -0.018665 -0.156043 -0.058585 -0.068264 0.011286 0.0219 0.016994 0.020333 -0.158012 0.017569 -0.088539 -0.1803 -0.035531 -0.047245 0.086941 -0.007702 0.082808 -0.11455 0.028478 -0.152819 0.156609 0.053985 0.105056 0.088388 -0.068017 0.100828 -0.014525 0.145509 0.133771 -0.09434 0.101753 -0.090568 0.014718 0.129771 -0.098535 -0.04521 0.002417 -0.085384 -0.115193
0.032093 0.10565 0.07194 -0.10506 0.067235 -0.19423 -0.171559 -0.024872 -0.200596 -0.024021 0.081589 -0.134327 -0.133221 0.086563 0.035137 0.09023 -0.100221 -0.106837 0.216842 0.169637 -0.003546 -0.192428 0.026566 0.124055 -0.105236 -0.07848 -0.126731 0.139525 0.222664 -0.090607 -0.124343 0.162578 -0.11797 -0.040378 0.05487 -0.079472 0.01701 -0.189311 0.227341 0.071021 -0.038819 -0.184046 0.147 -0.091764 0.07601 -0.241426 -0.387516 -0.147508 -0.220456 -0.088583 0.035056 -0.086038 -0.204524 0.092743 -0.119635 -0.095464 -0.283729 -0.021 -0.056357 -0.143968 0.055836 -0.324437 0.105987 0.008046 -0.200878 0.013677 -0.124932 0.120835 0.008738 -0.22946 -0.008223 -0.04135 0.001859 -0.035757 0.290135 -0.016454 -0.251527 -0.091879 0.014693 -0.111384 0.234011 0.080886 0.195417 0.014571 -0.071411 0.018417 0.100924 0.06824 0.118381 0.038258 -0.140745 -0.154291 0.008683 0.183866 0.02895 0.005598 -0.0178 -0.029178 0.110665 -0.011781
-0.003324 -0.178402 -0.1721 0.129284 0.105166 -0.135951 0.00768 -0.012371 0.10207 0.11997 0.052619 0.074463 -0.235415 -0.087371 0.058323 0.04522 0.020707 -0.086744 0.169342 -0.076667 -0.014626 -0.046367 0.037025 -0.068321 0.036087 -0.076086 0.037919 0.008392 0.004255 0.070746 0.038501 0.1404 -0.005519 -0.066761 0.056312 0.041321 -0.010472 -0.05058 0.145124 -0.025118 -0.151042 0.033121 -0.134576 0.05058 0.022738 0.006658 0.157351 0.195247 -0.024802 0.053886 -0.026773 -0.035875 0.056344 -0.079691 -0.237099 0.0479 0.20004 -0.03328 0.062909 -0.134673 -0.092813 -0.064654 -0.104311 0.077481 -0.141901 0.168466 -0.199698 0.014957 0.08107 0.218153 -0.063915 -0.05471 0.108456 -0.272317 -0.071009 -0.125927 -0.15751 -0.078662 0.030323 -0.014356 -0.126144 -0.083108 0.034864 0.029033 -0.086737 0.014668 -0.030311 0.188828 0.065719 0.164392 -0.028939 0.053325 -0.028575 -0.08262 0.281294 0.124521 -0.051716 -0.059839 -0.164874 0.055544
0.0 0.0 0.0 0.0 0.0 0.0 0.0 0.0 0.0 0.0 0.0 0.0 0.0 0.0 0.0 0.0 0.0 0.0 0.0 0.0 0.0 0.0 0.0 0.0 0.0 0.0 0.0 0.0 0.0 0.0 0.0 0.0 0.0 0.0 0.0 0.0 0.0 0.0 0.0 0.0 0.0 0.0 0.0 0.0 0.0 0.0 0.0 0.0 0.0 0.0 0.0 0.0 0.0 0.0 0.0 0.0 0.0 0.0 0.0 0.0 0.0 0.0 0.0 0.0 0.0 0.0 0.0 0.0 0.0 0.0 0.0 0.0 0.0 0.0 0.0 0.0 0.0 0.0 0.0 0.0 0.0 0.0 0.0 0.0 0.0 0.0 0.0 0.0 0.0 0.0 0.0 0.0 0.0 0.0 0.0 0.0 0.0 0.0 0.0 0.0
-0.049304 -0.110367 0.0127 -0.035208 0.095575 -0.104559 -0.037247 0.04768 0.113488 -0.039835 0.063804 0.033373 -0.071035 -0.029282 -0.035452 -0.105183 0.023484 0.056347 -0.009063 -0.17848 -0.191747 -0.010183 0.135579 0.005246 -0.370933 -0.180441 -0.051494 0.087623 0.194119 0.116097 0.046157 -0.00255 -0.083376 0.027814 -0.204732 -0.063309 -0.025039 -0.031477 -0.064205 0.021594 0.039499 -0.058701 0.03897 -0.071644 0.148018 -0.029345 0.070402 0.023412 -0.021435 0.026579 -0.087625 -0.028992 -0.007102 0.057822 0.0627 0.057322 0.079373 0.068421 0.143734 -0.039883 0.086602 -0.147327 -0.07687 -0.177286 -0.047132 0.106858 0.164892 0.029537 -0.033732 -0.051086 -0.046873 -1.44E-4 -0.033622 -0.128179 0.120303 -0.046639 -0.09976 -0.01358 -0.018734 0.20462 0.051876 -0.022061 0.12339 -0.023023 -0.102077 0.157936 -0.076713 0.095135 -0.045453 -0.041087 0.103648 -0.031168 0.056619 0.107715 -0.073986 -0.01236 -0.168681 -0.105948 0.036355 0.091909
0.132615 -0.067738 0.144921 -0.070652 0.285714 0.009219 -0.149162 -0.011606 -0.279423 -0.076516 -0.049189 0.125755 0.012283 0.14469 0.10283 0.080149 -0.220533 0.163791 0.085609 0.080021 0.116158 0.195278 0.0559 -0.091269 -0.209908 -0.140602 0.044022 0.004846 -0.053479 -0.086002 -0.061676 -0.119705 -0.054719 -0.094517 -0.07982 -0.177671 0.07156 0.149193 0.079411 0.099143 -0.131442 0.044631 0.001847 0.078508 -0.120107 -0.012578 -0.074565 0.035564 -0.059714 -0.047986 -0.063732 0.03986 -0.122845 -0.135855 -0.074361 -0.166091 0.33802 -0.172756 0.019881 0.09711 -0.033975 -0.088392 0.006303 0.085869 -0.124851 -0.005417 -0.177558 0.05514 0.036664 0.147545 0.101387 0.003954 0.120145 -0.074756 -0.038315 0.124689 0.052326 0.152487 -0.177587 0.076794 0.087322 0.072746 -0.151492 -0.118139 -0.041269 -0.16844 0.096218 0.145533 0.062196 0.102882 -0.127923 0.003111 -0.064313 0.141061 0.063924 0.055305 -0.013763 0.055272 -0.068272 0.038454
-0.034424 -0.090495 -0.006773 -0.063608 0.025844 -0.050896 -0.030293 -0.009106 0.026906 -0.044443 0.083632 0.211106 -0.056644 -0.003204 0.068913 0.139971 -0.018232 0.07223 -0.008158 0.135321 -0.211678 -0.044636 0.214762 0.104317 0.126688 -0.145755 0.048735 0.080406 -0.019864 0.022406 0.099692 0.117281 -0.121534 0.048982 -0.07444 -0.216494 -0.038637 -0.052552 -0.00625 0.010676 0.060297 0.130151 -0.090589 0.288476 -0.221613 -0.216615 0.061654 -0.118286 -0.087815 0.034581 0.236602 -0.157248 -0.139222 -0.027552 -0.022158 -0.059575 -0.003735 -0.02372 0.188294 -0.13495 -0.07087 0.007757 -0.074851 -0.140176 -0.063901 0.010573 0.05899 0.168781 0.096597 -0.009023 0.052519 -0.089059 0.224771 -0.058932 -0.025187 -0.033411 -0.005812 -0.092213 -0.003395 0.189132 -0.02921 -0.05402 0.261623 -0.065074 -0.04169 0.037347 -0.209589 0.033176 -0.019425 0.056532 0.089111 -0.092857 -0.05726 0.157672 -0.220883 -0.115913 0.054802 -0.003083 0.108346 0.096591
0.044587 -0.230649 0.212048 -0.070279 -0.114946 0.164211 -0.261955 0.057229 -0.14778 0.050289 -0.176671 -0.059808 -0.18936 0.064043 0.030098 0.158323 0.03922 0.02421 0.055381 0.354235 0.182959 0.045265 0.128527 -0.013485 -0.040873 -0.181384 -0.127835 0.172127 0.230735 -0.276374 -0.346612 -0.136404 -0.090828 0.046808 -0.213464 -0.296941 -0.003123 -0.138148 -0.243963 0.168084 -0.005833 -0.204664 -0.057826 -0.005924 0.105772 -0.128583 0.093971 -0.004269 -0.136948 -0.049751 0.126943 -0.216721 -0.304911 -0.205796 0.020403 -0.074256 -0.093411 -0.024072 -0.249923 -0.11442 -0.169054 -0.117027 0.093353 0.066452 -0.045381 -0.167948 -0.134032 0.051679 0.09486 0.045344 0.150013 0.10082 0.118979 0.024173 -0.117474 0.164348 -0.026667 0.087613 -0.01678 -0.161749 0.102818 0.030126 0.121241 0.033928 0.047477 -0.052097 -0.097948 -0.187017 0.103041 0.168466 -0.046209 0.154039 -0.161143 0.253345 0.262142 -0.024316 -0.003652 0.01125 -0.275854 -0.023207
