-0.013663 -0.017904 -0.071069 -0.027412 -0.106277 -0.070689 0.0441 -0.065723 -0.01079 0.138118 -0.010105 0.046432 -0.062129 -0.027962 0.152809 0.006251 -0.00829 0.147524 -0.103551 -0.00816 0.071308 0.113974 0.102471 -0.008174 -0.161043 -0.065183 0.002317 -0.18834 0.018161 -0.012515 0.060593 -0.025239 -0.066279 -0.054458 -0.088463 -0.021271 0.082925 0.065061 0.068101 -0.001538 -0.153881 0.177298 0.18044 0.232386 -0.058677 -0.043418 0.089598 0.123697 -0.141886 -0.079594 0.120406 -0.092358 -0.034454 0.020755 0.097099 -0.083526 -0.08484 -0.007254 0.081385 -0.053535 0.092838 -0.045633 -0.00582 -0.133896 -0.116863 0.062812 -0.018595 0.044284 0.22196 -0.284501 0.085767 0.028283 0.009004 0.002828 -0.042202 -0.188489 -0.105119 0.013402 -0.151123 -0.016756 -0.165417 0.041837 0.081233 0.055275 0.096289 0.166944 0.143259 -0.074497 0.267854 -0.056319 -0.045625 0.071536 -0.032727 0.190066 -0.154213 -0.097282 0.011885 0.062398 0.130281 -0.103205
-0.070971 -0.064854 0.004986 0.061964 -0.103726 0.208108 -0.045402 0.013717 -0.072056 -0.096217 0.147479 0.08622 0.026679 0.006955 0.050267 0.113365 -0.087714 -0.032501 0.012783 -0.035611 -0.166181 0.153913 0.026235 0.137809 -0.181254 -0.096843 -0.020289 0.077251 0.208079 -0.001088 -0.025673 -0.009426 -0.074272 -0.017198 -0.026982 -0.240008 -0.020063 -0.05605 0.171424 0.020122 0.065468 0.015502 0.040366 0.092929 0.011346 -0.051348 0.066473 -0.082357 -0.06156 -0.08698 0.043746 -0.087755 -0.031002 0.114776 -0.256847 -0.026437 -0.155105 -0.029106 0.095888 -0.058717 -0.102588 -0.12305 -0.050077 -0.17907 -0.04543 0.150673 0.163283 -0.022418 0.104048 -0.050214 0.178961 0.100213 -0.031743 -0.00891 0.02628 -0.180775 -0.141311 0.100586 0.057878 -0.12643 0.030562 0.134144 0.179218 -0.040294 0.055233 0.024144 0.026894 -0.047326 0.196354 0.014809 -0.137309 -0.033345 -0.158903 0.130053 -0.097632 0.07278 -0.134722 0.065336 -0.035322 0.008441
2.348851 -1.118456 0.535255 -2.318713 -1.295176 2.93381 -2.488677 1.408933 0.672552 -0.026997 -1.605098 -1.067353 -0.711085 1.250163 -1.107649 0.475185 2.350753 0.51582 0.804093 1.090605 -1.693386 1.706884 3.637485 0.271552 0.196832 0.806744 4.980907 0.941881 -1.376258 0.806884 1.440374 -1.584498 -0.846789 -2.128931 -4.267991 0.684937 -1.142722 -0.700543 -0.622507 -2.716537 -0.625756 -2.176777 0.175916 1.056892 2.485671 -3.678106 0.598156 1.10632 2.001713 -1.225732 0.650643 -1.447553 0.795697 1.248966 -0.278678 0.818459 -1.985958 2.333399 -1.972255 -0.313916 0.535248 0.065246 -0.714916 1.288012 1.943827 -1.131316 -0.070827 -4.945487 0.342118 -0.737292 4.067045 -1.095925 2.097337 2.96895 -1.587785 1.228719 0.916505 2.005538 1.103297 2.70819 2.391287 -0.955374 0.201279 -0.345307 1.289294 -0.089199 -0.33905 1.696818 0.706367 4.877362 -2.507198 0.897742 -0.041461 -0.726144 -2.248198 1.056621 -1.005603 1.658586 0.925063 2.152466
-0.035636 -0.015757 -0.093271 -0.014783 -0.050712 0.074511 -0.149179 -0.077587 0.063881 -0.106911 -0.009087 0.075676 -0.030373 0.055475 0.158823 0.056949 -0.178558 -0.051231 0.095332 0.041111 -0.061973 0.017953 -0.030783 0.136376 0.002489 -0.058247 -0.240395 0.045325 0.186157 -0.031498 0.1444 0.207731 0.093365 0.01169 0.121984 -0.025519 0.058471 0.011826 0.013487 0.022596 0.015362 -0.013321 -0.125329 -0.163358 0.018387 -0.008266 0.001377 0.151883 -0.229754 0.174569 0.026566 -0.170877 -0.002812 -0.059879 0.13222 -0.17876 -0.236173 0.028132 0.005859 -0.085236 0.01505 0.003217 -0.082927 -0.043445 0.007631 -0.175568 -0.143129 0.056721 -0.023693 -0.134086 -0.038923 -0.12767 -0.027667 -0.081474 -0.088191 0.141494 -0.090458 0.187239 0.071642 -0.145236 -0.062672 0.15979 -0.104736 0.032127 -0.021978 -0.110835 0.066442 -0.201514 0.239933 0.178139 -0.043319 -0.119133 0.099078 0.106251 -0.078358 -0.176615 -0.034866 -0.125968 0.092933 -0.166018
2.591633 1.608701 -2.087245 2.00752 3.012652 4.995656 0.847355 -1.594905 -0.365708 -1.629805 -1.650237 3.712017 -0.231463 -0.537534 -2.036098 2.002639 -0.696666 -4.310136 -1.477319 -1.356504 -0.581823 -1.830239 -0.272773 -1.648095 0.090509 0.008711 0.330842 0.396714 2.341035 -0.526067 1.155793 -1.730906 -1.010387 -1.342646 -1.939355 0.734869 0.727366 0.700702 1.516974 -2.133831 -0.280653 -3.051674 0.017123 0.532043 1.478449 0.375441 0.920129 1.548929 1.087478 0.668327 0.707416 3.249232 -0.362503 1.273221 -2.929682 -0.245389 1.633444 -0.119836 0.103459 -3.445175 0.513245 0.427807 0.738792 1.448203 0.501908 0.362882 -0.731533 -0.391201 0.037778 3.053553 4.030229 1.793904 1.24136 0.081706 -1.401954 -0.638804 -0.487445 -0.267924 0.012844 0.538179 -0.241935 -0.068756 1.351665 -0.112558 0.001814 0.447262 0.833441 -0.023876 1.212707 1.514635 -0.568611 0.376173 -3.663739 -4.345135 -0.444319 2.139788 -2.53093 0.92131 -1.399435 1.763954
0.463253 -0.07331 0.395771 -0.968373 -0.440558 0.032104 -0.737681 0.940274 -0.210841 0.227768 0.368569 -0.455817 0.182824 -0.227267 0.773688 0.622304 0.474775 0.177235 -0.165091 -0.047933 0.601783 0.344021 0.792065 0.423881 -0.674448 -0.655323 0.721348 -0.044616 -0.122589 -0.146364 -0.383462 -0.004189 -0.439055 -0.423542 -0.20715 -0.938272 0.067155 0.029115 -0.287882 0.241028 0.582502 0.13384 0.522386 0.600774 0.674138 0.180129 0.473663 0.52911 0.409643 -0.095635 -0.302178 -0.472463 -0.470214 0.95278 0.003854 0.390499 0.385298 -0.024454 0.291012 0.147112 0.631299 0.273945 0.276661 0.120844 -0.546077 -0.139035 0.979782 0.238807 0.293736 0.36964 -0.629599 0.214335 -0.174549 0.764739 -0.10633 -0.1497 -0.978837 -0.479465 0.63208 0.336289 -0.396886 0.356525 -0.424265 -0.678049 -0.201653 -0.780593 -0.431444 0.65849 0.376169 -0.208564 0.326993 0.785941 0.352555 0.319401 0.05889 -0.019652 0.377313 -0.060819 -0.085389 -0.164319
-0.00443 0.053801 0.171883 0.037436 0.091875 -0.049985 -0.061259 0.018293 -0.018753 0.04948 -0.102275 0.110931 -0.017983 0.001615 -0.038213 0.103535 0.054813 0.203222 -0.058295 -0.033153 -0.162456 0.125156 0.119168 0.045521 0.012584 0.05386 -0.012865 0.103216 0.009665 -0.017889 -0.02476 -0.116227 -0.094877 0.067473 -0.095572 -0.115836 -0.011737 0.017661 -0.165083 0.049814 0.040413 -0.014703 -0.071104 0.123747 0.061437 -0.09456 0.012512 0.043251 -0.069186 0.051951 0.070095 -0.034333 -0.083829 9.14E-4 0.162133 0.010283 -0.058851 -0.053029 0.061326 -0.152483 0.081621 -0.141799 -7.21E-4 -0.124627 0.009303 0.017551 0.098706 0.158601 -0.052314 0.002672 -0.05288 -0.029562 0.034918 -0.135081 0.045809 -0.015999 -0.073519 -0.180463 -0.094237 0.032153 -0.065657 0.22689 0.079694 -0.150766 -0.003258 0.041709 0.179164 0.082185 0.119275 0.035789 -0.151634 -0.105825 -0.063874 0.130807 -0.045346 -0.153362 0.064256 0.178022 0.043449 -0.017413
-0.38434 -0.570338 -3.334123 -0.990325 -0.281295 3.633702 1.320934 0.804616 -0.499895 -0.831205 0.460112 1.388349 -2.264975 3.215568 -3.90167 1.353361 -1.448904 -2.546085 -1.024352 -1.734034 -1.344124 0.93203 0.532723 0.23208 -0.507331 0.823317 0.659701 0.36019 1.191168 -0.162178 -0.263719 -1.148898 -0.733443 1.049014 -0.463284 0.424462 1.721949 -2.279087 -0.239497 -3.509027 0.274708 -0.478871 -0.254635 1.092364 -0.333634 -0.504492 -0.065145 -0.538987 0.565458 0.780359 -0.571438 2.952173 0.370658 -0.759209 -2.924849 1.720769 0.511283 1.62778 2.047539 0.727555 2.155394 -1.325505 -0.576841 2.155423 -1.025197 1.359344 -0.744288 -2.504187 -1.775349 1.348846 2.846446 1.640962 1.869469 1.38429 0.797755 -0.790083 2.739745 1.110482 1.051984 -1.114181 2.453474 -0.002451 -1.249565 3.986771 0.736882 -1.32782 1.044597 0.12676 2.039398 0.327395 0.179204 -1.66492 -0.55174 -2.138355 -3.629091 -1.09422 -3.320013 0.282001 -1.758182 -2.017416
0.0 0.0 0.0 0.0 0.0 0.0 0.0 0.0 0.0 0.0 0.0 0.0 0.0 0.0 0.0 0.0 0.0 0.0 0.0 0.0 0.0 0.0 0.0 0.0 0.0 0.0 0.0 0.0 0.0 0.0 0.0 0.0 0.0 0.0 0.0 0.0 0.0 0.0 0.0 0.0 0.0 0.0 0.0 0.0 0.0 0.0 0.0 0.0 0.0 0.0 0.0 0.0 0.0 0.0 0.0 0.0 0.0 0.0 0.0 0.0 0.0 0.0 0.0 0.0 0.0 0.0 0.0 0.0 0.0 0.0 0.0 0.0 0.0 0.0 0.0 0.0 0.0 0.0 0.0 0.0 0.0 0.0 0.0 0.0 0.0 0.0 0.0 0.0 0.0 0.0 0.0 0.0 0.0 0.0 0.0 0.0 0.0 0.0 0.0 0.0
-0.205512 -0.094896 0.204141 0.135572 -0.062015 -0.13849 -0.110294 -0.146397 0.015004 0.266715 0.215874 0.267335 0.023878 -0.060786 0.116823 0.282191 0.00813 0.319295 -6.25E-4 0.090612 -0.064353 0.109159 0.235393 0.084494 -0.22661 -0.230837 -0.079818 -0.205742 0.151457 -0.184743 -0.089032 0.100506 -0.111796 0.216051 -0.17606 -0.25189 -0.095652 0.116041 0.062136 0.02192 0.006396 0.186827 0.025606 -0.140435 -0.045208 -0.072502 -0.12588 -0.082436 -0.209729 0.144714 0.089479 -0.043005 -0.016977 -0.013459 0.080859 0.049896 0.058296 0.027891 0.109425 -0.082129 0.002979 -0.002324 0.093291 -0.157316 -0.143876 -0.045015 -0.009835 0.051106 0.020288 -0.24509 -0.126851 0.044929 0.006407 0.04196 -0.059228 -0.043449 -0.240608 -0.089913 -0.019508 -0.060459 -0.043986 0.289448 0.12426 -0.223622 0.037326 -0.041788 -0.054693 -0.052136 0.201489 0.035009 -0.095142 -0.07922 0.120248 0.094444 -0.004118 -0.263285 0.031667 -0.26414 -0.080049 0.064218
-0.016436 0.106846 0.038226 0.324414 0.16398 0.209703 -0.138034 -0.026677 -0.006013 0.212124 -0.073667 -0.158132 0.030052 0.070473 0.202024 0.13094 -0.163037 0.013565 -0.029242 0.039111 0.004513 -0.062481 -0.14203 0.088125 0.076862 -0.027176 0.064583 -0.070183 0.152562 0.0926 0.074825 -0.100472 -0.059013 0.085193 -0.313848 -0.047543 -0.069689 -0.008532 0.04059 -0.0679 -0.112192 -0.163059 0.043214 0.114021 0.046919 0.124266 -0.115018 0.202927 0.004368 0.175977 -0.010548 -0.045319 0.019082 0.002673 -0.108148 -0.043308 -0.094794 0.038847 0.24706 -0.045001 0.039856 -0.018705 -0.156044 -0.045505 -0.010063 0.039253 0.103696 -0.058107 -0.01178 -0.132062 0.023984 0.040911 0.087385 -0.044935 0.150509 -0.160322 -0.147055 -0.17295 -0.014612 -0.177015 0.091806 0.057364 -0.08362 -0.013008 -0.031419 -0.008723 0.356057 0.041089 0.204544 0.018356 -0.167968 -0.013958 -0.136871 0.226205 0.130104 -0.363835 -0.024232 -0.001731 0.12866 0.123871
-0.049635 -0.103073 0.253887 0.04108 0.052319 -0.05142 -0.189597 -0.011542 0.097531 0.019262 0.114527 -0.061102 -0.133151 -0.113371 -0.033199 0.136072 0.054274 0.349724 0.038691 0.110156 -0.1179 0.163816 0.394264 -0.007222 -0.168843 0.098743 -0.10521 -0.087412 0.040951 -0.188737 0.098713 -0.043611 -0.055949 0.238297 -0.186196 -0.028662 -0.089183 0.183903 -0.066614 -0.103684 -0.131928 -0.00787 0.062976 0.041979 0.043564 0.032857 -0.123864 -0.037007 -0.173638 0.033704 0.18433 -0.12014 -0.10154 0.029101 0.183689 0.042064 0.013369 0.130856 0.0106 -0.243803 0.0724 0.002816 -0.314683 -0.183085 0.034406 -0.088406 -0.045928 -0.022786 -0.071209 -0.081021 -0.196672 0.062834 -0.075166 0.01034 0.069947 0.031525 -0.19813 -0.161053 -0.05765 -0.077149 -0.016348 -0.018007 0.043652 -0.363365 -0.062151 0.006908 0.152125 -0.071699 -0.087589 -0.033835 -0.160873 -0.101492 -0.02442 -0.017106 0.004936 -0.058972 -0.002956 -0.213757 0.042222 0.024238
-0.028158 -0.155861 0.097196 -0.029797 -0.031563 0.048186 0.007258 -0.126619 0.155633 0.113593 0.056362 0.087785 0.183275 0.116435 0.070382 0.188766 0.108617 0.109441 0.009536 -0.038401 -0.09487 -0.076661 0.183908 0.048432 -0.200777 -0.07675 -0.044138 -0.034256 0.202808 0.041543 -0.035275 -0.072242 -0.099544 0.099008 -0.016768 -0.038303 -0.137639 -0.002554 -0.103607 0.084393 0.051266 0.002022 -0.088347 -0.061227 -0.011442 -0.194066 -0.099999 0.087315 -0.189176 0.003783 0.141447 -0.158853 0.013899 0.113198 0.242148 -0.060765 0.062292 -0.056247 0.182379 -0.069505 -0.001684 -0.017653 -0.017127 -0.058228 -0.167764 0.152007 -0.03499 -0.047408 0.021125 -0.185817 -0.05647 -0.033258 0.107854 -0.025336 -0.137158 0.037137 -0.143561 0.062508 -0.14936 0.026198 -0.204457 0.09676 -0.105272 0.04591 -0.055195 -0.033163 -0.111955 0.113739 0.138533 0.056452 -0.018645 -0.204113 0.0964 -0.039579 -0.093072 -0.046043 0.247041 0.060311 -0.004409 -0.158239
-0.082528 -0.064212 -0.010729 -0.060975 -0.121741 0.003902 -0.125039 -0.067659 -0.09772 0.125083 0.269046 0.252586 0.181661 0.124304 0.15263 6.42E-4 0.097032 0.446171 0.14778 0.136863 -0.286537 0.11963 0.268221 -0.121147 -0.241578 0.009919 0.003686 -0.055611 0.211488 0.071087 -0.031238 -0.034732 -0.015155 0.175174 -0.164179 -0.048339 -0.125538 -0.076239 -0.059599 0.10059 -0.187448 0.171007 0.085746 -0.239918 0.042705 -0.046335 0.152883 -0.153089 -0.072962 0.129518 0.232904 0.010133 0.008877 0.066556 0.340862 -0.005533 0.008406 -0.011135 0.128299 0.18791 0.090649 -0.180074 -0.135383 -0.034524 -0.004069 0.088861 0.14446 -0.112324 0.123324 -0.281953 -0.114069 0.148724 -0.308876 0.138988 -0.07451 0.145336 -0.129123 -0.127098 0.096843 0.025043 -0.191211 0.157719 -0.021061 -0.07279 0.139731 -0.017649 0.308315 0.213476 0.065271 0.272695 -0.283882 -0.217726 0.006658 0.154668 -0.004883 0.056016 0.140981 0.06702 0.242504 -0.015766
-0.053603 -0.093806 0.129127 0.014075 -0.098105 0.100069 -0.18867 -0.059743 -0.137765 0.022935 0.044529 0.108985 -0.085451 -0.082304 0.067147 0.361989 0.049177 0.243155 3.13E-4 0.088971 0.013545 0.08807 0.233161 0.087545 -0.027097 -0.112183 0.004422 -0.127545 0.136831 -0.203708 0.015348 -0.185809 -0.005115 0.134667 -0.173785 -0.198679 0.12992 0.069469 -0.017008 -0.059793 -0.065511 0.117003 0.065818 0.053649 -0.014411 -0.154378 8.4E-4 0.038972 -0.104549 0.018623 -0.018957 -0.16084 -0.142669 -0.068021 0.192816 -0.186752 0.082667 -0.097589 0.174349 -0.071412 0.002741 -0.104112 0.015078 -0.100904 0.03533 -0.021101 0.031832 0.100146 0.187045 0.006799 0.087284 -0.036087 -0.056076 -0.030717 0.037828 -0.123221 -0.213425 -0.16389 -0.055578 -0.085777 0.020523 0.093259 0.135718 -0.159565 -0.029669 -0.137468 -0.009441 0.014614 0.126369 0.070727 -0.158955 0.152934 -0.035678 0.010272 -0.013119 -0.079618 0.114285 -0.051805 0.13149 -0.051865
-0.052909 0.025143 0.068653 0.007157 0.011234 0.036372 0.043707 0.054511 -0.053174 -0.043019 0.060511 -0.048646 -0.067574 0.073135 0.180058 -0.067954 0.056104 0.048957 -0.026837 0.017887 -0.066345 0.111809 0.008814 0.042789 -0.081723 -0.231614 -0.054533 -0.042471 0.174947 0.003484 0.075105 -0.05242 -0.102105 0.069054 -0.041269 0.032313 0.116635 5.57E-4 0.085291 0.110494 0.108896 0.042603 -0.056126 0.017715 0.092263 0.169691 0.112594 0.041834 0.060141 0.041644 0.04647 0.064717 -9.63E-4 -0.13351 0.063508 -0.237244 0.079755 -0.099942 0.051928 -0.116207 -0.026734 -0.055449 0.042605 -0.042566 0.040305 0.049141 0.103737 0.088645 -0.117647 -0.164979 -0.036473 -0.052894 0.086874 0.089989 0.129154 -0.122938 -0.022409 -0.039708 -0.120727 -0.078467 -0.016841 0.107075 0.039005 -0.061214 0.127975 0.050425 -0.016271 -0.057088 -0.083193 0.066411 -0.123916 0.0576 0.073208 0.049729 -0.145444 -0.117469 0.03845 -0.056778 -0.005137 0.081234
-0.126763 -0.007244 0.209518 0.22872 -0.154899 0.08556 -0.158226 -0.054954 -0.188031 0.135157 0.005416 0.359482 0.011092 -0.078908 0.069819 0.369186 0.027251 0.212673 -0.10836 0.311945 -0.281437 0.20495 0.373882 0.00656 -0.136297 0.08947 -0.078902 0.0626 0.062968 -0.120948 -0.015883 -0.151859 -0.090268 0.143019 -0.252452 -0.012609 0.238789 -0.124328 -0.05897 -0.176409 -0.095557 -0.101786 -0.064725 0.097764 0.196199 -0.147575 -0.042916 -0.083757 0.119616 -0.081385 -0.062633 -0.245602 0.374432 -0.20598 0.077853 -0.195979 -0.131048 0.032812 -0.139954 -0.25598 0.0013 0.010928 -0.100232 -0.339926 0.071719 -0.180837 0.050545 -0.062113 0.003697 -0.157052 -0.006648 0.07512 -0.153969 0.148023 -0.198236 -0.209862 -0.119786 0.185907 -0.113735 -0.104177 -0.05146 0.074743 0.274753 -0.111478 -0.153747 0.043644 -0.010009 -0.054668 0.171424 0.269183 -0.112329 0.051722 -0.391455 0.134947 0.18401 -0.153149 -0.073198 0.218581 -0.012289 -0.121466
0.171593 -0.085188 -0.005011 0.309169 -0.152905 0.00381 -0.249387 -0.038448 -0.157923 0.037731 0.104605 0.346345 0.244978 0.024678 0.032649 0.310071 -0.065622 0.036396 0.052969 0.124156 -0.043828 -0.06566 0.269065 -0.177152 0.005016 0.077923 -0.302495 0.040821 0.286835 0.001567 0.013001 -0.230026 -0.074903 -0.033747 -0.205199 -0.039013 0.158052 -0.224509 -0.025489 -0.047903 -0.192269 0.165546 0.069635 -0.04257 0.06969 0.085811 0.04252 -0.017744 -0.24138 0.017786 0.049939 -0.111088 -0.074083 -0.048444 0.073146 -0.056241 -0.005692 0.009777 -0.018746 -0.086046 -0.136093 -0.368411 0.058549 -0.057995 0.004658 -0.164634 0.183809 -0.114823 0.198303 -0.19652 -0.183127 0.044565 -0.09434 -0.054044 0.105077 -0.030626 0.03893 -2.26E-4 -0.247097 0.052807 0.04372 0.275303 -0.041172 0.004343 0.04562 -0.052336 0.091936 -0.411318 0.007728 0.266991 0.171496 0.069051 0.089662 0.12008 0.01404 0.091993 0.086905 0.02851 -0.047985 -0.099695
0.0 0.0 0.0 0.0 0.0 0.0 0.0 0.0 0.0 0.0 0.0 0.0 0.0 0.0 0.0 0.0 0.0 0.0 0.0 0.0 0.0 0.0 0.0 0.0 0.0 0.0 0.0 0.0 0.0 0.0 0.0 0.0 0.0 0.0 0.0 0.0 0.0 0.0 0.0 0.0 0.0 0.0 0.0 0.0 0.0 0.0 0.0 0.0 0.0 0.0 0.0 0.0 0.0 0.0 0.0 0.0 0.0 0.0 0.0 0.0 0.0 0.0 0.0 0.0 0.0 0.0 0.0 0.0 0.0 0.0 0.0 0.0 0.0 0.0 0.0 0.0 0.0 0.0 0.0 0.0 0.0 0.0 0.0 0.0 0.0 0.0 0.0 0.0 0.0 0.0 0.0 0.0 0.0 0.0 0.0 0.0 0.0 0.0 0.0 0.0
-0.205512 -0.094896 0.204141 0.135572 -0.062015 -0.13849 -0.110294 -0.146397 0.015004 0.266715 0.215874 0.267335 0.023878 -0.060786 0.116823 0.282191 0.00813 0.319295 -6.25E-4 0.090612 -0.064353 0.109159 0.235393 0.084494 -0.22661 -0.230837 -0.079818 -0.205742 0.151457 -0.184743 -0.089032 0.100506 -0.111796 0.216051 -0.17606 -0.25189 -0.095652 0.116041 0.062136 0.02192 0.006396 0.186827 0.025606 -0.140435 -0.045208 -0.072502 -0.12588 -0.082436 -0.209729 0.144714 0.089479 -0.043005 -0.016977 -0.013459 0.080859 0.049896 0.058296 0.027891 0.109425 -0.082129 0.002979 -0.002324 0.093291 -0.157316 -0.143876 -0.045015 -0.009835 0.051106 0.020288 -0.24509 -0.126851 0.044929 0.006407 0.04196 -0.059228 -0.043449 -0.240608 -0.089913 -0.019508 -0.060459 -0.043986 0.289448 0.12426 -0.223622 0.037326 -0.041788 -0.054693 -0.052136 0.201489 0.035009 -0.095142 -0.07922 0.120248 0.094444 -0.004118 -0.263285 0.031667 -0.26414 -0.080049 0.064218
0.782148 0.522092 0.388398 0.910101 -2.69545 -3.708773 -0.142187 1.316417 -0.473543 -0.430363 1.040311 -0.791252 -0.293084 -0.489302 -1.867248 -1.583134 -0.404347 0.060038 -2.51167 1.103277 2.042293 -0.278641 0.443791 -0.596846 0.08577 1.383039 -0.235977 -2.270094 0.694625 -0.570515 0.467186 -0.868606 -0.266274 0.214637 0.978822 -2.883188 -1.135823 2.511618 1.168302 1.092034 -2.181224 1.56829 -0.524395 -0.427157 1.268707 -0.856272 0.821841 2.201392 1.423815 -0.822434 -0.6781 -1.372734 0.839454 0.226434 -0.156925 0.961836 -0.295409 -1.692343 1.190234 1.303758 2.079341 -0.975949 1.041772 -1.894644 -0.914104 -1.777106 1.358504 1.149409 0.413955 -2.983788 0.308836 -1.583614 -0.622472 -0.184291 0.626314 -1.008195 1.606084 -0.26638 1.401086 -0.892237 -0.037542 1.765005 0.635169 -0.586176 -0.156388 -0.608291 1.565436 -3.38498 0.204289 -0.840589 1.212076 1.235364 -1.327618 2.511278 0.008752 -1.180587 1.805855 -0.250503 1.468355 -1.444725
-0.030975 -0.119828 -0.068391 0.036298 -0.149411 -0.197305 -0.115643 0.028745 -0.033085 0.132124 0.042883 -0.122216 0.238152 -0.021868 -0.197707 0.358728 0.178266 -0.023845 0.027921 0.025295 -0.183817 0.049074 0.259057 -0.131344 -0.026599 0.067541 -0.165656 0.045653 0.199034 0.067111 -0.244006 -0.11794 -0.020271 0.034598 -0.231226 -0.22714 -0.133673 -0.018567 0.110391 0.003405 0.002453 0.0463 -0.026556 0.074211 -0.048956 -0.152661 -0.099589 0.006096 -0.090507 0.305554 -0.014675 -0.165498 0.112265 -0.130296 -0.045954 -0.025105 0.037648 -0.247546 0.074419 -0.079131 0.179603 -0.239562 -0.091572 0.005192 -0.026277 -0.117931 -0.060854 -0.077251 0.117877 -0.120081 0.019705 0.027725 -0.216304 -0.025268 -0.015495 0.153288 -0.112605 0.02708 0.056958 0.083773 -0.014507 0.275444 -0.103032 -0.131826 0.081283 -0.007224 0.091304 -0.03891 0.251566 -0.036378 -0.047287 0.101568 -0.062319 -0.004334 0.06149 -0.027993 0.006234 0.060417 -0.06474 -0.008943
0.236378 -0.109558 -0.051286 -4.56E-4 0.035715 0.067975 -0.186082 -0.039181 0.091922 -0.117329 -0.021496 -0.026273 -0.072023 -0.278368 0.039067 0.187702 -0.1127 -0.100546 -0.002681 -0.19572 -0.017114 0.148367 0.0994 -0.014994 -0.048998 0.130535 -0.08521 -0.16679 0.113715 -0.04078 0.022859 0.122725 0.066807 -0.015058 -0.010479 -0.164136 -0.08403 -0.255454 0.2816 0.033141 -0.200391 -0.123145 0.093885 0.123343 0.05161 0.068868 -0.026749 -0.057034 0.011742 -0.002028 -0.199523 0.003572 -0.078381 -0.144308 0.034983 0.060524 0.225486 0.104327 0.202814 -0.095126 0.013207 -0.177664 -0.011617 0.012026 0.051826 0.021357 0.102085 0.001603 -0.068575 -0.045914 0.013648 0.107157 0.026901 -0.060647 0.14115 0.161635 0.028076 -0.0062 -0.075808 0.031124 -0.071087 -0.001541 -0.020389 -0.129783 -0.107627 0.228216 0.061011 0.067715 0.122987 0.262898 -0.004639 0.139352 0.007932 -0.04108 -0.023801 -0.077868 -0.074274 -0.080422 -0.098064 -0.148581
0.141744 -0.040483 -0.096741 0.390222 -0.103175 0.291878 -0.259177 0.078524 -0.159002 -0.061682 8.6E-5 0.052425 -0.18102 0.250989 -0.091824 -0.186073 0.078304 -0.174973 -0.055498 -0.104365 -0.084372 -0.056761 0.083477 0.00276 -0.209876 -6.22E-4 0.1776 -0.014223 1.5E-5 -0.10382 -0.082177 0.065234 0.109736 0.126368 -0.238175 -0.231031 0.183348 0.176215 -0.065082 -0.173175 0.168425 0.105798 0.040641 0.12718 0.270887 -0.165564 0.059123 -0.151945 0.238444 -0.15728 -0.156618 -0.163982 0.219894 0.209075 -0.016883 -0.345645 0.301152 0.147641 0.088285 -0.273632 0.178734 -0.222134 0.169265 -0.019733 -0.360421 -0.223472 0.058051 -0.067041 -0.006133 -0.122804 0.082136 -0.101458 0.240797 0.045184 -0.12789 -0.112891 -0.109213 0.10267 -0.352887 0.220185 -0.042638 0.027459 0.087041 -0.143521 0.134431 0.108537 0.102341 -0.026008 0.223289 0.016505 -0.297317 -0.06962 -0.29063 0.157356 0.081952 -0.095827 -0.073615 0.058865 -0.354559 0.20787
0.0 0.0 0.0 0.0 0.0 0.0 0.0 0.0 0.0 0.0 0.0 0.0 0.0 0.0 0.0 0.0 0.0 0.0 0.0 0.0 0.0 0.0 0.0 0.0 0.0 0.0 0.0 0.0 0.0 0.0 0.0 0.0 0.0 0.0 0.0 0.0 0.0 0.0 0.0 0.0 0.0 0.0 0.0 0.0 0.0 0.0 0.0 0.0 0.0 0.0 0.0 0.0 0.0 0.0 0.0 0.0 0.0 0.0 0.0 0.0 0.0 0.0 0.0 0.0 0.0 0.0 0.0 0.0 0.0 0.0 0.0 0.0 0.0 0.0 0.0 0.0 0.0 0.0 0.0 0.0 0.0 0.0 0.0 0.0 0.0 0.0 0.0 0.0 0.0 0.0 0.0 0.0 0.0 0.0 0.0 0.0 0.0 0.0 0.0 0.0
-0.023299 -0.059558 0.020469 -0.086495 -0.014473 -0.138302 -0.099354 0.026067 -0.009335 0.161124 0.026556 -0.05745 -0.194786 -0.073646 -0.030664 -0.012444 0.1506 0.147447 0.095032 0.040854 0.121791 -0.00323 -0.063939 -0.017265 -0.114453 -0.101288 0.219831 -0.007122 0.03117 0.092351 -0.115109 0.024215 -0.220573 0.102365 0.081954 -0.012527 -0.1198 0.162827 0.140341 -0.041465 -0.014892 -0.01857 0.10617 0.103566 0.115402 -0.164955 0.052006 -0.178919 0.020774 0.027015 0.033882 0.0351 0.125165 -0.010412 0.002167 0.068858 -0.043557 0.066641 -0.019157 0.01184 0.033287 -0.040263 -0.007286 -0.095544 -0.120651 0.028981 -0.006284 0.070683 -0.036195 -0.005551 0.153976 0.081721 0.018687 -0.076935 0.040381 0.069793 -0.022882 0.025131 0.023094 0.09055 -0.010956 0.091614 0.001344 -0.025279 0.028124 -0.09985 0.072338 -0.062287 0.053289 -0.172007 -0.073753 0.123463 -0.08967 -0.022489 8.12E-4 -0.131099 0.06435 -0.113402 0.032862 -0.071147
1.345746 0.134557 0.873839 1.800028 -0.30878 -0.710826 0.098041 -1.247373 -1.478639 0.071843 -0.593056 0.298533 -0.396187 0.356895 0.713553 0.183653 -0.499721 -1.239624 -1.065204 0.332916 0.66341 -0.927825 0.697273 0.285176 -0.339681 -0.523031 -0.56583 -0.202 0.221508 -1.084145 -1.436853 -1.3303 1.705253 0.729498 -1.060948 1.156912 1.330614 -1.851225 -0.407096 -1.080799 -1.226939 -0.734824 0.120493 -0.658607 0.637496 -1.087993 -1.66422 0.386623 1.039135 -0.866984 -0.466746 -1.882714 1.185095 0.344562 0.907526 0.258158 -0.275699 -0.845931 -0.876245 -0.645898 -0.925368 -1.287583 2.247251 -0.516901 2.135078 -0.347357 0.73926 -0.123141 0.566098 1.34794 1.689123 -1.129781 1.103242 0.48468 -0.73963 -0.830265 1.46007 0.743721 0.20127 -1.511472 0.687053 1.131387 0.4022 -0.233966 -0.010856 -0.32816 -0.763808 0.70985 -0.044328 -0.170285 0.390256 -0.09847 -0.065611 0.139256 -2.093562 0.706362 -1.499053 -0.239634 -0.526009 -1.029635
0.178082 0.060323 0.037833 -0.053758 -0.05591 -0.08879 -0.042174 -0.019332 -0.132229 0.228393 0.063475 0.136409 -0.103854 -0.222512 -0.131731 -0.154364 0.130993 0.07735 0.123875 0.183821 -0.061481 -0.023669 0.086714 0.160833 0.112938 -0.00962 -0.132832 0.015204 0.059345 -0.03265 -0.082968 -0.116733 0.057423 -0.035472 -0.088349 0.039079 -0.013371 -0.001028 0.061477 0.026395 0.052495 0.308904 0.021164 0.110413 0.275802 0.106905 -0.131247 -0.114229 0.046142 -0.081526 0.024181 -0.208759 -0.014255 -0.007145 -0.084815 0.039302 -0.053243 0.034192 -0.106291 0.036015 0.078423 -0.303389 0.077602 -0.111346 0.069214 -0.028495 0.098585 -0.040384 0.095189 -0.085789 0.048461 -0.279431 -0.158577 0.283287 -0.082559 -0.144029 0.001373 0.027466 -0.179297 -0.063509 -0.242353 -0.012414 -0.022166 0.04988 -0.020103 -0.026501 0.06446 -0.184947 0.145305 0.280928 0.10496 -0.027152 -0.045296 0.029988 0.029166 0.148048 0.036607 -0.132253 0.007043 -0.279995
0.352905 0.550922 -1.128945 -0.511125 0.774489 1.405335 -0.371647 0.106012 -0.779785 -0.640302 -0.68578 1.570717 -0.712288 -0.706705 -0.789609 -0.045278 -1.599722 -2.840112 -0.089543 -1.158838 -1.862605 -0.62748 -0.063542 -0.468696 0.750564 0.033551 -0.772222 -0.188991 -0.163115 0.455978 0.038455 -0.779588 0.172303 -1.114448 -0.548246 -0.008155 1.66721 -0.744821 -0.15746 -2.668482 -0.304702 -0.905716 0.479063 0.151803 -0.94063 -0.044338 -0.906122 -0.456182 0.281891 0.268287 0.47007 0.628019 0.328428 1.471286 -2.345457 0.072073 -0.345477 -0.998199 -1.496897 -0.053061 0.351206 -0.934426 0.295591 0.07336 0.24092 0.486976 0.390085 -0.621556 0.375246 -0.02625 1.957847 1.014101 0.004675 0.08874 -0.900479 -0.462149 0.922254 1.355385 -1.048724 0.105897 1.254466 0.410718 0.321258 1.066395 -0.171761 -0.128774 0.315556 0.697301 -0.180925 0.555334 1.005586 -0.891677 -1.232923 -1.994189 -0.567812 0.204184 -0.947385 -0.051526 -0.987029 0.725141
0.094813 0.117309 -0.001274 0.152066 -0.064586 -0.141143 -0.023825 0.02196 0.020262 -0.061845 -0.268483 0.077498 -0.008761 -0.09925 -0.096639 0.135279 -0.048213 0.033862 0.085887 0.109258 0.142124 -0.249674 -0.043441 -0.075167 -0.023964 0.143121 -0.041322 0.0441 0.167735 -0.156285 0.106829 0.180057 0.130779 -0.042515 -0.165895 0.058004 -0.066892 -0.087366 0.020009 -0.081486 -0.031855 0.097811 -0.017519 0.076865 0.111324 -0.089961 -0.150683 0.061799 0.078692 0.099306 0.098633 0.124768 -0.024231 0.032065 -0.052224 -0.222714 0.068721 0.137627 -0.222517 -0.092256 -0.033699 -0.205046 0.115193 -0.30744 0.051257 0.116453 0.045021 -0.105204 -0.010987 0.048304 0.049788 -0.047717 -0.221061 -0.021706 -0.009274 0.085995 0.025494 0.147942 -0.294596 -0.020253 -0.034498 0.070121 0.049284 -0.009881 0.02326 -0.072956 0.134654 -0.079613 -0.073377 0.042196 -0.017164 -0.072544 -0.014649 -0.066976 -0.026034 -0.058362 0.194931 0.16323 0.029312 -0.025253
0.247328 -0.102554 0.042737 -0.052897 -0.228985 -0.136291 -0.212807 0.051113 -0.128825 0.116673 0.056588 0.200556 -0.122152 0.073058 0.187568 0.013268 0.072224 0.009512 0.05753 0.186516 -0.192723 -0.078876 0.067419 -0.005001 -0.093222 -0.028071 -0.072405 0.15937 0.328059 -0.136584 -0.107481 -0.194231 -0.259715 0.04193 -0.079565 0.036019 0.316396 -0.058969 -0.070916 0.090081 -0.129062 -0.069802 0.044042 0.086705 0.107116 0.078673 0.064876 0.016296 -0.024669 0.058148 -0.31018 -0.165408 -0.136523 0.027775 0.200088 0.128773 0.084056 -0.030931 -0.033076 -0.074887 0.192327 -0.275528 -0.107002 -0.043918 0.070016 0.057016 0.008411 0.030185 0.12011 -0.122443 -0.128786 -0.089767 0.029318 0.020281 0.016305 -0.100551 -0.025685 0.095338 -0.096595 -0.086516 0.019551 -0.098789 0.060221 -0.150248 -0.0823 0.065692 -0.126437 -0.00211 0.24621 0.052308 -0.072763 0.039321 0.125525 0.077287 0.081152 0.010417 0.259859 -0.206685 -0.009872 -0.099053
0.132615 -0.067738 0.144921 -0.070652 0.285714 0.009219 -0.149162 -0.011606 -0.279423 -0.076516 -0.049189 0.125755 0.012283 0.14469 0.10283 0.080149 -0.220533 0.163791 0.085609 0.080021 0.116158 0.195278 0.0559 -0.091269 -0.209908 -0.140602 0.044022 0.004846 -0.053479 -0.086002 -0.061676 -0.119705 -0.054719 -0.094517 -0.07982 -0.177671 0.07156 0.149193 0.079411 0.099143 -0.131442 0.044631 0.001847 0.078508 -0.120107 -0.012578 -0.074565 0.035564 -0.059714 -0.047986 -0.063732 0.03986 -0.122845 -0.135855 -0.074361 -0.166091 0.33802 -0.172756 0.019881 0.09711 -0.033975 -0.088392 0.006303 0.085869 -0.124851 -0.005417 -0.177558 0.05514 0.036664 0.147545 0.101387 0.003954 0.120145 -0.074756 -0.038315 0.124689 0.052326 0.152487 -0.177587 0.076794 0.087322 0.072746 -0.151492 -0.118139 -0.041269 -0.16844 0.096218 0.145533 0.062196 0.102882 -0.127923 0.003111 -0.064313 0.141061 0.063924 0.055305 -0.013763 0.055272 -0.068272 0.038454
1.519526 1.445578 -1.609499 2.582747 2.460795 3.529971 0.431498 -0.524736 0.238502 0.565084 -2.150664 2.607871 -3.578636 0.22885 1.205379 0.400126 -2.365878 -2.228676 -0.500047 -1.958516 -2.734259 -2.028213 -0.339577 -2.726884 0.003785 -1.85554 -0.90189 1.042933 0.930181 0.561229 0.956561 0.220468 -1.219533 -0.188243 -0.649085 -0.117874 2.101841 -0.317004 1.300647 -1.49228 0.533457 -2.976113 -0.635474 -1.431524 -0.943268 0.543614 -2.072507 -1.004219 4.072807 -1.496014 2.612373 2.458477 -0.120651 0.418572 -2.53177 0.646754 2.04053 2.0667 -2.403623 -3.037353 -1.289071 1.269349 0.447478 0.512568 0.464348 -0.142416 -1.155552 0.32258 -0.986119 3.909852 3.839548 0.865499 -1.089316 -1.400134 0.517204 -3.398406 -0.576028 -0.612853 -0.573641 -1.979957 1.278503 1.159562 0.583915 -0.210028 0.851463 1.075476 2.276915 0.114312 2.2836 1.968815 1.899569 0.001135 -2.286771 -2.666814 -1.408445 1.975128 -0.085175 1.44887 -1.994305 2.796178
-0.079705 -0.00982 0.048693 -0.031077 0.102375 0.014261 -0.166017 -0.050237 -0.142458 0.216548 0.052275 0.183186 0.074702 0.07403 0.187212 -0.002286 0.148544 0.284238 0.204104 0.131839 0.102347 0.10251 0.132246 0.006668 0.039868 -0.191978 0.007489 -0.22714 -0.076693 0.053087 -0.225312 0.092043 -0.072434 0.025744 -0.060089 0.053958 -0.064263 0.116749 -0.00591 -0.001093 0.049946 0.192275 0.124727 0.120368 0.055669 0.050612 0.100146 0.054321 -0.093042 0.098358 -0.004394 -0.025176 0.003648 0.056023 0.273264 -0.069858 0.168579 0.040079 0.092591 -0.01619 -0.036516 -0.049934 0.041822 -0.136447 -0.118666 -0.069571 0.078213 0.095838 -0.068948 0.048359 -0.080978 -0.225815 -0.053206 0.034585 0.152497 -0.218659 -0.026619 0.044708 0.071186 -0.108052 -0.136472 0.057954 -0.001526 -0.134722 -0.017998 -7.9E-4 0.044567 -0.069105 -0.085579 -0.029555 -0.181781 -0.104784 0.00824 0.009907 -0.066423 -0.12315 0.21492 -0.069621 -0.041674 -0.088963
-0.205512 -0.094896 0.204141 0.135572 -0.062015 -0.13849 -0.110294 -0.146397 0.015004 0.266715 0.215874 0.267335 0.023878 -0.060786 0.116823 0.282191 0.00813 0.319295 -6.25E-4 0.090612 -0.064353 0.109159 0.235393 0.084494 -0.22661 -0.230837 -0.079818 -0.205742 0.151457 -0.184743 -0.089032 0.100506 -0.111796 0.216051 -0.17606 -0.25189 -0.095652 0.116041 0.062136 0.02192 0.006396 0.186827 0.025606 -0.140435 -0.045208 -0.072502 -0.12588 -0.082436 -0.209729 0.144714 0.089479 -0.043005 -0.016977 -0.013459 0.080859 0.049896 0.058296 0.027891 0.109425 -0.082129 0.002979 -0.002324 0.093291 -0.157316 -0.143876 -0.045015 -0.009835 0.051106 0.020288 -0.24509 -0.126851 0.044929 0.006407 0.04196 -0.059228 -0.043449 -0.240608 -0.089913 -0.019508 -0.060459 -0.043986 0.289448 0.12426 -0.223622 0.037326 -0.041788 -0.054693 -0.052136 0.201489 0.035009 -0.095142 -0.07922 0.120248 0.094444 -0.004118 -0.263285 0.031667 -0.26414 -0.080049 0.064218
2.01044 1.232296 -2.549912 -2.032197 2.108218 0.350754 3.984176 -0.781111 1.754388 -2.314295 2.355634 -1.525834 1.226472 -1.541329 -3.304575 2.991044 -1.391115 -2.323146 -2.15385 -2.980392 2.344315 -2.676041 1.909837 -5.523956 -1.061176 -1.804773 -0.560027 -2.255916 -1.094577 -1.063408 0.662731 -2.102897 -3.864523 -7.571391 -1.344896 0.094571 0.367136 1.570184 0.648031 -0.688728 -0.946578 -0.092235 -2.489474 -1.986418 -1.624544 2.498297 1.250083 -1.068359 1.883808 -2.927913 -1.745434 -2.058515 -0.512999 0.410537 1.644372 -2.957222 1.082306 2.233394 3.431873 -2.073999 1.844186 -1.494935 0.390434 1.564615 -2.929395 -0.086005 -1.048035 -6.680551 1.315066 2.524979 4.404657 4.649625 1.632009 -3.155071 -4.040797 -1.548602 1.77773 -0.139533 -0.426028 0.428942 0.053434 -1.593569 3.168037 1.766949 4.17124 2.646524 2.776018 3.211581 -0.17617 -0.149054 -1.677979 1.48727 -4.970527 -4.785122 -2.199308 0.014736 -3.178869 1.436958 -1.954018 -3.116458
2.564838 2.944327 -0.46659 1.214122 1.53197 0.925082 -0.519545 0.281412 -2.545102 1.74456 1.849219 -0.89195 1.120815 0.973538 2.022879 4.666583 -0.394636 -3.850543 -1.742644 0.448864 -0.08918 -2.463011 0.239167 0.588363 3.019687 -0.308986 0.272118 0.946405 1.144827 0.360637 2.711016 0.593794 2.900948 1.982387 0.31 -3.654342 5.381555 -3.934709 0.486999 0.215398 -0.246637 -6.495167 1.059066 -0.229008 4.361426 0.276029 0.54648 1.193341 3.179735 2.481158 3.911246 4.590344 -1.450665 0.158972 -2.655237 0.021886 2.84179 3.244385 -0.149399 -2.663898 -1.455794 -3.00571 0.746429 -1.790654 -0.577277 0.16391 0.328085 2.127652 0.032985 -0.051354 -0.62155 0.535529 -1.387627 2.982611 0.997136 -0.035349 -2.882978 0.962121 -1.46305 -0.076119 1.850097 -0.905466 -2.447642 0.61366 2.354732 -1.94614 0.762202 0.884332 0.478735 -1.656505 2.364273 -0.454621 1.060318 -0.264898 1.934866 2.928277 2.64633 0.135086 -1.211353 -0.59279
-0.099779 -0.088851 -0.036921 0.088425 -0.040922 0.072369 -0.154586 0.011688 -0.007618 0.076278 0.089523 0.224786 0.062236 -0.233317 0.06423 0.133326 -0.132016 0.100983 -0.096608 0.02889 -0.116602 0.025416 0.115793 0.091144 -0.181606 0.01795 -0.140598 -0.079933 0.06915 -0.108515 0.060402 0.033142 -0.039611 0.073342 -0.337017 -0.119071 0.154116 0.004965 0.122293 -0.024123 -0.094374 0.202871 0.064663 -0.093456 -0.016288 -0.107149 -0.02292 -0.015554 -0.210102 0.17543 0.117124 -0.187922 0.003764 0.002373 0.07756 -0.167652 0.007686 -0.033869 0.020928 -0.055266 0.082302 -0.15228 0.001255 -0.170724 0.066994 0.10561 0.053247 0.006181 0.130398 -0.056247 0.049538 0.055487 0.010175 0.04748 0.065952 -0.050069 -0.103701 -0.065108 -0.023664 -0.057811 -0.024543 0.009046 0.093955 -0.110368 -0.096206 -0.04799 0.09091 0.135345 0.033909 0.149976 -0.22925 0.022657 -0.119194 0.012082 -0.17202 0.012624 0.055093 0.005004 -0.105271 -0.143153
-0.068454 -0.122863 0.134262 0.083716 -0.146457 -0.05854 -0.046249 0.145899 -0.070309 0.010732 0.090118 0.029646 -0.134044 0.011502 0.13797 0.056779 -0.07073 0.176961 0.006425 -0.153893 -0.009753 0.0856 0.130737 0.060926 -0.08509 -0.0078 0.032945 0.025603 0.032755 -0.111281 4.93E-4 -0.017962 0.032708 0.128146 -0.085697 0.05081 0.0276 0.03696 0.01402 0.060028 -0.124086 0.028109 -0.015197 0.122354 0.089105 -0.142934 -0.046646 -0.03136 -0.088624 -0.018623 0.176395 0.059223 -0.037748 0.092775 0.211408 -0.085361 -0.007459 -0.099707 -0.09085 0.010112 0.047779 -0.174533 -0.067544 -0.18185 0.006312 -0.081968 0.046034 -0.073605 -0.048238 -0.084453 0.091696 0.038272 0.057807 0.027356 0.14928 -0.024513 -0.009631 -0.031003 -0.064339 0.046794 -0.17687 0.056175 -0.018763 -0.084626 0.021903 -0.031887 -0.026426 -0.017246 0.052909 -0.04163 -0.017914 -0.010917 -0.015599 0.164133 -0.056038 -0.053381 0.088108 0.022985 -0.007861 -0.03771
0.076366 -0.113758 0.198914 -0.086313 0.036109 -0.067986 -0.2657 0.029907 -0.078939 0.256784 -0.058089 0.126061 0.004952 -0.008668 0.170726 0.179781 0.090461 0.284357 -0.096045 0.316709 -0.022347 -0.010218 0.134477 -0.097373 0.001973 0.184655 -0.172801 0.046019 0.032277 -0.2827 0.12387 -0.093307 -0.090799 0.140858 0.001926 -0.171345 -0.002987 -0.154995 -0.091065 0.096881 -0.072253 0.127105 -0.112285 -0.077252 0.029511 -0.013843 -0.137983 -0.104437 0.08774 0.225358 0.044083 -0.154899 -0.083061 0.174348 -0.032597 -0.08616 0.030219 -0.170082 -0.125118 -0.198104 0.089416 -0.044511 0.074327 -0.147045 -0.011408 -0.13262 0.039725 -0.147556 0.035978 0.044765 0.056961 -0.022516 -0.017659 -0.012649 0.061245 -0.001877 0.105214 0.091813 0.189283 0.02412 -0.046732 -0.043772 -0.182393 0.002609 0.097663 0.039182 0.191466 -0.181607 0.037817 0.094593 -0.19255 0.094633 0.003271 0.033055 -0.051123 -0.221446 0.190835 0.054897 -0.1195 0.12647
0.0 0.0 0.0 0.0 0.0 0.0 0.0 0.0 0.0 0.0 0.0 0.0 0.0 0.0 0.0 0.0 0.0 0.0 0.0 0.0 0.0 0.0 0.0 0.0 0.0 0.0 0.0 0.0 0.0 0.0 0.0 0.0 0.0 0.0 0.0 0.0 0.0 0.0 0.0 0.0 0.0 0.0 0.0 0.0 0.0 0.0 0.0 0.0 0.0 0.0 0.0 0.0 0.0 0.0 0.0 0.0 0.0 0.0 0.0 0.0 0.0 0.0 0.0 0.0 0.0 0.0 0.0 0.0 0.0 0.0 0.0 0.0 0.0 0.0 0.0 0.0 0.0 0.0 0.0 0.0 0.0 0.0 0.0 0.0 0.0 0.0 0.0 0.0 0.0 0.0 0.0 0.0 0.0 0.0 0.0 0.0 0.0 0.0 0.0 0.0
0.476378 -2.398494 -0.560644 0.116902 -3.166577 1.750825 0.557415 3.825001 2.021202 -3.46985 -0.224522 0.723565 1.211689 0.774481 0.591119 -0.631797 -0.742991 2.8141 1.090479 -0.31157 -2.629898 -0.637858 1.368883 -2.516235 -0.121026 0.98251 0.991725 0.625757 -0.549937 1.316177 1.981874 -0.839984 1.278648 0.604092 -2.136075 0.767658 -2.090558 -1.855653 -0.457985 -2.486826 -0.532468 1.156204 0.824 -2.856746 1.156796 -0.591936 -3.11884 2.442345 0.668053 0.816407 -1.873352 1.043131 -1.389888 3.096051 1.855731 1.716737 -1.963019 -0.156193 -0.903513 -0.670569 0.165326 -0.162238 -2.438075 1.652108 -0.09286 -3.082249 -0.214406 -1.292232 0.53253 0.57154 1.8191 0.909282 -1.451904 -0.436306 -1.769888 0.27202 0.971242 1.767586 -0.986737 1.468257 0.630717 -0.661654 1.743384 2.114385 0.617348 1.229519 0.690309 -0.093898 -0.119383 0.94523 -2.952701 -1.370866 0.559817 2.046742 0.03758 2.929903 -0.854203 -0.194977 -0.214709 1.327659
-0.291391 0.060523 -0.163534 0.210879 0.1675 -0.124544 0.144838 0.050661 -0.017412 -0.154219 -0.350651 -0.042905 -0.112551 -0.089438 0.020317 -0.018041 0.032086 0.295277 0.075539 0.224657 0.165011 0.423483 0.005446 0.321572 -0.315377 0.074817 -0.069579 -0.370229 0.063184 -0.220766 -0.343464 0.248694 0.212027 -0.159305 -0.104382 -0.146499 0.26392 -0.130706 -0.267577 -0.087657 -0.142625 0.287614 0.155334 0.283975 -0.031271 -0.117938 -0.072475 0.167764 0.006388 0.22726 -0.019293 0.042419 -0.372839 0.138968 0.058396 -0.408124 0.057249 0.172226 0.214483 -0.103567 0.237162 0.163614 -0.136641 -0.181139 -0.386282 0.017281 -0.03439 0.012136 -0.067224 0.030285 -0.097461 -0.094355 0.315612 -0.304506 0.17134 -0.288562 0.036809 0.128123 -0.192751 0.039467 0.389782 0.133798 0.327385 0.322564 0.203929 0.152772 -0.186859 0.003278 -0.211718 -0.094498 -0.290236 -0.602347 0.032057 0.285309 -0.090632 -0.022249 -0.065578 -0.048532 -0.37216 0.196498
-0.167142 -0.075249 0.16228 0.014654 -0.020144 -0.014525 0.064616 -0.018021 0.002987 -0.007289 -0.094616 0.299456 0.117598 -0.013693 0.183126 0.066121 0.206436 0.105017 0.266691 0.104005 -0.280557 0.113826 0.112086 0.096181 -0.123514 -0.218567 0.034737 -0.030827 0.280074 -0.17804 -0.066632 -0.00593 0.02207 -0.120512 0.009723 -0.103549 -0.163101 -0.237007 -0.22011 -0.206075 -0.031176 0.127489 -0.092974 -0.133639 0.107288 -0.132275 0.186772 0.183464 0.119204 -0.083503 -0.069756 -0.081639 -0.214536 0.003591 0.074463 -0.106142 0.267766 -0.02384 0.055391 0.044789 0.009902 0.068181 0.038142 -0.070977 -0.057433 -0.115265 0.13617 0.12995 0.124269 -0.027972 -0.143502 0.05691 0.05872 0.11724 -0.005476 0.04316 -0.098796 0.007001 0.149012 0.0112 -0.169593 -0.125788 0.240301 0.070454 -0.073774 -0.084144 -0.073304 0.109806 0.077586 0.24538 -0.045186 -0.142804 0.223359 0.037944 0.042961 0.053033 0.128921 -0.039414 -0.089161 0.038838
0.0 0.0 0.0 0.0 0.0 0.0 0.0 0.0 0.0 0.0 0.0 0.0 0.0 0.0 0.0 0.0 0.0 0.0 0.0 0.0 0.0 0.0 0.0 0.0 0.0 0.0 0.0 0.0 0.0 0.0 0.0 0.0 0.0 0.0 0.0 0.0 0.0 0.0 0.0 0.0 0.0 0.0 0.0 0.0 0.0 0.0 0.0 0.0 0.0 0.0 0.0 0.0 0.0 0.0 0.0 0.0 0.0 0.0 0.0 0.0 0.0 0.0 0.0 0.0 0.0 0.0 0.0 0.0 0.0 0.0 0.0 0.0 0.0 0.0 0.0 0.0 0.0 0.0 0.0 0.0 0.0 0.0 0.0 0.0 0.0 0.0 0.0 0.0 0.0 0.0 0.0 0.0 0.0 0.0 0.0 0.0 0.0 0.0 0.0 0.0
-0.291391 0.060523 -0.163534 0.210879 0.1675 -0.124544 0.144838 0.050661 -0.017412 -0.154219 -0.350651 -0.042905 -0.112551 -0.089438 0.020317 -0.018041 0.032086 0.295277 0.075539 0.224657 0.165011 0.423483 0.005446 0.321572 -0.315377 0.074817 -0.069579 -0.370229 0.063184 -0.220766 -0.343464 0.248694 0.212027 -0.159305 -0.104382 -0.146499 0.26392 -0.130706 -0.267577 -0.087657 -0.142625 0.287614 0.155334 0.283975 -0.031271 -0.117938 -0.072475 0.167764 0.006388 0.22726 -0.019293 0.042419 -0.372839 0.138968 0.058396 -0.408124 0.057249 0.172226 0.214483 -0.103567 0.237162 0.163614 -0.136641 -0.181139 -0.386282 0.017281 -0.03439 0.012136 -0.067224 0.030285 -0.097461 -0.094355 0.315612 -0.304506 0.17134 -0.288562 0.036809 0.128123 -0.192751 0.039467 0.389782 0.133798 0.327385 0.322564 0.203929 0.152772 -0.186859 0.003278 -0.211718 -0.094498 -0.290236 -0.602347 0.032057 0.285309 -0.090632 -0.022249 -0.065578 -0.048532 -0.37216 0.196498
-0.671963 -1.356401 3.602218 0.823366 -0.502176 -0.026847 2.688116 0.953721 0.412325 -0.074957 -2.563688 0.379861 -0.279054 0.512633 -0.426346 -0.669122 -2.193019 -1.985633 1.195718 -0.843091 -3.07709 -2.336138 0.676971 -1.157188 0.84245 -0.067074 1.662677 -0.902702 0.573933 0.762577 1.605777 -0.494156 -0.764054 -4.857189 1.199538 0.081996 1.582965 -1.800896 1.133021 -2.874443 -0.067305 0.527258 -0.963475 2.056148 -0.810059 -2.590427 0.192699 -0.925293 0.533123 0.50128 0.198265 1.047486 -1.15476 -0.133629 -3.660616 2.9145 0.67414 -1.747608 -1.472014 0.506851 -0.089567 -1.009712 -0.989767 -0.231732 -1.20197 -0.899847 -0.180586 -0.280434 1.214359 0.601947 3.002038 1.452004 1.898121 0.64863 -0.773459 -0.546508 1.482508 0.349815 -0.022055 1.977613 1.349274 -0.187718 2.026595 2.419264 -2.256871 -0.764584 -0.110956 2.609596 -0.511332 0.497735 1.205947 -0.553892 0.146347 -2.201324 -0.117853 -0.193777 0.312823 3.388883 -4.036498 2.412019
-0.070971 -0.064854 0.004986 0.061964 -0.103726 0.208108 -0.045402 0.013717 -0.072056 -0.096217 0.147479 0.08622 0.026679 0.006955 0.050267 0.113365 -0.087714 -0.032501 0.012783 -0.035611 -0.166181 0.153913 0.026235 0.137809 -0.181254 -0.096843 -0.020289 0.077251 0.208079 -0.001088 -0.025673 -0.009426 -0.074272 -0.017198 -0.026982 -0.240008 -0.020063 -0.05605 0.171424 0.020122 0.065468 0.015502 0.040366 0.092929 0.011346 -0.051348 0.066473 -0.082357 -0.06156 -0.08698 0.043746 -0.087755 -0.031002 0.114776 -0.256847 -0.026437 -0.155105 -0.029106 0.095888 -0.058717 -0.102588 -0.12305 -0.050077 -0.17907 -0.04543 0.150673 0.163283 -0.022418 0.104048 -0.050214 0.178961 0.100213 -0.031743 -0.00891 0.02628 -0.180775 -0.141311 0.100586 0.057878 -0.12643 0.030562 0.134144 0.179218 -0.040294 0.055233 0.024144 0.026894 -0.047326 0.196354 0.014809 -0.137309 -0.033345 -0.158903 0.130053 -0.097632 0.07278 -0.134722 0.065336 -0.035322 0.008441
-0.063002 -0.234083 0.048008 -0.021485 0.118425 -0.069097 -0.089614 0.015575 -0.088887 0.008327 0.207637 0.145627 0.039454 -0.145483 0.089805 0.196481 -0.026693 0.037297 0.038377 -0.023252 -0.091593 0.155254 0.091762 0.050857 -0.144125 -0.075574 0.049194 -0.032084 0.088898 -0.067973 -0.157209 -0.065605 -0.063939 0.138195 -0.158256 -0.04692 0.110173 -0.083955 0.114583 -0.018865 -0.089491 -0.035668 -0.039526 -0.115205 0.064068 0.002368 -0.123687 -0.024408 -0.086747 -0.035676 0.106402 -0.137065 -0.237056 -0.05544 0.044405 -0.024529 -0.050672 -0.058347 0.091211 -0.044203 0.049511 -0.047131 -0.007296 -0.041396 -0.197592 0.039256 0.094077 0.002507 0.045318 -0.030448 -0.002259 0.129894 0.004666 -0.055742 0.17851 -0.088069 -0.097555 -0.041865 -0.069832 -0.013662 0.134387 0.047405 0.029899 -0.225063 -0.109655 -0.168055 0.098443 0.06128 0.226794 0.174187 -0.15428 5.93E-4 -0.052234 -0.024077 0.128116 -0.13384 -0.03913 0.070803 -0.065908 0.038777
-0.003094 -0.167835 0.414167 0.20214 0.021192 0.110874 -0.142571 -0.037466 0.106848 0.210642 -0.104314 0.368307 -0.180382 0.077357 0.178098 0.279879 0.11783 0.088282 -0.24772 -0.115248 -0.054334 0.134777 0.26336 0.082243 -0.293855 -0.028461 3.44E-4 -0.063758 0.311569 -0.233804 0.127595 -0.011127 -0.128887 0.041042 -0.086175 -0.074408 0.088104 0.068682 0.046454 -0.047408 -0.036691 -0.110982 -0.019407 -0.186861 0.082029 -0.006638 -0.113443 -0.147593 -0.01641 0.094933 0.118614 -0.043671 0.018239 -0.413848 0.281094 0.152042 -0.042809 0.166658 -0.018005 -0.05191 -0.023496 0.119143 -0.092649 -0.042531 0.058689 -0.124429 -0.030609 0.011888 -0.002563 0.032041 0.205577 0.076755 0.032821 0.085427 -0.127106 -0.219912 -0.095765 0.089966 -0.089799 -0.123091 -0.053708 0.014194 0.133849 -0.209805 -0.029523 0.050832 -0.087862 -0.109852 0.313246 0.164122 -0.114575 0.04465 0.051932 -0.079995 -0.022854 -0.28581 -0.010104 0.221313 -0.025797 -0.064144
-0.030975 -0.119828 -0.068391 0.036298 -0.149411 -0.197305 -0.115643 0.028745 -0.033085 0.132124 0.042883 -0.122216 0.238152 -0.021868 -0.197707 0.358728 0.178266 -0.023845 0.027921 0.025295 -0.183817 0.049074 0.259057 -0.131344 -0.026599 0.067541 -0.165656 0.045653 0.199034 0.067111 -0.244006 -0.11794 -0.020271 0.034598 -0.231226 -0.22714 -0.133673 -0.018567 0.110391 0.003405 0.002453 0.0463 -0.026556 0.074211 -0.048956 -0.152661 -0.099589 0.006096 -0.090507 0.305554 -0.014675 -0.165498 0.112265 -0.130296 -0.045954 -0.025105 0.037648 -0.247546 0.074419 -0.079131 0.179603 -0.239562 -0.091572 0.005192 -0.026277 -0.117931 -0.060854 -0.077251 0.117877 -0.120081 0.019705 0.027725 -0.216304 -0.025268 -0.015495 0.153288 -0.112605 0.02708 0.056958 0.083773 -0.014507 0.275444 -0.103032 -0.131826 0.081283 -0.007224 0.091304 -0.03891 0.251566 -0.036378 -0.047287 0.101568 -0.062319 -0.004334 0.06149 -0.027993 0.006234 0.060417 -0.06474 -0.008943
0.144512 0.035604 -0.053791 -0.188209 -0.12725 -0.022185 -0.16792 0.089403 -0.311667 0.342117 0.176967 -0.170784 0.253515 0.00389 -0.02013 0.093021 0.179282 -0.204873 0.296135 0.003921 -0.009514 -0.130981 0.29007 0.152317 0.094941 -0.009987 -0.074261 -0.128864 0.009578 -0.15551 0.107246 0.077716 0.076929 0.277686 0.188581 -0.260264 0.242527 -0.372095 0.023622 0.152555 0.09405 -0.256422 0.112455 -0.110679 0.176117 -0.273007 -0.200623 -0.035256 0.021506 0.215669 0.245167 0.01637 0.011891 0.011203 0.05205 -0.009208 0.190077 0.117956 -0.020134 -0.013011 0.107252 -0.365378 0.101503 -0.286139 -0.220292 -0.058823 0.097004 0.306421 0.063038 -0.286752 -0.060916 0.076946 -0.115616 0.057203 0.041285 0.049935 -0.134226 0.127499 -0.224841 -0.08188 0.260928 -0.087563 -0.13163 0.053315 0.17409 -0.181314 0.036275 0.004755 0.202332 -0.199602 -0.071658 -0.277107 0.048937 0.297305 0.134403 0.23097 0.090579 -0.069735 -0.173245 -0.420963
-0.023299 -0.059558 0.020469 -0.086495 -0.014473 -0.138302 -0.099354 0.026067 -0.009335 0.161124 0.026556 -0.05745 -0.194786 -0.073646 -0.030664 -0.012444 0.1506 0.147447 0.095032 0.040854 0.121791 -0.00323 -0.063939 -0.017265 -0.114453 -0.101288 0.219831 -0.007122 0.03117 0.092351 -0.115109 0.024215 -0.220573 0.102365 0.081954 -0.012527 -0.1198 0.162827 0.140341 -0.041465 -0.014892 -0.01857 0.10617 0.103566 0.115402 -0.164955 0.052006 -0.178919 0.020774 0.027015 0.033882 0.0351 0.125165 -0.010412 0.002167 0.068858 -0.043557 0.066641 -0.019157 0.01184 0.033287 -0.040263 -0.007286 -0.095544 -0.120651 0.028981 -0.006284 0.070683 -0.036195 -0.005551 0.153976 0.081721 0.018687 -0.076935 0.040381 0.069793 -0.022882 0.025131 0.023094 0.09055 -0.010956 0.091614 0.001344 -0.025279 0.028124 -0.09985 0.072338 -0.062287 0.053289 -0.172007 -0.073753 0.123463 -0.08967 -0.022489 8.12E-4 -0.131099 0.06435 -0.113402 0.032862 -0.071147
0.009816 -0.132646 0.013536 -0.024913 0.035848 0.013727 -0.040311 -1.36E-4 -0.253025 -0.113211 -0.087631 0.14568 -0.070049 0.029166 0.08329 0.027195 0.028184 -0.211162 -0.013038 -0.255323 -0.082684 -0.045024 0.292372 -0.036804 0.076119 0.042333 -0.030612 0.048033 -0.144552 -0.020039 0.008163 -0.083534 0.048918 0.047618 -0.255837 -0.09809 0.101674 0.004616 -0.033611 -0.175604 0.013272 0.013751 0.046259 -0.017001 -0.185697 0.146025 -0.013555 0.148442 -0.186016 -0.123888 -0.064524 -0.05257 -0.158445 0.033206 -0.022589 0.272285 0.011967 0.051035 0.077399 0.090494 -0.275395 0.068975 -0.051044 -0.008113 -0.083374 -0.216459 -0.013515 -0.087691 0.171381 0.26922 0.223781 0.066544 -0.114183 -0.061955 0.198409 -0.036221 0.048551 0.109301 -0.022812 -0.07223 0.074231 -0.080034 0.128893 -0.108953 -0.302115 -5.43E-4 -0.039967 0.100236 0.043373 -0.129987 0.097655 0.031988 -0.11098 -0.016587 -0.167472 0.12664 0.101004 -0.096938 0.009529 0.039394
-0.132812 0.139556 0.048597 -0.018647 0.118408 0.00247 -0.067271 0.095907 -0.081878 -0.091832 -0.001812 0.057942 -0.014087 -0.00986 -0.069185 0.188377 -0.021068 0.076926 0.254723 -0.248385 -0.080721 -0.117294 -0.027162 0.065033 -0.143138 0.09449 -0.062873 0.012455 -0.115085 -0.011352 0.037397 0.054183 0.069252 0.06757 -0.067839 0.049231 -0.00707 0.081329 0.143743 0.05676 0.004699 0.191203 -0.07709 -0.013433 -0.090536 -0.038912 -0.08486 -0.164565 -0.080733 -0.096047 -0.094106 0.077144 0.063995 0.070608 -0.063214 -0.219161 -0.013689 0.092466 -0.155988 0.032974 -0.019331 -0.044742 -0.109981 -0.082229 0.089341 0.060836 -0.060764 0.00179 -0.039211 -0.069223 -0.037374 0.018909 -0.059089 -0.066894 0.039494 0.021798 -0.084994 -2.04E-4 -0.14342 0.063634 -0.048142 0.00607 0.012367 0.200435 -0.023967 0.015599 0.077542 -0.039174 -0.128248 -0.083469 0.005174 -0.008694 -0.008888 0.03434 -0.011309 0.126286 -0.1118 9.13E-4 0.052469 -0.078198
-0.013236 0.183016 0.137952 0.124071 0.111855 -0.013848 0.12599 -0.160735 -0.167335 0.071493 -0.072039 0.066068 -0.027566 0.081976 0.052254 0.123465 -0.174864 0.02446 -0.045685 -0.237289 -0.244287 0.026204 0.052877 -0.006301 -0.151002 0.100691 -0.123263 -0.056683 -0.053021 -0.13193 -0.028315 -0.105084 -0.171898 0.270708 -0.185777 -0.097435 0.110437 0.083319 0.021308 0.045607 -0.113082 0.144202 0.159826 -0.171962 -0.214273 0.232074 -0.064669 -0.069549 -0.129557 -0.031265 0.144488 0.165463 0.1101 -0.049199 0.20567 -0.026533 0.016345 -0.207442 0.06774 0.068588 -0.022172 -0.154304 -0.174507 -0.096071 -0.023112 -0.165038 -0.196652 -0.059831 0.026218 -0.110533 0.020015 0.284088 -0.047222 -0.16451 0.114496 0.247721 -0.022282 -0.313782 0.01307 0.030813 -0.086021 0.080384 0.179901 0.021525 -0.010492 0.187886 0.064668 0.208563 -0.052103 0.129441 0.05107 -0.169305 0.096805 -0.280488 -0.022548 -0.04542 -0.215836 0.100107 0.371492 -0.03141
0.067365 -0.098234 -0.087276 0.094984 -0.016626 0.332459 -0.07222 0.121676 -0.031477 0.14974 0.243532 -0.094988 -0.09894 0.20782 -0.007434 0.059112 -0.183023 0.126756 -0.015388 0.019289 0.193392 0.252587 0.249131 0.168913 -0.049026 0.13608 0.04419 -0.036512 -0.084217 -0.184984 0.046543 -0.297416 -0.155453 -0.100258 0.179937 -0.444897 -0.114554 -0.037583 0.164788 -0.060788 -0.105272 -0.041323 0.084466 0.178411 -0.182368 -0.315266 0.162192 -0.065039 -0.280966 -0.058211 0.103369 0.03917 -0.34387 0.092852 -0.126362 -0.030967 -0.080224 -0.374896 0.404137 -0.045019 0.169645 0.177729 -0.019474 -0.242705 -0.103578 -0.046288 -0.297823 -0.049549 -0.100837 0.102079 0.043778 0.192599 0.026613 0.048479 0.284639 -0.171068 -0.227212 0.006306 0.074202 0.025097 0.023176 0.370704 0.061126 0.164567 0.3824 -0.356018 0.022405 0.177539 0.19105 0.024056 -0.155907 0.119275 0.056992 -0.014233 0.052606 0.065523 0.024943 -0.183555 0.066572 -0.056079
-0.101233 -0.028981 0.122072 0.055564 -0.119101 -0.011968 -0.065091 0.057049 -0.141289 0.048056 0.152967 0.102676 -0.029566 0.12009 0.045419 0.106173 0.191355 0.060038 0.053383 0.019261 -0.304464 0.150024 0.06848 0.032268 -0.207894 0.128676 -0.130434 -0.188874 0.007583 -0.007322 0.099895 0.013638 -0.171385 -0.031615 -0.208374 0.045345 0.028277 -0.083767 -0.043488 -0.144111 -0.068156 -0.033179 0.124055 -0.033053 0.194379 -0.04111 0.079372 -0.082782 0.125926 0.1154 -0.093623 0.008286 -0.070831 -0.10159 0.033651 -0.04791 0.060654 -0.025729 0.057175 2.93E-4 0.092663 -0.04962 -0.080444 0.032288 -0.120738 -0.025935 0.111584 -0.126758 0.003024 -0.012687 -0.060887 0.102847 0.101356 0.026747 0.074143 -0.022913 -0.018563 0.143065 -0.058595 -0.035716 0.045794 0.029573 0.187051 -0.235308 -0.06017 -0.088053 -0.121569 -0.006034 0.096534 0.018686 -0.169076 0.010447 -0.086636 -0.00607 0.095911 -0.130194 -0.097029 -0.084907 -0.105087 -0.142592
0.046729 -0.216736 0.133015 0.200424 -0.072449 -0.107732 -0.107096 0.007049 0.008123 -0.014062 0.193637 0.147621 -0.18514 -0.02621 0.090958 0.239355 -0.174316 0.031916 -0.071048 0.018211 0.235662 0.072303 0.226965 0.027285 0.11822 -0.068565 0.11486 -0.155104 0.224237 -0.26791 0.087206 0.031171 0.188981 0.076244 -0.209699 -0.182732 0.009188 -0.156594 -0.063733 -0.210317 -0.150358 -0.005333 0.074979 0.059454 0.002074 -0.195923 0.025792 -0.02729 -0.029 0.109464 0.061124 -0.054037 -0.15075 0.001417 0.070656 0.046826 -0.045444 0.147052 -0.084852 -0.183688 0.19315 -0.225017 -0.095531 -0.243003 -0.15364 -0.024354 0.124168 -0.03766 0.117728 0.128158 -0.043124 0.119001 0.156306 -0.017651 0.063236 0.007759 -0.288612 0.036864 0.04906 0.051673 -0.233976 0.00924 0.07684 -0.025006 0.006364 -0.151466 -0.037829 0.164037 -0.054149 -0.05999 -0.1616 0.038663 -0.243176 0.090299 -0.120476 -0.115196 0.054519 -0.032313 0.013341 0.071664
0.065735 0.142998 0.124317 0.105456 -0.0014 0.018794 -0.011069 -0.068285 -0.078912 -0.059111 0.036849 0.027993 -0.090257 -0.009984 0.133237 -0.027353 0.09775 -0.034623 0.151867 0.081174 -0.063598 0.004732 0.17146 0.037837 -0.108422 -0.021601 0.044222 0.065601 0.179321 -0.055431 0.003584 0.13903 0.008965 0.02747 -0.105431 -0.006111 -0.096701 -0.039138 0.046699 -0.060362 -0.093031 -0.169357 0.018926 0.010858 0.053123 0.020123 -0.203071 -0.19175 0.070457 -0.016457 0.060361 -0.116217 -0.016702 -0.097701 0.071011 0.135046 -0.019054 0.062227 -0.056315 -0.137088 0.064937 -0.196631 0.008284 0.027584 0.052246 -0.038491 -0.035671 -0.093447 0.032876 0.070738 -0.164123 -0.043002 0.036859 -0.096564 0.046432 -0.021324 -0.176833 -0.069071 0.070314 -0.011842 -0.072938 -0.03302 0.1723 -0.189893 0.005082 0.005062 -0.109992 0.024279 -0.007064 0.047997 -0.132297 0.019451 -0.182753 -0.026905 0.101736 0.092795 -0.095569 -0.145444 0.033521 -0.126664
-0.899582 0.278759 -1.397548 1.491662 1.825767 3.54427 0.813839 0.216248 -0.071062 -0.923735 2.096137 0.930341 -2.218214 1.294109 0.60812 1.042217 -1.355595 -1.787451 -0.912753 0.760704 -0.386757 0.817374 2.293705 -0.107495 0.828917 0.559163 0.330452 4.345891 1.38276 -0.944983 -0.010029 0.417782 1.341131 -0.295469 -1.216697 -2.12053 0.998889 -1.307578 2.600242 1.250616 -2.206389 -5.080364 -1.357901 1.226797 -0.480558 0.247652 -0.639794 -1.774684 0.830488 -0.304707 3.255342 -0.658129 -0.585648 -0.4143 -1.195745 1.190241 -0.990382 0.051566 0.071182 -3.436773 -1.489372 0.942948 -0.173824 -2.390457 -0.616553 -0.837162 -1.420026 -1.60595 -0.847132 3.244424 2.52045 -0.914153 -0.549895 0.865447 -0.497344 -0.72579 -0.318336 -0.716928 -0.726839 -1.855848 0.65411 0.02103 -0.178235 0.788043 1.188035 -0.201562 -0.310805 0.452318 0.350509 1.922976 0.979691 1.048842 -4.644139 -2.631005 0.686554 -0.691031 -0.317252 0.139882 -0.96841 2.406314
-0.075426 -0.075105 0.193742 0.180949 -0.029135 0.156186 -0.189219 -0.049134 -0.006639 -0.157686 0.029279 -0.01027 -0.02494 -0.092018 -0.017753 0.083188 0.096164 0.04253 -0.056425 0.042708 -0.145806 0.093088 0.30713 0.040278 -0.127338 -0.132246 -0.146052 0.109533 -0.02824 -0.145375 0.097268 -0.162673 -0.252111 0.052631 -0.044236 -0.119663 -0.149141 -0.19387 0.007437 0.248378 0.041441 0.149073 0.031645 0.08471 0.110962 -0.079741 -0.042881 0.025033 0.018934 0.225989 -0.01815 -0.018661 0.010662 -0.032152 0.075004 0.093388 0.053522 -0.122315 -0.067338 -0.045551 0.15103 -0.090023 -0.088856 -0.032802 0.069265 -0.052922 -0.007135 0.141833 0.158261 0.050626 -0.061267 -0.009271 0.019279 -0.100305 -0.016125 -0.149336 0.206733 0.253078 0.04238 0.014155 0.149453 0.135752 0.174627 0.010949 0.060963 0.110666 0.030681 0.049513 0.045662 0.093266 0.013467 -0.001749 0.137106 0.007911 0.097675 0.172412 -0.140174 0.037412 0.021077 -0.100774
0.060854 -0.011986 -0.038491 -0.215355 -0.196333 0.013959 -0.162443 0.134481 -0.212497 0.029634 0.027952 0.080762 -0.014948 0.07979 0.015262 0.106256 -0.140167 0.062221 0.056658 0.003705 -0.127495 0.040146 0.071066 0.123334 -0.170067 0.049084 0.064598 0.034576 -0.153861 0.059129 -0.122907 0.101599 -0.03729 -0.144749 -0.054557 -0.088295 -0.096698 -0.031594 -0.004937 -0.058224 0.001627 0.103749 0.057639 0.173077 -0.067248 -0.148184 0.083801 0.091989 -0.051326 0.080511 -0.039954 -0.034848 -0.141769 0.053141 0.11912 -0.065528 0.056766 -0.008784 0.041694 -0.183181 0.047779 -0.041783 0.00709 -0.08381 0.007302 0.024247 -0.021254 -0.09643 -0.074851 -0.010163 -0.029143 -0.169037 0.234911 -0.065547 0.066872 -0.113811 0.166807 0.067121 -0.162991 0.064033 0.092899 0.075295 0.092263 0.124227 -0.013228 -0.080937 0.005278 0.092741 0.111105 0.017927 -0.012814 0.028827 -0.039962 0.069081 -0.075695 -0.087783 -0.156934 -0.049833 0.008716 -0.058487
-0.078588 -0.097971 -0.03746 0.035941 -0.053036 0.072905 -0.171685 -0.065452 -0.147951 0.009008 0.091456 0.123946 0.204973 -0.132621 -0.114572 0.031636 -0.070356 0.212192 0.097152 -0.032057 -0.207196 0.015671 0.227153 0.118136 0.003257 -0.048488 -0.184713 -0.021534 0.065763 -0.254562 -0.060238 -0.179866 -0.221621 0.07955 -0.084993 -0.021656 0.055303 -0.020881 0.056833 0.150228 0.006991 -0.108549 -0.050529 0.227405 0.08352 -0.189178 0.049666 0.010557 -0.264377 -0.119033 0.114633 -0.083072 0.061465 0.068739 -0.029806 -0.123115 0.006061 -0.00216 0.102131 -0.055328 -0.069119 -0.100321 -0.147187 -0.120857 -0.081965 0.110452 -0.02693 0.151699 0.21518 -0.215166 -0.018635 -0.005114 0.101098 0.07539 0.161219 -0.18379 -0.092865 -0.160566 -0.051634 -0.105156 0.128984 0.130935 0.00774 -0.100282 -0.217146 0.075741 -0.037717 -0.022984 0.242355 0.053557 -0.173115 0.118736 0.141811 0.447273 -0.129345 -0.11223 0.047031 -0.022653 -0.076437 0.01287
0.0 0.0 0.0 0.0 0.0 0.0 0.0 0.0 0.0 0.0 0.0 0.0 0.0 0.0 0.0 0.0 0.0 0.0 0.0 0.0 0.0 0.0 0.0 0.0 0.0 0.0 0.0 0.0 0.0 0.0 0.0 0.0 0.0 0.0 0.0 0.0 0.0 0.0 0.0 0.0 0.0 0.0 0.0 0.0 0.0 0.0 0.0 0.0 0.0 0.0 0.0 0.0 0.0 0.0 0.0 0.0 0.0 0.0 0.0 0.0 0.0 0.0 0.0 0.0 0.0 0.0 0.0 0.0 0.0 0.0 0.0 0.0 0.0 0.0 0.0 0.0 0.0 0.0 0.0 0.0 0.0 0.0 0.0 0.0 0.0 0.0 0.0 0.0 0.0 0.0 0.0 0.0 0.0 0.0 0.0 0.0 0.0 0.0 0.0 0.0
0.0361 -0.041609 0.131603 0.160194 -0.062165 -0.12035 -0.019732 0.006327 -0.012516 0.023983 0.146125 -0.121981 -0.063858 -0.129441 -0.098943 0.102309 -0.088961 0.004295 -0.096014 -0.168207 -0.055945 -0.045285 -0.04834 -0.059673 -0.031826 -0.089745 0.095309 -0.088023 -0.012264 -0.05963 0.104168 0.059836 0.018448 0.079215 -0.173284 0.031407 0.145245 -0.041457 0.062542 -0.123895 -0.085023 0.010805 0.068337 -0.012408 -0.090879 -0.046748 -0.101635 0.036582 -0.080812 0.054334 0.21797 -0.02928 0.075223 0.019711 -0.057769 0.148668 -0.118583 0.060051 0.013215 0.001919 -0.201376 -0.165276 0.007101 -0.018542 0.006032 0.035066 -0.143084 0.036431 0.150889 0.048935 -0.066517 0.05333 0.067897 0.051319 0.18683 -0.210924 0.104288 -0.04163 0.041277 0.045368 -0.127638 -0.051086 -0.078414 0.08392 -0.306347 0.13187 -0.081335 0.049766 -0.067945 0.169267 -0.027961 7.35E-4 0.086719 -0.117052 0.066157 0.173111 -0.067411 0.015635 -0.129694 0.011732
3.229447 1.832686 -0.196265 -0.303454 -0.824437 2.082854 1.150219 -0.493805 -3.50143 -0.594107 2.103319 2.396154 1.056781 -0.578498 -1.172209 3.210305 -0.978008 -1.908997 -0.472705 -1.788789 -2.346806 -2.098664 -0.288581 -2.078696 0.41261 0.520842 -1.276654 0.578767 1.70845 -0.136278 -1.41294 0.371846 1.173228 1.232021 0.598135 -3.597398 4.723318 -0.907374 3.160397 -2.027976 1.188048 -5.433854 0.01906 -0.240727 2.932695 1.836205 0.69537 0.647449 5.328198 0.625981 0.041762 2.070653 0.300511 1.656161 -2.571092 0.908767 3.294905 2.941907 -1.065341 -2.086696 -0.817265 -1.894089 0.299235 -1.879644 0.485823 1.848637 -0.344618 -2.532108 2.074767 0.482597 3.034693 1.42216 0.457834 2.431775 -0.318071 1.666885 -1.364005 1.576786 -1.71492 -0.790398 2.548478 -2.38312 -0.502643 1.256626 0.730181 1.714355 1.091085 4.672542 0.202716 -0.959086 0.774024 -2.161259 -1.810393 -2.763748 0.167227 4.207294 2.675714 0.636561 -0.117425 -0.284099
1.815418 0.654852 -0.256483 -1.397407 2.101842 1.802144 0.385527 2.62131 -2.104203 2.033119 -3.526781 0.092577 0.341161 -0.002891 0.571047 4.609436 1.150391 -4.177905 -2.28919 2.579473 0.094588 -3.001034 -2.291169 -2.804683 0.549761 -1.088593 -0.577049 -1.444589 0.215522 -1.710604 0.815599 -1.145555 2.183792 1.684825 -2.399412 -0.199692 2.755002 -4.765173 -0.211239 -2.361275 2.043496 -6.213054 0.143804 -1.141037 -0.167978 -2.013893 -1.801212 0.128754 0.607318 2.293955 4.997328 4.457933 0.624194 1.0149 -1.872277 -0.111373 2.908833 0.237943 -1.067192 -0.826865 -1.561504 -1.192556 -1.311968 0.727627 1.634309 -0.557627 2.040709 0.621674 -1.590427 -1.427803 1.08292 -0.633078 -1.880037 1.151657 0.483396 -1.245704 -0.391996 -1.074685 0.546417 1.938725 1.355645 1.00482 1.007191 1.431956 -1.261764 -0.704501 4.181545 -1.494449 1.834674 -0.418833 -1.774271 -2.066933 -1.337595 0.111644 1.270495 3.44202 0.964179 2.28273 1.161315 0.280188
-0.034619 -0.118161 -0.03208 0.119363 -0.289276 -0.113859 -0.008637 -0.054313 -0.249319 -0.041533 -0.070203 0.078997 0.084154 0.013728 0.001662 0.171291 0.077073 0.321654 0.185935 0.225228 -0.141763 0.059874 0.006196 0.080651 -0.101606 0.068326 -0.118365 0.08016 0.099506 -0.080152 -0.08134 0.036014 0.027518 0.109969 -0.126604 -0.025204 -0.080005 -0.195268 0.054564 -0.050012 -0.245457 -0.027457 -0.15381 0.021808 -0.003057 -0.047086 -0.081924 0.016879 -0.209179 -0.030424 0.069484 -0.090391 -0.113695 -0.015036 -0.035689 -0.306072 -0.187492 -0.044381 0.015562 -0.036898 0.122547 -0.092884 -0.126803 -0.165335 -0.094774 0.17417 -0.055284 0.049574 -0.139513 0.034238 0.053265 0.174716 0.184393 0.0427 0.104614 -0.112107 -0.055945 -0.054923 -0.077621 -0.074994 0.13115 -0.119209 0.053278 -0.021921 -0.194023 -0.124223 0.143287 -0.008007 0.060987 0.133328 -0.101395 -0.099724 -0.047674 0.21519 -0.065638 0.041596 -0.062902 0.096619 0.050133 -0.017696
-0.137448 -0.165271 0.130333 -8.0E-6 0.050107 -0.043931 -0.171677 0.007721 0.007373 0.067054 0.148393 0.137749 0.003854 -0.074689 0.190885 0.206584 -0.06847 0.211763 0.104202 0.069106 -0.183194 0.157317 0.223718 0.072586 -0.222323 -0.06536 -0.116532 -0.05973 0.221449 -0.106996 -0.055916 0.001211 -0.118776 0.119528 -0.113563 -0.05341 -0.032128 -0.025061 0.007817 0.10942 0.0215 0.238177 -0.039143 0.010739 0.196476 0.042437 -0.095493 -0.02479 -0.193776 0.062079 0.183557 -0.080987 -0.050593 -0.021337 0.072036 -0.113533 -0.049801 0.001729 0.061789 -0.022361 0.167741 -0.147962 -0.057488 -0.106108 -0.12927 -0.015228 0.102432 0.131209 0.156765 -0.188598 -0.14315 -0.07012 -0.019995 0.004737 -0.03048 -0.033991 -0.211077 0.029496 -0.078768 -0.175085 -0.070657 0.10409 0.13433 -0.24066 -0.005294 0.139621 0.011315 -0.042964 0.232204 0.126593 -0.162153 -0.016772 0.01595 0.220821 -0.003108 -0.082105 0.143102 -0.084966 -0.08918 -0.066876
-0.093284 -0.138456 0.187372 -0.023868 -0.085371 0.031564 -0.314385 -0.001494 -0.040624 0.067817 0.285174 -0.03023 -0.203001 -0.004765 0.196908 0.064238 -0.028398 0.01283 0.170957 0.083646 0.156469 0.061075 0.054409 0.209463 -0.085461 -0.180744 0.014821 0.108595 0.289487 -0.219607 -0.183502 0.012994 -0.080121 0.094864 -0.030118 0.002772 0.090259 -0.023783 -0.04087 0.12177 0.024456 -0.05617 -0.122463 0.060269 0.154022 -0.048641 -0.005546 0.08234 -0.128067 0.030524 0.198396 -0.163618 -0.226106 -0.147654 0.128162 0.115243 -0.060991 0.022249 -0.019556 -0.07229 -0.019836 -0.085974 0.032552 -0.124957 -0.19353 0.232365 -0.194128 0.011943 0.063943 0.089721 -0.155051 -0.083853 -0.117686 0.106266 0.065889 -0.009429 -0.031439 -9.95E-4 -0.007372 -0.263154 -0.028253 -0.06996 0.082425 -0.123702 -0.04668 0.075119 -0.078964 -0.044533 0.117678 0.107571 0.10846 0.034634 -0.189147 0.094882 -0.103623 -0.031405 0.008009 -0.064354 -0.027141 0.119781
0.0 0.0 0.0 0.0 0.0 0.0 0.0 0.0 0.0 0.0 0.0 0.0 0.0 0.0 0.0 0.0 0.0 0.0 0.0 0.0 0.0 0.0 0.0 0.0 0.0 0.0 0.0 0.0 0.0 0.0 0.0 0.0 0.0 0.0 0.0 0.0 0.0 0.0 0.0 0.0 0.0 0.0 0.0 0.0 0.0 0.0 0.0 0.0 0.0 0.0 0.0 0.0 0.0 0.0 0.0 0.0 0.0 0.0 0.0 0.0 0.0 0.0 0.0 0.0 0.0 0.0 0.0 0.0 0.0 0.0 0.0 0.0 0.0 0.0 0.0 0.0 0.0 0.0 0.0 0.0 0.0 0.0 0.0 0.0 0.0 0.0 0.0 0.0 0.0 0.0 0.0 0.0 0.0 0.0 0.0 0.0 0.0 0.0 0.0 0.0
0.076366 -0.113758 0.198914 -0.086313 0.036109 -0.067986 -0.2657 0.029907 -0.078939 0.256784 -0.058089 0.126061 0.004952 -0.008668 0.170726 0.179781 0.090461 0.284357 -0.096045 0.316709 -0.022347 -0.010218 0.134477 -0.097373 0.001973 0.184655 -0.172801 0.046019 0.032277 -0.2827 0.12387 -0.093307 -0.090799 0.140858 0.001926 -0.171345 -0.002987 -0.154995 -0.091065 0.096881 -0.072253 0.127105 -0.112285 -0.077252 0.029511 -0.013843 -0.137983 -0.104437 0.08774 0.225358 0.044083 -0.154899 -0.083061 0.174348 -0.032597 -0.08616 0.030219 -0.170082 -0.125118 -0.198104 0.089416 -0.044511 0.074327 -0.147045 -0.011408 -0.13262 0.039725 -0.147556 0.035978 0.044765 0.056961 -0.022516 -0.017659 -0.012649 0.061245 -0.001877 0.105214 0.091813 0.189283 0.02412 -0.046732 -0.043772 -0.182393 0.002609 0.097663 0.039182 0.191466 -0.181607 0.037817 0.094593 -0.19255 0.094633 0.003271 0.033055 -0.051123 -0.221446 0.190835 0.054897 -0.1195 0.12647
3.15255 -0.907421 -3.642026 3.17996 3.42207 1.79741 -1.227643 1.238019 3.468645 -1.524123 -0.566973 2.247298 -5.676877 -3.465057 0.468239 -0.491914 -1.179421 -5.83672 -1.538257 2.775791 -2.00479 -1.449758 -1.2796 0.206099 1.947127 -2.184334 -0.629776 0.067498 1.962288 0.042905 -1.775377 -1.31689 1.177621 -0.477848 -4.149457 1.240261 2.627241 0.465456 3.275736 -0.229338 1.461656 -2.33524 -1.892225 -3.19226 0.177513 -1.76301 -0.410329 -0.595822 4.811452 1.986213 4.007822 4.845738 0.252917 1.747265 -0.348649 0.728273 3.103462 1.140455 -1.438188 -2.532658 1.100931 2.908969 -0.149113 1.39746 -0.110243 -0.869566 0.323433 0.189933 -0.593698 1.257804 3.346564 3.900447 -1.435939 2.359596 1.356138 -1.532728 -3.12145 -0.745096 3.148153 -1.649395 -2.176761 3.755593 -0.02329 1.428043 0.63312 -0.20617 3.715836 1.110841 1.264316 -1.176745 1.038138 -1.75898 -2.202135 1.199641 -2.789658 3.940613 -1.314701 0.546179 -0.086898 3.417288
-0.200497 -0.417085 0.257617 -0.321351 -0.160066 0.687237 -0.644591 -1.083455 -0.692052 0.932448 1.167712 0.196189 0.872876 0.02561 -1.518911 0.089664 1.0197 0.725801 -0.425916 1.104757 -1.149006 0.60966 1.322208 0.25565 0.64841 -0.200926 -0.539132 0.580149 0.55001 -0.371939 -0.369749 -0.259744 -0.762836 0.424036 0.320975 -0.577462 -1.399696 -1.016671 0.64054 -0.043194 -0.001934 -1.019717 0.306037 -0.21012 0.135774 -1.410257 0.123288 -0.609038 -0.673654 -0.095124 0.333705 0.452822 -0.901882 -0.150744 -0.335961 -0.337014 0.23541 -0.856455 1.603565 0.373468 0.141996 1.163727 -1.061665 -1.178704 -0.312251 -0.768355 -0.262892 0.377678 0.328208 -0.466985 0.329316 0.923076 -1.132101 0.218087 -1.222526 -1.834517 0.355715 0.357123 0.566722 0.704011 -0.451184 0.188578 -0.638341 0.358642 0.386827 -0.096894 0.128623 -0.443913 1.189935 0.557782 0.410692 0.171532 -1.295676 -0.489662 0.309128 0.09028 -0.026137 -0.055272 -0.706204 0.156739
0.052536 -0.012963 0.061787 0.162815 -0.021676 0.06059 -0.065484 -0.013196 0.023318 -0.020108 -0.083075 0.211165 -0.053609 0.018587 -0.142797 0.053032 0.015056 0.044085 0.049063 -0.116386 -0.039427 0.060864 0.080778 0.002509 0.04423 0.135454 0.126225 0.093518 0.039194 0.062218 -0.174374 -0.026922 0.086445 -0.045141 -0.185752 -0.041909 -0.025387 0.158201 0.096938 -0.215499 -0.059348 0.150365 -0.043233 -0.046488 0.168276 -0.001194 -0.03661 -0.078438 0.019903 -0.007377 0.155767 -0.036535 0.072971 -0.026618 0.070408 -0.171696 0.04174 -0.123946 0.019126 0.011544 0.018006 -0.133662 -0.136408 -0.048481 -0.015469 -0.190131 0.01367 -0.097261 0.007935 -0.012946 0.096081 0.114922 -0.153219 0.073672 -0.054563 -0.054922 0.105463 -0.075681 -9.96E-4 -0.106823 0.053501 0.168734 0.051015 -0.008899 -0.084257 0.059856 0.184356 0.012127 0.070122 0.030734 -0.063276 0.062072 0.12288 -0.053377 0.125129 -0.095369 -0.099847 -0.048433 -0.015993 0.045486
-0.042523 0.024749 6.91E-4 -0.26575 0.008355 0.028194 -0.020424 -0.136087 -0.025558 0.105787 -0.001496 0.14697 -0.179981 -0.085913 0.440997 0.018978 -0.055112 0.124878 0.07273 0.152022 -0.146047 0.091255 0.108754 0.013896 -0.089811 -0.088669 0.065202 -0.095467 0.023064 -0.042442 0.132386 -0.041716 0.061944 0.094728 -0.129591 -0.171022 0.050154 -0.038871 -0.033825 0.065327 -0.017908 -0.027786 0.052224 0.021003 -0.057085 -0.119798 0.137171 -0.091169 0.002676 0.07286 8.32E-4 -0.068731 0.165598 -0.095077 -0.038189 0.054869 0.026498 0.014497 -0.071139 -0.127599 0.016509 0.057653 -0.152475 -0.078893 -0.120135 -0.122344 0.040005 -0.083366 -0.101545 -0.00861 -0.088042 -0.033089 0.12272 0.035467 0.066741 -0.11193 -0.179774 0.037721 0.049228 -0.077146 -0.00175 -0.060322 0.18986 -0.08436 -0.116085 -0.002837 7.39E-4 0.076268 0.020747 0.013695 -0.069687 -0.040999 -0.030926 0.076269 0.032407 -0.015299 0.001412 -0.169807 0.075407 0.069591
2.059369 1.66593 0.405574 0.558755 -0.168003 -0.830537 -0.968571 0.379793 -2.61537 2.494708 -1.80612 1.806557 -0.415409 -1.848019 3.003453 0.489089 -0.197403 -3.915888 1.228841 2.425104 0.379589 -1.670219 1.529699 -1.356612 1.112998 0.204456 0.044002 3.349701 1.186057 -1.034965 2.133457 -0.532976 0.24131 0.43426 -1.043935 1.07812 3.850029 -4.227847 -1.501351 0.199239 0.065537 -4.177726 -1.477909 0.462298 -1.449065 -3.515169 -2.192455 0.869814 5.173473 -0.897976 2.870988 1.26912 0.239871 0.438286 0.182316 0.084281 -0.499008 2.582479 -1.139315 -1.899329 -0.492088 -0.246868 2.513204 -1.675392 -2.203707 -0.137196 -0.113353 0.818952 -1.168697 1.123205 -0.718359 1.005555 -0.384984 0.707379 -0.369486 -1.507823 -0.53809 -0.946594 -2.776358 0.207563 1.168203 0.240582 0.697519 -1.568974 0.328172 0.796637 1.438834 -0.497114 0.865786 1.093856 -0.464932 0.613826 -2.342726 0.328512 2.69764 4.467891 0.870982 1.089494 0.043763 1.499398
0.0 0.0 0.0 0.0 0.0 0.0 0.0 0.0 0.0 0.0 0.0 0.0 0.0 0.0 0.0 0.0 0.0 0.0 0.0 0.0 0.0 0.0 0.0 0.0 0.0 0.0 0.0 0.0 0.0 0.0 0.0 0.0 0.0 0.0 0.0 0.0 0.0 0.0 0.0 0.0 0.0 0.0 0.0 0.0 0.0 0.0 0.0 0.0 0.0 0.0 0.0 0.0 0.0 0.0 0.0 0.0 0.0 0.0 0.0 0.0 0.0 0.0 0.0 0.0 0.0 0.0 0.0 0.0 0.0 0.0 0.0 0.0 0.0 0.0 0.0 0.0 0.0 0.0 0.0 0.0 0.0 0.0 0.0 0.0 0.0 0.0 0.0 0.0 0.0 0.0 0.0 0.0 0.0 0.0 0.0 0.0 0.0 0.0 0.0 0.0
