0.158934 -0.239953 -0.227038 -0.001375 -0.121096 -0.015757 -0.100348 0.046267 -0.163892 0.153677 0.224417 0.104444 0.134031 -0.102427 0.005439 0.208329 -0.080618 0.327346 0.061378 0.179778 -0.097641 0.022483 0.095034 -0.025838 0.061778 -0.127804 0.083848 0.003984 -0.022795 0.122301 -0.065581 0.094649 0.107987 -0.018255 -0.084258 0.028173 -0.055954 0.116492 0.085883 -0.165718 -7.7E-4 0.369775 0.024722 0.147881 -0.047594 0.081985 -0.053583 -0.016788 -0.116984 -0.109811 -0.0761 -0.022755 -0.081468 -0.018936 0.189692 -0.048889 0.146067 0.182928 0.010792 0.007647 0.131832 -0.158161 0.231478 0.017419 0.029215 0.105771 0.040245 0.143788 -0.131161 -0.130941 -0.032549 -0.108526 -0.126038 0.060834 0.092365 0.102928 0.083105 -0.041609 0.063369 0.012179 -0.091603 -0.031611 -0.042262 0.062882 0.008594 -0.161295 0.100497 -0.15491 0.10936 0.030407 -0.007299 0.233348 -0.037506 0.135175 0.084069 0.01258 0.240508 0.022814 -0.062836 -0.004994
-0.002795 -0.21011 0.127834 -0.00823 -0.075374 -0.049741 -0.051842 0.023443 0.018768 -0.117286 0.045673 0.183873 0.015618 -0.036521 0.075886 0.215219 0.107905 0.119021 0.182006 0.062936 -0.144146 0.152029 0.062304 0.056924 -0.279897 0.087017 -0.005324 -0.117567 0.147729 -0.255287 -0.046132 0.019501 -0.055959 0.094213 -0.050329 -0.036217 -0.00157 -0.093652 -0.011233 0.091959 0.066806 -0.016812 0.035635 -0.080524 0.108885 0.097184 -0.127981 -0.100494 0.097114 0.06797 0.071666 -0.219084 0.018324 0.088269 0.129009 -0.074538 0.012713 0.049284 -0.05631 -0.001185 0.050445 -0.309752 0.153069 0.02032 0.031139 -0.038214 -0.02165 0.032416 0.07491 -0.108447 -1.66E-4 -0.022387 -0.086169 0.107621 -0.046035 0.011636 -0.032401 0.038874 -0.016808 -0.016776 -0.053123 -0.108705 -0.001653 -0.219547 0.019661 -0.061742 0.059893 0.069224 0.170744 0.235562 -0.269585 0.015752 0.026174 0.05651 0.149015 -0.078086 -0.043971 -0.007838 -0.036333 -0.090567
0.028515 0.04595 -0.058579 -0.009027 0.092083 0.025816 -0.167105 0.069176 -0.058166 -0.021301 -0.158989 0.041565 -0.011412 -0.007599 -0.054622 0.072773 -0.020208 -0.020461 0.026977 0.280508 -0.051853 -0.006728 0.036378 0.020175 0.171331 -0.271586 -0.095464 -0.002196 0.032967 0.021766 0.046289 -0.023017 -0.092383 -0.150036 -0.080973 0.012654 0.117231 -0.011301 0.019208 -0.004127 0.12 0.080953 0.154448 0.046463 -0.160128 -0.021902 0.152555 0.135474 -0.102817 0.144057 -0.02288 0.020346 0.074623 -0.056808 -0.020167 0.044696 -0.044368 0.009213 -0.078369 -0.157179 -0.058473 0.031964 -0.082212 -0.108864 -0.224999 0.067261 0.067063 0.017791 0.225753 -0.212059 -0.300427 0.063143 0.097306 -0.160484 0.060891 0.007056 -0.113375 0.162933 0.071556 0.10381 0.022638 0.168096 0.148027 -0.026636 0.126883 -0.0315 0.246965 -0.045254 -0.15175 -0.104402 -0.091578 -0.011413 0.088697 0.132041 -0.09928 0.017289 -0.07732 7.89E-4 -0.201378 -0.016252
-0.061863 -0.079345 0.103598 0.045211 0.061593 -0.077624 -0.067189 -0.012872 -0.201992 0.080875 0.162167 0.028598 0.040467 -0.204114 0.076455 0.152766 -0.027006 0.06825 0.020634 0.071285 -0.081458 0.195743 0.215241 0.245682 -0.24624 -0.117262 0.002516 -0.068687 0.196092 -0.227624 -0.20016 -0.038738 -0.050658 0.178066 -0.29978 -0.118063 -0.115515 0.005599 -0.068775 0.064049 0.037323 -0.034479 -0.065635 -0.0807 -0.098913 -0.101213 -0.097232 -0.031206 -0.130468 0.073487 0.180285 -0.200842 -0.026162 -0.085043 0.201517 -0.021145 -0.038832 -0.036929 0.171265 -0.063117 0.05324 -0.08952 0.003775 -0.089382 -0.132004 0.101306 -0.011311 -0.02325 0.077661 0.076793 -0.113444 0.017192 -0.133459 0.059805 0.244545 -0.126165 -0.089391 -0.100507 -0.001827 -0.07036 0.042199 0.201295 0.006624 -0.23504 0.023052 0.056736 0.027739 -0.188469 0.219602 0.22098 -0.27377 -0.014261 -0.070813 0.062091 -0.006003 -0.033712 0.096357 -0.198023 0.127128 -0.074758
-0.08527 -0.011954 -0.008522 -0.070471 -0.027368 -0.034217 -0.154683 0.170025 -0.211351 0.005175 0.035054 0.061369 -0.05016 0.042209 -0.103162 0.026348 -0.113398 0.250342 0.37709 -0.140929 0.03508 0.14316 0.155727 0.199993 -0.055704 0.038226 -0.057878 -0.17484 -0.071578 -0.310512 -0.031749 -0.282726 -0.202981 0.040096 0.005533 -0.088928 -0.075045 0.079848 -0.186911 0.116578 0.097923 0.069315 0.293092 0.16102 -0.093612 -0.038429 0.253428 0.110811 -0.095616 0.076348 -0.077247 -0.117277 -0.007219 -0.015298 0.02128 -0.16697 0.077035 -0.250845 0.226215 -0.091739 0.065957 0.055509 0.058185 0.002781 -0.163207 0.072809 -0.02191 0.153176 0.112132 -0.189062 0.007301 0.122526 0.076668 0.120301 0.118231 -0.078156 -0.030493 0.179634 0.032708 0.039865 -0.070133 0.396054 0.247863 -0.05226 -0.019937 -0.18977 0.174569 0.286988 -0.121259 0.104363 -0.223968 0.007609 -0.014909 -0.062617 -0.202583 0.046452 0.124781 0.043147 -6.14E-4 -0.1257
-0.176803 -0.089627 0.081039 -0.010231 0.073297 -0.052973 -0.149716 0.013179 -0.02666 0.031833 -0.032669 0.02877 -0.057468 -0.05867 0.136312 0.013712 0.009557 -0.056668 -0.048016 0.062781 -0.067712 0.086391 0.090953 0.067611 -0.115329 -0.043725 -0.006618 0.147012 0.151577 -0.131064 0.001796 -0.101283 0.112699 0.046429 -0.011536 -0.009628 0.045665 -0.142356 0.103218 -0.03413 -0.206872 -0.10603 -0.251098 0.081128 0.088506 0.041975 -0.199377 -0.096467 -0.004632 -0.035162 0.122028 -0.08882 -0.011378 -0.148385 0.133486 0.120423 -0.055374 0.123165 0.030176 -0.175572 0.092321 -0.03572 -0.044897 -0.221843 0.01887 -0.04874 -0.048093 0.045394 -0.013758 -0.036734 -0.089425 -0.074869 -0.037387 0.003764 0.035655 -0.087188 0.016438 -0.08772 -0.109149 -0.252419 0.01939 -0.028784 0.267306 0.039749 0.16349 0.041344 0.106131 0.052394 0.150029 0.075017 -0.035052 0.039587 -0.106769 0.059972 -0.015365 -0.014134 -0.088367 0.010494 0.068234 -0.094448
0.0 0.0 0.0 0.0 0.0 0.0 0.0 0.0 0.0 0.0 0.0 0.0 0.0 0.0 0.0 0.0 0.0 0.0 0.0 0.0 0.0 0.0 0.0 0.0 0.0 0.0 0.0 0.0 0.0 0.0 0.0 0.0 0.0 0.0 0.0 0.0 0.0 0.0 0.0 0.0 0.0 0.0 0.0 0.0 0.0 0.0 0.0 0.0 0.0 0.0 0.0 0.0 0.0 0.0 0.0 0.0 0.0 0.0 0.0 0.0 0.0 0.0 0.0 0.0 0.0 0.0 0.0 0.0 0.0 0.0 0.0 0.0 0.0 0.0 0.0 0.0 0.0 0.0 0.0 0.0 0.0 0.0 0.0 0.0 0.0 0.0 0.0 0.0 0.0 0.0 0.0 0.0 0.0 0.0 0.0 0.0 0.0 0.0 0.0 0.0
0.233485 -0.169544 -0.176879 -0.264085 -0.107436 0.057878 -0.060163 0.020134 -0.075479 0.113908 -0.09997 -0.174725 -0.252921 -0.122678 -0.035219 -0.077484 0.037537 -0.037793 0.129264 -0.099879 0.019875 -0.018207 0.00781 -0.131311 -0.122916 0.092196 -0.101513 -0.137821 -0.180387 0.028172 0.152386 0.192303 -0.095574 -0.106227 0.072159 0.021054 0.055603 -0.084775 0.048133 -0.033319 -0.145469 -0.052611 0.055902 0.169461 -0.069542 -0.067575 -0.154715 -0.139578 0.004359 -0.018258 0.099611 -0.130799 0.00714 -0.072897 0.088522 -0.010623 -0.01831 -0.120719 -0.232138 0.024499 0.020253 0.024691 -0.092193 -0.006159 -0.073972 0.145627 -0.15225 -0.053373 0.093501 -0.006107 0.04413 0.186046 -0.098408 0.199472 0.186096 0.163884 0.172805 0.064425 -0.04161 0.131829 0.010201 -0.12358 0.009225 -0.16262 -0.009664 -0.110038 0.19284 0.088062 0.137671 -0.018017 -0.1722 -0.015099 -0.007537 0.047423 -0.025555 0.128165 -0.06147 -0.007149 0.227166 0.114048
0.06553 -0.125673 0.034491 0.043696 -0.08785 -0.070191 -0.104459 -0.048669 0.006119 0.030927 -0.13537 -0.036367 -0.163152 -0.059444 0.060532 -0.023973 0.098727 0.031182 -0.080261 0.051743 -0.07395 0.036216 -0.082271 -0.07694 -0.227916 8.49E-4 0.074039 -0.007776 0.046045 -0.104478 0.002922 0.032865 -0.001549 -0.142678 0.054115 -0.01641 0.00671 0.02971 0.075554 0.035918 0.017778 0.02266 0.074529 -0.007011 -0.166621 -0.149341 -0.036893 0.187838 -0.051182 0.035542 0.035646 -0.071808 0.164016 0.07998 0.087969 -0.192645 -0.030305 -0.225898 -0.106839 -0.021025 0.244137 -0.057087 -0.051305 0.059616 -0.184024 0.189175 0.205994 -0.054882 -0.034451 -0.087239 0.044602 -0.036991 -0.094929 -0.008204 0.212651 0.003758 -0.115127 0.104404 0.032918 0.078207 0.184447 0.044535 -0.025218 -0.026929 -0.017865 0.117728 0.029414 -0.031504 0.043071 0.093661 -0.096078 -0.012874 0.052235 0.078689 -0.053345 -0.059396 0.152948 -0.086422 -0.102222 -0.027954
1.534737 -0.664161 -0.711245 -1.361081 -2.015959 -0.590946 -0.028663 0.951377 -0.378027 1.023841 1.129216 -0.284015 0.816351 -0.609632 1.856132 0.696223 -0.870506 0.659851 0.195349 0.656653 -0.10443 0.656149 0.512483 -1.032595 -0.124974 -0.74042 1.400285 -0.166778 0.530785 -0.400788 -0.460026 -0.352438 -0.125521 -1.052671 -0.417633 -0.337699 -0.183367 0.925219 -0.107358 -1.052948 1.385301 1.292836 -1.008713 1.186741 -0.237727 0.174041 -0.439971 0.397894 0.577828 -1.300776 -0.689506 0.07658 0.390329 -0.374201 1.920261 0.04809 0.756535 0.454634 -0.577846 0.462526 2.029483 0.016906 2.155661 -0.895589 -0.56491 1.165203 -0.513248 0.130682 0.603587 -0.12492 -0.251179 -0.418139 0.118445 0.674978 1.290173 -0.68712 -0.262864 -0.15786 1.544994 -0.327536 0.689473 1.003578 1.389372 0.410064 -0.064136 -0.376708 0.066472 -0.543188 0.838803 0.549501 -0.649527 1.260541 0.002865 1.161575 0.464294 -0.024726 1.318531 -0.637735 0.23347 0.155272
0.158934 -0.239953 -0.227038 -0.001375 -0.121096 -0.015757 -0.100348 0.046267 -0.163892 0.153677 0.224417 0.104444 0.134031 -0.102427 0.005439 0.208329 -0.080618 0.327346 0.061378 0.179778 -0.097641 0.022483 0.095034 -0.025838 0.061778 -0.127804 0.083848 0.003984 -0.022795 0.122301 -0.065581 0.094649 0.107987 -0.018255 -0.084258 0.028173 -0.055954 0.116492 0.085883 -0.165718 -7.7E-4 0.369775 0.024722 0.147881 -0.047594 0.081985 -0.053583 -0.016788 -0.116984 -0.109811 -0.0761 -0.022755 -0.081468 -0.018936 0.189692 -0.048889 0.146067 0.182928 0.010792 0.007647 0.131832 -0.158161 0.231478 0.017419 0.029215 0.105771 0.040245 0.143788 -0.131161 -0.130941 -0.032549 -0.108526 -0.126038 0.060834 0.092365 0.102928 0.083105 -0.041609 0.063369 0.012179 -0.091603 -0.031611 -0.042262 0.062882 0.008594 -0.161295 0.100497 -0.15491 0.10936 0.030407 -0.007299 0.233348 -0.037506 0.135175 0.084069 0.01258 0.240508 0.022814 -0.062836 -0.004994
0.0 0.0 0.0 0.0 0.0 0.0 0.0 0.0 0.0 0.0 0.0 0.0 0.0 0.0 0.0 0.0 0.0 0.0 0.0 0.0 0.0 0.0 0.0 0.0 0.0 0.0 0.0 0.0 0.0 0.0 0.0 0.0 0.0 0.0 0.0 0.0 0.0 0.0 0.0 0.0 0.0 0.0 0.0 0.0 0.0 0.0 0.0 0.0 0.0 0.0 0.0 0.0 0.0 0.0 0.0 0.0 0.0 0.0 0.0 0.0 0.0 0.0 0.0 0.0 0.0 0.0 0.0 0.0 0.0 0.0 0.0 0.0 0.0 0.0 0.0 0.0 0.0 0.0 0.0 0.0 0.0 0.0 0.0 0.0 0.0 0.0 0.0 0.0 0.0 0.0 0.0 0.0 0.0 0.0 0.0 0.0 0.0 0.0 0.0 0.0
-0.020015 -0.064577 -0.039267 0.00225 0.004473 0.102358 0.018363 0.159934 -0.188582 -0.051737 0.081946 0.06379 -0.102722 -0.209108 0.067136 0.103007 -0.127051 0.159879 -0.122798 -0.106819 -0.070137 0.114814 0.171571 -0.173295 -0.11254 0.141112 0.134959 -0.155561 -0.109498 -0.186657 0.113544 -0.161418 -0.118006 -0.059175 -0.094374 -0.038196 -0.015228 0.119325 -0.177475 0.038859 -0.194853 0.039467 -0.028283 -0.15093 -0.168951 -0.049866 -0.033163 0.027288 -0.004101 0.004241 0.008573 -0.146335 0.015995 0.050993 -0.108685 -0.077277 0.036094 -0.046554 0.073144 -0.118773 0.173636 0.058066 0.044118 0.045965 -0.338419 -0.021988 0.12551 -0.083197 0.108791 0.021393 0.098164 0.018907 -0.001159 -0.005702 0.101804 -0.080581 -0.330685 0.062983 0.086153 0.053822 0.013846 0.102873 0.060588 -0.046089 -0.127327 -0.050613 0.159636 0.155209 0.235401 0.069143 0.052979 0.007727 -0.021391 0.121081 -0.147328 -0.097697 0.086277 -0.003848 0.031409 -0.089204
-0.217439 -0.044905 0.239926 -0.035713 -0.080305 -0.026986 -0.303193 0.228353 -0.148489 0.197665 -0.20521 -0.035929 -0.080364 -0.209353 0.106514 -0.053845 -0.026141 0.338079 0.037195 0.319163 -0.115177 0.087767 0.366654 -0.13268 -0.255868 -0.035568 0.055211 0.027095 0.093569 -0.385033 -0.095844 0.034825 -0.024528 -0.025071 -0.040025 -0.097355 -0.177628 0.266923 0.201481 0.092409 -0.378662 0.027841 0.061381 0.034342 0.352483 -0.392097 0.308961 -0.262781 0.111967 0.026296 0.226769 -0.118961 0.025894 -0.25064 0.343516 -0.321059 -0.242932 0.050017 0.363653 -0.137015 0.185846 -0.21488 0.110192 -0.280809 -0.12789 -0.101006 0.170803 -0.045649 0.17695 -0.182365 0.071211 -0.280943 -0.166221 -0.068441 -0.028718 -0.090987 -0.331171 -0.204785 0.034798 0.198215 -0.14494 0.091496 -0.104457 -0.233694 0.17521 0.128442 0.05202 -0.090947 0.365594 0.055591 0.022565 0.379268 0.130838 0.203284 0.022261 -0.268036 -0.078302 -0.254035 0.137439 -0.022682
-0.041731 -0.114337 0.211389 -0.027819 0.135032 -0.081459 0.095288 -0.117137 0.064089 0.083722 0.101496 -0.180003 0.099704 0.025843 0.105845 -0.075453 0.077525 0.156902 -0.00843 0.086935 -0.343336 0.074195 0.001909 -0.065273 0.080954 -0.060091 0.209454 -0.141564 0.042318 -0.15962 0.039541 0.020591 0.099956 -0.114564 0.106892 -0.103472 0.044226 -0.132369 -0.063323 0.049444 -0.103962 0.018657 0.104699 -0.132811 0.096177 0.152597 -0.062103 8.82E-4 -0.053814 -0.021981 -0.011819 -0.051671 -0.012081 0.004633 0.002337 -0.15591 0.048655 -0.031432 -0.036134 -0.023114 -0.049878 0.01629 0.044083 -0.095172 -0.124426 -0.052684 -0.117939 -0.12385 -0.003107 -0.03538 -0.117272 -0.009159 0.007198 0.097903 -0.049114 -0.010449 -0.054541 -0.028346 -0.077079 -0.066659 0.029774 0.090901 0.02763 -0.0255 -0.022261 0.065063 -0.058615 0.108233 0.040046 -0.022059 -0.078746 0.129251 0.098251 0.003851 -0.034253 0.009631 0.111584 0.041411 0.066728 -0.133312
0.077315 0.094458 -0.007108 -0.173733 -0.124016 0.10268 -0.147921 -0.038812 -0.110229 0.125727 0.078715 0.103655 -0.14702 0.038875 0.173455 0.029172 0.085332 0.02049 0.028974 0.209103 -0.048985 0.096129 0.022119 0.051125 -0.02515 0.079908 0.031651 0.190444 0.035202 -0.042677 -0.105544 -0.140258 -0.017468 -0.128506 -0.137886 -0.069351 -0.162297 -0.091859 -0.189312 0.107815 0.219664 0.041735 -0.07544 -0.084491 -0.059106 -0.063775 -0.109205 0.196058 0.051562 -0.084445 -0.072622 -0.069628 -0.035997 -0.118006 0.208404 -0.229657 -0.07943 -0.150258 0.011007 0.191667 0.083006 -0.084947 0.014942 0.17921 -0.015157 0.068533 0.004176 0.048989 0.028669 0.143713 0.076645 0.028479 -0.023023 0.029246 -0.099158 0.02435 -0.105521 0.100665 0.051662 -0.025748 0.125299 -0.043305 0.202724 -0.034303 0.013237 -0.157912 0.118345 0.092195 -0.004208 0.186132 -0.235138 0.02556 0.023231 0.199088 -0.027192 0.068552 0.0464 0.132222 -0.011505 0.162654
0.012081 -0.109525 0.132941 -0.048567 -0.110607 0.069992 -0.063588 -0.158531 -0.158784 -0.013888 0.035706 -0.135947 -0.134464 0.071779 -0.027952 -0.023991 -0.146928 0.287666 0.117409 -0.037438 -0.061732 0.232652 0.236335 0.028172 -0.189825 0.110793 0.078263 -0.244431 -0.123773 -0.077728 0.190686 -0.186177 -0.206608 0.032748 -0.047155 -0.054193 0.051629 0.038668 -0.066155 0.009935 -0.05105 -0.075172 0.032713 0.074729 -0.033297 -0.059223 0.121652 0.065041 -0.229325 0.07065 0.123837 -0.158647 -0.082621 -0.011452 0.089273 -0.01698 7.0E-6 0.021968 0.097433 0.058386 0.059717 0.143983 -0.277892 -0.066483 -0.021533 -0.017909 -0.056886 -0.012421 0.109274 -0.023096 0.008059 0.116352 -0.064568 0.122588 0.18849 0.093756 -0.199127 -0.066128 -0.049119 0.15539 -0.109357 0.167264 -0.032739 -0.04127 0.039432 -0.143022 0.060826 0.219589 0.390066 -0.118427 -0.157044 0.109906 -0.054419 0.056566 -0.069204 0.007117 -0.095487 -0.069454 0.070936 -0.125083
0.0 0.0 0.0 0.0 0.0 0.0 0.0 0.0 0.0 0.0 0.0 0.0 0.0 0.0 0.0 0.0 0.0 0.0 0.0 0.0 0.0 0.0 0.0 0.0 0.0 0.0 0.0 0.0 0.0 0.0 0.0 0.0 0.0 0.0 0.0 0.0 0.0 0.0 0.0 0.0 0.0 0.0 0.0 0.0 0.0 0.0 0.0 0.0 0.0 0.0 0.0 0.0 0.0 0.0 0.0 0.0 0.0 0.0 0.0 0.0 0.0 0.0 0.0 0.0 0.0 0.0 0.0 0.0 0.0 0.0 0.0 0.0 0.0 0.0 0.0 0.0 0.0 0.0 0.0 0.0 0.0 0.0 0.0 0.0 0.0 0.0 0.0 0.0 0.0 0.0 0.0 0.0 0.0 0.0 0.0 0.0 0.0 0.0 0.0 0.0
1.445496 0.472829 -0.104454 -2.288569 -3.591564 -0.12815 -0.6274 2.039422 1.121665 -1.391815 -0.73833 -1.251022 1.896617 -2.616815 -1.23242 -3.262822 -2.166486 -0.707967 -2.674339 5.003761 0.546151 -3.340219 1.887158 -0.665847 -1.053045 2.71587 4.998211 -5.167041 1.015323 2.946766 -1.191359 1.645237 -0.288328 0.994169 5.429724 -4.339954 1.776034 4.808303 -0.876313 -1.552715 -0.938114 -1.751212 -1.911077 1.782831 1.73083 -0.856492 -0.237065 1.055517 1.350393 0.506578 0.500156 -0.273068 3.102494 4.317751 -0.407141 -2.907633 4.241088 4.796893 -1.257396 -4.344135 5.219952 2.876142 -1.709412 -1.742637 -0.774361 -4.028706 0.588345 -0.517294 3.542536 -1.13662 0.627286 1.123263 0.618698 1.226321 -0.076983 -2.337346 0.08597 2.534484 0.112812 -1.843674 0.776137 0.505567 0.80871 -1.612918 -1.487734 -0.335268 -0.082467 -0.915742 0.759002 -0.757045 0.959094 3.779206 -1.489694 -0.116078 0.063642 0.841082 0.077173 1.344321 -0.263535 -1.530582
-0.054376 -0.003695 0.059425 0.008314 -0.104812 0.004503 0.032074 0.001218 0.006428 0.006034 -0.004716 0.028417 -0.015966 -0.010291 0.010951 -0.048984 0.025546 0.07623 0.03525 0.075707 0.016775 -0.04876 0.048555 0.079537 -0.009341 -0.022541 -0.011321 -0.043673 0.028764 -0.0242 0.002478 -0.013728 -0.014615 0.02833 0.014317 0.002803 -0.0155 0.072168 -0.056582 0.031827 -0.081113 -0.01679 0.011786 0.024522 0.040476 -0.001203 0.010264 0.006361 -0.031896 -0.01978 -0.021881 0.003073 -0.020444 -0.013984 -0.011488 -0.00816 0.011914 0.012571 0.026894 0.023436 0.031131 -0.053959 0.046135 -0.110754 -0.042132 -0.026035 0.008193 -0.081168 0.057608 0.037537 -0.035638 0.029622 -0.035662 -0.012686 0.013384 -0.012177 -0.032486 -0.047309 -0.021232 -0.129602 -0.011805 0.066585 0.009994 -0.0593 0.004081 -0.016377 -0.005694 0.001312 0.072694 0.030328 -0.079699 -0.013052 -0.046975 0.009606 -0.003574 -0.040785 0.062552 0.041227 0.02713 -0.027351
2.591633 1.608701 -2.087245 2.00752 3.012652 4.995656 0.847355 -1.594905 -0.365708 -1.629805 -1.650237 3.712017 -0.231463 -0.537534 -2.036098 2.002639 -0.696666 -4.310136 -1.477319 -1.356504 -0.581823 -1.830239 -0.272773 -1.648095 0.090509 0.008711 0.330842 0.396714 2.341035 -0.526067 1.155793 -1.730906 -1.010387 -1.342646 -1.939355 0.734869 0.727366 0.700702 1.516974 -2.133831 -0.280653 -3.051674 0.017123 0.532043 1.478449 0.375441 0.920129 1.548929 1.087478 0.668327 0.707416 3.249232 -0.362503 1.273221 -2.929682 -0.245389 1.633444 -0.119836 0.103459 -3.445175 0.513245 0.427807 0.738792 1.448203 0.501908 0.362882 -0.731533 -0.391201 0.037778 3.053553 4.030229 1.793904 1.24136 0.081706 -1.401954 -0.638804 -0.487445 -0.267924 0.012844 0.538179 -0.241935 -0.068756 1.351665 -0.112558 0.001814 0.447262 0.833441 -0.023876 1.212707 1.514635 -0.568611 0.376173 -3.663739 -4.345135 -0.444319 2.139788 -2.53093 0.92131 -1.399435 1.763954
0.143827 -0.109827 0.034065 0.227088 -0.055472 0.197211 -0.263184 -0.105788 0.075174 0.037992 -0.02462 0.234734 -0.026546 -0.058231 0.124374 -0.05098 -0.044082 -0.076087 0.095286 -0.104294 -0.117871 0.037764 -0.128611 0.130376 -0.042743 -0.102692 0.001838 -0.001977 0.176824 -0.065073 0.146438 0.062689 -0.137862 -0.03456 -0.107469 0.048835 -0.033829 0.05883 -0.077667 -0.149738 -0.129411 -0.004244 0.096813 0.032204 0.019195 0.045283 -0.028667 -0.045173 0.146696 0.073569 0.077296 -0.035214 -0.06627 -0.173317 0.139935 -0.063089 -0.135907 0.058288 -0.023565 -0.189732 -0.026764 -0.060015 0.05455 -0.024232 -0.04955 -0.0857 -0.055489 -0.148741 -0.038161 0.081191 0.120172 0.098276 0.142734 -0.018801 -4.69E-4 -0.112375 -0.072463 0.107795 0.062915 -0.170122 0.094813 0.132555 -0.086554 -0.053139 -0.038224 0.136973 -0.133582 0.007514 0.140238 -0.028718 -0.112625 -0.020174 0.069623 0.179129 -0.123251 -0.323619 -0.004731 -0.144719 0.055472 -0.005833
0.122603 -0.049749 -0.120838 0.025242 -0.169246 -0.152032 -0.080883 -0.138451 -0.210493 -0.204235 -0.221741 0.041355 -0.084333 -0.005224 -0.028214 -0.0373 -0.01107 0.00438 0.154164 0.201031 -0.088751 -0.159722 0.141871 0.020557 0.105232 -0.072252 0.077318 -0.073422 0.233617 -0.08812 -0.167192 -0.106787 -0.136723 0.081163 -0.260207 0.140478 -0.020997 -0.089879 -0.166097 0.047972 -0.232392 0.036765 0.133582 -0.145104 0.183391 0.119554 0.056282 -0.052855 0.213672 0.200286 -0.217064 -0.151725 0.016573 -0.119033 -0.058994 0.050515 -0.218805 -0.279312 -0.121893 0.070262 -0.088783 -0.088545 -0.096914 0.037788 -2.49E-4 -0.152855 -0.036009 -0.099329 -0.157491 -0.131969 0.132683 -0.017596 -0.013394 0.212684 -0.052828 0.080772 -0.051029 0.109447 -0.007415 -0.004242 -0.004395 0.071331 0.005836 0.014665 0.20921 0.112703 0.006153 0.06305 0.074455 0.063989 -0.156384 -0.001332 -0.037988 0.256878 0.203646 -0.18338 -0.301415 -0.066918 -0.053962 -0.131443
-0.125168 -0.161253 0.257577 0.144427 -0.064071 0.007465 -0.059067 0.015992 0.058022 0.137883 0.047283 0.067311 -0.119171 0.054923 0.074749 0.172137 -0.007889 0.162902 -0.073339 0.036694 -0.058154 0.182934 0.184084 -0.094273 -0.145047 -0.022027 -0.112113 -0.182716 0.164145 -0.157151 -0.091204 -0.019581 0.077367 0.133395 -0.060624 0.047433 -0.044078 -0.047089 -0.003759 0.057072 -0.014699 0.129946 -0.094153 -0.182924 0.011772 -0.25496 0.134432 -0.017706 -0.178614 -0.041066 -4.21E-4 0.111863 0.144822 0.072665 0.059471 0.062061 0.041188 0.025828 0.104411 -0.024911 0.154462 -0.040347 -0.061757 -0.085106 -0.033477 0.022389 0.135366 0.012156 0.035913 0.058077 -0.011096 0.038334 -0.017261 -0.067198 0.066996 -0.065619 -0.053434 -0.114799 0.07722 0.151473 -0.103399 0.050012 -0.007165 -0.094231 0.072993 -0.05587 0.066832 -0.088399 0.175703 0.015309 -0.114091 0.045987 -0.052463 0.011457 0.130756 -0.039615 0.062427 0.012253 -0.037946 -0.089804
-0.041731 -0.114337 0.211389 -0.027819 0.135032 -0.081459 0.095288 -0.117137 0.064089 0.083722 0.101496 -0.180003 0.099704 0.025843 0.105845 -0.075453 0.077525 0.156902 -0.00843 0.086935 -0.343336 0.074195 0.001909 -0.065273 0.080954 -0.060091 0.209454 -0.141564 0.042318 -0.15962 0.039541 0.020591 0.099956 -0.114564 0.106892 -0.103472 0.044226 -0.132369 -0.063323 0.049444 -0.103962 0.018657 0.104699 -0.132811 0.096177 0.152597 -0.062103 8.82E-4 -0.053814 -0.021981 -0.011819 -0.051671 -0.012081 0.004633 0.002337 -0.15591 0.048655 -0.031432 -0.036134 -0.023114 -0.049878 0.01629 0.044083 -0.095172 -0.124426 -0.052684 -0.117939 -0.12385 -0.003107 -0.03538 -0.117272 -0.009159 0.007198 0.097903 -0.049114 -0.010449 -0.054541 -0.028346 -0.077079 -0.066659 0.029774 0.090901 0.02763 -0.0255 -0.022261 0.065063 -0.058615 0.108233 0.040046 -0.022059 -0.078746 0.129251 0.098251 0.003851 -0.034253 0.009631 0.111584 0.041411 0.066728 -0.133312
0.077315 0.094458 -0.007108 -0.173733 -0.124016 0.10268 -0.147921 -0.038812 -0.110229 0.125727 0.078715 0.103655 -0.14702 0.038875 0.173455 0.029172 0.085332 0.02049 0.028974 0.209103 -0.048985 0.096129 0.022119 0.051125 -0.02515 0.079908 0.031651 0.190444 0.035202 -0.042677 -0.105544 -0.140258 -0.017468 -0.128506 -0.137886 -0.069351 -0.162297 -0.091859 -0.189312 0.107815 0.219664 0.041735 -0.07544 -0.084491 -0.059106 -0.063775 -0.109205 0.196058 0.051562 -0.084445 -0.072622 -0.069628 -0.035997 -0.118006 0.208404 -0.229657 -0.07943 -0.150258 0.011007 0.191667 0.083006 -0.084947 0.014942 0.17921 -0.015157 0.068533 0.004176 0.048989 0.028669 0.143713 0.076645 0.028479 -0.023023 0.029246 -0.099158 0.02435 -0.105521 0.100665 0.051662 -0.025748 0.125299 -0.043305 0.202724 -0.034303 0.013237 -0.157912 0.118345 0.092195 -0.004208 0.186132 -0.235138 0.02556 0.023231 0.199088 -0.027192 0.068552 0.0464 0.132222 -0.011505 0.162654
0.012081 -0.109525 0.132941 -0.048567 -0.110607 0.069992 -0.063588 -0.158531 -0.158784 -0.013888 0.035706 -0.135947 -0.134464 0.071779 -0.027952 -0.023991 -0.146928 0.287666 0.117409 -0.037438 -0.061732 0.232652 0.236335 0.028172 -0.189825 0.110793 0.078263 -0.244431 -0.123773 -0.077728 0.190686 -0.186177 -0.206608 0.032748 -0.047155 -0.054193 0.051629 0.038668 -0.066155 0.009935 -0.05105 -0.075172 0.032713 0.074729 -0.033297 -0.059223 0.121652 0.065041 -0.229325 0.07065 0.123837 -0.158647 -0.082621 -0.011452 0.089273 -0.01698 7.0E-6 0.021968 0.097433 0.058386 0.059717 0.143983 -0.277892 -0.066483 -0.021533 -0.017909 -0.056886 -0.012421 0.109274 -0.023096 0.008059 0.116352 -0.064568 0.122588 0.18849 0.093756 -0.199127 -0.066128 -0.049119 0.15539 -0.109357 0.167264 -0.032739 -0.04127 0.039432 -0.143022 0.060826 0.219589 0.390066 -0.118427 -0.157044 0.109906 -0.054419 0.056566 -0.069204 0.007117 -0.095487 -0.069454 0.070936 -0.125083
-0.072674 -7.172178 3.243542 -3.416216 -3.078808 6.196021 -4.841667 1.097196 -0.069161 1.281094 -1.867299 2.00664 -3.509578 -1.91784 -3.71946 -1.31319 -2.045076 0.300286 -1.171953 -1.055153 0.413733 -4.900678 -1.569404 0.87886 -2.045129 -1.808549 3.916455 -0.208298 2.321721 -2.340044 -1.758158 0.426659 -1.302078 -0.956855 -1.534045 -0.5092 3.699516 -1.615464 -4.803689 1.209575 2.470521 -1.772277 -1.289194 0.075271 2.969475 5.294761 1.165935 1.551812 -2.864125 -2.655352 5.174971 1.730763 -3.638956 -1.622863 -1.08695 -1.558467 -3.220565 0.142856 -2.906218 2.40766 -2.416126 -0.276478 1.480663 0.762824 -0.901475 0.444124 -2.828977 2.000263 -3.260752 0.442676 2.227862 0.843619 -0.517631 -1.033588 -2.178106 1.253474 -1.086825 1.923508 1.341381 -3.757782 1.47075 1.992821 3.822498 6.974607 4.826773 0.101915 1.476335 -1.446077 -2.964966 2.275137 5.51195 -1.78916 -2.196929 -0.36233 1.699235 -0.269662 -2.034092 -1.169337 -1.898828 -0.46444
0.158934 -0.239953 -0.227038 -0.001375 -0.121096 -0.015757 -0.100348 0.046267 -0.163892 0.153677 0.224417 0.104444 0.134031 -0.102427 0.005439 0.208329 -0.080618 0.327346 0.061378 0.179778 -0.097641 0.022483 0.095034 -0.025838 0.061778 -0.127804 0.083848 0.003984 -0.022795 0.122301 -0.065581 0.094649 0.107987 -0.018255 -0.084258 0.028173 -0.055954 0.116492 0.085883 -0.165718 -7.7E-4 0.369775 0.024722 0.147881 -0.047594 0.081985 -0.053583 -0.016788 -0.116984 -0.109811 -0.0761 -0.022755 -0.081468 -0.018936 0.189692 -0.048889 0.146067 0.182928 0.010792 0.007647 0.131832 -0.158161 0.231478 0.017419 0.029215 0.105771 0.040245 0.143788 -0.131161 -0.130941 -0.032549 -0.108526 -0.126038 0.060834 0.092365 0.102928 0.083105 -0.041609 0.063369 0.012179 -0.091603 -0.031611 -0.042262 0.062882 0.008594 -0.161295 0.100497 -0.15491 0.10936 0.030407 -0.007299 0.233348 -0.037506 0.135175 0.084069 0.01258 0.240508 0.022814 -0.062836 -0.004994
0.0 0.0 0.0 0.0 0.0 0.0 0.0 0.0 0.0 0.0 0.0 0.0 0.0 0.0 0.0 0.0 0.0 0.0 0.0 0.0 0.0 0.0 0.0 0.0 0.0 0.0 0.0 0.0 0.0 0.0 0.0 0.0 0.0 0.0 0.0 0.0 0.0 0.0 0.0 0.0 0.0 0.0 0.0 0.0 0.0 0.0 0.0 0.0 0.0 0.0 0.0 0.0 0.0 0.0 0.0 0.0 0.0 0.0 0.0 0.0 0.0 0.0 0.0 0.0 0.0 0.0 0.0 0.0 0.0 0.0 0.0 0.0 0.0 0.0 0.0 0.0 0.0 0.0 0.0 0.0 0.0 0.0 0.0 0.0 0.0 0.0 0.0 0.0 0.0 0.0 0.0 0.0 0.0 0.0 0.0 0.0 0.0 0.0 0.0 0.0
0.20461 -0.166756 0.038146 0.047243 0.125238 -0.073833 -0.085065 0.00104 0.019704 -0.243412 0.016709 0.0694 -0.130919 0.200043 0.217566 0.002633 0.126128 0.095798 -0.079815 0.041479 -0.029584 0.147163 0.036164 -0.031427 -0.199607 0.047198 -0.004909 0.069272 0.195524 0.001992 -0.099026 0.003667 -0.048972 -0.019635 -0.013023 0.004434 0.018591 -0.032837 0.088044 0.050994 0.076305 -0.226519 -0.011972 0.11313 0.025772 0.085519 -0.037052 0.057438 0.107295 0.049766 0.00145 0.023882 0.146907 -0.167524 0.069246 -0.25554 0.04342 0.059759 -0.152636 0.136538 -0.097229 0.048584 -0.019764 0.099383 -0.06156 0.043025 0.007856 -0.042876 -0.144602 0.086851 0.016789 0.083486 0.079693 -0.05871 -0.020907 -0.048861 0.160337 0.148756 -0.068688 -0.041918 0.109307 -0.209784 -0.055152 -0.202888 0.12491 -0.026853 0.020186 -0.041216 0.003019 -0.025021 -0.207269 0.152877 -0.034352 0.170913 -0.007669 -0.084765 -0.014427 -0.005015 0.069233 0.097403
0.159021 -0.140167 0.187292 0.004843 -0.08354 -0.020005 -0.173788 -0.118262 -0.150648 -0.055257 -0.080342 0.086106 -0.087241 -0.00112 0.159252 0.23534 0.049234 0.180474 0.040963 0.073249 -0.280709 0.134733 0.137151 -0.022232 -0.240047 -0.095589 -0.097579 -0.024795 0.252902 -0.249287 -0.077204 -0.112702 -0.027223 0.069993 -0.179891 -0.002231 0.27909 -0.08597 0.029882 -0.032722 -0.089586 0.116861 -0.049273 0.089898 0.099053 0.035123 0.053989 0.037735 -0.149143 0.021092 0.009046 -0.105893 -0.027805 0.011686 0.097637 0.034925 -0.119498 0.092786 5.51E-4 -0.076619 0.092106 -0.273248 -0.08207 -0.148142 0.001863 0.024917 0.096771 -0.064458 0.077442 -0.214901 -0.081108 -0.111614 -0.04393 0.037871 0.008099 -0.185786 -0.073186 0.021924 -0.012129 -0.117623 -5.19E-4 0.138151 0.269618 -0.283273 0.088422 0.075298 0.046418 -0.15552 0.397135 0.027923 -0.178439 -0.04943 0.146897 0.224109 -0.042571 -0.041841 0.143462 0.140754 -0.062568 -0.118553
-0.108733 -0.061423 -0.098863 -0.132174 0.184499 -0.159858 0.044677 0.091311 0.018223 0.206392 0.081431 0.184179 0.086857 -0.192188 0.062003 0.012817 -0.027886 0.136135 0.138969 -0.074148 0.157175 0.23459 0.08172 0.162628 -0.009311 0.056522 0.039702 0.086811 -0.104706 -0.112551 -0.082889 -0.070624 -0.169422 0.088699 -0.159366 0.019041 0.045287 0.042583 0.102902 -0.249259 -0.127177 0.005548 0.100066 0.140519 -0.113002 0.106162 -0.007585 -0.092711 -0.339348 -0.016454 0.327331 -0.065714 -0.053133 0.046734 -0.078521 -0.151404 -0.054898 0.120586 0.031034 -0.242538 -0.111968 0.087063 0.162687 -0.245404 -0.050231 -0.015502 -0.306047 -0.169036 -0.107036 0.126173 -0.088695 0.239271 -0.065743 0.175986 -0.147415 -0.182975 -0.107658 -0.289069 -0.144229 -0.006646 -0.025676 0.269919 0.169115 -0.18592 -0.171916 0.156869 0.058985 -0.044186 -0.091025 -0.205298 -0.183991 0.011627 0.369494 0.13835 0.141525 0.027377 -0.19293 0.150134 0.254698 -0.015459
0.352905 0.550922 -1.128945 -0.511125 0.774489 1.405335 -0.371647 0.106012 -0.779785 -0.640302 -0.68578 1.570717 -0.712288 -0.706705 -0.789609 -0.045278 -1.599722 -2.840112 -0.089543 -1.158838 -1.862605 -0.62748 -0.063542 -0.468696 0.750564 0.033551 -0.772222 -0.188991 -0.163115 0.455978 0.038455 -0.779588 0.172303 -1.114448 -0.548246 -0.008155 1.66721 -0.744821 -0.15746 -2.668482 -0.304702 -0.905716 0.479063 0.151803 -0.94063 -0.044338 -0.906122 -0.456182 0.281891 0.268287 0.47007 0.628019 0.328428 1.471286 -2.345457 0.072073 -0.345477 -0.998199 -1.496897 -0.053061 0.351206 -0.934426 0.295591 0.07336 0.24092 0.486976 0.390085 -0.621556 0.375246 -0.02625 1.957847 1.014101 0.004675 0.08874 -0.900479 -0.462149 0.922254 1.355385 -1.048724 0.105897 1.254466 0.410718 0.321258 1.066395 -0.171761 -0.128774 0.315556 0.697301 -0.180925 0.555334 1.005586 -0.891677 -1.232923 -1.994189 -0.567812 0.204184 -0.947385 -0.051526 -0.987029 0.725141
-0.061232 -0.175539 0.068167 0.078252 0.06015 0.041012 -0.08028 -0.135502 0.039867 0.279087 0.114418 0.085253 -0.107152 -0.119972 -0.085854 -0.004415 -0.213228 0.264457 -0.050855 0.037778 -0.065963 0.018975 0.144769 0.110755 0.064418 -0.113654 0.008461 0.011742 -0.015715 0.087128 0.04396 -0.099337 0.052369 0.110204 0.086685 0.099776 -0.009413 -0.094261 0.051687 0.080911 0.009893 0.066628 0.058133 -0.308457 -0.09559 -0.078986 0.117073 0.007948 -0.126513 0.035061 0.109192 -0.021008 -0.066383 0.053904 -0.02513 0.227016 -0.216231 -0.117145 0.055456 -0.075415 0.035626 0.005437 -0.166101 -0.101927 -0.020228 0.062948 0.08615 0.038341 -0.022722 0.016005 0.005802 -0.012065 0.041851 0.009544 0.131418 0.049153 -0.041383 -0.055892 0.04277 0.01581 -0.153883 0.065008 -0.130744 -0.423106 0.209176 0.129291 0.123923 0.004876 0.116119 0.058703 0.182482 -0.010209 -0.031067 0.108716 -0.0321 -0.172509 0.079675 0.208561 -0.05406 -0.126631
-0.002795 -0.21011 0.127834 -0.00823 -0.075374 -0.049741 -0.051842 0.023443 0.018768 -0.117286 0.045673 0.183873 0.015618 -0.036521 0.075886 0.215219 0.107905 0.119021 0.182006 0.062936 -0.144146 0.152029 0.062304 0.056924 -0.279897 0.087017 -0.005324 -0.117567 0.147729 -0.255287 -0.046132 0.019501 -0.055959 0.094213 -0.050329 -0.036217 -0.00157 -0.093652 -0.011233 0.091959 0.066806 -0.016812 0.035635 -0.080524 0.108885 0.097184 -0.127981 -0.100494 0.097114 0.06797 0.071666 -0.219084 0.018324 0.088269 0.129009 -0.074538 0.012713 0.049284 -0.05631 -0.001185 0.050445 -0.309752 0.153069 0.02032 0.031139 -0.038214 -0.02165 0.032416 0.07491 -0.108447 -1.66E-4 -0.022387 -0.086169 0.107621 -0.046035 0.011636 -0.032401 0.038874 -0.016808 -0.016776 -0.053123 -0.108705 -0.001653 -0.219547 0.019661 -0.061742 0.059893 0.069224 0.170744 0.235562 -0.269585 0.015752 0.026174 0.05651 0.149015 -0.078086 -0.043971 -0.007838 -0.036333 -0.090567
0.035921 0.044006 -0.041087 0.045923 0.11486 0.091657 -0.134703 0.067704 -0.179971 9.43E-4 0.115089 0.086446 -0.195778 -0.041377 0.144411 0.070663 0.050673 -0.068756 -0.170502 0.074419 -0.041609 -0.012886 0.194753 0.080801 -0.100149 0.052385 -0.123323 0.09808 0.168779 -0.054431 -0.077236 0.146937 0.098696 0.1154 -0.099998 -0.097791 -0.100788 -0.301166 0.073453 0.074044 -0.208999 -0.043171 0.013785 0.073091 -0.053111 -0.092939 -0.127185 0.070022 0.080147 -0.007156 -0.025386 -0.013825 0.006077 0.148636 -0.005753 -0.023443 -0.047861 -0.060011 -0.035341 0.108214 0.099431 -0.170558 -0.027039 -0.206107 -0.040687 0.009126 0.141363 0.0169 -0.173301 0.225059 0.142689 0.164679 0.025707 -0.013744 0.066723 0.076411 -0.060868 -0.060411 0.144979 0.071495 -0.017427 -0.091595 -0.003676 -0.002334 0.019185 -0.004108 0.16325 -0.157031 -0.111803 0.031695 -0.11572 0.036403 -0.044024 -0.175905 -0.048256 -0.071706 0.065096 -0.141065 0.034124 -0.148347
-0.076094 -0.125177 0.268777 0.080031 0.046874 -0.117273 0.054005 -0.044229 -0.05311 -0.072817 0.05301 -0.019455 -0.191376 -0.07825 0.13282 0.172158 -0.081733 0.111833 -0.045751 -0.145095 -0.046012 0.046645 0.141887 0.176136 -0.213094 -0.054854 -0.010207 0.092693 0.068499 -0.1694 -0.054 0.033305 0.002856 0.054712 0.042907 -0.007351 0.074227 -0.018459 0.165115 0.042153 -0.142693 -0.149174 0.140457 -0.002511 0.04367 -0.040157 -0.05802 -0.121621 -0.090128 0.078152 0.221849 -0.194177 -0.117129 -0.041425 -0.003289 0.046077 -0.044702 -0.011549 0.06011 -0.030559 -0.037705 0.034392 0.06461 -0.173934 -0.173424 -0.046227 -0.147467 0.059084 0.078415 -0.026759 -0.011484 -0.120463 -0.10253 0.054631 0.044064 0.011846 -0.012038 -0.033723 -0.047446 -0.181786 -0.0155 -0.068596 0.107438 -0.224851 -0.211342 -0.001678 -0.077963 -0.015455 0.062744 0.006104 -0.123383 0.009574 -0.087065 0.166047 -0.145776 -0.03045 0.008402 -0.010776 0.105832 0.037214
-0.047421 -0.15849 0.107499 0.089927 0.167776 0.08617 -0.300314 -0.309623 0.108092 0.189928 0.056687 0.033222 -0.077897 -0.080874 0.159018 0.266839 -0.245001 0.016831 -0.085825 0.058383 -0.059198 -0.055262 0.240707 -0.12969 -0.22039 0.060318 -0.047124 -0.139865 0.089529 -0.172326 0.039714 -0.133083 -0.093917 0.050088 -0.217563 -0.099461 0.041898 -0.126919 0.020688 0.317283 0.16597 0.022872 0.046324 -0.073254 -0.180954 0.079862 0.019486 0.185367 0.118476 0.006355 -0.032953 -0.037425 0.063885 0.11699 0.184923 0.052025 0.128145 -0.13686 0.190992 -0.211976 0.013083 -0.015876 -0.029147 0.01214 -0.021098 0.071397 0.239282 -0.021331 -0.132596 -0.213218 -0.047197 -0.061747 0.108005 0.06585 0.170104 0.21 0.017802 0.149472 0.139998 -0.100998 0.016478 -0.071088 -0.215638 -0.123884 -0.172349 0.055991 -0.115719 -0.021301 0.071983 0.092645 -0.139537 0.078519 -0.099633 0.035876 -0.078405 -0.346964 0.042416 0.013565 -0.105723 -0.0419
-0.001889 -0.015376 0.011577 -0.079922 0.019615 0.005975 0.018085 -0.133459 0.07886 -0.019014 -0.010821 0.041669 -0.011128 0.097962 -0.060935 0.042309 0.015014 8.49E-4 -0.002449 0.038756 0.0685 -0.030124 0.021652 -0.079703 0.075875 -0.122727 0.144977 0.073106 0.120718 -0.115022 0.047765 0.225363 -0.061747 -0.035103 0.080005 0.064342 -0.011293 0.032618 0.076202 0.118833 0.299047 0.176216 0.148892 -0.105455 -0.022399 0.118571 -0.05437 -0.136016 -0.04767 0.112361 0.012505 0.001737 0.056998 -0.132972 0.205737 0.014869 0.130993 0.242588 0.100312 0.073252 -0.019374 -0.073147 -0.042245 -0.05193 0.119558 0.067972 -0.198268 0.013905 0.103121 -0.09962 -0.010563 -0.219254 -0.117595 0.0375 -0.028297 0.03039 -0.116152 0.021365 0.041774 -0.247365 -0.187561 -0.063496 -0.088808 -0.029223 0.057963 0.069802 -0.07258 -0.052825 0.064478 0.040761 0.149345 0.085248 0.239559 0.137326 -0.140966 0.005439 0.083517 -0.02486 -0.028184 0.111642
-0.148211 0.024138 0.172936 -0.024743 0.175056 -0.031018 0.19674 -0.020063 0.032732 -0.047557 -0.216259 -0.118626 -0.085113 -0.027218 0.161378 0.062552 0.108272 -0.003131 0.144084 0.001866 0.02755 0.015569 0.004181 -0.037039 -0.021171 -0.024217 0.167336 0.079781 0.120033 0.04208 -0.074206 -0.114128 0.0272 0.221874 -0.137752 -0.118108 -0.019071 -0.091814 0.048672 -0.100076 -0.255432 0.031425 -0.002572 0.038627 0.027071 0.131911 0.175426 0.047372 -0.045887 -0.081381 -0.081601 -0.113841 -0.235692 -0.098178 -0.192374 0.113926 -0.113293 -0.033912 -0.107394 0.049782 0.148282 -0.053446 -0.192121 0.12193 0.108096 0.018769 7.35E-4 0.069623 0.038897 -0.217075 -0.157679 0.094094 0.108005 -0.202355 -0.089811 -0.201453 0.099757 0.199275 -0.177023 -0.081822 0.0796 0.070734 0.079711 -0.077939 0.059658 -0.121719 -0.06862 -0.067622 0.141959 -0.04125 0.141613 0.024396 -0.088636 0.050048 3.25E-4 -0.240746 0.108307 0.130566 0.061914 0.128503
-0.069111 0.046548 -0.008312 0.105836 0.105086 0.032645 -0.056969 -0.090508 -0.042349 0.118831 0.073036 0.11191 -0.00996 -0.111465 0.125245 0.127278 -0.195593 -0.053023 0.019282 -0.059959 -0.087979 -0.051653 -0.014814 -0.040968 -0.05435 -0.007141 -0.085557 0.051497 0.178824 -0.015102 -0.020477 -0.031027 -0.04191 -0.115135 -0.005581 0.107725 0.182544 -0.059586 -0.119391 5.44E-4 -0.021003 -0.047002 -0.077257 0.023988 -0.066141 0.002582 -0.193802 0.297125 -0.067886 -0.001133 0.149761 -0.125232 -0.061393 0.003964 -0.178116 -0.235613 -0.156319 0.019428 -0.038522 -0.124441 0.119419 -0.129489 -0.038163 -0.05294 -0.0354 0.178579 -0.097483 0.073568 0.195927 -0.032625 -0.118337 0.023638 0.009228 0.069056 -0.052637 -0.172236 0.051714 0.094459 -0.025784 -0.092401 0.115431 0.126662 0.005714 -0.019721 0.070804 0.005111 0.029751 -0.039322 0.152108 -0.015547 -0.052262 -0.069156 -0.015054 0.032116 0.129339 -0.181947 -0.072277 0.087652 0.111146 -0.087853
0.190593 -0.074149 -0.083467 -0.101489 -0.02698 -0.113658 -0.052977 0.036422 -0.038695 0.076729 0.05792 -0.163865 -0.052124 -0.08917 0.019922 0.182235 -0.02912 0.166036 0.04584 0.063773 0.052438 0.042204 -0.086018 0.025296 -0.086734 -0.032038 0.045579 -0.015942 0.024139 0.039414 -0.009236 -0.031163 -0.135625 -0.077686 0.117363 -0.129831 -0.040224 -0.036191 0.089905 0.096033 -0.044653 0.125657 -0.107135 -0.068881 0.100661 0.002696 0.043135 -0.045529 -0.090926 -0.012592 -0.039999 -0.146772 -0.023091 -0.052753 0.159183 -0.064803 -0.04502 -0.031614 0.158323 -0.025263 0.017509 -0.0568 -0.04479 -0.006572 -0.048064 0.008876 0.019368 -0.155845 0.156015 -0.172022 6.05E-4 0.061451 -0.022694 0.103263 0.002063 -0.041336 0.02375 -0.029282 0.10301 -0.143085 0.058232 -0.003163 0.05148 -0.031576 0.128193 0.067853 -0.155258 0.059203 0.140258 0.209739 0.026169 0.127858 -0.049275 0.055995 0.135796 0.086786 0.083323 -0.006194 0.055489 -0.14239
-0.109163 -0.191478 0.176938 0.158747 -0.094603 0.014841 -0.097218 0.023553 -0.118593 0.29949 0.062688 0.138529 0.020623 0.106482 0.050719 0.08577 0.066896 0.274331 0.045083 0.035189 -0.17428 0.162765 0.114625 0.100983 -0.212349 0.005975 -0.044796 -0.0677 0.13026 -0.162669 -0.063661 -0.080109 -0.010793 0.127913 -0.205086 0.034233 0.016162 -0.138748 -0.03618 0.060254 -0.004051 0.254393 -0.064235 -0.256121 0.010128 -0.088343 0.124967 -0.071961 -0.124844 0.025526 0.107904 -0.098654 2.27E-4 0.06325 0.167935 0.066961 -0.050435 -0.029641 0.157162 -0.015336 0.072403 0.002033 -0.05103 0.012141 -0.007908 0.027512 0.104649 0.051594 0.084238 0.010704 -0.124188 -0.04354 0.016384 -0.051366 -0.095012 0.002764 -0.100361 -0.193219 0.091158 0.018723 0.004189 0.090707 0.054073 -0.281747 0.119344 0.007114 -0.050421 0.145364 0.172627 -0.030182 -0.154156 -0.020021 0.013087 0.026662 0.130919 -0.147982 0.047687 -0.05669 -0.013603 0.0402
0.039811 -0.161652 0.048102 -0.005076 -0.096443 -0.075441 -0.127663 -0.011979 -0.023079 0.030049 -0.066241 0.114059 -0.095946 -0.10346 0.013539 0.013001 -0.026814 0.006381 -0.019774 0.059271 0.024324 0.050489 0.200295 0.0419 -0.169177 -0.003303 0.008554 -0.143865 0.042321 -0.058811 -0.009506 -0.003442 -0.105387 -0.033312 0.018655 -0.007902 -0.024329 0.059502 0.043729 0.038993 -0.082611 0.091517 0.083162 0.001215 -0.009501 -0.04109 -0.030948 0.113262 -0.149251 0.090542 -0.053119 -0.101103 -0.043522 0.103585 -5.15E-4 0.007164 -0.005789 -0.00488 0.127144 -0.055994 0.087484 -0.0755 -0.008898 -0.111458 -0.041766 0.067904 0.013335 0.065302 0.128599 -0.072188 0.017724 0.002345 0.030692 0.00269 0.030485 -0.133867 -0.101417 0.05858 -7.89E-4 0.030344 0.028612 0.113686 -0.003035 -0.086667 -0.047651 -0.007457 0.017778 0.036068 0.067921 0.074512 0.024613 0.121767 0.157749 0.112826 -0.032793 0.033081 0.053637 -0.04593 -0.05178 -0.0201
3.206997 -4.877361 -0.910472 -1.395845 1.572584 1.195669 -0.645877 1.514129 4.001514 1.012958 -3.145483 -0.395437 1.874785 5.030729 -0.714288 0.493562 2.05343 -0.729517 -2.326681 -4.578588 4.021246 1.018946 2.697827 -0.157538 -0.814339 -0.486008 0.989437 1.830659 2.35274 1.218592 0.83605 -0.84899 0.6027 -2.480923 0.003665 -0.862534 3.024495 1.349808 1.198729 -1.537208 -0.457143 0.652121 -3.708537 -0.665668 -1.704043 -1.144021 1.079376 1.529449 -1.413777 -4.361203 0.251599 0.959199 -3.679446 3.251751 -0.363336 -1.856911 1.311208 -0.087199 1.337398 -2.061584 0.277746 0.363671 1.62815 -2.562427 4.072415 2.277454 0.413444 0.269817 -3.077566 -2.043647 0.637895 -0.133715 -0.513107 4.057566 0.540331 -0.387082 4.579637 1.656738 0.39891 -4.182041 2.762143 1.010128 0.478 2.292752 0.772669 -0.49472 0.716144 -1.1895 2.324726 -3.328852 0.040878 2.011935 1.095551 -0.375816 -0.64119 -1.44337 -2.397953 0.997347 -0.139075 -1.143159
-0.041731 -0.114337 0.211389 -0.027819 0.135032 -0.081459 0.095288 -0.117137 0.064089 0.083722 0.101496 -0.180003 0.099704 0.025843 0.105845 -0.075453 0.077525 0.156902 -0.00843 0.086935 -0.343336 0.074195 0.001909 -0.065273 0.080954 -0.060091 0.209454 -0.141564 0.042318 -0.15962 0.039541 0.020591 0.099956 -0.114564 0.106892 -0.103472 0.044226 -0.132369 -0.063323 0.049444 -0.103962 0.018657 0.104699 -0.132811 0.096177 0.152597 -0.062103 8.82E-4 -0.053814 -0.021981 -0.011819 -0.051671 -0.012081 0.004633 0.002337 -0.15591 0.048655 -0.031432 -0.036134 -0.023114 -0.049878 0.01629 0.044083 -0.095172 -0.124426 -0.052684 -0.117939 -0.12385 -0.003107 -0.03538 -0.117272 -0.009159 0.007198 0.097903 -0.049114 -0.010449 -0.054541 -0.028346 -0.077079 -0.066659 0.029774 0.090901 0.02763 -0.0255 -0.022261 0.065063 -0.058615 0.108233 0.040046 -0.022059 -0.078746 0.129251 0.098251 0.003851 -0.034253 0.009631 0.111584 0.041411 0.066728 -0.133312
-0.002795 -0.21011 0.127834 -0.00823 -0.075374 -0.049741 -0.051842 0.023443 0.018768 -0.117286 0.045673 0.183873 0.015618 -0.036521 0.075886 0.215219 0.107905 0.119021 0.182006 0.062936 -0.144146 0.152029 0.062304 0.056924 -0.279897 0.087017 -0.005324 -0.117567 0.147729 -0.255287 -0.046132 0.019501 -0.055959 0.094213 -0.050329 -0.036217 -0.00157 -0.093652 -0.011233 0.091959 0.066806 -0.016812 0.035635 -0.080524 0.108885 0.097184 -0.127981 -0.100494 0.097114 0.06797 0.071666 -0.219084 0.018324 0.088269 0.129009 -0.074538 0.012713 0.049284 -0.05631 -0.001185 0.050445 -0.309752 0.153069 0.02032 0.031139 -0.038214 -0.02165 0.032416 0.07491 -0.108447 -1.66E-4 -0.022387 -0.086169 0.107621 -0.046035 0.011636 -0.032401 0.038874 -0.016808 -0.016776 -0.053123 -0.108705 -0.001653 -0.219547 0.019661 -0.061742 0.059893 0.069224 0.170744 0.235562 -0.269585 0.015752 0.026174 0.05651 0.149015 -0.078086 -0.043971 -0.007838 -0.036333 -0.090567
2.591633 1.608701 -2.087245 2.00752 3.012652 4.995656 0.847355 -1.594905 -0.365708 -1.629805 -1.650237 3.712017 -0.231463 -0.537534 -2.036098 2.002639 -0.696666 -4.310136 -1.477319 -1.356504 -0.581823 -1.830239 -0.272773 -1.648095 0.090509 0.008711 0.330842 0.396714 2.341035 -0.526067 1.155793 -1.730906 -1.010387 -1.342646 -1.939355 0.734869 0.727366 0.700702 1.516974 -2.133831 -0.280653 -3.051674 0.017123 0.532043 1.478449 0.375441 0.920129 1.548929 1.087478 0.668327 0.707416 3.249232 -0.362503 1.273221 -2.929682 -0.245389 1.633444 -0.119836 0.103459 -3.445175 0.513245 0.427807 0.738792 1.448203 0.501908 0.362882 -0.731533 -0.391201 0.037778 3.053553 4.030229 1.793904 1.24136 0.081706 -1.401954 -0.638804 -0.487445 -0.267924 0.012844 0.538179 -0.241935 -0.068756 1.351665 -0.112558 0.001814 0.447262 0.833441 -0.023876 1.212707 1.514635 -0.568611 0.376173 -3.663739 -4.345135 -0.444319 2.139788 -2.53093 0.92131 -1.399435 1.763954
7.24E-4 -0.031559 0.045731 0.030518 0.120621 -0.048906 -0.01325 -0.186245 0.021287 0.0085 0.05109 0.021243 -0.076045 -0.188208 0.004679 0.160169 0.017064 0.141879 0.054208 0.022435 -0.170883 -0.050834 0.085081 0.040636 0.089485 0.090979 0.04581 -0.154161 -0.072734 -0.065645 0.18534 0.059918 0.067037 -0.097336 -0.001173 0.088524 0.079779 -0.006823 0.076717 0.010213 0.022031 0.112512 0.032199 -0.030851 -0.040039 0.062614 0.100346 0.009072 0.020054 0.092271 0.083237 -0.212266 -0.062808 0.036227 -0.025637 -0.064927 -0.130073 -0.048118 0.030728 0.01007 -0.069525 0.085343 9.57E-4 -0.069792 -0.041382 -0.051717 0.015703 0.198753 -0.064245 -0.092735 -0.08027 0.058291 0.056399 0.04245 -0.006346 -0.049423 4.03E-4 0.0354 -0.057731 -0.008255 -0.021348 0.103489 0.047552 -0.043407 -0.160651 -0.078624 0.0135 0.04979 0.131747 0.198337 -0.035769 -0.072526 0.066841 -0.032415 0.006947 0.005046 0.009104 0.060922 0.029884 -0.186175
-0.177982 5.42E-4 -0.058787 -0.042986 0.019088 -0.07301 -0.113567 -0.048602 -0.111994 0.077081 -0.064429 -0.052309 0.107101 0.010132 -0.051043 -0.06249 0.034221 0.089497 0.034881 0.122433 -0.283278 0.026441 0.072924 -0.172696 -0.010091 0.121215 0.018512 0.014511 0.07091 -0.123185 0.021533 0.003516 0.016005 0.038951 -0.018904 0.016269 -0.131781 -0.040631 0.083819 0.218937 -0.005684 0.139408 0.044022 -0.012295 0.046568 -0.005967 0.108357 -0.023956 -0.178152 0.169509 0.054656 0.02338 0.048805 -0.018066 0.143428 -0.04062 0.080443 -0.163864 0.144698 -0.108681 -0.114589 -0.067844 0.109382 0.05381 -0.085662 0.098589 0.016784 0.03693 0.004596 -0.053567 -0.020095 0.211614 0.123797 -0.159272 -0.006375 0.004273 0.165679 0.003847 0.010679 -0.013199 0.065202 0.148104 0.045966 -0.179081 -0.050832 -0.046846 -0.001358 -0.12108 -0.13557 -0.149647 -0.089195 -0.036174 0.148524 -0.003514 0.004657 -0.093048 0.012667 0.116611 0.096985 0.047356
0.158934 -0.239953 -0.227038 -0.001375 -0.121096 -0.015757 -0.100348 0.046267 -0.163892 0.153677 0.224417 0.104444 0.134031 -0.102427 0.005439 0.208329 -0.080618 0.327346 0.061378 0.179778 -0.097641 0.022483 0.095034 -0.025838 0.061778 -0.127804 0.083848 0.003984 -0.022795 0.122301 -0.065581 0.094649 0.107987 -0.018255 -0.084258 0.028173 -0.055954 0.116492 0.085883 -0.165718 -7.7E-4 0.369775 0.024722 0.147881 -0.047594 0.081985 -0.053583 -0.016788 -0.116984 -0.109811 -0.0761 -0.022755 -0.081468 -0.018936 0.189692 -0.048889 0.146067 0.182928 0.010792 0.007647 0.131832 -0.158161 0.231478 0.017419 0.029215 0.105771 0.040245 0.143788 -0.131161 -0.130941 -0.032549 -0.108526 -0.126038 0.060834 0.092365 0.102928 0.083105 -0.041609 0.063369 0.012179 -0.091603 -0.031611 -0.042262 0.062882 0.008594 -0.161295 0.100497 -0.15491 0.10936 0.030407 -0.007299 0.233348 -0.037506 0.135175 0.084069 0.01258 0.240508 0.022814 -0.062836 -0.004994
2.87464 -0.701464 -1.945087 0.798465 -1.901464 1.233586 0.415548 0.910772 -0.151839 1.954772 -2.264912 0.994107 0.647736 1.938717 -1.183067 0.135941 1.050214 0.11356 0.379275 1.268901 0.645368 0.378905 1.320608 -1.295395 0.750989 0.976305 1.28864 -0.982362 -1.931958 -1.239804 1.587084 0.099185 -0.294902 0.436027 0.579342 -1.183696 2.604155 -3.317551 -3.743154 -0.710407 -1.556585 -0.511151 -0.532478 0.756932 1.957984 -0.225002 -2.678844 0.397858 3.112323 3.965641 -0.165851 0.658701 -0.352562 2.544936 -1.39593 -0.599487 1.586211 -0.84923 -1.311629 -0.481193 1.327159 -0.223012 1.456903 -1.794692 0.410009 1.426936 2.365917 0.247322 -1.171522 1.262023 0.9894 3.527386 0.238687 -0.61635 1.079046 0.388121 -2.076334 0.369052 0.602814 0.861609 -0.099859 -1.472652 -1.350623 2.55205 2.553534 -0.407998 0.322457 1.532821 -1.233828 -0.554601 -1.412275 -1.700174 0.034869 0.921896 0.269059 1.176658 0.871542 0.570573 0.448573 0.170237
0.06553 -0.125673 0.034491 0.043696 -0.08785 -0.070191 -0.104459 -0.048669 0.006119 0.030927 -0.13537 -0.036367 -0.163152 -0.059444 0.060532 -0.023973 0.098727 0.031182 -0.080261 0.051743 -0.07395 0.036216 -0.082271 -0.07694 -0.227916 8.49E-4 0.074039 -0.007776 0.046045 -0.104478 0.002922 0.032865 -0.001549 -0.142678 0.054115 -0.01641 0.00671 0.02971 0.075554 0.035918 0.017778 0.02266 0.074529 -0.007011 -0.166621 -0.149341 -0.036893 0.187838 -0.051182 0.035542 0.035646 -0.071808 0.164016 0.07998 0.087969 -0.192645 -0.030305 -0.225898 -0.106839 -0.021025 0.244137 -0.057087 -0.051305 0.059616 -0.184024 0.189175 0.205994 -0.054882 -0.034451 -0.087239 0.044602 -0.036991 -0.094929 -0.008204 0.212651 0.003758 -0.115127 0.104404 0.032918 0.078207 0.184447 0.044535 -0.025218 -0.026929 -0.017865 0.117728 0.029414 -0.031504 0.043071 0.093661 -0.096078 -0.012874 0.052235 0.078689 -0.053345 -0.059396 0.152948 -0.086422 -0.102222 -0.027954
-0.03465 0.057645 -0.014494 0.047907 -0.056534 0.020841 -0.088075 -0.075684 0.11978 0.162074 0.048734 0.050684 0.121228 0.059882 0.005145 -0.033401 0.136772 0.192176 0.101531 0.100533 -0.022028 -0.044585 -0.030063 0.071547 0.090323 0.116802 0.056497 -0.036478 0.080892 -0.045804 0.074654 -0.089752 0.001933 0.047382 -0.045524 -0.012518 -0.076183 0.070093 -0.035094 0.287442 0.001229 0.313728 -0.042271 0.08963 0.053511 -0.014413 0.115778 -0.077324 0.094934 -0.136918 0.05552 -0.06543 -0.029358 -0.044215 -0.001041 -0.025251 0.02801 0.013687 -0.154969 -0.08779 -0.107689 0.05513 -0.024721 0.139219 0.066781 -0.04134 0.107118 0.077285 0.009856 0.101353 -0.123748 -0.16232 -0.017751 -0.038294 0.046339 0.004852 0.003389 -0.163816 -0.069648 -0.021435 0.086789 0.076375 0.081804 0.036839 0.145777 -0.022423 -0.013371 -0.004977 -0.020763 0.009155 -0.135038 -0.156216 0.027726 -0.0513 -0.19831 -0.026902 0.148375 -0.086923 -0.031353 -0.114069
-0.024322 -0.303699 6.57E-4 0.124013 0.096642 0.042796 0.078399 -0.043308 -0.039367 -0.030939 0.02516 -0.029414 -0.115077 -0.307309 0.071962 0.11219 -0.082688 -0.069067 0.068999 0.016192 -0.028041 0.198763 -0.032337 -0.011087 0.091512 -0.048044 -0.113547 0.011122 -0.004473 -0.060547 -0.104108 -0.030799 -0.092209 0.08433 -0.070757 -0.066028 0.039562 -0.090053 0.080573 -0.071696 -0.060823 -0.075948 0.110598 0.160809 0.022521 -0.159859 -0.015239 0.115199 -0.12507 -0.04408 -0.085618 0.011849 -0.15078 -0.064003 -0.050593 0.048569 0.072066 -0.039631 0.166476 0.071693 0.031732 0.025521 -0.155724 0.012469 0.070119 0.15155 0.003252 -0.071969 0.157402 -0.06635 -0.072398 0.026004 -0.136485 0.076075 0.056589 -0.064894 -0.249087 0.124056 0.065084 -0.085369 0.043376 -0.165438 -0.007667 0.039438 -0.106483 0.116727 -0.184719 -0.086273 0.029854 -0.045885 0.074966 -0.040103 0.001017 -0.194468 0.035261 -0.224162 0.096102 -0.025166 -0.050546 -0.067245
-0.049635 -0.103073 0.253887 0.04108 0.052319 -0.05142 -0.189597 -0.011542 0.097531 0.019262 0.114527 -0.061102 -0.133151 -0.113371 -0.033199 0.136072 0.054274 0.349724 0.038691 0.110156 -0.1179 0.163816 0.394264 -0.007222 -0.168843 0.098743 -0.10521 -0.087412 0.040951 -0.188737 0.098713 -0.043611 -0.055949 0.238297 -0.186196 -0.028662 -0.089183 0.183903 -0.066614 -0.103684 -0.131928 -0.00787 0.062976 0.041979 0.043564 0.032857 -0.123864 -0.037007 -0.173638 0.033704 0.18433 -0.12014 -0.10154 0.029101 0.183689 0.042064 0.013369 0.130856 0.0106 -0.243803 0.0724 0.002816 -0.314683 -0.183085 0.034406 -0.088406 -0.045928 -0.022786 -0.071209 -0.081021 -0.196672 0.062834 -0.075166 0.01034 0.069947 0.031525 -0.19813 -0.161053 -0.05765 -0.077149 -0.016348 -0.018007 0.043652 -0.363365 -0.062151 0.006908 0.152125 -0.071699 -0.087589 -0.033835 -0.160873 -0.101492 -0.02442 -0.017106 0.004936 -0.058972 -0.002956 -0.213757 0.042222 0.024238
-0.034521 -0.118511 0.00412 0.058899 -0.05135 0.037108 -0.099168 -0.148482 -0.223119 -0.104315 0.096434 0.059488 -0.127421 -0.040351 0.05682 0.11458 0.05127 -0.046685 0.018356 -0.067017 -0.048659 -0.024511 0.038663 -0.095117 -0.092241 0.077755 -0.140825 0.056756 0.082198 -0.144788 -0.076429 -0.189131 -0.073752 0.076321 0.069717 -0.135739 -0.05924 -0.078809 0.117107 0.017513 -0.119376 -0.087803 -0.076115 0.23388 -0.156504 -0.037037 -0.178823 -0.063351 0.074162 -0.149728 -0.065551 0.05924 -0.030192 -0.201801 0.040938 0.091364 -0.102647 -0.095288 0.088175 -0.045773 0.097088 -0.065988 -0.073346 0.046204 0.052468 -0.081334 0.075179 -0.128058 -0.033676 0.145876 0.03573 0.166696 0.030002 -0.028976 -0.087241 -0.082765 -0.085382 -0.07593 3.73E-4 -0.067983 0.013465 0.093235 -0.068083 0.105041 0.043172 0.014567 -0.205575 0.077081 0.11525 -0.066448 0.002205 -0.070038 0.055897 0.033385 0.01991 0.014488 -0.161143 0.122216 0.036295 0.181005
-0.041731 -0.114337 0.211389 -0.027819 0.135032 -0.081459 0.095288 -0.117137 0.064089 0.083722 0.101496 -0.180003 0.099704 0.025843 0.105845 -0.075453 0.077525 0.156902 -0.00843 0.086935 -0.343336 0.074195 0.001909 -0.065273 0.080954 -0.060091 0.209454 -0.141564 0.042318 -0.15962 0.039541 0.020591 0.099956 -0.114564 0.106892 -0.103472 0.044226 -0.132369 -0.063323 0.049444 -0.103962 0.018657 0.104699 -0.132811 0.096177 0.152597 -0.062103 8.82E-4 -0.053814 -0.021981 -0.011819 -0.051671 -0.012081 0.004633 0.002337 -0.15591 0.048655 -0.031432 -0.036134 -0.023114 -0.049878 0.01629 0.044083 -0.095172 -0.124426 -0.052684 -0.117939 -0.12385 -0.003107 -0.03538 -0.117272 -0.009159 0.007198 0.097903 -0.049114 -0.010449 -0.054541 -0.028346 -0.077079 -0.066659 0.029774 0.090901 0.02763 -0.0255 -0.022261 0.065063 -0.058615 0.108233 0.040046 -0.022059 -0.078746 0.129251 0.098251 0.003851 -0.034253 0.009631 0.111584 0.041411 0.066728 -0.133312
1.519526 1.445578 -1.609499 2.582747 2.460795 3.529971 0.431498 -0.524736 0.238502 0.565084 -2.150664 2.607871 -3.578636 0.22885 1.205379 0.400126 -2.365878 -2.228676 -0.500047 -1.958516 -2.734259 -2.028213 -0.339577 -2.726884 0.003785 -1.85554 -0.90189 1.042933 0.930181 0.561229 0.956561 0.220468 -1.219533 -0.188243 -0.649085 -0.117874 2.101841 -0.317004 1.300647 -1.49228 0.533457 -2.976113 -0.635474 -1.431524 -0.943268 0.543614 -2.072507 -1.004219 4.072807 -1.496014 2.612373 2.458477 -0.120651 0.418572 -2.53177 0.646754 2.04053 2.0667 -2.403623 -3.037353 -1.289071 1.269349 0.447478 0.512568 0.464348 -0.142416 -1.155552 0.32258 -0.986119 3.909852 3.839548 0.865499 -1.089316 -1.400134 0.517204 -3.398406 -0.576028 -0.612853 -0.573641 -1.979957 1.278503 1.159562 0.583915 -0.210028 0.851463 1.075476 2.276915 0.114312 2.2836 1.968815 1.899569 0.001135 -2.286771 -2.666814 -1.408445 1.975128 -0.085175 1.44887 -1.994305 2.796178
0.012081 -0.109525 0.132941 -0.048567 -0.110607 0.069992 -0.063588 -0.158531 -0.158784 -0.013888 0.035706 -0.135947 -0.134464 0.071779 -0.027952 -0.023991 -0.146928 0.287666 0.117409 -0.037438 -0.061732 0.232652 0.236335 0.028172 -0.189825 0.110793 0.078263 -0.244431 -0.123773 -0.077728 0.190686 -0.186177 -0.206608 0.032748 -0.047155 -0.054193 0.051629 0.038668 -0.066155 0.009935 -0.05105 -0.075172 0.032713 0.074729 -0.033297 -0.059223 0.121652 0.065041 -0.229325 0.07065 0.123837 -0.158647 -0.082621 -0.011452 0.089273 -0.01698 7.0E-6 0.021968 0.097433 0.058386 0.059717 0.143983 -0.277892 -0.066483 -0.021533 -0.017909 -0.056886 -0.012421 0.109274 -0.023096 0.008059 0.116352 -0.064568 0.122588 0.18849 0.093756 -0.199127 -0.066128 -0.049119 0.15539 -0.109357 0.167264 -0.032739 -0.04127 0.039432 -0.143022 0.060826 0.219589 0.390066 -0.118427 -0.157044 0.109906 -0.054419 0.056566 -0.069204 0.007117 -0.095487 -0.069454 0.070936 -0.125083
0.0 0.0 0.0 0.0 0.0 0.0 0.0 0.0 0.0 0.0 0.0 0.0 0.0 0.0 0.0 0.0 0.0 0.0 0.0 0.0 0.0 0.0 0.0 0.0 0.0 0.0 0.0 0.0 0.0 0.0 0.0 0.0 0.0 0.0 0.0 0.0 0.0 0.0 0.0 0.0 0.0 0.0 0.0 0.0 0.0 0.0 0.0 0.0 0.0 0.0 0.0 0.0 0.0 0.0 0.0 0.0 0.0 0.0 0.0 0.0 0.0 0.0 0.0 0.0 0.0 0.0 0.0 0.0 0.0 0.0 0.0 0.0 0.0 0.0 0.0 0.0 0.0 0.0 0.0 0.0 0.0 0.0 0.0 0.0 0.0 0.0 0.0 0.0 0.0 0.0 0.0 0.0 0.0 0.0 0.0 0.0 0.0 0.0 0.0 0.0
-0.02531 0.081993 -0.005137 -0.039057 0.117937 0.06651 0.076878 -0.18508 -0.171057 0.097363 0.14776 0.096218 -0.171549 -0.085013 -0.023483 0.154305 -0.047997 0.039036 0.006998 0.109328 -0.002818 0.085333 0.1339 -0.06548 0.081733 0.027309 -0.103573 0.035726 0.111819 -0.039711 -0.170842 0.085529 -0.063207 0.096632 8.7E-4 0.029495 -0.005556 -0.060203 0.118512 -0.063106 -0.077201 0.040769 0.185257 -0.003166 0.113601 -0.03562 -0.226528 -0.143118 0.051859 -8.2E-5 0.08356 -0.138536 -0.153182 0.077226 0.009262 -0.06305 0.030643 -0.08238 -0.097813 -0.116094 -0.088721 -0.045615 0.02385 -0.139319 -0.144107 -0.137175 -0.102071 0.054531 0.02733 -0.141925 0.076189 0.004581 -0.018081 -0.204457 -0.02278 -0.130955 -0.302245 0.14104 0.008163 0.048636 -0.007859 -0.008358 0.024996 -0.148797 -0.05685 0.070791 0.005948 -0.06295 0.058772 0.229771 0.078965 -0.068855 -0.012802 -0.142006 0.07906 0.164217 0.036623 -0.073095 -0.093477 -0.148304
0.028566 0.135166 0.096699 0.105631 0.036535 -0.143409 0.086774 0.050924 0.108259 0.038707 0.117569 0.277209 0.088768 0.147454 0.049805 0.209769 -0.140023 -0.044747 -0.020261 -0.095157 -0.074908 0.102905 -0.115126 -0.068426 -0.035475 -0.030235 0.033792 0.211817 0.155358 -0.029238 -0.010171 0.055346 0.068868 0.040866 0.062192 -0.061423 0.004606 -0.055839 -0.122253 0.018865 -0.086782 0.075329 -0.011442 0.05577 -0.021768 0.044243 0.281932 -0.256007 -0.140494 0.150427 0.058319 -0.089054 0.082799 -0.168304 0.13356 -0.027805 -0.071835 -0.091562 -0.174502 6.17E-4 0.007892 -0.017618 -0.104252 0.034519 0.092304 -0.251686 -0.163454 -0.087788 -0.003563 -0.032691 -0.144932 0.063617 -0.009836 -0.079796 0.008017 0.176916 -0.038438 -6.72E-4 -0.038006 -0.181938 0.179608 0.090493 -0.040085 0.056412 0.111268 -0.150258 -0.01833 0.036197 0.285553 0.145815 0.031913 0.030398 0.078263 0.123398 -7.05E-4 -0.102937 0.152214 0.03334 0.09407 -0.022901
0.129347 -0.034539 0.110756 -0.026581 0.053886 -0.05038 0.172565 0.132583 -0.006302 -0.025741 0.199193 -0.01627 -0.058173 0.038852 0.028399 0.136799 0.128914 -0.089835 0.105659 0.069627 -0.106558 0.048134 0.078275 0.091079 -0.215898 0.129203 0.06114 0.070604 0.154959 -0.061403 -0.15137 0.108239 0.040297 -0.028921 -0.140838 0.004863 0.040579 -0.022986 0.060521 -0.153493 0.09818 -0.227794 -0.085577 0.195567 -0.053753 0.112956 -0.044755 -0.040024 -0.044331 -0.019505 -0.063551 -0.166768 -0.1715 -0.163148 0.313635 0.204647 -0.094257 0.087367 0.093534 0.108667 -0.039805 0.002312 0.075644 -0.03595 0.023051 0.049548 -0.016284 0.056146 -0.060892 0.086197 0.080908 -0.100306 0.007319 0.050592 0.04522 -0.055598 0.156943 -0.10538 -0.039652 -0.321456 0.14167 -0.161084 -0.014301 -0.218639 -0.161051 0.149793 0.124222 0.004853 -0.114716 0.088538 -0.055419 0.040508 -0.109684 -0.082626 -0.151726 -0.053494 -0.152339 0.019812 0.07956 0.091433
-0.309744 -0.23788 0.221223 0.035258 -0.031348 0.259589 -0.249475 0.073892 0.076251 0.095365 0.024037 0.03054 -0.024222 -0.109233 -0.026341 -0.20514 -0.109754 -0.003442 -0.081343 0.036571 -0.204218 0.023716 -0.065091 -0.105334 -0.223545 0.037655 -0.171112 -0.121351 0.121382 0.192911 -0.18496 -0.207567 -0.180525 0.222564 -0.202596 -0.026556 -0.030106 -0.049588 0.108851 0.158742 0.15793 0.118188 0.033227 -0.042376 0.019918 0.067694 0.112606 -0.05858 -0.322922 0.108194 -0.081196 -0.080386 0.030468 -0.091201 0.216984 0.032335 -0.147811 0.042845 0.058471 -0.07327 -0.2817 -0.019265 0.068997 -0.009123 -0.157255 0.273275 -0.06813 -0.073044 0.174008 0.093099 -0.080168 -0.030719 -0.007683 -0.079005 -0.237147 -0.240912 -0.131504 0.037961 -0.241002 0.136594 -0.195395 0.505685 0.250409 0.084241 0.122323 0.041168 -0.312287 -0.07245 -0.075842 0.209664 0.043018 -0.057069 0.221081 0.102778 0.066015 -0.031617 -0.041468 -0.065685 -0.105651 0.074308
0.067365 -0.098234 -0.087276 0.094984 -0.016626 0.332459 -0.07222 0.121676 -0.031477 0.14974 0.243532 -0.094988 -0.09894 0.20782 -0.007434 0.059112 -0.183023 0.126756 -0.015388 0.019289 0.193392 0.252587 0.249131 0.168913 -0.049026 0.13608 0.04419 -0.036512 -0.084217 -0.184984 0.046543 -0.297416 -0.155453 -0.100258 0.179937 -0.444897 -0.114554 -0.037583 0.164788 -0.060788 -0.105272 -0.041323 0.084466 0.178411 -0.182368 -0.315266 0.162192 -0.065039 -0.280966 -0.058211 0.103369 0.03917 -0.34387 0.092852 -0.126362 -0.030967 -0.080224 -0.374896 0.404137 -0.045019 0.169645 0.177729 -0.019474 -0.242705 -0.103578 -0.046288 -0.297823 -0.049549 -0.100837 0.102079 0.043778 0.192599 0.026613 0.048479 0.284639 -0.171068 -0.227212 0.006306 0.074202 0.025097 0.023176 0.370704 0.061126 0.164567 0.3824 -0.356018 0.022405 0.177539 0.19105 0.024056 -0.155907 0.119275 0.056992 -0.014233 0.052606 0.065523 0.024943 -0.183555 0.066572 -0.056079
0.634643 -0.381995 -2.208899 -2.812775 -1.105947 0.788519 -1.575939 -0.876815 0.348251 0.329578 0.998167 3.25392 0.718666 0.541352 0.831078 -0.439712 0.59093 -2.172773 1.053702 0.293561 -1.753899 0.107397 0.771913 -2.564005 -1.651223 1.12094 -0.519078 -0.735285 2.226104 -1.142469 1.189553 0.742534 -1.339821 1.286721 -1.321571 0.495237 3.158176 -2.472397 -0.333577 0.579143 -0.613611 -3.468117 0.86921 -1.027051 0.21306 -2.21271 0.284752 1.114497 1.202949 0.737063 -1.502641 0.058803 -0.14975 0.95466 0.463932 -0.200871 2.224723 0.726087 2.014006 -0.855233 -1.03695 0.845071 1.461033 -0.828813 2.459889 0.110078 1.008897 -0.893632 -0.242164 1.576597 0.516182 -1.482806 1.019496 1.302131 1.879828 -1.322086 -0.848205 -0.543462 -0.73467 1.849485 -0.007302 -0.921737 -1.927244 0.181399 0.421389 -0.326213 -0.310249 2.179443 1.61726 0.392231 0.931454 -0.744013 0.643198 -2.881091 1.91611 1.837631 -0.984956 -1.051905 -1.41188 0.911914
2.591633 1.608701 -2.087245 2.00752 3.012652 4.995656 0.847355 -1.594905 -0.365708 -1.629805 -1.650237 3.712017 -0.231463 -0.537534 -2.036098 2.002639 -0.696666 -4.310136 -1.477319 -1.356504 -0.581823 -1.830239 -0.272773 -1.648095 0.090509 0.008711 0.330842 0.396714 2.341035 -0.526067 1.155793 -1.730906 -1.010387 -1.342646 -1.939355 0.734869 0.727366 0.700702 1.516974 -2.133831 -0.280653 -3.051674 0.017123 0.532043 1.478449 0.375441 0.920129 1.548929 1.087478 0.668327 0.707416 3.249232 -0.362503 1.273221 -2.929682 -0.245389 1.633444 -0.119836 0.103459 -3.445175 0.513245 0.427807 0.738792 1.448203 0.501908 0.362882 -0.731533 -0.391201 0.037778 3.053553 4.030229 1.793904 1.24136 0.081706 -1.401954 -0.638804 -0.487445 -0.267924 0.012844 0.538179 -0.241935 -0.068756 1.351665 -0.112558 0.001814 0.447262 0.833441 -0.023876 1.212707 1.514635 -0.568611 0.376173 -3.663739 -4.345135 -0.444319 2.139788 -2.53093 0.92131 -1.399435 1.763954
0.032817 -0.089134 0.148761 0.025345 -0.01923 -0.148821 -0.205892 -0.112301 -0.237202 0.136287 0.134762 0.239492 0.128875 -0.183372 -0.040242 0.281763 -0.240697 0.347354 0.168752 0.047089 -0.180048 -8.65E-4 0.143859 0.078207 -0.204834 -0.147421 -0.064213 -0.052187 0.122064 -0.083446 0.001249 0.0749 -0.269208 0.095034 -0.185838 -0.031473 -0.047511 -0.052145 0.047224 0.114331 -0.122967 0.263975 -0.021193 0.034501 0.034191 -0.11869 0.125529 -0.031421 -0.229566 0.209471 0.051123 -0.197017 3.63E-4 -0.036714 0.266471 -0.174432 0.161867 -0.057331 0.167893 -0.052871 -0.059991 -0.070231 -0.143268 -0.104599 0.070071 0.004926 0.083664 -0.082291 0.204389 -0.107821 0.130021 0.012917 -4.5E-5 0.116778 -0.04665 0.060235 -0.244325 -0.149496 -0.014409 0.098801 -0.108386 0.101742 0.127589 -0.155718 -0.007094 0.228894 -0.07404 -0.030787 0.131071 -0.137504 -0.042937 0.107759 0.021141 0.202488 -0.106122 -0.297171 0.180313 -0.048691 0.07668 -0.105126
0.077315 0.094458 -0.007108 -0.173733 -0.124016 0.10268 -0.147921 -0.038812 -0.110229 0.125727 0.078715 0.103655 -0.14702 0.038875 0.173455 0.029172 0.085332 0.02049 0.028974 0.209103 -0.048985 0.096129 0.022119 0.051125 -0.02515 0.079908 0.031651 0.190444 0.035202 -0.042677 -0.105544 -0.140258 -0.017468 -0.128506 -0.137886 -0.069351 -0.162297 -0.091859 -0.189312 0.107815 0.219664 0.041735 -0.07544 -0.084491 -0.059106 -0.063775 -0.109205 0.196058 0.051562 -0.084445 -0.072622 -0.069628 -0.035997 -0.118006 0.208404 -0.229657 -0.07943 -0.150258 0.011007 0.191667 0.083006 -0.084947 0.014942 0.17921 -0.015157 0.068533 0.004176 0.048989 0.028669 0.143713 0.076645 0.028479 -0.023023 0.029246 -0.099158 0.02435 -0.105521 0.100665 0.051662 -0.025748 0.125299 -0.043305 0.202724 -0.034303 0.013237 -0.157912 0.118345 0.092195 -0.004208 0.186132 -0.235138 0.02556 0.023231 0.199088 -0.027192 0.068552 0.0464 0.132222 -0.011505 0.162654
-0.26639 -0.104912 0.180519 0.043667 0.041207 -0.008381 0.035828 -0.02579 0.038929 0.035407 -0.045987 0.093855 0.05433 0.066768 0.181295 0.016569 -0.262033 0.088718 -0.019571 0.052693 0.009422 0.007749 -0.062198 0.035078 -0.170783 -0.109887 -0.051371 0.088142 0.135591 -0.010743 0.025514 -0.009047 -0.121579 0.186548 0.022521 0.036774 0.17183 0.066132 0.09254 0.082441 -0.088491 -0.081832 0.017962 -0.036285 -0.059927 0.038842 -0.0052 0.081773 -0.050056 0.091032 0.203915 -0.091347 -0.101425 -0.177557 -0.044136 0.113395 0.140815 -0.005832 0.068476 -0.192456 0.057304 -0.102904 -0.094204 -0.199142 -0.166277 -0.01435 2.05E-4 0.073523 0.121399 0.031439 0.010424 -0.100921 0.049779 0.0731 0.03039 -0.023583 -0.137003 -0.08019 -0.121996 -0.288955 -0.041308 0.110603 0.155086 -0.11951 -0.218402 -0.075287 0.015009 -0.113641 0.196042 0.012681 -0.131442 0.013214 0.01092 0.144369 0.024212 -0.179417 -0.032645 -0.112605 0.114788 0.0294
