-0.12481 0.09112 0.1268 -0.107021 0.042383 -0.047315 -0.055052 -0.169163 -0.031913 -0.191553 -0.096391 0.031788 0.172067 0.037068 0.314375 -0.13768 -0.101431 -0.020064 0.133418 -0.106829 -3.59E-4 0.065638 -0.358224 -0.050832 -0.298271 -0.072408 -0.205906 0.132468 0.045049 0.029238 0.029753 0.296584 -0.028553 -0.006228 0.102586 0.2646 0.052798 0.050058 0.010736 -0.26557 0.116222 0.072203 0.048871 0.14537 -0.132747 0.282642 -0.313756 -0.09098 0.108538 -0.007044 0.077941 -0.004269 -0.254129 0.046034 -0.24265 0.057177 -0.081164 -0.061522 0.082632 8.66E-4 0.02003 -0.02245 0.126742 0.082964 -0.027015 -0.237229 0.04973 -0.104182 0.017351 0.186946 -0.219774 -0.036529 0.088835 0.121587 -0.088184 -0.056386 0.104867 -0.117269 0.022322 -0.024093 0.054612 -0.209087 0.079869 0.103479 0.012263 0.03282 -0.081619 -0.039487 -0.012556 0.100514 0.018586 -0.387188 0.110662 0.028906 0.153463 -0.064065 0.003933 0.090105 0.025659 -0.232726
-0.19975 -0.163397 0.046376 0.108494 -0.086906 -0.079634 -0.174304 -0.190655 -0.16796 0.054171 0.073367 0.100495 0.028349 0.089697 0.084377 0.226077 -0.144981 0.170875 0.030617 -0.002744 -0.049142 0.147196 0.014105 -0.098415 -0.097857 -0.116433 -0.221617 -0.031682 0.328072 0.174668 0.066348 0.00991 0.088367 -0.047556 0.007861 -0.096847 0.029124 0.106336 -0.027728 0.071993 -0.012189 0.143203 -0.02933 0.062494 -0.056761 -0.120269 -0.12018 -0.017668 -0.062963 0.101128 0.16565 -0.026171 -0.079002 -0.131484 -0.015915 0.040522 -0.181151 -0.002836 0.057121 -0.107145 0.126391 -0.080741 0.019065 -0.07346 -0.064256 0.100005 0.14671 -0.007299 -0.060089 0.006398 0.030183 0.114927 0.121747 -0.032423 0.073375 -0.013173 -0.065432 0.056931 -0.211812 0.024416 -0.072059 -0.018436 0.023346 -0.02972 0.040747 0.006594 0.315286 0.127171 0.034984 0.125694 -0.126999 -0.159279 0.204473 0.190888 -0.115081 -0.166722 0.05582 -0.005334 0.014762 -0.26041
-0.090555 -0.071366 -0.047367 0.134804 0.063779 0.092886 -0.124329 0.156864 -0.155064 -0.001278 0.113764 0.007931 0.087203 -0.029906 -0.009742 0.127694 0.037735 0.216456 0.142345 0.032738 0.011322 0.047072 0.07334 -0.007648 -0.165907 -0.008954 -0.119208 -0.02845 -0.010001 -0.081346 -0.26881 0.059487 0.115712 0.05819 -0.013061 -0.063162 -0.054253 0.054743 0.054418 -0.084611 -0.0507 -0.02577 -0.131047 -0.059236 0.048918 -0.058825 0.088377 0.040158 -0.134511 -0.108443 -0.093772 0.100926 -0.049346 0.063151 0.138912 0.063598 -0.031623 0.019104 0.228984 -0.128231 0.103833 -0.155182 -0.027028 0.021757 -0.011921 -0.081943 0.09939 -0.003434 0.075892 -0.044042 -0.067686 -0.00268 -0.05308 -0.053601 -0.108221 -0.105477 -0.094755 -0.070265 -0.111461 0.130699 -0.092399 0.015993 0.075492 -0.117786 0.139907 -0.085924 0.017416 0.001764 0.032271 0.063109 -0.04191 -0.073411 -0.09352 -0.010175 0.043763 -0.190703 -0.075351 0.003435 -0.031863 0.081083
0.0 0.0 0.0 0.0 0.0 0.0 0.0 0.0 0.0 0.0 0.0 0.0 0.0 0.0 0.0 0.0 0.0 0.0 0.0 0.0 0.0 0.0 0.0 0.0 0.0 0.0 0.0 0.0 0.0 0.0 0.0 0.0 0.0 0.0 0.0 0.0 0.0 0.0 0.0 0.0 0.0 0.0 0.0 0.0 0.0 0.0 0.0 0.0 0.0 0.0 0.0 0.0 0.0 0.0 0.0 0.0 0.0 0.0 0.0 0.0 0.0 0.0 0.0 0.0 0.0 0.0 0.0 0.0 0.0 0.0 0.0 0.0 0.0 0.0 0.0 0.0 0.0 0.0 0.0 0.0 0.0 0.0 0.0 0.0 0.0 0.0 0.0 0.0 0.0 0.0 0.0 0.0 0.0 0.0 0.0 0.0 0.0 0.0 0.0 0.0
-1.445697 -0.376991 0.605131 -2.927773 -2.545095 -0.012935 0.304803 -1.289168 2.935763 -3.30048 2.013736 0.601604 0.463606 -2.513579 -3.111959 1.509581 -2.270566 -3.193746 -0.683823 1.11226 2.641423 -0.439638 -1.461155 -0.230057 -3.083891 1.464638 -3.482595 0.292508 -2.961341 2.670694 2.633844 0.530248 -0.915058 -5.213341 1.151417 2.088477 0.077027 1.987321 -2.701086 -1.896473 -1.396191 -0.28458 3.471924 3.377009 0.510478 -0.338405 -1.080892 -0.17368 -0.293555 -0.092374 -0.194442 -0.035597 -0.210813 3.880518 -1.574683 0.838801 3.22272 2.935631 -0.150343 1.362463 2.574235 3.434764 2.104742 1.146516 1.989767 1.356181 1.46733 1.525646 1.808291 -1.537805 -0.288857 -0.65458 0.173075 -0.698576 0.239921 -0.800718 2.227096 -0.11127 0.137437 0.862853 3.100754 -0.68748 2.771815 -0.865885 0.747454 -2.708324 2.056632 -2.880682 -0.510213 -0.75684 1.062552 3.109441 -4.090577 -0.19873 0.562437 -4.868546 1.064819 1.171282 -1.742815 -0.694478
-0.023725 -0.265581 -0.041655 0.122232 0.026794 -0.088378 -0.095963 -0.07173 -0.107796 -0.053451 0.244892 0.188711 -0.170801 0.022715 -8.47E-4 0.204389 -0.068086 0.024141 0.111102 0.050266 -0.042829 -0.104548 0.056634 0.106866 -0.035671 -0.111641 0.164909 0.066612 0.15263 -0.04625 0.072838 0.047495 -0.171938 0.101539 -0.079368 -0.007698 0.092885 -0.147097 0.195496 -0.035855 -0.218068 -0.098775 0.231561 0.129023 -0.111343 -0.171763 -0.061107 -0.054208 0.042218 0.022472 0.07198 -0.214236 -0.161899 -0.018452 0.010509 -0.022686 0.086178 0.078149 -0.072518 -0.183167 0.119658 -0.068118 0.051934 -0.01767 -0.158406 -0.063514 -0.107352 0.120173 0.133667 0.053117 0.01506 -0.054873 0.029177 -0.089398 -0.004805 -0.012248 0.112717 -0.080168 -0.105325 -0.109812 -0.087183 -0.176569 0.227813 -0.2492 -0.148258 -0.003471 0.100996 0.024248 0.093904 0.123002 -0.140595 0.053374 -0.09475 -0.046893 -0.002508 -0.046196 0.066997 0.183339 -0.060206 -0.072608
-2.624672 -1.554463 0.721791 0.057634 -4.060073 0.62512 -1.904671 -1.214719 3.417883 -2.21608 -1.288049 0.833958 2.562591 -2.007247 -1.089559 -1.856265 -2.632277 -1.096159 -0.575553 -0.097507 -3.172086 0.974568 0.031504 -0.139215 -0.808232 0.751506 1.58791 3.674081 -0.526015 3.586167 3.317653 0.353082 0.054125 0.255352 -0.233135 -0.196828 2.473883 -2.154672 -0.635499 -2.408924 -2.285774 -0.679714 -0.537962 -2.375608 -0.359529 2.122944 -3.349861 0.568652 -2.574357 1.057826 0.861368 1.753231 2.829964 2.314444 -0.260215 3.682849 1.61588 0.415127 -1.524783 -1.360525 2.612372 1.309274 2.014461 3.862636 4.902708 -0.900143 -0.204208 -1.736223 0.101982 0.048446 0.558404 0.62084 -4.266359 -2.985905 -4.302859 2.362859 0.888264 2.322715 -1.663494 1.137201 0.95968 -3.628558 0.498155 -0.315144 0.055032 -1.361952 1.850147 4.145928 -1.920611 -2.244518 -2.592072 -2.563996 -1.97104 -1.054235 -2.718191 1.924839 -0.246865 3.447866 0.018846 0.871122
0.021053 0.092598 0.130684 0.257625 0.04421 -0.094352 -0.023138 0.204697 -0.040483 -0.005306 0.055133 -0.002373 -0.08445 0.331715 0.012474 -0.087696 -0.005751 -0.374309 0.014664 -0.164799 -0.00212 0.063484 -0.287204 0.133244 -0.020461 0.130932 0.022563 -0.049789 0.031043 0.028824 -0.105611 -0.041205 -0.018745 -0.045701 0.104023 0.209847 -0.20849 -0.001034 0.036891 -0.119626 0.01524 -0.046689 -0.080109 -0.137819 -0.140281 0.180574 -0.176492 0.035047 -0.022953 -0.153495 0.079116 0.029382 0.035699 -0.037479 0.315013 -0.063533 -0.240607 -0.40291 -0.130374 0.144985 -0.176932 -0.05931 -0.179832 0.077479 0.02206 -0.260138 -0.143424 -0.011111 -0.001789 -0.054416 0.158569 0.081631 -0.00465 0.098824 0.032147 -0.008529 -0.164254 0.043521 -0.078491 0.046808 -0.143895 -0.203113 -0.118208 -0.19292 -0.070131 0.05825 0.0036 0.082537 0.089339 0.24613 -0.093061 -0.26845 0.172635 0.058888 -0.08303 0.064695 -0.071884 0.227233 0.04344 -0.158446
-0.137452 -0.15251 0.09639 0.072463 -0.090204 0.024217 -0.157717 0.021149 -0.003182 0.09132 0.124172 0.108722 -0.010582 0.025632 0.085824 0.278174 -0.103651 0.236503 0.042977 0.026079 -0.167899 0.178608 0.221557 0.112992 -0.270373 -0.047914 -0.021914 -0.0186 0.190678 -0.154896 -0.063669 0.029619 0.014317 0.156521 -0.108422 -0.10305 -0.057078 -0.069342 -0.028479 0.176985 -0.017676 0.103064 0.071411 -0.118662 0.080921 -0.054518 -0.026824 0.086335 -0.18504 0.072694 0.149283 -0.080679 -0.037935 0.093663 0.216723 -0.119625 0.022365 -0.094823 0.193275 -0.101816 0.235477 -0.088858 -0.022527 -0.033794 -0.039807 0.069753 0.180341 0.086783 0.135198 -0.132426 -0.08453 -0.037706 0.008445 -0.103689 -0.01892 -0.143396 -0.128746 -0.057067 -0.113168 0.055989 -0.01319 0.177057 0.059162 -0.305771 0.088597 0.074133 0.060366 0.113906 0.227618 0.004254 -0.139861 0.040844 0.071385 0.124201 -0.010199 -0.095255 0.068835 0.083209 -0.013652 -0.048991
0.008295 0.155992 -0.095987 0.143272 -0.090747 0.089867 -0.036767 -0.042586 0.049493 -0.03879 0.131404 0.167846 -0.005857 0.097915 -0.041447 0.130812 -0.101024 -0.019059 -0.03218 0.050227 -0.046986 -0.144451 -0.047946 0.174897 -0.280311 0.027491 0.004025 0.064692 0.182785 0.038695 -0.035743 -0.099148 -0.16593 -0.074931 -0.035095 0.011676 0.08857 -0.004165 0.00732 -0.011308 -0.098974 0.234456 -0.128188 -0.066622 0.133185 -0.055237 -0.142849 7.09E-4 -0.106584 0.142178 0.130097 -0.130924 -0.043746 0.061101 -0.111981 -0.093798 -0.08556 0.008638 -0.008092 -0.112021 -0.107498 -0.166343 -0.09852 0.16687 -0.013483 -0.021161 -0.030071 -0.015101 0.152232 0.021384 0.07597 -0.131909 -0.001323 -0.250236 0.068634 0.265819 -0.025702 -0.039893 -0.037552 -0.101397 0.134745 0.217435 0.006246 0.033504 -0.25704 -0.012431 -0.018236 -0.002739 -0.010802 0.108972 -0.051089 0.096593 -0.050342 0.236503 0.135097 -0.038636 0.051361 0.029269 0.056388 -0.044065
-0.136049 -0.102254 -0.080026 0.091424 0.011913 0.07389 6.81E-4 0.062215 -0.13421 -0.146844 0.070862 0.095652 -0.162834 0.141134 0.208436 0.209183 -0.122517 0.078579 -0.130845 0.051689 -0.116569 -0.046304 0.247279 -0.05999 -0.113997 0.058042 -0.024487 0.040221 0.144808 -0.168729 -0.063269 -0.051081 -0.021142 0.02968 -0.083255 0.020676 -0.071029 0.053846 0.117344 0.212856 -0.159776 -0.176567 0.10852 0.074117 0.122399 0.056963 -0.02539 0.099816 -0.091001 -0.055493 0.085018 -0.17486 -0.160099 -0.202861 0.0746 -0.019472 -0.043245 0.010623 -0.017041 -0.174608 -0.168884 -0.079579 -0.204833 -0.173647 -0.12788 -0.088767 -0.003171 0.015379 -0.008025 0.12737 0.094408 0.009948 0.051602 0.059692 0.05595 -0.107927 -0.180333 -0.133936 0.003653 -0.084953 0.079037 0.071561 -0.034113 -0.15171 -0.198396 -0.176961 0.03299 -0.235914 0.226194 0.019568 -0.118276 0.040313 -0.084461 0.130839 0.067451 -0.041113 0.054464 -0.033304 0.089742 0.095797
-0.053833 0.079877 0.072856 0.139498 -0.105369 0.004769 -0.27073 -0.096518 -0.168103 -0.103006 0.202092 0.363744 -0.141267 -0.129923 0.01534 0.19683 -0.187167 0.111945 0.109179 -0.016332 0.035184 0.139347 0.315416 0.181261 -0.257633 -0.053217 -0.053058 -0.098832 0.23437 -0.331022 -0.084191 -0.075678 -0.001831 -0.110346 -0.013756 -0.266761 0.034555 -0.008762 -0.150297 0.165393 -0.060494 -0.197826 0.147763 -0.035721 0.031472 -0.210231 -0.085577 -0.109783 -0.244063 0.165008 0.054471 -0.00802 0.010601 -0.037268 0.221023 -0.133451 0.002637 -0.019477 0.129964 0.041991 -0.012534 -0.093924 -0.069187 -0.137315 -0.125857 -0.019287 -0.075852 -0.025292 0.08558 -0.045041 0.044839 -0.045932 0.096927 -0.044108 0.128249 -0.290646 -0.150284 -0.045275 0.037713 0.15651 0.143393 -0.066424 0.296246 -0.291488 0.055917 0.059085 0.065453 0.001004 0.226514 0.017525 -0.201115 -0.040421 -0.006957 -0.001567 -0.074785 -0.124046 0.079696 -0.095859 -0.218243 -0.010996
-0.167083 -0.107108 0.179851 0.109552 -0.024213 0.229157 -0.075334 -0.070437 -0.095383 0.224548 0.109642 0.033348 -0.067277 0.172258 0.1025 -0.097087 0.07275 0.08372 -0.048898 0.027978 -0.092038 0.129573 0.121068 -0.016639 -0.051471 0.206066 -0.057988 -0.03292 0.161717 -0.096696 -0.254576 -0.039036 0.243231 0.132109 0.006361 0.039556 -0.111924 -0.13768 -0.026979 0.009431 0.032213 0.298426 0.011437 -0.207073 0.049479 0.133506 0.130962 0.042425 -0.12671 -0.055215 -0.040495 -0.081002 -0.0113 0.131594 0.136972 0.066241 -0.142628 0.006467 0.082331 -0.023632 0.12726 -0.08866 -0.004003 0.125163 0.172583 0.066611 0.037084 0.379506 0.156894 -0.038809 -0.05146 -0.216693 0.014711 -0.345933 -0.145663 0.265907 -0.165782 -0.251349 0.045053 0.094664 -0.003293 0.027445 -0.371954 -0.293996 0.223192 0.186416 0.033611 0.26388 0.406974 -0.063905 -0.0194 0.070162 0.237415 -0.230282 0.156302 0.152369 -0.00777 0.17857 0.087777 -0.019579
0.076594 -0.199501 0.2027 0.176772 -0.039758 0.023468 -0.062109 0.0774 0.054171 0.088133 -0.028462 0.320828 -0.112689 -0.105171 0.165336 -0.039742 0.027346 -0.020414 0.116665 0.119666 0.078118 0.014581 0.04492 -0.057073 -0.10794 -0.090284 -0.173956 -0.103567 0.142644 0.010637 -0.042665 -0.104148 -0.23292 0.151724 -0.060366 -0.227539 0.102389 -0.129266 0.005404 0.017334 -0.165263 0.146999 0.091273 0.189788 0.003531 -0.180556 -0.174333 0.072413 -0.113615 0.066181 0.016432 -0.103203 -0.222773 0.067866 0.111634 -0.214641 0.066382 0.017632 -0.014616 -0.116504 0.197197 -0.110829 -0.029051 -0.08824 -0.286285 -0.077426 -0.046257 -0.005034 0.02818 -0.207414 -0.053841 -0.012529 0.108386 -0.22669 -0.034264 -0.084916 -0.270642 -0.117614 -0.164729 -0.019644 0.017254 0.194925 0.108543 -0.185764 0.050862 0.004857 0.206937 0.160744 0.1539 0.067165 -0.051167 0.051192 0.067121 -0.084796 -0.081263 -0.256949 0.389044 0.099502 0.190931 0.158639
0.018514 -0.100805 0.039499 0.028774 0.063797 0.035246 -9.29E-4 -0.04767 -0.09467 -0.03279 0.122181 0.113675 0.081724 -0.043853 0.076988 0.159169 0.014874 0.016012 0.186219 0.00367 0.017311 0.042964 0.17054 0.152795 -0.024999 -0.137662 0.083428 0.106618 0.190228 -0.095876 -0.170267 0.004643 -0.085281 0.055195 -0.168677 -0.133353 0.020582 -0.04583 0.18126 -0.143388 -0.017035 -0.063165 0.099785 0.090232 -0.005853 0.069545 0.033268 0.064128 -0.102847 0.136641 0.08442 -0.15761 -0.196311 0.020261 0.162839 -0.057049 0.026844 0.197637 0.125437 -0.027631 0.068017 -0.01809 0.077502 -0.136002 -0.147431 -0.0015 -0.132542 0.071682 0.293682 0.046206 0.058644 -0.09417 0.04847 0.034524 0.087728 0.055265 0.031225 0.023734 -0.068879 0.017168 0.023263 -0.009412 0.115674 -0.187503 -0.156099 -0.134535 0.01238 -0.080882 0.084284 0.02613 -0.11293 -0.082055 0.035518 0.170481 -0.090686 0.049062 0.064527 -0.069402 -0.133448 0.099202
2.669 5.884626 -2.822182 3.917995 0.341369 -4.397399 3.062641 -2.08977 -1.604053 -0.409806 -2.741371 0.088922 2.032957 0.816046 1.189165 1.985772 7.09E-4 0.322484 0.192557 1.083981 -1.414838 3.083281 0.154385 2.198175 3.650187 -2.068413 -2.855453 3.096969 0.548218 1.242418 2.04961 -0.039255 1.444399 -1.02301 1.246123 -2.523492 -1.587992 2.324198 0.352585 -2.862157 -3.757683 -0.451978 -1.28788 3.083538 0.122249 -3.234966 -5.296841 -1.029083 4.12677 2.56716 -3.587471 -2.884013 2.183966 6.496165 0.946866 2.916584 0.262291 -0.244751 -2.137104 -1.702633 2.190594 0.966118 -1.681313 -0.285372 -2.853686 1.982593 0.909957 -0.505736 -2.037906 2.707815 -0.173545 1.652629 3.096703 -0.568728 3.4419 -1.263456 -1.318436 -0.303039 -1.25283 1.350672 6.253671 0.360774 3.063807 -4.44704 -3.764624 -1.598651 2.798281 2.749917 1.702074 -0.991137 -2.80867 -0.227325 -0.443268 -0.588128 -2.052817 1.307853 -1.27804 -1.268353 -0.547349 5.932014
-0.166013 -0.010391 0.152516 0.057678 -0.090814 0.148972 0.104194 -0.004569 0.032498 -0.090545 0.238095 0.088908 0.01614 -0.221524 -0.174213 0.024984 -0.268206 0.070433 0.02354 -0.124334 0.132872 0.041787 0.164949 -0.078444 -0.081478 0.098648 -0.06032 -0.014731 0.243141 -0.142113 -0.173478 -0.075327 0.013612 0.086339 -0.218861 -0.24384 0.0198 -0.24749 -0.063722 0.174989 -0.069173 -0.082891 0.026522 0.099319 0.021458 0.100486 0.105742 0.037503 -0.079872 0.12723 0.216644 -0.162567 -0.078173 -0.008802 -0.042471 -0.03692 -0.155306 0.073524 -0.05227 -0.037631 0.033131 -0.038593 0.067741 -0.088246 -0.358182 0.175805 -0.136207 -0.015198 -0.001978 0.041811 0.06786 -0.181411 -0.014338 0.061886 0.007334 0.240877 -0.18192 -0.167466 -0.090191 0.081292 0.139596 0.10217 0.106599 0.189909 0.062217 0.160806 0.011652 -0.162613 0.139555 0.066019 -0.00783 -0.06536 -0.097892 -0.145178 -0.068221 -0.104686 0.060231 -0.01641 -0.19937 -0.06891
-0.070544 -0.169297 -0.056329 -0.041126 0.071314 0.01096 -0.178459 -0.02901 -0.152849 -0.25808 0.01402 0.044665 -0.106834 -0.030556 -0.117549 0.110732 0.032371 0.051659 -0.013641 0.048775 -0.019396 0.058898 0.165111 0.132881 -0.058666 -0.150652 0.056991 -0.094403 0.24182 -0.073038 -0.272244 0.13402 -0.180677 0.241778 -0.012288 -0.146759 0.177799 -0.290496 0.249528 0.052377 -0.011234 -0.035572 0.181133 -0.012973 0.03328 -0.059908 -0.022452 -0.06452 0.008339 0.16972 -0.059389 -0.055649 -0.010076 -0.050999 -0.025146 0.246811 -0.00752 0.107414 -0.05115 -0.00763 -0.109707 -0.185291 0.123517 -0.045811 0.125141 0.156298 0.045592 -0.026498 -0.001602 0.142044 0.081915 -0.055838 0.05029 -0.018821 -0.003288 0.38179 0.081444 0.03854 0.101922 -0.334004 0.057873 -0.17742 0.133641 0.115431 -0.046672 -0.068151 0.027605 0.063486 0.013834 0.035098 -0.12435 0.056895 0.115643 -0.195715 0.156982 -0.049284 -0.047942 -0.06978 -0.002006 -0.311253
-0.047421 -0.15849 0.107499 0.089927 0.167776 0.08617 -0.300314 -0.309623 0.108092 0.189928 0.056687 0.033222 -0.077897 -0.080874 0.159018 0.266839 -0.245001 0.016831 -0.085825 0.058383 -0.059198 -0.055262 0.240707 -0.12969 -0.22039 0.060318 -0.047124 -0.139865 0.089529 -0.172326 0.039714 -0.133083 -0.093917 0.050088 -0.217563 -0.099461 0.041898 -0.126919 0.020688 0.317283 0.16597 0.022872 0.046324 -0.073254 -0.180954 0.079862 0.019486 0.185367 0.118476 0.006355 -0.032953 -0.037425 0.063885 0.11699 0.184923 0.052025 0.128145 -0.13686 0.190992 -0.211976 0.013083 -0.015876 -0.029147 0.01214 -0.021098 0.071397 0.239282 -0.021331 -0.132596 -0.213218 -0.047197 -0.061747 0.108005 0.06585 0.170104 0.21 0.017802 0.149472 0.139998 -0.100998 0.016478 -0.071088 -0.215638 -0.123884 -0.172349 0.055991 -0.115719 -0.021301 0.071983 0.092645 -0.139537 0.078519 -0.099633 0.035876 -0.078405 -0.346964 0.042416 0.013565 -0.105723 -0.0419
0.16475 0.005165 0.044029 0.334368 -0.204468 0.107 0.024311 -0.183908 0.100245 0.206766 0.109302 0.054589 0.013548 0.019675 0.019309 0.189321 0.032818 0.272432 -0.10987 0.016886 -0.433897 0.012191 -0.041802 -0.061196 0.043972 0.092901 -0.085993 -0.036727 0.038931 -0.126447 0.008292 0.076665 0.097715 0.191747 -0.08552 -0.1506 0.173316 0.078945 -0.058802 -0.146411 -0.185176 0.027477 0.059426 -0.208739 0.008851 -0.22495 0.033972 0.032393 0.213532 0.05961 -0.120454 -0.034846 -0.049957 0.12936 0.096976 -0.056923 0.198887 -0.224495 8.42E-4 -0.211725 0.146563 0.048087 0.060565 -0.082936 -0.199797 -0.117215 0.204814 0.003792 -0.1669 -0.049879 0.09896 0.121781 0.10151 -0.031375 -0.037774 -0.356898 -0.018634 0.250892 0.132376 0.150584 0.148773 -0.031047 0.176201 -0.199042 0.309876 0.026238 -0.166857 0.027317 0.049177 0.131762 0.044142 0.061998 0.013149 -0.039868 -0.044111 -0.077359 0.134442 -0.137561 0.149039 0.066507
0.014079 0.249289 0.097357 -0.070038 -0.16919 -0.107697 -0.276371 -0.049454 -0.092184 0.070169 -0.124146 0.153937 -0.053773 -0.014852 -0.227078 -0.006385 0.133499 -0.1107 0.282905 -0.096377 0.081767 -0.253388 -0.184002 0.031643 0.207925 -0.002142 0.007876 0.058697 0.02404 -0.070689 -0.155693 -0.16708 -0.003712 0.001585 0.174331 0.099013 0.044108 0.034861 -0.064535 -0.104368 0.113684 0.211413 -0.038204 0.027336 -0.223955 0.07165 0.075048 0.104989 -0.030454 0.027214 -0.023014 -0.098684 -0.047796 -0.116016 0.106693 0.156479 -0.128311 -0.074736 -0.392015 -0.115148 0.018105 -0.114686 -0.043339 0.162713 0.07721 0.246068 0.045502 -0.0075 -0.069499 0.032209 -0.105278 -0.06127 0.186394 -0.196552 0.099239 -0.087772 -0.039676 0.027986 0.017863 0.037708 -0.115625 -0.029109 0.066023 -0.078972 0.120063 0.162273 -0.042004 -0.041376 -0.091751 -0.197101 0.167794 -0.017433 0.038062 -0.196944 0.042516 0.026176 -0.088453 0.14172 -0.024415 -0.022435
0.005814 -0.084067 -0.237341 0.012838 -0.02292 0.194342 0.126056 0.169688 0.005019 0.028855 0.115591 0.210858 -0.084022 0.034868 -0.023863 -0.015382 -0.084628 -0.108019 0.08387 -0.041662 0.112265 0.167359 0.264943 -0.118341 0.052143 -0.083129 0.005232 0.11962 0.122969 0.063851 0.123385 0.04157 0.058563 -0.016696 0.113696 -0.129801 -0.191751 0.1165 0.057101 0.002261 -0.056906 -0.073125 0.077403 -0.196613 0.037655 -0.08977 0.114101 0.018988 -0.020959 -0.021292 0.109374 0.153969 -2.45E-4 0.084867 0.183733 -0.226268 -0.112941 -0.069367 0.17223 -0.047758 0.081221 -0.214428 0.032128 -0.018068 0.074576 -0.104803 0.039062 0.013096 0.158149 0.065146 0.164998 -0.120296 -0.044484 -0.023058 -0.148216 -0.023746 -0.161472 -0.072197 0.015382 0.035449 -0.110785 -0.128727 -0.063736 -0.104901 -0.010317 -0.101368 0.043432 0.047002 -0.084364 -0.18121 -0.009717 -0.060207 0.159077 0.046558 -0.05579 -0.00569 0.014907 -0.03666 -0.086102 0.057595
-0.015649 -0.050324 0.021951 0.096281 -0.07189 -0.068802 -0.216424 -0.099506 -0.031397 0.070278 0.064869 0.155082 0.032315 -1.05E-4 -0.105823 0.219656 -0.131776 -0.020869 0.008622 0.021482 -0.163249 -0.125537 0.128792 0.160983 0.029466 0.038986 0.110505 -0.223479 0.096597 -0.094882 0.151638 0.216472 0.061479 -0.077788 0.071276 0.081067 0.265213 0.073712 -0.093377 0.007784 -0.049255 0.136228 -0.070004 -0.014392 0.059467 -0.267032 0.00813 -8.19E-4 -0.136789 0.18408 0.074518 0.063642 0.014646 0.078664 0.019878 0.143755 -0.098224 -0.135197 -0.051322 -0.114719 0.09055 -0.157802 -0.039861 -0.207446 0.026885 0.188557 -0.025436 0.139087 0.160811 0.038632 0.037505 0.176963 0.168487 0.166443 -0.065695 -3.52E-4 -0.030822 0.013078 -0.022148 -0.049754 -0.029561 0.079974 -2.54E-4 0.182068 -0.069246 -0.060911 -0.059438 0.126422 0.143427 -0.043146 -0.174824 -0.03281 -0.132818 0.083396 -0.108889 -0.059112 0.010673 -0.027338 0.06646 -0.071994
-0.032258 -0.018216 0.084218 0.137079 0.07494 0.010693 -0.06759 0.015317 -0.028708 0.011758 0.005003 0.100863 0.024456 -0.119398 0.024284 0.143376 0.075431 -0.069767 0.022475 -0.018492 -0.101328 0.026879 0.074612 0.151187 -0.048297 -0.022602 0.134806 0.103482 0.183131 -0.332765 -0.096346 -0.062758 0.04555 0.174304 0.033256 -0.061823 0.034594 0.059245 -0.028448 0.007123 0.027663 -0.097076 -0.119193 0.071519 0.152655 0.207365 0.133892 0.102038 -0.014352 -0.103142 0.196944 0.020007 -0.022444 0.205441 0.258657 -0.180489 0.017867 -0.180154 -0.005264 -0.139387 0.018772 -0.118449 -0.021569 -0.082867 -0.173894 0.028285 -0.02639 -0.068446 0.009798 0.071408 -0.107288 -0.030864 -0.105211 -0.055785 0.12737 -0.009214 0.164603 -0.008871 -0.06811 -0.033108 -0.154667 -0.033676 0.035083 -0.047649 0.045336 -0.070942 0.006486 -0.008822 0.165403 -0.12703 -0.068671 -0.090951 -0.089883 0.132506 -0.061187 -9.3E-5 0.001586 0.066745 -0.099408 0.075028
0.041182 -0.071701 -0.007566 -0.111173 0.078129 -0.015794 0.102992 0.084804 -0.294614 0.062785 -0.224475 0.044822 -0.054604 0.018822 -0.254624 0.187632 0.057536 -0.04948 0.077868 0.052887 -0.065284 -0.04327 -0.015092 0.035227 -0.120777 -0.01384 0.019468 0.133926 -0.002242 0.025286 0.056421 -0.140413 -0.062551 0.118069 0.067541 0.127629 -0.190311 0.209374 0.192921 0.054712 -0.148947 0.032204 -0.170128 -0.03032 -0.002925 0.169345 0.085453 -0.024603 -0.011659 -0.145112 -0.290293 -0.065943 -0.09053 -0.275955 0.113964 -0.118032 -0.172779 -0.215132 0.00824 0.127013 -0.169866 0.062208 0.042766 -0.087616 -0.10884 0.286924 0.050741 0.130539 0.292731 0.017204 -0.096873 -0.187146 0.25168 0.10377 0.08209 -0.05794 0.019952 -0.023549 -0.204179 -0.090327 0.135311 0.171028 -0.109687 0.012397 -0.001672 0.281126 0.051025 0.031007 0.309401 0.149164 -0.249441 -0.005679 -0.012549 0.20681 0.267068 -0.060891 -0.256129 0.182048 0.03837 0.01928
-0.118971 -0.027822 -0.005038 0.143026 -0.173047 -0.060489 -0.068404 -0.022637 -0.093307 -0.031904 0.027157 0.082524 -0.057622 0.116025 0.191298 0.203918 0.022679 0.084637 -0.10441 -0.03735 -0.104002 0.072165 0.214425 0.079895 -0.138527 -0.086895 -0.038836 0.02147 0.149866 -0.082996 -0.070037 0.061169 -0.169916 0.121678 -0.084417 -0.129258 0.092549 -0.015662 0.078543 0.128218 -0.11244 0.01148 -0.063418 0.181567 -0.095962 -0.17525 -0.108104 0.136032 -0.161484 -0.060337 0.125285 -0.037855 -0.107426 -0.013991 0.066755 -0.033297 0.029537 0.123935 0.125445 -0.08638 0.106206 -0.09799 -0.130338 -0.200031 -0.042587 0.127587 -0.008693 0.065935 0.086879 -0.020228 -0.036348 -0.005475 0.030109 -0.036688 0.062834 -0.040075 -0.107699 -0.063265 -0.021119 0.00442 0.005428 -0.135745 0.216113 -0.098408 0.043315 0.024436 0.079235 0.039474 0.067492 0.017547 -0.168983 -0.065104 -0.07442 0.149286 -0.030569 0.062307 0.193949 -0.126315 0.009637 0.086311
-0.02531 0.081993 -0.005137 -0.039057 0.117937 0.06651 0.076878 -0.18508 -0.171057 0.097363 0.14776 0.096218 -0.171549 -0.085013 -0.023483 0.154305 -0.047997 0.039036 0.006998 0.109328 -0.002818 0.085333 0.1339 -0.06548 0.081733 0.027309 -0.103573 0.035726 0.111819 -0.039711 -0.170842 0.085529 -0.063207 0.096632 8.7E-4 0.029495 -0.005556 -0.060203 0.118512 -0.063106 -0.077201 0.040769 0.185257 -0.003166 0.113601 -0.03562 -0.226528 -0.143118 0.051859 -8.2E-5 0.08356 -0.138536 -0.153182 0.077226 0.009262 -0.06305 0.030643 -0.08238 -0.097813 -0.116094 -0.088721 -0.045615 0.02385 -0.139319 -0.144107 -0.137175 -0.102071 0.054531 0.02733 -0.141925 0.076189 0.004581 -0.018081 -0.204457 -0.02278 -0.130955 -0.302245 0.14104 0.008163 0.048636 -0.007859 -0.008358 0.024996 -0.148797 -0.05685 0.070791 0.005948 -0.06295 0.058772 0.229771 0.078965 -0.068855 -0.012802 -0.142006 0.07906 0.164217 0.036623 -0.073095 -0.093477 -0.148304
0.0 0.0 0.0 0.0 0.0 0.0 0.0 0.0 0.0 0.0 0.0 0.0 0.0 0.0 0.0 0.0 0.0 0.0 0.0 0.0 0.0 0.0 0.0 0.0 0.0 0.0 0.0 0.0 0.0 0.0 0.0 0.0 0.0 0.0 0.0 0.0 0.0 0.0 0.0 0.0 0.0 0.0 0.0 0.0 0.0 0.0 0.0 0.0 0.0 0.0 0.0 0.0 0.0 0.0 0.0 0.0 0.0 0.0 0.0 0.0 0.0 0.0 0.0 0.0 0.0 0.0 0.0 0.0 0.0 0.0 0.0 0.0 0.0 0.0 0.0 0.0 0.0 0.0 0.0 0.0 0.0 0.0 0.0 0.0 0.0 0.0 0.0 0.0 0.0 0.0 0.0 0.0 0.0 0.0 0.0 0.0 0.0 0.0 0.0 0.0
0.153797 0.085414 0.116456 0.296688 -0.058975 -0.170393 0.029924 0.021056 -0.275953 -0.021721 0.172199 0.09131 -0.06078 -0.07775 -0.108813 0.100982 0.287247 0.086903 0.079924 -0.04811 -0.132369 0.052591 0.057378 -0.027942 0.159279 0.064358 0.10198 -0.043142 0.166147 -0.101294 -0.08986 0.072796 0.034522 -0.036878 -0.064347 -0.243783 0.091284 -0.106303 -0.058535 -0.147408 -0.097058 -0.04704 0.023093 0.057678 0.054739 -0.057761 0.02399 -0.066375 -0.084913 0.039039 -0.205176 0.095867 0.121869 -0.080314 -0.156007 -0.166359 -0.098251 0.162238 -0.137699 -0.148768 -0.207475 -0.053206 0.02297 -0.270364 0.052804 0.079949 0.003174 -0.028594 0.263634 -0.158465 0.039779 -0.009513 0.01349 0.098468 -0.087863 -0.099872 -0.039375 -0.146279 -0.056985 0.09288 -0.005335 0.249957 0.054912 -0.07423 0.178137 -0.203172 -0.046357 0.003105 0.041307 0.0946 -0.042707 0.01231 -3.12E-4 0.008494 0.155485 0.081303 0.142337 0.074922 -0.060681 -0.063888
0.0494 -0.042147 -0.056799 0.087185 0.009886 0.121711 -0.123375 0.082944 -0.13619 -0.066809 0.20203 0.136643 0.120577 -0.051527 -0.04476 0.087982 0.070425 0.019236 0.214903 0.098222 -0.109351 -0.016995 0.070147 0.016443 -0.050256 -0.144689 -0.100644 0.026101 0.088238 -0.037235 -0.169908 -0.132037 -0.188515 0.097847 -0.006723 -0.227223 0.130439 -0.038384 0.038469 -0.088247 0.078914 0.043762 0.022186 0.028192 0.044051 0.035338 -0.035278 8.52E-4 -0.044013 -0.051279 0.065662 0.074867 -0.02154 0.103305 0.062228 0.087023 0.206045 0.082181 0.138038 -0.072875 -0.002542 -0.065705 -0.032958 0.036259 -0.010681 -0.009341 0.114267 0.127941 -0.015093 -0.192457 -0.093119 -0.068162 0.015419 -0.05673 0.083916 -0.094451 0.072472 -0.004552 -0.055857 -0.047403 -0.013438 0.067831 0.139664 0.06475 -0.085056 0.08706 -0.002517 0.002799 0.005772 0.179697 -0.032208 0.10027 -0.014223 0.155319 -0.18714 0.10537 0.095172 -0.123841 -0.08851 0.021291
3.206997 -4.877361 -0.910472 -1.395845 1.572584 1.195669 -0.645877 1.514129 4.001514 1.012958 -3.145483 -0.395437 1.874785 5.030729 -0.714288 0.493562 2.05343 -0.729517 -2.326681 -4.578588 4.021246 1.018946 2.697827 -0.157538 -0.814339 -0.486008 0.989437 1.830659 2.35274 1.218592 0.83605 -0.84899 0.6027 -2.480923 0.003665 -0.862534 3.024495 1.349808 1.198729 -1.537208 -0.457143 0.652121 -3.708537 -0.665668 -1.704043 -1.144021 1.079376 1.529449 -1.413777 -4.361203 0.251599 0.959199 -3.679446 3.251751 -0.363336 -1.856911 1.311208 -0.087199 1.337398 -2.061584 0.277746 0.363671 1.62815 -2.562427 4.072415 2.277454 0.413444 0.269817 -3.077566 -2.043647 0.637895 -0.133715 -0.513107 4.057566 0.540331 -0.387082 4.579637 1.656738 0.39891 -4.182041 2.762143 1.010128 0.478 2.292752 0.772669 -0.49472 0.716144 -1.1895 2.324726 -3.328852 0.040878 2.011935 1.095551 -0.375816 -0.64119 -1.44337 -2.397953 0.997347 -0.139075 -1.143159
-2.624672 -1.554463 0.721791 0.057634 -4.060073 0.62512 -1.904671 -1.214719 3.417883 -2.21608 -1.288049 0.833958 2.562591 -2.007247 -1.089559 -1.856265 -2.632277 -1.096159 -0.575553 -0.097507 -3.172086 0.974568 0.031504 -0.139215 -0.808232 0.751506 1.58791 3.674081 -0.526015 3.586167 3.317653 0.353082 0.054125 0.255352 -0.233135 -0.196828 2.473883 -2.154672 -0.635499 -2.408924 -2.285774 -0.679714 -0.537962 -2.375608 -0.359529 2.122944 -3.349861 0.568652 -2.574357 1.057826 0.861368 1.753231 2.829964 2.314444 -0.260215 3.682849 1.61588 0.415127 -1.524783 -1.360525 2.612372 1.309274 2.014461 3.862636 4.902708 -0.900143 -0.204208 -1.736223 0.101982 0.048446 0.558404 0.62084 -4.266359 -2.985905 -4.302859 2.362859 0.888264 2.322715 -1.663494 1.137201 0.95968 -3.628558 0.498155 -0.315144 0.055032 -1.361952 1.850147 4.145928 -1.920611 -2.244518 -2.592072 -2.563996 -1.97104 -1.054235 -2.718191 1.924839 -0.246865 3.447866 0.018846 0.871122
0.0 0.0 0.0 0.0 0.0 0.0 0.0 0.0 0.0 0.0 0.0 0.0 0.0 0.0 0.0 0.0 0.0 0.0 0.0 0.0 0.0 0.0 0.0 0.0 0.0 0.0 0.0 0.0 0.0 0.0 0.0 0.0 0.0 0.0 0.0 0.0 0.0 0.0 0.0 0.0 0.0 0.0 0.0 0.0 0.0 0.0 0.0 0.0 0.0 0.0 0.0 0.0 0.0 0.0 0.0 0.0 0.0 0.0 0.0 0.0 0.0 0.0 0.0 0.0 0.0 0.0 0.0 0.0 0.0 0.0 0.0 0.0 0.0 0.0 0.0 0.0 0.0 0.0 0.0 0.0 0.0 0.0 0.0 0.0 0.0 0.0 0.0 0.0 0.0 0.0 0.0 0.0 0.0 0.0 0.0 0.0 0.0 0.0 0.0 0.0
-1.445697 -0.376991 0.605131 -2.927773 -2.545095 -0.012935 0.304803 -1.289168 2.935763 -3.30048 2.013736 0.601604 0.463606 -2.513579 -3.111959 1.509581 -2.270566 -3.193746 -0.683823 1.11226 2.641423 -0.439638 -1.461155 -0.230057 -3.083891 1.464638 -3.482595 0.292508 -2.961341 2.670694 2.633844 0.530248 -0.915058 -5.213341 1.151417 2.088477 0.077027 1.987321 -2.701086 -1.896473 -1.396191 -0.28458 3.471924 3.377009 0.510478 -0.338405 -1.080892 -0.17368 -0.293555 -0.092374 -0.194442 -0.035597 -0.210813 3.880518 -1.574683 0.838801 3.22272 2.935631 -0.150343 1.362463 2.574235 3.434764 2.104742 1.146516 1.989767 1.356181 1.46733 1.525646 1.808291 -1.537805 -0.288857 -0.65458 0.173075 -0.698576 0.239921 -0.800718 2.227096 -0.11127 0.137437 0.862853 3.100754 -0.68748 2.771815 -0.865885 0.747454 -2.708324 2.056632 -2.880682 -0.510213 -0.75684 1.062552 3.109441 -4.090577 -0.19873 0.562437 -4.868546 1.064819 1.171282 -1.742815 -0.694478
-0.223429 -0.07773 0.298535 0.011167 0.11896 -0.226395 -0.254368 0.042905 0.060036 -0.004082 -0.097057 0.073135 -0.25429 -0.2145 0.124618 0.026922 -0.064749 0.26406 0.171843 0.291733 -0.237116 -0.138898 0.266449 0.186824 -0.221423 -0.075135 -0.314143 0.13096 -0.084884 -0.112401 0.037976 0.196451 -0.135174 0.020401 -0.130258 -0.226229 0.094451 -0.016933 0.158832 -0.180022 -0.008973 0.224665 -0.115403 -0.008496 -0.211661 -0.112505 -0.135775 -0.163758 -0.438293 0.043755 0.15724 -0.181724 -0.030868 -0.193704 0.093989 0.142708 -0.148962 -0.004245 0.084814 -0.140228 0.010422 -0.098455 0.115434 -0.224869 -0.186112 0.129106 0.066752 -0.11872 0.041462 -0.102785 0.09885 -0.155277 0.035795 -0.100174 0.073371 0.106399 0.076004 -0.186627 0.132496 -0.170863 0.158825 0.008399 0.195147 0.00851 0.15287 -0.074129 0.288542 -0.113814 0.228158 -0.127687 0.077021 0.287083 -0.033484 -0.037908 -0.22647 0.1055 -0.044899 -0.112453 0.037239 0.098218
-0.13695 -0.005086 0.011514 0.281231 0.088109 0.097019 0.090463 -0.149588 -0.11629 0.005304 0.011295 0.185658 -0.005422 -0.052166 -0.121498 0.070616 -0.159775 0.097177 0.010493 -0.018738 0.048249 -0.069435 0.078575 -0.010723 -0.157595 0.047726 -0.092371 0.085489 5.7E-4 0.045307 -0.031456 -0.015842 -0.034623 -0.096084 0.156387 -0.033865 0.065176 0.098367 0.202075 0.072662 0.053544 -0.081318 -0.005027 0.037116 0.065655 0.038468 -0.0577 -0.100476 -0.163825 0.182301 0.098532 0.114123 -0.022391 -0.051956 -0.12271 0.02342 -0.260751 0.001525 0.020352 -0.002546 0.003444 0.147961 0.067675 8.49E-4 0.171992 0.142576 0.039347 -0.353814 0.048482 -0.077454 0.017415 0.072251 0.061422 0.005983 -0.091893 0.00517 0.107406 0.02555 0.133908 0.009974 -0.022014 -0.169553 0.012775 0.235478 -0.07676 0.140195 0.070385 -0.001081 -0.070214 -0.224631 0.147962 0.177678 0.081617 -0.08836 -0.128376 -0.076511 -0.02713 -0.074175 -0.120926 -0.146755
0.508851 -0.450137 -0.503177 0.627194 -0.140863 0.617685 -0.386451 -0.257118 0.018963 -0.460022 -0.241632 -0.339578 -0.622468 0.44336 -0.748307 -0.010452 0.864786 -0.049718 -0.169195 0.24713 -0.158546 0.77607 0.133029 0.336935 0.045242 0.004286 0.667756 -0.018568 1.074515 -1.040503 -0.358666 0.298958 -0.212168 -0.319054 -0.389852 0.644428 -0.403265 0.013529 -0.384741 -0.588326 -0.736006 -0.336642 -0.364791 0.331106 0.872731 -0.086462 -0.584023 -0.60656 0.842848 0.621929 -0.41894 -0.324147 0.14189 -0.163968 -0.593246 0.656458 -0.230018 -0.184302 -0.621978 -0.548729 0.580464 -0.294434 0.462433 -0.212233 0.337364 -0.430397 -0.021497 -0.340697 0.605563 -0.282339 -0.319503 0.319161 -0.217886 0.049679 -0.310095 0.379652 -0.034852 1.029799 0.263497 -0.229319 -0.370956 0.230509 -0.092107 -0.283418 -0.479566 0.343078 0.559524 0.067172 0.373284 1.154342 -0.428941 0.20792 0.392391 -0.144385 0.682212 -0.088306 -0.094682 0.274042 -0.271353 -0.097697
-0.007027 -0.141752 -0.056677 -0.141015 0.198299 0.089064 -0.004255 0.141904 -0.062552 -0.08783 0.158097 0.061725 -0.079299 -0.138404 0.022841 0.203767 -0.009093 -0.041644 0.150112 -0.097071 -0.111478 0.13084 0.237076 -0.132706 -0.120667 -0.08614 -0.035819 -0.18279 0.062375 -0.076215 0.065329 -0.090597 -0.033162 -0.032387 0.116548 -0.053667 0.265789 0.104244 0.118399 -0.028552 -0.020001 -0.078637 0.227796 0.042127 -0.17352 0.066788 0.185133 0.15542 -0.066444 0.161347 0.108328 -0.07514 -0.015656 0.157912 0.028017 0.080115 0.029388 0.033096 0.123887 -0.082757 0.054185 -0.054458 -0.138001 0.061632 -0.020234 -0.129647 -0.016699 -0.017694 0.156437 0.011152 -0.018373 -1.68E-4 0.02578 -0.064791 -0.058016 0.220288 -0.069944 -0.003506 -0.006624 -0.140721 -0.055383 0.145472 0.07505 -0.147881 -0.099639 -0.008731 -0.018824 0.087563 0.021792 -0.170363 -0.131424 0.141896 -0.024361 -0.012488 -0.127052 -0.208713 0.006517 0.04657 -0.126676 0.112019
0.061499 -0.117639 0.059804 0.012863 0.071165 0.216373 -0.25956 0.047851 -0.068487 -0.090914 0.030908 0.078284 -0.233764 -0.029637 0.146523 0.099395 0.1404 0.087978 0.00214 0.134487 -0.052137 0.048302 0.247781 0.012141 -0.133122 -0.11711 -0.084183 0.068434 0.194762 -0.0539 0.069908 0.02222 -0.043029 -0.085889 -0.122084 -0.193075 -0.167723 0.116571 0.085801 0.086836 -0.062009 -0.236606 0.057625 -0.061762 -0.006033 -0.201709 0.008235 0.033158 0.017214 -0.138177 0.146333 -0.046845 -0.116686 -0.021108 0.06145 0.111198 0.139929 0.150815 -0.132179 -0.060886 -0.019735 -0.093557 -0.012108 -0.173619 0.036861 -0.022521 -0.13229 -0.105947 -0.103822 0.12202 0.010422 -0.004828 -0.047584 -0.143761 -0.140545 0.013094 0.098929 0.022177 -0.010941 -0.013627 -1.02E-4 -0.102073 0.196886 -0.377021 -0.100746 0.08235 -0.094858 0.112376 0.06795 0.132286 0.035674 0.013284 -0.140604 0.023534 0.047812 -0.004283 0.026424 -0.133592 -0.089894 0.059291
-0.135521 0.082655 0.079428 0.043379 -0.013187 -0.141126 0.08768 -0.077635 0.073591 -0.13454 0.035415 0.138954 0.12965 -0.118031 -0.090954 0.042203 -0.137008 -0.218453 0.163515 0.07601 -0.093204 -0.031101 -0.113597 0.119051 0.08469 -0.111554 -0.063628 0.23135 0.097024 0.252177 -0.360495 -0.12025 0.03202 0.175525 0.137413 0.01154 0.035654 -0.087164 0.316177 0.303061 0.011409 0.042444 -0.037561 0.135798 -0.267607 -0.163703 -0.094933 0.052485 -0.091959 0.076758 0.155406 -0.149211 -0.14195 -0.188154 -0.337691 -0.137807 -0.087709 -0.07946 -0.056573 -0.012161 -0.102919 -0.119964 -0.181775 -0.152891 -0.061676 0.064853 -0.043511 -0.128111 -0.052207 -0.170174 -0.05748 -0.205401 -0.284805 0.015575 -0.145078 8.44E-4 -0.098555 -0.032131 -0.073768 -0.047055 0.00732 0.259052 0.028809 0.021543 0.117362 0.170688 0.265419 -0.256229 0.029764 -0.039881 0.077023 0.157178 0.009264 -0.085884 0.099763 0.117854 -0.143974 0.050603 0.137708 -0.040477
-0.033059 -0.003841 0.030108 0.163011 0.105352 0.147194 -0.036178 -0.068444 0.038477 0.06238 0.121326 0.096957 -0.03952 0.059737 0.108019 0.088335 -0.065316 -0.055853 0.004409 0.284164 -0.120727 0.012958 0.211637 -0.05379 -0.076821 0.048247 -0.036615 0.131151 0.105124 -0.132452 -0.004586 0.047553 0.018431 0.082375 -0.037184 -0.057503 -0.05921 0.098712 0.126763 0.00903 -0.082714 -0.216583 0.133272 -0.007393 0.089772 -0.115459 0.110736 -0.118571 0.00702 0.039542 0.055305 -0.1787 -0.106418 -0.041918 -0.069195 0.051072 -0.156254 0.108775 0.05522 -0.136086 -0.016338 0.004462 -0.009961 -0.119515 0.133079 0.064662 -0.03509 -0.099412 0.227227 0.051663 0.156802 -0.189851 -0.023435 0.082887 0.088759 0.099828 -0.107043 0.02213 -0.023956 -0.070325 -0.032073 0.11249 0.114516 -0.11666 -0.042468 0.059348 -0.026855 0.038676 0.052443 0.077647 0.162325 -0.039425 -5.71E-4 0.002889 -0.038787 -0.036086 -0.056988 0.015773 -0.025481 0.004083
-0.130676 -0.199196 -0.035099 0.032604 -0.042615 -0.023303 0.060237 -0.076584 0.00545 -3.35E-4 0.118055 0.026695 0.105707 -0.087032 -0.074505 0.037002 0.065281 -0.0393 -0.02517 -0.164946 -0.046293 0.003275 0.142592 0.137317 -0.170921 -0.034709 -0.10291 0.048386 0.126692 -0.266657 -0.127747 -0.057535 0.122498 0.074111 0.291178 -0.160118 -0.075608 -0.043598 0.006866 0.015539 -0.137898 -0.115492 0.208727 -0.008284 0.052131 -0.116619 0.023857 0.210145 -0.047289 -0.018462 0.033972 0.011168 -0.074561 -0.257832 -0.0933 -0.024824 -0.097729 0.006717 0.038456 0.006223 -0.011547 0.063837 -0.152379 -0.094751 -0.137922 0.048831 1.73E-4 -0.012646 0.098069 0.060623 -0.129729 0.0301 -0.09719 -0.052737 0.068991 -0.122321 0.078189 -0.077004 0.078852 -0.080564 0.044351 0.069768 0.02003 -0.028151 -0.244601 0.090499 -0.068458 -0.008291 0.107898 -0.035807 -0.070642 0.014903 -0.141891 -0.031287 0.151151 -0.009146 -0.130039 -0.011589 0.097959 0.081507
-0.047421 -0.15849 0.107499 0.089927 0.167776 0.08617 -0.300314 -0.309623 0.108092 0.189928 0.056687 0.033222 -0.077897 -0.080874 0.159018 0.266839 -0.245001 0.016831 -0.085825 0.058383 -0.059198 -0.055262 0.240707 -0.12969 -0.22039 0.060318 -0.047124 -0.139865 0.089529 -0.172326 0.039714 -0.133083 -0.093917 0.050088 -0.217563 -0.099461 0.041898 -0.126919 0.020688 0.317283 0.16597 0.022872 0.046324 -0.073254 -0.180954 0.079862 0.019486 0.185367 0.118476 0.006355 -0.032953 -0.037425 0.063885 0.11699 0.184923 0.052025 0.128145 -0.13686 0.190992 -0.211976 0.013083 -0.015876 -0.029147 0.01214 -0.021098 0.071397 0.239282 -0.021331 -0.132596 -0.213218 -0.047197 -0.061747 0.108005 0.06585 0.170104 0.21 0.017802 0.149472 0.139998 -0.100998 0.016478 -0.071088 -0.215638 -0.123884 -0.172349 0.055991 -0.115719 -0.021301 0.071983 0.092645 -0.139537 0.078519 -0.099633 0.035876 -0.078405 -0.346964 0.042416 0.013565 -0.105723 -0.0419
0.0 0.0 0.0 0.0 0.0 0.0 0.0 0.0 0.0 0.0 0.0 0.0 0.0 0.0 0.0 0.0 0.0 0.0 0.0 0.0 0.0 0.0 0.0 0.0 0.0 0.0 0.0 0.0 0.0 0.0 0.0 0.0 0.0 0.0 0.0 0.0 0.0 0.0 0.0 0.0 0.0 0.0 0.0 0.0 0.0 0.0 0.0 0.0 0.0 0.0 0.0 0.0 0.0 0.0 0.0 0.0 0.0 0.0 0.0 0.0 0.0 0.0 0.0 0.0 0.0 0.0 0.0 0.0 0.0 0.0 0.0 0.0 0.0 0.0 0.0 0.0 0.0 0.0 0.0 0.0 0.0 0.0 0.0 0.0 0.0 0.0 0.0 0.0 0.0 0.0 0.0 0.0 0.0 0.0 0.0 0.0 0.0 0.0 0.0 0.0
0.0 0.0 0.0 0.0 0.0 0.0 0.0 0.0 0.0 0.0 0.0 0.0 0.0 0.0 0.0 0.0 0.0 0.0 0.0 0.0 0.0 0.0 0.0 0.0 0.0 0.0 0.0 0.0 0.0 0.0 0.0 0.0 0.0 0.0 0.0 0.0 0.0 0.0 0.0 0.0 0.0 0.0 0.0 0.0 0.0 0.0 0.0 0.0 0.0 0.0 0.0 0.0 0.0 0.0 0.0 0.0 0.0 0.0 0.0 0.0 0.0 0.0 0.0 0.0 0.0 0.0 0.0 0.0 0.0 0.0 0.0 0.0 0.0 0.0 0.0 0.0 0.0 0.0 0.0 0.0 0.0 0.0 0.0 0.0 0.0 0.0 0.0 0.0 0.0 0.0 0.0 0.0 0.0 0.0 0.0 0.0 0.0 0.0 0.0 0.0
0.133144 -0.044199 0.108877 0.124427 -0.066738 0.186109 -0.067011 0.080744 0.008025 0.062749 0.0356 0.097814 -0.036093 0.064094 0.086915 -0.046078 0.117013 0.052341 0.056322 0.073257 -0.023793 -0.027754 0.151548 0.118631 0.129059 -0.016441 0.106545 -0.056812 0.031686 0.059142 0.023374 -0.047582 -0.09548 -0.125731 -0.002883 -0.098507 -0.107889 -0.109139 -0.104965 -0.150702 0.101404 0.158212 0.141756 0.06291 0.012806 -0.26097 0.003295 -0.160959 0.110102 -0.139878 0.045816 -0.091344 -0.017966 0.004736 -0.001849 -0.057952 -0.083052 0.162722 0.044609 0.071145 -0.019402 0.01992 0.15405 -0.016777 0.19026 -0.100738 0.082974 -0.027586 0.040233 -0.27824 0.071935 -4.4E-4 0.201422 0.127079 -0.049423 -0.138459 0.00115 0.015266 -0.044575 0.276624 0.016688 0.065407 0.234307 -0.120265 0.072553 0.240948 -0.037669 0.033475 0.155346 0.156729 -0.211888 -0.07229 -0.15144 2.45E-4 -0.050106 0.054392 -0.183123 0.215552 -0.041958 0.14038
0.018514 -0.100805 0.039499 0.028774 0.063797 0.035246 -9.29E-4 -0.04767 -0.09467 -0.03279 0.122181 0.113675 0.081724 -0.043853 0.076988 0.159169 0.014874 0.016012 0.186219 0.00367 0.017311 0.042964 0.17054 0.152795 -0.024999 -0.137662 0.083428 0.106618 0.190228 -0.095876 -0.170267 0.004643 -0.085281 0.055195 -0.168677 -0.133353 0.020582 -0.04583 0.18126 -0.143388 -0.017035 -0.063165 0.099785 0.090232 -0.005853 0.069545 0.033268 0.064128 -0.102847 0.136641 0.08442 -0.15761 -0.196311 0.020261 0.162839 -0.057049 0.026844 0.197637 0.125437 -0.027631 0.068017 -0.01809 0.077502 -0.136002 -0.147431 -0.0015 -0.132542 0.071682 0.293682 0.046206 0.058644 -0.09417 0.04847 0.034524 0.087728 0.055265 0.031225 0.023734 -0.068879 0.017168 0.023263 -0.009412 0.115674 -0.187503 -0.156099 -0.134535 0.01238 -0.080882 0.084284 0.02613 -0.11293 -0.082055 0.035518 0.170481 -0.090686 0.049062 0.064527 -0.069402 -0.133448 0.099202
-0.167083 -0.107108 0.179851 0.109552 -0.024213 0.229157 -0.075334 -0.070437 -0.095383 0.224548 0.109642 0.033348 -0.067277 0.172258 0.1025 -0.097087 0.07275 0.08372 -0.048898 0.027978 -0.092038 0.129573 0.121068 -0.016639 -0.051471 0.206066 -0.057988 -0.03292 0.161717 -0.096696 -0.254576 -0.039036 0.243231 0.132109 0.006361 0.039556 -0.111924 -0.13768 -0.026979 0.009431 0.032213 0.298426 0.011437 -0.207073 0.049479 0.133506 0.130962 0.042425 -0.12671 -0.055215 -0.040495 -0.081002 -0.0113 0.131594 0.136972 0.066241 -0.142628 0.006467 0.082331 -0.023632 0.12726 -0.08866 -0.004003 0.125163 0.172583 0.066611 0.037084 0.379506 0.156894 -0.038809 -0.05146 -0.216693 0.014711 -0.345933 -0.145663 0.265907 -0.165782 -0.251349 0.045053 0.094664 -0.003293 0.027445 -0.371954 -0.293996 0.223192 0.186416 0.033611 0.26388 0.406974 -0.063905 -0.0194 0.070162 0.237415 -0.230282 0.156302 0.152369 -0.00777 0.17857 0.087777 -0.019579
0.076594 -0.199501 0.2027 0.176772 -0.039758 0.023468 -0.062109 0.0774 0.054171 0.088133 -0.028462 0.320828 -0.112689 -0.105171 0.165336 -0.039742 0.027346 -0.020414 0.116665 0.119666 0.078118 0.014581 0.04492 -0.057073 -0.10794 -0.090284 -0.173956 -0.103567 0.142644 0.010637 -0.042665 -0.104148 -0.23292 0.151724 -0.060366 -0.227539 0.102389 -0.129266 0.005404 0.017334 -0.165263 0.146999 0.091273 0.189788 0.003531 -0.180556 -0.174333 0.072413 -0.113615 0.066181 0.016432 -0.103203 -0.222773 0.067866 0.111634 -0.214641 0.066382 0.017632 -0.014616 -0.116504 0.197197 -0.110829 -0.029051 -0.08824 -0.286285 -0.077426 -0.046257 -0.005034 0.02818 -0.207414 -0.053841 -0.012529 0.108386 -0.22669 -0.034264 -0.084916 -0.270642 -0.117614 -0.164729 -0.019644 0.017254 0.194925 0.108543 -0.185764 0.050862 0.004857 0.206937 0.160744 0.1539 0.067165 -0.051167 0.051192 0.067121 -0.084796 -0.081263 -0.256949 0.389044 0.099502 0.190931 0.158639
-0.061018 0.157623 0.117298 -0.109258 0.01787 0.045393 -0.022422 -0.294216 0.022256 0.058558 0.038763 0.036359 0.07868 -0.152594 -0.142051 -0.006561 0.048106 -0.186814 -0.219902 -0.146332 -0.040248 0.162923 0.206328 0.008315 0.064041 -0.061214 0.088903 0.028344 0.024874 0.075935 -0.107993 -0.283393 0.084838 0.187131 0.046335 0.263285 0.01179 -0.091048 -0.068498 -0.122058 -0.038751 -0.129411 -0.058456 -0.131053 0.030694 -0.04914 0.090078 0.005105 0.098069 -0.099897 0.334519 -0.048818 0.274796 -0.137175 0.00266 0.139418 0.004345 0.119594 -0.040263 -0.21202 0.038889 -0.176923 0.158875 0.078129 0.025839 -0.016447 -0.02998 -0.060089 -0.040361 0.099583 -0.008088 -0.092105 -0.119375 0.043943 0.139698 -0.224044 0.190238 -0.066093 0.103458 -0.004324 -0.130908 0.064415 0.004283 -0.207982 0.059064 0.041556 -0.028417 0.088197 0.079813 -0.058325 -0.11522 -0.016049 -0.123872 0.006802 0.019293 0.070081 0.043632 0.294809 -0.077686 0.04626
0.0 0.0 0.0 0.0 0.0 0.0 0.0 0.0 0.0 0.0 0.0 0.0 0.0 0.0 0.0 0.0 0.0 0.0 0.0 0.0 0.0 0.0 0.0 0.0 0.0 0.0 0.0 0.0 0.0 0.0 0.0 0.0 0.0 0.0 0.0 0.0 0.0 0.0 0.0 0.0 0.0 0.0 0.0 0.0 0.0 0.0 0.0 0.0 0.0 0.0 0.0 0.0 0.0 0.0 0.0 0.0 0.0 0.0 0.0 0.0 0.0 0.0 0.0 0.0 0.0 0.0 0.0 0.0 0.0 0.0 0.0 0.0 0.0 0.0 0.0 0.0 0.0 0.0 0.0 0.0 0.0 0.0 0.0 0.0 0.0 0.0 0.0 0.0 0.0 0.0 0.0 0.0 0.0 0.0 0.0 0.0 0.0 0.0 0.0 0.0
1.678131 1.611285 2.435007 0.111168 0.95173 -1.507032 -1.917587 -1.635743 -1.544403 -1.265986 -0.656287 1.350096 1.088091 0.090681 0.103048 0.197334 -2.497905 1.022675 -1.072164 0.681355 1.244205 0.852308 -0.743175 0.598271 0.943501 0.331543 -0.372086 0.309173 -2.007604 1.117659 0.118911 -5.218202 -0.523291 -3.193882 -1.582857 1.144665 0.099886 2.244909 -1.845497 1.880344 -2.382567 1.133709 -0.810846 -2.442229 0.04773 1.449951 -1.803326 1.769283 2.947123 -0.198424 0.053551 -1.075434 -2.140229 -2.696023 -1.331663 -1.9514 -0.733881 -3.192958 0.23297 -0.159864 -1.062711 -1.791213 1.537347 4.712033 -1.087948 -2.077337 -1.086482 -3.552015 0.622389 2.101857 4.043852 -0.844831 -2.253862 -0.293549 2.923936 -0.909041 0.926417 4.271663 -0.30464 1.018999 0.952017 0.604086 -1.464005 -2.359906 2.877745 0.191458 2.182858 2.937758 2.138167 0.360634 0.87898 -0.163158 -1.594639 1.296853 2.666934 -2.009411 -1.921386 2.678661 -2.139278 2.322386
-0.052909 0.025143 0.068653 0.007157 0.011234 0.036372 0.043707 0.054511 -0.053174 -0.043019 0.060511 -0.048646 -0.067574 0.073135 0.180058 -0.067954 0.056104 0.048957 -0.026837 0.017887 -0.066345 0.111809 0.008814 0.042789 -0.081723 -0.231614 -0.054533 -0.042471 0.174947 0.003484 0.075105 -0.05242 -0.102105 0.069054 -0.041269 0.032313 0.116635 5.57E-4 0.085291 0.110494 0.108896 0.042603 -0.056126 0.017715 0.092263 0.169691 0.112594 0.041834 0.060141 0.041644 0.04647 0.064717 -9.63E-4 -0.13351 0.063508 -0.237244 0.079755 -0.099942 0.051928 -0.116207 -0.026734 -0.055449 0.042605 -0.042566 0.040305 0.049141 0.103737 0.088645 -0.117647 -0.164979 -0.036473 -0.052894 0.086874 0.089989 0.129154 -0.122938 -0.022409 -0.039708 -0.120727 -0.078467 -0.016841 0.107075 0.039005 -0.061214 0.127975 0.050425 -0.016271 -0.057088 -0.083193 0.066411 -0.123916 0.0576 0.073208 0.049729 -0.145444 -0.117469 0.03845 -0.056778 -0.005137 0.081234
-1.445697 -0.376991 0.605131 -2.927773 -2.545095 -0.012935 0.304803 -1.289168 2.935763 -3.30048 2.013736 0.601604 0.463606 -2.513579 -3.111959 1.509581 -2.270566 -3.193746 -0.683823 1.11226 2.641423 -0.439638 -1.461155 -0.230057 -3.083891 1.464638 -3.482595 0.292508 -2.961341 2.670694 2.633844 0.530248 -0.915058 -5.213341 1.151417 2.088477 0.077027 1.987321 -2.701086 -1.896473 -1.396191 -0.28458 3.471924 3.377009 0.510478 -0.338405 -1.080892 -0.17368 -0.293555 -0.092374 -0.194442 -0.035597 -0.210813 3.880518 -1.574683 0.838801 3.22272 2.935631 -0.150343 1.362463 2.574235 3.434764 2.104742 1.146516 1.989767 1.356181 1.46733 1.525646 1.808291 -1.537805 -0.288857 -0.65458 0.173075 -0.698576 0.239921 -0.800718 2.227096 -0.11127 0.137437 0.862853 3.100754 -0.68748 2.771815 -0.865885 0.747454 -2.708324 2.056632 -2.880682 -0.510213 -0.75684 1.062552 3.109441 -4.090577 -0.19873 0.562437 -4.868546 1.064819 1.171282 -1.742815 -0.694478
-0.023725 -0.265581 -0.041655 0.122232 0.026794 -0.088378 -0.095963 -0.07173 -0.107796 -0.053451 0.244892 0.188711 -0.170801 0.022715 -8.47E-4 0.204389 -0.068086 0.024141 0.111102 0.050266 -0.042829 -0.104548 0.056634 0.106866 -0.035671 -0.111641 0.164909 0.066612 0.15263 -0.04625 0.072838 0.047495 -0.171938 0.101539 -0.079368 -0.007698 0.092885 -0.147097 0.195496 -0.035855 -0.218068 -0.098775 0.231561 0.129023 -0.111343 -0.171763 -0.061107 -0.054208 0.042218 0.022472 0.07198 -0.214236 -0.161899 -0.018452 0.010509 -0.022686 0.086178 0.078149 -0.072518 -0.183167 0.119658 -0.068118 0.051934 -0.01767 -0.158406 -0.063514 -0.107352 0.120173 0.133667 0.053117 0.01506 -0.054873 0.029177 -0.089398 -0.004805 -0.012248 0.112717 -0.080168 -0.105325 -0.109812 -0.087183 -0.176569 0.227813 -0.2492 -0.148258 -0.003471 0.100996 0.024248 0.093904 0.123002 -0.140595 0.053374 -0.09475 -0.046893 -0.002508 -0.046196 0.066997 0.183339 -0.060206 -0.072608
-0.172032 -0.111078 -0.13899 0.03213 -0.088284 -0.149606 0.106539 -0.110459 0.031389 0.092556 0.025321 0.038012 0.02697 -0.095344 0.109185 0.121536 -0.2229 0.353593 0.114832 0.10745 -0.076297 -0.253857 0.274354 0.019056 -0.038727 -0.07106 -0.385972 -0.070203 0.129131 -0.244513 0.069201 0.048771 -0.217358 0.00115 0.016215 0.052991 -0.170399 0.047572 0.145009 0.185726 0.032509 0.261254 0.159715 -0.110878 -0.069121 -0.159517 0.121194 0.113104 -0.122779 0.254009 0.152769 -0.05981 -0.033447 -0.059359 -0.154192 -0.091144 0.020474 0.049332 0.112796 -0.029391 0.269908 -0.148448 0.021519 -0.295684 -0.177359 -0.079458 0.041766 0.237457 -0.006562 -0.064498 -0.108464 -0.101418 0.140398 -0.030654 0.069967 0.1326 -0.011581 -0.124894 0.128412 0.005793 0.011886 -1.42E-4 0.086883 -0.103616 -0.059101 -0.006849 -0.04711 0.126474 -0.185871 0.03623 0.059605 -0.045044 -0.02556 2.72E-4 -0.364476 0.024793 -0.018841 -0.027551 -0.07074 -0.108604
0.185938 -0.089624 0.093234 0.147536 -0.11459 -0.129008 -0.09481 -0.008017 -0.075406 0.0206 0.119411 0.100719 -0.033793 -0.109748 0.239836 0.145497 0.032362 0.132324 -0.001636 0.056896 -0.207768 0.14385 0.103415 -0.067541 -0.08987 -0.002098 0.003064 0.060203 0.149974 -0.225837 0.178074 0.043982 0.12233 0.044586 -0.058302 0.17733 -0.198181 0.002445 -0.169354 0.158764 -0.047726 -0.005613 -0.108721 -0.188066 0.076265 -0.007771 -0.001382 -0.030905 0.0393 0.141754 0.159115 -0.006548 -0.01495 -0.030699 0.059923 0.007514 -0.081255 0.014984 -0.157812 -0.086708 0.051821 -0.228048 -0.183213 -0.164892 0.021959 -0.050445 -0.007444 -0.141708 -0.039219 -0.202261 0.013122 0.23699 -0.082318 0.070748 0.231225 0.002655 -0.105667 -0.196822 0.099719 0.039002 -0.142883 0.048344 0.164295 -0.164501 0.042459 0.006267 0.221968 0.201626 0.073428 0.235844 -0.12395 -0.056444 0.124315 0.063309 -0.00743 0.033688 0.071343 0.150496 0.072951 -0.079105
-0.007027 -0.141752 -0.056677 -0.141015 0.198299 0.089064 -0.004255 0.141904 -0.062552 -0.08783 0.158097 0.061725 -0.079299 -0.138404 0.022841 0.203767 -0.009093 -0.041644 0.150112 -0.097071 -0.111478 0.13084 0.237076 -0.132706 -0.120667 -0.08614 -0.035819 -0.18279 0.062375 -0.076215 0.065329 -0.090597 -0.033162 -0.032387 0.116548 -0.053667 0.265789 0.104244 0.118399 -0.028552 -0.020001 -0.078637 0.227796 0.042127 -0.17352 0.066788 0.185133 0.15542 -0.066444 0.161347 0.108328 -0.07514 -0.015656 0.157912 0.028017 0.080115 0.029388 0.033096 0.123887 -0.082757 0.054185 -0.054458 -0.138001 0.061632 -0.020234 -0.129647 -0.016699 -0.017694 0.156437 0.011152 -0.018373 -1.68E-4 0.02578 -0.064791 -0.058016 0.220288 -0.069944 -0.003506 -0.006624 -0.140721 -0.055383 0.145472 0.07505 -0.147881 -0.099639 -0.008731 -0.018824 0.087563 0.021792 -0.170363 -0.131424 0.141896 -0.024361 -0.012488 -0.127052 -0.208713 0.006517 0.04657 -0.126676 0.112019
-2.648351 -0.794316 -2.108887 0.20446 0.883061 0.242784 1.848653 1.149137 -4.975573 0.237654 -1.499665 2.924494 0.344217 -1.640431 0.763777 0.138944 -3.029439 -2.813434 -0.761102 -1.057557 -1.373735 -0.870599 1.234095 0.127805 -1.372618 1.35802 -1.501738 0.80945 0.172993 -0.484995 1.783363 -0.047587 0.483285 -1.526831 2.103549 2.116639 4.583491 -4.022388 -0.843817 0.361243 -0.546655 -2.301259 -2.000973 2.64631 -1.604053 -1.914206 -1.581895 -0.464185 1.757769 1.056301 0.263866 -0.904419 -0.422466 0.007824 -1.651553 0.7499 1.638666 -0.336108 -3.288466 -2.953238 -1.135414 1.165223 -1.047256 -0.821696 -0.135806 0.434207 -2.389307 -3.56953 -0.656773 0.578325 3.337902 0.782195 -1.250815 2.925509 -1.981492 0.121786 0.836257 1.710923 -2.640405 -0.628995 0.247469 0.863847 1.749171 -0.214156 -0.274807 2.192709 -0.892334 -1.614644 -1.225919 -0.042182 2.51632 3.464583 -3.591523 -2.506587 0.990426 1.8843 -2.460629 0.953462 0.359605 2.267383
0.0 0.0 0.0 0.0 0.0 0.0 0.0 0.0 0.0 0.0 0.0 0.0 0.0 0.0 0.0 0.0 0.0 0.0 0.0 0.0 0.0 0.0 0.0 0.0 0.0 0.0 0.0 0.0 0.0 0.0 0.0 0.0 0.0 0.0 0.0 0.0 0.0 0.0 0.0 0.0 0.0 0.0 0.0 0.0 0.0 0.0 0.0 0.0 0.0 0.0 0.0 0.0 0.0 0.0 0.0 0.0 0.0 0.0 0.0 0.0 0.0 0.0 0.0 0.0 0.0 0.0 0.0 0.0 0.0 0.0 0.0 0.0 0.0 0.0 0.0 0.0 0.0 0.0 0.0 0.0 0.0 0.0 0.0 0.0 0.0 0.0 0.0 0.0 0.0 0.0 0.0 0.0 0.0 0.0 0.0 0.0 0.0 0.0 0.0 0.0
0.001235 0.091733 0.189606 -0.146393 -0.063672 0.039712 -0.011477 0.025047 -0.039179 -0.024798 -0.267663 -0.131087 -0.176287 0.11822 0.186432 0.080327 0.129866 0.067908 0.097806 0.062995 0.090606 0.073993 0.283651 0.28749 0.01449 0.004868 0.058974 0.285333 0.171774 -0.119835 0.238923 -0.1512 0.078782 0.024639 -0.033669 0.068536 -0.111863 -0.078869 -0.022351 -0.052913 0.188686 -0.227955 0.07404 -0.144754 -0.003976 -0.18484 -0.166294 -0.184626 -0.20469 -0.089556 -0.249095 -0.045037 -0.13931 -0.102102 0.078563 0.160042 -0.094143 -0.039679 -0.318761 -0.055609 -0.06253 -0.169557 9.39E-4 0.135299 0.17253 -0.128311 -0.007353 -0.274643 0.146172 -0.071657 0.277022 0.064441 0.032184 0.077833 -0.095272 0.060238 -0.148103 -0.073452 0.126489 -0.076168 0.107519 -0.114999 0.009176 -0.020592 -0.011937 -0.040261 -0.209588 0.241224 0.002212 0.346532 0.002402 0.007704 0.061144 -0.115226 0.003589 -0.061879 -0.081442 -0.20989 -0.15214 0.015582
-2.624672 -1.554463 0.721791 0.057634 -4.060073 0.62512 -1.904671 -1.214719 3.417883 -2.21608 -1.288049 0.833958 2.562591 -2.007247 -1.089559 -1.856265 -2.632277 -1.096159 -0.575553 -0.097507 -3.172086 0.974568 0.031504 -0.139215 -0.808232 0.751506 1.58791 3.674081 -0.526015 3.586167 3.317653 0.353082 0.054125 0.255352 -0.233135 -0.196828 2.473883 -2.154672 -0.635499 -2.408924 -2.285774 -0.679714 -0.537962 -2.375608 -0.359529 2.122944 -3.349861 0.568652 -2.574357 1.057826 0.861368 1.753231 2.829964 2.314444 -0.260215 3.682849 1.61588 0.415127 -1.524783 -1.360525 2.612372 1.309274 2.014461 3.862636 4.902708 -0.900143 -0.204208 -1.736223 0.101982 0.048446 0.558404 0.62084 -4.266359 -2.985905 -4.302859 2.362859 0.888264 2.322715 -1.663494 1.137201 0.95968 -3.628558 0.498155 -0.315144 0.055032 -1.361952 1.850147 4.145928 -1.920611 -2.244518 -2.592072 -2.563996 -1.97104 -1.054235 -2.718191 1.924839 -0.246865 3.447866 0.018846 0.871122
-0.023725 -0.265581 -0.041655 0.122232 0.026794 -0.088378 -0.095963 -0.07173 -0.107796 -0.053451 0.244892 0.188711 -0.170801 0.022715 -8.47E-4 0.204389 -0.068086 0.024141 0.111102 0.050266 -0.042829 -0.104548 0.056634 0.106866 -0.035671 -0.111641 0.164909 0.066612 0.15263 -0.04625 0.072838 0.047495 -0.171938 0.101539 -0.079368 -0.007698 0.092885 -0.147097 0.195496 -0.035855 -0.218068 -0.098775 0.231561 0.129023 -0.111343 -0.171763 -0.061107 -0.054208 0.042218 0.022472 0.07198 -0.214236 -0.161899 -0.018452 0.010509 -0.022686 0.086178 0.078149 -0.072518 -0.183167 0.119658 -0.068118 0.051934 -0.01767 -0.158406 -0.063514 -0.107352 0.120173 0.133667 0.053117 0.01506 -0.054873 0.029177 -0.089398 -0.004805 -0.012248 0.112717 -0.080168 -0.105325 -0.109812 -0.087183 -0.176569 0.227813 -0.2492 -0.148258 -0.003471 0.100996 0.024248 0.093904 0.123002 -0.140595 0.053374 -0.09475 -0.046893 -0.002508 -0.046196 0.066997 0.183339 -0.060206 -0.072608
1.035361 1.319725 0.388011 1.220811 -0.236045 1.447081 -1.78193 3.520004 0.063077 -1.681862 0.545208 0.767849 -1.479444 -1.152839 0.669301 0.685509 -2.946755 -2.239533 -1.187422 -1.793336 0.607402 0.130687 0.296681 -1.569517 1.825066 1.715849 -1.639836 0.849724 -1.742086 0.427502 3.84844 -1.377145 0.671096 -1.312902 -1.152387 0.705431 2.180344 2.97496 1.402098 -0.909545 -1.649212 -0.253421 1.186817 1.193823 3.167747 -0.387379 -0.12198 0.872223 0.13285 0.490844 0.029473 1.345032 0.297008 2.724698 -1.656047 -0.109585 1.500583 -1.148555 -3.658389 1.022988 -1.211381 0.342059 -0.023586 1.22536 -1.874871 -1.957746 -0.188066 -0.235303 -0.067175 1.107354 1.448404 0.838301 1.67396 -0.238039 -0.504146 -1.334739 0.688005 0.37731 -2.953094 0.650433 0.307563 -0.457962 -1.694326 2.40152 -0.816994 0.208705 1.853393 0.15935 -0.989952 1.089235 1.087388 -2.786835 -2.248864 -0.788939 0.405791 0.907533 -1.516669 1.970717 -0.345554 -0.134731
-0.022472 -0.0286 0.014651 0.037713 0.053146 0.080121 -0.093468 -0.250423 0.060869 -0.018404 0.192859 0.071127 -0.034619 0.120386 0.06543 -0.038705 -0.125265 -0.166616 0.026529 0.069964 -0.010113 0.047386 -0.105185 0.198162 0.105395 0.097151 0.118624 -0.100568 0.194718 0.16027 0.025583 -0.178672 -0.005309 -0.095614 0.112059 0.055169 0.103159 -0.104924 0.078805 0.116019 0.030468 -0.175176 -0.13289 0.10757 -0.15683 -0.049192 0.003908 0.191115 -0.135681 -0.02097 -0.011078 -0.097853 -0.009189 0.014958 0.104894 -0.038316 -0.070534 0.121314 0.178612 -0.052544 0.100195 0.127438 -0.089321 -0.009738 0.021255 0.030159 0.064451 0.063533 -0.16463 0.259147 0.058314 -0.092746 0.030844 -0.04324 0.101487 0.007273 -0.244303 0.100858 0.069425 -0.022574 -0.165127 0.008106 -0.238021 -0.217159 -0.039656 0.097376 -0.038173 -0.06334 0.028843 0.050891 0.004594 -0.251316 -0.050187 0.12119 -0.120483 0.042783 0.011264 -0.08886 0.109574 -0.057601
0.018514 -0.100805 0.039499 0.028774 0.063797 0.035246 -9.29E-4 -0.04767 -0.09467 -0.03279 0.122181 0.113675 0.081724 -0.043853 0.076988 0.159169 0.014874 0.016012 0.186219 0.00367 0.017311 0.042964 0.17054 0.152795 -0.024999 -0.137662 0.083428 0.106618 0.190228 -0.095876 -0.170267 0.004643 -0.085281 0.055195 -0.168677 -0.133353 0.020582 -0.04583 0.18126 -0.143388 -0.017035 -0.063165 0.099785 0.090232 -0.005853 0.069545 0.033268 0.064128 -0.102847 0.136641 0.08442 -0.15761 -0.196311 0.020261 0.162839 -0.057049 0.026844 0.197637 0.125437 -0.027631 0.068017 -0.01809 0.077502 -0.136002 -0.147431 -0.0015 -0.132542 0.071682 0.293682 0.046206 0.058644 -0.09417 0.04847 0.034524 0.087728 0.055265 0.031225 0.023734 -0.068879 0.017168 0.023263 -0.009412 0.115674 -0.187503 -0.156099 -0.134535 0.01238 -0.080882 0.084284 0.02613 -0.11293 -0.082055 0.035518 0.170481 -0.090686 0.049062 0.064527 -0.069402 -0.133448 0.099202
-0.167083 -0.107108 0.179851 0.109552 -0.024213 0.229157 -0.075334 -0.070437 -0.095383 0.224548 0.109642 0.033348 -0.067277 0.172258 0.1025 -0.097087 0.07275 0.08372 -0.048898 0.027978 -0.092038 0.129573 0.121068 -0.016639 -0.051471 0.206066 -0.057988 -0.03292 0.161717 -0.096696 -0.254576 -0.039036 0.243231 0.132109 0.006361 0.039556 -0.111924 -0.13768 -0.026979 0.009431 0.032213 0.298426 0.011437 -0.207073 0.049479 0.133506 0.130962 0.042425 -0.12671 -0.055215 -0.040495 -0.081002 -0.0113 0.131594 0.136972 0.066241 -0.142628 0.006467 0.082331 -0.023632 0.12726 -0.08866 -0.004003 0.125163 0.172583 0.066611 0.037084 0.379506 0.156894 -0.038809 -0.05146 -0.216693 0.014711 -0.345933 -0.145663 0.265907 -0.165782 -0.251349 0.045053 0.094664 -0.003293 0.027445 -0.371954 -0.293996 0.223192 0.186416 0.033611 0.26388 0.406974 -0.063905 -0.0194 0.070162 0.237415 -0.230282 0.156302 0.152369 -0.00777 0.17857 0.087777 -0.019579
-0.037053 -0.057913 0.034828 -0.082813 0.051209 -0.098299 -0.048929 -0.151335 -0.115939 -0.059739 -0.110156 0.053726 -0.063883 0.168909 0.021791 -0.026907 0.056153 0.041379 -0.129692 -0.220683 -0.035036 0.07977 0.112365 0.043245 -0.15989 -0.048657 -0.129964 0.177509 0.087797 -0.162317 0.053529 0.060671 -0.0999 0.034106 0.005555 -0.081399 0.041136 -0.024965 0.100955 -0.06228 -0.047003 -0.094845 -0.128201 0.125091 0.087359 -0.06855 0.053227 -0.007461 0.062846 0.0242 -0.010496 0.098034 0.015884 -0.051412 0.160509 0.051856 -0.017765 0.024911 0.113833 0.007386 -0.065838 -0.017378 -0.207687 -0.180338 -0.102031 0.05788 -0.113818 -0.0524 0.025558 0.070002 -0.103133 0.046258 -0.08298 -0.079568 -0.080501 0.103389 0.015689 -0.16807 -0.006288 -0.123254 -0.125101 -0.017774 0.02158 -0.132225 -0.098932 -0.077212 -0.126198 -0.030134 -0.077644 -0.026452 -0.018856 -0.134257 -0.073413 0.065233 -0.131667 -0.007991 -0.024066 0.039775 0.070794 0.018027
0.0 0.0 0.0 0.0 0.0 0.0 0.0 0.0 0.0 0.0 0.0 0.0 0.0 0.0 0.0 0.0 0.0 0.0 0.0 0.0 0.0 0.0 0.0 0.0 0.0 0.0 0.0 0.0 0.0 0.0 0.0 0.0 0.0 0.0 0.0 0.0 0.0 0.0 0.0 0.0 0.0 0.0 0.0 0.0 0.0 0.0 0.0 0.0 0.0 0.0 0.0 0.0 0.0 0.0 0.0 0.0 0.0 0.0 0.0 0.0 0.0 0.0 0.0 0.0 0.0 0.0 0.0 0.0 0.0 0.0 0.0 0.0 0.0 0.0 0.0 0.0 0.0 0.0 0.0 0.0 0.0 0.0 0.0 0.0 0.0 0.0 0.0 0.0 0.0 0.0 0.0 0.0 0.0 0.0 0.0 0.0 0.0 0.0 0.0 0.0
-0.684954 -0.627107 -0.44735 1.80804 0.52007 2.213762 1.427343 0.870384 0.048028 0.70427 0.195575 0.725389 -0.36625 1.512055 1.82086 -1.099681 2.326311 -2.07E-4 -0.022931 -0.351126 -2.110719 2.584163 2.02085 -2.33694 -0.715335 -0.923987 1.372648 1.196458 2.174791 0.058067 2.852562 1.619375 -0.941331 0.646947 -3.35009 2.095983 0.18829 0.435546 -2.830577 -1.47177 -0.439784 -2.611149 -0.456616 0.336491 1.156458 -0.602953 -2.996999 -1.085249 0.147252 -1.046309 -1.021079 0.149107 0.128595 1.994325 -1.65208 2.68138 0.518052 0.238381 -0.658235 1.206247 -0.011465 -1.010275 -2.022374 0.181686 2.632234 -3.592191 0.882537 0.139442 1.321739 -1.468662 1.055882 -1.020076 -0.130018 0.393202 -1.719162 0.326417 0.069704 0.887993 -0.393625 4.455509 -1.199481 0.560733 1.155242 1.141916 1.7438 -0.492565 -1.836984 1.197477 -2.488812 1.721438 -1.396196 -1.657622 0.750396 1.82759 0.2755 0.806517 -1.524181 1.077693 1.023414 1.030968
0.100342 -0.046996 0.118235 -0.195914 -0.062845 -0.00263 -0.049219 -0.025702 0.070879 -0.088164 -0.065009 0.03587 -0.089495 0.200695 0.197936 -0.134646 -0.082224 -0.070048 -0.145857 0.084524 -0.062734 -0.0729 0.007797 0.175391 -0.101227 -0.157721 -0.084787 0.070467 0.110842 0.121566 0.010786 0.118229 -0.061778 0.140583 0.236701 0.12967 0.077058 -0.126444 0.138968 0.008993 -0.082232 -0.142226 -0.252312 -0.076795 0.025792 0.126785 -0.198613 0.115954 0.031074 0.049458 -0.036227 -0.047244 -0.072856 -0.047129 0.072417 0.286561 -0.197108 0.154958 -0.024637 -0.143688 -0.172099 -0.056494 -0.036697 -0.030624 0.102039 0.094845 -0.130347 0.005958 0.05083 0.076224 -0.109301 -0.01604 0.056115 -0.1556 -0.06116 -0.096975 -0.078609 0.096475 -0.006104 -0.21483 0.140204 0.106451 -0.001017 -0.16566 0.049768 -0.057636 0.107731 -0.120294 -0.05759 0.026303 -0.024757 -0.006144 0.035358 0.009715 -0.044794 -0.222967 -0.004228 -0.028474 0.152531 0.056453
2.287246 1.348758 3.3385 2.602799 3.711394 3.218853 -0.524456 -3.657739 -1.573267 0.987608 -3.184489 1.384671 -3.538349 1.211226 0.750504 -1.295874 -2.609782 -3.147296 -0.76006 0.390781 1.0986 0.839353 1.158657 -3.37151 -0.879594 1.187636 0.364224 2.784636 -0.705562 0.894783 0.88998 4.349974 1.68888 -0.57355 -1.522712 -1.123405 0.85469 1.082108 -1.61492 -0.493637 -0.603678 -1.48823 -0.616673 -0.95748 -2.446304 0.605044 -1.414548 -0.802802 0.289357 2.507977 1.455585 1.863811 -0.043311 2.03494 -3.395566 2.412908 -0.639311 0.816903 1.516479 -1.539687 0.663988 -0.196985 -1.850495 0.679603 -1.41325 -1.457098 -1.919837 -1.78985 1.120989 0.490522 2.477452 -2.814121 0.436716 1.47804 -0.149065 3.691156 -0.722253 0.827798 -0.202554 1.625855 1.340821 -3.007125 0.388472 -2.418846 -0.09649 2.03459 0.728771 -0.038473 -2.169551 1.169802 -2.112678 -2.021338 -3.645785 -0.662445 -2.658048 0.494165 -1.374901 1.4498 -2.703903 1.716418
-0.019201 0.028111 0.019217 0.052324 -0.012545 0.076041 0.041859 0.132425 -0.042682 -0.25324 0.153679 -0.052639 -0.234426 0.154245 0.001178 0.07083 0.073083 0.160228 0.024133 -0.054811 0.001969 0.005439 0.181016 0.099355 -0.126409 -0.051701 0.037309 -0.123638 0.247936 -0.162055 0.114555 0.125901 0.087982 0.08593 -0.090916 0.032607 0.058566 -0.084423 -0.083684 -0.120125 -0.142636 -0.134573 0.099572 -0.067549 0.144656 -0.140025 -0.119758 0.069446 0.087216 -0.032862 -0.006618 -0.111395 0.032981 -0.031112 -0.118341 0.110071 -0.111936 0.153878 0.041608 0.007703 0.064796 -0.130385 0.030277 0.045725 -0.1256 0.149386 -0.11782 -0.166733 0.122695 0.114102 -0.065025 -0.01284 -0.004014 -0.036946 -0.052576 0.183617 0.039352 -0.109896 0.002856 -0.049741 0.098582 -0.079185 0.058208 -0.092538 -0.020486 -0.024785 0.136707 0.03449 -0.090652 0.201497 -0.097455 0.025029 -0.120762 -0.013839 -0.051103 -0.067125 -0.00444 -0.252706 0.02388 -0.108891
0.060854 -0.011986 -0.038491 -0.215355 -0.196333 0.013959 -0.162443 0.134481 -0.212497 0.029634 0.027952 0.080762 -0.014948 0.07979 0.015262 0.106256 -0.140167 0.062221 0.056658 0.003705 -0.127495 0.040146 0.071066 0.123334 -0.170067 0.049084 0.064598 0.034576 -0.153861 0.059129 -0.122907 0.101599 -0.03729 -0.144749 -0.054557 -0.088295 -0.096698 -0.031594 -0.004937 -0.058224 0.001627 0.103749 0.057639 0.173077 -0.067248 -0.148184 0.083801 0.091989 -0.051326 0.080511 -0.039954 -0.034848 -0.141769 0.053141 0.11912 -0.065528 0.056766 -0.008784 0.041694 -0.183181 0.047779 -0.041783 0.00709 -0.08381 0.007302 0.024247 -0.021254 -0.09643 -0.074851 -0.010163 -0.029143 -0.169037 0.234911 -0.065547 0.066872 -0.113811 0.166807 0.067121 -0.162991 0.064033 0.092899 0.075295 0.092263 0.124227 -0.013228 -0.080937 0.005278 0.092741 0.111105 0.017927 -0.012814 0.028827 -0.039962 0.069081 -0.075695 -0.087783 -0.156934 -0.049833 0.008716 -0.058487
0.074034 -0.120586 -0.009346 0.336363 0.062932 0.020839 -0.177046 -0.087074 0.038978 -0.005495 0.049281 0.110663 0.061973 0.081752 0.112497 -0.0053 0.059601 0.060508 0.02056 0.049841 -0.00654 0.183764 0.090227 0.011444 -0.247765 0.004781 -0.035673 0.046489 0.121596 -0.034487 -0.09803 0.05116 -0.012326 0.037828 0.091343 -0.168963 -0.232785 -0.019095 0.042553 0.158525 -0.132248 -0.079236 -0.180255 -0.076755 -0.0247 -0.041959 0.071709 0.087001 -0.248853 0.076532 0.131283 9.37E-4 -0.05628 0.083975 0.36264 -0.098368 -0.044052 -0.029187 -0.069525 0.035054 0.073116 0.121142 0.049915 -0.162092 0.009365 -0.007546 0.002255 -0.084858 -0.052458 -0.188639 -0.116955 0.080333 0.032729 -0.122035 0.077708 -0.13911 0.091386 0.129314 -0.024054 0.035914 -0.012047 0.061013 0.206119 -0.133202 -0.012959 -0.059966 -0.023351 0.044931 -0.071462 -0.016341 -0.176701 -0.117206 -0.155929 0.155044 -0.16771 -0.28764 0.0146 -0.125139 -0.005339 0.163475
1.560996 0.842868 -0.966121 0.794535 0.732082 2.167424 0.982662 0.057444 0.504819 0.07841 0.055279 1.416647 -0.670558 0.122239 -1.875473 -0.339444 -1.661959 -1.985793 -0.005729 -2.592115 -2.183448 0.044516 0.671895 -0.589479 0.827514 1.432932 1.133599 0.800224 0.356391 -1.617423 1.243533 -0.771712 1.46062 -1.283942 -0.283672 -0.793244 2.250382 0.636489 -0.035825 -2.112469 -0.960024 -2.532577 1.013875 -0.496549 -0.535743 1.359858 0.125133 -0.377994 0.914883 0.328853 0.713591 1.260942 -0.948324 1.504832 -1.93683 0.311228 0.965607 -1.013595 0.329382 -0.198887 0.96078 -0.013681 0.350227 0.828392 -1.894402 -0.039104 0.283785 -0.554694 -1.197001 0.540337 2.851685 1.269162 -1.080219 0.093043 0.787903 -0.091276 2.31099 1.354835 -1.181959 0.872145 0.826596 0.712391 -0.103207 1.442596 -0.009761 -0.491948 1.238818 0.369032 -0.415171 1.980595 2.066964 0.180408 -0.553874 -1.180511 -2.075199 0.329212 -1.398948 0.834816 -1.169907 1.291362
0.0 0.0 0.0 0.0 0.0 0.0 0.0 0.0 0.0 0.0 0.0 0.0 0.0 0.0 0.0 0.0 0.0 0.0 0.0 0.0 0.0 0.0 0.0 0.0 0.0 0.0 0.0 0.0 0.0 0.0 0.0 0.0 0.0 0.0 0.0 0.0 0.0 0.0 0.0 0.0 0.0 0.0 0.0 0.0 0.0 0.0 0.0 0.0 0.0 0.0 0.0 0.0 0.0 0.0 0.0 0.0 0.0 0.0 0.0 0.0 0.0 0.0 0.0 0.0 0.0 0.0 0.0 0.0 0.0 0.0 0.0 0.0 0.0 0.0 0.0 0.0 0.0 0.0 0.0 0.0 0.0 0.0 0.0 0.0 0.0 0.0 0.0 0.0 0.0 0.0 0.0 0.0 0.0 0.0 0.0 0.0 0.0 0.0 0.0 0.0
0.002032 0.043997 -0.006514 0.131291 -0.075885 -0.054957 -0.095164 0.040886 -0.112647 -0.065852 0.063442 0.118601 -0.04503 -0.021299 0.058855 0.179685 0.034436 0.132748 -0.079197 0.144533 0.122313 0.189648 0.468778 -0.106892 -0.004069 0.034936 -0.088599 -0.126497 0.18031 -0.022684 0.050055 0.215785 0.029565 0.096818 0.099808 -0.214576 -0.053866 0.029088 -0.148497 0.028819 -0.046956 -0.0674 -0.034951 -0.052592 0.22168 0.016655 0.053511 -0.099926 -0.106053 0.071742 0.245748 -0.206344 -0.06173 0.192253 0.198888 -0.003053 -0.010607 -0.060345 0.06646 0.021452 0.161906 -0.233935 0.046332 -0.1777 -0.051247 -0.060172 -0.037077 -0.025885 -0.045866 -0.03447 -0.061992 -0.043131 0.08833 -0.051287 0.043175 -0.00912 -0.063761 -0.188286 0.121403 -0.016694 -0.040091 -0.148426 0.094812 -0.047968 -0.071051 -0.216456 -0.055867 -0.005589 -0.014422 0.14505 -0.149453 -0.179499 0.115522 -0.03679 0.008334 -0.110684 0.010639 -0.030705 -0.207444 -0.076424
-0.020172 0.267531 0.01011 -0.070243 -0.164767 0.048139 -0.018786 0.211137 0.05407 -0.147125 0.50815 -0.326073 -0.367965 -0.258042 0.24794 -0.265735 -0.304189 0.163625 -0.160495 -0.509336 0.150125 0.04102 0.290338 -0.075247 -0.017694 -0.135188 -0.107975 0.368166 0.10484 0.147221 -0.126815 -0.099208 0.142949 -0.109188 -0.105988 -0.196531 -0.202576 0.003435 0.045777 0.445085 0.030191 0.154942 0.040784 -0.359961 0.519933 -0.478788 -0.202829 0.294871 0.020136 0.008101 0.261785 -0.251837 -0.093513 0.1928 0.264957 0.011494 0.083496 0.116592 0.486826 -0.158051 0.193505 0.228926 -0.097021 -0.087205 -0.134816 -0.442904 0.505253 -0.480423 0.237335 0.08203 -0.470299 -0.131144 -0.262702 -0.319137 -0.338844 -0.376533 0.158437 -0.210766 0.0838 0.026395 0.294568 -0.279437 0.145963 -0.30803 0.197464 0.03756 0.00103 -0.143047 -0.097548 -0.135926 0.152767 0.514809 0.250605 0.06612 0.232616 0.030314 -0.120903 0.168622 -0.23717 -0.482027
-0.047191 -0.215219 0.047254 -0.033936 -0.007318 0.091036 -0.075893 0.099148 0.082429 -0.120221 0.151486 0.037624 -0.015532 -0.120659 0.162267 0.099076 -0.158279 0.185461 0.006675 0.084648 -0.05489 0.137767 0.161371 0.103589 -0.188435 -0.143796 0.010512 -0.109345 0.201233 -0.08477 0.019157 0.096824 -0.041447 0.133861 0.007303 -0.020107 -0.030396 -0.062785 0.1781 0.246226 0.146808 0.006085 -0.120123 0.048367 -0.041586 -0.014097 -0.068033 -0.150671 -0.047447 0.104696 0.187164 -0.122872 -0.19213 0.006666 0.150518 0.088076 -0.143317 -0.025514 0.030097 -0.138196 0.00878 -0.155989 -0.050417 -0.155063 -0.130251 -0.068828 0.039705 0.035826 0.115182 -0.197237 0.001566 -0.105904 0.022037 -0.107049 -0.012522 -0.13664 -0.2807 0.045332 -0.103546 -0.196357 0.068706 4.4E-5 0.037516 -0.091128 -0.110715 -0.036133 -0.122729 0.043857 0.00834 -0.014609 -0.224487 0.117263 0.008158 0.138046 0.013332 -0.253237 0.205349 -0.244542 0.083583 -0.058641
1.035361 1.319725 0.388011 1.220811 -0.236045 1.447081 -1.78193 3.520004 0.063077 -1.681862 0.545208 0.767849 -1.479444 -1.152839 0.669301 0.685509 -2.946755 -2.239533 -1.187422 -1.793336 0.607402 0.130687 0.296681 -1.569517 1.825066 1.715849 -1.639836 0.849724 -1.742086 0.427502 3.84844 -1.377145 0.671096 -1.312902 -1.152387 0.705431 2.180344 2.97496 1.402098 -0.909545 -1.649212 -0.253421 1.186817 1.193823 3.167747 -0.387379 -0.12198 0.872223 0.13285 0.490844 0.029473 1.345032 0.297008 2.724698 -1.656047 -0.109585 1.500583 -1.148555 -3.658389 1.022988 -1.211381 0.342059 -0.023586 1.22536 -1.874871 -1.957746 -0.188066 -0.235303 -0.067175 1.107354 1.448404 0.838301 1.67396 -0.238039 -0.504146 -1.334739 0.688005 0.37731 -2.953094 0.650433 0.307563 -0.457962 -1.694326 2.40152 -0.816994 0.208705 1.853393 0.15935 -0.989952 1.089235 1.087388 -2.786835 -2.248864 -0.788939 0.405791 0.907533 -1.516669 1.970717 -0.345554 -0.134731
0.100692 -0.157131 0.139302 0.123578 0.151543 0.178422 -0.012679 -0.103362 0.233611 0.029945 -0.033496 -0.02353 -0.150988 -0.078962 0.230475 0.006161 -0.201667 0.084881 -0.295978 -0.216595 -0.152078 -0.096403 -0.182565 -0.034674 -0.008271 0.123985 -0.225344 0.060741 0.064737 -0.027452 -0.020276 -0.040379 -0.062847 -0.021902 -0.155636 0.098869 0.118253 -0.054786 -0.035252 0.089718 -0.093516 0.108242 -0.165133 -0.010665 -0.002421 -0.171869 -0.111112 -0.041381 -0.044332 -0.069941 -0.02046 0.052983 -0.30701 0.053758 -0.133805 0.122561 8.2E-4 0.037855 -0.034898 0.091687 -0.127096 0.09488 -0.140734 -0.009746 -0.040595 0.12427 0.130515 0.010606 0.177229 0.063676 0.149195 0.026542 -0.108012 0.401386 -0.015993 -0.159563 0.171247 0.017552 -0.091249 -0.185777 0.041517 -0.021989 -0.300138 0.0411 -0.232056 0.111526 -0.051533 0.011578 0.198834 -0.128702 0.184857 -0.029913 -0.123641 -0.092647 0.286203 -0.109599 0.093666 0.015337 -0.091583 0.060957
0.200904 -0.01684 -0.029817 0.033638 -0.007344 0.092336 -0.158259 -0.110032 -0.401329 -0.456277 0.309778 -0.053542 -0.236268 0.140506 -0.216422 0.090292 0.063884 0.277547 -0.046823 -0.121891 0.029699 0.118832 0.234561 0.0159 0.055583 0.135242 0.165695 -0.093214 0.066411 -0.415233 -0.068537 -0.106289 -0.06852 0.281903 0.00355 -0.030982 -0.069529 0.014295 0.104327 -0.061354 -0.141544 -0.164798 0.156999 -0.246416 -0.023132 0.139625 -0.264364 -0.226174 0.075237 -0.168719 0.159097 -0.28576 -0.304729 -0.146445 -0.275812 -0.05644 0.178467 0.005099 0.198583 -0.2791 -0.272695 -0.013749 -0.22123 -0.293257 0.037325 -0.297662 -0.237572 0.237371 0.358935 0.219423 0.096413 -0.056493 -0.023591 0.402633 0.272194 -0.119229 0.09818 -0.177848 0.17923 -0.161502 -0.382571 0.317795 -0.05668 -0.223205 0.081237 0.162253 0.343894 -0.201695 0.411875 0.205609 -0.114878 -0.246256 0.156829 -0.321168 -0.110197 0.152774 0.027164 -0.25173 -0.172774 0.063059
0.158352 0.089946 -0.037673 0.059807 0.029834 -0.178429 0.039955 0.119986 -0.317764 -0.206629 0.081548 -0.084251 -0.276492 0.096271 0.126398 0.077319 0.158062 0.149775 -0.03469 -0.062207 0.106189 0.11195 0.371319 -0.101739 -0.270936 0.075871 0.086054 0.112102 0.249057 -0.215628 0.034296 0.111698 -0.148026 0.050989 -0.063872 0.136253 0.039224 -0.163716 -0.028088 -0.127941 -0.024035 -0.292644 0.020534 -0.06234 -0.036335 0.032533 -0.099523 -0.127414 -0.044888 -0.184694 0.251524 -0.291112 -0.071167 -0.027549 0.103483 -0.028181 -0.087297 0.071544 -0.048557 -0.122094 0.110189 -0.193802 -0.038648 -0.024149 -0.27166 0.08103 -0.318202 -0.228048 -0.093503 0.016973 -0.084258 -0.241296 -0.016166 -0.068471 0.379892 0.310546 0.027565 -0.053866 0.16925 0.044499 0.084049 -0.231095 0.028206 -0.201007 -0.108057 0.280073 0.048948 0.022553 -0.044797 0.169553 0.007294 -0.002047 -0.087006 0.134925 -0.015258 0.138894 0.020142 0.007506 0.051576 -0.082593
-0.001869 -0.071124 -0.056942 -0.080621 0.020881 -0.153618 -0.054409 -0.001507 -0.058696 -0.076676 0.045071 -0.061449 0.05267 -0.136061 -0.00859 0.053973 -0.064466 0.082151 0.051975 0.044502 0.002055 -0.059495 0.041384 0.06425 -0.047371 -0.017485 0.027058 0.140939 0.103694 -0.144041 -0.102676 -0.151311 -0.082957 0.110198 0.115675 -0.064003 0.279648 -0.010062 -0.030638 0.010929 0.348887 -0.004713 -0.02258 0.041016 -0.1082 -0.010868 -0.075177 -0.007863 -0.125511 0.069994 -0.038417 0.031858 -0.125015 -0.035132 -0.063396 -0.004026 0.085508 0.061825 -0.036377 -0.072057 -0.051895 0.028024 -0.104227 0.002684 0.015483 0.076374 -0.119477 -0.054051 0.047189 0.107677 -0.045784 0.100375 0.152492 -0.097527 0.027916 0.069456 0.07552 -0.152919 -0.115447 -0.041765 0.040866 -0.02643 0.107185 0.045811 0.012949 -0.040632 0.031889 0.1827 0.086078 -0.10599 0.042661 -0.047947 -0.078111 0.121932 0.102813 -0.002451 0.119241 -0.059388 0.118373 0.099207
-0.019201 0.028111 0.019217 0.052324 -0.012545 0.076041 0.041859 0.132425 -0.042682 -0.25324 0.153679 -0.052639 -0.234426 0.154245 0.001178 0.07083 0.073083 0.160228 0.024133 -0.054811 0.001969 0.005439 0.181016 0.099355 -0.126409 -0.051701 0.037309 -0.123638 0.247936 -0.162055 0.114555 0.125901 0.087982 0.08593 -0.090916 0.032607 0.058566 -0.084423 -0.083684 -0.120125 -0.142636 -0.134573 0.099572 -0.067549 0.144656 -0.140025 -0.119758 0.069446 0.087216 -0.032862 -0.006618 -0.111395 0.032981 -0.031112 -0.118341 0.110071 -0.111936 0.153878 0.041608 0.007703 0.064796 -0.130385 0.030277 0.045725 -0.1256 0.149386 -0.11782 -0.166733 0.122695 0.114102 -0.065025 -0.01284 -0.004014 -0.036946 -0.052576 0.183617 0.039352 -0.109896 0.002856 -0.049741 0.098582 -0.079185 0.058208 -0.092538 -0.020486 -0.024785 0.136707 0.03449 -0.090652 0.201497 -0.097455 0.025029 -0.120762 -0.013839 -0.051103 -0.067125 -0.00444 -0.252706 0.02388 -0.108891
2.110775 0.214377 -1.694508 -2.340316 2.602146 0.869936 -0.483351 2.584187 -0.445392 0.524455 -3.477148 0.150854 -1.872952 -0.939927 2.389972 4.280438 0.765478 -3.797704 -2.155676 3.112508 0.676067 -0.774864 -1.190355 -1.91684 -0.688294 -1.361463 0.475042 -1.505714 0.311603 -0.067394 0.35747 -1.113014 0.349529 -1.028355 -1.166642 0.410035 1.69848 -2.650238 0.682073 -0.995824 1.040615 -4.611051 -1.34899 -1.156276 -0.10666 -3.045313 -0.710053 0.819696 1.147869 2.073893 4.434673 3.489056 1.784442 -0.032512 -1.299463 -1.386214 2.408625 -0.504103 -0.703006 -1.244782 -1.838963 0.22509 -1.482821 2.168308 1.13206 -0.908536 1.439721 -1.211439 -1.861292 -0.879464 0.826971 0.198323 -1.952888 2.690185 0.777734 -1.836749 -2.221488 -2.06431 2.353708 2.06527 1.418024 2.218799 -0.597436 2.018738 -1.327816 -1.290302 3.330383 -0.672981 2.532296 -0.789134 -1.456009 -1.878234 -2.354273 0.544695 1.995238 2.132198 0.931493 0.946752 0.738947 1.530971
-0.055587 -0.024879 -0.095132 -0.105576 0.144029 0.076057 -0.061821 -0.015695 -0.148082 0.124611 0.15281 0.088171 0.026963 0.027312 0.085004 0.14632 -0.087824 0.229277 0.083812 -0.022445 0.047327 0.107496 0.190865 0.124383 0.037662 -0.290207 -0.042369 -0.050937 -0.007265 0.024754 -0.144668 -0.221973 -0.119292 0.162604 -0.147821 -0.159178 0.204559 -0.052188 0.196134 0.029413 -0.206649 0.038471 0.046959 0.245755 -0.20909 -0.21628 0.007198 0.100133 0.024292 0.018504 0.098815 0.136439 -0.246285 0.05936 0.041581 -0.011614 -0.101398 0.085889 0.04437 -0.047023 0.105535 0.119098 0.050504 -0.060198 -0.06233 -0.037827 0.141918 -0.030907 0.045634 -0.165694 0.104298 -0.061929 0.062084 -0.124255 0.118497 -0.04962 -0.137357 -0.16921 -0.097154 0.021473 0.105708 0.244284 0.067069 -0.25576 -0.005835 0.204486 0.121989 -0.042621 0.016268 0.115758 -0.004702 -0.106193 -0.056468 -0.075591 0.04228 -0.208913 0.051416 -0.1362 0.042066 -0.010223
-0.167083 -0.107108 0.179851 0.109552 -0.024213 0.229157 -0.075334 -0.070437 -0.095383 0.224548 0.109642 0.033348 -0.067277 0.172258 0.1025 -0.097087 0.07275 0.08372 -0.048898 0.027978 -0.092038 0.129573 0.121068 -0.016639 -0.051471 0.206066 -0.057988 -0.03292 0.161717 -0.096696 -0.254576 -0.039036 0.243231 0.132109 0.006361 0.039556 -0.111924 -0.13768 -0.026979 0.009431 0.032213 0.298426 0.011437 -0.207073 0.049479 0.133506 0.130962 0.042425 -0.12671 -0.055215 -0.040495 -0.081002 -0.0113 0.131594 0.136972 0.066241 -0.142628 0.006467 0.082331 -0.023632 0.12726 -0.08866 -0.004003 0.125163 0.172583 0.066611 0.037084 0.379506 0.156894 -0.038809 -0.05146 -0.216693 0.014711 -0.345933 -0.145663 0.265907 -0.165782 -0.251349 0.045053 0.094664 -0.003293 0.027445 -0.371954 -0.293996 0.223192 0.186416 0.033611 0.26388 0.406974 -0.063905 -0.0194 0.070162 0.237415 -0.230282 0.156302 0.152369 -0.00777 0.17857 0.087777 -0.019579
0.163638 0.022074 0.113841 -0.023072 -6.93E-4 -0.041759 -0.005872 -0.029067 0.021581 0.137374 0.212805 0.129077 -0.036653 0.021838 0.09407 0.017651 0.060458 0.082275 -0.040416 -0.078416 -0.09889 0.106136 -0.009218 0.030619 0.012424 -0.066087 -0.021785 0.021886 -0.011323 -0.190466 -0.027359 -0.093414 0.012287 0.108753 -0.008494 -0.203645 -0.116071 0.021036 -0.036116 -0.129988 0.004966 0.042436 0.055368 0.106689 0.142773 0.118336 -0.123389 -0.051977 0.037604 0.126407 -0.021407 0.137933 0.111343 0.02776 0.152151 0.036221 -0.022351 0.055823 -0.031077 -0.04194 -0.090857 0.039408 0.086757 -0.167938 -0.138669 0.199873 0.021458 0.056772 -0.027823 -8.76E-4 0.182338 0.194175 0.08631 -0.006016 -0.077001 -0.052767 -0.022077 -0.094115 -0.145112 -0.041266 -0.042396 0.029745 -0.076074 0.081713 -0.096983 0.004021 -0.04836 -0.035229 -0.07549 0.113304 0.001558 0.04237 -0.10916 0.028722 0.047159 0.003006 -0.048425 0.020975 0.02368 0.04439
-0.124276 -2.054402 -0.343635 1.81865 -2.16991 1.782205 0.82505 0.982572 -2.067194 -1.156199 0.298204 0.610046 -4.440783 -0.456446 1.442584 1.853605 -0.146562 2.077692 0.195573 -0.915147 0.599326 0.594442 1.900077 -1.11832 -0.711089 1.802311 -0.934321 4.923428 0.778654 -0.69484 -0.912197 0.151877 -0.031909 -0.121674 -3.551828 0.057548 0.447763 -0.623346 2.678004 -1.345078 -3.955954 -4.075293 -1.036935 -1.334541 -0.166985 -0.129224 -1.031956 -2.988586 3.17002 0.328676 1.405671 0.778493 -1.163548 2.145235 -1.779305 1.663516 1.887483 0.848116 -1.423908 -2.594846 -0.535155 -0.166339 0.121853 -0.577388 -1.832659 -2.926389 -3.361567 0.159506 -0.752505 4.326194 2.90284 -1.469079 -0.616227 0.788738 -0.806913 2.13246 1.096647 1.237584 -0.288162 0.179698 1.570163 0.091941 -1.524701 -1.102449 -1.615839 -0.364109 -2.101004 -0.663784 -0.318699 0.051272 0.686067 -1.094801 1.568548 -3.03993 1.893188 -1.377119 -2.094228 3.564402 -2.235058 -0.581437
-0.02531 0.081993 -0.005137 -0.039057 0.117937 0.06651 0.076878 -0.18508 -0.171057 0.097363 0.14776 0.096218 -0.171549 -0.085013 -0.023483 0.154305 -0.047997 0.039036 0.006998 0.109328 -0.002818 0.085333 0.1339 -0.06548 0.081733 0.027309 -0.103573 0.035726 0.111819 -0.039711 -0.170842 0.085529 -0.063207 0.096632 8.7E-4 0.029495 -0.005556 -0.060203 0.118512 -0.063106 -0.077201 0.040769 0.185257 -0.003166 0.113601 -0.03562 -0.226528 -0.143118 0.051859 -8.2E-5 0.08356 -0.138536 -0.153182 0.077226 0.009262 -0.06305 0.030643 -0.08238 -0.097813 -0.116094 -0.088721 -0.045615 0.02385 -0.139319 -0.144107 -0.137175 -0.102071 0.054531 0.02733 -0.141925 0.076189 0.004581 -0.018081 -0.204457 -0.02278 -0.130955 -0.302245 0.14104 0.008163 0.048636 -0.007859 -0.008358 0.024996 -0.148797 -0.05685 0.070791 0.005948 -0.06295 0.058772 0.229771 0.078965 -0.068855 -0.012802 -0.142006 0.07906 0.164217 0.036623 -0.073095 -0.093477 -0.148304
