-0.07555 -0.134649 9.81E-4 0.066902 -0.008468 0.197472 0.136262 0.008161 -0.004177 0.14494 0.048036 0.176647 -0.028504 -0.048088 -0.060923 0.075324 -0.052052 0.055278 0.136034 -0.046414 -0.111127 -0.109821 -0.031986 0.070788 0.287691 -0.27386 0.059649 0.142605 0.097785 -0.082127 -0.142776 -0.084975 -0.009139 0.13371 0.150226 -0.033948 0.100494 -0.161805 0.200048 -0.113088 -0.193666 0.134301 0.107839 0.153996 -0.02583 -0.102589 0.019957 -0.167462 -0.089285 -0.080432 -0.027253 0.011421 -0.123509 0.047813 -0.11853 0.160271 0.172744 0.035336 -0.075497 -0.17292 -0.05128 0.005391 0.151601 -0.071361 -0.072314 -0.085409 -0.063029 -0.060281 0.042147 -0.037277 -0.091356 -0.181351 -0.001536 -0.057231 0.006275 -0.083538 -0.255018 -0.054278 -0.254964 -0.070801 -0.024028 0.0541 0.108463 -0.18654 -0.233655 0.085816 0.053031 -0.039385 0.135168 0.165729 -0.076049 0.016285 -0.142657 -0.105998 -0.017943 -0.10915 0.062525 0.092294 0.019403 -0.00717
-0.134008 -0.036238 0.101819 0.06978 -0.145865 -0.11309 -0.163883 -0.247747 -0.146164 0.193955 -0.051005 0.077787 -0.090948 -0.019506 0.03762 0.109274 -0.186923 0.113068 -0.090135 -0.10643 0.04886 0.298286 0.155327 0.059199 0.138458 -0.017476 0.036106 -0.046772 0.004943 -0.02638 0.067951 0.115696 -0.14996 0.043632 -0.1831 0.03796 0.093955 -0.153344 -0.259589 -0.106328 -0.084317 0.174354 0.166607 -0.048267 -0.075681 -0.092909 0.019737 0.073501 -0.119044 0.354156 0.04165 0.064732 -0.045174 -0.111477 0.072813 0.085033 0.143712 -0.014393 0.058013 -0.233979 -0.036168 -0.17949 0.005496 -0.108741 -0.210584 -0.144125 0.11685 0.11331 0.155707 0.156336 -0.052404 -0.018173 0.098398 0.03714 0.121746 0.074775 -0.161222 0.01243 -0.237337 -0.099386 0.093821 0.035655 0.158608 -0.17074 -0.082466 -0.143209 -0.134011 -0.007119 0.162059 0.181588 0.049815 0.034453 -0.093726 0.060205 -0.036982 -0.140768 0.023987 -0.092753 -0.052416 0.060204
-0.021036 -0.188623 0.138492 0.102153 -0.037262 0.010201 -0.038628 0.047735 -0.171132 0.210905 0.151942 0.205359 0.152366 -0.021651 0.071972 0.138844 0.057871 0.206774 0.235995 0.103519 0.005348 0.06255 0.120182 0.053022 0.038634 -0.222823 -0.041613 0.025005 0.107309 -0.108681 -0.073721 -0.099586 -0.001032 -0.008776 -0.073218 -0.053329 -0.017532 -0.02374 -0.003238 -0.099007 -0.190598 0.212902 0.237921 0.089574 0.086833 -0.038016 -0.062258 -0.115358 -0.154121 -0.004609 -0.003856 -0.179057 -0.077914 0.043648 0.027654 -0.137898 0.085846 -0.039577 0.029291 -0.152 0.026018 -0.180648 0.056705 -0.125588 -0.044279 -0.091858 0.160561 -0.1916 0.142984 -0.09915 -0.04716 0.012775 -0.1339 -0.001082 -0.055588 -0.114543 -0.11378 -0.011095 -0.065965 -0.111169 -0.065489 -0.017951 0.025608 0.031221 -0.078672 -0.037713 0.093777 -0.133661 0.041973 0.112997 -0.007962 0.050439 -0.13413 0.003685 0.04125 -0.127316 0.052599 0.077239 -0.088381 -0.083783
0.051808 0.017909 0.085155 -0.060444 -0.057395 -0.038112 -0.021832 4.21E-4 -0.044129 -0.197069 -0.035831 0.082055 -0.089886 0.023977 0.076578 0.1047 0.085872 -0.048943 -0.102234 -0.158831 -0.097398 0.112284 -0.086751 -0.166097 0.042151 -0.003775 0.053049 0.015015 0.171023 0.032037 -0.167228 -0.042769 -0.001751 0.129104 0.095717 -0.015765 -0.123331 0.046481 0.001069 -0.074753 0.21425 -0.151695 0.107777 0.131847 0.162756 -0.059077 0.094894 0.220342 0.015967 -0.007782 -0.029612 0.036834 0.047268 -0.059479 0.066615 -0.145582 -0.097719 0.035055 -0.078837 0.074138 -0.077498 -0.038998 -0.208034 -0.178891 -0.009334 0.114334 -0.210563 -0.045906 0.12167 0.070358 -0.037289 0.014921 -0.045276 -0.027204 -0.016818 -0.003616 0.040959 -0.058463 0.01706 0.150279 -0.093766 -0.061884 0.014857 -0.135344 -0.035199 -0.075126 0.095997 0.180111 1.91E-4 0.060103 0.141862 0.084796 -0.092945 0.174676 -0.029251 0.062299 -0.107607 -0.137936 -0.04503 0.020919
-0.066437 -0.092262 0.20651 0.12308 0.037427 -0.03114 -0.085206 0.05502 -0.084668 0.095572 0.043874 0.054121 0.011785 -0.172491 -0.001026 -0.126019 0.03982 0.148044 0.139412 0.101951 -0.046342 0.115553 0.170058 -0.012527 -0.13643 0.064969 -0.118808 -0.115757 0.052639 -0.057597 -0.176863 0.229836 0.009377 0.249157 -0.056519 -0.008866 0.033916 -0.008748 -0.099761 0.044775 -0.00959 0.309738 0.1407 0.021772 0.068294 0.032833 0.172205 0.061869 -0.209061 0.028674 0.006718 0.126366 -0.068182 -0.116445 0.080244 -0.148131 0.012839 -0.107345 0.018894 -0.058058 -0.013308 -0.085134 -0.051306 -0.106379 -0.027048 0.006252 0.107546 0.042982 0.177589 -0.088319 -0.065284 0.116306 0.056094 0.092332 0.050274 -0.23424 -0.176344 -0.058353 0.004087 -0.093256 -0.003132 0.221259 0.091115 -0.117862 0.050354 -0.064759 -0.041719 -0.063826 0.090675 -0.046661 -0.064002 -0.134371 0.008086 0.184792 -0.079487 0.022554 0.127205 0.062445 -0.123089 0.027522
0.060846 -0.053351 0.033281 0.074401 -0.07969 -0.046321 0.119118 -0.095984 -0.094865 0.067547 0.090901 0.089243 -0.0764 -0.004547 0.037832 -0.033474 -0.060896 0.025066 -0.015052 -0.012662 0.124503 0.0828 0.066076 -0.05539 0.043968 0.076902 0.104485 0.124637 0.096296 -0.118331 -0.035353 0.044118 -0.110931 0.154938 -0.083084 -0.028324 -0.041084 -0.001426 -0.100844 0.079992 -0.112093 0.038176 0.076602 0.142654 0.04754 -0.01391 -0.132098 0.056726 -0.114874 0.089419 0.105809 0.040596 0.035649 0.151244 -0.031479 -0.103075 0.067694 -0.080404 0.08269 0.149877 0.120193 0.01412 -0.119532 -0.14908 -0.100873 0.062667 0.00313 0.026021 -0.022018 -0.127118 0.010111 -0.035075 0.063683 -0.040634 0.072166 0.029057 -0.086574 0.066886 -0.099243 0.023901 -0.017553 0.069358 0.046244 -0.144416 -0.084685 0.037239 0.134683 0.135442 0.115457 0.094827 0.074458 -0.075451 -0.02786 -0.055622 -0.162258 -0.185542 0.056694 -0.074231 -0.011386 0.024371
0.352905 0.550922 -1.128945 -0.511125 0.774489 1.405335 -0.371647 0.106012 -0.779785 -0.640302 -0.68578 1.570717 -0.712288 -0.706705 -0.789609 -0.045278 -1.599722 -2.840112 -0.089543 -1.158838 -1.862605 -0.62748 -0.063542 -0.468696 0.750564 0.033551 -0.772222 -0.188991 -0.163115 0.455978 0.038455 -0.779588 0.172303 -1.114448 -0.548246 -0.008155 1.66721 -0.744821 -0.15746 -2.668482 -0.304702 -0.905716 0.479063 0.151803 -0.94063 -0.044338 -0.906122 -0.456182 0.281891 0.268287 0.47007 0.628019 0.328428 1.471286 -2.345457 0.072073 -0.345477 -0.998199 -1.496897 -0.053061 0.351206 -0.934426 0.295591 0.07336 0.24092 0.486976 0.390085 -0.621556 0.375246 -0.02625 1.957847 1.014101 0.004675 0.08874 -0.900479 -0.462149 0.922254 1.355385 -1.048724 0.105897 1.254466 0.410718 0.321258 1.066395 -0.171761 -0.128774 0.315556 0.697301 -0.180925 0.555334 1.005586 -0.891677 -1.232923 -1.994189 -0.567812 0.204184 -0.947385 -0.051526 -0.987029 0.725141
0.007955 -0.062383 -0.106998 -0.009727 0.042197 0.081593 0.07646 -0.028361 -0.047744 0.018275 0.170943 0.167494 -0.038772 -0.040104 -0.018024 2.88E-4 -0.060884 -0.13694 0.110762 -0.197547 0.028404 -0.029786 0.202511 -0.13807 0.067137 0.100521 0.024887 0.031325 0.085583 -0.045476 -0.154623 -0.010466 -0.125091 -0.10461 0.129572 0.005984 -0.00775 0.029347 0.149634 -0.303045 0.093628 6.58E-4 0.017732 0.108308 -0.156941 -0.069543 0.089052 -0.020341 0.036073 -0.087199 0.131165 0.096075 0.056889 0.077081 -0.153793 -0.181327 0.004884 -0.003695 0.040108 0.105429 -0.112253 0.083522 0.102765 -0.074736 -0.056694 0.318933 -0.008328 -0.090438 0.042074 0.209402 0.031804 0.033859 0.109246 0.221004 -0.156028 -0.007181 -0.1571 -0.010278 0.09787 -0.007935 0.154272 0.077444 0.088964 -0.00433 0.033187 0.042283 -0.028623 0.121171 0.063656 0.012684 0.007859 0.037586 -0.167387 0.068784 -0.037145 0.017937 -0.086293 0.096521 0.039077 0.147418
-0.121287 -0.108394 3.53E-4 -0.055897 -0.064583 0.026114 -0.194914 -0.048396 -0.066645 0.229602 0.003945 0.030861 0.010234 0.217641 0.091942 -0.038061 0.209849 0.1078 0.074356 0.060769 0.041545 0.166036 0.223918 0.172485 0.189309 -0.038757 -0.154656 -0.156357 0.031675 -0.07074 0.107018 -0.044059 -0.062494 0.012109 0.022236 -0.104913 -0.054034 0.054172 -0.029803 0.141832 0.017023 0.047179 0.169537 -0.00873 0.086899 0.034143 0.086689 -0.059992 -0.149322 0.15537 0.024556 -0.03873 -0.138223 -0.078661 0.057828 -0.065039 0.086431 -0.006362 0.005318 0.150889 0.004169 0.047161 0.039763 -0.045878 -0.053199 -0.143621 -0.0636 0.020661 -0.058937 0.043564 0.069131 -0.017882 0.084783 0.090053 -0.032171 -0.100371 -0.022633 -0.028596 -0.082526 -0.107309 -0.039556 0.031295 -0.05215 -0.018612 -0.079234 -0.066888 0.047575 0.108498 0.067459 -0.005696 -0.162877 -0.060361 -0.005374 0.025119 -0.156628 0.042116 0.13788 -0.065495 0.081464 0.126153
-0.142513 -0.102009 0.054173 -0.083394 -0.084077 -0.148876 -0.165661 0.073994 -0.088852 0.044298 0.078733 0.080022 0.149374 -0.23051 0.126974 0.018586 0.02542 0.25193 0.247349 0.113536 0.029893 0.394456 0.15285 0.080088 -0.150849 -0.025481 0.093683 -0.015861 0.060683 0.025994 -0.156636 0.038484 -0.010837 0.060786 0.050489 -0.036051 -0.0431 0.003458 -0.057014 0.113297 0.056364 -0.001791 0.076296 -0.224297 0.121893 -0.032403 0.135005 -0.036454 0.006915 0.126555 0.199576 0.092683 -0.13221 -0.015458 0.17706 -0.282461 0.178776 -0.042008 0.097865 -0.135717 0.012142 -0.110853 0.001537 -0.202053 -0.00465 0.157084 0.072582 0.076219 0.247249 0.01305 -0.162891 0.112148 -0.145706 -0.030277 0.202826 -0.098372 0.008193 0.012796 0.044892 0.075083 0.075652 0.019461 0.175963 -0.069228 -0.030278 0.189071 -0.05336 0.067037 0.062114 -0.052575 -0.132962 -0.138156 -0.103095 -0.008441 0.048456 -0.181015 0.078678 0.004789 -0.041996 0.205382
-0.087255 -0.05591 0.054305 -0.024922 0.12279 0.041971 0.011628 -0.098172 0.13061 0.088978 0.139548 0.154385 0.10967 -0.074364 0.077608 0.342633 -0.019875 0.008986 0.121981 0.055307 -0.003396 0.250389 -0.003606 -0.027202 -0.077535 -1.16E-4 -0.00206 0.156913 0.196292 -0.041947 -0.256602 -0.075561 -0.331833 -0.028169 -0.227118 -0.023069 -0.031505 -0.123196 0.067817 0.109003 -0.150311 -0.176863 -0.003222 0.297853 0.06886 0.054723 0.197442 -0.009663 0.124548 -0.115984 -0.107457 -0.134223 -0.057877 0.014351 -0.020055 -0.038021 0.086742 0.251573 0.36257 0.003758 0.053095 -0.086013 -0.02227 -0.136233 -0.017961 0.053643 0.053971 -0.264445 0.141244 -0.001727 0.102822 -0.045402 0.072919 -0.05572 -0.011331 -0.015733 -0.123198 -0.088768 0.042072 -0.014455 -0.084923 -0.030051 0.101633 -0.145179 0.084003 0.006179 0.137993 -0.044962 0.159725 0.029218 -0.030525 -0.103093 -0.1477 -0.002794 0.039423 -0.078334 0.05768 0.210979 -0.090714 -0.257268
2.591633 1.608701 -2.087245 2.00752 3.012652 4.995656 0.847355 -1.594905 -0.365708 -1.629805 -1.650237 3.712017 -0.231463 -0.537534 -2.036098 2.002639 -0.696666 -4.310136 -1.477319 -1.356504 -0.581823 -1.830239 -0.272773 -1.648095 0.090509 0.008711 0.330842 0.396714 2.341035 -0.526067 1.155793 -1.730906 -1.010387 -1.342646 -1.939355 0.734869 0.727366 0.700702 1.516974 -2.133831 -0.280653 -3.051674 0.017123 0.532043 1.478449 0.375441 0.920129 1.548929 1.087478 0.668327 0.707416 3.249232 -0.362503 1.273221 -2.929682 -0.245389 1.633444 -0.119836 0.103459 -3.445175 0.513245 0.427807 0.738792 1.448203 0.501908 0.362882 -0.731533 -0.391201 0.037778 3.053553 4.030229 1.793904 1.24136 0.081706 -1.401954 -0.638804 -0.487445 -0.267924 0.012844 0.538179 -0.241935 -0.068756 1.351665 -0.112558 0.001814 0.447262 0.833441 -0.023876 1.212707 1.514635 -0.568611 0.376173 -3.663739 -4.345135 -0.444319 2.139788 -2.53093 0.92131 -1.399435 1.763954
-0.134008 -0.036238 0.101819 0.06978 -0.145865 -0.11309 -0.163883 -0.247747 -0.146164 0.193955 -0.051005 0.077787 -0.090948 -0.019506 0.03762 0.109274 -0.186923 0.113068 -0.090135 -0.10643 0.04886 0.298286 0.155327 0.059199 0.138458 -0.017476 0.036106 -0.046772 0.004943 -0.02638 0.067951 0.115696 -0.14996 0.043632 -0.1831 0.03796 0.093955 -0.153344 -0.259589 -0.106328 -0.084317 0.174354 0.166607 -0.048267 -0.075681 -0.092909 0.019737 0.073501 -0.119044 0.354156 0.04165 0.064732 -0.045174 -0.111477 0.072813 0.085033 0.143712 -0.014393 0.058013 -0.233979 -0.036168 -0.17949 0.005496 -0.108741 -0.210584 -0.144125 0.11685 0.11331 0.155707 0.156336 -0.052404 -0.018173 0.098398 0.03714 0.121746 0.074775 -0.161222 0.01243 -0.237337 -0.099386 0.093821 0.035655 0.158608 -0.17074 -0.082466 -0.143209 -0.134011 -0.007119 0.162059 0.181588 0.049815 0.034453 -0.093726 0.060205 -0.036982 -0.140768 0.023987 -0.092753 -0.052416 0.060204
-0.021324 -0.039153 -0.014441 0.066215 0.058264 0.207635 -0.129695 -0.017902 -0.118093 0.148086 0.158831 0.120732 0.181259 -0.093651 -0.123138 0.004215 0.253314 0.221271 0.16339 0.147812 0.073158 0.024772 0.193841 -0.148561 0.071864 -0.129725 -0.029306 0.16593 0.050502 -0.063307 -0.073863 -0.021668 0.077038 0.08325 -0.093629 -0.155822 -0.113183 -0.024856 0.025725 -0.127271 0.110033 0.030679 0.108319 -0.196887 0.045526 -0.136131 -0.037816 -0.091241 -0.080641 -0.100953 -0.121871 0.090993 -0.070181 0.004153 0.130305 -0.114174 0.142565 -0.010621 0.192561 -0.081597 0.045289 -0.024995 -0.160139 -0.19662 0.132416 -0.064846 0.170868 0.151277 0.16749 -0.065209 -0.108396 0.0085 -0.052578 -0.032798 -0.013235 -0.164544 -0.006409 0.113417 -0.032051 0.021523 0.017565 0.053489 0.152426 -0.078722 0.154766 -0.064145 0.037156 0.00948 0.145831 -0.029108 0.048925 -0.061878 -0.006918 0.078926 -0.228184 0.006635 0.21884 0.16755 0.106487 0.032002
-0.07555 -0.134649 9.81E-4 0.066902 -0.008468 0.197472 0.136262 0.008161 -0.004177 0.14494 0.048036 0.176647 -0.028504 -0.048088 -0.060923 0.075324 -0.052052 0.055278 0.136034 -0.046414 -0.111127 -0.109821 -0.031986 0.070788 0.287691 -0.27386 0.059649 0.142605 0.097785 -0.082127 -0.142776 -0.084975 -0.009139 0.13371 0.150226 -0.033948 0.100494 -0.161805 0.200048 -0.113088 -0.193666 0.134301 0.107839 0.153996 -0.02583 -0.102589 0.019957 -0.167462 -0.089285 -0.080432 -0.027253 0.011421 -0.123509 0.047813 -0.11853 0.160271 0.172744 0.035336 -0.075497 -0.17292 -0.05128 0.005391 0.151601 -0.071361 -0.072314 -0.085409 -0.063029 -0.060281 0.042147 -0.037277 -0.091356 -0.181351 -0.001536 -0.057231 0.006275 -0.083538 -0.255018 -0.054278 -0.254964 -0.070801 -0.024028 0.0541 0.108463 -0.18654 -0.233655 0.085816 0.053031 -0.039385 0.135168 0.165729 -0.076049 0.016285 -0.142657 -0.105998 -0.017943 -0.10915 0.062525 0.092294 0.019403 -0.00717
-0.045549 -0.019643 0.046605 0.01937 -0.048165 0.002386 0.133692 -0.105972 -0.036092 0.01926 -0.041897 0.101992 -0.024171 -0.015948 -0.078548 0.018259 -0.021959 -6.9E-5 0.068206 0.037825 0.056655 -0.263488 0.019989 0.022684 -0.095743 0.148716 0.020395 0.005975 0.24558 -0.064396 -0.038624 0.103727 -0.009889 0.096239 -0.304886 0.02822 0.080687 0.038994 0.079709 -0.050449 0.091042 0.026191 0.163824 -0.046615 -0.100267 0.010837 -0.087407 0.084683 -0.041542 -0.01353 0.034989 -0.127666 0.142675 -0.144064 -0.010746 0.042543 -0.055325 -0.066353 -0.06669 -0.203929 0.043696 -0.15489 0.225267 -0.112238 -0.083936 0.01865 0.080721 -0.045273 0.053165 0.012791 -0.251947 -0.087307 -0.030465 0.051097 -0.029058 -0.055214 -0.077598 -0.017701 0.140202 -0.094673 -0.079917 0.236495 -0.033887 0.011453 -0.003383 0.141896 -0.034788 -0.14658 0.023186 0.099968 -0.072668 -0.031315 -0.073928 0.05957 0.035095 -0.094544 -4.16E-4 0.006228 0.001092 -0.050299
0.069766 -0.011048 -0.014419 0.290607 0.040707 0.137698 -0.009331 -0.024271 0.023541 -0.16361 0.004824 -0.036287 -0.00129 0.167759 0.02262 0.033359 -0.032771 0.186868 -0.04891 0.056829 -0.145361 0.144015 -0.065314 0.169126 -0.311133 -0.053071 0.054974 -0.135815 0.127857 -0.097544 -0.025497 0.031926 -0.190796 0.039148 -0.036064 -0.029292 -0.095998 -0.073453 -0.059189 -0.09897 -0.077609 0.010518 -0.045171 0.177092 0.067156 0.041795 -0.097582 0.118979 -0.047412 0.297339 0.048036 -0.110288 -0.018331 0.171456 0.067953 -0.119721 0.016506 0.213966 0.180972 -0.12366 0.108239 0.014544 0.058527 -0.074968 -0.241404 -0.065291 0.089472 0.017881 0.075984 -0.202287 -0.006559 -0.121644 0.068455 -0.113081 -0.010658 -0.120158 -0.132483 -0.065399 -0.127378 -0.050673 0.116181 0.098315 0.076191 0.136896 0.06151 -0.097621 0.228361 0.094828 0.156419 0.030722 -0.110045 -0.014032 0.194809 0.225637 -0.028482 -0.269186 0.007931 0.105414 0.012452 0.228086
-0.109163 -0.191478 0.176938 0.158747 -0.094603 0.014841 -0.097218 0.023553 -0.118593 0.29949 0.062688 0.138529 0.020623 0.106482 0.050719 0.08577 0.066896 0.274331 0.045083 0.035189 -0.17428 0.162765 0.114625 0.100983 -0.212349 0.005975 -0.044796 -0.0677 0.13026 -0.162669 -0.063661 -0.080109 -0.010793 0.127913 -0.205086 0.034233 0.016162 -0.138748 -0.03618 0.060254 -0.004051 0.254393 -0.064235 -0.256121 0.010128 -0.088343 0.124967 -0.071961 -0.124844 0.025526 0.107904 -0.098654 2.27E-4 0.06325 0.167935 0.066961 -0.050435 -0.029641 0.157162 -0.015336 0.072403 0.002033 -0.05103 0.012141 -0.007908 0.027512 0.104649 0.051594 0.084238 0.010704 -0.124188 -0.04354 0.016384 -0.051366 -0.095012 0.002764 -0.100361 -0.193219 0.091158 0.018723 0.004189 0.090707 0.054073 -0.281747 0.119344 0.007114 -0.050421 0.145364 0.172627 -0.030182 -0.154156 -0.020021 0.013087 0.026662 0.130919 -0.147982 0.047687 -0.05669 -0.013603 0.0402
2.591633 1.608701 -2.087245 2.00752 3.012652 4.995656 0.847355 -1.594905 -0.365708 -1.629805 -1.650237 3.712017 -0.231463 -0.537534 -2.036098 2.002639 -0.696666 -4.310136 -1.477319 -1.356504 -0.581823 -1.830239 -0.272773 -1.648095 0.090509 0.008711 0.330842 0.396714 2.341035 -0.526067 1.155793 -1.730906 -1.010387 -1.342646 -1.939355 0.734869 0.727366 0.700702 1.516974 -2.133831 -0.280653 -3.051674 0.017123 0.532043 1.478449 0.375441 0.920129 1.548929 1.087478 0.668327 0.707416 3.249232 -0.362503 1.273221 -2.929682 -0.245389 1.633444 -0.119836 0.103459 -3.445175 0.513245 0.427807 0.738792 1.448203 0.501908 0.362882 -0.731533 -0.391201 0.037778 3.053553 4.030229 1.793904 1.24136 0.081706 -1.401954 -0.638804 -0.487445 -0.267924 0.012844 0.538179 -0.241935 -0.068756 1.351665 -0.112558 0.001814 0.447262 0.833441 -0.023876 1.212707 1.514635 -0.568611 0.376173 -3.663739 -4.345135 -0.444319 2.139788 -2.53093 0.92131 -1.399435 1.763954
-0.137514 -0.134971 0.099006 0.146988 -0.098185 0.068084 -0.164507 -0.229299 0.101364 0.120622 0.181455 0.110823 0.107886 -0.072074 0.127818 0.107487 0.040277 0.254179 -0.032977 0.177501 -0.298456 0.174294 0.180347 0.126721 -0.255385 -0.14167 -0.025999 -0.012038 0.235259 -0.196329 -0.09605 0.005696 -0.092278 0.0551 -0.248856 -0.188507 -0.049495 0.002847 -0.074312 0.060824 -0.062906 0.09224 -0.01756 -0.088132 0.202656 0.013255 -0.077526 0.003944 -0.109602 0.016742 -0.045427 -0.288216 0.153028 0.029456 0.242894 0.061 0.101973 0.038289 0.047745 -0.02444 0.094185 -0.237149 -0.023811 -0.118083 -0.09972 -0.05747 0.150872 -0.104412 0.051288 -0.211995 0.041156 0.03134 0.0093 0.059097 -0.063547 -0.115814 -0.143138 0.168388 0.026129 0.137646 -0.131321 0.21023 0.232201 -0.131493 0.078102 0.062883 0.025868 0.039531 0.325886 0.110184 -0.160263 -0.005837 -0.094953 0.109154 -0.120032 -0.241945 -0.223847 -0.029035 -0.00405 0.067141
-0.231901 -0.01036 0.146072 0.156379 -0.213334 -0.056064 -0.124837 0.260967 -0.279564 0.34541 0.137673 0.344544 0.047871 0.033004 -0.184505 0.127057 -0.072475 0.1973 0.024794 0.042361 -0.120474 0.151029 0.351674 0.048492 -0.032506 -0.15714 0.006894 -0.059893 0.108426 -0.144372 0.279001 -0.193258 0.044568 -0.303168 -0.408613 -0.133324 0.145113 -0.070993 -0.237644 -0.288842 0.129522 -0.002823 0.325258 -0.093293 -8.53E-4 0.177863 0.06492 -0.078324 -0.014096 0.295515 0.182166 0.050187 -0.239889 -0.176423 -0.029828 -0.242664 -0.052418 -0.553013 0.179644 -0.045616 0.138143 0.045415 -0.101323 -0.044804 -0.3046 -0.151815 -0.063129 0.062543 0.087498 0.346994 -0.026089 0.275195 -0.085272 0.063541 0.050087 0.07194 0.009855 -0.228619 0.046455 -0.174566 -0.059513 0.42406 -0.207529 0.189641 -0.023354 -0.16332 0.235245 0.19294 0.11487 -0.072717 -0.129032 0.123936 -0.231236 -0.055448 0.111311 -4.47E-4 -0.062391 0.087379 -0.21107 -0.014823
0.051808 0.017909 0.085155 -0.060444 -0.057395 -0.038112 -0.021832 4.21E-4 -0.044129 -0.197069 -0.035831 0.082055 -0.089886 0.023977 0.076578 0.1047 0.085872 -0.048943 -0.102234 -0.158831 -0.097398 0.112284 -0.086751 -0.166097 0.042151 -0.003775 0.053049 0.015015 0.171023 0.032037 -0.167228 -0.042769 -0.001751 0.129104 0.095717 -0.015765 -0.123331 0.046481 0.001069 -0.074753 0.21425 -0.151695 0.107777 0.131847 0.162756 -0.059077 0.094894 0.220342 0.015967 -0.007782 -0.029612 0.036834 0.047268 -0.059479 0.066615 -0.145582 -0.097719 0.035055 -0.078837 0.074138 -0.077498 -0.038998 -0.208034 -0.178891 -0.009334 0.114334 -0.210563 -0.045906 0.12167 0.070358 -0.037289 0.014921 -0.045276 -0.027204 -0.016818 -0.003616 0.040959 -0.058463 0.01706 0.150279 -0.093766 -0.061884 0.014857 -0.135344 -0.035199 -0.075126 0.095997 0.180111 1.91E-4 0.060103 0.141862 0.084796 -0.092945 0.174676 -0.029251 0.062299 -0.107607 -0.137936 -0.04503 0.020919
-0.142513 -0.102009 0.054173 -0.083394 -0.084077 -0.148876 -0.165661 0.073994 -0.088852 0.044298 0.078733 0.080022 0.149374 -0.23051 0.126974 0.018586 0.02542 0.25193 0.247349 0.113536 0.029893 0.394456 0.15285 0.080088 -0.150849 -0.025481 0.093683 -0.015861 0.060683 0.025994 -0.156636 0.038484 -0.010837 0.060786 0.050489 -0.036051 -0.0431 0.003458 -0.057014 0.113297 0.056364 -0.001791 0.076296 -0.224297 0.121893 -0.032403 0.135005 -0.036454 0.006915 0.126555 0.199576 0.092683 -0.13221 -0.015458 0.17706 -0.282461 0.178776 -0.042008 0.097865 -0.135717 0.012142 -0.110853 0.001537 -0.202053 -0.00465 0.157084 0.072582 0.076219 0.247249 0.01305 -0.162891 0.112148 -0.145706 -0.030277 0.202826 -0.098372 0.008193 0.012796 0.044892 0.075083 0.075652 0.019461 0.175963 -0.069228 -0.030278 0.189071 -0.05336 0.067037 0.062114 -0.052575 -0.132962 -0.138156 -0.103095 -0.008441 0.048456 -0.181015 0.078678 0.004789 -0.041996 0.205382
-0.045549 -0.019643 0.046605 0.01937 -0.048165 0.002386 0.133692 -0.105972 -0.036092 0.01926 -0.041897 0.101992 -0.024171 -0.015948 -0.078548 0.018259 -0.021959 -6.9E-5 0.068206 0.037825 0.056655 -0.263488 0.019989 0.022684 -0.095743 0.148716 0.020395 0.005975 0.24558 -0.064396 -0.038624 0.103727 -0.009889 0.096239 -0.304886 0.02822 0.080687 0.038994 0.079709 -0.050449 0.091042 0.026191 0.163824 -0.046615 -0.100267 0.010837 -0.087407 0.084683 -0.041542 -0.01353 0.034989 -0.127666 0.142675 -0.144064 -0.010746 0.042543 -0.055325 -0.066353 -0.06669 -0.203929 0.043696 -0.15489 0.225267 -0.112238 -0.083936 0.01865 0.080721 -0.045273 0.053165 0.012791 -0.251947 -0.087307 -0.030465 0.051097 -0.029058 -0.055214 -0.077598 -0.017701 0.140202 -0.094673 -0.079917 0.236495 -0.033887 0.011453 -0.003383 0.141896 -0.034788 -0.14658 0.023186 0.099968 -0.072668 -0.031315 -0.073928 0.05957 0.035095 -0.094544 -4.16E-4 0.006228 0.001092 -0.050299
-0.337871 -0.029349 0.330205 0.003552 0.005965 0.317325 0.028369 0.01308 -0.28889 0.08608 0.122728 0.004971 0.012204 -0.092386 -0.166743 0.154265 0.251402 0.025744 0.077344 0.358204 -0.267469 0.379876 0.399338 -0.41515 0.483091 -0.166794 0.470296 0.167143 0.08455 0.143976 -0.152209 -0.224798 -0.163077 0.422392 -0.352172 -0.241332 -0.042557 -0.038498 0.379439 -0.167481 -0.130568 -0.166572 0.098164 -0.240212 0.19782 -0.317346 0.040856 -7.8E-4 0.017369 -0.449546 -0.233249 -0.062204 -0.351037 -0.32123 -0.163122 -0.321005 0.342031 -0.202214 0.465819 -0.219908 0.385261 0.128002 -0.436522 -0.34718 0.197838 -0.056779 0.331129 -0.045577 0.193595 -0.23896 0.317415 -0.103214 -0.077894 0.063087 -0.386071 -0.294006 -0.085658 0.374454 -0.254133 0.198373 -0.006204 0.473463 -0.293893 -0.066837 0.100703 -0.221778 0.29488 -0.092674 0.153085 0.337899 0.401858 -0.074187 -0.212472 0.050655 0.006616 -0.325312 0.34837 0.14719 0.105667 0.268007
0.062522 -0.14401 -0.001482 0.105199 -0.004925 -0.042687 -0.122233 0.029886 -0.128466 0.19125 0.05426 0.105584 -0.023435 -0.133626 0.273104 0.276843 0.020197 0.068255 0.163732 -0.007876 -0.117574 0.100282 0.305571 0.072216 -0.156179 -0.045617 -0.009269 -0.024426 0.065556 -0.359507 -0.051771 -0.108227 -0.14362 0.195042 -0.03045 0.074046 -0.110848 0.031238 0.049085 0.122117 -0.11719 0.258337 -0.061496 0.019917 -0.013162 -0.082861 -0.024269 -0.111005 -0.141643 -0.037213 0.11058 -0.209959 0.049935 0.047854 0.045576 0.006442 0.049303 -0.208688 -0.007247 -0.186497 0.060443 -0.080912 0.144786 -0.255699 -0.189857 0.130603 -0.060516 0.151876 0.143049 -0.069666 -0.023531 0.167617 -0.230491 0.132738 0.076997 -0.125239 -0.15613 0.002294 -0.039685 -0.137649 0.085502 0.113264 0.312524 -0.138582 0.08871 -0.016901 -0.047516 0.038886 0.228398 0.163581 -0.081154 -0.045722 0.048329 0.221347 -0.018802 -0.242436 0.14059 0.081484 0.009134 -0.11946
-0.171789 -0.006273 0.059886 0.169022 0.044186 0.063082 -0.05534 -0.027505 -0.118388 0.058692 0.04 0.120164 0.148743 -0.07685 0.167751 0.125568 -0.192318 0.120941 0.004502 -0.0242 -0.17934 0.031238 0.072752 0.083896 -0.166098 -0.044515 -0.05836 -0.041809 0.189354 -0.015675 0.014642 -0.15871 -0.027474 0.140623 -0.100423 0.045003 0.043079 -0.011433 -0.053601 0.03363 -0.014421 -0.062689 -0.027584 0.122281 -0.080956 -0.080338 -0.032523 -0.023953 -0.212738 0.017416 0.1197 -0.050757 -0.03697 0.053921 -0.067185 -0.224643 0.037885 0.145902 0.11429 -0.032933 0.009361 -0.037006 0.167389 -0.039447 -0.085959 0.077689 0.11408 -0.072277 0.050279 0.030863 0.094497 -0.00462 0.136818 0.111563 -0.026028 0.043062 -0.281029 -0.141188 -0.019887 -0.110642 0.124728 -0.094026 0.165531 -0.085625 0.001865 -0.0761 0.217293 0.0629 0.296806 -0.129193 -0.045274 -1.47E-4 0.016644 0.208614 -0.059732 -0.103978 0.033846 0.063251 -0.125777 0.145024
-0.072674 -7.172178 3.243542 -3.416216 -3.078808 6.196021 -4.841667 1.097196 -0.069161 1.281094 -1.867299 2.00664 -3.509578 -1.91784 -3.71946 -1.31319 -2.045076 0.300286 -1.171953 -1.055153 0.413733 -4.900678 -1.569404 0.87886 -2.045129 -1.808549 3.916455 -0.208298 2.321721 -2.340044 -1.758158 0.426659 -1.302078 -0.956855 -1.534045 -0.5092 3.699516 -1.615464 -4.803689 1.209575 2.470521 -1.772277 -1.289194 0.075271 2.969475 5.294761 1.165935 1.551812 -2.864125 -2.655352 5.174971 1.730763 -3.638956 -1.622863 -1.08695 -1.558467 -3.220565 0.142856 -2.906218 2.40766 -2.416126 -0.276478 1.480663 0.762824 -0.901475 0.444124 -2.828977 2.000263 -3.260752 0.442676 2.227862 0.843619 -0.517631 -1.033588 -2.178106 1.253474 -1.086825 1.923508 1.341381 -3.757782 1.47075 1.992821 3.822498 6.974607 4.826773 0.101915 1.476335 -1.446077 -2.964966 2.275137 5.51195 -1.78916 -2.196929 -0.36233 1.699235 -0.269662 -2.034092 -1.169337 -1.898828 -0.46444
-0.134008 -0.036238 0.101819 0.06978 -0.145865 -0.11309 -0.163883 -0.247747 -0.146164 0.193955 -0.051005 0.077787 -0.090948 -0.019506 0.03762 0.109274 -0.186923 0.113068 -0.090135 -0.10643 0.04886 0.298286 0.155327 0.059199 0.138458 -0.017476 0.036106 -0.046772 0.004943 -0.02638 0.067951 0.115696 -0.14996 0.043632 -0.1831 0.03796 0.093955 -0.153344 -0.259589 -0.106328 -0.084317 0.174354 0.166607 -0.048267 -0.075681 -0.092909 0.019737 0.073501 -0.119044 0.354156 0.04165 0.064732 -0.045174 -0.111477 0.072813 0.085033 0.143712 -0.014393 0.058013 -0.233979 -0.036168 -0.17949 0.005496 -0.108741 -0.210584 -0.144125 0.11685 0.11331 0.155707 0.156336 -0.052404 -0.018173 0.098398 0.03714 0.121746 0.074775 -0.161222 0.01243 -0.237337 -0.099386 0.093821 0.035655 0.158608 -0.17074 -0.082466 -0.143209 -0.134011 -0.007119 0.162059 0.181588 0.049815 0.034453 -0.093726 0.060205 -0.036982 -0.140768 0.023987 -0.092753 -0.052416 0.060204
-0.021036 -0.188623 0.138492 0.102153 -0.037262 0.010201 -0.038628 0.047735 -0.171132 0.210905 0.151942 0.205359 0.152366 -0.021651 0.071972 0.138844 0.057871 0.206774 0.235995 0.103519 0.005348 0.06255 0.120182 0.053022 0.038634 -0.222823 -0.041613 0.025005 0.107309 -0.108681 -0.073721 -0.099586 -0.001032 -0.008776 -0.073218 -0.053329 -0.017532 -0.02374 -0.003238 -0.099007 -0.190598 0.212902 0.237921 0.089574 0.086833 -0.038016 -0.062258 -0.115358 -0.154121 -0.004609 -0.003856 -0.179057 -0.077914 0.043648 0.027654 -0.137898 0.085846 -0.039577 0.029291 -0.152 0.026018 -0.180648 0.056705 -0.125588 -0.044279 -0.091858 0.160561 -0.1916 0.142984 -0.09915 -0.04716 0.012775 -0.1339 -0.001082 -0.055588 -0.114543 -0.11378 -0.011095 -0.065965 -0.111169 -0.065489 -0.017951 0.025608 0.031221 -0.078672 -0.037713 0.093777 -0.133661 0.041973 0.112997 -0.007962 0.050439 -0.13413 0.003685 0.04125 -0.127316 0.052599 0.077239 -0.088381 -0.083783
-0.102902 -0.169276 0.034753 0.072598 -0.081298 -0.075082 -0.096615 -0.026603 5.44E-4 0.146357 0.206356 0.107302 -0.194244 -0.044606 0.094949 0.1611 0.058148 0.172494 0.072526 -0.054366 -0.06706 0.1068 0.310503 -0.003924 -0.089625 -0.25258 -0.09328 0.174709 0.241097 -0.122062 -0.152979 0.045405 -0.089142 0.29316 -0.067258 -0.085914 0.090365 -0.077835 0.260613 0.141504 0.005742 0.019026 -0.076726 -0.083837 0.029414 -0.178767 -0.036039 0.007358 -0.019533 -0.137729 0.034169 -0.038309 1.44E-4 0.016734 0.074205 -0.12435 0.046743 0.115165 0.103725 -0.079477 -0.019194 -0.003365 -0.068136 -0.087525 -0.099627 -0.079167 0.117746 -0.059187 -0.019016 -0.052425 -0.001099 0.053054 -0.088703 -0.014948 -3.1E-5 -0.179588 -0.087016 -0.073153 0.167758 -0.282999 0.096009 -0.066595 -0.050231 -0.113249 0.038541 0.068928 0.136544 0.129046 0.040265 0.138513 0.047813 -0.066363 -0.00565 0.017347 0.129441 0.039428 -0.149388 -0.256971 0.130871 0.090547
0.036516 -0.017106 -0.012625 -0.110259 -0.058703 -0.07175 -0.00426 -0.131734 -0.17749 0.038933 -0.060178 0.147241 0.043538 -0.146855 -0.259103 0.238953 0.030855 0.017162 0.045796 -0.054197 -0.051733 0.127415 0.054889 -0.012925 -0.102312 0.033884 0.031345 -0.052135 -0.024182 -0.040765 -0.151597 -0.038209 -0.108257 0.05294 -0.241157 0.035253 0.045651 -0.070801 0.105832 0.039027 -0.066623 0.144984 -0.065799 0.083979 -0.083561 -0.141144 -0.113824 0.103352 -0.268195 0.14047 0.018391 -0.074496 -0.007179 -0.094198 -0.160231 -0.005318 -4.73E-4 0.001548 0.061552 -0.13544 0.014767 -0.087623 -4.07E-4 -0.213449 -0.013584 0.130976 0.053651 -0.025226 0.125211 0.083925 -0.028544 -0.030039 0.039968 -0.079752 -0.018216 -0.04572 -0.048005 -0.056497 -0.205491 -0.038741 0.067133 0.18957 0.007287 -0.13699 -0.05781 0.117331 -0.044041 0.139468 0.208917 0.163011 -0.011396 0.121648 -0.07081 0.029104 -0.103234 0.01825 0.070253 -0.101864 -0.06658 -0.024084
0.162039 -0.112306 -0.051777 0.021906 0.037991 0.038502 -0.019051 0.035471 -0.191195 0.086582 -0.108859 0.184529 0.093322 -0.022001 0.021549 0.202432 0.075265 0.057637 -0.023687 0.187151 -0.132049 0.125037 0.19021 0.122186 0.015105 0.099862 0.071997 -0.15398 0.029569 -0.236686 -0.002736 -0.028475 -0.095147 0.015142 -0.147428 -0.12572 -0.118815 -0.026778 -0.013747 -0.089035 -0.023062 0.027932 0.086755 -0.021589 0.110155 0.132418 0.057038 -0.050621 -0.071949 0.173814 0.111239 -0.193808 -0.055789 -0.08264 0.165225 0.00309 0.050879 -0.009035 -0.05504 0.038331 0.2058 0.059563 0.230079 -0.084833 -0.030745 0.139614 0.110196 -0.060703 -6.37E-4 0.082402 -0.043442 0.176632 -0.080947 0.064402 0.015998 0.004918 -0.110461 -0.033787 0.037692 0.030352 -0.131412 0.109615 0.06673 -0.032842 0.007068 -0.160306 0.009926 0.142122 0.093128 0.125654 -0.247379 0.057091 -0.00451 -0.071425 -0.104398 -0.113027 0.075972 0.035238 0.005663 -0.013237
0.024723 0.127299 -0.172515 -0.215256 0.122533 0.230206 0.055559 0.072318 0.045884 0.008286 -0.156355 -0.069533 0.061162 0.158357 0.250813 0.25209 -0.06245 -0.051581 -0.132847 -0.038739 -0.171737 -0.05541 0.073886 0.014353 0.111505 -0.02746 -0.007878 0.037755 0.054501 -0.152824 -0.17725 -0.109705 -0.140079 -0.008796 0.08239 -0.10643 0.088486 -0.019107 -0.178254 -0.159884 0.104603 -0.049937 0.011294 0.129051 -0.101514 0.085149 0.075428 0.07964 0.056489 -0.199156 -0.198055 -0.294873 0.02193 -0.087654 0.02194 0.118939 0.134621 0.161098 -0.028437 0.101765 0.20192 0.056095 -0.06922 -0.086783 0.01914 0.103907 -0.202596 0.101186 -0.066934 0.066643 -0.017281 0.019229 -0.097729 -0.123382 7.03E-4 0.048341 0.097053 0.058805 -0.055883 -0.141272 -0.072807 -0.0359 0.034252 0.008318 0.059905 -0.090682 -0.176036 0.090358 0.055292 0.170097 -0.067816 -0.007051 -0.117293 0.04385 -0.143147 -0.069697 -0.047416 0.246942 -0.220013 -0.060946
-0.021324 -0.039153 -0.014441 0.066215 0.058264 0.207635 -0.129695 -0.017902 -0.118093 0.148086 0.158831 0.120732 0.181259 -0.093651 -0.123138 0.004215 0.253314 0.221271 0.16339 0.147812 0.073158 0.024772 0.193841 -0.148561 0.071864 -0.129725 -0.029306 0.16593 0.050502 -0.063307 -0.073863 -0.021668 0.077038 0.08325 -0.093629 -0.155822 -0.113183 -0.024856 0.025725 -0.127271 0.110033 0.030679 0.108319 -0.196887 0.045526 -0.136131 -0.037816 -0.091241 -0.080641 -0.100953 -0.121871 0.090993 -0.070181 0.004153 0.130305 -0.114174 0.142565 -0.010621 0.192561 -0.081597 0.045289 -0.024995 -0.160139 -0.19662 0.132416 -0.064846 0.170868 0.151277 0.16749 -0.065209 -0.108396 0.0085 -0.052578 -0.032798 -0.013235 -0.164544 -0.006409 0.113417 -0.032051 0.021523 0.017565 0.053489 0.152426 -0.078722 0.154766 -0.064145 0.037156 0.00948 0.145831 -0.029108 0.048925 -0.061878 -0.006918 0.078926 -0.228184 0.006635 0.21884 0.16755 0.106487 0.032002
-0.07555 -0.134649 9.81E-4 0.066902 -0.008468 0.197472 0.136262 0.008161 -0.004177 0.14494 0.048036 0.176647 -0.028504 -0.048088 -0.060923 0.075324 -0.052052 0.055278 0.136034 -0.046414 -0.111127 -0.109821 -0.031986 0.070788 0.287691 -0.27386 0.059649 0.142605 0.097785 -0.082127 -0.142776 -0.084975 -0.009139 0.13371 0.150226 -0.033948 0.100494 -0.161805 0.200048 -0.113088 -0.193666 0.134301 0.107839 0.153996 -0.02583 -0.102589 0.019957 -0.167462 -0.089285 -0.080432 -0.027253 0.011421 -0.123509 0.047813 -0.11853 0.160271 0.172744 0.035336 -0.075497 -0.17292 -0.05128 0.005391 0.151601 -0.071361 -0.072314 -0.085409 -0.063029 -0.060281 0.042147 -0.037277 -0.091356 -0.181351 -0.001536 -0.057231 0.006275 -0.083538 -0.255018 -0.054278 -0.254964 -0.070801 -0.024028 0.0541 0.108463 -0.18654 -0.233655 0.085816 0.053031 -0.039385 0.135168 0.165729 -0.076049 0.016285 -0.142657 -0.105998 -0.017943 -0.10915 0.062525 0.092294 0.019403 -0.00717
-0.101423 -0.111223 0.204943 0.132795 0.05788 0.002316 -0.036371 0.128742 -0.099987 -0.203751 -0.005747 -0.076661 0.061493 0.129923 0.03874 0.055627 -0.263836 -0.184604 0.011424 -0.007279 0.055684 -0.07375 0.014547 0.147661 -0.137906 -0.053606 -0.109156 0.116562 0.167124 -0.150614 0.060862 0.022001 -0.10916 0.25015 -0.078021 -0.006786 -0.141903 0.141898 -0.160938 -0.126208 0.099444 0.188346 -0.14893 0.061422 -0.089297 -0.141281 -0.053777 0.056071 -0.033157 -0.040216 0.128842 -0.039396 0.153451 -0.099596 0.009729 -0.066533 -0.087515 -0.014641 -0.090516 0.13632 -0.012204 -0.13469 0.080049 0.037476 -0.028325 0.033903 0.019994 0.045848 0.02642 0.068674 -0.091896 0.015101 0.058041 -0.015662 0.014985 0.073895 0.155834 -0.167799 -0.15315 0.063915 0.007151 -0.100262 0.020611 0.155 -0.277609 0.145833 0.11182 0.07878 -0.028091 -0.019437 0.04089 -0.021383 0.025695 0.057773 -0.115688 0.142605 -0.064814 -0.090623 0.132294 -0.086139
0.015774 -0.246231 -0.069816 -0.021435 -0.202857 0.145064 -0.202669 -0.07234 -0.014691 0.058654 0.047638 0.251429 0.007724 -0.028351 0.099116 0.181559 0.107695 0.173853 0.002329 0.11167 -0.161044 0.076256 0.313782 0.034607 -0.240069 -0.173089 0.1111 -0.002956 0.181243 -0.102411 0.058323 -0.030828 -0.169722 0.071852 -0.126978 -0.163514 0.031043 -0.095252 0.300271 0.101495 -0.011841 0.148347 -0.015339 0.154492 0.102547 -0.008878 -0.052108 0.066739 -0.045326 0.012038 0.084995 -0.096571 -0.099173 0.024369 0.159063 -0.002289 0.155862 0.021708 -0.001934 -0.125422 0.147667 -0.243483 -0.119183 -0.148571 -0.114845 -0.034066 -0.012771 0.070894 -0.006473 -0.155956 0.007576 0.180707 -0.041382 0.003541 -0.170483 0.01743 -0.067391 -0.073682 -0.066587 -0.140053 0.059631 0.045626 0.202112 -0.115243 0.062399 0.054497 0.096034 0.00892 0.171241 0.198976 -0.109103 -0.066564 0.063686 -0.038173 -0.122102 -0.024761 0.097584 -0.196725 -0.033272 -0.024661
-0.337871 -0.029349 0.330205 0.003552 0.005965 0.317325 0.028369 0.01308 -0.28889 0.08608 0.122728 0.004971 0.012204 -0.092386 -0.166743 0.154265 0.251402 0.025744 0.077344 0.358204 -0.267469 0.379876 0.399338 -0.41515 0.483091 -0.166794 0.470296 0.167143 0.08455 0.143976 -0.152209 -0.224798 -0.163077 0.422392 -0.352172 -0.241332 -0.042557 -0.038498 0.379439 -0.167481 -0.130568 -0.166572 0.098164 -0.240212 0.19782 -0.317346 0.040856 -7.8E-4 0.017369 -0.449546 -0.233249 -0.062204 -0.351037 -0.32123 -0.163122 -0.321005 0.342031 -0.202214 0.465819 -0.219908 0.385261 0.128002 -0.436522 -0.34718 0.197838 -0.056779 0.331129 -0.045577 0.193595 -0.23896 0.317415 -0.103214 -0.077894 0.063087 -0.386071 -0.294006 -0.085658 0.374454 -0.254133 0.198373 -0.006204 0.473463 -0.293893 -0.066837 0.100703 -0.221778 0.29488 -0.092674 0.153085 0.337899 0.401858 -0.074187 -0.212472 0.050655 0.006616 -0.325312 0.34837 0.14719 0.105667 0.268007
-0.067935 -0.051604 0.169497 0.069911 0.002771 0.024395 -0.165393 0.001525 -0.015943 0.056186 0.193742 0.13084 0.046294 0.150411 0.083977 0.093873 0.065303 0.193362 0.026806 0.016113 -0.013651 0.072494 0.101997 0.101245 -0.053162 -0.049122 -0.068687 -0.071321 0.084494 -0.093497 -0.085589 -0.045736 0.047039 0.150544 -0.095737 0.017532 0.022946 -0.057591 -2.7E-4 0.14099 -0.001092 0.137163 -0.075197 -0.0713 0.089549 7.25E-4 0.080986 0.001936 -0.059281 -0.144257 0.044117 -0.097451 0.084186 0.044383 0.100487 0.070878 0.017503 -0.086632 0.160314 -0.090568 0.104172 -0.089883 -0.031449 -0.011862 -0.097046 0.029356 0.130416 0.092513 0.059126 -0.052065 -0.027014 -0.067074 -0.036482 -0.100869 -0.012769 -0.02695 -0.098467 -0.089505 0.022276 0.084725 -0.055321 0.102413 0.041645 -0.193145 0.046459 0.067221 0.096221 -0.012148 0.214381 -0.023733 -0.038384 0.045905 0.029497 0.101358 -0.013367 0.015337 0.036496 0.084052 -0.024359 -0.10569
0.062522 -0.14401 -0.001482 0.105199 -0.004925 -0.042687 -0.122233 0.029886 -0.128466 0.19125 0.05426 0.105584 -0.023435 -0.133626 0.273104 0.276843 0.020197 0.068255 0.163732 -0.007876 -0.117574 0.100282 0.305571 0.072216 -0.156179 -0.045617 -0.009269 -0.024426 0.065556 -0.359507 -0.051771 -0.108227 -0.14362 0.195042 -0.03045 0.074046 -0.110848 0.031238 0.049085 0.122117 -0.11719 0.258337 -0.061496 0.019917 -0.013162 -0.082861 -0.024269 -0.111005 -0.141643 -0.037213 0.11058 -0.209959 0.049935 0.047854 0.045576 0.006442 0.049303 -0.208688 -0.007247 -0.186497 0.060443 -0.080912 0.144786 -0.255699 -0.189857 0.130603 -0.060516 0.151876 0.143049 -0.069666 -0.023531 0.167617 -0.230491 0.132738 0.076997 -0.125239 -0.15613 0.002294 -0.039685 -0.137649 0.085502 0.113264 0.312524 -0.138582 0.08871 -0.016901 -0.047516 0.038886 0.228398 0.163581 -0.081154 -0.045722 0.048329 0.221347 -0.018802 -0.242436 0.14059 0.081484 0.009134 -0.11946
3.229447 1.832686 -0.196265 -0.303454 -0.824437 2.082854 1.150219 -0.493805 -3.50143 -0.594107 2.103319 2.396154 1.056781 -0.578498 -1.172209 3.210305 -0.978008 -1.908997 -0.472705 -1.788789 -2.346806 -2.098664 -0.288581 -2.078696 0.41261 0.520842 -1.276654 0.578767 1.70845 -0.136278 -1.41294 0.371846 1.173228 1.232021 0.598135 -3.597398 4.723318 -0.907374 3.160397 -2.027976 1.188048 -5.433854 0.01906 -0.240727 2.932695 1.836205 0.69537 0.647449 5.328198 0.625981 0.041762 2.070653 0.300511 1.656161 -2.571092 0.908767 3.294905 2.941907 -1.065341 -2.086696 -0.817265 -1.894089 0.299235 -1.879644 0.485823 1.848637 -0.344618 -2.532108 2.074767 0.482597 3.034693 1.42216 0.457834 2.431775 -0.318071 1.666885 -1.364005 1.576786 -1.71492 -0.790398 2.548478 -2.38312 -0.502643 1.256626 0.730181 1.714355 1.091085 4.672542 0.202716 -0.959086 0.774024 -2.161259 -1.810393 -2.763748 0.167227 4.207294 2.675714 0.636561 -0.117425 -0.284099
0.226635 -0.052325 0.005244 -0.214607 -0.216023 -0.081785 0.00205 0.037122 -0.242408 0.260628 0.156497 -0.119955 0.062962 0.052139 0.002548 0.215491 0.225543 -0.032802 0.22984 -0.142948 -0.038018 -0.101973 0.317643 0.184715 0.204972 -0.007871 0.05905 -0.039663 -0.135227 -0.152891 0.094247 0.075853 0.171767 0.234633 0.140279 -0.038301 0.154923 -0.259847 -0.13108 -0.041271 0.160909 -0.38684 0.214038 -0.11327 0.120618 -0.059458 -0.145539 -0.024262 0.170729 0.205101 0.038737 0.033843 0.104974 -0.085692 0.022038 0.301691 0.201305 0.354092 -0.055311 -0.046306 -0.004787 -0.33777 0.065341 -0.061797 -0.189878 -0.074289 0.098566 0.213996 -0.142153 -0.181367 -0.049181 0.068566 -0.168662 0.214074 0.026345 -0.068551 -0.231104 0.195207 -0.052077 -0.062212 0.16621 0.063255 -0.196848 -0.05096 0.242198 -0.094812 -0.017048 -0.177613 0.362583 -0.071275 0.037859 -0.140443 0.165947 0.178646 0.264139 0.121288 0.024488 -0.188465 -0.075744 -0.382624
-0.019201 0.028111 0.019217 0.052324 -0.012545 0.076041 0.041859 0.132425 -0.042682 -0.25324 0.153679 -0.052639 -0.234426 0.154245 0.001178 0.07083 0.073083 0.160228 0.024133 -0.054811 0.001969 0.005439 0.181016 0.099355 -0.126409 -0.051701 0.037309 -0.123638 0.247936 -0.162055 0.114555 0.125901 0.087982 0.08593 -0.090916 0.032607 0.058566 -0.084423 -0.083684 -0.120125 -0.142636 -0.134573 0.099572 -0.067549 0.144656 -0.140025 -0.119758 0.069446 0.087216 -0.032862 -0.006618 -0.111395 0.032981 -0.031112 -0.118341 0.110071 -0.111936 0.153878 0.041608 0.007703 0.064796 -0.130385 0.030277 0.045725 -0.1256 0.149386 -0.11782 -0.166733 0.122695 0.114102 -0.065025 -0.01284 -0.004014 -0.036946 -0.052576 0.183617 0.039352 -0.109896 0.002856 -0.049741 0.098582 -0.079185 0.058208 -0.092538 -0.020486 -0.024785 0.136707 0.03449 -0.090652 0.201497 -0.097455 0.025029 -0.120762 -0.013839 -0.051103 -0.067125 -0.00444 -0.252706 0.02388 -0.108891
0.129347 -0.034539 0.110756 -0.026581 0.053886 -0.05038 0.172565 0.132583 -0.006302 -0.025741 0.199193 -0.01627 -0.058173 0.038852 0.028399 0.136799 0.128914 -0.089835 0.105659 0.069627 -0.106558 0.048134 0.078275 0.091079 -0.215898 0.129203 0.06114 0.070604 0.154959 -0.061403 -0.15137 0.108239 0.040297 -0.028921 -0.140838 0.004863 0.040579 -0.022986 0.060521 -0.153493 0.09818 -0.227794 -0.085577 0.195567 -0.053753 0.112956 -0.044755 -0.040024 -0.044331 -0.019505 -0.063551 -0.166768 -0.1715 -0.163148 0.313635 0.204647 -0.094257 0.087367 0.093534 0.108667 -0.039805 0.002312 0.075644 -0.03595 0.023051 0.049548 -0.016284 0.056146 -0.060892 0.086197 0.080908 -0.100306 0.007319 0.050592 0.04522 -0.055598 0.156943 -0.10538 -0.039652 -0.321456 0.14167 -0.161084 -0.014301 -0.218639 -0.161051 0.149793 0.124222 0.004853 -0.114716 0.088538 -0.055419 0.040508 -0.109684 -0.082626 -0.151726 -0.053494 -0.152339 0.019812 0.07956 0.091433
-0.072674 -7.172178 3.243542 -3.416216 -3.078808 6.196021 -4.841667 1.097196 -0.069161 1.281094 -1.867299 2.00664 -3.509578 -1.91784 -3.71946 -1.31319 -2.045076 0.300286 -1.171953 -1.055153 0.413733 -4.900678 -1.569404 0.87886 -2.045129 -1.808549 3.916455 -0.208298 2.321721 -2.340044 -1.758158 0.426659 -1.302078 -0.956855 -1.534045 -0.5092 3.699516 -1.615464 -4.803689 1.209575 2.470521 -1.772277 -1.289194 0.075271 2.969475 5.294761 1.165935 1.551812 -2.864125 -2.655352 5.174971 1.730763 -3.638956 -1.622863 -1.08695 -1.558467 -3.220565 0.142856 -2.906218 2.40766 -2.416126 -0.276478 1.480663 0.762824 -0.901475 0.444124 -2.828977 2.000263 -3.260752 0.442676 2.227862 0.843619 -0.517631 -1.033588 -2.178106 1.253474 -1.086825 1.923508 1.341381 -3.757782 1.47075 1.992821 3.822498 6.974607 4.826773 0.101915 1.476335 -1.446077 -2.964966 2.275137 5.51195 -1.78916 -2.196929 -0.36233 1.699235 -0.269662 -2.034092 -1.169337 -1.898828 -0.46444
-0.142513 -0.102009 0.054173 -0.083394 -0.084077 -0.148876 -0.165661 0.073994 -0.088852 0.044298 0.078733 0.080022 0.149374 -0.23051 0.126974 0.018586 0.02542 0.25193 0.247349 0.113536 0.029893 0.394456 0.15285 0.080088 -0.150849 -0.025481 0.093683 -0.015861 0.060683 0.025994 -0.156636 0.038484 -0.010837 0.060786 0.050489 -0.036051 -0.0431 0.003458 -0.057014 0.113297 0.056364 -0.001791 0.076296 -0.224297 0.121893 -0.032403 0.135005 -0.036454 0.006915 0.126555 0.199576 0.092683 -0.13221 -0.015458 0.17706 -0.282461 0.178776 -0.042008 0.097865 -0.135717 0.012142 -0.110853 0.001537 -0.202053 -0.00465 0.157084 0.072582 0.076219 0.247249 0.01305 -0.162891 0.112148 -0.145706 -0.030277 0.202826 -0.098372 0.008193 0.012796 0.044892 0.075083 0.075652 0.019461 0.175963 -0.069228 -0.030278 0.189071 -0.05336 0.067037 0.062114 -0.052575 -0.132962 -0.138156 -0.103095 -0.008441 0.048456 -0.181015 0.078678 0.004789 -0.041996 0.205382
-0.07555 -0.134649 9.81E-4 0.066902 -0.008468 0.197472 0.136262 0.008161 -0.004177 0.14494 0.048036 0.176647 -0.028504 -0.048088 -0.060923 0.075324 -0.052052 0.055278 0.136034 -0.046414 -0.111127 -0.109821 -0.031986 0.070788 0.287691 -0.27386 0.059649 0.142605 0.097785 -0.082127 -0.142776 -0.084975 -0.009139 0.13371 0.150226 -0.033948 0.100494 -0.161805 0.200048 -0.113088 -0.193666 0.134301 0.107839 0.153996 -0.02583 -0.102589 0.019957 -0.167462 -0.089285 -0.080432 -0.027253 0.011421 -0.123509 0.047813 -0.11853 0.160271 0.172744 0.035336 -0.075497 -0.17292 -0.05128 0.005391 0.151601 -0.071361 -0.072314 -0.085409 -0.063029 -0.060281 0.042147 -0.037277 -0.091356 -0.181351 -0.001536 -0.057231 0.006275 -0.083538 -0.255018 -0.054278 -0.254964 -0.070801 -0.024028 0.0541 0.108463 -0.18654 -0.233655 0.085816 0.053031 -0.039385 0.135168 0.165729 -0.076049 0.016285 -0.142657 -0.105998 -0.017943 -0.10915 0.062525 0.092294 0.019403 -0.00717
-0.134008 -0.036238 0.101819 0.06978 -0.145865 -0.11309 -0.163883 -0.247747 -0.146164 0.193955 -0.051005 0.077787 -0.090948 -0.019506 0.03762 0.109274 -0.186923 0.113068 -0.090135 -0.10643 0.04886 0.298286 0.155327 0.059199 0.138458 -0.017476 0.036106 -0.046772 0.004943 -0.02638 0.067951 0.115696 -0.14996 0.043632 -0.1831 0.03796 0.093955 -0.153344 -0.259589 -0.106328 -0.084317 0.174354 0.166607 -0.048267 -0.075681 -0.092909 0.019737 0.073501 -0.119044 0.354156 0.04165 0.064732 -0.045174 -0.111477 0.072813 0.085033 0.143712 -0.014393 0.058013 -0.233979 -0.036168 -0.17949 0.005496 -0.108741 -0.210584 -0.144125 0.11685 0.11331 0.155707 0.156336 -0.052404 -0.018173 0.098398 0.03714 0.121746 0.074775 -0.161222 0.01243 -0.237337 -0.099386 0.093821 0.035655 0.158608 -0.17074 -0.082466 -0.143209 -0.134011 -0.007119 0.162059 0.181588 0.049815 0.034453 -0.093726 0.060205 -0.036982 -0.140768 0.023987 -0.092753 -0.052416 0.060204
-1.66091 2.095639 -1.46621 3.309005 0.61312 1.256683 2.017934 -0.87743 -1.546743 1.786159 1.25968 2.733098 -3.278479 0.967564 -0.190451 -0.552144 -0.109189 -0.944379 -0.110468 -0.112484 -0.281945 -0.7181 0.794946 0.244085 -1.825048 -0.285692 -0.07723 1.649511 0.543842 -1.836495 -0.91742 1.445495 -0.097605 -0.696748 -2.611886 -0.711086 0.771625 -1.299309 2.327596 -1.188444 -2.235524 -5.137472 3.250959 0.813141 -0.770182 1.230391 -3.273619 1.68843 2.471855 -0.230997 3.226366 -1.521484 1.04289 -0.560341 -0.102752 -0.802465 -0.439704 0.680094 -1.633372 -3.278212 -0.655021 2.573425 2.203724 0.393343 -0.643198 -0.480508 -2.065379 0.179951 -0.357508 4.32759 1.741732 0.967685 -0.111901 1.41527 2.469918 -1.413432 -0.903816 -0.791662 1.243461 0.410591 1.201544 0.542635 0.761763 -1.30929 -2.473404 0.417914 -0.723028 1.293002 0.116347 0.827325 -1.090184 -0.925006 -1.769734 -1.51027 1.29583 0.650074 -0.472872 1.573852 -2.093164 1.419335
0.106819 -0.155273 0.100262 -0.203633 -0.113744 0.111418 0.013196 -0.164598 -0.127185 -0.165083 0.089429 0.075216 -0.011487 -0.23205 0.00902 0.111355 0.055741 0.249202 0.068646 -0.188616 -0.022875 -0.045377 0.075285 0.094837 0.09953 0.08352 -0.221726 0.199086 0.073367 -0.079957 -0.048898 0.031393 -0.061042 0.051715 0.06043 -0.0634 -0.172957 -0.081083 0.176533 0.10955 0.064371 0.067772 0.099143 -0.044073 0.116149 -0.196917 -0.069986 0.02172 -0.076782 0.107784 0.067828 -0.091854 -0.184321 -0.05151 -0.09098 -0.21381 -0.083922 0.015174 0.184239 0.036793 0.024972 -0.180812 0.10811 -0.268639 -0.014862 0.177306 0.295233 -0.003502 0.025697 0.009478 -0.113488 -0.037256 -0.071333 -0.03362 -5.3E-4 -0.055012 -0.119723 -0.117096 0.029741 -0.076297 0.066154 0.110038 0.269759 0.077774 0.025025 -0.0144 0.07612 0.018105 0.064228 0.067635 0.176666 0.164935 -0.019551 0.050667 0.264672 0.021985 -0.100457 -0.019675 0.025597 -0.011342
-0.047421 -0.15849 0.107499 0.089927 0.167776 0.08617 -0.300314 -0.309623 0.108092 0.189928 0.056687 0.033222 -0.077897 -0.080874 0.159018 0.266839 -0.245001 0.016831 -0.085825 0.058383 -0.059198 -0.055262 0.240707 -0.12969 -0.22039 0.060318 -0.047124 -0.139865 0.089529 -0.172326 0.039714 -0.133083 -0.093917 0.050088 -0.217563 -0.099461 0.041898 -0.126919 0.020688 0.317283 0.16597 0.022872 0.046324 -0.073254 -0.180954 0.079862 0.019486 0.185367 0.118476 0.006355 -0.032953 -0.037425 0.063885 0.11699 0.184923 0.052025 0.128145 -0.13686 0.190992 -0.211976 0.013083 -0.015876 -0.029147 0.01214 -0.021098 0.071397 0.239282 -0.021331 -0.132596 -0.213218 -0.047197 -0.061747 0.108005 0.06585 0.170104 0.21 0.017802 0.149472 0.139998 -0.100998 0.016478 -0.071088 -0.215638 -0.123884 -0.172349 0.055991 -0.115719 -0.021301 0.071983 0.092645 -0.139537 0.078519 -0.099633 0.035876 -0.078405 -0.346964 0.042416 0.013565 -0.105723 -0.0419
-0.142513 -0.102009 0.054173 -0.083394 -0.084077 -0.148876 -0.165661 0.073994 -0.088852 0.044298 0.078733 0.080022 0.149374 -0.23051 0.126974 0.018586 0.02542 0.25193 0.247349 0.113536 0.029893 0.394456 0.15285 0.080088 -0.150849 -0.025481 0.093683 -0.015861 0.060683 0.025994 -0.156636 0.038484 -0.010837 0.060786 0.050489 -0.036051 -0.0431 0.003458 -0.057014 0.113297 0.056364 -0.001791 0.076296 -0.224297 0.121893 -0.032403 0.135005 -0.036454 0.006915 0.126555 0.199576 0.092683 -0.13221 -0.015458 0.17706 -0.282461 0.178776 -0.042008 0.097865 -0.135717 0.012142 -0.110853 0.001537 -0.202053 -0.00465 0.157084 0.072582 0.076219 0.247249 0.01305 -0.162891 0.112148 -0.145706 -0.030277 0.202826 -0.098372 0.008193 0.012796 0.044892 0.075083 0.075652 0.019461 0.175963 -0.069228 -0.030278 0.189071 -0.05336 0.067037 0.062114 -0.052575 -0.132962 -0.138156 -0.103095 -0.008441 0.048456 -0.181015 0.078678 0.004789 -0.041996 0.205382
-0.099779 -0.088851 -0.036921 0.088425 -0.040922 0.072369 -0.154586 0.011688 -0.007618 0.076278 0.089523 0.224786 0.062236 -0.233317 0.06423 0.133326 -0.132016 0.100983 -0.096608 0.02889 -0.116602 0.025416 0.115793 0.091144 -0.181606 0.01795 -0.140598 -0.079933 0.06915 -0.108515 0.060402 0.033142 -0.039611 0.073342 -0.337017 -0.119071 0.154116 0.004965 0.122293 -0.024123 -0.094374 0.202871 0.064663 -0.093456 -0.016288 -0.107149 -0.02292 -0.015554 -0.210102 0.17543 0.117124 -0.187922 0.003764 0.002373 0.07756 -0.167652 0.007686 -0.033869 0.020928 -0.055266 0.082302 -0.15228 0.001255 -0.170724 0.066994 0.10561 0.053247 0.006181 0.130398 -0.056247 0.049538 0.055487 0.010175 0.04748 0.065952 -0.050069 -0.103701 -0.065108 -0.023664 -0.057811 -0.024543 0.009046 0.093955 -0.110368 -0.096206 -0.04799 0.09091 0.135345 0.033909 0.149976 -0.22925 0.022657 -0.119194 0.012082 -0.17202 0.012624 0.055093 0.005004 -0.105271 -0.143153
0.052121 -0.099589 0.127244 0.092646 -0.033348 0.041528 0.145167 -0.046842 -0.015687 0.143101 0.075754 0.172338 -0.009203 -0.003088 0.037848 -0.103662 0.017661 0.12665 0.004188 0.166166 0.071735 0.053757 0.005707 -0.042999 0.04555 -0.108091 -0.091968 -0.001054 0.019913 -0.043918 -0.095325 0.077491 -0.179603 0.217663 -0.089775 0.173583 0.105417 -0.094206 0.140601 0.106502 -0.238859 -0.0889 0.174581 0.00647 -0.079711 -0.184999 -0.133501 0.015416 -0.159082 0.239518 0.05183 -0.126526 -0.144143 0.083928 -0.045822 -0.027427 -0.005476 -0.096671 -0.116182 -0.095087 0.132909 -0.099339 -0.03376 -0.259583 -0.102099 -0.131828 -0.071477 0.046576 0.165517 -0.174601 -0.056112 0.095021 -0.058338 -0.077141 -0.09215 -0.107945 -0.146958 0.093491 -0.123961 -0.031845 -0.03781 0.170234 0.019947 -0.091189 -0.071455 0.042332 0.020968 0.022422 0.061083 0.006205 -0.042069 0.034903 -0.062828 0.031951 0.064203 -0.088004 0.136243 0.001622 0.118714 -0.100599
-0.045798 0.059396 -0.101516 -0.21793 0.124767 0.108465 -0.108896 -0.011775 -0.276305 -0.052671 -0.023665 -0.002836 0.221192 -0.054232 -0.056027 0.153715 -0.143314 -0.037496 0.074665 -0.20287 -0.099226 -0.283907 0.243574 -0.024211 0.069912 -0.046986 -0.022462 0.094369 0.009692 0.006955 -0.194859 -0.134644 -0.040218 0.064009 0.111658 0.100564 0.315623 -0.067161 0.128419 -0.013574 0.022794 -0.029583 -0.084817 0.058176 -0.091604 0.140633 0.079451 -0.105402 0.156699 0.006195 0.101441 -0.081623 -0.108608 -0.050112 -0.043664 -0.028302 -0.213579 0.001338 -0.108571 -0.021969 -0.05766 -0.019535 -0.12783 -0.1046 0.088687 0.027815 -0.049405 -0.198682 0.035635 0.096436 -0.018873 0.147139 0.021603 -0.118668 0.071903 0.123271 -0.006989 -0.222536 0.074247 -0.169179 0.169927 -0.001492 0.002366 -0.124781 -0.076909 -0.122057 0.056589 -0.003081 -0.016129 0.143356 -0.163123 -0.061492 0.142207 -0.03306 -0.058704 -0.083603 0.043745 -0.081576 -0.134269 0.101216
-0.07555 -0.134649 9.81E-4 0.066902 -0.008468 0.197472 0.136262 0.008161 -0.004177 0.14494 0.048036 0.176647 -0.028504 -0.048088 -0.060923 0.075324 -0.052052 0.055278 0.136034 -0.046414 -0.111127 -0.109821 -0.031986 0.070788 0.287691 -0.27386 0.059649 0.142605 0.097785 -0.082127 -0.142776 -0.084975 -0.009139 0.13371 0.150226 -0.033948 0.100494 -0.161805 0.200048 -0.113088 -0.193666 0.134301 0.107839 0.153996 -0.02583 -0.102589 0.019957 -0.167462 -0.089285 -0.080432 -0.027253 0.011421 -0.123509 0.047813 -0.11853 0.160271 0.172744 0.035336 -0.075497 -0.17292 -0.05128 0.005391 0.151601 -0.071361 -0.072314 -0.085409 -0.063029 -0.060281 0.042147 -0.037277 -0.091356 -0.181351 -0.001536 -0.057231 0.006275 -0.083538 -0.255018 -0.054278 -0.254964 -0.070801 -0.024028 0.0541 0.108463 -0.18654 -0.233655 0.085816 0.053031 -0.039385 0.135168 0.165729 -0.076049 0.016285 -0.142657 -0.105998 -0.017943 -0.10915 0.062525 0.092294 0.019403 -0.00717
-0.021036 -0.188623 0.138492 0.102153 -0.037262 0.010201 -0.038628 0.047735 -0.171132 0.210905 0.151942 0.205359 0.152366 -0.021651 0.071972 0.138844 0.057871 0.206774 0.235995 0.103519 0.005348 0.06255 0.120182 0.053022 0.038634 -0.222823 -0.041613 0.025005 0.107309 -0.108681 -0.073721 -0.099586 -0.001032 -0.008776 -0.073218 -0.053329 -0.017532 -0.02374 -0.003238 -0.099007 -0.190598 0.212902 0.237921 0.089574 0.086833 -0.038016 -0.062258 -0.115358 -0.154121 -0.004609 -0.003856 -0.179057 -0.077914 0.043648 0.027654 -0.137898 0.085846 -0.039577 0.029291 -0.152 0.026018 -0.180648 0.056705 -0.125588 -0.044279 -0.091858 0.160561 -0.1916 0.142984 -0.09915 -0.04716 0.012775 -0.1339 -0.001082 -0.055588 -0.114543 -0.11378 -0.011095 -0.065965 -0.111169 -0.065489 -0.017951 0.025608 0.031221 -0.078672 -0.037713 0.093777 -0.133661 0.041973 0.112997 -0.007962 0.050439 -0.13413 0.003685 0.04125 -0.127316 0.052599 0.077239 -0.088381 -0.083783
-0.014242 0.055886 0.121448 -0.044527 -0.103629 -0.179973 -0.068857 0.087289 -0.219723 0.0114 0.048123 0.089472 0.148063 -0.058573 -0.157144 0.072651 -0.041198 0.226978 0.00276 -0.035143 -0.158497 0.060584 0.252849 -0.032797 -0.274145 0.133593 -0.104867 -0.028144 -0.043964 -0.025337 0.011027 -0.093657 -0.201162 0.207582 -0.18507 -0.015467 0.052753 0.165386 0.060541 -0.080573 0.078041 0.116374 0.181829 0.004856 0.007846 -0.082077 -0.09094 -0.045792 -0.117133 0.03315 0.127561 -0.220293 -0.080849 -0.125653 0.190704 -0.236434 -0.028332 -0.16654 0.202517 -0.188576 0.100438 -0.15146 -0.198987 -0.288341 -0.094445 0.054716 -0.027097 0.093276 -0.051151 -0.052553 -0.272693 0.055562 -0.070348 -0.126266 0.053742 -0.015203 0.124594 0.129198 0.100136 0.023336 -0.010146 0.435271 0.081609 0.147954 -0.120115 -0.027611 0.045092 0.189542 0.190629 0.114617 0.064113 0.169058 0.121391 -0.048396 0.052393 0.016718 -0.135189 0.096909 0.045433 -0.22634
0.025954 0.048198 0.054795 0.144218 0.083935 -0.082016 -0.061098 -0.065882 0.063891 -0.091967 0.053036 -0.051883 -0.153722 0.099005 0.178227 -0.00442 0.027864 0.004874 -0.151477 -0.042476 -0.09742 0.084607 0.20836 0.129896 -0.015808 0.060912 0.08813 -8.99E-4 0.129345 -0.205577 0.166083 0.135937 -0.118213 3.07E-4 -0.039162 -0.05203 0.045419 0.077214 0.045091 8.19E-4 -0.023088 -0.193832 -0.029909 0.020838 0.027132 -0.063869 -0.119155 0.048607 0.016827 0.020549 0.049327 -0.067278 -0.163875 0.108587 0.109607 0.036657 0.044113 0.072491 0.03962 -0.138225 0.028965 -0.056085 -0.037368 -0.195409 -0.036685 -0.060147 0.005753 0.03621 -0.013349 -0.086847 -0.117611 -0.025479 0.033353 -0.064342 0.178956 0.07445 0.041243 -0.097374 -0.098029 -0.046945 -0.070611 -0.049286 0.20684 -0.119666 0.06525 0.080044 0.02336 0.013444 0.070756 0.022414 -0.09988 -0.036148 -0.056083 0.082986 0.032181 -0.113374 0.078868 -0.144399 0.087705 0.120886
0.352905 0.550922 -1.128945 -0.511125 0.774489 1.405335 -0.371647 0.106012 -0.779785 -0.640302 -0.68578 1.570717 -0.712288 -0.706705 -0.789609 -0.045278 -1.599722 -2.840112 -0.089543 -1.158838 -1.862605 -0.62748 -0.063542 -0.468696 0.750564 0.033551 -0.772222 -0.188991 -0.163115 0.455978 0.038455 -0.779588 0.172303 -1.114448 -0.548246 -0.008155 1.66721 -0.744821 -0.15746 -2.668482 -0.304702 -0.905716 0.479063 0.151803 -0.94063 -0.044338 -0.906122 -0.456182 0.281891 0.268287 0.47007 0.628019 0.328428 1.471286 -2.345457 0.072073 -0.345477 -0.998199 -1.496897 -0.053061 0.351206 -0.934426 0.295591 0.07336 0.24092 0.486976 0.390085 -0.621556 0.375246 -0.02625 1.957847 1.014101 0.004675 0.08874 -0.900479 -0.462149 0.922254 1.355385 -1.048724 0.105897 1.254466 0.410718 0.321258 1.066395 -0.171761 -0.128774 0.315556 0.697301 -0.180925 0.555334 1.005586 -0.891677 -1.232923 -1.994189 -0.567812 0.204184 -0.947385 -0.051526 -0.987029 0.725141
0.174546 -2.091618 -2.229957 2.116532 1.124194 0.654434 -1.199268 -0.806569 0.039746 -0.658842 -0.642939 0.295541 0.232641 1.819335 2.025957 -1.562273 -2.323995 -2.918465 -0.409799 0.22338 -2.74036 -2.252618 -0.307057 -1.851584 -0.855013 0.427652 1.303244 -0.093205 1.270449 1.068455 0.42455 0.485857 -0.114469 -0.781314 1.083732 1.20589 0.655832 -0.061626 1.709428 0.933519 -1.308513 -0.966002 0.020568 -0.187863 -0.413323 -1.57252 -1.972074 3.497262 -0.942445 -0.219124 2.091992 1.193462 1.028252 0.488955 -1.604832 0.460819 0.916603 0.607999 -1.715487 -1.038746 0.047609 -0.536787 1.020723 -0.382137 2.521372 -1.047191 1.491055 -1.62445 -0.554106 0.691197 2.404207 0.328184 -0.882193 1.250365 -1.727749 -1.272435 -1.180857 -0.821222 -0.404291 0.618077 1.035154 0.405418 -3.187345 2.076513 2.322226 0.489301 2.214018 1.769888 -0.670327 -0.820002 2.033189 0.393987 -0.777997 1.320942 0.774546 1.538761 0.323749 -0.904698 0.655913 1.687343
-0.134008 -0.036238 0.101819 0.06978 -0.145865 -0.11309 -0.163883 -0.247747 -0.146164 0.193955 -0.051005 0.077787 -0.090948 -0.019506 0.03762 0.109274 -0.186923 0.113068 -0.090135 -0.10643 0.04886 0.298286 0.155327 0.059199 0.138458 -0.017476 0.036106 -0.046772 0.004943 -0.02638 0.067951 0.115696 -0.14996 0.043632 -0.1831 0.03796 0.093955 -0.153344 -0.259589 -0.106328 -0.084317 0.174354 0.166607 -0.048267 -0.075681 -0.092909 0.019737 0.073501 -0.119044 0.354156 0.04165 0.064732 -0.045174 -0.111477 0.072813 0.085033 0.143712 -0.014393 0.058013 -0.233979 -0.036168 -0.17949 0.005496 -0.108741 -0.210584 -0.144125 0.11685 0.11331 0.155707 0.156336 -0.052404 -0.018173 0.098398 0.03714 0.121746 0.074775 -0.161222 0.01243 -0.237337 -0.099386 0.093821 0.035655 0.158608 -0.17074 -0.082466 -0.143209 -0.134011 -0.007119 0.162059 0.181588 0.049815 0.034453 -0.093726 0.060205 -0.036982 -0.140768 0.023987 -0.092753 -0.052416 0.060204
-0.102902 -0.169276 0.034753 0.072598 -0.081298 -0.075082 -0.096615 -0.026603 5.44E-4 0.146357 0.206356 0.107302 -0.194244 -0.044606 0.094949 0.1611 0.058148 0.172494 0.072526 -0.054366 -0.06706 0.1068 0.310503 -0.003924 -0.089625 -0.25258 -0.09328 0.174709 0.241097 -0.122062 -0.152979 0.045405 -0.089142 0.29316 -0.067258 -0.085914 0.090365 -0.077835 0.260613 0.141504 0.005742 0.019026 -0.076726 -0.083837 0.029414 -0.178767 -0.036039 0.007358 -0.019533 -0.137729 0.034169 -0.038309 1.44E-4 0.016734 0.074205 -0.12435 0.046743 0.115165 0.103725 -0.079477 -0.019194 -0.003365 -0.068136 -0.087525 -0.099627 -0.079167 0.117746 -0.059187 -0.019016 -0.052425 -0.001099 0.053054 -0.088703 -0.014948 -3.1E-5 -0.179588 -0.087016 -0.073153 0.167758 -0.282999 0.096009 -0.066595 -0.050231 -0.113249 0.038541 0.068928 0.136544 0.129046 0.040265 0.138513 0.047813 -0.066363 -0.00565 0.017347 0.129441 0.039428 -0.149388 -0.256971 0.130871 0.090547
-0.001889 -0.015376 0.011577 -0.079922 0.019615 0.005975 0.018085 -0.133459 0.07886 -0.019014 -0.010821 0.041669 -0.011128 0.097962 -0.060935 0.042309 0.015014 8.49E-4 -0.002449 0.038756 0.0685 -0.030124 0.021652 -0.079703 0.075875 -0.122727 0.144977 0.073106 0.120718 -0.115022 0.047765 0.225363 -0.061747 -0.035103 0.080005 0.064342 -0.011293 0.032618 0.076202 0.118833 0.299047 0.176216 0.148892 -0.105455 -0.022399 0.118571 -0.05437 -0.136016 -0.04767 0.112361 0.012505 0.001737 0.056998 -0.132972 0.205737 0.014869 0.130993 0.242588 0.100312 0.073252 -0.019374 -0.073147 -0.042245 -0.05193 0.119558 0.067972 -0.198268 0.013905 0.103121 -0.09962 -0.010563 -0.219254 -0.117595 0.0375 -0.028297 0.03039 -0.116152 0.021365 0.041774 -0.247365 -0.187561 -0.063496 -0.088808 -0.029223 0.057963 0.069802 -0.07258 -0.052825 0.064478 0.040761 0.149345 0.085248 0.239559 0.137326 -0.140966 0.005439 0.083517 -0.02486 -0.028184 0.111642
-0.134008 -0.036238 0.101819 0.06978 -0.145865 -0.11309 -0.163883 -0.247747 -0.146164 0.193955 -0.051005 0.077787 -0.090948 -0.019506 0.03762 0.109274 -0.186923 0.113068 -0.090135 -0.10643 0.04886 0.298286 0.155327 0.059199 0.138458 -0.017476 0.036106 -0.046772 0.004943 -0.02638 0.067951 0.115696 -0.14996 0.043632 -0.1831 0.03796 0.093955 -0.153344 -0.259589 -0.106328 -0.084317 0.174354 0.166607 -0.048267 -0.075681 -0.092909 0.019737 0.073501 -0.119044 0.354156 0.04165 0.064732 -0.045174 -0.111477 0.072813 0.085033 0.143712 -0.014393 0.058013 -0.233979 -0.036168 -0.17949 0.005496 -0.108741 -0.210584 -0.144125 0.11685 0.11331 0.155707 0.156336 -0.052404 -0.018173 0.098398 0.03714 0.121746 0.074775 -0.161222 0.01243 -0.237337 -0.099386 0.093821 0.035655 0.158608 -0.17074 -0.082466 -0.143209 -0.134011 -0.007119 0.162059 0.181588 0.049815 0.034453 -0.093726 0.060205 -0.036982 -0.140768 0.023987 -0.092753 -0.052416 0.060204
-0.033059 -0.003841 0.030108 0.163011 0.105352 0.147194 -0.036178 -0.068444 0.038477 0.06238 0.121326 0.096957 -0.03952 0.059737 0.108019 0.088335 -0.065316 -0.055853 0.004409 0.284164 -0.120727 0.012958 0.211637 -0.05379 -0.076821 0.048247 -0.036615 0.131151 0.105124 -0.132452 -0.004586 0.047553 0.018431 0.082375 -0.037184 -0.057503 -0.05921 0.098712 0.126763 0.00903 -0.082714 -0.216583 0.133272 -0.007393 0.089772 -0.115459 0.110736 -0.118571 0.00702 0.039542 0.055305 -0.1787 -0.106418 -0.041918 -0.069195 0.051072 -0.156254 0.108775 0.05522 -0.136086 -0.016338 0.004462 -0.009961 -0.119515 0.133079 0.064662 -0.03509 -0.099412 0.227227 0.051663 0.156802 -0.189851 -0.023435 0.082887 0.088759 0.099828 -0.107043 0.02213 -0.023956 -0.070325 -0.032073 0.11249 0.114516 -0.11666 -0.042468 0.059348 -0.026855 0.038676 0.052443 0.077647 0.162325 -0.039425 -5.71E-4 0.002889 -0.038787 -0.036086 -0.056988 0.015773 -0.025481 0.004083
-0.101423 -0.111223 0.204943 0.132795 0.05788 0.002316 -0.036371 0.128742 -0.099987 -0.203751 -0.005747 -0.076661 0.061493 0.129923 0.03874 0.055627 -0.263836 -0.184604 0.011424 -0.007279 0.055684 -0.07375 0.014547 0.147661 -0.137906 -0.053606 -0.109156 0.116562 0.167124 -0.150614 0.060862 0.022001 -0.10916 0.25015 -0.078021 -0.006786 -0.141903 0.141898 -0.160938 -0.126208 0.099444 0.188346 -0.14893 0.061422 -0.089297 -0.141281 -0.053777 0.056071 -0.033157 -0.040216 0.128842 -0.039396 0.153451 -0.099596 0.009729 -0.066533 -0.087515 -0.014641 -0.090516 0.13632 -0.012204 -0.13469 0.080049 0.037476 -0.028325 0.033903 0.019994 0.045848 0.02642 0.068674 -0.091896 0.015101 0.058041 -0.015662 0.014985 0.073895 0.155834 -0.167799 -0.15315 0.063915 0.007151 -0.100262 0.020611 0.155 -0.277609 0.145833 0.11182 0.07878 -0.028091 -0.019437 0.04089 -0.021383 0.025695 0.057773 -0.115688 0.142605 -0.064814 -0.090623 0.132294 -0.086139
-0.109163 -0.191478 0.176938 0.158747 -0.094603 0.014841 -0.097218 0.023553 -0.118593 0.29949 0.062688 0.138529 0.020623 0.106482 0.050719 0.08577 0.066896 0.274331 0.045083 0.035189 -0.17428 0.162765 0.114625 0.100983 -0.212349 0.005975 -0.044796 -0.0677 0.13026 -0.162669 -0.063661 -0.080109 -0.010793 0.127913 -0.205086 0.034233 0.016162 -0.138748 -0.03618 0.060254 -0.004051 0.254393 -0.064235 -0.256121 0.010128 -0.088343 0.124967 -0.071961 -0.124844 0.025526 0.107904 -0.098654 2.27E-4 0.06325 0.167935 0.066961 -0.050435 -0.029641 0.157162 -0.015336 0.072403 0.002033 -0.05103 0.012141 -0.007908 0.027512 0.104649 0.051594 0.084238 0.010704 -0.124188 -0.04354 0.016384 -0.051366 -0.095012 0.002764 -0.100361 -0.193219 0.091158 0.018723 0.004189 0.090707 0.054073 -0.281747 0.119344 0.007114 -0.050421 0.145364 0.172627 -0.030182 -0.154156 -0.020021 0.013087 0.026662 0.130919 -0.147982 0.047687 -0.05669 -0.013603 0.0402
2.591633 1.608701 -2.087245 2.00752 3.012652 4.995656 0.847355 -1.594905 -0.365708 -1.629805 -1.650237 3.712017 -0.231463 -0.537534 -2.036098 2.002639 -0.696666 -4.310136 -1.477319 -1.356504 -0.581823 -1.830239 -0.272773 -1.648095 0.090509 0.008711 0.330842 0.396714 2.341035 -0.526067 1.155793 -1.730906 -1.010387 -1.342646 -1.939355 0.734869 0.727366 0.700702 1.516974 -2.133831 -0.280653 -3.051674 0.017123 0.532043 1.478449 0.375441 0.920129 1.548929 1.087478 0.668327 0.707416 3.249232 -0.362503 1.273221 -2.929682 -0.245389 1.633444 -0.119836 0.103459 -3.445175 0.513245 0.427807 0.738792 1.448203 0.501908 0.362882 -0.731533 -0.391201 0.037778 3.053553 4.030229 1.793904 1.24136 0.081706 -1.401954 -0.638804 -0.487445 -0.267924 0.012844 0.538179 -0.241935 -0.068756 1.351665 -0.112558 0.001814 0.447262 0.833441 -0.023876 1.212707 1.514635 -0.568611 0.376173 -3.663739 -4.345135 -0.444319 2.139788 -2.53093 0.92131 -1.399435 1.763954
-0.032343 -0.090495 0.116196 0.109467 -0.105508 0.07639 0.006315 -0.09827 -0.061328 0.043131 0.004713 -0.087505 0.030902 -0.276993 -0.276149 0.07313 -0.116243 -0.020937 -0.008798 -0.263795 -0.035519 0.117392 0.085048 0.164685 0.012376 -0.112902 -0.123586 -0.11131 0.274305 0.052654 -0.14195 -0.100923 -0.174816 -0.087876 -0.086186 -0.178495 -0.056514 7.8E-4 -0.110101 0.122521 0.160546 0.08158 -0.143743 0.324887 -0.003884 -0.173489 0.182934 -0.076327 -0.135303 0.291227 0.089771 0.030549 0.029191 0.038665 0.019767 -0.088898 0.003707 -0.11127 0.094425 -0.10367 0.086015 0.165059 -0.117461 0.149898 -0.180768 0.266746 0.049208 -0.014816 0.029419 -0.235981 -0.038327 -0.058814 -0.096377 0.066232 0.118314 -0.400703 0.032143 0.025484 0.028107 0.024545 0.017318 0.153427 0.003615 -0.125353 0.223192 0.087379 0.103091 -0.035203 0.150171 0.086079 -0.17531 0.233349 0.150602 0.037622 0.042641 0.035504 -0.053038 0.022578 0.088273 0.019157
-0.114447 0.053988 0.144058 0.121455 0.155765 -0.09418 0.232478 -0.126301 -0.097547 0.119958 0.100254 0.110981 -0.052188 -0.143462 0.08874 0.274276 -0.175607 0.128403 -0.099234 0.079358 0.114335 0.122893 0.100116 -0.152432 0.149052 -0.02432 -0.017144 0.041924 0.011093 -0.003777 -0.070754 -0.123471 -0.048497 -0.014712 -0.021674 0.02961 0.22929 0.026399 0.136261 0.051731 -0.016557 -0.044577 -0.171697 -0.030093 -0.161784 0.090158 0.168565 -0.084322 0.052942 0.091001 0.019369 0.012797 -0.16493 -0.072829 -0.127227 -0.048367 0.115498 0.092317 0.109393 -0.081622 -0.114184 0.117926 -0.036727 0.016347 -0.246892 -0.082066 -0.052521 0.048997 0.046912 0.081976 0.204359 0.054901 -0.035383 -0.015117 0.02565 0.080077 -0.023532 0.1446 -0.090809 -0.053288 -0.012351 -0.123654 -0.062094 -0.166225 0.185477 0.041179 -0.059679 -0.010851 0.245977 -0.038892 -4.85E-4 0.068271 -0.129639 -0.126216 0.00621 0.145987 0.239133 -0.037542 0.074448 -0.148725
-0.181231 -0.071474 0.197316 0.112359 0.004019 0.038578 0.090482 -0.222651 -0.045741 -0.200452 -0.007412 0.077691 -0.02264 -0.167049 -0.154321 0.148862 -0.085308 -0.169643 0.204656 -0.087189 0.030417 -0.323126 -0.011068 0.161138 0.011742 -0.10256 -0.16827 0.107688 0.292013 0.104069 -0.487365 0.001096 0.016434 0.160413 -0.036328 -0.201213 -0.004535 -0.121475 0.437444 0.095765 0.122227 -0.139599 -0.002292 0.347255 -0.163488 -0.002867 0.088704 0.008713 -0.331011 0.076408 0.044247 3.72E-4 -0.369172 0.072639 -0.253244 -0.040701 -0.542269 0.156918 -0.011931 -0.025003 -0.221141 0.011192 -0.196173 -0.114263 0.037715 0.373279 -0.024242 0.111103 -0.114347 -0.317119 -0.010176 0.14756 -0.223434 0.037261 0.039891 -0.18745 -0.252784 0.464522 -0.027138 -0.171598 -0.069519 0.485774 0.0925 -0.182607 0.217206 0.145966 0.16189 0.094079 -0.059587 0.260122 0.051156 0.149962 -0.35029 -0.138352 0.255966 0.007368 0.143928 0.152068 -0.119888 -0.093814
-0.106249 -3.7315 0.591904 0.157382 2.110796 3.230976 0.101095 -1.670975 0.101397 -0.968049 -3.767652 2.261218 -1.097841 3.271447 -1.332592 1.254181 -1.244047 -0.791884 -1.624103 -3.626022 -1.648536 -0.799453 -0.281701 0.445907 -0.655439 -1.282457 0.489581 1.461994 0.377394 -2.636997 -1.34101 0.978771 2.169161 -1.073113 -0.907881 0.091952 1.032153 -0.249082 -0.44398 -0.697615 -1.674232 -0.069947 -2.141636 1.303561 2.35664 1.675873 1.002739 -1.222037 -1.387448 -2.158375 -1.545923 -0.203437 -1.900818 -0.240151 -1.401873 -0.788221 -2.315672 -1.996473 -5.323162 3.103481 -1.614062 1.573674 -0.315364 -3.587818 2.738789 1.037194 -1.797487 -2.260662 -0.371824 -0.189682 -1.167335 1.691872 0.271615 3.33262 0.871769 -1.698867 2.072591 0.9442 -2.387973 -2.579113 4.10396 0.221867 2.278437 -0.167421 -0.391847 -2.208681 1.476901 1.374738 2.914176 -1.818705 0.829369 0.412771 -1.625873 -1.342916 3.007472 -1.185995 -2.475259 -0.636166 2.038309 0.528361
-0.337871 -0.029349 0.330205 0.003552 0.005965 0.317325 0.028369 0.01308 -0.28889 0.08608 0.122728 0.004971 0.012204 -0.092386 -0.166743 0.154265 0.251402 0.025744 0.077344 0.358204 -0.267469 0.379876 0.399338 -0.41515 0.483091 -0.166794 0.470296 0.167143 0.08455 0.143976 -0.152209 -0.224798 -0.163077 0.422392 -0.352172 -0.241332 -0.042557 -0.038498 0.379439 -0.167481 -0.130568 -0.166572 0.098164 -0.240212 0.19782 -0.317346 0.040856 -7.8E-4 0.017369 -0.449546 -0.233249 -0.062204 -0.351037 -0.32123 -0.163122 -0.321005 0.342031 -0.202214 0.465819 -0.219908 0.385261 0.128002 -0.436522 -0.34718 0.197838 -0.056779 0.331129 -0.045577 0.193595 -0.23896 0.317415 -0.103214 -0.077894 0.063087 -0.386071 -0.294006 -0.085658 0.374454 -0.254133 0.198373 -0.006204 0.473463 -0.293893 -0.066837 0.100703 -0.221778 0.29488 -0.092674 0.153085 0.337899 0.401858 -0.074187 -0.212472 0.050655 0.006616 -0.325312 0.34837 0.14719 0.105667 0.268007
0.057851 -0.112333 0.152677 0.015354 -0.072163 0.067285 -0.147876 -0.074365 -0.153253 -0.110171 0.07493 0.063483 0.134801 0.083522 0.220312 0.013096 0.024994 0.10394 0.141498 -0.066545 0.042082 0.149376 0.210837 0.07758 -0.252652 0.020069 -0.068306 0.034 0.17204 -0.161005 -0.014845 -0.111505 0.168575 0.181876 -0.106426 0.071549 -7.12E-4 -0.06867 -0.096267 -0.021019 -0.044712 0.09787 0.049583 -0.169518 0.045439 -0.116576 -0.027082 -0.064112 -0.08411 0.032248 0.075853 -0.121975 -0.009974 0.018067 0.126962 0.235211 -0.085549 -0.143186 0.204696 -0.210897 -0.028384 -0.067682 -0.157452 -0.173626 0.008413 -0.185294 0.058415 -0.07428 0.067995 0.110689 0.035446 0.008946 -0.16012 0.010064 -0.030497 0.00692 -0.073523 -0.101156 0.069196 0.072953 0.030827 0.033325 -0.111168 -0.19431 0.088331 0.078878 -0.02618 0.253541 0.213063 0.143922 0.072956 0.155627 0.020277 0.091011 0.042992 -0.010879 -0.188462 0.022014 -0.070273 0.010734
2.591633 1.608701 -2.087245 2.00752 3.012652 4.995656 0.847355 -1.594905 -0.365708 -1.629805 -1.650237 3.712017 -0.231463 -0.537534 -2.036098 2.002639 -0.696666 -4.310136 -1.477319 -1.356504 -0.581823 -1.830239 -0.272773 -1.648095 0.090509 0.008711 0.330842 0.396714 2.341035 -0.526067 1.155793 -1.730906 -1.010387 -1.342646 -1.939355 0.734869 0.727366 0.700702 1.516974 -2.133831 -0.280653 -3.051674 0.017123 0.532043 1.478449 0.375441 0.920129 1.548929 1.087478 0.668327 0.707416 3.249232 -0.362503 1.273221 -2.929682 -0.245389 1.633444 -0.119836 0.103459 -3.445175 0.513245 0.427807 0.738792 1.448203 0.501908 0.362882 -0.731533 -0.391201 0.037778 3.053553 4.030229 1.793904 1.24136 0.081706 -1.401954 -0.638804 -0.487445 -0.267924 0.012844 0.538179 -0.241935 -0.068756 1.351665 -0.112558 0.001814 0.447262 0.833441 -0.023876 1.212707 1.514635 -0.568611 0.376173 -3.663739 -4.345135 -0.444319 2.139788 -2.53093 0.92131 -1.399435 1.763954
-0.00397 -0.116091 -7.03E-4 0.061997 0.271948 0.15061 -0.173451 0.08214 -0.142571 -0.202642 0.018008 0.117828 -0.117526 0.210818 0.247066 0.240019 -0.104516 -0.070086 0.062518 0.012108 -0.048313 -0.060647 0.015848 -0.099163 -0.113884 0.063599 0.105252 0.039637 -0.201674 -0.048668 0.235699 -0.335168 -0.164895 -0.065982 -0.203881 -0.12857 0.148143 0.148306 0.085578 0.12547 0.0087 -0.047522 -0.155058 -0.095733 -0.128435 -0.015083 -0.13132 0.020962 -0.087453 -0.071982 -0.0881 0.004916 -0.160117 -0.042069 -0.211708 -0.065974 0.07075 -0.104981 -0.035849 -0.163509 -0.084193 -0.109835 0.191047 -0.017055 -0.162289 0.050889 -0.079374 -0.111867 0.189218 -0.032333 0.072861 -0.095053 0.003551 0.00878 0.121661 -0.020358 0.028814 0.116086 -0.232007 0.133027 0.126475 0.203857 0.02352 0.019495 0.090913 -0.269693 0.134962 0.153146 0.273317 0.080559 -0.034421 -0.018324 -0.057265 0.119496 0.017715 -0.129447 -0.079652 -0.081637 -0.125905 0.123271
0.017595 0.047381 -0.011905 0.14177 0.039829 0.013092 -0.226546 -0.120301 -0.076592 -0.096096 0.058872 0.166869 0.029489 0.069404 0.251393 0.23173 0.183253 0.018509 -0.070582 0.12847 0.025994 -0.087076 0.146641 0.128997 -0.105153 -0.006183 -0.076131 0.132562 0.231679 -0.051329 -0.001456 0.027733 -0.117484 -0.026472 0.083586 -0.164204 0.028282 -0.034986 -0.028326 0.107441 -0.022609 -0.184053 0.074603 -0.077348 0.083267 -0.069222 -0.106398 0.024495 -0.192229 0.003197 0.163404 -0.323474 -0.149112 -0.094056 0.286331 7.86E-4 -0.045439 -0.077432 0.001057 -0.096501 0.023262 0.031893 0.053235 -0.033755 -0.07177 -0.009448 -0.135941 -0.032254 -0.064332 -0.042735 -0.097079 0.006077 0.115069 -0.051683 0.054621 -0.133259 -0.092694 -0.110287 0.07691 0.077185 -0.082794 -0.124098 -0.074087 -0.191105 0.085468 -0.041483 -0.108055 0.037771 0.051907 0.035972 -0.232879 -0.016776 -0.176181 0.151268 0.172005 -0.017354 -0.027773 -0.200737 0.022381 -0.095134
-0.171789 -0.006273 0.059886 0.169022 0.044186 0.063082 -0.05534 -0.027505 -0.118388 0.058692 0.04 0.120164 0.148743 -0.07685 0.167751 0.125568 -0.192318 0.120941 0.004502 -0.0242 -0.17934 0.031238 0.072752 0.083896 -0.166098 -0.044515 -0.05836 -0.041809 0.189354 -0.015675 0.014642 -0.15871 -0.027474 0.140623 -0.100423 0.045003 0.043079 -0.011433 -0.053601 0.03363 -0.014421 -0.062689 -0.027584 0.122281 -0.080956 -0.080338 -0.032523 -0.023953 -0.212738 0.017416 0.1197 -0.050757 -0.03697 0.053921 -0.067185 -0.224643 0.037885 0.145902 0.11429 -0.032933 0.009361 -0.037006 0.167389 -0.039447 -0.085959 0.077689 0.11408 -0.072277 0.050279 0.030863 0.094497 -0.00462 0.136818 0.111563 -0.026028 0.043062 -0.281029 -0.141188 -0.019887 -0.110642 0.124728 -0.094026 0.165531 -0.085625 0.001865 -0.0761 0.217293 0.0629 0.296806 -0.129193 -0.045274 -1.47E-4 0.016644 0.208614 -0.059732 -0.103978 0.033846 0.063251 -0.125777 0.145024
-0.026796 -0.042673 0.238879 0.086629 -0.138012 0.10396 -0.253822 -0.095431 0.040919 0.170772 0.041344 0.124978 0.020786 -0.119389 0.148704 -0.031682 -0.323068 0.136518 0.046353 0.11936 0.107688 0.061635 0.15761 0.055757 -0.271554 -0.161478 0.170483 -0.146057 0.185458 -0.185069 -0.255931 -0.199377 -0.09627 0.043844 -0.107663 -0.207045 0.217879 -0.004055 -0.228915 0.107414 0.026985 -0.049877 -0.096715 -0.065689 0.101159 0.176814 -0.014127 0.138586 -0.025157 -0.105818 0.147084 -0.026367 -0.129457 0.048116 0.154455 -0.0517 -0.130753 0.250435 0.113382 -0.104177 -0.120084 -0.038847 0.12467 0.019337 -0.213328 0.078201 -0.170862 0.103183 -0.006453 0.056958 -0.088844 -0.002764 -0.076232 0.015034 -0.032965 0.02451 -0.221616 -0.098836 -0.137238 -0.10204 -0.242392 0.131154 0.154015 0.101464 0.124106 0.03736 -0.162921 0.012638 -0.039242 0.190272 -0.033751 -0.011746 -0.158403 0.026714 0.075489 -0.128742 0.087661 -0.057824 0.012037 0.018141
-0.172636 0.01033 0.161959 -0.183546 0.084826 0.001454 -0.012333 0.025399 -0.140257 -0.043156 0.065558 -0.05232 0.099666 0.00853 0.143223 0.114338 0.12441 0.125198 0.033525 0.036631 -0.100414 0.095781 0.079415 0.218911 -0.202953 -0.176273 0.003928 -0.080203 0.064255 -0.151939 -0.015762 -0.091797 0.058406 0.259075 0.142232 0.005009 -0.027051 -0.151772 -0.009225 0.087933 -0.047953 0.058876 -0.00632 0.200481 -0.051352 -0.062672 -0.004913 0.138106 0.006286 0.095799 0.155862 0.073325 -0.063141 -0.126818 0.080382 -0.03216 0.029759 0.0419 0.073559 0.032012 0.00921 -0.174483 -0.047889 -0.051292 -0.092714 0.114818 -0.104232 -0.056323 -0.006118 -0.033086 -0.071821 -0.058985 -0.082653 -0.01357 0.127079 -0.029265 0.032993 0.09375 -0.047027 -0.121647 0.078634 0.058114 0.019442 1.0E-5 0.027019 0.006064 0.011752 0.078438 0.206987 0.051293 -0.026753 -0.10776 0.076365 -7.58E-4 -0.123035 -0.129837 -0.027931 -0.05268 0.159075 3.06E-4
