-2.109877 -1.641768 1.34276 0.072921 -0.954711 2.355584 0.759031 2.416638 1.379361 1.183157 0.115841 0.042194 2.592993 2.785752 -1.134256 -3.230556 2.672905 1.013128 -1.070663 0.378683 -0.874595 -1.003082 -1.561189 -3.854615 1.434801 0.860353 -0.711143 1.766125 1.522827 -1.334538 0.404711 0.400959 1.05315 0.700827 0.445219 0.576569 -3.171314 -1.086559 -1.12118 1.810939 -0.357468 1.596721 1.910039 -1.583562 -2.12365 0.038308 0.101366 1.380048 -1.158226 2.71102 0.163956 -0.617122 -0.172846 1.118364 -0.277389 1.018891 0.425638 -1.802507 -1.297572 1.248576 1.904586 -1.557352 -0.102451 0.609282 1.032486 1.221853 3.900896 -0.731417 0.437565 -0.613276 0.383987 2.796062 0.293929 0.090007 0.971998 0.500595 -0.046251 -0.101892 1.298225 -1.189488 0.027751 0.165122 2.648845 0.024042 1.799968 -1.60014 -0.077101 0.002516 -2.812966 1.031935 -2.937759 -1.046352 0.130861 2.231944 -2.832232 -2.210037 -2.146421 -0.070148 -0.990774 -0.852775
-0.153422 -0.052615 -0.063594 0.019803 -0.146416 -0.053317 0.020497 -0.07164 -0.070107 -0.049766 0.001265 -0.02057 -0.163181 0.12315 0.091086 0.075841 0.029253 -0.087773 0.047493 0.085578 -0.005207 0.010989 0.056665 0.074813 -0.220696 -0.007855 0.082467 0.016656 0.142495 -0.133785 0.12885 0.080152 -0.077827 0.233689 -0.08735 -0.078797 -0.080572 0.019767 -0.015145 0.051267 -0.064195 -0.1563 -0.10305 0.140761 -0.037206 -0.114297 -0.068464 0.036227 0.028715 -0.044498 0.071287 0.105295 -0.090303 -0.066563 -0.028222 0.07964 -0.177006 0.140886 -0.010572 -0.143884 0.150322 -0.146432 -0.022137 -0.174479 -0.13479 -0.104321 -0.028913 -0.070961 -0.032032 0.136053 -0.044788 -0.087875 -0.090805 -0.098102 0.0693 -0.021874 -0.226775 -0.005961 -0.029307 -0.171778 0.060407 -0.082736 0.155743 -0.051777 -0.005579 -0.071017 0.07143 0.083528 0.167892 -0.00279 -6.09E-4 0.011948 -0.002333 0.162115 -0.198082 -0.19362 0.003869 -0.128568 0.040569 -0.076969
-0.256602 -0.1243 -0.156584 0.124412 -0.019969 -0.019519 -0.176106 -0.223567 0.360964 -0.058945 0.2274 0.078807 0.036315 -0.212986 0.079996 0.37189 0.049028 -0.14749 0.248545 -0.021999 0.035611 0.068238 0.003318 0.294289 -0.27846 0.147775 -0.165829 0.169574 0.207134 -0.345593 0.030217 -0.097008 -0.094597 -0.026577 -0.009955 -0.055469 0.404379 0.255444 0.064021 -0.011688 0.052161 0.032995 0.271335 0.153037 -0.114 -0.057098 -0.355347 0.18693 -0.400689 -0.018458 0.128047 -0.046549 -0.129293 0.17597 -0.199076 0.167656 0.17999 0.357644 0.535906 -0.22477 0.266438 -0.215008 0.098149 -0.012695 -0.055109 -0.130176 -0.013861 0.018792 -0.004034 -0.348018 0.033002 -0.239223 0.030155 -0.033727 -0.067928 -0.028393 0.108484 -0.168794 -0.056857 -0.247675 0.321424 -0.075121 0.218114 0.0667 -0.223192 0.004721 0.060296 -0.149135 0.175294 -0.091457 0.107553 -0.155067 -0.051981 -0.007581 -0.132345 -0.099657 -0.011566 -0.077891 0.003102 0.419793
-0.029286 -0.014455 0.059149 0.033118 -0.032637 -0.067667 -0.08093 0.027355 -0.160822 0.06104 0.064252 -0.015261 -0.23257 0.159481 0.071223 0.078452 0.02138 0.031978 -0.070376 0.051055 0.167258 -0.024817 0.197827 0.065265 -0.076168 0.011676 -0.029734 0.143341 0.05525 -0.036865 -0.015966 0.031316 0.07905 0.08625 0.02865 0.036293 -0.052834 -0.183621 0.138387 0.091953 -0.154564 -0.126113 -0.090987 0.031969 0.097322 0.022643 -0.092082 -0.019082 -8.9E-4 -0.133906 0.06438 -0.089912 0.03693 0.137816 -0.11469 0.064534 -0.08614 0.001976 0.0226 -0.148874 -0.107001 0.042298 -0.03552 -0.084001 -0.01756 -0.03727 0.068266 -0.097254 0.068175 0.036138 0.111631 0.014317 -0.061953 -0.078465 0.038628 -0.078335 -0.164786 -0.038389 0.117773 -0.136854 0.103996 -0.032816 0.069406 0.009716 -0.086636 0.182745 0.01029 -0.019687 -0.087212 -6.07E-4 0.063293 -0.016581 -0.118043 -0.009156 0.083954 0.032562 0.046468 -0.053734 -0.025457 -0.002224
0.0 0.0 0.0 0.0 0.0 0.0 0.0 0.0 0.0 0.0 0.0 0.0 0.0 0.0 0.0 0.0 0.0 0.0 0.0 0.0 0.0 0.0 0.0 0.0 0.0 0.0 0.0 0.0 0.0 0.0 0.0 0.0 0.0 0.0 0.0 0.0 0.0 0.0 0.0 0.0 0.0 0.0 0.0 0.0 0.0 0.0 0.0 0.0 0.0 0.0 0.0 0.0 0.0 0.0 0.0 0.0 0.0 0.0 0.0 0.0 0.0 0.0 0.0 0.0 0.0 0.0 0.0 0.0 0.0 0.0 0.0 0.0 0.0 0.0 0.0 0.0 0.0 0.0 0.0 0.0 0.0 0.0 0.0 0.0 0.0 0.0 0.0 0.0 0.0 0.0 0.0 0.0 0.0 0.0 0.0 0.0 0.0 0.0 0.0 0.0
0.0 0.0 0.0 0.0 0.0 0.0 0.0 0.0 0.0 0.0 0.0 0.0 0.0 0.0 0.0 0.0 0.0 0.0 0.0 0.0 0.0 0.0 0.0 0.0 0.0 0.0 0.0 0.0 0.0 0.0 0.0 0.0 0.0 0.0 0.0 0.0 0.0 0.0 0.0 0.0 0.0 0.0 0.0 0.0 0.0 0.0 0.0 0.0 0.0 0.0 0.0 0.0 0.0 0.0 0.0 0.0 0.0 0.0 0.0 0.0 0.0 0.0 0.0 0.0 0.0 0.0 0.0 0.0 0.0 0.0 0.0 0.0 0.0 0.0 0.0 0.0 0.0 0.0 0.0 0.0 0.0 0.0 0.0 0.0 0.0 0.0 0.0 0.0 0.0 0.0 0.0 0.0 0.0 0.0 0.0 0.0 0.0 0.0 0.0 0.0
0.20461 -0.166756 0.038146 0.047243 0.125238 -0.073833 -0.085065 0.00104 0.019704 -0.243412 0.016709 0.0694 -0.130919 0.200043 0.217566 0.002633 0.126128 0.095798 -0.079815 0.041479 -0.029584 0.147163 0.036164 -0.031427 -0.199607 0.047198 -0.004909 0.069272 0.195524 0.001992 -0.099026 0.003667 -0.048972 -0.019635 -0.013023 0.004434 0.018591 -0.032837 0.088044 0.050994 0.076305 -0.226519 -0.011972 0.11313 0.025772 0.085519 -0.037052 0.057438 0.107295 0.049766 0.00145 0.023882 0.146907 -0.167524 0.069246 -0.25554 0.04342 0.059759 -0.152636 0.136538 -0.097229 0.048584 -0.019764 0.099383 -0.06156 0.043025 0.007856 -0.042876 -0.144602 0.086851 0.016789 0.083486 0.079693 -0.05871 -0.020907 -0.048861 0.160337 0.148756 -0.068688 -0.041918 0.109307 -0.209784 -0.055152 -0.202888 0.12491 -0.026853 0.020186 -0.041216 0.003019 -0.025021 -0.207269 0.152877 -0.034352 0.170913 -0.007669 -0.084765 -0.014427 -0.005015 0.069233 0.097403
0.053284 -0.02831 0.073534 0.043655 -0.071761 0.023829 -0.089469 -0.149685 -0.02029 0.002805 -0.115475 0.10861 -0.187293 0.173159 0.10573 -0.027871 -0.046233 -0.019196 -0.123889 0.145442 -0.244349 -0.141501 0.058057 0.183622 -0.171211 -0.100848 -0.030764 -0.006491 0.033087 -0.010223 -0.099035 0.046627 -0.06875 0.271824 -0.227026 -0.065529 -0.022397 -0.104088 -0.155273 -0.113572 -0.201725 -0.123283 0.001715 -0.078569 0.141362 -0.079199 -0.092461 -0.16356 0.008255 0.01264 0.032743 -0.040167 -0.141769 -0.092711 0.13236 0.061398 -0.21891 0.014964 -0.088068 -0.097294 -0.04269 -0.23188 -0.022815 -0.018621 0.004086 0.036345 -0.005373 -0.048773 -0.07733 0.005778 0.17246 -0.043684 0.107732 0.1208 -0.018265 0.170388 0.011399 -0.032943 0.033442 0.026036 0.01454 0.053651 0.169479 -0.031658 -0.080207 0.056691 -0.007069 0.013756 0.031409 0.087834 0.008524 -0.098607 0.024264 0.189625 0.019321 -0.036829 -0.182828 0.059476 -0.001309 -0.070991
2.01044 1.232296 -2.549912 -2.032197 2.108218 0.350754 3.984176 -0.781111 1.754388 -2.314295 2.355634 -1.525834 1.226472 -1.541329 -3.304575 2.991044 -1.391115 -2.323146 -2.15385 -2.980392 2.344315 -2.676041 1.909837 -5.523956 -1.061176 -1.804773 -0.560027 -2.255916 -1.094577 -1.063408 0.662731 -2.102897 -3.864523 -7.571391 -1.344896 0.094571 0.367136 1.570184 0.648031 -0.688728 -0.946578 -0.092235 -2.489474 -1.986418 -1.624544 2.498297 1.250083 -1.068359 1.883808 -2.927913 -1.745434 -2.058515 -0.512999 0.410537 1.644372 -2.957222 1.082306 2.233394 3.431873 -2.073999 1.844186 -1.494935 0.390434 1.564615 -2.929395 -0.086005 -1.048035 -6.680551 1.315066 2.524979 4.404657 4.649625 1.632009 -3.155071 -4.040797 -1.548602 1.77773 -0.139533 -0.426028 0.428942 0.053434 -1.593569 3.168037 1.766949 4.17124 2.646524 2.776018 3.211581 -0.17617 -0.149054 -1.677979 1.48727 -4.970527 -4.785122 -2.199308 0.014736 -3.178869 1.436958 -1.954018 -3.116458
3.635499 -2.667169 -0.727708 -3.593243 -0.549419 0.733175 0.172204 3.791371 0.328269 2.256884 -1.015368 -2.454698 -0.815327 0.355508 2.474531 -0.626027 0.396756 -3.61148 4.060195 3.372732 -1.01888 -1.349799 1.899754 -0.174013 0.991901 2.851184 0.899687 3.088529 -1.024262 -0.381274 3.254091 1.887557 1.562388 -0.149757 -0.764631 -2.263043 0.226559 -4.539397 -2.292776 2.572466 -0.324225 -7.833081 0.710472 4.044321 2.252584 -2.530319 -4.440532 0.373135 2.812138 2.085804 3.422953 2.060638 1.664619 3.298358 -2.076158 1.662752 3.041493 2.946475 0.282635 0.221192 1.692513 -2.742725 0.560522 -2.398551 -1.409133 1.550326 2.031772 3.358856 -0.618338 1.508416 0.222565 -0.139198 -1.081801 2.824209 0.08751 0.134733 -3.282505 -1.578565 -1.164992 0.083221 4.197984 0.047679 -1.182103 -2.255012 1.520627 0.216734 1.038363 0.444725 0.23736 -2.209961 0.307758 -1.676938 -0.71724 2.328923 3.411993 2.595394 1.158561 -1.974992 -3.019828 -1.602767
-0.041077 -0.046971 0.12257 -0.040869 -0.082339 -0.073433 0.03466 0.022263 -0.168397 0.066255 -0.011146 0.060876 -0.130089 0.050535 -0.003479 0.17541 -0.041009 0.2033 0.038303 0.064522 -0.164091 0.174974 0.130191 0.049081 -0.108982 -0.050347 0.039878 0.064941 0.03257 -0.228331 0.135591 -0.074348 -0.068179 0.062799 -0.117356 -0.078491 0.00313 0.127379 0.134381 -0.010967 -0.169136 -0.04402 -0.05013 -0.035006 0.013893 -0.04264 0.119254 -0.043959 0.101737 -0.002023 0.164761 -0.065662 -0.184098 -0.07635 -0.095084 -0.099496 -0.014413 0.00761 0.055457 -0.124257 0.108216 0.037334 -0.141402 -0.278608 -0.139197 -0.073526 0.04865 0.094266 0.001292 -0.047586 0.112574 0.007568 -0.055103 0.031144 0.068608 -0.143775 -0.193248 -0.059545 -0.02459 -0.030364 -0.045168 0.243924 0.054219 -0.061257 0.160239 -0.077431 0.171155 0.04903 0.342964 0.041425 -0.042881 0.009159 -0.175121 0.026866 -0.086331 0.118966 0.100929 -0.095159 -0.101371 -0.069956
-0.057633 -0.202379 0.260162 0.086105 -0.051187 0.049846 -0.01315 -0.116742 -0.092962 0.176208 0.146422 0.07164 0.142031 -0.101539 0.044188 0.32201 0.222977 0.146448 0.061024 -0.141413 -0.240492 -0.012701 0.315741 0.013867 -0.030898 -0.021794 -0.020434 0.051774 -0.020475 0.008256 -0.039967 0.089406 0.026724 0.112531 -0.235095 0.093237 -0.027771 -0.031804 0.015764 0.082034 -0.03282 0.096861 -0.101337 -0.04995 -0.103938 0.031945 -0.04117 0.041538 -0.126467 0.120658 0.025915 0.001185 -0.01527 0.10584 -3.4E-5 -0.070391 0.104917 0.075322 -0.027404 -0.014368 0.28151 -0.124847 0.030126 -0.103037 -0.181822 0.066298 0.135376 0.071314 0.200727 -0.169752 -0.099451 0.137754 -0.038772 0.088077 -0.090703 -0.055922 -0.255625 0.238152 -0.153054 0.076801 -0.047997 0.245526 -0.091157 -0.066381 0.166586 -0.088639 0.288141 0.012305 0.279977 0.051252 -0.136774 0.120767 0.108505 0.089172 0.011555 -0.094573 0.236078 -0.080454 -0.052399 -0.259034
-0.256602 -0.1243 -0.156584 0.124412 -0.019969 -0.019519 -0.176106 -0.223567 0.360964 -0.058945 0.2274 0.078807 0.036315 -0.212986 0.079996 0.37189 0.049028 -0.14749 0.248545 -0.021999 0.035611 0.068238 0.003318 0.294289 -0.27846 0.147775 -0.165829 0.169574 0.207134 -0.345593 0.030217 -0.097008 -0.094597 -0.026577 -0.009955 -0.055469 0.404379 0.255444 0.064021 -0.011688 0.052161 0.032995 0.271335 0.153037 -0.114 -0.057098 -0.355347 0.18693 -0.400689 -0.018458 0.128047 -0.046549 -0.129293 0.17597 -0.199076 0.167656 0.17999 0.357644 0.535906 -0.22477 0.266438 -0.215008 0.098149 -0.012695 -0.055109 -0.130176 -0.013861 0.018792 -0.004034 -0.348018 0.033002 -0.239223 0.030155 -0.033727 -0.067928 -0.028393 0.108484 -0.168794 -0.056857 -0.247675 0.321424 -0.075121 0.218114 0.0667 -0.223192 0.004721 0.060296 -0.149135 0.175294 -0.091457 0.107553 -0.155067 -0.051981 -0.007581 -0.132345 -0.099657 -0.011566 -0.077891 0.003102 0.419793
-0.029286 -0.014455 0.059149 0.033118 -0.032637 -0.067667 -0.08093 0.027355 -0.160822 0.06104 0.064252 -0.015261 -0.23257 0.159481 0.071223 0.078452 0.02138 0.031978 -0.070376 0.051055 0.167258 -0.024817 0.197827 0.065265 -0.076168 0.011676 -0.029734 0.143341 0.05525 -0.036865 -0.015966 0.031316 0.07905 0.08625 0.02865 0.036293 -0.052834 -0.183621 0.138387 0.091953 -0.154564 -0.126113 -0.090987 0.031969 0.097322 0.022643 -0.092082 -0.019082 -8.9E-4 -0.133906 0.06438 -0.089912 0.03693 0.137816 -0.11469 0.064534 -0.08614 0.001976 0.0226 -0.148874 -0.107001 0.042298 -0.03552 -0.084001 -0.01756 -0.03727 0.068266 -0.097254 0.068175 0.036138 0.111631 0.014317 -0.061953 -0.078465 0.038628 -0.078335 -0.164786 -0.038389 0.117773 -0.136854 0.103996 -0.032816 0.069406 0.009716 -0.086636 0.182745 0.01029 -0.019687 -0.087212 -6.07E-4 0.063293 -0.016581 -0.118043 -0.009156 0.083954 0.032562 0.046468 -0.053734 -0.025457 -0.002224
-0.061594 -0.227015 -0.064598 0.085751 0.055709 -0.115252 0.098874 -0.002609 -0.062124 -0.016658 -0.011848 -0.105218 0.032955 0.044617 0.175595 0.085943 -0.007848 0.12226 0.008084 0.041026 -0.037174 0.040999 0.066728 0.004083 0.043129 0.166034 -0.163641 -0.036575 0.248023 -0.154039 0.030764 0.025528 0.071915 -0.032296 0.062994 -0.068827 0.145668 0.035386 -0.095269 0.032885 -0.042832 -0.128003 -0.125027 0.092873 -0.084033 0.190817 -0.058947 -0.043985 -0.091773 0.129002 0.052792 -0.190028 -0.177824 -0.067063 0.072604 0.004205 -0.05109 0.035714 0.091865 -2.57E-4 0.051786 -0.047373 0.002558 -0.321881 -0.185542 0.026213 0.046162 -0.095982 -0.037531 0.15445 0.052729 0.044221 -0.066347 0.058086 0.082961 -0.129841 -0.183695 -0.110492 0.056468 -0.231994 -0.141955 -0.054379 -0.013998 -0.141732 0.083038 -0.085476 -0.068198 -0.012876 0.005426 0.065834 -0.194993 -0.09152 -0.035543 0.136815 0.040087 -0.177709 0.010565 -0.034311 -0.112604 0.036276
0.0 0.0 0.0 0.0 0.0 0.0 0.0 0.0 0.0 0.0 0.0 0.0 0.0 0.0 0.0 0.0 0.0 0.0 0.0 0.0 0.0 0.0 0.0 0.0 0.0 0.0 0.0 0.0 0.0 0.0 0.0 0.0 0.0 0.0 0.0 0.0 0.0 0.0 0.0 0.0 0.0 0.0 0.0 0.0 0.0 0.0 0.0 0.0 0.0 0.0 0.0 0.0 0.0 0.0 0.0 0.0 0.0 0.0 0.0 0.0 0.0 0.0 0.0 0.0 0.0 0.0 0.0 0.0 0.0 0.0 0.0 0.0 0.0 0.0 0.0 0.0 0.0 0.0 0.0 0.0 0.0 0.0 0.0 0.0 0.0 0.0 0.0 0.0 0.0 0.0 0.0 0.0 0.0 0.0 0.0 0.0 0.0 0.0 0.0 0.0
0.20461 -0.166756 0.038146 0.047243 0.125238 -0.073833 -0.085065 0.00104 0.019704 -0.243412 0.016709 0.0694 -0.130919 0.200043 0.217566 0.002633 0.126128 0.095798 -0.079815 0.041479 -0.029584 0.147163 0.036164 -0.031427 -0.199607 0.047198 -0.004909 0.069272 0.195524 0.001992 -0.099026 0.003667 -0.048972 -0.019635 -0.013023 0.004434 0.018591 -0.032837 0.088044 0.050994 0.076305 -0.226519 -0.011972 0.11313 0.025772 0.085519 -0.037052 0.057438 0.107295 0.049766 0.00145 0.023882 0.146907 -0.167524 0.069246 -0.25554 0.04342 0.059759 -0.152636 0.136538 -0.097229 0.048584 -0.019764 0.099383 -0.06156 0.043025 0.007856 -0.042876 -0.144602 0.086851 0.016789 0.083486 0.079693 -0.05871 -0.020907 -0.048861 0.160337 0.148756 -0.068688 -0.041918 0.109307 -0.209784 -0.055152 -0.202888 0.12491 -0.026853 0.020186 -0.041216 0.003019 -0.025021 -0.207269 0.152877 -0.034352 0.170913 -0.007669 -0.084765 -0.014427 -0.005015 0.069233 0.097403
1.035361 1.319725 0.388011 1.220811 -0.236045 1.447081 -1.78193 3.520004 0.063077 -1.681862 0.545208 0.767849 -1.479444 -1.152839 0.669301 0.685509 -2.946755 -2.239533 -1.187422 -1.793336 0.607402 0.130687 0.296681 -1.569517 1.825066 1.715849 -1.639836 0.849724 -1.742086 0.427502 3.84844 -1.377145 0.671096 -1.312902 -1.152387 0.705431 2.180344 2.97496 1.402098 -0.909545 -1.649212 -0.253421 1.186817 1.193823 3.167747 -0.387379 -0.12198 0.872223 0.13285 0.490844 0.029473 1.345032 0.297008 2.724698 -1.656047 -0.109585 1.500583 -1.148555 -3.658389 1.022988 -1.211381 0.342059 -0.023586 1.22536 -1.874871 -1.957746 -0.188066 -0.235303 -0.067175 1.107354 1.448404 0.838301 1.67396 -0.238039 -0.504146 -1.334739 0.688005 0.37731 -2.953094 0.650433 0.307563 -0.457962 -1.694326 2.40152 -0.816994 0.208705 1.853393 0.15935 -0.989952 1.089235 1.087388 -2.786835 -2.248864 -0.788939 0.405791 0.907533 -1.516669 1.970717 -0.345554 -0.134731
3.15255 -0.907421 -3.642026 3.17996 3.42207 1.79741 -1.227643 1.238019 3.468645 -1.524123 -0.566973 2.247298 -5.676877 -3.465057 0.468239 -0.491914 -1.179421 -5.83672 -1.538257 2.775791 -2.00479 -1.449758 -1.2796 0.206099 1.947127 -2.184334 -0.629776 0.067498 1.962288 0.042905 -1.775377 -1.31689 1.177621 -0.477848 -4.149457 1.240261 2.627241 0.465456 3.275736 -0.229338 1.461656 -2.33524 -1.892225 -3.19226 0.177513 -1.76301 -0.410329 -0.595822 4.811452 1.986213 4.007822 4.845738 0.252917 1.747265 -0.348649 0.728273 3.103462 1.140455 -1.438188 -2.532658 1.100931 2.908969 -0.149113 1.39746 -0.110243 -0.869566 0.323433 0.189933 -0.593698 1.257804 3.346564 3.900447 -1.435939 2.359596 1.356138 -1.532728 -3.12145 -0.745096 3.148153 -1.649395 -2.176761 3.755593 -0.02329 1.428043 0.63312 -0.20617 3.715836 1.110841 1.264316 -1.176745 1.038138 -1.75898 -2.202135 1.199641 -2.789658 3.940613 -1.314701 0.546179 -0.086898 3.417288
0.051727 -0.163019 0.080513 0.007001 0.026981 -0.139648 -0.070711 0.028251 0.057919 0.015079 0.018688 0.080039 -0.013169 -0.169415 0.229306 0.146242 0.080152 -0.13523 0.071961 0.079063 -0.057927 0.1413 0.136064 0.077363 -0.086358 -0.181423 0.056878 0.077006 0.193802 -0.207265 -0.125262 0.068635 0.066314 0.143827 -0.011856 -0.090492 -0.167857 -0.142853 -0.140182 0.069166 0.015465 -0.037624 -0.138479 0.072324 0.02261 -0.053816 -0.043915 -0.138623 0.11636 -0.030628 0.085947 -0.022334 -0.061743 0.215037 0.147303 0.210964 -0.175339 -0.095672 -0.10277 -0.294775 0.041114 0.031241 0.16528 -0.101715 -0.101105 0.023033 -0.149807 -0.13894 -0.068447 0.12591 0.065311 0.055002 -0.051104 0.038142 0.131558 0.041642 0.016612 0.066537 -0.057153 -0.111632 -0.058681 -0.035739 0.113734 -0.180174 -0.124521 0.227101 0.034789 -0.045129 -0.055464 -0.002681 -0.183934 -0.050067 -0.23769 -0.095259 0.01562 -0.025612 -0.116113 -0.08813 -0.135294 -0.076746
4.237514 7.85825 -3.08311 2.095257 6.333644 -3.930949 5.62808 -2.450898 -0.649106 1.137611 0.075156 -2.573282 2.11882 2.373069 3.586629 2.44944 2.043853 0.796443 1.587857 -1.761693 -2.431769 1.765472 0.064332 -0.624742 3.258428 -1.426219 -3.294451 5.920982 -3.277161 0.080411 2.223917 -1.550335 3.705366 -2.087346 1.204908 -3.539017 1.76343 -0.446747 5.449142 -0.483293 -1.284654 -0.940501 -1.417334 -1.0748 -3.964785 -3.50621 -1.510924 -1.226833 1.467519 3.357531 -3.912521 -0.822021 3.397111 6.663239 -2.145382 3.493875 4.587415 -1.869526 -0.332525 -0.464108 -0.309437 0.420744 -3.790142 -2.811189 2.28249 2.87145 2.158772 -2.846652 0.868668 1.307731 -1.84462 1.515374 1.105015 0.223892 0.226653 -3.802986 0.388523 -1.16747 -2.557753 0.774901 3.063623 0.307152 -1.49452 -3.110671 -2.742782 -3.183777 4.913093 1.846718 5.15917 -2.90791 -3.79655 5.993539 -1.131956 -1.81466 -6.564014 -2.277731 -1.086513 -0.102091 1.232474 1.615958
-0.072674 -7.172178 3.243542 -3.416216 -3.078808 6.196021 -4.841667 1.097196 -0.069161 1.281094 -1.867299 2.00664 -3.509578 -1.91784 -3.71946 -1.31319 -2.045076 0.300286 -1.171953 -1.055153 0.413733 -4.900678 -1.569404 0.87886 -2.045129 -1.808549 3.916455 -0.208298 2.321721 -2.340044 -1.758158 0.426659 -1.302078 -0.956855 -1.534045 -0.5092 3.699516 -1.615464 -4.803689 1.209575 2.470521 -1.772277 -1.289194 0.075271 2.969475 5.294761 1.165935 1.551812 -2.864125 -2.655352 5.174971 1.730763 -3.638956 -1.622863 -1.08695 -1.558467 -3.220565 0.142856 -2.906218 2.40766 -2.416126 -0.276478 1.480663 0.762824 -0.901475 0.444124 -2.828977 2.000263 -3.260752 0.442676 2.227862 0.843619 -0.517631 -1.033588 -2.178106 1.253474 -1.086825 1.923508 1.341381 -3.757782 1.47075 1.992821 3.822498 6.974607 4.826773 0.101915 1.476335 -1.446077 -2.964966 2.275137 5.51195 -1.78916 -2.196929 -0.36233 1.699235 -0.269662 -2.034092 -1.169337 -1.898828 -0.46444
0.0 0.0 0.0 0.0 0.0 0.0 0.0 0.0 0.0 0.0 0.0 0.0 0.0 0.0 0.0 0.0 0.0 0.0 0.0 0.0 0.0 0.0 0.0 0.0 0.0 0.0 0.0 0.0 0.0 0.0 0.0 0.0 0.0 0.0 0.0 0.0 0.0 0.0 0.0 0.0 0.0 0.0 0.0 0.0 0.0 0.0 0.0 0.0 0.0 0.0 0.0 0.0 0.0 0.0 0.0 0.0 0.0 0.0 0.0 0.0 0.0 0.0 0.0 0.0 0.0 0.0 0.0 0.0 0.0 0.0 0.0 0.0 0.0 0.0 0.0 0.0 0.0 0.0 0.0 0.0 0.0 0.0 0.0 0.0 0.0 0.0 0.0 0.0 0.0 0.0 0.0 0.0 0.0 0.0 0.0 0.0 0.0 0.0 0.0 0.0
1.537283 1.379719 0.051135 2.603241 1.057263 2.468806 2.22781 1.22654 1.633346 1.689857 -0.971763 0.233108 2.338049 0.15726 -1.378188 0.910104 1.122366 -4.014385 1.75982 1.283862 -1.478147 -4.369342 1.960474 -2.210705 0.001109 -0.912207 -2.34392 1.682068 -2.232538 0.901903 4.273787 1.927533 1.251519 2.856033 1.520419 -2.495503 3.369397 0.861679 1.475128 0.857474 1.333741 -3.724569 -0.485532 0.066596 2.551925 -0.453597 -3.184859 0.374764 2.935658 -0.197982 4.41362 1.023625 -2.735274 0.931987 -2.372636 -1.179377 3.186508 -1.440104 0.211772 -0.611575 -0.656523 -2.184549 0.117879 -3.339759 -1.009265 2.464706 2.576513 0.620117 -1.787282 2.395033 0.136869 -0.752345 -1.347735 -1.850557 -1.28248 -1.741179 -0.245504 -0.037972 0.641678 1.725658 0.004073 0.423293 -3.849166 3.092406 3.145982 -1.174167 -0.31012 -0.607012 1.933488 -1.790012 1.636402 -1.50908 -0.635984 3.989228 0.065995 -0.762858 -1.030872 -0.114039 -0.145227 0.351852
2.045959 0.95873 3.366299 -1.655363 1.427659 -0.031032 3.940131 0.182122 -1.154688 0.113218 1.604943 -0.085568 1.37136 -1.699982 -1.41064 0.913624 -0.106163 -1.014166 -0.749798 3.836205 -2.088621 0.774324 -0.024882 -4.662189 2.562682 -1.694206 -3.059472 3.677895 -1.047943 -3.195253 2.260128 2.091062 -1.312424 -0.440504 -0.566704 0.639462 2.421973 3.2276 -1.10704 -0.99299 3.322135 -2.158976 1.318622 -2.962142 -3.269212 2.786623 0.236802 -3.15445 -1.263716 -2.036524 3.835312 -0.445583 1.090545 -0.351398 -0.094187 -1.830244 0.493976 -1.785436 -0.947286 -1.570105 1.252392 3.897637 -3.124575 -4.830955 -1.327082 -0.274782 0.93092 -2.556807 2.412997 2.755528 3.999057 2.775713 -0.28683 -1.206075 -0.080214 0.442599 -2.186206 0.438688 1.92526 -1.56138 -4.430726 0.579292 -0.446023 1.974434 1.750889 -2.152736 2.30718 3.814465 0.339318 -0.789236 -1.421624 3.174618 -2.036499 -1.575958 -0.63393 -0.406221 -2.601907 -1.490149 -0.713065 -2.878614
2.435781 0.100349 0.308449 3.152133 1.825135 5.043144 3.475524 1.030966 -0.034425 -0.654124 0.54443 1.85661 0.966298 0.552882 -3.802456 1.108151 -0.250147 -3.79877 -1.904833 -0.011453 -2.159244 -1.572273 0.732551 0.260713 -0.645201 0.187067 1.392596 -0.244902 1.131114 -0.728669 3.354901 -1.622406 0.818601 -3.344845 -0.890048 -2.218333 1.226071 3.380607 0.571719 -2.18929 1.393823 -1.89321 0.90535 -0.21635 1.300456 0.529849 -0.278674 -0.392318 1.942874 1.160389 1.082429 3.002813 -1.929275 -0.063759 -3.057961 0.757342 3.298706 -0.827257 0.491665 -2.297385 -1.09161 0.13502 0.61725 0.757817 1.588338 0.095699 -1.589534 -0.620415 0.900094 3.029701 5.348423 0.97465 1.26103 1.909403 -0.68424 -1.054519 -2.714854 2.056666 0.763454 0.435456 1.053121 0.26585 -1.053407 0.188019 1.656854 0.11074 1.51996 -0.017017 1.002859 0.300488 -0.510804 0.786016 -1.453753 -2.532027 -2.289254 1.557155 -1.175717 1.880744 -2.001581 3.864802
2.509146 -0.552161 1.034535 1.378933 0.121525 1.267112 -0.264166 1.44874 -0.585351 0.814742 -0.556444 -0.769829 0.721693 3.504652 2.522097 0.698651 -2.00194 1.27341 -3.938691 -1.249814 1.206217 2.236896 -2.105178 2.803302 0.476807 1.734094 -0.304557 -1.727252 -6.730148 2.015861 7.327693 -2.709538 -0.991304 -4.232084 -1.93599 -1.471528 -0.332715 -1.233527 -6.406514 0.046641 0.97283 -0.994667 1.86544 -0.041745 -2.464909 -0.251897 -0.88735 0.232848 -2.86783 -0.039329 0.834739 1.260419 0.129091 -0.430997 -3.704259 -2.831278 0.963296 -3.750342 -1.569821 1.286868 -3.171957 -2.014259 1.227737 0.595818 0.410501 1.398568 -0.483599 -3.157001 2.474234 2.699517 2.327858 -3.891064 -0.294445 1.084606 0.59068 -0.277707 -0.669147 2.024913 0.165398 2.562466 2.359209 -3.092515 -1.052526 -1.255511 1.589703 -4.733644 -0.797907 -0.877859 -0.593432 1.52866 -0.748336 2.11786 -1.366948 -0.910751 -0.194893 -2.824154 0.189273 2.667272 -0.730916 1.569461
3.15255 -0.907421 -3.642026 3.17996 3.42207 1.79741 -1.227643 1.238019 3.468645 -1.524123 -0.566973 2.247298 -5.676877 -3.465057 0.468239 -0.491914 -1.179421 -5.83672 -1.538257 2.775791 -2.00479 -1.449758 -1.2796 0.206099 1.947127 -2.184334 -0.629776 0.067498 1.962288 0.042905 -1.775377 -1.31689 1.177621 -0.477848 -4.149457 1.240261 2.627241 0.465456 3.275736 -0.229338 1.461656 -2.33524 -1.892225 -3.19226 0.177513 -1.76301 -0.410329 -0.595822 4.811452 1.986213 4.007822 4.845738 0.252917 1.747265 -0.348649 0.728273 3.103462 1.140455 -1.438188 -2.532658 1.100931 2.908969 -0.149113 1.39746 -0.110243 -0.869566 0.323433 0.189933 -0.593698 1.257804 3.346564 3.900447 -1.435939 2.359596 1.356138 -1.532728 -3.12145 -0.745096 3.148153 -1.649395 -2.176761 3.755593 -0.02329 1.428043 0.63312 -0.20617 3.715836 1.110841 1.264316 -1.176745 1.038138 -1.75898 -2.202135 1.199641 -2.789658 3.940613 -1.314701 0.546179 -0.086898 3.417288
0.128226 -0.031677 0.05601 -0.085749 0.465756 0.137432 -0.142207 -0.058517 0.160788 0.151319 0.085188 -0.168181 0.022005 0.063009 0.047883 0.217659 -0.433552 -0.180212 -0.179032 -0.124822 0.025003 -0.161768 0.005549 -0.220332 -0.047219 0.005823 0.050486 -0.058501 0.180806 0.234265 0.300187 0.013816 0.054017 0.039436 -0.134913 -0.155068 0.044207 -0.051096 0.213642 0.283066 0.164565 0.082194 0.017058 0.063673 -0.285694 0.157203 -0.052616 0.270557 0.361201 -0.11043 -0.120705 0.141003 -0.151268 0.05103 0.094845 0.074057 0.082043 0.03612 0.176918 -0.054764 -0.088618 0.158251 -0.116427 -0.05659 0.158017 0.226102 0.148977 -0.260564 -0.11905 -0.14505 -0.021549 0.100716 -0.070834 0.089752 0.096029 0.135042 0.033751 0.138558 -0.089512 -0.270347 0.004539 -0.119917 -0.281952 -0.122099 0.128042 0.095684 0.032974 0.168867 -0.068473 0.153603 -0.158596 0.081921 -0.041319 -0.020311 0.101224 -0.472518 0.036549 0.127324 0.102129 0.113819
3.206997 -4.877361 -0.910472 -1.395845 1.572584 1.195669 -0.645877 1.514129 4.001514 1.012958 -3.145483 -0.395437 1.874785 5.030729 -0.714288 0.493562 2.05343 -0.729517 -2.326681 -4.578588 4.021246 1.018946 2.697827 -0.157538 -0.814339 -0.486008 0.989437 1.830659 2.35274 1.218592 0.83605 -0.84899 0.6027 -2.480923 0.003665 -0.862534 3.024495 1.349808 1.198729 -1.537208 -0.457143 0.652121 -3.708537 -0.665668 -1.704043 -1.144021 1.079376 1.529449 -1.413777 -4.361203 0.251599 0.959199 -3.679446 3.251751 -0.363336 -1.856911 1.311208 -0.087199 1.337398 -2.061584 0.277746 0.363671 1.62815 -2.562427 4.072415 2.277454 0.413444 0.269817 -3.077566 -2.043647 0.637895 -0.133715 -0.513107 4.057566 0.540331 -0.387082 4.579637 1.656738 0.39891 -4.182041 2.762143 1.010128 0.478 2.292752 0.772669 -0.49472 0.716144 -1.1895 2.324726 -3.328852 0.040878 2.011935 1.095551 -0.375816 -0.64119 -1.44337 -2.397953 0.997347 -0.139075 -1.143159
2.986683 0.891048 0.502242 2.563102 -0.833594 1.074317 3.695644 -0.777531 2.188026 -0.699979 0.036443 0.733135 -1.432868 -0.891451 -1.142959 -0.942936 1.068958 -1.874863 -5.092594 -1.1966 -1.959903 -2.195483 -2.042068 -1.143233 -1.459129 -1.317735 2.335449 -2.434227 0.201016 -0.60309 3.022425 -0.350954 -0.742291 -3.692008 -0.428454 2.260322 1.299332 2.709176 1.349321 -0.696621 1.114271 -3.635821 0.008208 1.672507 -0.838007 2.333875 -2.054475 0.380345 1.490836 -0.726134 0.769087 3.405334 -1.16381 3.050478 -0.068498 -4.041586 4.555243 -0.814241 -1.668317 0.224789 -0.566141 -0.288359 0.917884 0.934006 -3.229766 1.334999 2.586487 0.072999 0.113326 0.865491 3.495866 2.934418 -0.434585 -2.448313 -1.514856 -0.37738 0.862876 1.158082 -2.049671 3.100108 -0.871714 -1.041083 -2.50899 0.427097 1.673651 2.875635 3.071153 2.417479 -1.666681 -0.917672 -0.608627 3.287783 -1.69514 -2.40585 -1.155071 1.198252 -1.330375 1.26239 -2.958205 2.412288
-2.624672 -1.554463 0.721791 0.057634 -4.060073 0.62512 -1.904671 -1.214719 3.417883 -2.21608 -1.288049 0.833958 2.562591 -2.007247 -1.089559 -1.856265 -2.632277 -1.096159 -0.575553 -0.097507 -3.172086 0.974568 0.031504 -0.139215 -0.808232 0.751506 1.58791 3.674081 -0.526015 3.586167 3.317653 0.353082 0.054125 0.255352 -0.233135 -0.196828 2.473883 -2.154672 -0.635499 -2.408924 -2.285774 -0.679714 -0.537962 -2.375608 -0.359529 2.122944 -3.349861 0.568652 -2.574357 1.057826 0.861368 1.753231 2.829964 2.314444 -0.260215 3.682849 1.61588 0.415127 -1.524783 -1.360525 2.612372 1.309274 2.014461 3.862636 4.902708 -0.900143 -0.204208 -1.736223 0.101982 0.048446 0.558404 0.62084 -4.266359 -2.985905 -4.302859 2.362859 0.888264 2.322715 -1.663494 1.137201 0.95968 -3.628558 0.498155 -0.315144 0.055032 -1.361952 1.850147 4.145928 -1.920611 -2.244518 -2.592072 -2.563996 -1.97104 -1.054235 -2.718191 1.924839 -0.246865 3.447866 0.018846 0.871122
-0.104054 0.098958 0.164743 0.084701 -0.177 -0.099491 -0.175552 0.150903 0.051633 -0.10303 -0.061201 -0.097516 -0.043308 -0.108088 -0.094529 0.031105 -0.010435 -0.085885 -0.272049 -0.376378 0.11136 -0.001218 0.227651 0.117687 0.077731 0.048289 -0.299824 -0.108813 -0.066322 0.119624 0.220128 -0.115142 0.142039 0.023971 0.246916 -3.58E-4 0.052285 0.119065 -0.153726 0.00344 0.160432 0.104999 -0.060669 0.074377 -0.101186 -0.214792 0.173532 0.234289 -0.282393 -0.071202 0.018287 -0.086698 -0.286666 -0.049134 0.007115 -0.073184 -0.10094 -0.123559 -0.143698 -0.06026 0.05438 0.112642 -0.132852 0.071278 -0.105831 0.097973 -0.080161 -0.012918 0.056857 -0.028939 0.085628 0.124121 0.020865 -0.143224 0.155326 0.304119 -0.041868 0.072869 0.012124 -0.14319 -0.043484 0.319503 -0.031636 0.057689 0.03357 -0.163811 -0.113422 0.064611 0.004525 0.010296 0.06045 0.104093 -0.097744 0.164141 -0.02015 0.062465 -0.011397 -0.112392 -0.196271 0.016922
0.0 0.0 0.0 0.0 0.0 0.0 0.0 0.0 0.0 0.0 0.0 0.0 0.0 0.0 0.0 0.0 0.0 0.0 0.0 0.0 0.0 0.0 0.0 0.0 0.0 0.0 0.0 0.0 0.0 0.0 0.0 0.0 0.0 0.0 0.0 0.0 0.0 0.0 0.0 0.0 0.0 0.0 0.0 0.0 0.0 0.0 0.0 0.0 0.0 0.0 0.0 0.0 0.0 0.0 0.0 0.0 0.0 0.0 0.0 0.0 0.0 0.0 0.0 0.0 0.0 0.0 0.0 0.0 0.0 0.0 0.0 0.0 0.0 0.0 0.0 0.0 0.0 0.0 0.0 0.0 0.0 0.0 0.0 0.0 0.0 0.0 0.0 0.0 0.0 0.0 0.0 0.0 0.0 0.0 0.0 0.0 0.0 0.0 0.0 0.0
0.0 0.0 0.0 0.0 0.0 0.0 0.0 0.0 0.0 0.0 0.0 0.0 0.0 0.0 0.0 0.0 0.0 0.0 0.0 0.0 0.0 0.0 0.0 0.0 0.0 0.0 0.0 0.0 0.0 0.0 0.0 0.0 0.0 0.0 0.0 0.0 0.0 0.0 0.0 0.0 0.0 0.0 0.0 0.0 0.0 0.0 0.0 0.0 0.0 0.0 0.0 0.0 0.0 0.0 0.0 0.0 0.0 0.0 0.0 0.0 0.0 0.0 0.0 0.0 0.0 0.0 0.0 0.0 0.0 0.0 0.0 0.0 0.0 0.0 0.0 0.0 0.0 0.0 0.0 0.0 0.0 0.0 0.0 0.0 0.0 0.0 0.0 0.0 0.0 0.0 0.0 0.0 0.0 0.0 0.0 0.0 0.0 0.0 0.0 0.0
0.040639 0.081814 0.04287 0.062167 0.092794 0.114908 -5.3E-4 -0.061893 -0.128806 0.029658 -0.102642 0.050736 0.021353 0.278962 0.156361 -0.045776 -0.059025 0.007615 0.069272 0.03742 0.044666 -0.205296 -0.009373 0.060588 0.130976 -0.007905 -0.098053 0.083234 0.088487 0.073668 -0.063313 0.05638 -0.149995 0.040243 0.139103 0.120814 0.186168 0.077513 0.035539 -0.137722 0.149343 -0.011946 0.157701 0.051791 -0.073664 0.096946 -0.283681 0.058369 -0.065895 0.126711 -0.040991 -0.045914 -0.057224 -0.17697 0.066608 0.102407 -0.15335 -0.00258 -0.222251 -0.069709 -9.96E-4 0.033302 -0.223593 -0.01348 0.109527 0.085455 -0.086426 0.046289 0.047765 0.150103 -0.094972 -0.019492 -0.08396 0.061637 0.042416 0.083935 -0.175169 -0.031524 -0.150901 -0.072843 -0.056665 0.199748 0.160562 -0.070466 0.072887 0.025233 0.011767 0.031496 0.08045 -0.027642 0.037393 0.123465 -0.042501 0.013419 0.046506 -0.08898 -0.024989 -0.132646 0.135167 0.194549
0.166865 -0.033351 -0.013364 -0.059014 -0.095169 -0.021507 -0.126788 0.103728 -0.200711 -0.063152 0.044354 0.134222 0.002393 0.071524 0.209815 0.100187 0.025401 0.083631 0.120448 0.173878 -0.091184 0.033918 0.054121 0.121356 -0.168415 -0.048991 -0.209931 -0.016042 0.202225 -0.007166 -0.110802 -0.028926 -0.11468 0.016808 -0.064513 -0.05835 -0.015135 0.093734 0.167046 -0.014056 0.02555 -0.101082 -0.016676 -0.00246 -0.017495 0.184926 -0.038011 -0.106257 0.001132 0.03659 0.080797 -0.16487 -0.164051 -0.024617 0.144233 0.037146 0.064814 -0.135114 0.218106 -0.087954 0.024218 -0.008723 0.020657 -0.10933 -0.0401 -0.009808 -0.283523 0.179888 -0.016468 0.100665 -0.045627 0.125868 0.040189 0.113707 0.238166 -0.079786 0.009467 -0.061173 -0.064632 -0.277119 0.084403 -0.091058 0.212317 -0.16461 -0.095926 -0.049768 -0.09268 0.023356 0.096515 0.010373 -0.174271 -0.082788 -0.155016 0.104184 0.044246 0.051147 0.02525 -0.044468 -0.064392 -0.011243
0.07611 6.176937 -4.024954 -0.152799 -2.611577 -0.115381 0.932446 1.946854 1.311749 -0.324909 -0.427938 1.262544 -0.68511 3.632591 1.927551 1.270604 2.426764 -0.977381 -0.421679 -1.494797 -2.423079 0.333647 2.486931 -0.104988 1.926675 -1.838044 -1.601556 3.130612 -2.23777 -1.452693 -0.454798 1.310511 1.673438 2.141662 -2.485883 -0.304088 1.858173 1.644059 1.345879 -1.347004 -2.571566 -3.26268 1.576922 1.958896 -2.542197 -4.008856 -0.937075 0.586795 1.228258 1.083476 1.167285 -2.397261 2.037039 2.522987 0.662491 5.506076 0.171352 1.72639 0.260488 -3.582518 -4.282837 -0.768711 -3.866513 1.338652 0.729399 0.19433 2.075198 1.005766 -1.587821 0.855072 1.177313 0.970442 -1.559649 0.667002 1.205354 1.776141 0.068128 1.277045 3.049097 1.409261 2.45482 -2.465083 2.571739 -3.216688 -1.342003 -0.907837 2.906307 0.454904 3.753747 2.751511 -2.881533 2.515108 1.234815 -2.305182 -2.053955 -2.38751 0.287504 -1.379754 -1.367956 3.266842
-0.053833 0.079877 0.072856 0.139498 -0.105369 0.004769 -0.27073 -0.096518 -0.168103 -0.103006 0.202092 0.363744 -0.141267 -0.129923 0.01534 0.19683 -0.187167 0.111945 0.109179 -0.016332 0.035184 0.139347 0.315416 0.181261 -0.257633 -0.053217 -0.053058 -0.098832 0.23437 -0.331022 -0.084191 -0.075678 -0.001831 -0.110346 -0.013756 -0.266761 0.034555 -0.008762 -0.150297 0.165393 -0.060494 -0.197826 0.147763 -0.035721 0.031472 -0.210231 -0.085577 -0.109783 -0.244063 0.165008 0.054471 -0.00802 0.010601 -0.037268 0.221023 -0.133451 0.002637 -0.019477 0.129964 0.041991 -0.012534 -0.093924 -0.069187 -0.137315 -0.125857 -0.019287 -0.075852 -0.025292 0.08558 -0.045041 0.044839 -0.045932 0.096927 -0.044108 0.128249 -0.290646 -0.150284 -0.045275 0.037713 0.15651 0.143393 -0.066424 0.296246 -0.291488 0.055917 0.059085 0.065453 0.001004 0.226514 0.017525 -0.201115 -0.040421 -0.006957 -0.001567 -0.074785 -0.124046 0.079696 -0.095859 -0.218243 -0.010996
0.17747 -0.220289 0.031353 -0.020959 0.050084 -0.051017 0.014017 -0.017541 -0.064952 0.041734 0.060409 0.00861 -0.120514 -0.044104 0.059365 0.168958 0.002777 0.173153 0.117301 0.123388 -0.100838 -0.074664 0.146404 0.062996 -0.091194 -0.032107 -0.110972 0.01407 0.078054 -0.285259 -0.053148 0.057787 -0.224479 0.074902 -0.097954 -0.023841 -0.038516 0.068986 -0.004296 0.195386 -0.106951 0.202273 -0.051893 0.060664 0.022487 -0.12069 0.006128 0.10992 -0.2191 0.30032 0.143765 -0.143438 0.122935 -0.101103 0.092339 -0.017765 -0.031392 -0.003762 0.19813 -0.044848 0.084127 -0.28034 0.059569 -0.131757 -0.033508 0.075196 0.133322 -0.034654 -0.027193 -0.036623 -0.078591 0.056722 -0.049747 0.10346 -0.202148 0.095829 -0.251867 -0.038727 -0.035482 -0.083671 -0.021972 -0.018875 0.03572 -0.204935 -0.061752 0.090259 0.034288 0.048901 0.183772 -0.166344 0.066346 -0.008524 -0.062297 -0.051929 -0.057081 -0.079366 0.032182 0.049482 0.070099 -0.008295
0.100692 -0.157131 0.139302 0.123578 0.151543 0.178422 -0.012679 -0.103362 0.233611 0.029945 -0.033496 -0.02353 -0.150988 -0.078962 0.230475 0.006161 -0.201667 0.084881 -0.295978 -0.216595 -0.152078 -0.096403 -0.182565 -0.034674 -0.008271 0.123985 -0.225344 0.060741 0.064737 -0.027452 -0.020276 -0.040379 -0.062847 -0.021902 -0.155636 0.098869 0.118253 -0.054786 -0.035252 0.089718 -0.093516 0.108242 -0.165133 -0.010665 -0.002421 -0.171869 -0.111112 -0.041381 -0.044332 -0.069941 -0.02046 0.052983 -0.30701 0.053758 -0.133805 0.122561 8.2E-4 0.037855 -0.034898 0.091687 -0.127096 0.09488 -0.140734 -0.009746 -0.040595 0.12427 0.130515 0.010606 0.177229 0.063676 0.149195 0.026542 -0.108012 0.401386 -0.015993 -0.159563 0.171247 0.017552 -0.091249 -0.185777 0.041517 -0.021989 -0.300138 0.0411 -0.232056 0.111526 -0.051533 0.011578 0.198834 -0.128702 0.184857 -0.029913 -0.123641 -0.092647 0.286203 -0.109599 0.093666 0.015337 -0.091583 0.060957
0.060844 -0.157373 0.147216 -0.058715 -0.187715 -0.054274 0.111305 -0.034031 0.217236 0.140222 0.108788 -0.186443 0.317578 -0.01451 -0.005237 -0.052431 0.142546 0.211626 0.156345 0.041149 -0.083073 -0.04481 -0.013838 -0.06121 -0.046506 0.275502 0.004294 0.003152 0.03737 -0.162186 0.009689 -0.09405 -0.158936 0.165207 -0.058728 -0.146662 -0.10335 -0.015109 -0.126737 0.120328 -0.090862 0.146911 0.022881 0.014263 -0.039328 -0.054947 -0.035163 0.02099 0.011235 0.161465 -0.120165 0.02322 -0.025224 9.08E-4 0.074267 -0.005764 -0.075548 -0.103828 -0.00235 0.052235 -0.093538 -0.026053 -0.039465 0.036221 0.111119 -0.137701 0.099207 -0.073387 0.050349 0.039746 -0.023304 -0.028414 -0.124096 0.097133 0.052392 -0.014481 -0.093149 0.093071 0.131573 -0.088417 -0.16181 -0.017239 0.113044 0.004628 -0.009013 -0.076878 0.139531 -0.004285 0.136727 -0.003794 -0.10091 -0.013625 -0.08589 -0.039343 -0.042342 -0.063669 -0.016771 0.011874 0.026479 -0.121649
-0.008975 0.025791 -0.063566 -0.095531 0.087256 0.036609 -0.059582 -0.110302 -0.061527 0.038116 0.165791 0.106011 0.027757 -0.06673 0.089648 -0.019887 -0.060237 -0.139512 -0.008916 0.076744 -0.005308 0.08319 0.0569 -0.040297 -0.121534 0.103504 -0.028213 0.010542 0.071337 -0.04906 -0.113054 -0.022354 -0.090752 0.00831 -0.006107 0.001724 0.021683 0.059878 0.013786 0.043414 -0.022259 -0.075436 0.005133 0.014182 0.035615 0.003098 -0.083968 0.17865 -0.144937 -0.07732 -0.008132 -0.232656 0.021468 0.014482 -0.004399 0.063394 -0.045467 0.146396 0.114378 -0.021013 -0.02877 -0.103716 -0.149146 -0.13799 -0.086748 0.12442 -0.003029 -0.178951 0.029371 -0.058947 -0.009649 -0.03598 0.067279 -0.048715 0.18829 0.04395 -0.119272 -0.239405 -0.022765 -0.03886 -0.048821 -0.070002 0.12171 -0.248048 -1.85E-4 0.073499 0.162979 0.125238 0.118658 -0.074929 -0.083699 -0.081852 -0.070551 -0.030207 -0.062144 0.005951 0.021361 -0.088913 -0.06011 0.063118
-0.057633 -0.202379 0.260162 0.086105 -0.051187 0.049846 -0.01315 -0.116742 -0.092962 0.176208 0.146422 0.07164 0.142031 -0.101539 0.044188 0.32201 0.222977 0.146448 0.061024 -0.141413 -0.240492 -0.012701 0.315741 0.013867 -0.030898 -0.021794 -0.020434 0.051774 -0.020475 0.008256 -0.039967 0.089406 0.026724 0.112531 -0.235095 0.093237 -0.027771 -0.031804 0.015764 0.082034 -0.03282 0.096861 -0.101337 -0.04995 -0.103938 0.031945 -0.04117 0.041538 -0.126467 0.120658 0.025915 0.001185 -0.01527 0.10584 -3.4E-5 -0.070391 0.104917 0.075322 -0.027404 -0.014368 0.28151 -0.124847 0.030126 -0.103037 -0.181822 0.066298 0.135376 0.071314 0.200727 -0.169752 -0.099451 0.137754 -0.038772 0.088077 -0.090703 -0.055922 -0.255625 0.238152 -0.153054 0.076801 -0.047997 0.245526 -0.091157 -0.066381 0.166586 -0.088639 0.288141 0.012305 0.279977 0.051252 -0.136774 0.120767 0.108505 0.089172 0.011555 -0.094573 0.236078 -0.080454 -0.052399 -0.259034
0.040639 0.081814 0.04287 0.062167 0.092794 0.114908 -5.3E-4 -0.061893 -0.128806 0.029658 -0.102642 0.050736 0.021353 0.278962 0.156361 -0.045776 -0.059025 0.007615 0.069272 0.03742 0.044666 -0.205296 -0.009373 0.060588 0.130976 -0.007905 -0.098053 0.083234 0.088487 0.073668 -0.063313 0.05638 -0.149995 0.040243 0.139103 0.120814 0.186168 0.077513 0.035539 -0.137722 0.149343 -0.011946 0.157701 0.051791 -0.073664 0.096946 -0.283681 0.058369 -0.065895 0.126711 -0.040991 -0.045914 -0.057224 -0.17697 0.066608 0.102407 -0.15335 -0.00258 -0.222251 -0.069709 -9.96E-4 0.033302 -0.223593 -0.01348 0.109527 0.085455 -0.086426 0.046289 0.047765 0.150103 -0.094972 -0.019492 -0.08396 0.061637 0.042416 0.083935 -0.175169 -0.031524 -0.150901 -0.072843 -0.056665 0.199748 0.160562 -0.070466 0.072887 0.025233 0.011767 0.031496 0.08045 -0.027642 0.037393 0.123465 -0.042501 0.013419 0.046506 -0.08898 -0.024989 -0.132646 0.135167 0.194549
0.761839 -0.938024 0.496921 0.58483 0.818477 0.175284 -0.766251 0.265017 1.826486 -1.990869 0.666817 0.469983 1.161885 -1.298175 0.156637 4.428195 -0.212083 -0.574378 -2.750715 -1.074915 -1.208459 -1.913334 0.184919 2.019809 3.073618 -0.327019 -0.699928 -1.802632 -2.867185 0.903787 4.216012 1.266556 0.095209 -1.76775 0.142792 0.742814 5.296293 -0.018697 -1.371932 -0.468201 0.59532 -3.398765 0.587559 -0.166478 -1.444564 -1.781924 0.409167 -3.006053 -1.248959 -3.024124 2.69178 -0.30701 1.977343 2.042086 -4.840298 -1.830624 -0.482616 2.732292 -0.801884 -0.472534 -0.366207 1.358775 0.553509 2.204911 3.230709 2.390573 2.115641 -1.09307 1.202358 0.793524 -1.638712 -1.996248 0.271729 -0.168319 -1.070408 1.243496 1.294459 -0.437144 3.452807 1.249149 -1.427302 -1.689526 0.716038 1.420218 -0.058143 -1.096066 2.255744 -1.515499 0.319968 -1.35765 -0.129799 1.999189 -3.279956 -0.043635 -1.666706 -1.165557 1.052505 0.425416 -0.847125 1.949146
-0.110652 -0.01737 -0.137894 -0.02839 0.212961 0.050575 -0.027647 0.104 -0.032171 -0.012953 0.26789 -0.165361 0.099874 -0.020781 -0.042672 -0.001875 -0.193023 -0.074393 0.00982 -0.158587 -0.022072 0.018959 -0.025409 -0.162434 0.029765 -0.124302 0.028101 0.040986 0.008205 0.127993 -0.08742 -0.111403 0.002278 0.185132 0.179703 -0.02229 0.072929 -0.11285 0.235056 0.002676 -0.014039 -0.107414 0.053678 0.242713 -0.172343 0.107406 -0.002096 0.048325 -0.177546 -0.12262 0.115456 0.01124 0.053629 0.063105 -0.280782 0.076459 -0.026453 0.042783 0.077182 -0.274351 -0.121066 -0.024512 -0.132134 -0.08571 -0.01157 0.07652 0.02953 -0.015412 -0.133182 0.138455 -0.063469 -0.004094 -0.093012 0.024155 -0.004378 -0.079439 -0.075428 0.020746 0.008863 0.089285 0.057719 -0.023499 -0.002595 0.106513 0.144071 0.088283 -0.060024 -0.053846 0.185782 -0.132641 0.062285 -0.030909 0.156899 -0.014894 -0.036211 0.063523 0.044588 0.070534 -0.06575 0.090428
0.004577 -0.077139 0.186696 0.192622 -0.122348 0.03174 -0.059208 -0.298223 -0.097779 0.049746 0.056097 0.240002 0.071719 0.068956 -0.03834 0.26472 -0.088507 0.336059 0.024975 0.081693 -0.025406 0.2262 0.20086 0.182967 -0.13429 -0.16792 0.0705 -0.047265 0.121626 -0.07506 -0.205217 -0.175597 -0.136736 0.135177 -0.017349 -0.206152 0.013709 0.103611 -0.102685 0.017773 -0.08926 0.153647 0.011442 -0.040664 -0.047171 -0.118774 -0.005246 0.044751 -0.058672 0.046157 0.080276 -0.048172 -0.03771 0.11095 0.029518 -0.070148 -0.033146 -0.008512 0.039747 -0.12649 0.006828 -0.086185 -0.00663 0.04893 -0.134276 -0.039226 0.118615 -0.071338 0.039573 0.041567 0.005918 0.051412 0.031927 -0.147693 0.180613 -0.124274 -0.281498 -0.032309 -0.057821 0.051871 0.100375 0.153059 0.088905 -0.204906 -0.017154 -0.053508 0.201842 0.070378 0.354441 -0.029274 -0.23367 0.03927 -0.015055 0.260397 -0.070372 -0.104677 0.127208 -0.056051 -0.229486 0.026219
-0.054816 -0.192155 -0.081657 0.043328 0.042946 0.107519 -0.10483 -0.149958 0.011507 0.066816 0.067384 0.177664 -0.069076 -0.11433 -0.015721 0.123604 0.047478 0.318743 -0.14289 -0.014216 -0.065246 0.095474 0.226508 0.134018 -0.148553 -0.191476 -0.109151 0.122186 0.068712 0.006516 0.028495 0.100829 -0.014302 0.061836 -0.143776 -0.160004 -0.039112 -0.060968 -0.10778 -0.044592 -0.11671 -0.175008 0.10402 -0.075308 0.018264 -0.161731 0.007342 -0.081603 -0.066024 0.033581 0.003758 -0.198869 -0.004987 -0.002065 0.130804 -0.083118 -0.101208 -0.113854 -0.080408 0.027875 -0.03709 -0.062229 -0.118698 -0.185763 0.01692 -0.117873 -0.067354 -0.137652 -0.087551 0.055325 0.049022 0.014365 0.152354 0.051546 -0.162718 0.022913 -0.101632 -0.054706 0.099754 -0.0441 0.227228 -7.03E-4 0.141284 -0.163782 0.059061 -0.019849 0.02147 0.108301 -0.018837 0.204692 -0.057433 -0.214582 -0.014782 0.202694 0.032074 -0.156132 -0.127903 -0.025319 -0.047143 -0.052855
-0.110652 -0.01737 -0.137894 -0.02839 0.212961 0.050575 -0.027647 0.104 -0.032171 -0.012953 0.26789 -0.165361 0.099874 -0.020781 -0.042672 -0.001875 -0.193023 -0.074393 0.00982 -0.158587 -0.022072 0.018959 -0.025409 -0.162434 0.029765 -0.124302 0.028101 0.040986 0.008205 0.127993 -0.08742 -0.111403 0.002278 0.185132 0.179703 -0.02229 0.072929 -0.11285 0.235056 0.002676 -0.014039 -0.107414 0.053678 0.242713 -0.172343 0.107406 -0.002096 0.048325 -0.177546 -0.12262 0.115456 0.01124 0.053629 0.063105 -0.280782 0.076459 -0.026453 0.042783 0.077182 -0.274351 -0.121066 -0.024512 -0.132134 -0.08571 -0.01157 0.07652 0.02953 -0.015412 -0.133182 0.138455 -0.063469 -0.004094 -0.093012 0.024155 -0.004378 -0.079439 -0.075428 0.020746 0.008863 0.089285 0.057719 -0.023499 -0.002595 0.106513 0.144071 0.088283 -0.060024 -0.053846 0.185782 -0.132641 0.062285 -0.030909 0.156899 -0.014894 -0.036211 0.063523 0.044588 0.070534 -0.06575 0.090428
0.352905 0.550922 -1.128945 -0.511125 0.774489 1.405335 -0.371647 0.106012 -0.779785 -0.640302 -0.68578 1.570717 -0.712288 -0.706705 -0.789609 -0.045278 -1.599722 -2.840112 -0.089543 -1.158838 -1.862605 -0.62748 -0.063542 -0.468696 0.750564 0.033551 -0.772222 -0.188991 -0.163115 0.455978 0.038455 -0.779588 0.172303 -1.114448 -0.548246 -0.008155 1.66721 -0.744821 -0.15746 -2.668482 -0.304702 -0.905716 0.479063 0.151803 -0.94063 -0.044338 -0.906122 -0.456182 0.281891 0.268287 0.47007 0.628019 0.328428 1.471286 -2.345457 0.072073 -0.345477 -0.998199 -1.496897 -0.053061 0.351206 -0.934426 0.295591 0.07336 0.24092 0.486976 0.390085 -0.621556 0.375246 -0.02625 1.957847 1.014101 0.004675 0.08874 -0.900479 -0.462149 0.922254 1.355385 -1.048724 0.105897 1.254466 0.410718 0.321258 1.066395 -0.171761 -0.128774 0.315556 0.697301 -0.180925 0.555334 1.005586 -0.891677 -1.232923 -1.994189 -0.567812 0.204184 -0.947385 -0.051526 -0.987029 0.725141
-0.057633 -0.202379 0.260162 0.086105 -0.051187 0.049846 -0.01315 -0.116742 -0.092962 0.176208 0.146422 0.07164 0.142031 -0.101539 0.044188 0.32201 0.222977 0.146448 0.061024 -0.141413 -0.240492 -0.012701 0.315741 0.013867 -0.030898 -0.021794 -0.020434 0.051774 -0.020475 0.008256 -0.039967 0.089406 0.026724 0.112531 -0.235095 0.093237 -0.027771 -0.031804 0.015764 0.082034 -0.03282 0.096861 -0.101337 -0.04995 -0.103938 0.031945 -0.04117 0.041538 -0.126467 0.120658 0.025915 0.001185 -0.01527 0.10584 -3.4E-5 -0.070391 0.104917 0.075322 -0.027404 -0.014368 0.28151 -0.124847 0.030126 -0.103037 -0.181822 0.066298 0.135376 0.071314 0.200727 -0.169752 -0.099451 0.137754 -0.038772 0.088077 -0.090703 -0.055922 -0.255625 0.238152 -0.153054 0.076801 -0.047997 0.245526 -0.091157 -0.066381 0.166586 -0.088639 0.288141 0.012305 0.279977 0.051252 -0.136774 0.120767 0.108505 0.089172 0.011555 -0.094573 0.236078 -0.080454 -0.052399 -0.259034
-0.256602 -0.1243 -0.156584 0.124412 -0.019969 -0.019519 -0.176106 -0.223567 0.360964 -0.058945 0.2274 0.078807 0.036315 -0.212986 0.079996 0.37189 0.049028 -0.14749 0.248545 -0.021999 0.035611 0.068238 0.003318 0.294289 -0.27846 0.147775 -0.165829 0.169574 0.207134 -0.345593 0.030217 -0.097008 -0.094597 -0.026577 -0.009955 -0.055469 0.404379 0.255444 0.064021 -0.011688 0.052161 0.032995 0.271335 0.153037 -0.114 -0.057098 -0.355347 0.18693 -0.400689 -0.018458 0.128047 -0.046549 -0.129293 0.17597 -0.199076 0.167656 0.17999 0.357644 0.535906 -0.22477 0.266438 -0.215008 0.098149 -0.012695 -0.055109 -0.130176 -0.013861 0.018792 -0.004034 -0.348018 0.033002 -0.239223 0.030155 -0.033727 -0.067928 -0.028393 0.108484 -0.168794 -0.056857 -0.247675 0.321424 -0.075121 0.218114 0.0667 -0.223192 0.004721 0.060296 -0.149135 0.175294 -0.091457 0.107553 -0.155067 -0.051981 -0.007581 -0.132345 -0.099657 -0.011566 -0.077891 0.003102 0.419793
0.084092 0.047201 0.026461 0.100326 0.090732 -0.198625 0.231752 0.037368 -0.395817 -0.223474 0.565158 0.075984 0.014801 -0.070442 -0.172162 0.328451 -0.234498 0.078416 0.014031 -0.266025 -0.161491 0.397876 -0.130331 -0.280364 0.032805 -0.128 0.231155 -0.010327 0.120755 0.269603 -0.095579 -0.594554 -0.074834 0.075907 -0.190858 -0.303287 0.244824 0.171993 -0.059538 0.057418 -0.186582 0.013709 -0.309239 -0.382593 -0.310937 -0.084717 0.200609 0.048032 0.112837 0.272611 -0.261174 0.087858 -0.251345 0.092857 -0.323866 -0.382171 0.082807 0.021605 0.149742 -0.194066 0.178547 -0.122306 0.017 -0.293288 -0.095059 0.090168 0.328746 -0.35958 0.206337 -0.075933 0.255737 0.179693 -0.127823 -0.216844 -0.066751 -0.126184 -0.081131 0.292819 -0.246656 0.656628 -0.271504 0.186909 0.216824 0.081237 0.366727 -0.425078 0.035059 0.218356 0.249761 0.280317 0.323552 -0.094303 -0.16778 -0.41523 -0.016437 0.109317 0.317381 0.414066 4.76E-4 0.227711
0.023922 -0.128421 0.026515 0.103355 0.042815 -0.113896 -0.06979 -0.011755 -0.141648 -0.028477 0.13613 0.103055 -0.100879 0.183068 0.103474 0.233363 0.012495 0.092764 -0.108233 0.047294 0.02333 -0.062234 0.14099 0.120319 -0.130813 -0.087348 -0.089882 -0.061059 0.217697 -0.172862 -0.062714 -0.03953 -0.165164 0.116287 0.134449 0.006605 0.130689 -0.009671 0.012474 0.103552 -0.05819 -0.064895 0.019948 0.098292 0.060466 0.035606 -0.163616 -0.129885 -0.122369 0.005921 0.151839 -0.14565 -0.142412 -0.083987 0.168059 -0.023269 -0.00444 0.00685 0.009422 -0.119731 -0.101775 -0.017193 -0.065123 -0.041006 -0.018991 0.066934 -0.071607 -0.020016 0.033597 -0.019455 -0.064303 -0.112005 -0.064136 0.016316 0.221041 -0.139703 -0.081187 -0.069621 -0.002863 -0.160814 0.021338 -0.046315 0.029068 -0.19265 -0.032228 0.014821 -0.037704 0.060059 0.103576 0.037924 -0.139535 -0.013931 0.037852 0.22119 0.009321 0.132754 -0.010126 0.023015 0.150548 -0.103887
0.047305 0.349762 0.03826 0.073404 0.071181 0.11027 0.185486 -0.027194 -0.055985 0.090094 -0.061836 0.047281 -0.08257 -9.22E-4 0.169104 0.008002 -0.106699 -0.066807 -0.016661 -0.053577 0.034497 0.051922 0.085093 -0.076278 -0.072347 -0.154821 -0.002452 0.033411 0.027897 -0.059511 -0.142341 0.090557 -0.126407 0.126215 -0.050666 -0.185359 0.100158 -0.099455 0.108026 -0.156473 -0.068719 -0.097655 0.014011 0.112185 -0.107148 -0.166321 0.017299 0.041399 0.031581 -0.081452 0.059089 -0.014021 -0.195791 0.147827 0.227697 -0.074517 0.142662 0.140671 -0.048408 -0.184587 -0.079443 -0.019898 -0.198987 -0.055085 -0.172654 -0.060094 -0.110071 -0.105913 -0.056514 0.2021 -0.009205 0.067446 0.130416 0.048794 -0.057139 0.033245 -0.110245 -0.215092 -0.152379 -0.017639 0.102056 0.038902 0.101969 -0.180192 0.074386 0.158839 -0.112383 -0.011621 -0.17605 0.060407 -0.022636 0.017878 -0.164137 -0.104331 0.131886 -0.063219 0.036125 0.052665 0.110635 0.192429
-0.019201 0.028111 0.019217 0.052324 -0.012545 0.076041 0.041859 0.132425 -0.042682 -0.25324 0.153679 -0.052639 -0.234426 0.154245 0.001178 0.07083 0.073083 0.160228 0.024133 -0.054811 0.001969 0.005439 0.181016 0.099355 -0.126409 -0.051701 0.037309 -0.123638 0.247936 -0.162055 0.114555 0.125901 0.087982 0.08593 -0.090916 0.032607 0.058566 -0.084423 -0.083684 -0.120125 -0.142636 -0.134573 0.099572 -0.067549 0.144656 -0.140025 -0.119758 0.069446 0.087216 -0.032862 -0.006618 -0.111395 0.032981 -0.031112 -0.118341 0.110071 -0.111936 0.153878 0.041608 0.007703 0.064796 -0.130385 0.030277 0.045725 -0.1256 0.149386 -0.11782 -0.166733 0.122695 0.114102 -0.065025 -0.01284 -0.004014 -0.036946 -0.052576 0.183617 0.039352 -0.109896 0.002856 -0.049741 0.098582 -0.079185 0.058208 -0.092538 -0.020486 -0.024785 0.136707 0.03449 -0.090652 0.201497 -0.097455 0.025029 -0.120762 -0.013839 -0.051103 -0.067125 -0.00444 -0.252706 0.02388 -0.108891
-0.001889 -0.015376 0.011577 -0.079922 0.019615 0.005975 0.018085 -0.133459 0.07886 -0.019014 -0.010821 0.041669 -0.011128 0.097962 -0.060935 0.042309 0.015014 8.49E-4 -0.002449 0.038756 0.0685 -0.030124 0.021652 -0.079703 0.075875 -0.122727 0.144977 0.073106 0.120718 -0.115022 0.047765 0.225363 -0.061747 -0.035103 0.080005 0.064342 -0.011293 0.032618 0.076202 0.118833 0.299047 0.176216 0.148892 -0.105455 -0.022399 0.118571 -0.05437 -0.136016 -0.04767 0.112361 0.012505 0.001737 0.056998 -0.132972 0.205737 0.014869 0.130993 0.242588 0.100312 0.073252 -0.019374 -0.073147 -0.042245 -0.05193 0.119558 0.067972 -0.198268 0.013905 0.103121 -0.09962 -0.010563 -0.219254 -0.117595 0.0375 -0.028297 0.03039 -0.116152 0.021365 0.041774 -0.247365 -0.187561 -0.063496 -0.088808 -0.029223 0.057963 0.069802 -0.07258 -0.052825 0.064478 0.040761 0.149345 0.085248 0.239559 0.137326 -0.140966 0.005439 0.083517 -0.02486 -0.028184 0.111642
0.166865 -0.033351 -0.013364 -0.059014 -0.095169 -0.021507 -0.126788 0.103728 -0.200711 -0.063152 0.044354 0.134222 0.002393 0.071524 0.209815 0.100187 0.025401 0.083631 0.120448 0.173878 -0.091184 0.033918 0.054121 0.121356 -0.168415 -0.048991 -0.209931 -0.016042 0.202225 -0.007166 -0.110802 -0.028926 -0.11468 0.016808 -0.064513 -0.05835 -0.015135 0.093734 0.167046 -0.014056 0.02555 -0.101082 -0.016676 -0.00246 -0.017495 0.184926 -0.038011 -0.106257 0.001132 0.03659 0.080797 -0.16487 -0.164051 -0.024617 0.144233 0.037146 0.064814 -0.135114 0.218106 -0.087954 0.024218 -0.008723 0.020657 -0.10933 -0.0401 -0.009808 -0.283523 0.179888 -0.016468 0.100665 -0.045627 0.125868 0.040189 0.113707 0.238166 -0.079786 0.009467 -0.061173 -0.064632 -0.277119 0.084403 -0.091058 0.212317 -0.16461 -0.095926 -0.049768 -0.09268 0.023356 0.096515 0.010373 -0.174271 -0.082788 -0.155016 0.104184 0.044246 0.051147 0.02525 -0.044468 -0.064392 -0.011243
0.07611 6.176937 -4.024954 -0.152799 -2.611577 -0.115381 0.932446 1.946854 1.311749 -0.324909 -0.427938 1.262544 -0.68511 3.632591 1.927551 1.270604 2.426764 -0.977381 -0.421679 -1.494797 -2.423079 0.333647 2.486931 -0.104988 1.926675 -1.838044 -1.601556 3.130612 -2.23777 -1.452693 -0.454798 1.310511 1.673438 2.141662 -2.485883 -0.304088 1.858173 1.644059 1.345879 -1.347004 -2.571566 -3.26268 1.576922 1.958896 -2.542197 -4.008856 -0.937075 0.586795 1.228258 1.083476 1.167285 -2.397261 2.037039 2.522987 0.662491 5.506076 0.171352 1.72639 0.260488 -3.582518 -4.282837 -0.768711 -3.866513 1.338652 0.729399 0.19433 2.075198 1.005766 -1.587821 0.855072 1.177313 0.970442 -1.559649 0.667002 1.205354 1.776141 0.068128 1.277045 3.049097 1.409261 2.45482 -2.465083 2.571739 -3.216688 -1.342003 -0.907837 2.906307 0.454904 3.753747 2.751511 -2.881533 2.515108 1.234815 -2.305182 -2.053955 -2.38751 0.287504 -1.379754 -1.367956 3.266842
-0.053833 0.079877 0.072856 0.139498 -0.105369 0.004769 -0.27073 -0.096518 -0.168103 -0.103006 0.202092 0.363744 -0.141267 -0.129923 0.01534 0.19683 -0.187167 0.111945 0.109179 -0.016332 0.035184 0.139347 0.315416 0.181261 -0.257633 -0.053217 -0.053058 -0.098832 0.23437 -0.331022 -0.084191 -0.075678 -0.001831 -0.110346 -0.013756 -0.266761 0.034555 -0.008762 -0.150297 0.165393 -0.060494 -0.197826 0.147763 -0.035721 0.031472 -0.210231 -0.085577 -0.109783 -0.244063 0.165008 0.054471 -0.00802 0.010601 -0.037268 0.221023 -0.133451 0.002637 -0.019477 0.129964 0.041991 -0.012534 -0.093924 -0.069187 -0.137315 -0.125857 -0.019287 -0.075852 -0.025292 0.08558 -0.045041 0.044839 -0.045932 0.096927 -0.044108 0.128249 -0.290646 -0.150284 -0.045275 0.037713 0.15651 0.143393 -0.066424 0.296246 -0.291488 0.055917 0.059085 0.065453 0.001004 0.226514 0.017525 -0.201115 -0.040421 -0.006957 -0.001567 -0.074785 -0.124046 0.079696 -0.095859 -0.218243 -0.010996
-0.04832 0.090324 -0.194188 0.317462 0.032722 -0.006961 -0.002056 -0.026079 -0.038491 0.117021 -0.0279 0.001159 0.026274 0.006893 0.063322 0.006811 -0.167466 0.077843 -0.218526 -0.049729 0.184506 0.017787 0.106408 -0.074128 0.153078 0.045399 -0.019661 0.199252 -0.079072 0.077981 -0.002528 -0.076294 0.070905 -0.1362 -0.021728 -0.123094 0.099832 0.034697 0.155263 -0.013553 -0.135902 -0.064673 0.116065 -0.048622 -0.210925 -0.049275 0.086711 -0.009717 -0.003816 0.178711 -0.092914 -0.170189 0.018779 -0.055215 -0.145297 0.041179 0.138721 0.057468 0.041091 0.005365 0.115135 0.01779 0.068525 -0.011633 0.018509 -0.020141 0.106587 -0.118159 0.028942 0.035181 0.182344 0.073337 -0.124911 0.011314 -0.125504 -0.007116 -0.052859 -0.040021 -0.036749 -0.080962 -0.086283 -0.12496 0.085925 0.157881 -0.009772 -0.164802 -0.028382 0.077599 0.001925 0.063885 0.121283 0.082976 0.018347 -0.246429 -0.184076 -0.19077 -0.045764 -0.016816 0.010814 0.053251
0.0 0.0 0.0 0.0 0.0 0.0 0.0 0.0 0.0 0.0 0.0 0.0 0.0 0.0 0.0 0.0 0.0 0.0 0.0 0.0 0.0 0.0 0.0 0.0 0.0 0.0 0.0 0.0 0.0 0.0 0.0 0.0 0.0 0.0 0.0 0.0 0.0 0.0 0.0 0.0 0.0 0.0 0.0 0.0 0.0 0.0 0.0 0.0 0.0 0.0 0.0 0.0 0.0 0.0 0.0 0.0 0.0 0.0 0.0 0.0 0.0 0.0 0.0 0.0 0.0 0.0 0.0 0.0 0.0 0.0 0.0 0.0 0.0 0.0 0.0 0.0 0.0 0.0 0.0 0.0 0.0 0.0 0.0 0.0 0.0 0.0 0.0 0.0 0.0 0.0 0.0 0.0 0.0 0.0 0.0 0.0 0.0 0.0 0.0 0.0
-0.104054 0.098958 0.164743 0.084701 -0.177 -0.099491 -0.175552 0.150903 0.051633 -0.10303 -0.061201 -0.097516 -0.043308 -0.108088 -0.094529 0.031105 -0.010435 -0.085885 -0.272049 -0.376378 0.11136 -0.001218 0.227651 0.117687 0.077731 0.048289 -0.299824 -0.108813 -0.066322 0.119624 0.220128 -0.115142 0.142039 0.023971 0.246916 -3.58E-4 0.052285 0.119065 -0.153726 0.00344 0.160432 0.104999 -0.060669 0.074377 -0.101186 -0.214792 0.173532 0.234289 -0.282393 -0.071202 0.018287 -0.086698 -0.286666 -0.049134 0.007115 -0.073184 -0.10094 -0.123559 -0.143698 -0.06026 0.05438 0.112642 -0.132852 0.071278 -0.105831 0.097973 -0.080161 -0.012918 0.056857 -0.028939 0.085628 0.124121 0.020865 -0.143224 0.155326 0.304119 -0.041868 0.072869 0.012124 -0.14319 -0.043484 0.319503 -0.031636 0.057689 0.03357 -0.163811 -0.113422 0.064611 0.004525 0.010296 0.06045 0.104093 -0.097744 0.164141 -0.02015 0.062465 -0.011397 -0.112392 -0.196271 0.016922
-0.079125 0.165496 0.110897 -0.05513 -0.065724 -0.016421 -0.129675 -0.099214 0.02807 -0.013086 0.098924 0.006428 0.015865 0.019545 -0.032119 -0.00207 -0.045287 -0.050114 0.055247 0.03426 0.233659 0.072283 -0.012443 -0.03855 0.031879 -0.210001 -0.099797 -0.143277 0.004465 -0.144344 0.108815 0.013896 0.093599 -0.034792 0.068236 0.288351 0.068627 0.01563 0.272114 0.010639 -0.007226 -0.080718 -0.127818 -0.11284 -0.050929 -0.118455 0.067435 0.03741 -0.036989 -0.080063 0.041965 -0.124513 -0.086496 0.030034 0.236339 -0.182109 -0.019218 -0.122632 -0.245188 0.10252 0.060751 0.064868 -0.041636 -0.091022 0.104927 0.017689 0.096578 0.10721 0.097177 0.042127 0.07152 -0.005611 0.094549 0.007239 -0.062212 -0.051875 0.108705 0.011637 -0.124956 -0.015681 -0.121867 -0.007958 0.040644 0.024469 0.141174 0.121792 0.197302 -0.088771 0.159092 -0.241288 -0.069209 -0.034296 0.127442 -0.006425 -0.121656 -0.116899 0.054485 0.121344 0.041694 0.048051
0.040639 0.081814 0.04287 0.062167 0.092794 0.114908 -5.3E-4 -0.061893 -0.128806 0.029658 -0.102642 0.050736 0.021353 0.278962 0.156361 -0.045776 -0.059025 0.007615 0.069272 0.03742 0.044666 -0.205296 -0.009373 0.060588 0.130976 -0.007905 -0.098053 0.083234 0.088487 0.073668 -0.063313 0.05638 -0.149995 0.040243 0.139103 0.120814 0.186168 0.077513 0.035539 -0.137722 0.149343 -0.011946 0.157701 0.051791 -0.073664 0.096946 -0.283681 0.058369 -0.065895 0.126711 -0.040991 -0.045914 -0.057224 -0.17697 0.066608 0.102407 -0.15335 -0.00258 -0.222251 -0.069709 -9.96E-4 0.033302 -0.223593 -0.01348 0.109527 0.085455 -0.086426 0.046289 0.047765 0.150103 -0.094972 -0.019492 -0.08396 0.061637 0.042416 0.083935 -0.175169 -0.031524 -0.150901 -0.072843 -0.056665 0.199748 0.160562 -0.070466 0.072887 0.025233 0.011767 0.031496 0.08045 -0.027642 0.037393 0.123465 -0.042501 0.013419 0.046506 -0.08898 -0.024989 -0.132646 0.135167 0.194549
-0.172636 0.01033 0.161959 -0.183546 0.084826 0.001454 -0.012333 0.025399 -0.140257 -0.043156 0.065558 -0.05232 0.099666 0.00853 0.143223 0.114338 0.12441 0.125198 0.033525 0.036631 -0.100414 0.095781 0.079415 0.218911 -0.202953 -0.176273 0.003928 -0.080203 0.064255 -0.151939 -0.015762 -0.091797 0.058406 0.259075 0.142232 0.005009 -0.027051 -0.151772 -0.009225 0.087933 -0.047953 0.058876 -0.00632 0.200481 -0.051352 -0.062672 -0.004913 0.138106 0.006286 0.095799 0.155862 0.073325 -0.063141 -0.126818 0.080382 -0.03216 0.029759 0.0419 0.073559 0.032012 0.00921 -0.174483 -0.047889 -0.051292 -0.092714 0.114818 -0.104232 -0.056323 -0.006118 -0.033086 -0.071821 -0.058985 -0.082653 -0.01357 0.127079 -0.029265 0.032993 0.09375 -0.047027 -0.121647 0.078634 0.058114 0.019442 1.0E-5 0.027019 0.006064 0.011752 0.078438 0.206987 0.051293 -0.026753 -0.10776 0.076365 -7.58E-4 -0.123035 -0.129837 -0.027931 -0.05268 0.159075 3.06E-4
