0.0 0.0 0.0 0.0 0.0 0.0 0.0 0.0 0.0 0.0 0.0 0.0 0.0 0.0 0.0 0.0 0.0 0.0 0.0 0.0 0.0 0.0 0.0 0.0 0.0 0.0 0.0 0.0 0.0 0.0 0.0 0.0 0.0 0.0 0.0 0.0 0.0 0.0 0.0 0.0 0.0 0.0 0.0 0.0 0.0 0.0 0.0 0.0 0.0 0.0 0.0 0.0 0.0 0.0 0.0 0.0 0.0 0.0 0.0 0.0 0.0 0.0 0.0 0.0 0.0 0.0 0.0 0.0 0.0 0.0 0.0 0.0 0.0 0.0 0.0 0.0 0.0 0.0 0.0 0.0 0.0 0.0 0.0 0.0 0.0 0.0 0.0 0.0 0.0 0.0 0.0 0.0 0.0 0.0 0.0 0.0 0.0 0.0 0.0 0.0
0.007005 -0.054211 0.016176 -0.013055 -0.023729 0.013895 -0.155503 0.103146 -0.131108 -0.014127 0.122818 -0.079179 0.022966 0.049621 0.005276 0.066058 -0.213521 0.011575 -0.015364 -0.03472 -0.011843 0.006618 0.043808 -0.082162 -0.085452 0.143612 0.091416 0.015272 0.048777 -0.121579 0.047419 -0.128461 -0.027365 0.104952 -0.028294 0.067569 -0.0498 -0.044849 0.03667 0.097442 -0.04853 0.033283 -0.007374 0.002053 0.041479 0.118473 0.005193 -0.018813 -0.102839 0.171118 0.052367 -0.148973 0.022793 0.147637 0.007281 -0.057162 0.080572 -0.002634 0.144297 -0.018746 0.108295 0.020348 0.034867 -0.095154 -0.021437 -0.016006 -0.056642 -0.01333 0.059156 9.9E-5 -0.081802 -0.152927 0.020513 -0.061341 0.155412 0.075078 -0.177009 -0.05859 0.034838 -0.177804 -0.062378 0.144396 -0.136871 -0.168659 -0.039606 -0.129438 0.047431 0.12324 0.003615 0.036461 -0.194447 0.044635 0.005379 -0.035536 -0.108042 -0.12465 0.016793 0.049479 -0.028609 0.155761
0.041521 -0.094551 0.254224 0.196826 -0.063005 0.143498 -0.024278 -0.117672 -0.136981 0.121399 0.137994 0.202595 -0.040113 -0.172078 0.089382 0.121518 -0.034268 0.24257 9.56E-4 0.01645 0.029009 0.122174 0.24183 -0.115716 -0.101383 -0.019544 -0.082532 -0.031896 0.012332 -0.049164 -0.001236 -0.212041 0.0509 -0.056934 -0.086268 -0.111156 0.28186 -0.022718 0.104901 0.11125 -0.146877 0.064133 0.038516 0.044244 -0.181847 0.010003 0.154673 0.031687 -0.235052 0.088136 -0.021119 0.025051 -0.146764 -0.004051 -0.02617 -0.086966 -0.077997 0.002726 0.161426 -0.082626 -0.043226 -0.053245 -0.086456 -0.139068 -0.117928 -0.014975 0.104689 -0.079801 -0.023993 -0.0171 0.033395 0.165615 0.032343 -0.00593 0.01398 -0.116829 -0.086425 -0.061299 -0.0398 0.146232 0.020922 0.235194 0.034827 -0.107373 0.090383 -0.094679 0.036239 0.06252 0.263945 -0.062003 0.110807 -0.079017 -0.200186 0.007263 0.027888 -0.020928 0.185095 0.008028 -0.131801 0.084576
-0.104233 0.004719 -0.037308 0.03116 0.161164 0.143112 0.174632 -0.087038 -0.12575 0.172479 0.170419 0.120925 -0.1307 -0.144242 0.01168 -0.040723 -0.033852 0.011043 0.118245 0.018042 0.024145 0.123057 0.095181 0.070001 0.089135 -0.116269 0.064145 0.086923 -0.070384 0.001646 -0.010746 -0.10754 -0.141846 0.135901 -0.158996 0.006728 -0.018827 -0.128123 0.07328 -0.185438 -0.062949 -0.090709 0.04159 0.13052 -0.003489 0.009123 -0.004686 0.174545 -0.052996 -0.109693 0.11056 -0.063018 -0.01742 0.145032 -0.10107 -0.017941 0.051128 0.052553 4.09E-4 -0.162718 -0.027825 0.2022 0.038442 -0.124866 8.82E-4 -0.097146 0.151341 -0.049785 0.09559 -0.014005 0.012931 0.002103 0.024968 -0.075638 -0.005268 -0.114022 -0.085028 0.136903 -0.096959 -0.025401 -0.015488 0.215738 0.045244 -0.097122 -0.161373 -0.046909 0.056293 -0.029269 -0.030757 0.122727 0.118711 0.096522 -0.201814 0.021385 0.014587 0.013716 0.061193 -0.054171 -0.057715 0.128937
-0.101423 -0.111223 0.204943 0.132795 0.05788 0.002316 -0.036371 0.128742 -0.099987 -0.203751 -0.005747 -0.076661 0.061493 0.129923 0.03874 0.055627 -0.263836 -0.184604 0.011424 -0.007279 0.055684 -0.07375 0.014547 0.147661 -0.137906 -0.053606 -0.109156 0.116562 0.167124 -0.150614 0.060862 0.022001 -0.10916 0.25015 -0.078021 -0.006786 -0.141903 0.141898 -0.160938 -0.126208 0.099444 0.188346 -0.14893 0.061422 -0.089297 -0.141281 -0.053777 0.056071 -0.033157 -0.040216 0.128842 -0.039396 0.153451 -0.099596 0.009729 -0.066533 -0.087515 -0.014641 -0.090516 0.13632 -0.012204 -0.13469 0.080049 0.037476 -0.028325 0.033903 0.019994 0.045848 0.02642 0.068674 -0.091896 0.015101 0.058041 -0.015662 0.014985 0.073895 0.155834 -0.167799 -0.15315 0.063915 0.007151 -0.100262 0.020611 0.155 -0.277609 0.145833 0.11182 0.07878 -0.028091 -0.019437 0.04089 -0.021383 0.025695 0.057773 -0.115688 0.142605 -0.064814 -0.090623 0.132294 -0.086139
0.0 0.0 0.0 0.0 0.0 0.0 0.0 0.0 0.0 0.0 0.0 0.0 0.0 0.0 0.0 0.0 0.0 0.0 0.0 0.0 0.0 0.0 0.0 0.0 0.0 0.0 0.0 0.0 0.0 0.0 0.0 0.0 0.0 0.0 0.0 0.0 0.0 0.0 0.0 0.0 0.0 0.0 0.0 0.0 0.0 0.0 0.0 0.0 0.0 0.0 0.0 0.0 0.0 0.0 0.0 0.0 0.0 0.0 0.0 0.0 0.0 0.0 0.0 0.0 0.0 0.0 0.0 0.0 0.0 0.0 0.0 0.0 0.0 0.0 0.0 0.0 0.0 0.0 0.0 0.0 0.0 0.0 0.0 0.0 0.0 0.0 0.0 0.0 0.0 0.0 0.0 0.0 0.0 0.0 0.0 0.0 0.0 0.0 0.0 0.0
0.063214 0.546233 1.436804 -1.701991 -2.214344 -1.573295 0.594849 1.230592 2.577843 0.326983 -0.392945 0.744605 -0.280455 -2.066855 -0.524303 -0.294231 -3.052065 -1.494751 -1.776001 2.471924 2.41781 0.404361 -0.398694 -0.384177 -1.74253 -0.033459 -1.370496 -1.562504 -0.722858 -1.103464 -1.48886 1.898633 0.192839 -0.606244 1.050843 -1.81655 -2.022087 2.665426 -2.593523 -1.500725 -1.327561 0.621299 0.936344 0.49357 -0.962584 0.543219 1.893296 2.294775 0.784522 1.175956 -0.901434 -0.019465 -0.690306 1.835585 0.771389 0.569763 3.013899 0.301686 1.620979 0.470965 2.231883 0.527047 2.395424 -1.779378 0.124788 1.166706 -0.898082 0.067755 1.130394 -3.431333 0.579126 -2.562487 -0.736123 -2.66398 -1.4101 -1.648247 1.264762 -0.470984 1.442492 -0.840161 -0.572669 0.063757 1.082286 -0.139007 1.09795 -2.886242 2.171777 -1.696526 1.652035 -2.266086 0.148545 1.996196 -0.903476 -0.053071 -0.964616 -2.413738 1.623703 0.369846 0.148439 -1.006853
0.029374 -0.04767 0.087389 -0.005519 -0.064026 0.067469 0.214773 -0.016782 0.231598 0.099016 -0.041209 0.120148 0.061325 -0.094957 0.084301 0.218167 -0.085212 0.176633 0.102517 0.063699 -0.132481 0.023255 0.11035 0.087736 -0.153185 -0.317216 -0.202262 -0.226468 -0.08202 0.193114 -0.130498 0.180749 -0.037145 0.138585 -0.05224 0.124978 0.031632 -0.007968 0.014554 -0.25663 -0.034572 -0.034262 0.032433 0.203602 0.020113 -0.127135 -0.005134 -0.017983 -0.020674 -0.078382 0.073198 0.027876 -0.121672 -0.034316 -0.18643 -0.019683 -0.081706 -0.134589 -0.059072 -0.055583 0.1932 0.026378 0.136765 -0.097381 0.042941 0.091959 0.038418 0.085926 0.05265 -0.159023 -0.133212 -0.078901 0.038623 -0.059591 -0.043145 -0.260305 -0.177865 0.052689 0.039511 -0.133889 0.022669 0.09648 0.08417 -0.043721 0.127651 0.185019 0.057055 -0.085347 0.190308 -0.001982 -0.201642 -0.018757 -0.108806 0.044892 -0.015605 -0.330658 -0.004003 0.226201 -0.024644 -0.034319
0.181233 0.046797 0.094324 0.01896 0.014424 -0.034833 -0.038452 -0.039491 -0.248442 0.032235 0.121442 0.18498 0.116456 0.01825 -0.125771 -0.022762 0.116121 -0.067895 -0.014958 -0.065064 0.080901 -0.04759 0.039959 -0.018278 -0.104893 0.028198 -0.124589 -0.052678 0.134052 -0.03879 -0.145685 -0.048604 -0.079813 0.014886 -0.197239 0.146021 0.067048 -0.097209 0.086029 0.065572 0.077154 0.221357 0.092032 0.026401 0.064814 -0.026244 -0.028105 -0.139626 -0.210646 -0.081715 -0.143337 0.010031 0.074665 -0.025169 0.032508 -0.019652 0.048465 -0.021525 -0.09458 -0.109341 -0.083562 -0.393006 -0.139905 -0.104465 -0.058542 0.037747 -0.066139 0.222147 0.082319 -8.07E-4 0.009073 -0.091877 -0.081227 0.046063 0.083866 -0.153864 0.157761 0.22281 -0.16922 -0.080582 -0.150118 0.100599 0.052175 0.001776 0.074854 -0.104569 0.147116 -0.011827 0.220632 0.056843 -0.046483 -0.046074 -0.121306 -0.024038 -0.062644 0.050681 -0.018632 0.213322 -0.051069 -0.184324
-0.101423 -0.111223 0.204943 0.132795 0.05788 0.002316 -0.036371 0.128742 -0.099987 -0.203751 -0.005747 -0.076661 0.061493 0.129923 0.03874 0.055627 -0.263836 -0.184604 0.011424 -0.007279 0.055684 -0.07375 0.014547 0.147661 -0.137906 -0.053606 -0.109156 0.116562 0.167124 -0.150614 0.060862 0.022001 -0.10916 0.25015 -0.078021 -0.006786 -0.141903 0.141898 -0.160938 -0.126208 0.099444 0.188346 -0.14893 0.061422 -0.089297 -0.141281 -0.053777 0.056071 -0.033157 -0.040216 0.128842 -0.039396 0.153451 -0.099596 0.009729 -0.066533 -0.087515 -0.014641 -0.090516 0.13632 -0.012204 -0.13469 0.080049 0.037476 -0.028325 0.033903 0.019994 0.045848 0.02642 0.068674 -0.091896 0.015101 0.058041 -0.015662 0.014985 0.073895 0.155834 -0.167799 -0.15315 0.063915 0.007151 -0.100262 0.020611 0.155 -0.277609 0.145833 0.11182 0.07878 -0.028091 -0.019437 0.04089 -0.021383 0.025695 0.057773 -0.115688 0.142605 -0.064814 -0.090623 0.132294 -0.086139
-0.718438 -0.830038 -0.584242 2.1215 -0.644012 1.416116 -0.587713 -0.321771 0.15449 -1.337212 0.646351 2.943981 -2.520119 -0.053393 1.892255 -0.247068 0.153723 -1.774544 -1.713547 1.03615 -2.316809 -1.758234 0.596352 -1.216816 0.651834 0.378166 -0.461749 -1.113127 -1.262089 1.808952 2.079526 -0.645053 -1.036425 -0.051591 0.752853 1.877822 1.149022 -1.563167 0.088195 1.179668 0.264795 -0.643595 -1.254162 2.294433 -0.67558 -0.480528 -1.903531 -1.404449 3.451226 0.215378 -0.348073 3.059608 -0.201534 3.176656 -2.660815 -0.397857 0.658943 0.204092 -2.861443 -2.700162 -0.267356 1.597524 -0.058446 0.400235 0.112722 2.04443 -0.418444 -0.708333 -0.409393 0.970238 4.077705 1.113589 0.123738 0.071757 1.385313 -2.550826 0.377188 -1.266978 -0.033552 1.268038 1.334944 -1.192168 -2.617046 1.325431 1.537295 0.868143 0.029881 0.136091 0.48518 -1.968409 0.753802 -0.972635 0.324233 1.386425 1.801178 1.298403 -2.240443 1.965765 -0.567086 2.183566
2.591633 1.608701 -2.087245 2.00752 3.012652 4.995656 0.847355 -1.594905 -0.365708 -1.629805 -1.650237 3.712017 -0.231463 -0.537534 -2.036098 2.002639 -0.696666 -4.310136 -1.477319 -1.356504 -0.581823 -1.830239 -0.272773 -1.648095 0.090509 0.008711 0.330842 0.396714 2.341035 -0.526067 1.155793 -1.730906 -1.010387 -1.342646 -1.939355 0.734869 0.727366 0.700702 1.516974 -2.133831 -0.280653 -3.051674 0.017123 0.532043 1.478449 0.375441 0.920129 1.548929 1.087478 0.668327 0.707416 3.249232 -0.362503 1.273221 -2.929682 -0.245389 1.633444 -0.119836 0.103459 -3.445175 0.513245 0.427807 0.738792 1.448203 0.501908 0.362882 -0.731533 -0.391201 0.037778 3.053553 4.030229 1.793904 1.24136 0.081706 -1.401954 -0.638804 -0.487445 -0.267924 0.012844 0.538179 -0.241935 -0.068756 1.351665 -0.112558 0.001814 0.447262 0.833441 -0.023876 1.212707 1.514635 -0.568611 0.376173 -3.663739 -4.345135 -0.444319 2.139788 -2.53093 0.92131 -1.399435 1.763954
-0.104233 0.004719 -0.037308 0.03116 0.161164 0.143112 0.174632 -0.087038 -0.12575 0.172479 0.170419 0.120925 -0.1307 -0.144242 0.01168 -0.040723 -0.033852 0.011043 0.118245 0.018042 0.024145 0.123057 0.095181 0.070001 0.089135 -0.116269 0.064145 0.086923 -0.070384 0.001646 -0.010746 -0.10754 -0.141846 0.135901 -0.158996 0.006728 -0.018827 -0.128123 0.07328 -0.185438 -0.062949 -0.090709 0.04159 0.13052 -0.003489 0.009123 -0.004686 0.174545 -0.052996 -0.109693 0.11056 -0.063018 -0.01742 0.145032 -0.10107 -0.017941 0.051128 0.052553 4.09E-4 -0.162718 -0.027825 0.2022 0.038442 -0.124866 8.82E-4 -0.097146 0.151341 -0.049785 0.09559 -0.014005 0.012931 0.002103 0.024968 -0.075638 -0.005268 -0.114022 -0.085028 0.136903 -0.096959 -0.025401 -0.015488 0.215738 0.045244 -0.097122 -0.161373 -0.046909 0.056293 -0.029269 -0.030757 0.122727 0.118711 0.096522 -0.201814 0.021385 0.014587 0.013716 0.061193 -0.054171 -0.057715 0.128937
0.0 0.0 0.0 0.0 0.0 0.0 0.0 0.0 0.0 0.0 0.0 0.0 0.0 0.0 0.0 0.0 0.0 0.0 0.0 0.0 0.0 0.0 0.0 0.0 0.0 0.0 0.0 0.0 0.0 0.0 0.0 0.0 0.0 0.0 0.0 0.0 0.0 0.0 0.0 0.0 0.0 0.0 0.0 0.0 0.0 0.0 0.0 0.0 0.0 0.0 0.0 0.0 0.0 0.0 0.0 0.0 0.0 0.0 0.0 0.0 0.0 0.0 0.0 0.0 0.0 0.0 0.0 0.0 0.0 0.0 0.0 0.0 0.0 0.0 0.0 0.0 0.0 0.0 0.0 0.0 0.0 0.0 0.0 0.0 0.0 0.0 0.0 0.0 0.0 0.0 0.0 0.0 0.0 0.0 0.0 0.0 0.0 0.0 0.0 0.0
0.007005 -0.054211 0.016176 -0.013055 -0.023729 0.013895 -0.155503 0.103146 -0.131108 -0.014127 0.122818 -0.079179 0.022966 0.049621 0.005276 0.066058 -0.213521 0.011575 -0.015364 -0.03472 -0.011843 0.006618 0.043808 -0.082162 -0.085452 0.143612 0.091416 0.015272 0.048777 -0.121579 0.047419 -0.128461 -0.027365 0.104952 -0.028294 0.067569 -0.0498 -0.044849 0.03667 0.097442 -0.04853 0.033283 -0.007374 0.002053 0.041479 0.118473 0.005193 -0.018813 -0.102839 0.171118 0.052367 -0.148973 0.022793 0.147637 0.007281 -0.057162 0.080572 -0.002634 0.144297 -0.018746 0.108295 0.020348 0.034867 -0.095154 -0.021437 -0.016006 -0.056642 -0.01333 0.059156 9.9E-5 -0.081802 -0.152927 0.020513 -0.061341 0.155412 0.075078 -0.177009 -0.05859 0.034838 -0.177804 -0.062378 0.144396 -0.136871 -0.168659 -0.039606 -0.129438 0.047431 0.12324 0.003615 0.036461 -0.194447 0.044635 0.005379 -0.035536 -0.108042 -0.12465 0.016793 0.049479 -0.028609 0.155761
-0.179184 -0.195371 0.238982 0.13019 0.039363 0.183319 0.156185 0.020426 -0.050619 -0.174715 -0.131019 0.114513 -0.252647 0.174804 0.250876 0.125428 0.040879 0.047063 -0.14322 -0.114775 0.013731 0.173199 0.346584 0.156467 -0.044912 -0.171648 0.048358 0.25139 0.074154 -0.00428 -0.166168 0.031039 -0.125709 0.319994 -0.004689 0.076248 0.041975 0.001188 0.448442 0.260898 -0.128098 -0.139819 0.219223 0.021258 0.103483 0.080399 0.006851 0.25953 0.151517 -0.132148 0.132082 -0.070673 0.112086 -0.028571 -0.286704 -0.003584 0.377087 0.060628 0.127386 -0.10595 -0.283759 -0.144178 0.101175 -0.139203 -0.064832 0.002185 -0.300702 -0.061566 -0.182708 0.159896 -0.195976 -0.084839 0.037547 -0.089749 0.200405 0.043883 -0.054559 -0.170004 0.02169 0.096727 -0.14979 -0.2713 0.289497 -0.441758 -0.154177 -0.068171 -0.053563 0.112106 -0.077742 0.017607 -0.060507 0.056643 0.165605 0.109662 0.074338 -0.096036 -0.342117 0.046155 0.116972 -0.043932
-0.020907 -0.093603 0.06039 -0.04426 -0.061384 0.009287 -0.112465 0.03588 -0.124342 0.007508 0.051363 0.250281 -0.019104 0.054702 0.028376 0.243572 -0.079794 0.174162 0.127926 -0.020074 -0.095071 0.048627 0.222405 -0.043126 -0.143747 -0.024347 -0.112647 0.126822 0.10825 -0.024831 -0.13259 -0.084674 -0.020622 0.059313 -0.053042 -0.030562 -0.075528 -0.026851 0.158784 0.087638 -0.084928 0.071768 0.0157 0.049527 -0.091558 -0.043431 0.066368 -0.089421 -0.089292 0.09366 0.017507 -0.185261 -0.044521 0.031755 0.118579 0.024641 -0.129578 -0.040078 0.060564 -0.131403 0.029474 -0.127399 0.077733 -0.098993 -0.110418 0.005311 0.13926 -0.118972 0.015598 -0.176675 -0.02704 0.047061 -0.030698 -0.116294 0.059419 0.02278 -0.061308 0.017409 -0.202631 0.09214 -0.010837 0.136533 0.086073 -0.09229 0.165372 0.1197 -0.031855 -0.023349 0.211669 0.299328 -0.065732 -0.087671 0.055795 -0.066327 0.03821 -0.200525 0.161459 0.059076 -0.179221 -0.016362
-0.309744 -0.23788 0.221223 0.035258 -0.031348 0.259589 -0.249475 0.073892 0.076251 0.095365 0.024037 0.03054 -0.024222 -0.109233 -0.026341 -0.20514 -0.109754 -0.003442 -0.081343 0.036571 -0.204218 0.023716 -0.065091 -0.105334 -0.223545 0.037655 -0.171112 -0.121351 0.121382 0.192911 -0.18496 -0.207567 -0.180525 0.222564 -0.202596 -0.026556 -0.030106 -0.049588 0.108851 0.158742 0.15793 0.118188 0.033227 -0.042376 0.019918 0.067694 0.112606 -0.05858 -0.322922 0.108194 -0.081196 -0.080386 0.030468 -0.091201 0.216984 0.032335 -0.147811 0.042845 0.058471 -0.07327 -0.2817 -0.019265 0.068997 -0.009123 -0.157255 0.273275 -0.06813 -0.073044 0.174008 0.093099 -0.080168 -0.030719 -0.007683 -0.079005 -0.237147 -0.240912 -0.131504 0.037961 -0.241002 0.136594 -0.195395 0.505685 0.250409 0.084241 0.122323 0.041168 -0.312287 -0.07245 -0.075842 0.209664 0.043018 -0.057069 0.221081 0.102778 0.066015 -0.031617 -0.041468 -0.065685 -0.105651 0.074308
0.029311 -0.00394 0.144591 0.005349 -0.224872 -0.14955 -0.330434 -0.13472 -0.234834 0.123263 0.161535 0.083347 0.113596 -0.025119 -0.039363 0.237404 0.02545 0.238108 0.19576 -0.053798 -0.023347 -0.268285 0.275654 0.156607 -0.094224 0.101317 -0.053377 -0.271919 -0.014906 -0.214083 0.083123 -0.139274 -0.178363 0.25395 0.103669 -0.070443 0.112469 -0.082278 0.001379 0.146319 -0.150933 0.113648 -0.03025 -0.077003 0.193874 -0.160045 0.001308 -0.291884 -0.043525 0.083474 0.176586 0.006538 -0.122754 0.083964 0.246809 0.146183 0.145932 0.184616 -0.127022 -0.183764 0.044634 -0.028374 0.026217 -0.140107 -0.250464 -0.062883 0.177839 0.01395 0.106302 -0.25498 -0.097386 -0.048577 0.021871 -0.049886 0.13255 -0.040562 -0.126186 0.036832 -0.066077 -0.110903 0.037933 0.286047 -0.113528 -0.040929 -0.086173 -0.078301 0.001312 -0.146959 0.076818 -0.004594 -0.108198 -0.170872 -0.053995 0.057122 0.157757 0.085169 0.007176 -0.052063 -0.081327 -0.250041
-0.16526 -0.125759 0.086172 -0.073618 0.100657 -0.043946 -0.089765 -0.076099 -0.135857 0.009636 -0.036465 0.227507 0.217747 -0.088453 0.031326 0.039479 -0.087813 0.090354 0.120262 -0.064597 0.011322 0.016658 0.27265 0.023239 0.036419 -0.183944 0.015295 -0.0989 0.067202 0.081155 -0.163607 -0.048144 -0.03524 0.119859 -0.216774 -0.097933 -0.058858 0.028692 0.093401 -0.015126 -0.170494 0.084354 0.063872 0.04883 -0.003724 -0.13525 0.122728 0.06947 -0.130152 -0.048315 0.150119 -0.022637 -0.047962 0.067457 -0.09483 -0.035406 0.14301 -0.059777 0.194492 -0.045509 0.031342 0.118222 -0.01021 -0.137844 -0.007796 0.083188 0.182567 0.029889 0.00348 -0.106126 0.055999 -0.015482 0.179231 0.006781 0.148907 -0.071332 -0.043417 0.07997 -0.151633 0.038319 -0.127367 0.119224 -0.121719 -0.175823 0.009264 0.044314 0.120565 0.090613 0.116276 -0.009916 -0.039233 -0.103821 -0.117814 0.084605 -0.052042 -0.132151 0.061747 0.018746 -0.101982 0.016663
-0.073843 -0.059589 0.02079 -0.003026 -0.015378 0.129731 -0.092164 -0.128453 0.1896 -0.04828 -0.073998 0.071628 -0.00721 0.119706 0.012321 0.106497 -0.154551 0.003301 0.279209 0.012427 -0.020755 0.182223 -0.205611 0.136663 -0.259656 -0.15838 0.01209 -0.025937 0.125639 -0.005184 6.03E-4 0.04732 -0.115644 0.096034 -0.125977 -0.056277 -0.095195 -0.082141 0.235645 -0.125572 -0.126572 -0.008714 0.101081 -0.073142 -0.126814 -0.137044 -0.11119 0.056072 -0.131195 -0.100049 0.136518 0.023079 -0.131634 0.030597 -0.094821 0.031327 -0.040237 0.159037 0.041189 0.071674 -0.008435 0.011013 -0.028878 -0.082541 -0.010232 -0.003002 -0.090612 0.033738 0.171709 0.052142 -0.022712 -0.031116 0.183779 -0.183957 0.129417 -0.062634 0.021567 -0.052125 -0.040465 0.11769 0.048514 -0.030506 -0.088549 0.068723 0.053593 -0.053114 0.163471 -0.136948 0.102235 -0.013556 -0.046679 -0.016717 0.033372 0.169048 -0.15101 -0.234252 0.192945 0.114441 0.021103 -0.032814
0.0 0.0 0.0 0.0 0.0 0.0 0.0 0.0 0.0 0.0 0.0 0.0 0.0 0.0 0.0 0.0 0.0 0.0 0.0 0.0 0.0 0.0 0.0 0.0 0.0 0.0 0.0 0.0 0.0 0.0 0.0 0.0 0.0 0.0 0.0 0.0 0.0 0.0 0.0 0.0 0.0 0.0 0.0 0.0 0.0 0.0 0.0 0.0 0.0 0.0 0.0 0.0 0.0 0.0 0.0 0.0 0.0 0.0 0.0 0.0 0.0 0.0 0.0 0.0 0.0 0.0 0.0 0.0 0.0 0.0 0.0 0.0 0.0 0.0 0.0 0.0 0.0 0.0 0.0 0.0 0.0 0.0 0.0 0.0 0.0 0.0 0.0 0.0 0.0 0.0 0.0 0.0 0.0 0.0 0.0 0.0 0.0 0.0 0.0 0.0
-0.064357 -0.033406 -0.006591 0.181457 0.041885 0.1408 -0.109843 0.016376 0.068228 -0.045519 0.005233 0.012036 0.05064 -0.052642 0.185426 0.139427 -0.155023 0.12963 0.063368 -0.055016 -0.054854 -0.018229 0.216037 -0.004417 -0.285826 -0.095238 -0.069825 -0.021777 0.187402 -0.130867 -0.00675 -0.075803 -0.044586 0.061098 0.044502 -0.138919 0.031721 -0.005549 0.063477 5.3E-5 0.101342 0.067759 0.180205 0.110423 -0.107152 0.014466 -0.095647 -0.001514 -0.13148 0.090497 0.038783 -0.236052 -0.139813 -0.061498 0.050517 -0.013343 -0.001507 0.083055 0.065801 -0.03321 0.124938 -0.104659 -0.042903 -0.049201 -0.088403 -0.030678 0.055664 0.085579 0.303591 -0.024133 0.025756 -0.085778 0.02809 -0.058313 0.028445 -0.065808 -0.182156 -0.019053 0.014958 -0.002839 -0.024485 0.159415 0.06125 -0.100844 0.111327 0.042033 0.023134 -0.078359 0.169092 -0.074151 -0.058673 0.083338 0.03916 0.23854 -0.125673 0.017002 0.129169 0.039082 0.127676 0.034378
-0.073843 -0.059589 0.02079 -0.003026 -0.015378 0.129731 -0.092164 -0.128453 0.1896 -0.04828 -0.073998 0.071628 -0.00721 0.119706 0.012321 0.106497 -0.154551 0.003301 0.279209 0.012427 -0.020755 0.182223 -0.205611 0.136663 -0.259656 -0.15838 0.01209 -0.025937 0.125639 -0.005184 6.03E-4 0.04732 -0.115644 0.096034 -0.125977 -0.056277 -0.095195 -0.082141 0.235645 -0.125572 -0.126572 -0.008714 0.101081 -0.073142 -0.126814 -0.137044 -0.11119 0.056072 -0.131195 -0.100049 0.136518 0.023079 -0.131634 0.030597 -0.094821 0.031327 -0.040237 0.159037 0.041189 0.071674 -0.008435 0.011013 -0.028878 -0.082541 -0.010232 -0.003002 -0.090612 0.033738 0.171709 0.052142 -0.022712 -0.031116 0.183779 -0.183957 0.129417 -0.062634 0.021567 -0.052125 -0.040465 0.11769 0.048514 -0.030506 -0.088549 0.068723 0.053593 -0.053114 0.163471 -0.136948 0.102235 -0.013556 -0.046679 -0.016717 0.033372 0.169048 -0.15101 -0.234252 0.192945 0.114441 0.021103 -0.032814
0.166865 -0.033351 -0.013364 -0.059014 -0.095169 -0.021507 -0.126788 0.103728 -0.200711 -0.063152 0.044354 0.134222 0.002393 0.071524 0.209815 0.100187 0.025401 0.083631 0.120448 0.173878 -0.091184 0.033918 0.054121 0.121356 -0.168415 -0.048991 -0.209931 -0.016042 0.202225 -0.007166 -0.110802 -0.028926 -0.11468 0.016808 -0.064513 -0.05835 -0.015135 0.093734 0.167046 -0.014056 0.02555 -0.101082 -0.016676 -0.00246 -0.017495 0.184926 -0.038011 -0.106257 0.001132 0.03659 0.080797 -0.16487 -0.164051 -0.024617 0.144233 0.037146 0.064814 -0.135114 0.218106 -0.087954 0.024218 -0.008723 0.020657 -0.10933 -0.0401 -0.009808 -0.283523 0.179888 -0.016468 0.100665 -0.045627 0.125868 0.040189 0.113707 0.238166 -0.079786 0.009467 -0.061173 -0.064632 -0.277119 0.084403 -0.091058 0.212317 -0.16461 -0.095926 -0.049768 -0.09268 0.023356 0.096515 0.010373 -0.174271 -0.082788 -0.155016 0.104184 0.044246 0.051147 0.02525 -0.044468 -0.064392 -0.011243
0.038342 0.029822 -0.163298 -0.129129 -0.038658 -0.013965 -0.150355 0.084275 -0.188981 0.104 0.139369 0.104531 0.023965 0.056062 -0.070498 0.152222 -0.012249 0.18744 -0.072067 0.072867 -0.126777 0.14174 0.062384 0.018993 -0.077429 0.018136 0.056547 -0.07176 0.127226 -0.048333 -0.175163 0.095322 -0.048429 -0.230528 -0.043731 -0.113681 -0.009388 -0.037438 0.003086 0.028454 -0.047845 0.061795 -0.015944 0.182638 -0.161548 0.06029 -0.033214 0.121239 -0.123073 -0.002523 0.045072 -0.035366 0.033051 0.109882 0.06516 -0.133246 -0.071843 -0.053908 0.04081 0.148636 0.324714 -0.178983 0.126414 -0.122635 0.08001 0.099009 0.11735 0.02845 0.191802 -0.086668 0.054088 -0.100823 -0.037392 0.080801 0.135559 -0.113606 -0.194344 0.064467 0.078046 -0.141423 0.044972 0.2505 0.20125 -2.1E-5 0.075123 -0.134923 0.063388 -0.158205 0.040392 0.280185 -0.144769 -0.106544 0.069636 0.113245 -0.03233 -0.146359 0.017426 -0.020778 0.116499 0.106698
0.0 0.0 0.0 0.0 0.0 0.0 0.0 0.0 0.0 0.0 0.0 0.0 0.0 0.0 0.0 0.0 0.0 0.0 0.0 0.0 0.0 0.0 0.0 0.0 0.0 0.0 0.0 0.0 0.0 0.0 0.0 0.0 0.0 0.0 0.0 0.0 0.0 0.0 0.0 0.0 0.0 0.0 0.0 0.0 0.0 0.0 0.0 0.0 0.0 0.0 0.0 0.0 0.0 0.0 0.0 0.0 0.0 0.0 0.0 0.0 0.0 0.0 0.0 0.0 0.0 0.0 0.0 0.0 0.0 0.0 0.0 0.0 0.0 0.0 0.0 0.0 0.0 0.0 0.0 0.0 0.0 0.0 0.0 0.0 0.0 0.0 0.0 0.0 0.0 0.0 0.0 0.0 0.0 0.0 0.0 0.0 0.0 0.0 0.0 0.0
0.007005 -0.054211 0.016176 -0.013055 -0.023729 0.013895 -0.155503 0.103146 -0.131108 -0.014127 0.122818 -0.079179 0.022966 0.049621 0.005276 0.066058 -0.213521 0.011575 -0.015364 -0.03472 -0.011843 0.006618 0.043808 -0.082162 -0.085452 0.143612 0.091416 0.015272 0.048777 -0.121579 0.047419 -0.128461 -0.027365 0.104952 -0.028294 0.067569 -0.0498 -0.044849 0.03667 0.097442 -0.04853 0.033283 -0.007374 0.002053 0.041479 0.118473 0.005193 -0.018813 -0.102839 0.171118 0.052367 -0.148973 0.022793 0.147637 0.007281 -0.057162 0.080572 -0.002634 0.144297 -0.018746 0.108295 0.020348 0.034867 -0.095154 -0.021437 -0.016006 -0.056642 -0.01333 0.059156 9.9E-5 -0.081802 -0.152927 0.020513 -0.061341 0.155412 0.075078 -0.177009 -0.05859 0.034838 -0.177804 -0.062378 0.144396 -0.136871 -0.168659 -0.039606 -0.129438 0.047431 0.12324 0.003615 0.036461 -0.194447 0.044635 0.005379 -0.035536 -0.108042 -0.12465 0.016793 0.049479 -0.028609 0.155761
-0.111222 0.039124 -0.113704 0.00348 0.147556 0.222705 0.072442 0.109251 -0.062309 -0.034227 -0.070104 0.032923 -0.100164 -0.013077 -0.050603 0.138185 0.135583 0.052445 0.194674 0.365864 0.362126 0.278103 0.066463 -0.158667 -0.023758 -0.27085 0.015972 0.142344 0.124873 -0.021056 -0.175286 -0.100711 -0.082826 0.219094 -0.129399 -0.123152 0.069609 -0.381872 0.206404 -0.154798 -0.066262 0.209244 -0.106105 0.30893 0.131289 0.003943 -0.081096 0.069744 0.165617 -0.059466 -0.169959 -0.126711 -0.201185 -0.150701 0.041894 -0.169988 0.351785 0.098326 0.150179 0.020852 0.11643 -0.125348 -0.162041 -0.082338 -0.132177 -0.162636 -0.059407 0.093177 0.058427 -0.370672 -0.001548 0.178278 -0.020524 -0.142637 -0.047166 -0.098101 -0.266345 0.288026 -0.168086 0.072564 0.014027 0.077889 -0.322414 0.280058 0.113879 -0.079234 -0.034986 -0.078511 0.051622 -0.049322 0.06797 -0.072902 -0.072379 -0.005969 -0.201419 -0.176588 0.281967 0.11306 -0.067353 -0.30201
-0.07555 -0.134649 9.81E-4 0.066902 -0.008468 0.197472 0.136262 0.008161 -0.004177 0.14494 0.048036 0.176647 -0.028504 -0.048088 -0.060923 0.075324 -0.052052 0.055278 0.136034 -0.046414 -0.111127 -0.109821 -0.031986 0.070788 0.287691 -0.27386 0.059649 0.142605 0.097785 -0.082127 -0.142776 -0.084975 -0.009139 0.13371 0.150226 -0.033948 0.100494 -0.161805 0.200048 -0.113088 -0.193666 0.134301 0.107839 0.153996 -0.02583 -0.102589 0.019957 -0.167462 -0.089285 -0.080432 -0.027253 0.011421 -0.123509 0.047813 -0.11853 0.160271 0.172744 0.035336 -0.075497 -0.17292 -0.05128 0.005391 0.151601 -0.071361 -0.072314 -0.085409 -0.063029 -0.060281 0.042147 -0.037277 -0.091356 -0.181351 -0.001536 -0.057231 0.006275 -0.083538 -0.255018 -0.054278 -0.254964 -0.070801 -0.024028 0.0541 0.108463 -0.18654 -0.233655 0.085816 0.053031 -0.039385 0.135168 0.165729 -0.076049 0.016285 -0.142657 -0.105998 -0.017943 -0.10915 0.062525 0.092294 0.019403 -0.00717
0.062522 -0.14401 -0.001482 0.105199 -0.004925 -0.042687 -0.122233 0.029886 -0.128466 0.19125 0.05426 0.105584 -0.023435 -0.133626 0.273104 0.276843 0.020197 0.068255 0.163732 -0.007876 -0.117574 0.100282 0.305571 0.072216 -0.156179 -0.045617 -0.009269 -0.024426 0.065556 -0.359507 -0.051771 -0.108227 -0.14362 0.195042 -0.03045 0.074046 -0.110848 0.031238 0.049085 0.122117 -0.11719 0.258337 -0.061496 0.019917 -0.013162 -0.082861 -0.024269 -0.111005 -0.141643 -0.037213 0.11058 -0.209959 0.049935 0.047854 0.045576 0.006442 0.049303 -0.208688 -0.007247 -0.186497 0.060443 -0.080912 0.144786 -0.255699 -0.189857 0.130603 -0.060516 0.151876 0.143049 -0.069666 -0.023531 0.167617 -0.230491 0.132738 0.076997 -0.125239 -0.15613 0.002294 -0.039685 -0.137649 0.085502 0.113264 0.312524 -0.138582 0.08871 -0.016901 -0.047516 0.038886 0.228398 0.163581 -0.081154 -0.045722 0.048329 0.221347 -0.018802 -0.242436 0.14059 0.081484 0.009134 -0.11946
0.106819 -0.155273 0.100262 -0.203633 -0.113744 0.111418 0.013196 -0.164598 -0.127185 -0.165083 0.089429 0.075216 -0.011487 -0.23205 0.00902 0.111355 0.055741 0.249202 0.068646 -0.188616 -0.022875 -0.045377 0.075285 0.094837 0.09953 0.08352 -0.221726 0.199086 0.073367 -0.079957 -0.048898 0.031393 -0.061042 0.051715 0.06043 -0.0634 -0.172957 -0.081083 0.176533 0.10955 0.064371 0.067772 0.099143 -0.044073 0.116149 -0.196917 -0.069986 0.02172 -0.076782 0.107784 0.067828 -0.091854 -0.184321 -0.05151 -0.09098 -0.21381 -0.083922 0.015174 0.184239 0.036793 0.024972 -0.180812 0.10811 -0.268639 -0.014862 0.177306 0.295233 -0.003502 0.025697 0.009478 -0.113488 -0.037256 -0.071333 -0.03362 -5.3E-4 -0.055012 -0.119723 -0.117096 0.029741 -0.076297 0.066154 0.110038 0.269759 0.077774 0.025025 -0.0144 0.07612 0.018105 0.064228 0.067635 0.176666 0.164935 -0.019551 0.050667 0.264672 0.021985 -0.100457 -0.019675 0.025597 -0.011342
-0.149867 0.077854 -0.057384 0.049305 -0.009405 0.154921 -0.014387 0.146394 -0.044434 -0.047309 0.057275 0.129201 0.002547 0.012529 -0.070844 0.097135 0.036736 -0.069666 0.151797 0.181036 -0.129967 4.09E-4 0.179857 -0.067386 0.057926 -0.070265 0.239 -0.059135 0.013238 0.131437 0.061445 -0.066996 -0.085886 0.318437 -0.107762 0.048981 0.124937 0.111594 0.133462 -0.073227 0.038944 -0.072997 -0.049897 -0.062633 -0.022548 -0.155043 0.163285 -0.082676 -0.00869 -0.023808 -0.113895 0.021677 -0.103078 -0.056982 0.014668 -0.07451 0.063208 -0.081803 0.141512 -0.058697 0.226632 0.084855 -0.148581 -0.107751 0.023714 -0.060122 0.002241 0.054781 0.10372 -0.10369 0.138238 0.092693 -0.104515 -0.01009 -0.056401 -0.043878 -0.069163 0.067243 -0.040751 0.080922 -0.037099 0.069864 -0.035231 -0.127025 0.022087 -0.051938 -0.063553 0.103248 0.095141 0.065783 0.095867 0.024102 -0.096936 -0.01374 -0.05914 -0.155662 0.07266 0.013251 -0.137238 -0.16063
-0.239315 -0.030448 0.036255 0.074122 -0.097217 -0.026973 -0.161975 -0.114135 -0.202262 0.019963 0.032282 0.215641 0.042808 0.045187 -0.013034 0.281217 0.059741 0.142698 0.036448 -0.068113 -0.091448 -0.071861 0.297659 0.026309 -0.086026 -0.194216 -0.059302 0.005371 0.325252 -0.10379 -0.032355 -0.103113 -0.109192 0.129247 0.152288 -0.142585 0.032272 -0.035378 0.043592 0.058421 0.169423 0.169132 0.041344 -0.01026 -0.044361 -0.235292 -0.068488 0.056367 -0.210391 0.141339 0.236383 -0.212306 -0.194813 -0.159566 0.141882 -0.026159 -0.003761 -0.006341 0.033691 -0.162387 0.072914 -0.146348 -0.121126 -0.132917 -0.069717 0.14785 -0.057254 0.097162 0.103104 -0.031967 -0.126515 -0.014322 -0.066091 -0.00437 0.132894 -0.107577 0.059598 -0.006106 0.021321 -0.143504 -0.168324 0.064241 0.107195 -0.188165 -0.062753 0.008462 0.066903 -0.04749 0.241424 -0.107693 -0.095248 -0.058932 -0.090457 0.146563 -0.20358 0.02995 0.082678 0.049861 -0.01676 0.089927
-0.134008 -0.036238 0.101819 0.06978 -0.145865 -0.11309 -0.163883 -0.247747 -0.146164 0.193955 -0.051005 0.077787 -0.090948 -0.019506 0.03762 0.109274 -0.186923 0.113068 -0.090135 -0.10643 0.04886 0.298286 0.155327 0.059199 0.138458 -0.017476 0.036106 -0.046772 0.004943 -0.02638 0.067951 0.115696 -0.14996 0.043632 -0.1831 0.03796 0.093955 -0.153344 -0.259589 -0.106328 -0.084317 0.174354 0.166607 -0.048267 -0.075681 -0.092909 0.019737 0.073501 -0.119044 0.354156 0.04165 0.064732 -0.045174 -0.111477 0.072813 0.085033 0.143712 -0.014393 0.058013 -0.233979 -0.036168 -0.17949 0.005496 -0.108741 -0.210584 -0.144125 0.11685 0.11331 0.155707 0.156336 -0.052404 -0.018173 0.098398 0.03714 0.121746 0.074775 -0.161222 0.01243 -0.237337 -0.099386 0.093821 0.035655 0.158608 -0.17074 -0.082466 -0.143209 -0.134011 -0.007119 0.162059 0.181588 0.049815 0.034453 -0.093726 0.060205 -0.036982 -0.140768 0.023987 -0.092753 -0.052416 0.060204
-0.140645 -0.111455 0.049401 0.010203 0.12431 0.052285 -0.052731 -0.202634 0.034392 0.108793 0.131001 0.096945 -0.214945 -0.112512 0.145742 0.273574 -0.214471 0.1793 0.031799 -0.028236 -0.139417 -0.043506 0.147202 -0.004362 -0.188235 -0.1627 -0.059462 -0.043994 0.166549 -0.054452 0.051873 0.056928 0.031736 0.045897 -0.060647 0.086604 0.086079 -0.139766 0.007988 -0.058936 -0.14374 0.119792 -0.045982 0.127127 -0.003533 -0.197682 -0.124618 0.117904 -0.04616 0.231896 0.239765 0.005725 -0.183639 0.199834 -0.125911 -0.085421 -0.066455 -0.012365 -0.154787 -0.117926 -0.059423 -0.105961 0.007818 -0.095087 0.050628 0.199214 0.10287 0.075362 0.049392 0.029649 0.026506 -0.01661 -0.042517 0.004233 -0.086546 -0.080603 -0.141845 -0.011712 -0.024248 -0.158106 0.142679 0.087881 -0.056147 -0.156817 -0.025918 0.255114 -0.124919 -0.035325 0.119664 -0.010274 0.094859 -0.117034 -0.088613 -0.053985 -0.086519 -0.130959 -0.046042 -0.156587 -0.090777 -0.098894
-0.015053 0.07877 -0.026847 -0.109937 -0.016223 0.032131 -0.222545 -0.091714 -0.279686 0.004394 0.213256 0.088053 0.055374 0.003338 0.116556 0.054024 0.017682 0.05713 0.051169 0.137303 -0.15315 0.163576 0.004184 0.073117 0.003215 -0.257313 -0.017949 0.148465 0.217377 -0.089013 -0.135832 -0.274437 0.075407 0.103312 -0.093159 -0.064408 0.256943 -0.052255 -0.119479 -0.008951 0.111748 -0.077108 0.122247 0.019327 0.062672 -0.074356 0.010982 -0.035149 -0.134855 0.062269 0.050633 -0.088461 -0.064169 0.127441 0.026868 -0.178639 -0.057189 -0.136419 -0.135387 0.153784 0.088337 -0.157932 -0.079042 -0.212426 -0.102402 0.198656 0.112393 0.02729 0.169065 -0.104827 -0.017241 0.130268 -0.020151 0.267615 -0.068519 -0.142083 -0.062244 0.033485 -0.350424 -0.047356 -0.082384 0.147452 -5.79E-4 -0.086449 0.028534 0.067644 -0.064486 -0.22677 0.110168 -0.101881 0.050268 0.018407 -0.041622 0.102896 -0.018183 0.098323 0.002882 -0.002099 0.142202 -0.142711
-0.26639 -0.104912 0.180519 0.043667 0.041207 -0.008381 0.035828 -0.02579 0.038929 0.035407 -0.045987 0.093855 0.05433 0.066768 0.181295 0.016569 -0.262033 0.088718 -0.019571 0.052693 0.009422 0.007749 -0.062198 0.035078 -0.170783 -0.109887 -0.051371 0.088142 0.135591 -0.010743 0.025514 -0.009047 -0.121579 0.186548 0.022521 0.036774 0.17183 0.066132 0.09254 0.082441 -0.088491 -0.081832 0.017962 -0.036285 -0.059927 0.038842 -0.0052 0.081773 -0.050056 0.091032 0.203915 -0.091347 -0.101425 -0.177557 -0.044136 0.113395 0.140815 -0.005832 0.068476 -0.192456 0.057304 -0.102904 -0.094204 -0.199142 -0.166277 -0.01435 2.05E-4 0.073523 0.121399 0.031439 0.010424 -0.100921 0.049779 0.0731 0.03039 -0.023583 -0.137003 -0.08019 -0.121996 -0.288955 -0.041308 0.110603 0.155086 -0.11951 -0.218402 -0.075287 0.015009 -0.113641 0.196042 0.012681 -0.131442 0.013214 0.01092 0.144369 0.024212 -0.179417 -0.032645 -0.112605 0.114788 0.0294
-0.111222 0.039124 -0.113704 0.00348 0.147556 0.222705 0.072442 0.109251 -0.062309 -0.034227 -0.070104 0.032923 -0.100164 -0.013077 -0.050603 0.138185 0.135583 0.052445 0.194674 0.365864 0.362126 0.278103 0.066463 -0.158667 -0.023758 -0.27085 0.015972 0.142344 0.124873 -0.021056 -0.175286 -0.100711 -0.082826 0.219094 -0.129399 -0.123152 0.069609 -0.381872 0.206404 -0.154798 -0.066262 0.209244 -0.106105 0.30893 0.131289 0.003943 -0.081096 0.069744 0.165617 -0.059466 -0.169959 -0.126711 -0.201185 -0.150701 0.041894 -0.169988 0.351785 0.098326 0.150179 0.020852 0.11643 -0.125348 -0.162041 -0.082338 -0.132177 -0.162636 -0.059407 0.093177 0.058427 -0.370672 -0.001548 0.178278 -0.020524 -0.142637 -0.047166 -0.098101 -0.266345 0.288026 -0.168086 0.072564 0.014027 0.077889 -0.322414 0.280058 0.113879 -0.079234 -0.034986 -0.078511 0.051622 -0.049322 0.06797 -0.072902 -0.072379 -0.005969 -0.201419 -0.176588 0.281967 0.11306 -0.067353 -0.30201
-0.276875 -0.13326 0.139619 -0.237547 0.20899 -0.071058 0.355655 -0.106387 0.139386 -0.168977 -0.139107 -0.042402 0.050228 0.039074 0.060961 -0.031488 3.77E-4 -0.121123 0.165596 -0.025255 0.059145 0.167755 0.141204 -0.013658 0.065765 -0.294305 0.138698 0.071073 0.085534 -0.009492 -0.162574 -0.099549 -0.121764 0.303138 0.021727 -0.071269 -0.168577 -0.152326 0.243122 -0.127676 0.152544 -0.013776 -0.135471 0.159448 -0.099666 -0.043319 0.055323 0.009119 -0.054389 -0.0733 0.202797 0.090002 -0.145621 0.001508 -0.184188 0.107493 -0.19036 0.105972 0.029641 0.003689 0.063398 -0.139282 -0.027235 -0.03999 -0.168846 0.152818 -0.18961 -0.162288 0.135357 -0.028896 -0.119459 0.144437 -0.015495 -0.040984 -0.122549 -0.165886 -0.101681 0.230091 -0.204786 -0.083871 0.205663 0.144261 0.104784 -0.060134 0.130056 0.188363 0.048225 -0.126124 0.118107 0.139469 0.323091 0.08559 -0.080789 -0.028375 0.092532 -0.178329 0.304321 -0.163862 0.046298 -0.014361
-0.053833 0.079877 0.072856 0.139498 -0.105369 0.004769 -0.27073 -0.096518 -0.168103 -0.103006 0.202092 0.363744 -0.141267 -0.129923 0.01534 0.19683 -0.187167 0.111945 0.109179 -0.016332 0.035184 0.139347 0.315416 0.181261 -0.257633 -0.053217 -0.053058 -0.098832 0.23437 -0.331022 -0.084191 -0.075678 -0.001831 -0.110346 -0.013756 -0.266761 0.034555 -0.008762 -0.150297 0.165393 -0.060494 -0.197826 0.147763 -0.035721 0.031472 -0.210231 -0.085577 -0.109783 -0.244063 0.165008 0.054471 -0.00802 0.010601 -0.037268 0.221023 -0.133451 0.002637 -0.019477 0.129964 0.041991 -0.012534 -0.093924 -0.069187 -0.137315 -0.125857 -0.019287 -0.075852 -0.025292 0.08558 -0.045041 0.044839 -0.045932 0.096927 -0.044108 0.128249 -0.290646 -0.150284 -0.045275 0.037713 0.15651 0.143393 -0.066424 0.296246 -0.291488 0.055917 0.059085 0.065453 0.001004 0.226514 0.017525 -0.201115 -0.040421 -0.006957 -0.001567 -0.074785 -0.124046 0.079696 -0.095859 -0.218243 -0.010996
0.091672 0.075639 0.119181 -0.211395 0.199684 -0.022588 0.153795 -0.07079 -0.031442 -0.0312 0.018324 -0.015799 -0.066469 -0.094509 0.05229 -0.122138 -0.036531 -0.139652 0.070586 -0.111684 -0.019889 -0.068858 -0.163669 -0.087149 0.166976 -0.111961 -0.257902 0.040599 6.15E-4 0.036585 -0.118479 -0.116388 -0.003051 -8.92E-4 0.133326 0.00283 0.119995 -0.004492 0.120043 0.125634 0.094952 0.007577 0.092645 0.061393 -0.166231 0.139536 -0.04727 -0.038917 0.008833 0.004687 -0.049505 -0.058089 -0.12376 -0.004369 -0.139639 6.5E-4 0.038093 0.025959 -0.019211 0.017039 -0.148683 -0.057447 0.085465 0.051554 0.079783 0.166892 0.094453 -0.007781 -0.041022 -0.010264 -0.207578 0.01258 -0.046134 -0.055454 -0.018578 0.014716 0.045841 0.021157 0.014964 0.01778 -0.045395 0.05012 -0.068126 0.020794 0.075137 -0.139634 -0.064804 0.001908 -0.088039 -0.010205 0.185 -0.018831 0.164765 -0.235015 -0.032909 0.035354 -0.025189 0.0475 -0.019968 -0.057239
-0.155811 -0.043228 0.084716 0.049175 -0.155811 0.116113 -0.159312 -1.28E-4 -0.131195 0.051491 0.020913 0.153071 0.004988 -0.094273 0.121914 -0.007926 -0.047595 0.016621 -0.058874 -0.020737 0.146943 0.180647 0.028755 0.089087 -0.084388 -2.76E-4 0.149139 -0.215368 -0.009805 0.017771 -0.07123 -0.098113 -0.05855 0.042215 0.081458 -0.047884 0.101413 -0.009436 0.146562 -0.069388 0.08219 0.131264 -0.023974 -0.100645 -0.053633 -0.070266 0.072691 0.189196 -0.013633 0.056311 0.017824 -0.090304 -0.084498 0.062649 0.081773 0.031979 0.023537 -0.316178 -0.01539 0.060112 -0.156909 -0.025878 0.003728 -0.130515 0.025941 -0.03111 0.093538 0.087884 -0.077921 -0.02979 0.110891 0.075977 0.124091 0.152766 0.014151 -0.016641 -0.01696 -0.034473 0.0942 0.142895 -0.224409 0.109993 0.058635 0.074291 0.003327 -0.057868 -0.114748 0.180843 -0.02824 -0.139233 -0.095821 -0.025914 0.026563 0.004078 0.05411 0.00371 0.109549 -0.128101 0.04806 0.043608
-0.023725 -0.265581 -0.041655 0.122232 0.026794 -0.088378 -0.095963 -0.07173 -0.107796 -0.053451 0.244892 0.188711 -0.170801 0.022715 -8.47E-4 0.204389 -0.068086 0.024141 0.111102 0.050266 -0.042829 -0.104548 0.056634 0.106866 -0.035671 -0.111641 0.164909 0.066612 0.15263 -0.04625 0.072838 0.047495 -0.171938 0.101539 -0.079368 -0.007698 0.092885 -0.147097 0.195496 -0.035855 -0.218068 -0.098775 0.231561 0.129023 -0.111343 -0.171763 -0.061107 -0.054208 0.042218 0.022472 0.07198 -0.214236 -0.161899 -0.018452 0.010509 -0.022686 0.086178 0.078149 -0.072518 -0.183167 0.119658 -0.068118 0.051934 -0.01767 -0.158406 -0.063514 -0.107352 0.120173 0.133667 0.053117 0.01506 -0.054873 0.029177 -0.089398 -0.004805 -0.012248 0.112717 -0.080168 -0.105325 -0.109812 -0.087183 -0.176569 0.227813 -0.2492 -0.148258 -0.003471 0.100996 0.024248 0.093904 0.123002 -0.140595 0.053374 -0.09475 -0.046893 -0.002508 -0.046196 0.066997 0.183339 -0.060206 -0.072608
0.095708 0.091854 -0.052436 0.048541 -0.036126 -0.021606 0.12045 0.047166 -0.29397 0.111462 0.035857 -0.0591 -0.067422 -0.137415 0.00546 -0.026681 0.240574 0.070306 0.139883 -0.144824 -0.102989 -0.225841 5.58E-4 0.269503 0.357609 0.208172 0.042577 0.082092 0.046556 -0.131126 -0.052677 -0.053456 -0.164387 -0.134522 -0.02438 0.068678 0.127926 -0.083125 -0.058181 -0.065074 -0.108681 -0.001523 -0.008815 -0.083994 0.026192 0.240467 0.218125 -0.15164 -0.177664 -0.159337 -0.251618 -0.227002 -0.152005 0.047947 -0.024147 0.047726 0.101212 0.097794 -0.099721 0.005393 0.037013 0.029089 -0.059265 0.199753 0.079928 -0.316551 -0.001626 -0.027585 0.080754 -0.146269 -0.234755 -0.060028 -0.110814 -0.036714 -0.114989 -0.070688 -0.186119 0.203263 0.124132 0.195192 -0.2869 -0.142057 -0.046068 -0.167651 0.048358 -0.062171 0.067506 -0.149309 0.183819 0.199168 0.060411 0.139165 0.035009 0.031892 0.149964 -0.189038 -0.095581 -0.178417 0.039589 -0.128657
-0.013831 -0.011482 -0.166912 0.211215 0.011805 0.264497 -0.008978 -0.124229 0.060012 -0.060008 0.134628 0.216132 -0.007844 0.023161 0.060264 -0.074257 0.04517 -0.146398 0.080275 0.015132 0.169389 0.010619 -0.129501 0.027666 -0.014433 -0.087662 -0.135803 0.267432 0.113383 -0.068258 -0.174087 -0.133931 -0.133651 0.095128 0.060391 -0.199431 0.046928 -0.201818 0.205391 -0.083359 -0.114269 -0.041279 -0.022485 0.148438 -0.063029 -0.135424 -0.065342 -0.045473 -0.035304 0.02343 -0.06086 0.096791 -0.212278 -0.056986 -0.132544 -0.010509 0.06854 0.117995 0.147564 -0.013086 0.001121 0.203319 -0.076259 -0.002965 0.013287 -0.198266 0.06867 -0.198459 -0.057378 0.073013 -0.040602 -0.08359 -0.202144 -0.112537 -0.008803 -0.150974 -0.135407 0.068885 -0.243346 -0.015494 0.088907 -0.038591 -0.066595 0.169501 0.107561 -0.078004 0.139471 -0.042827 -0.049645 -0.068563 0.146504 0.006716 -0.145265 -0.118577 -0.168796 -0.007049 0.213481 -0.126239 -0.164256 -0.077634
0.007005 -0.054211 0.016176 -0.013055 -0.023729 0.013895 -0.155503 0.103146 -0.131108 -0.014127 0.122818 -0.079179 0.022966 0.049621 0.005276 0.066058 -0.213521 0.011575 -0.015364 -0.03472 -0.011843 0.006618 0.043808 -0.082162 -0.085452 0.143612 0.091416 0.015272 0.048777 -0.121579 0.047419 -0.128461 -0.027365 0.104952 -0.028294 0.067569 -0.0498 -0.044849 0.03667 0.097442 -0.04853 0.033283 -0.007374 0.002053 0.041479 0.118473 0.005193 -0.018813 -0.102839 0.171118 0.052367 -0.148973 0.022793 0.147637 0.007281 -0.057162 0.080572 -0.002634 0.144297 -0.018746 0.108295 0.020348 0.034867 -0.095154 -0.021437 -0.016006 -0.056642 -0.01333 0.059156 9.9E-5 -0.081802 -0.152927 0.020513 -0.061341 0.155412 0.075078 -0.177009 -0.05859 0.034838 -0.177804 -0.062378 0.144396 -0.136871 -0.168659 -0.039606 -0.129438 0.047431 0.12324 0.003615 0.036461 -0.194447 0.044635 0.005379 -0.035536 -0.108042 -0.12465 0.016793 0.049479 -0.028609 0.155761
-0.198993 -0.038833 0.084464 0.035459 0.072309 0.179254 -0.023182 -0.038349 -0.00192 -0.043359 0.05716 0.033052 -0.044886 -0.05034 0.040471 -0.007395 0.101527 0.026356 0.046298 0.183448 -0.070901 0.14118 0.138608 -0.056514 -0.119897 -0.030357 0.058616 -0.010924 0.056879 0.01442 0.034758 -0.143262 0.018721 -0.110238 -0.010141 -0.047775 -0.064593 -0.028203 0.238922 0.133151 0.055244 -0.013355 -0.069299 0.025915 -0.048973 -0.184971 0.168239 -0.017302 -0.134047 -0.04956 0.139145 -0.067974 -0.214556 -0.043842 -0.13873 0.060507 -0.0822 0.04571 0.202554 0.088807 -0.053065 0.134074 -0.084771 -0.082177 -0.200724 -0.154299 0.049874 -0.050157 -0.031405 -0.173391 -0.097618 -0.005724 -0.050184 0.122742 0.03889 -0.18666 -0.097963 -0.090014 -0.132312 -0.009465 -0.06537 0.043545 -0.006869 0.038956 0.222033 -0.069937 -0.022133 -0.035512 0.062168 0.002819 0.025548 0.057064 0.029098 -0.125841 0.003589 -0.112843 0.206959 -0.089189 -0.091126 -0.087675
0.025221 -0.093308 0.035445 0.140234 0.017353 0.05799 -0.229129 -0.146702 -0.115406 0.049934 0.213703 0.096306 0.042679 -0.075069 0.011162 0.081913 0.005102 0.158108 -2.48E-4 0.050375 -0.002611 0.05446 0.143411 0.145736 -0.035037 -0.064939 0.00429 -0.018736 0.005885 -0.12577 -0.113194 0.054826 -0.175511 0.138286 -0.017962 -0.203685 0.105783 -0.055768 -0.005467 0.058447 -0.009671 0.108373 0.138765 0.112922 -0.054337 -0.118926 0.061561 -0.04826 -0.195359 0.09594 0.19489 0.028948 -0.059775 0.04917 0.029512 -0.01291 0.123495 -0.022581 0.148683 -0.175759 0.087296 -0.003092 -0.007752 -0.141628 0.011677 0.087855 0.042794 0.16586 0.046105 -0.018836 -0.218994 0.10647 0.002797 -0.029906 0.14368 -0.148705 -0.106152 -0.077104 -0.02525 -0.029977 -0.080331 0.177528 0.10927 -0.136079 0.132478 -0.010672 0.094835 0.112046 0.147338 0.190698 -0.109719 -0.071363 -0.014729 -0.071372 0.066147 0.019624 0.06284 -0.15035 0.035504 -0.049539
0.007005 -0.054211 0.016176 -0.013055 -0.023729 0.013895 -0.155503 0.103146 -0.131108 -0.014127 0.122818 -0.079179 0.022966 0.049621 0.005276 0.066058 -0.213521 0.011575 -0.015364 -0.03472 -0.011843 0.006618 0.043808 -0.082162 -0.085452 0.143612 0.091416 0.015272 0.048777 -0.121579 0.047419 -0.128461 -0.027365 0.104952 -0.028294 0.067569 -0.0498 -0.044849 0.03667 0.097442 -0.04853 0.033283 -0.007374 0.002053 0.041479 0.118473 0.005193 -0.018813 -0.102839 0.171118 0.052367 -0.148973 0.022793 0.147637 0.007281 -0.057162 0.080572 -0.002634 0.144297 -0.018746 0.108295 0.020348 0.034867 -0.095154 -0.021437 -0.016006 -0.056642 -0.01333 0.059156 9.9E-5 -0.081802 -0.152927 0.020513 -0.061341 0.155412 0.075078 -0.177009 -0.05859 0.034838 -0.177804 -0.062378 0.144396 -0.136871 -0.168659 -0.039606 -0.129438 0.047431 0.12324 0.003615 0.036461 -0.194447 0.044635 0.005379 -0.035536 -0.108042 -0.12465 0.016793 0.049479 -0.028609 0.155761
-0.04511 -0.00527 0.096874 0.302385 0.006439 0.058177 -0.093472 0.06865 0.056496 -0.08939 0.016549 0.022957 0.032249 -0.0405 0.129477 0.071128 0.014948 0.108764 -0.034445 -0.10594 -0.108996 0.166538 0.165388 0.066603 -0.17241 -0.096368 0.052627 -0.057879 0.121535 -0.084223 -0.106684 -0.213476 0.014628 0.089085 -0.056674 -0.08141 0.127373 -0.071828 -0.072693 -0.033851 -0.069199 0.037341 0.066428 -0.053903 0.044427 0.130341 -0.054598 0.010451 -0.034033 0.050225 -0.046835 -0.031704 0.044357 -0.016627 0.074127 -0.062778 -0.052923 0.059853 0.120319 0.088142 0.059871 -0.129394 0.081647 -0.061538 0.035732 -0.055342 0.077981 0.07675 0.098547 0.168687 -0.107062 0.010065 0.035062 0.092099 0.041811 -0.082681 -0.188505 -0.101578 0.032192 -0.101589 -0.02253 0.030291 0.090417 -0.018034 0.046773 0.007813 0.022239 0.041315 0.039023 0.011513 -0.028339 0.0035 0.00903 0.023365 -0.054465 -0.136976 0.068142 -0.141979 -0.060473 0.143317
0.017306 5.32E-4 -0.212063 -0.157089 0.08473 -0.066835 0.056374 0.158291 -0.206973 -0.156915 0.178891 -0.0702 0.007824 0.117033 -0.163187 3.85E-4 0.041816 0.168917 0.121008 -0.168073 0.015587 -0.075586 -0.052084 0.11318 0.110349 -0.035977 0.154431 0.069115 -0.097535 0.033849 -0.008141 0.003203 -0.043235 0.139394 -0.175841 -0.057112 -0.015912 0.177201 -0.190378 -0.09082 0.025743 -0.022602 0.202669 0.216869 -0.101315 0.023338 -0.020612 -0.017589 0.014805 -0.117446 -0.067262 0.237678 -0.219185 -0.002511 0.013861 -0.072806 -0.061421 -0.095397 -0.176345 0.18337 0.013993 0.121469 0.077085 0.15111 0.137248 -0.11822 -0.114148 -0.063091 -0.262501 0.128561 0.00751 0.267173 0.106348 -0.023592 0.094073 0.099377 0.037152 -0.029328 -0.038607 0.10886 0.158091 0.056499 0.036705 -0.023247 -0.001895 -0.123241 0.078804 0.143816 -0.013658 0.021672 0.079504 -0.13936 -0.044494 0.033272 0.023235 -0.126329 -0.103561 -0.143473 0.155814 0.15045
-0.172505 -0.108995 -0.072356 -0.055235 -0.170521 0.041729 0.006456 -0.129572 -0.043894 0.045639 0.040698 0.064007 -0.00405 -0.152533 -0.140209 -0.002731 -0.036314 0.098804 0.016442 0.13655 0.035944 0.110125 0.176303 -0.064243 -0.009379 0.011711 -0.036277 -0.069603 0.158625 -0.02755 -0.121909 0.203211 0.019894 -0.075472 -0.097468 -0.078748 -0.018818 -0.023387 0.072791 0.068684 -0.169469 0.132397 0.0715 0.1694 -0.073489 -0.084362 -0.016339 0.084673 -0.089777 0.178333 0.15979 -0.055646 -0.037781 0.144338 0.136735 -0.058706 -0.084196 -0.119408 -0.032048 -0.158647 0.170224 -0.154083 0.238225 -0.121937 0.019423 0.033277 0.025997 0.004046 0.019727 -0.075005 -0.098129 0.086746 0.041696 -0.072847 0.140905 -0.101501 0.016934 -0.021668 0.004997 -0.029448 -0.082344 0.143292 0.105839 -0.183547 -0.011943 0.044354 0.035772 -0.010104 0.013189 0.16713 -0.078802 -0.066197 0.092576 -0.142162 0.032502 -0.062696 0.019335 -0.089299 0.089381 -0.099409
-0.009636 -0.1292 -0.101024 -0.151661 0.08912 0.172229 -0.152458 0.030318 -0.058342 -0.076515 0.05312 -0.086856 0.050254 -0.078792 0.041373 -0.002003 0.134515 0.008712 0.246959 -0.029612 0.043949 -0.13486 0.202964 0.055603 -0.216287 -0.23089 0.167693 0.105089 -0.050715 -0.034542 0.176654 0.223624 -0.209977 0.162178 -0.127467 -0.138567 0.143408 -0.244521 0.223296 -0.36481 -0.330382 -0.015214 0.218576 0.018264 -0.052855 -0.177164 0.165042 0.060524 -0.032754 0.038202 0.052285 0.159361 -0.110316 -0.065388 -0.053729 0.027554 0.110752 0.162231 -0.362486 -0.229125 -0.054412 -0.135832 -0.114073 -0.143232 0.172958 0.03236 -0.078991 -0.067094 0.163318 0.120206 0.11901 0.053293 0.045673 -0.022666 -0.107003 0.031875 0.026846 0.114246 -0.104433 -0.229408 -0.061145 0.173611 0.130942 -0.172841 0.058404 0.049546 0.102416 0.123467 -0.027278 0.10848 -0.199856 -0.122383 0.001703 -0.305291 -0.351558 0.023842 -0.205833 -0.065714 -0.258065 0.034389
-0.101423 -0.111223 0.204943 0.132795 0.05788 0.002316 -0.036371 0.128742 -0.099987 -0.203751 -0.005747 -0.076661 0.061493 0.129923 0.03874 0.055627 -0.263836 -0.184604 0.011424 -0.007279 0.055684 -0.07375 0.014547 0.147661 -0.137906 -0.053606 -0.109156 0.116562 0.167124 -0.150614 0.060862 0.022001 -0.10916 0.25015 -0.078021 -0.006786 -0.141903 0.141898 -0.160938 -0.126208 0.099444 0.188346 -0.14893 0.061422 -0.089297 -0.141281 -0.053777 0.056071 -0.033157 -0.040216 0.128842 -0.039396 0.153451 -0.099596 0.009729 -0.066533 -0.087515 -0.014641 -0.090516 0.13632 -0.012204 -0.13469 0.080049 0.037476 -0.028325 0.033903 0.019994 0.045848 0.02642 0.068674 -0.091896 0.015101 0.058041 -0.015662 0.014985 0.073895 0.155834 -0.167799 -0.15315 0.063915 0.007151 -0.100262 0.020611 0.155 -0.277609 0.145833 0.11182 0.07878 -0.028091 -0.019437 0.04089 -0.021383 0.025695 0.057773 -0.115688 0.142605 -0.064814 -0.090623 0.132294 -0.086139
0.007005 -0.054211 0.016176 -0.013055 -0.023729 0.013895 -0.155503 0.103146 -0.131108 -0.014127 0.122818 -0.079179 0.022966 0.049621 0.005276 0.066058 -0.213521 0.011575 -0.015364 -0.03472 -0.011843 0.006618 0.043808 -0.082162 -0.085452 0.143612 0.091416 0.015272 0.048777 -0.121579 0.047419 -0.128461 -0.027365 0.104952 -0.028294 0.067569 -0.0498 -0.044849 0.03667 0.097442 -0.04853 0.033283 -0.007374 0.002053 0.041479 0.118473 0.005193 -0.018813 -0.102839 0.171118 0.052367 -0.148973 0.022793 0.147637 0.007281 -0.057162 0.080572 -0.002634 0.144297 -0.018746 0.108295 0.020348 0.034867 -0.095154 -0.021437 -0.016006 -0.056642 -0.01333 0.059156 9.9E-5 -0.081802 -0.152927 0.020513 -0.061341 0.155412 0.075078 -0.177009 -0.05859 0.034838 -0.177804 -0.062378 0.144396 -0.136871 -0.168659 -0.039606 -0.129438 0.047431 0.12324 0.003615 0.036461 -0.194447 0.044635 0.005379 -0.035536 -0.108042 -0.12465 0.016793 0.049479 -0.028609 0.155761
-0.013831 -0.011482 -0.166912 0.211215 0.011805 0.264497 -0.008978 -0.124229 0.060012 -0.060008 0.134628 0.216132 -0.007844 0.023161 0.060264 -0.074257 0.04517 -0.146398 0.080275 0.015132 0.169389 0.010619 -0.129501 0.027666 -0.014433 -0.087662 -0.135803 0.267432 0.113383 -0.068258 -0.174087 -0.133931 -0.133651 0.095128 0.060391 -0.199431 0.046928 -0.201818 0.205391 -0.083359 -0.114269 -0.041279 -0.022485 0.148438 -0.063029 -0.135424 -0.065342 -0.045473 -0.035304 0.02343 -0.06086 0.096791 -0.212278 -0.056986 -0.132544 -0.010509 0.06854 0.117995 0.147564 -0.013086 0.001121 0.203319 -0.076259 -0.002965 0.013287 -0.198266 0.06867 -0.198459 -0.057378 0.073013 -0.040602 -0.08359 -0.202144 -0.112537 -0.008803 -0.150974 -0.135407 0.068885 -0.243346 -0.015494 0.088907 -0.038591 -0.066595 0.169501 0.107561 -0.078004 0.139471 -0.042827 -0.049645 -0.068563 0.146504 0.006716 -0.145265 -0.118577 -0.168796 -0.007049 0.213481 -0.126239 -0.164256 -0.077634
0.007005 -0.054211 0.016176 -0.013055 -0.023729 0.013895 -0.155503 0.103146 -0.131108 -0.014127 0.122818 -0.079179 0.022966 0.049621 0.005276 0.066058 -0.213521 0.011575 -0.015364 -0.03472 -0.011843 0.006618 0.043808 -0.082162 -0.085452 0.143612 0.091416 0.015272 0.048777 -0.121579 0.047419 -0.128461 -0.027365 0.104952 -0.028294 0.067569 -0.0498 -0.044849 0.03667 0.097442 -0.04853 0.033283 -0.007374 0.002053 0.041479 0.118473 0.005193 -0.018813 -0.102839 0.171118 0.052367 -0.148973 0.022793 0.147637 0.007281 -0.057162 0.080572 -0.002634 0.144297 -0.018746 0.108295 0.020348 0.034867 -0.095154 -0.021437 -0.016006 -0.056642 -0.01333 0.059156 9.9E-5 -0.081802 -0.152927 0.020513 -0.061341 0.155412 0.075078 -0.177009 -0.05859 0.034838 -0.177804 -0.062378 0.144396 -0.136871 -0.168659 -0.039606 -0.129438 0.047431 0.12324 0.003615 0.036461 -0.194447 0.044635 0.005379 -0.035536 -0.108042 -0.12465 0.016793 0.049479 -0.028609 0.155761
0.142855 2.096782 -0.44488 -0.186519 4.581101 0.368552 1.025096 -0.312802 -2.617651 -0.157005 2.963322 2.120705 -1.775955 -0.565663 0.972057 2.924774 -3.483148 -0.388176 -2.731071 -0.326463 1.005034 -0.173592 0.985748 -2.472826 -0.247049 -1.602126 -2.48254 -0.015307 0.921201 -0.634243 -0.734395 -4.469334 -2.338912 -3.86095 -2.404253 -1.170435 3.191081 0.66076 0.725646 -0.864367 -2.371157 -0.851367 -3.29822 -1.074393 -2.64488 2.784424 -0.996674 2.506345 2.15789 -2.159862 -0.441733 -0.926918 -0.098512 0.757891 -1.999629 -4.007104 0.387073 -3.003765 1.204233 -2.431844 -2.281004 -0.27222 1.915759 2.567541 -2.305997 0.668549 -1.469449 -4.443738 -0.244681 3.958085 3.663286 2.390184 0.145926 -1.914193 1.202993 0.085106 1.119028 1.764289 0.413107 1.270882 2.30135 -2.063297 -0.209725 -0.837978 1.54811 -1.075222 1.662849 3.024555 -0.817108 2.02425 0.827332 0.999754 -2.964958 -4.68355 2.112919 1.12159 -1.379614 1.011169 -1.034187 2.880255
3.229447 1.832686 -0.196265 -0.303454 -0.824437 2.082854 1.150219 -0.493805 -3.50143 -0.594107 2.103319 2.396154 1.056781 -0.578498 -1.172209 3.210305 -0.978008 -1.908997 -0.472705 -1.788789 -2.346806 -2.098664 -0.288581 -2.078696 0.41261 0.520842 -1.276654 0.578767 1.70845 -0.136278 -1.41294 0.371846 1.173228 1.232021 0.598135 -3.597398 4.723318 -0.907374 3.160397 -2.027976 1.188048 -5.433854 0.01906 -0.240727 2.932695 1.836205 0.69537 0.647449 5.328198 0.625981 0.041762 2.070653 0.300511 1.656161 -2.571092 0.908767 3.294905 2.941907 -1.065341 -2.086696 -0.817265 -1.894089 0.299235 -1.879644 0.485823 1.848637 -0.344618 -2.532108 2.074767 0.482597 3.034693 1.42216 0.457834 2.431775 -0.318071 1.666885 -1.364005 1.576786 -1.71492 -0.790398 2.548478 -2.38312 -0.502643 1.256626 0.730181 1.714355 1.091085 4.672542 0.202716 -0.959086 0.774024 -2.161259 -1.810393 -2.763748 0.167227 4.207294 2.675714 0.636561 -0.117425 -0.284099
0.013945 -0.098266 0.134816 -0.063427 0.130184 0.043815 -0.091407 -0.02261 0.013717 -0.005113 0.255869 0.032591 0.147186 -0.096866 0.086891 0.214938 -0.062343 0.248033 -0.004895 0.108849 -0.222937 0.028313 0.280172 0.093798 -0.250453 -0.167794 -0.08037 -0.045376 0.181665 -0.19782 0.028107 -0.08749 -0.001046 0.051411 -0.057744 -0.267602 -0.033267 0.050107 0.092406 0.160778 -0.091686 0.067583 0.022364 0.105802 0.008901 -0.205276 0.015278 -0.034464 -0.264079 0.151605 0.167617 -0.089661 -0.116582 -0.020749 0.066025 -0.183269 0.112916 -0.17467 0.187384 -0.094853 0.0638 -0.105497 -0.04585 -0.152778 -0.079399 -0.041345 -0.022863 0.017871 0.027383 -0.019649 0.015229 -0.024387 -0.14383 0.026949 0.089366 -0.182778 -0.097598 0.004108 0.010362 -0.027386 -0.187193 0.105546 0.122116 -0.257805 0.210994 -0.012444 -0.046343 -0.100736 0.240653 0.190988 -0.148 -0.120614 -0.018059 0.033624 -0.089283 -0.059211 0.162671 -0.002759 0.01923 0.037201
-0.177982 5.42E-4 -0.058787 -0.042986 0.019088 -0.07301 -0.113567 -0.048602 -0.111994 0.077081 -0.064429 -0.052309 0.107101 0.010132 -0.051043 -0.06249 0.034221 0.089497 0.034881 0.122433 -0.283278 0.026441 0.072924 -0.172696 -0.010091 0.121215 0.018512 0.014511 0.07091 -0.123185 0.021533 0.003516 0.016005 0.038951 -0.018904 0.016269 -0.131781 -0.040631 0.083819 0.218937 -0.005684 0.139408 0.044022 -0.012295 0.046568 -0.005967 0.108357 -0.023956 -0.178152 0.169509 0.054656 0.02338 0.048805 -0.018066 0.143428 -0.04062 0.080443 -0.163864 0.144698 -0.108681 -0.114589 -0.067844 0.109382 0.05381 -0.085662 0.098589 0.016784 0.03693 0.004596 -0.053567 -0.020095 0.211614 0.123797 -0.159272 -0.006375 0.004273 0.165679 0.003847 0.010679 -0.013199 0.065202 0.148104 0.045966 -0.179081 -0.050832 -0.046846 -0.001358 -0.12108 -0.13557 -0.149647 -0.089195 -0.036174 0.148524 -0.003514 0.004657 -0.093048 0.012667 0.116611 0.096985 0.047356
0.352905 0.550922 -1.128945 -0.511125 0.774489 1.405335 -0.371647 0.106012 -0.779785 -0.640302 -0.68578 1.570717 -0.712288 -0.706705 -0.789609 -0.045278 -1.599722 -2.840112 -0.089543 -1.158838 -1.862605 -0.62748 -0.063542 -0.468696 0.750564 0.033551 -0.772222 -0.188991 -0.163115 0.455978 0.038455 -0.779588 0.172303 -1.114448 -0.548246 -0.008155 1.66721 -0.744821 -0.15746 -2.668482 -0.304702 -0.905716 0.479063 0.151803 -0.94063 -0.044338 -0.906122 -0.456182 0.281891 0.268287 0.47007 0.628019 0.328428 1.471286 -2.345457 0.072073 -0.345477 -0.998199 -1.496897 -0.053061 0.351206 -0.934426 0.295591 0.07336 0.24092 0.486976 0.390085 -0.621556 0.375246 -0.02625 1.957847 1.014101 0.004675 0.08874 -0.900479 -0.462149 0.922254 1.355385 -1.048724 0.105897 1.254466 0.410718 0.321258 1.066395 -0.171761 -0.128774 0.315556 0.697301 -0.180925 0.555334 1.005586 -0.891677 -1.232923 -1.994189 -0.567812 0.204184 -0.947385 -0.051526 -0.987029 0.725141
0.142855 2.096782 -0.44488 -0.186519 4.581101 0.368552 1.025096 -0.312802 -2.617651 -0.157005 2.963322 2.120705 -1.775955 -0.565663 0.972057 2.924774 -3.483148 -0.388176 -2.731071 -0.326463 1.005034 -0.173592 0.985748 -2.472826 -0.247049 -1.602126 -2.48254 -0.015307 0.921201 -0.634243 -0.734395 -4.469334 -2.338912 -3.86095 -2.404253 -1.170435 3.191081 0.66076 0.725646 -0.864367 -2.371157 -0.851367 -3.29822 -1.074393 -2.64488 2.784424 -0.996674 2.506345 2.15789 -2.159862 -0.441733 -0.926918 -0.098512 0.757891 -1.999629 -4.007104 0.387073 -3.003765 1.204233 -2.431844 -2.281004 -0.27222 1.915759 2.567541 -2.305997 0.668549 -1.469449 -4.443738 -0.244681 3.958085 3.663286 2.390184 0.145926 -1.914193 1.202993 0.085106 1.119028 1.764289 0.413107 1.270882 2.30135 -2.063297 -0.209725 -0.837978 1.54811 -1.075222 1.662849 3.024555 -0.817108 2.02425 0.827332 0.999754 -2.964958 -4.68355 2.112919 1.12159 -1.379614 1.011169 -1.034187 2.880255
-0.047787 -0.061567 0.123114 -0.037163 0.03025 -0.137254 -0.132989 -0.037036 -0.305881 -0.093379 0.055295 -0.061785 -0.123961 -0.007102 -0.097086 0.342722 -0.21843 0.252645 0.016403 -0.09307 0.167109 -0.096091 0.15444 0.125527 -0.189517 -0.235064 -0.132401 -0.132399 -0.02162 -0.103508 -0.134075 -0.129482 0.073633 -0.034844 0.004766 -0.199188 -0.04302 0.172758 -0.185253 0.104658 -0.135891 -0.028154 -0.107168 -0.094118 0.09213 0.094573 -0.067882 -0.105379 -0.241902 -0.07403 0.121688 -0.043133 -0.038737 -0.292704 0.136166 -0.173541 0.248625 0.074407 -0.07716 -0.05019 -0.288541 -0.285352 0.04671 0.015494 0.051841 0.194158 0.010963 -0.183245 0.171731 0.210015 0.107845 0.089626 0.032337 -0.165564 0.10218 -0.292493 0.236372 0.358818 0.216288 0.027767 -0.018 -0.046667 -0.072792 -0.057832 -0.026132 -0.154779 0.206151 0.188738 0.016699 0.212504 0.125702 0.072243 0.04951 0.021437 -0.056553 0.064109 0.065959 -0.020429 0.019995 -0.10064
2.591633 1.608701 -2.087245 2.00752 3.012652 4.995656 0.847355 -1.594905 -0.365708 -1.629805 -1.650237 3.712017 -0.231463 -0.537534 -2.036098 2.002639 -0.696666 -4.310136 -1.477319 -1.356504 -0.581823 -1.830239 -0.272773 -1.648095 0.090509 0.008711 0.330842 0.396714 2.341035 -0.526067 1.155793 -1.730906 -1.010387 -1.342646 -1.939355 0.734869 0.727366 0.700702 1.516974 -2.133831 -0.280653 -3.051674 0.017123 0.532043 1.478449 0.375441 0.920129 1.548929 1.087478 0.668327 0.707416 3.249232 -0.362503 1.273221 -2.929682 -0.245389 1.633444 -0.119836 0.103459 -3.445175 0.513245 0.427807 0.738792 1.448203 0.501908 0.362882 -0.731533 -0.391201 0.037778 3.053553 4.030229 1.793904 1.24136 0.081706 -1.401954 -0.638804 -0.487445 -0.267924 0.012844 0.538179 -0.241935 -0.068756 1.351665 -0.112558 0.001814 0.447262 0.833441 -0.023876 1.212707 1.514635 -0.568611 0.376173 -3.663739 -4.345135 -0.444319 2.139788 -2.53093 0.92131 -1.399435 1.763954
-0.180526 0.045668 -0.418852 0.07191 -0.384521 3.273082 -2.000784 -0.122301 -0.287564 1.016607 2.486754 2.240306 3.135289 -0.415251 -1.204763 0.474914 -1.270356 -0.242074 -0.17397 -1.747445 -1.210522 -1.600226 0.60562 -2.317611 1.303861 -0.782577 -0.189753 -0.458671 -1.509076 1.517435 -0.974748 -0.959382 -0.537619 1.720165 0.86871 -0.203769 -1.060351 0.696417 1.245614 -0.453617 -1.093937 -2.931595 0.413757 0.809562 -3.315324 -1.158766 1.455576 -0.755411 -3.75794 -1.343319 0.74127 1.756869 -1.298455 2.98502 -0.346332 -0.562276 -0.519401 -1.129749 1.761924 -3.162515 -1.296323 -0.430938 -0.255523 -0.658638 1.767358 2.974445 0.56275 0.126633 0.998972 1.920938 0.246461 -0.015176 2.493673 -0.967473 -0.372256 -0.464061 1.552535 2.094685 -0.979829 2.203226 -0.355849 -0.991183 -2.058601 0.440769 1.719106 -1.415586 -0.155608 0.501198 -0.532876 -1.638548 0.818176 -1.312294 1.879593 -0.869537 -1.691542 1.369195 -0.407007 1.650721 0.202314 -0.171705
-0.167083 -0.107108 0.179851 0.109552 -0.024213 0.229157 -0.075334 -0.070437 -0.095383 0.224548 0.109642 0.033348 -0.067277 0.172258 0.1025 -0.097087 0.07275 0.08372 -0.048898 0.027978 -0.092038 0.129573 0.121068 -0.016639 -0.051471 0.206066 -0.057988 -0.03292 0.161717 -0.096696 -0.254576 -0.039036 0.243231 0.132109 0.006361 0.039556 -0.111924 -0.13768 -0.026979 0.009431 0.032213 0.298426 0.011437 -0.207073 0.049479 0.133506 0.130962 0.042425 -0.12671 -0.055215 -0.040495 -0.081002 -0.0113 0.131594 0.136972 0.066241 -0.142628 0.006467 0.082331 -0.023632 0.12726 -0.08866 -0.004003 0.125163 0.172583 0.066611 0.037084 0.379506 0.156894 -0.038809 -0.05146 -0.216693 0.014711 -0.345933 -0.145663 0.265907 -0.165782 -0.251349 0.045053 0.094664 -0.003293 0.027445 -0.371954 -0.293996 0.223192 0.186416 0.033611 0.26388 0.406974 -0.063905 -0.0194 0.070162 0.237415 -0.230282 0.156302 0.152369 -0.00777 0.17857 0.087777 -0.019579
0.076594 -0.199501 0.2027 0.176772 -0.039758 0.023468 -0.062109 0.0774 0.054171 0.088133 -0.028462 0.320828 -0.112689 -0.105171 0.165336 -0.039742 0.027346 -0.020414 0.116665 0.119666 0.078118 0.014581 0.04492 -0.057073 -0.10794 -0.090284 -0.173956 -0.103567 0.142644 0.010637 -0.042665 -0.104148 -0.23292 0.151724 -0.060366 -0.227539 0.102389 -0.129266 0.005404 0.017334 -0.165263 0.146999 0.091273 0.189788 0.003531 -0.180556 -0.174333 0.072413 -0.113615 0.066181 0.016432 -0.103203 -0.222773 0.067866 0.111634 -0.214641 0.066382 0.017632 -0.014616 -0.116504 0.197197 -0.110829 -0.029051 -0.08824 -0.286285 -0.077426 -0.046257 -0.005034 0.02818 -0.207414 -0.053841 -0.012529 0.108386 -0.22669 -0.034264 -0.084916 -0.270642 -0.117614 -0.164729 -0.019644 0.017254 0.194925 0.108543 -0.185764 0.050862 0.004857 0.206937 0.160744 0.1539 0.067165 -0.051167 0.051192 0.067121 -0.084796 -0.081263 -0.256949 0.389044 0.099502 0.190931 0.158639
-0.172636 0.01033 0.161959 -0.183546 0.084826 0.001454 -0.012333 0.025399 -0.140257 -0.043156 0.065558 -0.05232 0.099666 0.00853 0.143223 0.114338 0.12441 0.125198 0.033525 0.036631 -0.100414 0.095781 0.079415 0.218911 -0.202953 -0.176273 0.003928 -0.080203 0.064255 -0.151939 -0.015762 -0.091797 0.058406 0.259075 0.142232 0.005009 -0.027051 -0.151772 -0.009225 0.087933 -0.047953 0.058876 -0.00632 0.200481 -0.051352 -0.062672 -0.004913 0.138106 0.006286 0.095799 0.155862 0.073325 -0.063141 -0.126818 0.080382 -0.03216 0.029759 0.0419 0.073559 0.032012 0.00921 -0.174483 -0.047889 -0.051292 -0.092714 0.114818 -0.104232 -0.056323 -0.006118 -0.033086 -0.071821 -0.058985 -0.082653 -0.01357 0.127079 -0.029265 0.032993 0.09375 -0.047027 -0.121647 0.078634 0.058114 0.019442 1.0E-5 0.027019 0.006064 0.011752 0.078438 0.206987 0.051293 -0.026753 -0.10776 0.076365 -7.58E-4 -0.123035 -0.129837 -0.027931 -0.05268 0.159075 3.06E-4
-0.111222 0.039124 -0.113704 0.00348 0.147556 0.222705 0.072442 0.109251 -0.062309 -0.034227 -0.070104 0.032923 -0.100164 -0.013077 -0.050603 0.138185 0.135583 0.052445 0.194674 0.365864 0.362126 0.278103 0.066463 -0.158667 -0.023758 -0.27085 0.015972 0.142344 0.124873 -0.021056 -0.175286 -0.100711 -0.082826 0.219094 -0.129399 -0.123152 0.069609 -0.381872 0.206404 -0.154798 -0.066262 0.209244 -0.106105 0.30893 0.131289 0.003943 -0.081096 0.069744 0.165617 -0.059466 -0.169959 -0.126711 -0.201185 -0.150701 0.041894 -0.169988 0.351785 0.098326 0.150179 0.020852 0.11643 -0.125348 -0.162041 -0.082338 -0.132177 -0.162636 -0.059407 0.093177 0.058427 -0.370672 -0.001548 0.178278 -0.020524 -0.142637 -0.047166 -0.098101 -0.266345 0.288026 -0.168086 0.072564 0.014027 0.077889 -0.322414 0.280058 0.113879 -0.079234 -0.034986 -0.078511 0.051622 -0.049322 0.06797 -0.072902 -0.072379 -0.005969 -0.201419 -0.176588 0.281967 0.11306 -0.067353 -0.30201
-0.07555 -0.134649 9.81E-4 0.066902 -0.008468 0.197472 0.136262 0.008161 -0.004177 0.14494 0.048036 0.176647 -0.028504 -0.048088 -0.060923 0.075324 -0.052052 0.055278 0.136034 -0.046414 -0.111127 -0.109821 -0.031986 0.070788 0.287691 -0.27386 0.059649 0.142605 0.097785 -0.082127 -0.142776 -0.084975 -0.009139 0.13371 0.150226 -0.033948 0.100494 -0.161805 0.200048 -0.113088 -0.193666 0.134301 0.107839 0.153996 -0.02583 -0.102589 0.019957 -0.167462 -0.089285 -0.080432 -0.027253 0.011421 -0.123509 0.047813 -0.11853 0.160271 0.172744 0.035336 -0.075497 -0.17292 -0.05128 0.005391 0.151601 -0.071361 -0.072314 -0.085409 -0.063029 -0.060281 0.042147 -0.037277 -0.091356 -0.181351 -0.001536 -0.057231 0.006275 -0.083538 -0.255018 -0.054278 -0.254964 -0.070801 -0.024028 0.0541 0.108463 -0.18654 -0.233655 0.085816 0.053031 -0.039385 0.135168 0.165729 -0.076049 0.016285 -0.142657 -0.105998 -0.017943 -0.10915 0.062525 0.092294 0.019403 -0.00717
-0.239315 -0.030448 0.036255 0.074122 -0.097217 -0.026973 -0.161975 -0.114135 -0.202262 0.019963 0.032282 0.215641 0.042808 0.045187 -0.013034 0.281217 0.059741 0.142698 0.036448 -0.068113 -0.091448 -0.071861 0.297659 0.026309 -0.086026 -0.194216 -0.059302 0.005371 0.325252 -0.10379 -0.032355 -0.103113 -0.109192 0.129247 0.152288 -0.142585 0.032272 -0.035378 0.043592 0.058421 0.169423 0.169132 0.041344 -0.01026 -0.044361 -0.235292 -0.068488 0.056367 -0.210391 0.141339 0.236383 -0.212306 -0.194813 -0.159566 0.141882 -0.026159 -0.003761 -0.006341 0.033691 -0.162387 0.072914 -0.146348 -0.121126 -0.132917 -0.069717 0.14785 -0.057254 0.097162 0.103104 -0.031967 -0.126515 -0.014322 -0.066091 -0.00437 0.132894 -0.107577 0.059598 -0.006106 0.021321 -0.143504 -0.168324 0.064241 0.107195 -0.188165 -0.062753 0.008462 0.066903 -0.04749 0.241424 -0.107693 -0.095248 -0.058932 -0.090457 0.146563 -0.20358 0.02995 0.082678 0.049861 -0.01676 0.089927
-0.718438 -0.830038 -0.584242 2.1215 -0.644012 1.416116 -0.587713 -0.321771 0.15449 -1.337212 0.646351 2.943981 -2.520119 -0.053393 1.892255 -0.247068 0.153723 -1.774544 -1.713547 1.03615 -2.316809 -1.758234 0.596352 -1.216816 0.651834 0.378166 -0.461749 -1.113127 -1.262089 1.808952 2.079526 -0.645053 -1.036425 -0.051591 0.752853 1.877822 1.149022 -1.563167 0.088195 1.179668 0.264795 -0.643595 -1.254162 2.294433 -0.67558 -0.480528 -1.903531 -1.404449 3.451226 0.215378 -0.348073 3.059608 -0.201534 3.176656 -2.660815 -0.397857 0.658943 0.204092 -2.861443 -2.700162 -0.267356 1.597524 -0.058446 0.400235 0.112722 2.04443 -0.418444 -0.708333 -0.409393 0.970238 4.077705 1.113589 0.123738 0.071757 1.385313 -2.550826 0.377188 -1.266978 -0.033552 1.268038 1.334944 -1.192168 -2.617046 1.325431 1.537295 0.868143 0.029881 0.136091 0.48518 -1.968409 0.753802 -0.972635 0.324233 1.386425 1.801178 1.298403 -2.240443 1.965765 -0.567086 2.183566
-2.857767 1.741662 -0.865811 2.038014 -1.081709 2.139021 -0.247658 1.152639 -0.94501 1.211696 -0.887604 2.020667 -0.747109 0.353448 1.216094 0.514727 -0.024976 -0.687362 -1.537224 2.273533 -0.748583 2.202459 1.861186 -0.570028 1.254287 -1.292489 3.835364 1.277513 0.193396 0.789268 1.654012 0.767108 -0.492116 1.810037 -0.804554 1.526977 -0.446204 -0.843883 1.267058 -2.81329 0.119665 -1.256828 -1.321018 2.325128 -1.422087 2.215963 -1.485206 0.01175 1.949128 -0.269619 1.000661 -1.101938 -0.884447 -0.092404 -1.817818 -0.44635 1.523674 1.431556 1.284746 0.280267 2.111143 0.300703 -2.900064 -0.32248 1.662479 -2.544766 0.800673 -1.783704 1.943118 -0.976457 1.437898 0.977478 1.422993 -0.789873 -1.666837 1.622215 -2.296431 2.696124 -2.828949 1.823836 4.172963 1.887411 0.856985 -0.742678 1.043617 -1.897038 -0.37593 -0.464901 -0.919719 2.505808 2.36863 0.242335 -2.671596 -0.302075 0.432799 -0.806086 1.660753 2.202468 -1.055733 -2.510237
-0.149867 0.077854 -0.057384 0.049305 -0.009405 0.154921 -0.014387 0.146394 -0.044434 -0.047309 0.057275 0.129201 0.002547 0.012529 -0.070844 0.097135 0.036736 -0.069666 0.151797 0.181036 -0.129967 4.09E-4 0.179857 -0.067386 0.057926 -0.070265 0.239 -0.059135 0.013238 0.131437 0.061445 -0.066996 -0.085886 0.318437 -0.107762 0.048981 0.124937 0.111594 0.133462 -0.073227 0.038944 -0.072997 -0.049897 -0.062633 -0.022548 -0.155043 0.163285 -0.082676 -0.00869 -0.023808 -0.113895 0.021677 -0.103078 -0.056982 0.014668 -0.07451 0.063208 -0.081803 0.141512 -0.058697 0.226632 0.084855 -0.148581 -0.107751 0.023714 -0.060122 0.002241 0.054781 0.10372 -0.10369 0.138238 0.092693 -0.104515 -0.01009 -0.056401 -0.043878 -0.069163 0.067243 -0.040751 0.080922 -0.037099 0.069864 -0.035231 -0.127025 0.022087 -0.051938 -0.063553 0.103248 0.095141 0.065783 0.095867 0.024102 -0.096936 -0.01374 -0.05914 -0.155662 0.07266 0.013251 -0.137238 -0.16063
-0.190184 0.121934 -0.017157 -0.039046 -0.104766 0.104523 0.137541 -0.011696 -0.031299 0.002559 0.057713 0.03204 -0.056163 -0.073149 0.039359 0.004282 -0.133907 0.036559 0.00547 0.035946 -0.005451 0.126956 0.195657 0.199046 -0.260252 -0.054752 0.018168 -0.059192 0.228841 -0.081822 0.034513 -0.07029 -0.082125 0.058202 -0.290656 -0.18036 0.143933 0.10761 0.053476 0.05869 0.004918 0.106095 0.019592 0.089919 0.052569 0.050617 -0.095756 -0.010241 -0.001257 0.078871 0.052317 0.003099 0.116969 0.0752 -0.06823 -0.079766 -0.102395 -0.049294 0.00962 -0.144644 0.050411 -0.035696 -0.002968 -0.162388 -0.070831 -0.045242 0.018912 0.132701 -0.023602 0.087293 -0.14856 -0.067513 0.033518 -0.130283 0.085611 0.0591 0.068792 -0.046208 -0.207525 0.112676 -0.052617 0.135842 0.124716 -0.21474 -0.076943 -0.041012 -0.024036 0.159896 -0.016705 0.003403 -0.173208 -0.040046 -0.0362 0.225392 -0.012147 -0.211152 -0.099506 -0.060874 0.129145 0.255105
-0.044168 -0.117803 0.268406 0.010394 -0.149524 -0.089151 -0.06082 -0.197596 0.008691 0.156768 0.181038 0.129038 0.016221 -0.036438 0.194856 -0.04805 0.086882 0.14071 -0.021328 0.144548 -0.099619 -0.027536 0.077552 -0.019067 -0.056166 -0.122477 0.067205 -0.063809 0.187353 -0.209682 0.11108 -0.107491 0.084212 -0.087898 0.010019 -0.056394 -0.044743 0.025779 0.023802 0.038703 -0.179303 0.15181 0.12928 -0.192353 0.002072 0.008051 0.024824 -0.054588 -0.226083 0.028261 0.088953 -0.086445 -0.123716 -0.111986 -0.012371 -0.125387 0.024884 -0.062936 -0.040219 -0.03747 -0.025231 -0.013628 -0.059983 0.0825 -0.06748 -0.038068 -0.013155 0.017313 -0.01329 0.044503 -0.040359 -0.077016 -0.036321 0.045117 -0.028982 0.049528 -0.052906 0.034939 -0.175837 -0.0236 -0.138658 -0.086626 0.101315 -0.13255 -0.104777 0.066496 -0.031145 0.053452 0.179524 -0.073092 -0.135615 0.088795 0.116699 0.049621 -0.055746 -0.032017 0.133126 0.150626 0.036434 -0.185126
-0.07555 -0.134649 9.81E-4 0.066902 -0.008468 0.197472 0.136262 0.008161 -0.004177 0.14494 0.048036 0.176647 -0.028504 -0.048088 -0.060923 0.075324 -0.052052 0.055278 0.136034 -0.046414 -0.111127 -0.109821 -0.031986 0.070788 0.287691 -0.27386 0.059649 0.142605 0.097785 -0.082127 -0.142776 -0.084975 -0.009139 0.13371 0.150226 -0.033948 0.100494 -0.161805 0.200048 -0.113088 -0.193666 0.134301 0.107839 0.153996 -0.02583 -0.102589 0.019957 -0.167462 -0.089285 -0.080432 -0.027253 0.011421 -0.123509 0.047813 -0.11853 0.160271 0.172744 0.035336 -0.075497 -0.17292 -0.05128 0.005391 0.151601 -0.071361 -0.072314 -0.085409 -0.063029 -0.060281 0.042147 -0.037277 -0.091356 -0.181351 -0.001536 -0.057231 0.006275 -0.083538 -0.255018 -0.054278 -0.254964 -0.070801 -0.024028 0.0541 0.108463 -0.18654 -0.233655 0.085816 0.053031 -0.039385 0.135168 0.165729 -0.076049 0.016285 -0.142657 -0.105998 -0.017943 -0.10915 0.062525 0.092294 0.019403 -0.00717
0.062522 -0.14401 -0.001482 0.105199 -0.004925 -0.042687 -0.122233 0.029886 -0.128466 0.19125 0.05426 0.105584 -0.023435 -0.133626 0.273104 0.276843 0.020197 0.068255 0.163732 -0.007876 -0.117574 0.100282 0.305571 0.072216 -0.156179 -0.045617 -0.009269 -0.024426 0.065556 -0.359507 -0.051771 -0.108227 -0.14362 0.195042 -0.03045 0.074046 -0.110848 0.031238 0.049085 0.122117 -0.11719 0.258337 -0.061496 0.019917 -0.013162 -0.082861 -0.024269 -0.111005 -0.141643 -0.037213 0.11058 -0.209959 0.049935 0.047854 0.045576 0.006442 0.049303 -0.208688 -0.007247 -0.186497 0.060443 -0.080912 0.144786 -0.255699 -0.189857 0.130603 -0.060516 0.151876 0.143049 -0.069666 -0.023531 0.167617 -0.230491 0.132738 0.076997 -0.125239 -0.15613 0.002294 -0.039685 -0.137649 0.085502 0.113264 0.312524 -0.138582 0.08871 -0.016901 -0.047516 0.038886 0.228398 0.163581 -0.081154 -0.045722 0.048329 0.221347 -0.018802 -0.242436 0.14059 0.081484 0.009134 -0.11946
-0.161772 0.169229 0.080511 -0.082486 0.049567 0.005706 0.085163 -0.181587 0.073454 0.15444 0.061627 -0.009096 0.011721 0.014174 -0.126916 0.098979 0.080229 -0.121349 0.018835 0.167387 -0.27509 -0.022244 -0.220794 0.113424 0.040479 -0.051263 -0.067806 -0.052993 0.028185 0.10214 -0.168723 0.142175 -0.163588 0.089829 -0.017083 0.078666 -0.012597 0.195952 -2.12E-4 -0.06411 -0.049898 0.100645 -0.010897 0.180374 -0.137036 0.128717 -0.06593 -0.109489 -0.013231 -0.015316 0.076778 -0.188001 -0.060148 0.010494 -0.119501 -0.05821 -0.017374 -0.001994 -0.080457 0.037691 -0.041938 0.016359 0.232756 -0.0106 0.074056 0.009618 -0.102415 -0.007072 0.169758 0.10525 -0.210516 -0.037605 -0.064234 0.06922 0.06557 -0.060139 -0.112925 -0.216749 -0.035231 0.200133 0.16486 0.218664 -0.039632 0.197897 -0.061516 0.176808 0.086774 -0.00203 0.01055 -0.090074 -0.041892 0.026102 -0.122598 0.14851 0.174679 -0.177414 -0.018253 -0.010699 0.133955 -0.031699
0.111892 0.01378 -0.047297 0.162341 0.067451 0.10902 -0.119088 -0.090107 -0.097076 0.025296 -0.017535 0.107782 -0.00256 0.080795 0.058893 -0.0372 -0.011759 -0.146208 -0.16243 0.06978 0.094832 0.025283 0.105435 -0.05398 0.080288 -0.052925 -0.020773 0.103992 -0.014634 -0.084328 0.101895 0.190913 0.05204 -0.029759 -0.021684 -0.013872 0.2671 -0.019463 0.095875 -0.102192 -0.084271 -0.100327 0.133149 0.029422 -0.027453 -0.081145 -0.103923 -0.075562 0.083272 -0.014515 0.138298 -0.001562 -0.028913 0.076054 0.003076 0.115093 0.034456 -0.034865 0.03911 -0.13262 0.095919 0.001019 0.00623 -0.127794 -0.06241 -0.034712 -0.013499 -0.056035 -0.005595 0.156541 -0.025752 -0.013765 0.05656 0.032367 0.013893 -4.69E-4 -0.055776 -0.100697 -0.098114 0.153965 0.071293 -0.046671 -0.071572 0.024842 0.053576 0.002123 0.018444 0.109556 0.030393 0.121736 0.008703 -0.110794 -0.18146 0.103898 -0.109619 0.044195 -0.104034 0.011503 -0.081351 0.146507
