0.131091 0.040378 0.187753 -0.0136 -0.151112 -0.015483 -0.229911 -0.119415 -0.135619 0.206785 0.058313 0.203716 0.044907 0.002114 0.134741 0.317725 0.016305 0.240915 0.108114 -0.042891 -0.053838 0.043872 0.353852 0.033303 -0.206055 0.011541 -0.263719 -0.367923 0.093667 -0.134255 -0.024277 0.073892 -0.13228 0.236357 -0.089342 -0.100615 0.017162 -0.078197 -0.155731 0.186402 0.010776 0.126961 -0.046915 0.083543 0.092611 -0.179597 -0.043854 0.071314 -0.225823 0.132846 -0.006139 -0.08422 -0.065481 0.040719 0.092901 -0.096592 0.087253 0.050141 0.210442 -0.223603 0.159073 -0.189099 0.03539 -0.085086 -0.15492 -0.049877 0.024321 0.074458 0.081588 -0.232742 0.053911 0.031676 0.101916 -0.045063 0.152612 -0.156943 -0.010101 0.027036 0.025917 -1.63E-4 0.02858 0.113919 0.110167 -0.124989 0.153046 -0.035816 -0.051011 0.039916 0.053406 0.017487 -0.13414 -0.115926 0.060659 0.128598 -0.107206 -0.129645 0.219075 -0.041944 -0.151026 -0.169909
0.0 0.0 0.0 0.0 0.0 0.0 0.0 0.0 0.0 0.0 0.0 0.0 0.0 0.0 0.0 0.0 0.0 0.0 0.0 0.0 0.0 0.0 0.0 0.0 0.0 0.0 0.0 0.0 0.0 0.0 0.0 0.0 0.0 0.0 0.0 0.0 0.0 0.0 0.0 0.0 0.0 0.0 0.0 0.0 0.0 0.0 0.0 0.0 0.0 0.0 0.0 0.0 0.0 0.0 0.0 0.0 0.0 0.0 0.0 0.0 0.0 0.0 0.0 0.0 0.0 0.0 0.0 0.0 0.0 0.0 0.0 0.0 0.0 0.0 0.0 0.0 0.0 0.0 0.0 0.0 0.0 0.0 0.0 0.0 0.0 0.0 0.0 0.0 0.0 0.0 0.0 0.0 0.0 0.0 0.0 0.0 0.0 0.0 0.0 0.0
0.147488 -0.340551 -0.043683 0.107852 -0.107729 0.217696 -0.032619 0.023641 -0.327623 0.169453 -0.156028 0.33168 -0.016074 0.296268 -0.172828 0.066323 0.45365 0.01054 0.21645 0.060306 -0.196015 0.143994 0.224043 -0.126414 0.264523 -0.12954 0.059534 -0.071844 0.211936 -0.253334 -0.091777 -0.112601 -0.089905 -0.301785 -0.223889 -0.094437 -0.286128 -0.236642 -0.090801 -0.098187 -0.024795 -0.024149 0.002704 -0.067907 0.321962 0.022547 -0.031501 -0.131372 0.07497 0.127404 -0.267599 -0.087442 0.031507 -0.241426 -0.163512 0.033414 0.295272 0.011284 -0.360434 -0.041037 0.151255 -0.262558 -0.084294 -0.06324 0.273387 -0.430369 0.227077 0.048282 -0.140951 -0.111663 0.053537 -0.143296 -0.198668 0.103073 -0.244362 -0.070649 -0.099249 0.140247 0.159561 0.173702 -0.046705 0.056411 -0.093371 0.112359 0.034674 -0.19164 -0.048712 -0.224068 -0.152356 0.283661 -0.221758 0.098897 -0.247726 0.014119 -0.074637 0.101621 -0.110841 0.048715 -0.299505 0.025447
-0.03734 -0.134387 -0.101558 0.039962 -0.090274 -0.165337 -0.033574 -0.094488 0.005318 0.084802 0.09789 0.16338 -0.11799 -0.075408 0.166999 0.245264 0.147879 0.166978 0.106614 0.02358 -0.127978 0.071469 0.197507 0.111895 -0.083646 -0.061961 -0.09338 -0.055126 0.120611 -0.133231 -0.059146 -0.00745 -0.054762 0.090634 -0.035851 -0.173588 0.008311 -0.085917 -0.038265 0.0455 -0.018654 0.132518 -0.083835 0.001072 -0.010491 -0.308809 -0.013982 0.016134 -0.279098 -0.081584 0.064586 -0.186375 0.080354 0.023376 0.136723 -0.013516 0.038251 0.09672 -0.077553 -0.082424 0.07994 -0.134538 0.160088 -0.23723 -0.002978 -0.014843 0.040835 -0.020867 0.038462 -0.109646 -0.03435 0.056719 -0.055228 -0.02507 0.083543 -0.016481 0.071122 -0.036731 0.067727 -0.054098 0.011492 0.089237 0.216616 -0.161973 -0.046082 -0.008067 0.050372 0.159675 0.054507 -0.034927 -0.088065 0.0282 0.099391 -0.017908 -0.072471 0.067582 0.100622 -0.180538 0.028355 -0.030095
0.652152 1.133402 0.742892 -1.851552 -2.436201 -3.352688 -0.059947 1.069592 0.347807 0.850303 0.748933 0.725945 0.431967 2.988736 0.746868 -1.874699 0.35127 0.667277 -0.759044 -2.380101 0.60818 -0.30599 -0.599525 -0.831824 -0.834357 0.702901 -1.29464 -2.27774 -0.326079 0.351108 -1.003812 -0.665168 0.29774 -2.064026 0.492767 0.008162 -2.262853 0.956528 0.412814 0.602081 -0.90495 -0.970223 0.250976 1.266006 2.300311 -2.534665 0.015732 1.87714 -2.173779 2.064622 -1.860812 -1.990734 0.411622 -0.614461 0.90266 0.498711 -0.96518 -1.132372 0.989398 -0.985841 0.84911 1.299962 2.255228 0.435234 -1.726969 -0.734581 1.826257 1.000809 2.131398 -1.703253 0.728468 -1.697183 1.932365 1.78816 0.398515 0.161957 -0.368934 3.386885 2.111351 -0.597592 0.819766 1.56338 0.008261 1.69361 0.144904 -1.564986 1.689612 -1.151342 -1.74929 -0.207911 -0.015816 0.743225 -0.31835 2.245111 -0.947142 -0.445275 1.161168 -0.667204 -0.080608 -1.264524
0.123295 0.239989 0.143773 0.39045 -0.054962 0.106095 -0.121834 -0.073757 -0.115494 0.185919 -0.034975 0.110963 0.002643 -0.12193 -0.093991 -1.94E-4 -0.090788 -0.032285 -0.265039 -0.002162 -0.166049 0.091071 -0.134436 0.055191 0.033293 0.090585 0.023791 -0.084147 0.199396 0.069477 0.016937 0.053086 -0.020605 -0.102134 -0.02124 -0.044019 0.020847 -0.003965 -0.073889 -0.001019 0.007896 -0.069899 0.2217 0.184927 0.064037 -0.037742 -0.012992 -0.091069 0.158823 0.152293 0.027222 -0.05651 0.085497 0.005892 -0.117082 -0.148396 -0.031177 0.090728 -0.058678 0.020711 -0.103901 -0.0081 0.00537 -0.134567 -0.013325 0.031383 0.13482 0.201102 0.096211 0.085852 0.07425 -0.003868 -0.039827 0.196034 -0.020546 -0.02422 0.101628 -0.003547 0.137906 -0.058137 0.161256 -0.2073 -0.203658 0.02098 -0.025635 -0.100514 0.204025 0.092952 0.047573 0.086653 0.081252 0.018465 -0.128931 0.113034 0.001175 -0.00937 0.069904 0.124005 0.143413 -0.023677
0.156694 -0.02766 0.100343 -0.070748 -0.09336 -0.090625 -0.088975 0.049861 0.072536 -0.184641 -0.162001 0.138309 -0.111699 -0.168495 -0.081078 0.086827 0.007589 0.22223 0.180834 -0.061848 -0.061439 0.095537 0.103645 0.146024 0.086698 -0.105522 0.061453 -0.046661 0.061516 0.025991 -0.102605 0.070342 -0.121039 0.055248 0.060695 0.183026 -0.027724 0.142634 -0.055438 -0.073019 -0.058969 0.014222 -0.016759 0.079416 -0.066169 -0.13086 0.140314 0.267708 -0.126077 0.065716 0.173857 0.019259 -0.139388 0.010398 0.028445 0.12161 -0.009942 -0.183367 -0.004458 -0.01737 0.079496 -0.137634 -0.025251 0.007177 0.00118 0.11025 -0.077459 -0.024244 0.145152 -0.023526 0.048063 -0.023401 0.200091 -0.103278 -0.177445 0.082278 -0.108198 -0.060334 0.004432 -0.05817 -0.062668 0.094306 -0.025353 0.159049 -0.103863 0.010283 0.118143 -0.048837 -0.043673 0.172602 -0.153873 0.123604 -0.064072 0.144921 0.015265 -0.257143 0.044589 0.165181 0.164565 -0.154181
2.97341 0.161242 -1.937182 -1.307326 -3.885065 -0.284546 -1.157127 0.42553 -1.013186 1.179272 -0.581091 -0.714868 -2.185194 1.672695 -1.391398 -1.037651 1.196406 -2.96516 -0.635853 -3.383435 0.046986 -1.255821 0.969843 -0.661149 -1.125116 -0.271296 1.83219 0.069772 -1.931542 2.519977 1.957097 -0.48734 0.335359 -1.193278 -2.473198 0.584076 1.73091 -2.272486 -0.290211 1.317563 -0.131725 -1.098918 0.083883 -0.465336 -0.47857 -2.002396 -2.296997 -0.042558 1.734407 1.111065 0.005386 3.166283 1.765083 3.202809 0.709851 1.838176 3.288872 -0.043149 -1.526029 1.78704 1.306553 -0.903646 3.887717 -0.474246 -1.388501 0.249082 1.99624 2.423378 0.733092 0.059142 1.366503 1.41855 -0.576889 0.148283 -1.205447 -1.078957 -0.20798 3.139495 0.219312 0.522817 2.917754 -0.030161 0.04369 1.623771 0.861606 -1.046964 -0.23819 1.808717 -0.735958 -2.214234 -2.038252 -4.211499 -0.994151 0.587211 -0.226849 0.561429 1.510372 -0.871251 -1.918795 -0.350556
0.146839 -0.043035 -0.154797 0.228712 0.057912 0.132168 0.077018 -0.071985 0.089288 0.069938 0.028346 0.111465 0.066644 -0.003424 -0.150904 0.06401 -0.089711 -0.189487 -0.075167 0.175938 0.043523 0.113635 0.311727 0.104819 0.069755 0.019657 0.009731 0.086358 0.130497 -0.234971 0.166778 0.009383 -0.05895 -0.103379 -0.069339 -0.104858 -0.061924 -0.110437 -0.23704 0.039475 0.181748 0.023889 0.017665 0.056764 0.159729 -0.15401 -0.178096 0.042505 0.168621 0.251802 -0.051943 0.255305 -0.019974 0.117691 0.002074 0.068312 0.204219 0.014718 0.139151 -0.049392 0.18184 0.131148 -0.062717 0.056661 -0.016134 0.1974 0.105984 -0.11878 -0.175185 0.335237 -0.013697 0.149489 5.0E-4 -0.017594 -0.110785 0.27142 -0.035305 0.238065 0.119559 0.050592 -0.040155 0.011535 -0.101636 0.225645 0.038987 0.090925 0.119949 -0.13642 -0.110963 0.007662 -0.124164 0.103995 -0.01334 -0.244125 -0.014957 -0.111825 0.295669 -0.235452 -0.300308 0.036722
0.131091 0.040378 0.187753 -0.0136 -0.151112 -0.015483 -0.229911 -0.119415 -0.135619 0.206785 0.058313 0.203716 0.044907 0.002114 0.134741 0.317725 0.016305 0.240915 0.108114 -0.042891 -0.053838 0.043872 0.353852 0.033303 -0.206055 0.011541 -0.263719 -0.367923 0.093667 -0.134255 -0.024277 0.073892 -0.13228 0.236357 -0.089342 -0.100615 0.017162 -0.078197 -0.155731 0.186402 0.010776 0.126961 -0.046915 0.083543 0.092611 -0.179597 -0.043854 0.071314 -0.225823 0.132846 -0.006139 -0.08422 -0.065481 0.040719 0.092901 -0.096592 0.087253 0.050141 0.210442 -0.223603 0.159073 -0.189099 0.03539 -0.085086 -0.15492 -0.049877 0.024321 0.074458 0.081588 -0.232742 0.053911 0.031676 0.101916 -0.045063 0.152612 -0.156943 -0.010101 0.027036 0.025917 -1.63E-4 0.02858 0.113919 0.110167 -0.124989 0.153046 -0.035816 -0.051011 0.039916 0.053406 0.017487 -0.13414 -0.115926 0.060659 0.128598 -0.107206 -0.129645 0.219075 -0.041944 -0.151026 -0.169909
0.652152 1.133402 0.742892 -1.851552 -2.436201 -3.352688 -0.059947 1.069592 0.347807 0.850303 0.748933 0.725945 0.431967 2.988736 0.746868 -1.874699 0.35127 0.667277 -0.759044 -2.380101 0.60818 -0.30599 -0.599525 -0.831824 -0.834357 0.702901 -1.29464 -2.27774 -0.326079 0.351108 -1.003812 -0.665168 0.29774 -2.064026 0.492767 0.008162 -2.262853 0.956528 0.412814 0.602081 -0.90495 -0.970223 0.250976 1.266006 2.300311 -2.534665 0.015732 1.87714 -2.173779 2.064622 -1.860812 -1.990734 0.411622 -0.614461 0.90266 0.498711 -0.96518 -1.132372 0.989398 -0.985841 0.84911 1.299962 2.255228 0.435234 -1.726969 -0.734581 1.826257 1.000809 2.131398 -1.703253 0.728468 -1.697183 1.932365 1.78816 0.398515 0.161957 -0.368934 3.386885 2.111351 -0.597592 0.819766 1.56338 0.008261 1.69361 0.144904 -1.564986 1.689612 -1.151342 -1.74929 -0.207911 -0.015816 0.743225 -0.31835 2.245111 -0.947142 -0.445275 1.161168 -0.667204 -0.080608 -1.264524
-0.11818 -0.094169 0.042134 0.131323 0.074672 -0.125425 -0.092011 0.019884 -0.023005 -0.008001 -0.074767 0.083786 -0.13913 0.004362 -0.115361 0.049278 -0.10314 -0.131012 0.106459 0.224951 -0.090589 -0.004508 -0.036415 0.133216 -0.231771 0.008733 -0.004388 0.060666 0.142764 -0.127191 -0.06321 0.246963 -0.180311 0.113239 -0.217562 0.01539 0.058227 0.047261 0.061581 -0.029267 0.092876 -0.029159 0.126133 0.002777 -0.115069 -0.069715 -0.07497 -0.063853 0.005547 0.09031 0.084357 -0.05437 -0.097253 -0.014346 -0.013414 0.016379 0.038794 0.01144 0.01274 -0.037038 0.049766 -0.162483 0.012544 -0.026886 -0.016851 0.00282 -0.137359 -0.097536 0.123409 0.05091 -0.123812 0.052164 -0.154958 -0.070971 -0.007713 0.055583 0.005327 0.13915 -0.110392 -0.139027 0.074866 0.038362 -0.097107 -0.032957 -0.021029 0.074549 0.068246 -0.04065 0.036656 -0.105409 -0.177827 -0.058489 -0.02558 -0.011362 -0.009015 -0.137861 0.012938 -0.07964 0.08104 -0.036975
2.24658 -1.792061 -3.208774 -1.384485 1.628615 0.509865 2.22803 2.726332 -2.457895 -0.594144 3.231782 -1.350542 -0.713713 -0.210506 2.577194 1.145765 -0.853744 1.454949 -1.386059 -1.185442 -2.65198 -0.404469 -0.534953 -0.917741 -0.315074 3.016424 1.438346 0.316292 -5.508504 0.130514 1.054112 2.469282 -3.277711 -1.7049 -0.133064 2.597971 0.132423 2.684863 -0.785255 3.888857 0.864353 -4.321059 3.961793 0.412726 -0.472464 -0.495305 -0.901194 0.617259 1.021395 4.204533 3.1136 -0.918572 6.455558 1.368424 -0.701501 0.673093 2.561697 2.29569 0.638153 0.369745 1.276639 1.526812 -2.340188 0.020807 0.667925 -1.378811 1.546187 0.021204 2.779419 4.677773 4.978366 0.944751 1.442774 -1.533939 -3.36638 0.440743 -2.744812 -0.451197 3.797046 -0.325848 1.053109 -1.41825 1.15262 -0.679067 1.956997 -1.381544 1.259893 2.96397 -2.363615 1.097579 1.97781 2.046156 -0.239687 3.839356 0.20062 -1.595332 2.551842 -0.448557 -0.704441 0.501944
0.076594 -0.199501 0.2027 0.176772 -0.039758 0.023468 -0.062109 0.0774 0.054171 0.088133 -0.028462 0.320828 -0.112689 -0.105171 0.165336 -0.039742 0.027346 -0.020414 0.116665 0.119666 0.078118 0.014581 0.04492 -0.057073 -0.10794 -0.090284 -0.173956 -0.103567 0.142644 0.010637 -0.042665 -0.104148 -0.23292 0.151724 -0.060366 -0.227539 0.102389 -0.129266 0.005404 0.017334 -0.165263 0.146999 0.091273 0.189788 0.003531 -0.180556 -0.174333 0.072413 -0.113615 0.066181 0.016432 -0.103203 -0.222773 0.067866 0.111634 -0.214641 0.066382 0.017632 -0.014616 -0.116504 0.197197 -0.110829 -0.029051 -0.08824 -0.286285 -0.077426 -0.046257 -0.005034 0.02818 -0.207414 -0.053841 -0.012529 0.108386 -0.22669 -0.034264 -0.084916 -0.270642 -0.117614 -0.164729 -0.019644 0.017254 0.194925 0.108543 -0.185764 0.050862 0.004857 0.206937 0.160744 0.1539 0.067165 -0.051167 0.051192 0.067121 -0.084796 -0.081263 -0.256949 0.389044 0.099502 0.190931 0.158639
0.147488 -0.340551 -0.043683 0.107852 -0.107729 0.217696 -0.032619 0.023641 -0.327623 0.169453 -0.156028 0.33168 -0.016074 0.296268 -0.172828 0.066323 0.45365 0.01054 0.21645 0.060306 -0.196015 0.143994 0.224043 -0.126414 0.264523 -0.12954 0.059534 -0.071844 0.211936 -0.253334 -0.091777 -0.112601 -0.089905 -0.301785 -0.223889 -0.094437 -0.286128 -0.236642 -0.090801 -0.098187 -0.024795 -0.024149 0.002704 -0.067907 0.321962 0.022547 -0.031501 -0.131372 0.07497 0.127404 -0.267599 -0.087442 0.031507 -0.241426 -0.163512 0.033414 0.295272 0.011284 -0.360434 -0.041037 0.151255 -0.262558 -0.084294 -0.06324 0.273387 -0.430369 0.227077 0.048282 -0.140951 -0.111663 0.053537 -0.143296 -0.198668 0.103073 -0.244362 -0.070649 -0.099249 0.140247 0.159561 0.173702 -0.046705 0.056411 -0.093371 0.112359 0.034674 -0.19164 -0.048712 -0.224068 -0.152356 0.283661 -0.221758 0.098897 -0.247726 0.014119 -0.074637 0.101621 -0.110841 0.048715 -0.299505 0.025447
-0.03734 -0.134387 -0.101558 0.039962 -0.090274 -0.165337 -0.033574 -0.094488 0.005318 0.084802 0.09789 0.16338 -0.11799 -0.075408 0.166999 0.245264 0.147879 0.166978 0.106614 0.02358 -0.127978 0.071469 0.197507 0.111895 -0.083646 -0.061961 -0.09338 -0.055126 0.120611 -0.133231 -0.059146 -0.00745 -0.054762 0.090634 -0.035851 -0.173588 0.008311 -0.085917 -0.038265 0.0455 -0.018654 0.132518 -0.083835 0.001072 -0.010491 -0.308809 -0.013982 0.016134 -0.279098 -0.081584 0.064586 -0.186375 0.080354 0.023376 0.136723 -0.013516 0.038251 0.09672 -0.077553 -0.082424 0.07994 -0.134538 0.160088 -0.23723 -0.002978 -0.014843 0.040835 -0.020867 0.038462 -0.109646 -0.03435 0.056719 -0.055228 -0.02507 0.083543 -0.016481 0.071122 -0.036731 0.067727 -0.054098 0.011492 0.089237 0.216616 -0.161973 -0.046082 -0.008067 0.050372 0.159675 0.054507 -0.034927 -0.088065 0.0282 0.099391 -0.017908 -0.072471 0.067582 0.100622 -0.180538 0.028355 -0.030095
0.072925 -0.078121 -0.168109 0.145852 -0.194802 0.053044 -0.09932 -0.01277 0.169892 -0.075038 -0.091551 -0.079792 -0.228667 0.01942 0.001252 0.031399 0.060011 0.154503 -0.064518 -0.029463 -0.061422 0.014196 0.11446 0.177187 -0.139148 -0.012957 0.104087 0.255626 0.239276 -0.115108 -0.001216 0.10221 -0.010466 -0.039153 -0.178109 -0.05484 0.131711 -0.025911 0.107715 0.065308 3.3E-4 -0.036047 0.062837 -0.22369 0.167455 -0.102572 -0.068743 -0.198805 -0.012169 -0.00835 0.069706 -0.1365 0.078195 0.106518 0.101695 -0.093003 0.077784 0.210226 0.057122 -0.024459 -0.049675 -0.13378 -0.092191 0.00302 -0.031288 -0.033144 -0.109794 0.018615 0.121461 -0.143836 0.131141 0.066065 0.074654 -0.06303 0.148979 0.029023 -0.108707 0.100366 0.024438 -0.099329 0.067665 -0.239793 0.020645 -0.381835 0.026622 -0.033033 -0.058807 0.059209 -0.015369 0.145721 -0.114845 0.024762 0.251875 0.022659 -0.079458 -0.275567 -0.082294 0.135238 0.05521 -0.017169
0.950943 -0.553754 0.251208 -1.491756 -3.325931 0.0182 -0.898824 -0.173676 0.945375 0.139384 -0.134551 -0.674419 -0.662472 2.254098 1.30962 1.17121 -0.135236 1.575957 0.450793 1.868384 1.909711 0.325094 1.469441 0.143768 0.723019 2.529691 3.150732 -1.835025 -0.49337 -1.183964 -2.59366 0.458674 1.060229 -0.410339 -0.480305 -0.196992 -1.280727 2.872781 1.232217 -0.480874 0.531011 0.374993 0.467259 0.580835 2.769988 -2.585472 0.038086 1.159324 0.965187 0.742884 -1.188367 0.114395 -0.341478 0.043103 -0.704361 -1.054813 0.612957 -1.968011 1.712275 0.488292 3.115879 0.473621 0.63411 -0.16794 -1.382064 0.180115 2.042519 -0.783716 1.817781 -0.176434 -0.417846 0.817915 -0.337068 1.440441 1.414224 -1.014246 -1.389726 -0.255197 3.293436 1.543981 -0.192018 0.823818 2.2331 0.207846 -0.727975 1.02855 1.08695 -0.306795 -1.383595 0.61293 -1.301521 1.384903 0.070799 0.366727 -0.219178 -2.078523 1.956376 -0.618058 -0.354333 0.502421
-0.093893 0.138662 0.038025 0.226371 0.132429 0.033774 -0.027925 0.310456 -0.19899 0.226944 -0.093023 -0.071362 0.334302 -0.007838 0.279644 -0.22994 0.009763 0.339922 0.212424 0.06739 0.027299 0.341707 0.05462 -5.85E-4 0.047385 0.069882 0.083799 -0.366914 0.081028 -0.016576 -0.263397 0.115473 0.32837 -0.175818 0.126244 -0.280304 0.128987 -0.125938 0.177188 0.313468 -0.115116 0.145999 -0.012335 0.238194 0.057911 -0.008699 0.257518 -0.088371 -0.012359 0.126515 0.029135 0.322453 -0.249004 -0.00117 0.511746 -0.33454 0.046534 0.213886 0.487383 -0.037639 -0.122376 0.249247 0.158894 -0.071574 -0.056695 0.012967 0.260132 -0.237741 0.314171 0.088131 -0.122573 0.078367 -0.159105 0.05496 0.282683 0.048123 0.021883 -0.075165 0.229645 0.044522 0.30492 0.571747 0.04698 -0.149721 -0.022749 -0.03718 -0.119166 -0.067107 -0.167114 -0.191753 -0.074149 -0.382916 -0.159606 -0.041602 -0.094988 -0.29609 0.229845 -0.130666 -0.021259 -0.097246
0.131091 0.040378 0.187753 -0.0136 -0.151112 -0.015483 -0.229911 -0.119415 -0.135619 0.206785 0.058313 0.203716 0.044907 0.002114 0.134741 0.317725 0.016305 0.240915 0.108114 -0.042891 -0.053838 0.043872 0.353852 0.033303 -0.206055 0.011541 -0.263719 -0.367923 0.093667 -0.134255 -0.024277 0.073892 -0.13228 0.236357 -0.089342 -0.100615 0.017162 -0.078197 -0.155731 0.186402 0.010776 0.126961 -0.046915 0.083543 0.092611 -0.179597 -0.043854 0.071314 -0.225823 0.132846 -0.006139 -0.08422 -0.065481 0.040719 0.092901 -0.096592 0.087253 0.050141 0.210442 -0.223603 0.159073 -0.189099 0.03539 -0.085086 -0.15492 -0.049877 0.024321 0.074458 0.081588 -0.232742 0.053911 0.031676 0.101916 -0.045063 0.152612 -0.156943 -0.010101 0.027036 0.025917 -1.63E-4 0.02858 0.113919 0.110167 -0.124989 0.153046 -0.035816 -0.051011 0.039916 0.053406 0.017487 -0.13414 -0.115926 0.060659 0.128598 -0.107206 -0.129645 0.219075 -0.041944 -0.151026 -0.169909
0.652152 1.133402 0.742892 -1.851552 -2.436201 -3.352688 -0.059947 1.069592 0.347807 0.850303 0.748933 0.725945 0.431967 2.988736 0.746868 -1.874699 0.35127 0.667277 -0.759044 -2.380101 0.60818 -0.30599 -0.599525 -0.831824 -0.834357 0.702901 -1.29464 -2.27774 -0.326079 0.351108 -1.003812 -0.665168 0.29774 -2.064026 0.492767 0.008162 -2.262853 0.956528 0.412814 0.602081 -0.90495 -0.970223 0.250976 1.266006 2.300311 -2.534665 0.015732 1.87714 -2.173779 2.064622 -1.860812 -1.990734 0.411622 -0.614461 0.90266 0.498711 -0.96518 -1.132372 0.989398 -0.985841 0.84911 1.299962 2.255228 0.435234 -1.726969 -0.734581 1.826257 1.000809 2.131398 -1.703253 0.728468 -1.697183 1.932365 1.78816 0.398515 0.161957 -0.368934 3.386885 2.111351 -0.597592 0.819766 1.56338 0.008261 1.69361 0.144904 -1.564986 1.689612 -1.151342 -1.74929 -0.207911 -0.015816 0.743225 -0.31835 2.245111 -0.947142 -0.445275 1.161168 -0.667204 -0.080608 -1.264524
2.591633 1.608701 -2.087245 2.00752 3.012652 4.995656 0.847355 -1.594905 -0.365708 -1.629805 -1.650237 3.712017 -0.231463 -0.537534 -2.036098 2.002639 -0.696666 -4.310136 -1.477319 -1.356504 -0.581823 -1.830239 -0.272773 -1.648095 0.090509 0.008711 0.330842 0.396714 2.341035 -0.526067 1.155793 -1.730906 -1.010387 -1.342646 -1.939355 0.734869 0.727366 0.700702 1.516974 -2.133831 -0.280653 -3.051674 0.017123 0.532043 1.478449 0.375441 0.920129 1.548929 1.087478 0.668327 0.707416 3.249232 -0.362503 1.273221 -2.929682 -0.245389 1.633444 -0.119836 0.103459 -3.445175 0.513245 0.427807 0.738792 1.448203 0.501908 0.362882 -0.731533 -0.391201 0.037778 3.053553 4.030229 1.793904 1.24136 0.081706 -1.401954 -0.638804 -0.487445 -0.267924 0.012844 0.538179 -0.241935 -0.068756 1.351665 -0.112558 0.001814 0.447262 0.833441 -0.023876 1.212707 1.514635 -0.568611 0.376173 -3.663739 -4.345135 -0.444319 2.139788 -2.53093 0.92131 -1.399435 1.763954
-0.144336 0.074372 0.113318 0.085118 -0.148613 0.116197 -0.043826 0.097308 0.028569 0.0599 0.122926 0.129504 -0.202531 -0.024615 -0.184827 0.130076 -0.320919 0.065363 0.003498 0.051718 -0.144357 -0.139014 -0.049753 0.108518 -0.082871 0.171983 0.073164 -0.210686 -0.009667 0.210213 0.060274 0.046079 -0.075353 -0.162488 0.155761 -0.129948 -0.292558 -0.091019 -0.218721 0.241112 -0.031704 0.071499 0.229555 0.017352 -0.080441 0.02619 0.111902 -0.063922 0.15966 0.018002 0.091424 -0.033691 -0.13884 -0.017261 0.032462 0.057671 0.059981 0.008869 0.121346 -0.080853 0.079416 0.001784 0.19468 -0.254343 -0.090097 -0.09996 0.234742 -0.05806 -0.035704 -0.10223 -0.09253 0.014641 0.023658 0.024081 0.087838 0.004814 -0.031244 0.126039 -0.042851 0.057792 0.054989 0.062025 0.114046 -0.024096 0.166209 -0.182425 0.030826 0.162165 0.294079 0.052697 -0.053533 0.047016 -0.011732 0.117571 0.109081 -0.155768 -0.001293 -0.333485 -0.017285 0.020007
-0.030898 0.054955 0.036624 -0.123825 0.067599 -0.06233 0.059418 -0.069156 0.096683 -0.248153 -0.050819 0.038802 -0.123323 -0.126015 -0.010932 0.251677 -0.014942 -0.083175 -0.054931 0.132019 0.137292 -0.015946 0.038989 -0.106996 0.06007 -0.209396 0.056202 0.104843 0.177226 -0.141339 -0.136671 -0.188634 -0.142519 0.045453 0.001795 -0.06738 0.16176 0.053692 0.031364 0.07221 -0.039569 -0.014135 0.148937 0.118704 -0.114985 -0.088531 0.094891 -0.055359 -0.041328 0.003293 -0.045993 -0.108746 -0.290973 0.044425 0.046615 -0.006891 -0.079911 -0.081645 -0.033481 -0.009813 0.032737 -0.095565 -0.083967 -0.087594 0.045428 0.04055 -0.219414 -0.123108 0.138892 0.003972 -0.112054 0.001599 0.040892 0.077642 -0.020451 0.123571 -0.0094 0.023696 -0.218286 -0.065734 -0.078417 0.032626 0.007649 -0.058824 0.194155 0.110716 0.124334 -0.088136 0.112993 0.084992 -0.148786 0.086168 -0.192496 -3.41E-4 -0.092358 0.061922 0.020137 -0.06346 -0.199524 5.52E-4
-0.38434 -0.570338 -3.334123 -0.990325 -0.281295 3.633702 1.320934 0.804616 -0.499895 -0.831205 0.460112 1.388349 -2.264975 3.215568 -3.90167 1.353361 -1.448904 -2.546085 -1.024352 -1.734034 -1.344124 0.93203 0.532723 0.23208 -0.507331 0.823317 0.659701 0.36019 1.191168 -0.162178 -0.263719 -1.148898 -0.733443 1.049014 -0.463284 0.424462 1.721949 -2.279087 -0.239497 -3.509027 0.274708 -0.478871 -0.254635 1.092364 -0.333634 -0.504492 -0.065145 -0.538987 0.565458 0.780359 -0.571438 2.952173 0.370658 -0.759209 -2.924849 1.720769 0.511283 1.62778 2.047539 0.727555 2.155394 -1.325505 -0.576841 2.155423 -1.025197 1.359344 -0.744288 -2.504187 -1.775349 1.348846 2.846446 1.640962 1.869469 1.38429 0.797755 -0.790083 2.739745 1.110482 1.051984 -1.114181 2.453474 -0.002451 -1.249565 3.986771 0.736882 -1.32782 1.044597 0.12676 2.039398 0.327395 0.179204 -1.66492 -0.55174 -2.138355 -3.629091 -1.09422 -3.320013 0.282001 -1.758182 -2.017416
0.147488 -0.340551 -0.043683 0.107852 -0.107729 0.217696 -0.032619 0.023641 -0.327623 0.169453 -0.156028 0.33168 -0.016074 0.296268 -0.172828 0.066323 0.45365 0.01054 0.21645 0.060306 -0.196015 0.143994 0.224043 -0.126414 0.264523 -0.12954 0.059534 -0.071844 0.211936 -0.253334 -0.091777 -0.112601 -0.089905 -0.301785 -0.223889 -0.094437 -0.286128 -0.236642 -0.090801 -0.098187 -0.024795 -0.024149 0.002704 -0.067907 0.321962 0.022547 -0.031501 -0.131372 0.07497 0.127404 -0.267599 -0.087442 0.031507 -0.241426 -0.163512 0.033414 0.295272 0.011284 -0.360434 -0.041037 0.151255 -0.262558 -0.084294 -0.06324 0.273387 -0.430369 0.227077 0.048282 -0.140951 -0.111663 0.053537 -0.143296 -0.198668 0.103073 -0.244362 -0.070649 -0.099249 0.140247 0.159561 0.173702 -0.046705 0.056411 -0.093371 0.112359 0.034674 -0.19164 -0.048712 -0.224068 -0.152356 0.283661 -0.221758 0.098897 -0.247726 0.014119 -0.074637 0.101621 -0.110841 0.048715 -0.299505 0.025447
0.0 0.0 0.0 0.0 0.0 0.0 0.0 0.0 0.0 0.0 0.0 0.0 0.0 0.0 0.0 0.0 0.0 0.0 0.0 0.0 0.0 0.0 0.0 0.0 0.0 0.0 0.0 0.0 0.0 0.0 0.0 0.0 0.0 0.0 0.0 0.0 0.0 0.0 0.0 0.0 0.0 0.0 0.0 0.0 0.0 0.0 0.0 0.0 0.0 0.0 0.0 0.0 0.0 0.0 0.0 0.0 0.0 0.0 0.0 0.0 0.0 0.0 0.0 0.0 0.0 0.0 0.0 0.0 0.0 0.0 0.0 0.0 0.0 0.0 0.0 0.0 0.0 0.0 0.0 0.0 0.0 0.0 0.0 0.0 0.0 0.0 0.0 0.0 0.0 0.0 0.0 0.0 0.0 0.0 0.0 0.0 0.0 0.0 0.0 0.0
-1.198803 2.798515 1.121532 0.835227 -0.105007 1.524861 2.470613 2.878394 0.693314 -0.334319 -1.783289 2.515376 2.238606 0.926585 -1.67455 -0.071417 2.347128 -0.383758 1.344816 -1.159221 0.269231 -1.835312 2.630624 -2.056992 -1.044231 0.637307 1.766608 0.490086 1.126177 0.493811 2.365202 1.426652 0.473495 0.111332 -2.210269 -1.787386 0.482326 1.836973 0.084421 1.18874 0.471486 -1.087737 -0.342834 -1.3463 1.214573 -0.162715 -1.460736 -0.134063 2.120978 0.562807 2.709055 1.988091 -1.420172 0.124182 -2.456564 -1.605516 0.233588 -3.186575 2.263655 -1.450359 1.49419 1.524682 -2.798447 -1.250986 0.994012 -2.166638 1.185765 0.305824 0.644585 0.348264 -1.275787 -1.665731 -0.118968 -1.264624 -2.202459 -1.096296 2.00138 -1.091396 -1.181847 -1.817891 -2.234349 1.047968 -3.023916 0.693434 0.389267 1.686757 0.007071 0.548729 -0.050655 0.410101 2.066275 -1.287977 -0.789964 0.593139 -0.745524 -0.179878 -2.59847 1.344084 -1.071336 1.877858
-0.065946 -0.040943 0.044306 0.093248 -0.018616 -0.113962 0.063747 0.10309 0.055277 0.021535 0.17844 -0.089381 0.099353 0.056516 -0.008195 -0.117615 0.018091 0.067612 -0.027077 0.121722 -0.027735 0.105257 0.010915 -0.081362 -0.001809 0.063447 0.045264 0.050744 0.017621 -0.01615 0.050559 -0.019788 -0.090123 0.061235 0.016555 -0.026218 -0.055153 0.070636 -0.090746 0.072833 -0.065357 0.166495 -0.050346 0.026772 0.003899 -0.063752 0.001723 0.007365 -0.029002 -0.026793 0.104747 0.024558 -0.036006 -0.056541 0.140571 0.117519 -0.092396 0.035751 0.041246 0.0618 -0.031132 -0.193607 0.060686 -0.110958 -0.048038 -0.001832 -0.095709 0.021572 -0.111785 -0.032255 -0.0172 0.115516 -0.142137 0.170393 0.013315 0.006165 -0.002634 -0.115895 -0.003964 -0.074719 0.045695 0.015336 0.051717 -0.029526 0.020553 -0.169079 0.024416 -0.079728 -0.104925 0.107708 -0.155104 -0.141081 0.010613 0.086886 -0.085159 -0.045951 -0.030083 -0.191735 0.076375 0.110576
-0.12595 0.020972 0.029184 0.192422 -0.107475 0.037692 -0.118185 0.010069 0.03515 0.019596 0.015994 -0.113566 -0.009004 0.048512 -0.133445 0.005609 0.049183 -0.115015 -0.118159 -0.084399 0.011987 0.134131 -0.074986 0.077206 -0.085653 -0.05572 -0.15005 0.202664 0.154299 0.036924 -0.192459 -0.060183 0.086207 -0.046537 0.017595 -0.004395 0.024793 -0.028475 0.199562 0.106121 -0.241365 -0.088275 0.012726 0.1494 0.03682 -0.010954 -0.174097 -0.221465 -0.057637 -0.03547 -0.149702 -0.189474 -0.124074 -0.158032 -0.189064 0.017416 0.024903 0.103933 -0.054645 0.064249 -0.222898 -0.048001 -0.022033 0.043582 -0.104921 0.086829 -0.129435 -0.051131 -0.031703 -0.03265 -0.022106 -0.048571 -0.112273 0.137757 -0.008934 -0.225411 -0.059893 -0.169194 -0.014361 -0.05795 0.089706 -0.069049 0.058686 0.115439 0.128508 -0.008749 0.258642 -0.107648 0.124525 -0.073916 0.26792 -0.042251 -0.194793 0.051522 0.134301 0.075969 -0.181923 -0.039069 0.154746 0.243915
-0.001889 -0.015376 0.011577 -0.079922 0.019615 0.005975 0.018085 -0.133459 0.07886 -0.019014 -0.010821 0.041669 -0.011128 0.097962 -0.060935 0.042309 0.015014 8.49E-4 -0.002449 0.038756 0.0685 -0.030124 0.021652 -0.079703 0.075875 -0.122727 0.144977 0.073106 0.120718 -0.115022 0.047765 0.225363 -0.061747 -0.035103 0.080005 0.064342 -0.011293 0.032618 0.076202 0.118833 0.299047 0.176216 0.148892 -0.105455 -0.022399 0.118571 -0.05437 -0.136016 -0.04767 0.112361 0.012505 0.001737 0.056998 -0.132972 0.205737 0.014869 0.130993 0.242588 0.100312 0.073252 -0.019374 -0.073147 -0.042245 -0.05193 0.119558 0.067972 -0.198268 0.013905 0.103121 -0.09962 -0.010563 -0.219254 -0.117595 0.0375 -0.028297 0.03039 -0.116152 0.021365 0.041774 -0.247365 -0.187561 -0.063496 -0.088808 -0.029223 0.057963 0.069802 -0.07258 -0.052825 0.064478 0.040761 0.149345 0.085248 0.239559 0.137326 -0.140966 0.005439 0.083517 -0.02486 -0.028184 0.111642
0.014401 0.056522 -0.067027 0.003451 -0.029767 0.073351 -0.024849 0.036841 0.040807 0.005458 0.13335 -0.120096 -0.117021 -0.119265 0.024171 -0.015156 0.05961 -0.1094 -0.023646 -0.066864 -0.026603 0.054721 0.037844 -0.047458 0.049247 0.214332 -0.031197 -0.081032 0.0982 -0.06176 -0.187928 0.07447 0.140843 0.089594 0.127182 -0.106684 -0.115247 0.047985 0.017104 -0.188258 0.201881 0.035723 0.17568 -0.081601 0.023983 0.109685 -0.107213 -0.203239 -0.014228 0.042078 0.128434 -0.15446 -0.162105 -0.057687 -0.123467 0.099686 -0.003883 0.05067 0.065316 -0.21982 0.00112 -0.059011 -0.046757 0.11549 0.023983 -0.006561 -0.066449 -0.189888 -0.017994 0.220568 0.052927 -0.029092 0.221103 -0.013212 3.38E-4 -0.022332 0.015746 0.1407 0.033685 0.174891 -0.062061 -0.068634 0.002461 -0.013492 0.017944 0.018135 0.023988 -0.324442 0.001304 0.173735 -0.02299 0.007869 0.154087 -0.09733 0.080793 0.236875 -0.030117 0.131032 0.157627 -0.019791
0.147488 -0.340551 -0.043683 0.107852 -0.107729 0.217696 -0.032619 0.023641 -0.327623 0.169453 -0.156028 0.33168 -0.016074 0.296268 -0.172828 0.066323 0.45365 0.01054 0.21645 0.060306 -0.196015 0.143994 0.224043 -0.126414 0.264523 -0.12954 0.059534 -0.071844 0.211936 -0.253334 -0.091777 -0.112601 -0.089905 -0.301785 -0.223889 -0.094437 -0.286128 -0.236642 -0.090801 -0.098187 -0.024795 -0.024149 0.002704 -0.067907 0.321962 0.022547 -0.031501 -0.131372 0.07497 0.127404 -0.267599 -0.087442 0.031507 -0.241426 -0.163512 0.033414 0.295272 0.011284 -0.360434 -0.041037 0.151255 -0.262558 -0.084294 -0.06324 0.273387 -0.430369 0.227077 0.048282 -0.140951 -0.111663 0.053537 -0.143296 -0.198668 0.103073 -0.244362 -0.070649 -0.099249 0.140247 0.159561 0.173702 -0.046705 0.056411 -0.093371 0.112359 0.034674 -0.19164 -0.048712 -0.224068 -0.152356 0.283661 -0.221758 0.098897 -0.247726 0.014119 -0.074637 0.101621 -0.110841 0.048715 -0.299505 0.025447
0.158352 0.089946 -0.037673 0.059807 0.029834 -0.178429 0.039955 0.119986 -0.317764 -0.206629 0.081548 -0.084251 -0.276492 0.096271 0.126398 0.077319 0.158062 0.149775 -0.03469 -0.062207 0.106189 0.11195 0.371319 -0.101739 -0.270936 0.075871 0.086054 0.112102 0.249057 -0.215628 0.034296 0.111698 -0.148026 0.050989 -0.063872 0.136253 0.039224 -0.163716 -0.028088 -0.127941 -0.024035 -0.292644 0.020534 -0.06234 -0.036335 0.032533 -0.099523 -0.127414 -0.044888 -0.184694 0.251524 -0.291112 -0.071167 -0.027549 0.103483 -0.028181 -0.087297 0.071544 -0.048557 -0.122094 0.110189 -0.193802 -0.038648 -0.024149 -0.27166 0.08103 -0.318202 -0.228048 -0.093503 0.016973 -0.084258 -0.241296 -0.016166 -0.068471 0.379892 0.310546 0.027565 -0.053866 0.16925 0.044499 0.084049 -0.231095 0.028206 -0.201007 -0.108057 0.280073 0.048948 0.022553 -0.044797 0.169553 0.007294 -0.002047 -0.087006 0.134925 -0.015258 0.138894 0.020142 0.007506 0.051576 -0.082593
-0.101423 -0.111223 0.204943 0.132795 0.05788 0.002316 -0.036371 0.128742 -0.099987 -0.203751 -0.005747 -0.076661 0.061493 0.129923 0.03874 0.055627 -0.263836 -0.184604 0.011424 -0.007279 0.055684 -0.07375 0.014547 0.147661 -0.137906 -0.053606 -0.109156 0.116562 0.167124 -0.150614 0.060862 0.022001 -0.10916 0.25015 -0.078021 -0.006786 -0.141903 0.141898 -0.160938 -0.126208 0.099444 0.188346 -0.14893 0.061422 -0.089297 -0.141281 -0.053777 0.056071 -0.033157 -0.040216 0.128842 -0.039396 0.153451 -0.099596 0.009729 -0.066533 -0.087515 -0.014641 -0.090516 0.13632 -0.012204 -0.13469 0.080049 0.037476 -0.028325 0.033903 0.019994 0.045848 0.02642 0.068674 -0.091896 0.015101 0.058041 -0.015662 0.014985 0.073895 0.155834 -0.167799 -0.15315 0.063915 0.007151 -0.100262 0.020611 0.155 -0.277609 0.145833 0.11182 0.07878 -0.028091 -0.019437 0.04089 -0.021383 0.025695 0.057773 -0.115688 0.142605 -0.064814 -0.090623 0.132294 -0.086139
0.352905 0.550922 -1.128945 -0.511125 0.774489 1.405335 -0.371647 0.106012 -0.779785 -0.640302 -0.68578 1.570717 -0.712288 -0.706705 -0.789609 -0.045278 -1.599722 -2.840112 -0.089543 -1.158838 -1.862605 -0.62748 -0.063542 -0.468696 0.750564 0.033551 -0.772222 -0.188991 -0.163115 0.455978 0.038455 -0.779588 0.172303 -1.114448 -0.548246 -0.008155 1.66721 -0.744821 -0.15746 -2.668482 -0.304702 -0.905716 0.479063 0.151803 -0.94063 -0.044338 -0.906122 -0.456182 0.281891 0.268287 0.47007 0.628019 0.328428 1.471286 -2.345457 0.072073 -0.345477 -0.998199 -1.496897 -0.053061 0.351206 -0.934426 0.295591 0.07336 0.24092 0.486976 0.390085 -0.621556 0.375246 -0.02625 1.957847 1.014101 0.004675 0.08874 -0.900479 -0.462149 0.922254 1.355385 -1.048724 0.105897 1.254466 0.410718 0.321258 1.066395 -0.171761 -0.128774 0.315556 0.697301 -0.180925 0.555334 1.005586 -0.891677 -1.232923 -1.994189 -0.567812 0.204184 -0.947385 -0.051526 -0.987029 0.725141
0.17747 -0.220289 0.031353 -0.020959 0.050084 -0.051017 0.014017 -0.017541 -0.064952 0.041734 0.060409 0.00861 -0.120514 -0.044104 0.059365 0.168958 0.002777 0.173153 0.117301 0.123388 -0.100838 -0.074664 0.146404 0.062996 -0.091194 -0.032107 -0.110972 0.01407 0.078054 -0.285259 -0.053148 0.057787 -0.224479 0.074902 -0.097954 -0.023841 -0.038516 0.068986 -0.004296 0.195386 -0.106951 0.202273 -0.051893 0.060664 0.022487 -0.12069 0.006128 0.10992 -0.2191 0.30032 0.143765 -0.143438 0.122935 -0.101103 0.092339 -0.017765 -0.031392 -0.003762 0.19813 -0.044848 0.084127 -0.28034 0.059569 -0.131757 -0.033508 0.075196 0.133322 -0.034654 -0.027193 -0.036623 -0.078591 0.056722 -0.049747 0.10346 -0.202148 0.095829 -0.251867 -0.038727 -0.035482 -0.083671 -0.021972 -0.018875 0.03572 -0.204935 -0.061752 0.090259 0.034288 0.048901 0.183772 -0.166344 0.066346 -0.008524 -0.062297 -0.051929 -0.057081 -0.079366 0.032182 0.049482 0.070099 -0.008295
0.100692 -0.157131 0.139302 0.123578 0.151543 0.178422 -0.012679 -0.103362 0.233611 0.029945 -0.033496 -0.02353 -0.150988 -0.078962 0.230475 0.006161 -0.201667 0.084881 -0.295978 -0.216595 -0.152078 -0.096403 -0.182565 -0.034674 -0.008271 0.123985 -0.225344 0.060741 0.064737 -0.027452 -0.020276 -0.040379 -0.062847 -0.021902 -0.155636 0.098869 0.118253 -0.054786 -0.035252 0.089718 -0.093516 0.108242 -0.165133 -0.010665 -0.002421 -0.171869 -0.111112 -0.041381 -0.044332 -0.069941 -0.02046 0.052983 -0.30701 0.053758 -0.133805 0.122561 8.2E-4 0.037855 -0.034898 0.091687 -0.127096 0.09488 -0.140734 -0.009746 -0.040595 0.12427 0.130515 0.010606 0.177229 0.063676 0.149195 0.026542 -0.108012 0.401386 -0.015993 -0.159563 0.171247 0.017552 -0.091249 -0.185777 0.041517 -0.021989 -0.300138 0.0411 -0.232056 0.111526 -0.051533 0.011578 0.198834 -0.128702 0.184857 -0.029913 -0.123641 -0.092647 0.286203 -0.109599 0.093666 0.015337 -0.091583 0.060957
0.100692 -0.157131 0.139302 0.123578 0.151543 0.178422 -0.012679 -0.103362 0.233611 0.029945 -0.033496 -0.02353 -0.150988 -0.078962 0.230475 0.006161 -0.201667 0.084881 -0.295978 -0.216595 -0.152078 -0.096403 -0.182565 -0.034674 -0.008271 0.123985 -0.225344 0.060741 0.064737 -0.027452 -0.020276 -0.040379 -0.062847 -0.021902 -0.155636 0.098869 0.118253 -0.054786 -0.035252 0.089718 -0.093516 0.108242 -0.165133 -0.010665 -0.002421 -0.171869 -0.111112 -0.041381 -0.044332 -0.069941 -0.02046 0.052983 -0.30701 0.053758 -0.133805 0.122561 8.2E-4 0.037855 -0.034898 0.091687 -0.127096 0.09488 -0.140734 -0.009746 -0.040595 0.12427 0.130515 0.010606 0.177229 0.063676 0.149195 0.026542 -0.108012 0.401386 -0.015993 -0.159563 0.171247 0.017552 -0.091249 -0.185777 0.041517 -0.021989 -0.300138 0.0411 -0.232056 0.111526 -0.051533 0.011578 0.198834 -0.128702 0.184857 -0.029913 -0.123641 -0.092647 0.286203 -0.109599 0.093666 0.015337 -0.091583 0.060957
0.166865 -0.033351 -0.013364 -0.059014 -0.095169 -0.021507 -0.126788 0.103728 -0.200711 -0.063152 0.044354 0.134222 0.002393 0.071524 0.209815 0.100187 0.025401 0.083631 0.120448 0.173878 -0.091184 0.033918 0.054121 0.121356 -0.168415 -0.048991 -0.209931 -0.016042 0.202225 -0.007166 -0.110802 -0.028926 -0.11468 0.016808 -0.064513 -0.05835 -0.015135 0.093734 0.167046 -0.014056 0.02555 -0.101082 -0.016676 -0.00246 -0.017495 0.184926 -0.038011 -0.106257 0.001132 0.03659 0.080797 -0.16487 -0.164051 -0.024617 0.144233 0.037146 0.064814 -0.135114 0.218106 -0.087954 0.024218 -0.008723 0.020657 -0.10933 -0.0401 -0.009808 -0.283523 0.179888 -0.016468 0.100665 -0.045627 0.125868 0.040189 0.113707 0.238166 -0.079786 0.009467 -0.061173 -0.064632 -0.277119 0.084403 -0.091058 0.212317 -0.16461 -0.095926 -0.049768 -0.09268 0.023356 0.096515 0.010373 -0.174271 -0.082788 -0.155016 0.104184 0.044246 0.051147 0.02525 -0.044468 -0.064392 -0.011243
0.131091 0.040378 0.187753 -0.0136 -0.151112 -0.015483 -0.229911 -0.119415 -0.135619 0.206785 0.058313 0.203716 0.044907 0.002114 0.134741 0.317725 0.016305 0.240915 0.108114 -0.042891 -0.053838 0.043872 0.353852 0.033303 -0.206055 0.011541 -0.263719 -0.367923 0.093667 -0.134255 -0.024277 0.073892 -0.13228 0.236357 -0.089342 -0.100615 0.017162 -0.078197 -0.155731 0.186402 0.010776 0.126961 -0.046915 0.083543 0.092611 -0.179597 -0.043854 0.071314 -0.225823 0.132846 -0.006139 -0.08422 -0.065481 0.040719 0.092901 -0.096592 0.087253 0.050141 0.210442 -0.223603 0.159073 -0.189099 0.03539 -0.085086 -0.15492 -0.049877 0.024321 0.074458 0.081588 -0.232742 0.053911 0.031676 0.101916 -0.045063 0.152612 -0.156943 -0.010101 0.027036 0.025917 -1.63E-4 0.02858 0.113919 0.110167 -0.124989 0.153046 -0.035816 -0.051011 0.039916 0.053406 0.017487 -0.13414 -0.115926 0.060659 0.128598 -0.107206 -0.129645 0.219075 -0.041944 -0.151026 -0.169909
0.652152 1.133402 0.742892 -1.851552 -2.436201 -3.352688 -0.059947 1.069592 0.347807 0.850303 0.748933 0.725945 0.431967 2.988736 0.746868 -1.874699 0.35127 0.667277 -0.759044 -2.380101 0.60818 -0.30599 -0.599525 -0.831824 -0.834357 0.702901 -1.29464 -2.27774 -0.326079 0.351108 -1.003812 -0.665168 0.29774 -2.064026 0.492767 0.008162 -2.262853 0.956528 0.412814 0.602081 -0.90495 -0.970223 0.250976 1.266006 2.300311 -2.534665 0.015732 1.87714 -2.173779 2.064622 -1.860812 -1.990734 0.411622 -0.614461 0.90266 0.498711 -0.96518 -1.132372 0.989398 -0.985841 0.84911 1.299962 2.255228 0.435234 -1.726969 -0.734581 1.826257 1.000809 2.131398 -1.703253 0.728468 -1.697183 1.932365 1.78816 0.398515 0.161957 -0.368934 3.386885 2.111351 -0.597592 0.819766 1.56338 0.008261 1.69361 0.144904 -1.564986 1.689612 -1.151342 -1.74929 -0.207911 -0.015816 0.743225 -0.31835 2.245111 -0.947142 -0.445275 1.161168 -0.667204 -0.080608 -1.264524
-0.160294 0.040873 -0.018119 0.163594 -0.018381 0.226093 -0.184908 -0.174193 -0.137708 -0.107411 0.105512 0.189812 0.058698 0.128127 0.005564 -0.142765 -0.040954 -0.010762 0.015254 0.008558 -0.030463 -0.063689 0.048148 0.024565 0.021283 -0.147058 0.021138 0.123747 0.041755 -0.08107 -0.099142 0.011545 0.048002 0.111079 -0.095148 -0.26597 0.045031 0.045225 0.054342 -0.125351 -0.119511 -0.103739 0.103651 0.028757 -0.111197 -0.077855 -0.07884 -0.037357 0.090642 0.060925 0.177362 0.022201 0.090452 -0.177623 0.172943 0.006286 -0.150169 -0.026463 0.131037 -0.073513 -0.026232 0.074646 -0.038971 0.099415 -0.01423 -0.06225 -0.07229 0.035932 0.090944 -0.0205 0.075909 0.032056 0.072316 0.024629 0.092832 -0.29212 -0.214019 -0.037318 -0.098367 0.119677 0.016251 0.28906 0.010955 0.077015 0.110497 0.115745 0.104079 -0.031226 0.16642 0.164385 -0.05162 0.003319 -0.122756 0.124281 0.016655 0.021067 0.019238 -0.133582 -0.101012 0.146482
0.147488 -0.340551 -0.043683 0.107852 -0.107729 0.217696 -0.032619 0.023641 -0.327623 0.169453 -0.156028 0.33168 -0.016074 0.296268 -0.172828 0.066323 0.45365 0.01054 0.21645 0.060306 -0.196015 0.143994 0.224043 -0.126414 0.264523 -0.12954 0.059534 -0.071844 0.211936 -0.253334 -0.091777 -0.112601 -0.089905 -0.301785 -0.223889 -0.094437 -0.286128 -0.236642 -0.090801 -0.098187 -0.024795 -0.024149 0.002704 -0.067907 0.321962 0.022547 -0.031501 -0.131372 0.07497 0.127404 -0.267599 -0.087442 0.031507 -0.241426 -0.163512 0.033414 0.295272 0.011284 -0.360434 -0.041037 0.151255 -0.262558 -0.084294 -0.06324 0.273387 -0.430369 0.227077 0.048282 -0.140951 -0.111663 0.053537 -0.143296 -0.198668 0.103073 -0.244362 -0.070649 -0.099249 0.140247 0.159561 0.173702 -0.046705 0.056411 -0.093371 0.112359 0.034674 -0.19164 -0.048712 -0.224068 -0.152356 0.283661 -0.221758 0.098897 -0.247726 0.014119 -0.074637 0.101621 -0.110841 0.048715 -0.299505 0.025447
-0.050641 -0.026729 -0.09232 -0.112692 0.052815 -0.126668 -0.008828 0.02066 -0.004305 0.067586 0.024229 0.148091 0.037205 -0.119017 0.036362 0.179244 -0.066002 0.063224 -0.02503 0.063438 -0.034301 0.218949 0.190019 -0.037376 -0.036297 -0.175813 0.049858 0.135074 0.150157 0.072057 0.031863 -0.14722 0.01098 0.033184 -0.187704 -0.150023 0.022162 -0.122145 0.191337 0.002251 -0.119185 -0.050772 -0.029395 0.05439 0.019961 -0.086497 0.050109 0.073898 -0.091839 0.149236 0.160032 -0.114268 -0.071644 -0.072951 -0.19075 -0.012986 -0.062714 -0.06411 -0.038232 -0.036015 0.028264 -0.063823 4.84E-4 -0.273268 -0.147037 0.026778 0.123463 0.01864 0.054139 -0.141692 -0.102562 -0.052084 -0.056926 -0.145459 0.099038 -0.065861 -0.115539 0.083412 -0.092198 -0.027428 -0.01965 0.131409 0.049695 -0.151146 0.061463 0.117847 -0.04455 -0.004796 0.139137 0.190179 0.128382 -0.065144 -0.133012 -0.019257 -0.006968 -0.05656 0.16028 0.136761 -0.126684 8.86E-4
0.0 0.0 0.0 0.0 0.0 0.0 0.0 0.0 0.0 0.0 0.0 0.0 0.0 0.0 0.0 0.0 0.0 0.0 0.0 0.0 0.0 0.0 0.0 0.0 0.0 0.0 0.0 0.0 0.0 0.0 0.0 0.0 0.0 0.0 0.0 0.0 0.0 0.0 0.0 0.0 0.0 0.0 0.0 0.0 0.0 0.0 0.0 0.0 0.0 0.0 0.0 0.0 0.0 0.0 0.0 0.0 0.0 0.0 0.0 0.0 0.0 0.0 0.0 0.0 0.0 0.0 0.0 0.0 0.0 0.0 0.0 0.0 0.0 0.0 0.0 0.0 0.0 0.0 0.0 0.0 0.0 0.0 0.0 0.0 0.0 0.0 0.0 0.0 0.0 0.0 0.0 0.0 0.0 0.0 0.0 0.0 0.0 0.0 0.0 0.0
1.979182 1.475284 1.616709 3.670848 1.493383 1.565553 0.713709 0.821536 -0.198276 1.095257 1.13035 3.013426 -0.31575 0.272355 -1.140889 3.059924 -0.481724 -0.114922 -4.136081 -3.168525 0.468706 0.468211 -1.450609 1.536269 1.463073 0.091064 0.456867 -0.772584 1.94826 0.637724 3.384043 1.31124 -0.547482 -2.46209 -1.172514 0.108789 -0.436092 -0.542017 -2.899063 -1.238649 0.992894 -1.25533 1.441906 -2.837638 -0.37597 0.84588 0.567863 1.067483 3.045772 2.851722 1.127934 2.750989 2.037369 -0.330697 -3.137371 -0.277042 1.105257 3.888075 -0.863423 -0.157175 -2.285182 -0.166755 0.331731 -0.01245 0.62688 0.367884 -0.075369 -0.159061 -0.417307 -2.027856 0.1471 0.649553 -2.645108 0.793309 -1.226665 0.217122 -0.469072 -0.459028 -1.403266 -0.635382 -0.504689 1.214626 1.214261 1.363001 0.553679 -3.299866 -1.882137 1.302355 -0.459088 -0.175485 1.192438 -0.480862 1.435369 0.431146 -1.119326 -1.423348 -1.759886 0.376096 -1.342863 3.008839
-0.216608 -0.135263 0.271362 0.064631 -0.058472 0.007236 -0.105295 -0.067634 -0.178555 -0.063222 0.176318 0.001652 -0.070044 0.037822 0.172801 0.12771 0.058199 0.16586 -0.077341 0.120071 -0.154733 0.161664 0.291504 0.113562 -0.051629 -0.227728 -0.120683 -0.018789 0.021112 -0.156981 -0.055216 -0.150219 0.028774 0.006067 0.008834 0.083017 0.087725 0.10309 0.144559 0.230401 -0.145693 -0.003684 0.046353 0.177527 0.089936 -0.188201 -0.014907 -0.080068 -0.009225 0.080584 0.247199 0.027727 -0.023643 -0.333408 0.080675 -0.009407 0.001642 -0.139457 0.103284 -0.065379 -0.067105 -0.208892 -0.147464 -0.189518 0.068986 -0.133539 -0.101328 -0.17995 -0.04107 -0.066256 0.014339 0.094617 -0.039733 -0.009701 0.132607 -0.0652 -0.233482 -0.146858 -0.004052 -0.222281 -0.051324 -0.077138 0.144242 -0.164035 -0.018531 -0.175091 0.132275 -0.148507 0.099047 0.175248 0.122157 0.03334 0.073291 0.004423 -0.025155 -0.054521 0.05249 -0.01786 0.107547 -0.007077
2.24658 -1.792061 -3.208774 -1.384485 1.628615 0.509865 2.22803 2.726332 -2.457895 -0.594144 3.231782 -1.350542 -0.713713 -0.210506 2.577194 1.145765 -0.853744 1.454949 -1.386059 -1.185442 -2.65198 -0.404469 -0.534953 -0.917741 -0.315074 3.016424 1.438346 0.316292 -5.508504 0.130514 1.054112 2.469282 -3.277711 -1.7049 -0.133064 2.597971 0.132423 2.684863 -0.785255 3.888857 0.864353 -4.321059 3.961793 0.412726 -0.472464 -0.495305 -0.901194 0.617259 1.021395 4.204533 3.1136 -0.918572 6.455558 1.368424 -0.701501 0.673093 2.561697 2.29569 0.638153 0.369745 1.276639 1.526812 -2.340188 0.020807 0.667925 -1.378811 1.546187 0.021204 2.779419 4.677773 4.978366 0.944751 1.442774 -1.533939 -3.36638 0.440743 -2.744812 -0.451197 3.797046 -0.325848 1.053109 -1.41825 1.15262 -0.679067 1.956997 -1.381544 1.259893 2.96397 -2.363615 1.097579 1.97781 2.046156 -0.239687 3.839356 0.20062 -1.595332 2.551842 -0.448557 -0.704441 0.501944
0.100692 -0.157131 0.139302 0.123578 0.151543 0.178422 -0.012679 -0.103362 0.233611 0.029945 -0.033496 -0.02353 -0.150988 -0.078962 0.230475 0.006161 -0.201667 0.084881 -0.295978 -0.216595 -0.152078 -0.096403 -0.182565 -0.034674 -0.008271 0.123985 -0.225344 0.060741 0.064737 -0.027452 -0.020276 -0.040379 -0.062847 -0.021902 -0.155636 0.098869 0.118253 -0.054786 -0.035252 0.089718 -0.093516 0.108242 -0.165133 -0.010665 -0.002421 -0.171869 -0.111112 -0.041381 -0.044332 -0.069941 -0.02046 0.052983 -0.30701 0.053758 -0.133805 0.122561 8.2E-4 0.037855 -0.034898 0.091687 -0.127096 0.09488 -0.140734 -0.009746 -0.040595 0.12427 0.130515 0.010606 0.177229 0.063676 0.149195 0.026542 -0.108012 0.401386 -0.015993 -0.159563 0.171247 0.017552 -0.091249 -0.185777 0.041517 -0.021989 -0.300138 0.0411 -0.232056 0.111526 -0.051533 0.011578 0.198834 -0.128702 0.184857 -0.029913 -0.123641 -0.092647 0.286203 -0.109599 0.093666 0.015337 -0.091583 0.060957
-0.26639 -0.104912 0.180519 0.043667 0.041207 -0.008381 0.035828 -0.02579 0.038929 0.035407 -0.045987 0.093855 0.05433 0.066768 0.181295 0.016569 -0.262033 0.088718 -0.019571 0.052693 0.009422 0.007749 -0.062198 0.035078 -0.170783 -0.109887 -0.051371 0.088142 0.135591 -0.010743 0.025514 -0.009047 -0.121579 0.186548 0.022521 0.036774 0.17183 0.066132 0.09254 0.082441 -0.088491 -0.081832 0.017962 -0.036285 -0.059927 0.038842 -0.0052 0.081773 -0.050056 0.091032 0.203915 -0.091347 -0.101425 -0.177557 -0.044136 0.113395 0.140815 -0.005832 0.068476 -0.192456 0.057304 -0.102904 -0.094204 -0.199142 -0.166277 -0.01435 2.05E-4 0.073523 0.121399 0.031439 0.010424 -0.100921 0.049779 0.0731 0.03039 -0.023583 -0.137003 -0.08019 -0.121996 -0.288955 -0.041308 0.110603 0.155086 -0.11951 -0.218402 -0.075287 0.015009 -0.113641 0.196042 0.012681 -0.131442 0.013214 0.01092 0.144369 0.024212 -0.179417 -0.032645 -0.112605 0.114788 0.0294
0.352905 0.550922 -1.128945 -0.511125 0.774489 1.405335 -0.371647 0.106012 -0.779785 -0.640302 -0.68578 1.570717 -0.712288 -0.706705 -0.789609 -0.045278 -1.599722 -2.840112 -0.089543 -1.158838 -1.862605 -0.62748 -0.063542 -0.468696 0.750564 0.033551 -0.772222 -0.188991 -0.163115 0.455978 0.038455 -0.779588 0.172303 -1.114448 -0.548246 -0.008155 1.66721 -0.744821 -0.15746 -2.668482 -0.304702 -0.905716 0.479063 0.151803 -0.94063 -0.044338 -0.906122 -0.456182 0.281891 0.268287 0.47007 0.628019 0.328428 1.471286 -2.345457 0.072073 -0.345477 -0.998199 -1.496897 -0.053061 0.351206 -0.934426 0.295591 0.07336 0.24092 0.486976 0.390085 -0.621556 0.375246 -0.02625 1.957847 1.014101 0.004675 0.08874 -0.900479 -0.462149 0.922254 1.355385 -1.048724 0.105897 1.254466 0.410718 0.321258 1.066395 -0.171761 -0.128774 0.315556 0.697301 -0.180925 0.555334 1.005586 -0.891677 -1.232923 -1.994189 -0.567812 0.204184 -0.947385 -0.051526 -0.987029 0.725141
-0.11903 -0.096567 0.017021 -0.062958 -0.025177 -0.242007 0.069059 0.001447 -0.010062 0.03204 -0.14677 0.001504 -0.071934 -0.096312 0.013882 -0.012 0.160714 0.181899 0.022882 0.081558 -0.019945 0.109874 0.218538 -0.133651 -0.124682 0.085332 0.056893 -0.221458 0.029486 -0.056556 -0.064943 0.123946 0.145619 0.045662 -0.137333 -0.101788 -0.031693 0.044463 -0.02126 0.106011 -0.085929 0.280456 0.171658 0.170579 0.096029 -0.174099 0.039353 0.052294 0.014265 -0.080556 -0.026111 -0.05967 -0.077277 0.215106 0.042539 -0.071599 0.133272 0.095385 0.258967 0.026427 0.104114 -0.015681 0.215298 -0.046297 0.024912 -0.0256 0.058695 0.189382 -0.024873 -0.043209 0.162369 -0.132652 -0.071038 0.181174 0.172566 -0.143277 0.105056 -0.003652 0.078939 -0.085841 -0.006837 0.150498 -0.102661 0.012591 0.017309 0.014859 -0.15015 -0.024111 0.079789 -0.005448 0.110635 0.059822 0.020585 0.055633 -0.021375 0.007436 0.013745 -0.025176 0.118731 -0.085956
0.143872 1.061886 1.715442 0.705416 0.289901 0.638 -0.673801 -0.138427 0.868814 -0.724882 0.751515 2.715261 2.282741 -1.172481 -1.787667 0.718326 -1.945874 -0.530897 0.050113 0.589531 -1.093135 0.222201 1.886768 -0.617993 -0.163466 0.315249 0.610368 -0.786129 -2.538263 2.21062 4.361177 0.238448 2.351825 -1.040594 -1.039972 -1.364612 1.306121 0.988565 0.315217 -2.457716 -0.072445 1.895168 2.63485 0.540949 0.503314 0.96113 -0.048646 0.349799 1.652633 -1.817918 0.472082 0.634989 2.405202 2.28648 -1.156201 -2.532112 2.318076 0.399114 0.194335 -0.231757 1.737726 -0.44151 -1.318304 3.659825 0.064699 1.470669 -1.339323 1.263222 -1.543865 -0.723727 0.349092 -2.219906 0.761798 -1.06662 -0.398705 -0.239413 2.235799 0.885324 -0.151644 -0.320747 1.33787 -1.641307 0.499592 0.855889 0.698843 2.194718 0.723139 -2.33817 0.498687 -2.777444 2.684621 -4.308269 0.379399 0.711235 -2.786592 1.752798 -2.187518 1.698528 -1.469217 1.223733
0.029374 -0.04767 0.087389 -0.005519 -0.064026 0.067469 0.214773 -0.016782 0.231598 0.099016 -0.041209 0.120148 0.061325 -0.094957 0.084301 0.218167 -0.085212 0.176633 0.102517 0.063699 -0.132481 0.023255 0.11035 0.087736 -0.153185 -0.317216 -0.202262 -0.226468 -0.08202 0.193114 -0.130498 0.180749 -0.037145 0.138585 -0.05224 0.124978 0.031632 -0.007968 0.014554 -0.25663 -0.034572 -0.034262 0.032433 0.203602 0.020113 -0.127135 -0.005134 -0.017983 -0.020674 -0.078382 0.073198 0.027876 -0.121672 -0.034316 -0.18643 -0.019683 -0.081706 -0.134589 -0.059072 -0.055583 0.1932 0.026378 0.136765 -0.097381 0.042941 0.091959 0.038418 0.085926 0.05265 -0.159023 -0.133212 -0.078901 0.038623 -0.059591 -0.043145 -0.260305 -0.177865 0.052689 0.039511 -0.133889 0.022669 0.09648 0.08417 -0.043721 0.127651 0.185019 0.057055 -0.085347 0.190308 -0.001982 -0.201642 -0.018757 -0.108806 0.044892 -0.015605 -0.330658 -0.004003 0.226201 -0.024644 -0.034319
0.147488 -0.340551 -0.043683 0.107852 -0.107729 0.217696 -0.032619 0.023641 -0.327623 0.169453 -0.156028 0.33168 -0.016074 0.296268 -0.172828 0.066323 0.45365 0.01054 0.21645 0.060306 -0.196015 0.143994 0.224043 -0.126414 0.264523 -0.12954 0.059534 -0.071844 0.211936 -0.253334 -0.091777 -0.112601 -0.089905 -0.301785 -0.223889 -0.094437 -0.286128 -0.236642 -0.090801 -0.098187 -0.024795 -0.024149 0.002704 -0.067907 0.321962 0.022547 -0.031501 -0.131372 0.07497 0.127404 -0.267599 -0.087442 0.031507 -0.241426 -0.163512 0.033414 0.295272 0.011284 -0.360434 -0.041037 0.151255 -0.262558 -0.084294 -0.06324 0.273387 -0.430369 0.227077 0.048282 -0.140951 -0.111663 0.053537 -0.143296 -0.198668 0.103073 -0.244362 -0.070649 -0.099249 0.140247 0.159561 0.173702 -0.046705 0.056411 -0.093371 0.112359 0.034674 -0.19164 -0.048712 -0.224068 -0.152356 0.283661 -0.221758 0.098897 -0.247726 0.014119 -0.074637 0.101621 -0.110841 0.048715 -0.299505 0.025447
-0.206331 7.2E-4 0.051484 -0.043048 -0.156922 -0.058516 -0.09853 -0.217123 -0.133606 0.316663 0.052411 0.17224 0.035362 0.090121 0.011547 0.178112 -0.168834 0.158885 0.113686 -0.090889 0.043565 0.004999 0.11515 0.03379 -0.224232 -3.91E-4 -0.13903 -0.073648 0.200189 -0.056462 -0.058265 -0.118067 -0.044521 -0.038443 0.012476 0.017297 -0.021615 -0.061744 -0.013085 0.16913 -0.014088 0.177419 -0.050523 0.066851 -0.011765 0.027623 0.003603 -0.020423 -0.148936 -3.0E-6 0.139186 0.01896 0.063406 -0.036178 -0.047304 -0.070639 -0.064166 -0.013478 0.051772 -0.002919 0.060275 -0.05582 -0.070522 -0.031444 0.062171 0.027075 -0.018276 0.035937 0.03523 0.064637 -0.140226 -0.072981 -0.151016 0.049308 -0.063166 0.069534 -0.033236 0.058892 0.00138 -0.132959 -0.060584 0.18799 -0.002772 0.030849 -0.115988 0.012945 0.198544 0.122901 0.202199 0.123655 -0.035171 -0.15743 0.012244 0.065855 0.046303 -0.152142 -0.020568 0.12331 0.065478 -0.141232
-0.123003 0.048877 0.167269 0.043056 -0.174355 -0.096088 -0.015841 0.01292 -0.00128 -0.032734 -0.184162 0.084751 -0.016075 0.045375 0.22618 0.013093 -0.035138 0.084895 0.216687 0.001716 -0.202042 0.036077 0.019105 0.146157 -0.318496 0.029659 -0.062804 -0.015508 0.025033 -0.118191 -0.019245 0.096331 -0.01936 -0.030562 -0.181901 -0.120176 -0.076021 0.123398 -0.034268 0.12959 0.054107 0.084186 -0.068067 0.068599 0.165065 5.86E-4 0.021577 -0.050722 -0.222388 -0.027727 -0.084295 -0.184349 -0.105578 0.07748 0.038976 0.020515 -0.00968 0.069199 -0.076885 -0.068497 0.085983 0.001266 0.101366 -0.014672 0.099535 -0.040616 -0.133307 0.169141 0.028426 0.070318 0.025154 0.214597 -0.144201 0.007955 0.126527 -0.062705 -0.106092 -0.158868 0.068011 0.066079 0.152811 0.131155 0.041157 -0.199647 0.011749 0.021478 -0.083598 -0.072412 0.066457 -0.038614 -0.033023 0.109223 0.008377 0.090457 -0.012824 -0.103629 0.07397 -0.043913 -0.070082 -0.11677
-0.673139 2.651869 -2.246136 0.659907 -1.908406 0.033052 -0.106187 1.397871 -0.679545 -0.207373 -0.678898 -0.878794 -2.97255 -2.766938 -0.403284 -1.297811 -1.642217 0.678404 0.069668 2.675848 0.671748 -0.656609 -2.348173 -2.406214 0.433691 -0.435871 1.709052 -0.373195 -0.189674 -0.559925 1.316376 -0.658328 -0.244114 -2.349587 1.986606 -0.92523 -2.869056 1.417576 0.350591 0.826021 -0.826034 -0.394251 2.323598 -0.293859 -0.093337 -0.300089 -0.075306 0.460016 -0.019153 -0.220767 0.820348 -1.405415 -0.995326 1.465529 -1.431533 -0.404574 2.826244 0.581328 -0.167513 -1.439291 3.06734 -0.495236 -0.493757 1.002327 -0.17198 0.430981 2.526786 -1.661384 0.258027 -1.845812 0.970985 -0.829959 -1.070272 2.958754 1.142191 0.639315 1.28509 2.623589 3.498886 1.853193 1.593864 0.196463 1.530088 1.799811 -0.110721 -0.548022 0.13399 0.636666 0.544717 1.344251 -2.255206 0.6029 0.692353 6.463609 1.981212 -0.482513 0.801803 1.568979 -0.862785 0.100919
-0.098389 -0.096893 -0.077237 0.036968 -0.031453 -0.128401 -0.201742 -0.124489 0.221506 0.035649 0.155408 -0.081859 0.012803 -0.26374 0.08621 0.192492 0.02959 0.16208 0.01052 0.134687 0.124177 0.250011 -0.094643 0.152951 -0.004557 0.070481 -0.055673 -0.152366 0.031647 -0.040854 0.101086 0.036788 -0.005676 0.134194 -0.040703 -0.03461 0.049643 0.017076 0.133914 0.236731 -0.040427 0.002383 -0.043853 -0.154493 0.24496 -0.028639 -0.239555 -0.079778 -0.210664 0.018336 0.028756 -0.006505 0.055481 0.06932 -0.147877 -0.153433 -0.04725 -0.101515 0.089189 -0.004806 -0.009616 -0.146244 -0.24941 0.199065 -0.006107 -0.089878 0.052757 -0.145255 0.22938 -0.216267 -0.218587 -0.05224 0.09485 0.050469 0.067819 -0.145165 0.088673 0.120063 0.157248 -0.039366 -0.009665 0.210493 0.161281 -0.030194 -0.113 0.191373 -0.144517 -0.115702 -0.099164 -0.103893 -0.142294 -0.049918 -0.018548 0.219829 -0.031536 -0.038589 0.112003 -0.10621 -0.008975 -0.069164
0.0 0.0 0.0 0.0 0.0 0.0 0.0 0.0 0.0 0.0 0.0 0.0 0.0 0.0 0.0 0.0 0.0 0.0 0.0 0.0 0.0 0.0 0.0 0.0 0.0 0.0 0.0 0.0 0.0 0.0 0.0 0.0 0.0 0.0 0.0 0.0 0.0 0.0 0.0 0.0 0.0 0.0 0.0 0.0 0.0 0.0 0.0 0.0 0.0 0.0 0.0 0.0 0.0 0.0 0.0 0.0 0.0 0.0 0.0 0.0 0.0 0.0 0.0 0.0 0.0 0.0 0.0 0.0 0.0 0.0 0.0 0.0 0.0 0.0 0.0 0.0 0.0 0.0 0.0 0.0 0.0 0.0 0.0 0.0 0.0 0.0 0.0 0.0 0.0 0.0 0.0 0.0 0.0 0.0 0.0 0.0 0.0 0.0 0.0 0.0
0.102295 -0.240422 0.010012 0.053166 -0.027497 0.320665 -0.035525 -0.088939 0.086417 0.029556 0.16135 0.075931 0.304175 0.095895 0.297639 -0.169228 0.170488 0.207696 0.154338 0.133064 0.055276 0.236413 -0.080775 0.096113 -0.169152 -0.326194 -0.169088 0.017196 0.130731 0.066222 -0.077559 -0.01006 -0.178335 0.026392 0.071605 0.013552 -0.446789 -0.133676 0.203855 0.427957 -0.070661 0.098276 -0.295991 0.166012 -0.169068 -0.268796 -0.152722 0.170494 -0.289373 0.162984 0.157495 -0.078439 0.184938 0.098342 0.014381 0.004111 -0.10989 0.110829 0.164908 -0.195501 0.074158 0.179283 0.084023 0.004652 -0.044949 -0.241008 -0.112556 0.213146 0.023971 -0.255321 0.066564 -0.033196 0.037359 0.10351 -0.169014 -0.188596 0.073634 -0.048759 0.032205 0.019929 0.007838 0.187837 0.030621 -0.056623 0.225093 0.151392 -0.1858 0.071991 0.020573 -0.021221 0.155206 -0.116856 0.041443 0.103258 -0.194928 0.0188 0.043367 -0.076404 -0.015092 0.029961
1.774083 -1.239834 -0.467936 -2.806536 -1.810838 0.545087 -1.02429 1.83723 1.158701 -1.625989 0.340988 -1.17261 -2.189499 -0.804216 -0.180708 -0.091657 1.895767 -0.320348 0.451964 1.724314 -0.417324 0.753446 -2.824431 0.576214 -3.016223 -0.958171 3.485548 -1.603 -1.925125 -0.252719 0.036924 0.323992 -1.983643 0.07902 0.565887 -0.594099 -2.73139 1.200274 -0.476343 2.105894 -1.365326 -1.305424 -0.571431 1.302197 0.437009 -4.208892 4.104939 0.662439 0.983121 2.742857 -0.996272 1.066681 -1.083097 1.429614 0.906091 -2.455654 0.03661 0.14017 0.890076 0.137046 -0.389517 -1.592894 0.739705 -0.980924 -0.738566 2.222133 4.430971 -3.317749 0.88395 -1.482913 1.242388 -0.566689 -0.212825 4.734146 -0.782145 -0.431644 -1.174922 -0.853366 0.711677 1.259674 0.685724 1.149269 0.210347 -1.160726 -0.892552 -1.03765 -2.526481 1.237212 0.440334 -0.128668 0.881437 1.196877 0.10897 -0.455657 0.251262 -0.969626 -0.204264 -0.326492 0.394575 0.57675
0.0 0.0 0.0 0.0 0.0 0.0 0.0 0.0 0.0 0.0 0.0 0.0 0.0 0.0 0.0 0.0 0.0 0.0 0.0 0.0 0.0 0.0 0.0 0.0 0.0 0.0 0.0 0.0 0.0 0.0 0.0 0.0 0.0 0.0 0.0 0.0 0.0 0.0 0.0 0.0 0.0 0.0 0.0 0.0 0.0 0.0 0.0 0.0 0.0 0.0 0.0 0.0 0.0 0.0 0.0 0.0 0.0 0.0 0.0 0.0 0.0 0.0 0.0 0.0 0.0 0.0 0.0 0.0 0.0 0.0 0.0 0.0 0.0 0.0 0.0 0.0 0.0 0.0 0.0 0.0 0.0 0.0 0.0 0.0 0.0 0.0 0.0 0.0 0.0 0.0 0.0 0.0 0.0 0.0 0.0 0.0 0.0 0.0 0.0 0.0
2.763139 -1.500145 -1.054949 0.108129 -2.441239 2.409272 -0.628655 2.54715 0.077627 -0.447567 0.838375 -0.585443 -4.814465 -0.839256 -0.044537 0.14507 1.902158 -0.088702 1.068148 -1.829617 0.774778 1.827085 -1.33367 -1.018203 -2.298032 0.806193 4.646079 0.435196 -0.767047 2.630828 3.288036 1.184743 -2.818143 -1.28687 -1.55878 1.998231 -2.645496 -1.070538 -0.272486 -0.592495 2.340952 2.298635 -2.254341 0.835384 0.76466 -0.233515 -0.589683 0.660476 -0.292724 0.196121 -1.743456 0.467143 -0.293524 -1.36158 -1.286497 -0.345213 1.68089 -2.735131 0.150425 -1.745792 0.999559 -1.352985 1.809873 0.524243 -0.542897 -0.451405 -0.850107 -0.394458 -1.819923 -1.793292 5.570456 0.433684 0.71208 0.305952 -0.312276 -0.536647 -0.100762 1.983368 1.605956 1.458349 1.519876 3.813322 -1.471682 -0.197783 -0.983431 1.355965 -2.265172 1.588993 -0.126059 0.738662 -0.823898 2.627036 3.975982 -0.745065 -1.519473 0.033927 -2.716809 -1.402747 -0.110809 0.28648
0.0 0.0 0.0 0.0 0.0 0.0 0.0 0.0 0.0 0.0 0.0 0.0 0.0 0.0 0.0 0.0 0.0 0.0 0.0 0.0 0.0 0.0 0.0 0.0 0.0 0.0 0.0 0.0 0.0 0.0 0.0 0.0 0.0 0.0 0.0 0.0 0.0 0.0 0.0 0.0 0.0 0.0 0.0 0.0 0.0 0.0 0.0 0.0 0.0 0.0 0.0 0.0 0.0 0.0 0.0 0.0 0.0 0.0 0.0 0.0 0.0 0.0 0.0 0.0 0.0 0.0 0.0 0.0 0.0 0.0 0.0 0.0 0.0 0.0 0.0 0.0 0.0 0.0 0.0 0.0 0.0 0.0 0.0 0.0 0.0 0.0 0.0 0.0 0.0 0.0 0.0 0.0 0.0 0.0 0.0 0.0 0.0 0.0 0.0 0.0
0.0 0.0 0.0 0.0 0.0 0.0 0.0 0.0 0.0 0.0 0.0 0.0 0.0 0.0 0.0 0.0 0.0 0.0 0.0 0.0 0.0 0.0 0.0 0.0 0.0 0.0 0.0 0.0 0.0 0.0 0.0 0.0 0.0 0.0 0.0 0.0 0.0 0.0 0.0 0.0 0.0 0.0 0.0 0.0 0.0 0.0 0.0 0.0 0.0 0.0 0.0 0.0 0.0 0.0 0.0 0.0 0.0 0.0 0.0 0.0 0.0 0.0 0.0 0.0 0.0 0.0 0.0 0.0 0.0 0.0 0.0 0.0 0.0 0.0 0.0 0.0 0.0 0.0 0.0 0.0 0.0 0.0 0.0 0.0 0.0 0.0 0.0 0.0 0.0 0.0 0.0 0.0 0.0 0.0 0.0 0.0 0.0 0.0 0.0 0.0
-0.089712 0.007848 0.012629 0.065429 0.041631 0.100514 -0.034368 -0.111556 0.106337 -0.092196 -0.21623 0.010814 0.081395 0.084733 0.265044 -0.073327 0.079481 0.078686 0.304876 0.109826 -0.10464 0.035457 -0.111935 -0.039079 -0.081577 -0.154843 -0.146263 -0.077171 0.345002 -0.14379 0.044819 -0.05014 0.016006 -0.055961 -0.005092 -0.109836 -0.018816 0.074496 0.072223 -0.115007 0.065996 0.005896 0.024485 0.059913 0.223341 -0.110677 -0.038621 -0.048468 -0.092362 0.158544 0.175042 -0.03226 -0.150672 -0.003421 0.221171 0.223929 -0.114552 0.119556 0.003761 -0.002178 0.06602 -0.095944 -0.072484 -0.121138 -0.035258 -0.007152 -0.137867 -0.013036 0.117318 -0.086232 -0.20318 0.033402 0.02138 -0.070048 0.08982 -0.045666 0.064289 -0.110156 0.167763 -0.291921 0.08956 0.131763 -0.047938 -0.187648 -0.12642 0.030396 -0.09325 0.17436 0.169548 0.050727 -0.165986 0.033857 -0.008825 0.154651 -0.140299 -0.115698 -0.209645 -0.209293 0.091343 -0.017085
0.131091 0.040378 0.187753 -0.0136 -0.151112 -0.015483 -0.229911 -0.119415 -0.135619 0.206785 0.058313 0.203716 0.044907 0.002114 0.134741 0.317725 0.016305 0.240915 0.108114 -0.042891 -0.053838 0.043872 0.353852 0.033303 -0.206055 0.011541 -0.263719 -0.367923 0.093667 -0.134255 -0.024277 0.073892 -0.13228 0.236357 -0.089342 -0.100615 0.017162 -0.078197 -0.155731 0.186402 0.010776 0.126961 -0.046915 0.083543 0.092611 -0.179597 -0.043854 0.071314 -0.225823 0.132846 -0.006139 -0.08422 -0.065481 0.040719 0.092901 -0.096592 0.087253 0.050141 0.210442 -0.223603 0.159073 -0.189099 0.03539 -0.085086 -0.15492 -0.049877 0.024321 0.074458 0.081588 -0.232742 0.053911 0.031676 0.101916 -0.045063 0.152612 -0.156943 -0.010101 0.027036 0.025917 -1.63E-4 0.02858 0.113919 0.110167 -0.124989 0.153046 -0.035816 -0.051011 0.039916 0.053406 0.017487 -0.13414 -0.115926 0.060659 0.128598 -0.107206 -0.129645 0.219075 -0.041944 -0.151026 -0.169909
0.652152 1.133402 0.742892 -1.851552 -2.436201 -3.352688 -0.059947 1.069592 0.347807 0.850303 0.748933 0.725945 0.431967 2.988736 0.746868 -1.874699 0.35127 0.667277 -0.759044 -2.380101 0.60818 -0.30599 -0.599525 -0.831824 -0.834357 0.702901 -1.29464 -2.27774 -0.326079 0.351108 -1.003812 -0.665168 0.29774 -2.064026 0.492767 0.008162 -2.262853 0.956528 0.412814 0.602081 -0.90495 -0.970223 0.250976 1.266006 2.300311 -2.534665 0.015732 1.87714 -2.173779 2.064622 -1.860812 -1.990734 0.411622 -0.614461 0.90266 0.498711 -0.96518 -1.132372 0.989398 -0.985841 0.84911 1.299962 2.255228 0.435234 -1.726969 -0.734581 1.826257 1.000809 2.131398 -1.703253 0.728468 -1.697183 1.932365 1.78816 0.398515 0.161957 -0.368934 3.386885 2.111351 -0.597592 0.819766 1.56338 0.008261 1.69361 0.144904 -1.564986 1.689612 -1.151342 -1.74929 -0.207911 -0.015816 0.743225 -0.31835 2.245111 -0.947142 -0.445275 1.161168 -0.667204 -0.080608 -1.264524
0.147488 -0.340551 -0.043683 0.107852 -0.107729 0.217696 -0.032619 0.023641 -0.327623 0.169453 -0.156028 0.33168 -0.016074 0.296268 -0.172828 0.066323 0.45365 0.01054 0.21645 0.060306 -0.196015 0.143994 0.224043 -0.126414 0.264523 -0.12954 0.059534 -0.071844 0.211936 -0.253334 -0.091777 -0.112601 -0.089905 -0.301785 -0.223889 -0.094437 -0.286128 -0.236642 -0.090801 -0.098187 -0.024795 -0.024149 0.002704 -0.067907 0.321962 0.022547 -0.031501 -0.131372 0.07497 0.127404 -0.267599 -0.087442 0.031507 -0.241426 -0.163512 0.033414 0.295272 0.011284 -0.360434 -0.041037 0.151255 -0.262558 -0.084294 -0.06324 0.273387 -0.430369 0.227077 0.048282 -0.140951 -0.111663 0.053537 -0.143296 -0.198668 0.103073 -0.244362 -0.070649 -0.099249 0.140247 0.159561 0.173702 -0.046705 0.056411 -0.093371 0.112359 0.034674 -0.19164 -0.048712 -0.224068 -0.152356 0.283661 -0.221758 0.098897 -0.247726 0.014119 -0.074637 0.101621 -0.110841 0.048715 -0.299505 0.025447
1.155368 3.302179 -0.818617 0.201583 -0.372035 -0.220049 -2.421694 1.24088 1.022918 0.281963 -0.56672 0.218504 -2.654141 0.687099 1.426786 -2.744465 -2.044989 -0.49789 -1.769702 -2.328375 -1.105508 0.104665 -0.061522 -2.669585 1.369504 1.778184 -0.869744 -1.441309 0.051265 1.116249 1.903031 -0.163683 1.731475 -0.652558 -1.459245 -0.212579 0.382415 1.861636 -0.394668 -0.423196 -0.983827 -1.176007 1.844253 0.853456 0.976233 -0.076248 -1.490589 -0.553926 0.506191 0.326236 0.251095 1.038919 -0.803142 0.658979 -3.236482 -1.07965 1.27678 -0.350029 -1.778651 0.292774 0.002745 0.267431 1.072933 -0.321661 -1.19536 -1.465055 -2.523761 -3.574044 -0.123843 -0.515256 3.2036 -0.08683 1.099575 -0.639959 -1.310584 0.629968 -0.142079 0.66081 -1.289981 -0.152693 -0.105374 0.388507 -1.068849 2.207516 -1.516502 0.618648 0.057959 1.61471 0.888036 -0.337188 -0.73306 -0.809614 -1.409634 -0.094797 -0.938314 1.210802 1.47048 2.210952 -1.933366 0.819087
-0.03775 -0.045189 -0.060291 0.134295 -0.003207 0.062289 -0.078351 0.02355 -0.053404 -0.082608 -0.061607 -0.083912 -0.034287 -0.082939 -0.016265 0.172227 -0.046081 0.026844 -0.011842 -0.007016 0.008117 0.065924 0.120548 0.003868 -0.119273 -0.088644 -0.053405 -0.008472 0.017343 -0.137967 -0.070084 -0.022232 -0.073335 0.019585 -0.039957 0.015347 -0.071716 0.00595 0.131123 0.067266 -0.051133 0.028183 0.096726 0.05461 -0.168897 -0.011818 0.037597 -0.116289 -0.003777 0.015193 -0.063949 -0.13811 -0.111024 0.045668 0.062119 -0.192548 -0.125013 -0.035553 0.027043 -0.059782 -0.129038 -0.040008 0.001205 -0.245976 -0.177694 0.05044 -0.037468 -0.074963 0.095049 -0.091363 0.01123 0.013718 -0.016442 0.023413 -0.022946 -0.114364 -0.037468 -0.033343 -0.012063 0.037921 0.015263 0.165762 0.091704 -0.079186 -0.181496 0.054291 -0.018815 -0.028951 0.096925 0.025481 -0.085816 0.037162 0.074933 0.087228 0.204239 -0.09967 -0.022057 -0.04458 -0.00484 -0.072207
0.132615 -0.067738 0.144921 -0.070652 0.285714 0.009219 -0.149162 -0.011606 -0.279423 -0.076516 -0.049189 0.125755 0.012283 0.14469 0.10283 0.080149 -0.220533 0.163791 0.085609 0.080021 0.116158 0.195278 0.0559 -0.091269 -0.209908 -0.140602 0.044022 0.004846 -0.053479 -0.086002 -0.061676 -0.119705 -0.054719 -0.094517 -0.07982 -0.177671 0.07156 0.149193 0.079411 0.099143 -0.131442 0.044631 0.001847 0.078508 -0.120107 -0.012578 -0.074565 0.035564 -0.059714 -0.047986 -0.063732 0.03986 -0.122845 -0.135855 -0.074361 -0.166091 0.33802 -0.172756 0.019881 0.09711 -0.033975 -0.088392 0.006303 0.085869 -0.124851 -0.005417 -0.177558 0.05514 0.036664 0.147545 0.101387 0.003954 0.120145 -0.074756 -0.038315 0.124689 0.052326 0.152487 -0.177587 0.076794 0.087322 0.072746 -0.151492 -0.118139 -0.041269 -0.16844 0.096218 0.145533 0.062196 0.102882 -0.127923 0.003111 -0.064313 0.141061 0.063924 0.055305 -0.013763 0.055272 -0.068272 0.038454
