0.0 0.0 0.0 0.0 0.0 0.0 0.0 0.0 0.0 0.0 0.0 0.0 0.0 0.0 0.0 0.0 0.0 0.0 0.0 0.0 0.0 0.0 0.0 0.0 0.0 0.0 0.0 0.0 0.0 0.0 0.0 0.0 0.0 0.0 0.0 0.0 0.0 0.0 0.0 0.0 0.0 0.0 0.0 0.0 0.0 0.0 0.0 0.0 0.0 0.0 0.0 0.0 0.0 0.0 0.0 0.0 0.0 0.0 0.0 0.0 0.0 0.0 0.0 0.0 0.0 0.0 0.0 0.0 0.0 0.0 0.0 0.0 0.0 0.0 0.0 0.0 0.0 0.0 0.0 0.0 0.0 0.0 0.0 0.0 0.0 0.0 0.0 0.0 0.0 0.0 0.0 0.0 0.0 0.0 0.0 0.0 0.0 0.0 0.0 0.0
0.0 0.0 0.0 0.0 0.0 0.0 0.0 0.0 0.0 0.0 0.0 0.0 0.0 0.0 0.0 0.0 0.0 0.0 0.0 0.0 0.0 0.0 0.0 0.0 0.0 0.0 0.0 0.0 0.0 0.0 0.0 0.0 0.0 0.0 0.0 0.0 0.0 0.0 0.0 0.0 0.0 0.0 0.0 0.0 0.0 0.0 0.0 0.0 0.0 0.0 0.0 0.0 0.0 0.0 0.0 0.0 0.0 0.0 0.0 0.0 0.0 0.0 0.0 0.0 0.0 0.0 0.0 0.0 0.0 0.0 0.0 0.0 0.0 0.0 0.0 0.0 0.0 0.0 0.0 0.0 0.0 0.0 0.0 0.0 0.0 0.0 0.0 0.0 0.0 0.0 0.0 0.0 0.0 0.0 0.0 0.0 0.0 0.0 0.0 0.0
-0.094543 -0.104752 0.160181 0.100093 -0.073521 -0.077283 -0.025195 -0.085185 0.074271 0.066219 -0.161991 0.062187 -0.041995 -0.045452 -0.005901 0.099823 -0.071097 0.129285 -0.167096 0.052975 -0.108079 -0.055884 -0.050982 0.094771 -0.185907 -0.035119 -0.139615 -0.066731 -0.022645 0.030468 -0.001556 -0.004529 0.130878 -0.014158 -0.067566 0.02856 0.015973 0.089575 -0.003986 0.069499 -0.186126 0.177643 -0.022681 -0.022328 0.042564 0.016494 -0.212963 0.018405 -0.032099 0.074871 0.054338 -0.004298 0.09316 -0.050678 0.148189 -0.15581 -0.131391 -0.081131 -0.167344 -0.024783 0.074452 -0.170437 -0.034678 -0.082976 -0.027968 0.003459 -0.067616 -0.080417 0.047221 -0.122449 -0.006044 0.152884 -0.001064 0.073022 0.006082 -0.241269 -0.177618 0.068776 -0.0508 -0.081055 -0.008296 0.107069 0.148632 -0.026099 0.02049 -0.064669 -0.072821 0.12452 0.199859 -0.02472 -0.229865 -0.003657 0.051355 -0.031524 0.009581 -0.141908 -0.024543 -0.066808 -0.044389 0.035621
-0.08219 0.21326 -0.063713 0.153776 0.013636 -0.087953 -0.17405 0.079418 -0.02825 0.131138 0.059812 0.171169 -0.16801 -0.108825 -0.156053 -0.039328 0.109539 0.097232 0.069838 -0.062529 -0.195561 -0.013076 -0.07898 0.072573 -0.107406 0.065609 -0.088126 -0.10374 -0.013839 0.108189 -0.013706 0.02446 -0.005012 0.030462 -0.109028 -0.03714 0.046034 0.070289 -0.130666 -0.047851 0.135996 0.084251 0.088191 0.102238 -0.040835 0.071041 0.103417 0.029859 -0.08276 0.047782 -0.044343 0.194598 0.033071 0.111957 -0.099206 -0.095218 -0.04029 -0.00227 -0.021433 -0.012451 0.040195 0.06264 0.021838 0.010409 -0.089039 0.095978 0.024083 -0.147442 -0.050718 0.048886 -0.032699 0.153636 0.052108 -0.081357 0.017346 -0.192606 -0.078223 -0.051732 -0.098407 0.149229 0.094212 0.247309 0.179605 0.038607 -0.001576 0.301501 -0.185696 -0.035179 0.215185 -0.192897 -0.07835 -0.159294 -0.072521 0.177982 0.255183 -0.105606 -0.129163 0.127496 -0.071119 0.079654
0.352905 0.550922 -1.128945 -0.511125 0.774489 1.405335 -0.371647 0.106012 -0.779785 -0.640302 -0.68578 1.570717 -0.712288 -0.706705 -0.789609 -0.045278 -1.599722 -2.840112 -0.089543 -1.158838 -1.862605 -0.62748 -0.063542 -0.468696 0.750564 0.033551 -0.772222 -0.188991 -0.163115 0.455978 0.038455 -0.779588 0.172303 -1.114448 -0.548246 -0.008155 1.66721 -0.744821 -0.15746 -2.668482 -0.304702 -0.905716 0.479063 0.151803 -0.94063 -0.044338 -0.906122 -0.456182 0.281891 0.268287 0.47007 0.628019 0.328428 1.471286 -2.345457 0.072073 -0.345477 -0.998199 -1.496897 -0.053061 0.351206 -0.934426 0.295591 0.07336 0.24092 0.486976 0.390085 -0.621556 0.375246 -0.02625 1.957847 1.014101 0.004675 0.08874 -0.900479 -0.462149 0.922254 1.355385 -1.048724 0.105897 1.254466 0.410718 0.321258 1.066395 -0.171761 -0.128774 0.315556 0.697301 -0.180925 0.555334 1.005586 -0.891677 -1.232923 -1.994189 -0.567812 0.204184 -0.947385 -0.051526 -0.987029 0.725141
0.0 0.0 0.0 0.0 0.0 0.0 0.0 0.0 0.0 0.0 0.0 0.0 0.0 0.0 0.0 0.0 0.0 0.0 0.0 0.0 0.0 0.0 0.0 0.0 0.0 0.0 0.0 0.0 0.0 0.0 0.0 0.0 0.0 0.0 0.0 0.0 0.0 0.0 0.0 0.0 0.0 0.0 0.0 0.0 0.0 0.0 0.0 0.0 0.0 0.0 0.0 0.0 0.0 0.0 0.0 0.0 0.0 0.0 0.0 0.0 0.0 0.0 0.0 0.0 0.0 0.0 0.0 0.0 0.0 0.0 0.0 0.0 0.0 0.0 0.0 0.0 0.0 0.0 0.0 0.0 0.0 0.0 0.0 0.0 0.0 0.0 0.0 0.0 0.0 0.0 0.0 0.0 0.0 0.0 0.0 0.0 0.0 0.0 0.0 0.0
0.041914 0.015666 0.034089 0.086475 -0.198244 0.11711 -0.095562 0.005625 -0.037743 0.074663 -0.010026 0.123455 -0.172915 -0.200515 0.146939 -0.022816 -0.059053 0.173007 -0.09541 -0.07803 0.107323 -0.031707 0.032494 -0.031415 -0.254576 -0.123597 0.029584 -0.083543 0.121239 -0.163311 -0.110883 -0.047849 -0.12802 -0.026148 -0.09016 0.062535 0.116041 -0.14623 -0.056409 0.04609 -0.016108 0.151776 0.018965 -0.168225 0.019202 0.085449 0.030922 0.196504 -0.243203 -0.072012 0.086859 -0.064052 0.033494 -0.038665 0.131657 -0.003455 -0.122942 -0.043358 -0.067827 0.019242 0.064563 -0.081684 -0.060639 -0.079411 -0.026062 0.108212 0.103058 -0.023696 0.168501 -0.018638 0.047675 -0.002522 0.053836 -0.12835 0.105485 0.209799 0.216668 5.92E-4 0.017312 -0.011005 -0.214374 0.079343 0.266877 -0.146892 -0.161814 -0.02575 -0.060134 -0.047845 -0.070124 -0.11873 0.079915 0.049253 -0.036472 0.164869 -0.035579 -0.087513 0.132625 0.020347 -0.028076 -0.117863
0.0 0.0 0.0 0.0 0.0 0.0 0.0 0.0 0.0 0.0 0.0 0.0 0.0 0.0 0.0 0.0 0.0 0.0 0.0 0.0 0.0 0.0 0.0 0.0 0.0 0.0 0.0 0.0 0.0 0.0 0.0 0.0 0.0 0.0 0.0 0.0 0.0 0.0 0.0 0.0 0.0 0.0 0.0 0.0 0.0 0.0 0.0 0.0 0.0 0.0 0.0 0.0 0.0 0.0 0.0 0.0 0.0 0.0 0.0 0.0 0.0 0.0 0.0 0.0 0.0 0.0 0.0 0.0 0.0 0.0 0.0 0.0 0.0 0.0 0.0 0.0 0.0 0.0 0.0 0.0 0.0 0.0 0.0 0.0 0.0 0.0 0.0 0.0 0.0 0.0 0.0 0.0 0.0 0.0 0.0 0.0 0.0 0.0 0.0 0.0
-0.064357 -0.033406 -0.006591 0.181457 0.041885 0.1408 -0.109843 0.016376 0.068228 -0.045519 0.005233 0.012036 0.05064 -0.052642 0.185426 0.139427 -0.155023 0.12963 0.063368 -0.055016 -0.054854 -0.018229 0.216037 -0.004417 -0.285826 -0.095238 -0.069825 -0.021777 0.187402 -0.130867 -0.00675 -0.075803 -0.044586 0.061098 0.044502 -0.138919 0.031721 -0.005549 0.063477 5.3E-5 0.101342 0.067759 0.180205 0.110423 -0.107152 0.014466 -0.095647 -0.001514 -0.13148 0.090497 0.038783 -0.236052 -0.139813 -0.061498 0.050517 -0.013343 -0.001507 0.083055 0.065801 -0.03321 0.124938 -0.104659 -0.042903 -0.049201 -0.088403 -0.030678 0.055664 0.085579 0.303591 -0.024133 0.025756 -0.085778 0.02809 -0.058313 0.028445 -0.065808 -0.182156 -0.019053 0.014958 -0.002839 -0.024485 0.159415 0.06125 -0.100844 0.111327 0.042033 0.023134 -0.078359 0.169092 -0.074151 -0.058673 0.083338 0.03916 0.23854 -0.125673 0.017002 0.129169 0.039082 0.127676 0.034378
-0.125002 -0.066817 -0.180766 -0.059979 -0.092662 0.094897 -0.157281 0.149876 -0.054601 0.166557 -0.072196 0.088903 -0.020504 0.030954 0.011593 0.059236 -0.015654 0.027102 -0.072601 -6.44E-4 -0.078562 0.006416 0.115282 0.100459 -0.12915 0.113299 0.140987 -0.12095 -0.008716 -0.12589 0.203538 0.027711 -0.108113 0.027425 -0.207183 0.041097 0.067443 0.016476 0.109709 -0.043383 0.097247 0.087611 0.04971 0.11518 -0.029272 0.019313 0.044622 0.126768 0.085755 -0.041414 -0.035159 -0.020206 0.044492 -0.04271 0.164299 -0.173956 0.054438 -0.129314 0.01258 -0.154185 0.057271 -0.092325 0.08629 -0.193376 -0.149163 0.081389 0.135752 0.015912 3.93E-4 -0.028525 -0.160906 0.162119 0.114114 -0.051617 0.16827 -0.17756 -0.052901 0.055456 0.057253 -0.128881 0.052534 0.293794 0.215936 -0.042191 0.051492 -0.083139 -0.037911 0.10892 0.014079 0.182417 -0.069847 0.044903 -0.082355 0.156042 -0.11172 -0.100245 -0.050986 0.080645 -0.011823 0.110605
0.0 0.0 0.0 0.0 0.0 0.0 0.0 0.0 0.0 0.0 0.0 0.0 0.0 0.0 0.0 0.0 0.0 0.0 0.0 0.0 0.0 0.0 0.0 0.0 0.0 0.0 0.0 0.0 0.0 0.0 0.0 0.0 0.0 0.0 0.0 0.0 0.0 0.0 0.0 0.0 0.0 0.0 0.0 0.0 0.0 0.0 0.0 0.0 0.0 0.0 0.0 0.0 0.0 0.0 0.0 0.0 0.0 0.0 0.0 0.0 0.0 0.0 0.0 0.0 0.0 0.0 0.0 0.0 0.0 0.0 0.0 0.0 0.0 0.0 0.0 0.0 0.0 0.0 0.0 0.0 0.0 0.0 0.0 0.0 0.0 0.0 0.0 0.0 0.0 0.0 0.0 0.0 0.0 0.0 0.0 0.0 0.0 0.0 0.0 0.0
-0.712057 0.466211 0.063591 0.086174 -1.255988 2.822991 2.076746 0.838774 -0.020671 -1.280441 1.179102 -1.753032 1.376135 0.882455 2.237254 1.983971 0.866371 2.591895 -0.269502 -0.286136 -3.406377 -0.009819 -0.394248 -1.190766 -0.403296 0.709212 0.116725 -0.666605 1.681637 0.990057 1.471824 -0.87375 0.531074 -0.153881 -2.91014 0.753966 -2.665062 -1.117472 -2.337228 -1.729195 -2.683231 -0.651913 0.514991 -2.911624 1.06297 2.151303 -1.372346 0.237424 1.273261 0.514875 -1.367583 3.708289 1.689892 1.139073 0.76024 1.034704 -1.965361 -0.918685 0.228013 2.049749 0.645334 -1.179384 0.972813 0.669267 1.481583 -0.667748 0.57514 -0.714184 -0.381661 -1.775352 -1.511462 0.523812 -2.714397 -1.051762 -2.676722 1.344343 0.740221 1.577323 -1.169534 1.013976 -0.837904 -0.788646 1.780799 1.81327 1.312842 -1.259174 0.378098 2.875814 0.217882 0.80454 -2.934274 -0.415746 1.106138 0.112843 -0.687791 -0.850835 -1.564319 1.301084 -0.965878 2.951018
-0.178936 -0.192764 0.075573 0.150693 -0.042812 0.132495 -0.176647 0.062991 -0.154226 0.220172 0.221315 0.09424 0.014913 0.108039 0.079981 0.159184 0.074498 0.323612 0.012016 0.151077 -0.175548 0.149917 0.142924 0.019112 -0.184264 0.007673 0.003304 -0.031312 0.123293 -0.138967 -0.086628 -0.014401 0.035468 0.132034 -0.18408 -0.020489 -0.104063 -0.004977 0.008863 -0.054165 -0.073857 0.229839 0.043295 -0.200457 0.080613 -0.020306 0.083804 0.009232 -0.218364 -0.065146 0.017359 -0.056747 -0.025991 0.083082 0.145593 0.024688 -0.001611 -0.09465 0.197719 -0.077646 0.056712 0.033799 -0.087356 -0.029315 0.02912 0.023557 0.192087 0.050005 0.096192 -0.151571 -0.048932 -0.075685 -0.125405 -0.105337 -0.096688 0.033679 -0.176306 -0.09797 -0.032725 0.049542 -0.168238 0.092661 -0.028402 -0.295054 0.172389 0.115648 0.046299 0.037743 0.25977 0.025974 -0.182473 0.030772 0.062572 0.067177 0.11439 -0.040999 0.086297 0.002247 -4.87E-4 -0.065335
2.007821 0.538051 -1.591713 -2.165932 1.912745 0.599848 0.401501 1.551414 -0.423974 1.107404 -0.27832 1.012984 -1.763471 0.024703 0.166043 -0.580131 -1.76232 0.788781 0.141854 -0.974763 -1.52283 -0.383242 0.380583 -0.146389 -2.202119 -0.683678 3.098135 3.235085 -2.286704 -1.408567 1.227975 1.427483 0.947307 -2.287905 1.425604 -4.498292 -1.518344 0.856983 0.465775 -0.094921 -0.296412 -3.281656 -1.222074 2.941638 -0.22555 -2.137995 1.588422 0.728405 -0.408111 0.34362 2.596048 0.844802 0.774557 0.15827 -0.526547 0.141595 -1.173989 2.803685 1.663709 -0.188571 -0.523864 0.929424 -0.27286 -1.109882 1.0507 -0.311777 1.259795 -1.263922 0.368728 -0.501308 0.689352 1.476848 0.832959 0.9571 -1.57226 -0.873327 0.014838 -2.541038 0.107314 -0.504736 -2.287469 -1.89436 0.614818 -0.538877 2.069717 0.597738 -0.095649 0.74121 1.918749 -0.433419 1.653448 1.322915 -2.286565 0.647985 0.679441 -1.719864 1.107732 -2.025813 0.039723 1.362105
-0.16225 -0.032322 -0.03917 0.096177 0.096948 0.061502 -0.036537 0.098782 -0.089099 -0.151664 0.035142 0.25276 0.090552 0.030173 -0.166204 0.207673 -0.278657 0.051852 0.192001 -0.171525 -0.279041 -0.229337 0.201596 -0.019003 0.182247 -0.057525 0.053857 -0.186438 0.172656 0.021237 0.07688 -0.168025 -0.052865 -0.004899 0.194309 -0.075175 0.249231 0.062088 0.129553 -0.202323 -0.207369 0.128355 -4.74E-4 0.248014 0.06558 -0.200034 0.31 -0.066517 -0.154945 -0.008659 0.108006 -0.080843 -0.161406 0.174536 -0.211446 0.082693 -0.133933 -0.121253 0.137987 0.135345 0.118639 -0.142715 0.066458 -0.165393 -0.176125 0.10435 0.150449 0.09377 0.291957 0.041535 0.094704 0.014485 0.242912 0.006219 -0.145365 0.159966 -0.12923 -0.071031 0.128476 -0.067087 -0.001964 -0.214279 0.267862 0.012321 -0.026008 -0.039113 -0.004982 0.211859 -0.0904 -0.020908 -0.134764 -0.077557 -0.038871 0.05068 -0.272739 -0.163474 0.051106 0.142399 -0.144492 0.070792
-0.077569 -0.101959 0.170796 -0.014139 -0.058329 -0.065058 -0.139219 0.248938 -0.039706 -0.050653 0.034624 0.061644 0.137788 -0.098226 0.225599 -0.010846 0.125048 0.249389 -0.011183 0.374163 -0.19924 0.191602 0.147815 -0.168434 -0.011878 -0.064068 -0.116176 -0.323078 3.78E-4 -0.083887 -0.06554 0.26326 -0.204574 -0.171456 0.092162 -0.127623 -0.031557 -0.054751 0.179852 0.170849 -0.113118 -0.032478 0.118582 0.256264 0.078514 -0.062648 0.213933 0.217188 0.172348 0.186779 -0.056904 -0.159961 -0.067314 0.006492 0.363609 0.037966 -0.124658 -0.001269 0.187903 -0.066875 0.122177 -0.024327 0.233732 -0.162639 -0.070194 -0.088049 0.296231 0.045488 -0.00204 -0.031979 -0.129837 -0.095825 -0.02955 0.042525 0.228502 -0.182044 -0.074246 0.010029 0.083958 0.004534 0.043741 0.181826 0.141656 -0.066531 0.17757 0.226683 -0.005561 0.039527 0.006512 0.080845 -0.232614 -0.060488 -0.020951 0.177388 0.008769 -0.329191 0.184705 -0.297303 0.023823 -0.249829
-0.108434 -0.014857 -0.076026 0.099508 0.053882 0.071264 -0.240225 -0.033913 -0.191099 0.025831 -0.047767 0.097222 0.001247 0.037138 0.0312 0.225222 -0.249337 -0.070564 0.011023 0.070364 -0.206446 0.00259 0.251236 0.008168 -0.007805 -0.020951 0.152616 0.074988 0.027309 0.005812 -0.033545 -0.029962 -0.050331 0.21006 -0.324014 -0.196786 0.016368 -0.055262 0.057726 3.65E-4 -0.073361 0.071253 0.062231 0.064509 0.037511 0.00663 0.092588 -0.092208 0.102065 -0.095828 0.057282 -0.092182 -0.066718 0.007684 0.04232 -0.309676 0.023839 -0.013772 0.117433 -0.099474 -0.232413 -0.161031 -0.022362 -0.119426 0.007651 0.150154 0.079974 0.099994 0.18001 0.010763 -0.001769 -0.022615 -0.012422 0.031203 -0.017602 -0.135708 -0.26318 -0.137589 0.076639 -0.014334 -0.128008 0.187787 0.076819 -0.292274 -0.148592 0.237201 0.02746 0.143353 0.040302 -0.024371 -0.196871 -0.029251 -0.124704 0.110499 -0.08176 -0.041541 -0.065787 0.186317 -0.003266 -0.007435
-0.141953 0.064765 -0.04659 0.1132 -0.093026 0.11833 -0.105405 -0.100658 -0.044064 0.09821 0.097048 0.155441 -0.057639 -0.095071 -0.072778 0.139054 0.127284 0.030496 0.078817 0.087983 -0.017666 0.031313 -0.096696 0.121666 0.145648 -0.345046 0.105184 0.037846 -0.053757 -0.207579 0.090426 -0.008537 0.146995 0.144466 -0.09361 -0.124425 0.0966 -0.175656 0.120161 -0.087928 0.040291 0.033104 0.022227 0.091673 -0.120298 -0.155931 -0.023216 0.16448 0.038437 -0.068408 0.189635 0.043183 -0.361046 0.059543 -0.038566 0.085116 0.025387 -0.01921 -0.144421 -0.090296 0.079066 -0.0456 0.014281 -0.215266 0.111156 0.200562 -0.050527 -0.081821 -0.016618 0.193914 0.088539 0.074081 0.224609 -0.155082 0.046571 -0.062241 0.036443 -0.112005 -0.299556 0.092561 -9.25E-4 0.135534 0.126714 0.086017 0.060868 0.008974 0.073231 -0.020367 0.151156 0.189684 0.018746 -0.022627 -0.314743 -0.083034 -0.045752 0.00537 -0.127451 -0.121616 -0.005269 0.180682
0.166865 -0.033351 -0.013364 -0.059014 -0.095169 -0.021507 -0.126788 0.103728 -0.200711 -0.063152 0.044354 0.134222 0.002393 0.071524 0.209815 0.100187 0.025401 0.083631 0.120448 0.173878 -0.091184 0.033918 0.054121 0.121356 -0.168415 -0.048991 -0.209931 -0.016042 0.202225 -0.007166 -0.110802 -0.028926 -0.11468 0.016808 -0.064513 -0.05835 -0.015135 0.093734 0.167046 -0.014056 0.02555 -0.101082 -0.016676 -0.00246 -0.017495 0.184926 -0.038011 -0.106257 0.001132 0.03659 0.080797 -0.16487 -0.164051 -0.024617 0.144233 0.037146 0.064814 -0.135114 0.218106 -0.087954 0.024218 -0.008723 0.020657 -0.10933 -0.0401 -0.009808 -0.283523 0.179888 -0.016468 0.100665 -0.045627 0.125868 0.040189 0.113707 0.238166 -0.079786 0.009467 -0.061173 -0.064632 -0.277119 0.084403 -0.091058 0.212317 -0.16461 -0.095926 -0.049768 -0.09268 0.023356 0.096515 0.010373 -0.174271 -0.082788 -0.155016 0.104184 0.044246 0.051147 0.02525 -0.044468 -0.064392 -0.011243
0.0 0.0 0.0 0.0 0.0 0.0 0.0 0.0 0.0 0.0 0.0 0.0 0.0 0.0 0.0 0.0 0.0 0.0 0.0 0.0 0.0 0.0 0.0 0.0 0.0 0.0 0.0 0.0 0.0 0.0 0.0 0.0 0.0 0.0 0.0 0.0 0.0 0.0 0.0 0.0 0.0 0.0 0.0 0.0 0.0 0.0 0.0 0.0 0.0 0.0 0.0 0.0 0.0 0.0 0.0 0.0 0.0 0.0 0.0 0.0 0.0 0.0 0.0 0.0 0.0 0.0 0.0 0.0 0.0 0.0 0.0 0.0 0.0 0.0 0.0 0.0 0.0 0.0 0.0 0.0 0.0 0.0 0.0 0.0 0.0 0.0 0.0 0.0 0.0 0.0 0.0 0.0 0.0 0.0 0.0 0.0 0.0 0.0 0.0 0.0
-0.08219 0.21326 -0.063713 0.153776 0.013636 -0.087953 -0.17405 0.079418 -0.02825 0.131138 0.059812 0.171169 -0.16801 -0.108825 -0.156053 -0.039328 0.109539 0.097232 0.069838 -0.062529 -0.195561 -0.013076 -0.07898 0.072573 -0.107406 0.065609 -0.088126 -0.10374 -0.013839 0.108189 -0.013706 0.02446 -0.005012 0.030462 -0.109028 -0.03714 0.046034 0.070289 -0.130666 -0.047851 0.135996 0.084251 0.088191 0.102238 -0.040835 0.071041 0.103417 0.029859 -0.08276 0.047782 -0.044343 0.194598 0.033071 0.111957 -0.099206 -0.095218 -0.04029 -0.00227 -0.021433 -0.012451 0.040195 0.06264 0.021838 0.010409 -0.089039 0.095978 0.024083 -0.147442 -0.050718 0.048886 -0.032699 0.153636 0.052108 -0.081357 0.017346 -0.192606 -0.078223 -0.051732 -0.098407 0.149229 0.094212 0.247309 0.179605 0.038607 -0.001576 0.301501 -0.185696 -0.035179 0.215185 -0.192897 -0.07835 -0.159294 -0.072521 0.177982 0.255183 -0.105606 -0.129163 0.127496 -0.071119 0.079654
-0.174576 0.01285 0.169263 0.086547 -0.033926 -0.032493 0.063298 0.044721 -0.069737 0.086905 0.049759 0.005829 0.098722 -0.131645 -0.101436 0.064528 -0.001362 0.108306 0.113922 0.035319 -0.061744 -0.056871 0.163243 0.032703 -0.226439 -0.014376 -0.159333 -0.134383 0.203928 0.247686 -0.190363 -0.020878 -0.089964 0.048505 -4.31E-4 -0.020582 0.065799 -0.188111 -0.029546 0.006274 0.135084 0.070508 0.008418 0.150496 -0.048983 -0.146912 -0.01052 -0.094589 -0.146442 0.104573 -0.148988 -0.046672 0.0082 0.030654 -0.044944 0.10572 -0.079652 -0.138747 -0.072764 -0.17909 0.059629 -0.1604 0.006858 -0.268749 -0.065427 0.093938 -0.0203 0.140332 0.179096 -0.092934 -0.041573 -0.013339 -0.026712 -0.140162 0.109559 -0.050836 -0.053475 0.035219 -0.145853 0.061013 -0.06034 0.233666 0.082004 0.042371 0.113079 0.110077 0.077894 0.006459 0.145999 -0.003792 0.041467 -0.118697 -0.033631 -0.008437 0.026964 -0.116259 0.155701 -0.008277 -0.042379 0.019502
0.0 0.0 0.0 0.0 0.0 0.0 0.0 0.0 0.0 0.0 0.0 0.0 0.0 0.0 0.0 0.0 0.0 0.0 0.0 0.0 0.0 0.0 0.0 0.0 0.0 0.0 0.0 0.0 0.0 0.0 0.0 0.0 0.0 0.0 0.0 0.0 0.0 0.0 0.0 0.0 0.0 0.0 0.0 0.0 0.0 0.0 0.0 0.0 0.0 0.0 0.0 0.0 0.0 0.0 0.0 0.0 0.0 0.0 0.0 0.0 0.0 0.0 0.0 0.0 0.0 0.0 0.0 0.0 0.0 0.0 0.0 0.0 0.0 0.0 0.0 0.0 0.0 0.0 0.0 0.0 0.0 0.0 0.0 0.0 0.0 0.0 0.0 0.0 0.0 0.0 0.0 0.0 0.0 0.0 0.0 0.0 0.0 0.0 0.0 0.0
-0.023725 -0.265581 -0.041655 0.122232 0.026794 -0.088378 -0.095963 -0.07173 -0.107796 -0.053451 0.244892 0.188711 -0.170801 0.022715 -8.47E-4 0.204389 -0.068086 0.024141 0.111102 0.050266 -0.042829 -0.104548 0.056634 0.106866 -0.035671 -0.111641 0.164909 0.066612 0.15263 -0.04625 0.072838 0.047495 -0.171938 0.101539 -0.079368 -0.007698 0.092885 -0.147097 0.195496 -0.035855 -0.218068 -0.098775 0.231561 0.129023 -0.111343 -0.171763 -0.061107 -0.054208 0.042218 0.022472 0.07198 -0.214236 -0.161899 -0.018452 0.010509 -0.022686 0.086178 0.078149 -0.072518 -0.183167 0.119658 -0.068118 0.051934 -0.01767 -0.158406 -0.063514 -0.107352 0.120173 0.133667 0.053117 0.01506 -0.054873 0.029177 -0.089398 -0.004805 -0.012248 0.112717 -0.080168 -0.105325 -0.109812 -0.087183 -0.176569 0.227813 -0.2492 -0.148258 -0.003471 0.100996 0.024248 0.093904 0.123002 -0.140595 0.053374 -0.09475 -0.046893 -0.002508 -0.046196 0.066997 0.183339 -0.060206 -0.072608
0.036055 -0.091672 0.070591 -0.083561 -0.060147 -0.108044 -0.117442 -0.093856 -0.135925 0.047813 0.204944 0.106446 0.086305 -0.052912 0.099857 0.133186 0.003063 0.102866 0.117174 -0.0341 -0.109476 0.045345 0.210008 0.158381 -0.096517 -0.261498 0.095121 0.13241 0.176794 0.064439 0.043277 0.02221 -0.08566 0.098445 -0.05943 -0.039396 -0.085156 0.055979 0.197455 0.163305 -0.213438 -0.002923 -0.010747 -0.029881 -0.064531 -0.091298 0.042295 0.038368 -0.107648 6.6E-4 0.144575 -0.08549 -0.261079 -0.05049 0.045964 -0.010371 -0.028598 -0.074556 0.018547 -0.088037 0.178719 -0.213459 0.05996 -0.057269 -0.159645 -0.018275 0.06246 -0.026922 0.061343 -0.058212 -5.5E-5 -0.018345 -0.057027 -0.016119 -0.026888 -0.031948 0.036979 -0.05861 0.024301 -0.031389 -0.125226 0.131511 0.167786 -0.188848 0.028291 -0.038956 -0.096827 0.039341 0.174685 0.125041 -0.153008 0.020542 0.049273 0.04293 0.002824 -0.085652 0.122763 0.035452 0.036301 0.072441
1.243502 1.134391 0.590862 1.996977 -0.962336 -0.661334 -0.266456 -0.127768 -2.444398 -0.206732 0.159857 0.567773 1.173683 2.792565 1.528644 0.200187 -1.456383 -0.054034 -3.834816 -0.264404 -0.383984 2.292137 -0.696916 3.749931 1.830361 1.59989 0.30863 -1.254181 -3.259688 0.94782 4.632703 -3.694376 -1.030734 -2.774173 -2.810608 -1.229032 -0.416032 -1.761895 -5.715088 -0.637618 -0.374351 -3.341895 2.349411 -1.224849 -1.040741 0.561559 -2.067217 -0.851357 0.11916 -0.328686 1.783671 0.306888 -1.463329 -1.416554 -2.271013 0.339539 -1.105978 -3.114801 -1.215474 -0.616442 -2.96255 -2.333351 0.596112 0.579091 1.016681 -1.657275 0.333222 -3.11828 0.449948 2.317412 3.116959 -4.062879 -0.695936 2.18573 1.152799 -0.142887 -0.55314 0.003107 -1.005673 1.720349 1.582172 0.572102 -1.442146 -0.198333 0.721274 -1.548869 0.557982 1.526505 0.840405 2.554603 0.385489 1.23189 -2.861935 -0.445422 2.396136 -1.341517 -0.027667 2.335921 -1.30239 0.433287
0.123128 0.094542 0.00866 0.003842 0.083525 -0.029676 -0.004349 0.073582 -0.079702 -0.186294 0.072116 0.121279 -0.042124 -0.045657 0.015076 -0.034362 -0.019354 -0.108557 -0.125121 -0.025237 0.112064 0.049577 -0.025545 0.091907 -0.119852 -0.016847 0.083066 0.109996 0.152657 -0.079594 0.082174 -0.00992 -0.053644 0.013384 -0.103663 0.011708 0.207781 0.047214 -0.078124 0.004755 -0.055197 -0.36104 -0.148694 0.032708 0.100245 0.041137 -0.17735 -0.047502 0.104532 -0.022641 0.024456 -0.041833 -0.042982 -0.026578 -0.039726 0.02266 -0.088943 -0.043542 0.040877 -0.07645 -0.095527 -0.096833 -0.051677 0.126153 -0.108962 0.034244 -0.066693 -0.030628 0.080151 0.165414 0.121042 -0.007095 0.102344 -0.008544 -0.06443 -0.096247 -0.034503 -0.257529 0.04461 -0.084618 0.088349 0.028353 -0.052116 0.020317 -0.008342 0.104288 0.146326 0.070713 0.102884 0.118751 -0.035691 -0.132432 -0.19816 0.024258 -0.029604 0.003755 -0.11819 0.059113 -0.064012 -0.005194
0.166865 -0.033351 -0.013364 -0.059014 -0.095169 -0.021507 -0.126788 0.103728 -0.200711 -0.063152 0.044354 0.134222 0.002393 0.071524 0.209815 0.100187 0.025401 0.083631 0.120448 0.173878 -0.091184 0.033918 0.054121 0.121356 -0.168415 -0.048991 -0.209931 -0.016042 0.202225 -0.007166 -0.110802 -0.028926 -0.11468 0.016808 -0.064513 -0.05835 -0.015135 0.093734 0.167046 -0.014056 0.02555 -0.101082 -0.016676 -0.00246 -0.017495 0.184926 -0.038011 -0.106257 0.001132 0.03659 0.080797 -0.16487 -0.164051 -0.024617 0.144233 0.037146 0.064814 -0.135114 0.218106 -0.087954 0.024218 -0.008723 0.020657 -0.10933 -0.0401 -0.009808 -0.283523 0.179888 -0.016468 0.100665 -0.045627 0.125868 0.040189 0.113707 0.238166 -0.079786 0.009467 -0.061173 -0.064632 -0.277119 0.084403 -0.091058 0.212317 -0.16461 -0.095926 -0.049768 -0.09268 0.023356 0.096515 0.010373 -0.174271 -0.082788 -0.155016 0.104184 0.044246 0.051147 0.02525 -0.044468 -0.064392 -0.011243
0.0 0.0 0.0 0.0 0.0 0.0 0.0 0.0 0.0 0.0 0.0 0.0 0.0 0.0 0.0 0.0 0.0 0.0 0.0 0.0 0.0 0.0 0.0 0.0 0.0 0.0 0.0 0.0 0.0 0.0 0.0 0.0 0.0 0.0 0.0 0.0 0.0 0.0 0.0 0.0 0.0 0.0 0.0 0.0 0.0 0.0 0.0 0.0 0.0 0.0 0.0 0.0 0.0 0.0 0.0 0.0 0.0 0.0 0.0 0.0 0.0 0.0 0.0 0.0 0.0 0.0 0.0 0.0 0.0 0.0 0.0 0.0 0.0 0.0 0.0 0.0 0.0 0.0 0.0 0.0 0.0 0.0 0.0 0.0 0.0 0.0 0.0 0.0 0.0 0.0 0.0 0.0 0.0 0.0 0.0 0.0 0.0 0.0 0.0 0.0
0.004908 0.120396 0.210823 0.228854 -0.079279 -0.1697 -0.060781 -0.173659 -0.117247 -0.123475 0.121561 0.116809 0.039252 -0.131826 0.094073 0.107497 -0.036421 0.017265 0.135411 0.075545 0.016312 -0.02626 0.12603 7.91E-4 0.038996 -0.09204 -0.063462 0.134404 0.201676 -0.13897 -0.25226 -0.040662 -0.053537 0.172388 -0.204812 -0.155542 0.08377 -0.100033 -0.140652 0.158353 0.015234 0.139347 0.004305 0.026679 0.03687 -0.003347 -0.020734 -0.010766 -0.061854 0.102259 -0.049916 -0.048503 -0.03655 -0.207247 -8.14E-4 -0.16394 -0.006403 -0.06025 0.013015 -0.033318 -0.117782 -0.161154 -0.104171 -0.199619 -0.123507 0.059898 -0.114632 0.177067 0.076212 -0.192444 -0.133785 -0.023285 -0.04479 0.11572 0.014893 -0.026164 -0.024238 0.061765 -0.183185 0.0558 -0.079024 0.148769 0.143007 -0.107537 0.101568 0.120473 0.046079 -0.033248 0.140498 0.015445 -0.032305 -0.050784 0.009293 0.142777 0.092917 -0.074968 0.015646 -0.05209 0.085561 0.037069
0.011154 0.056992 0.047267 0.034761 0.070839 -0.065747 -0.041288 0.0466 -0.150118 0.00945 6.65E-4 -0.037946 0.007966 0.034481 0.009539 -0.066616 -0.252948 0.029422 -0.043187 0.1152 0.016403 0.257038 -0.123039 -0.063269 0.007996 0.138052 0.084362 -0.10093 -0.089597 -0.09896 0.230321 0.016168 -0.045103 -0.198231 -0.085654 -0.065834 0.244568 0.106442 -0.266893 0.043582 -0.110723 0.061013 0.056939 -0.004965 -0.086296 -0.032595 0.14 -0.108813 0.091368 0.237262 0.083437 -0.155858 -0.020775 -0.16532 -0.006719 -0.121437 -0.094145 -0.257008 -0.297467 0.068642 0.053369 0.187593 -0.170292 0.020182 -0.075853 -0.057738 -0.150644 0.053488 -0.024499 0.231306 0.250819 0.192501 -0.073531 0.041268 -0.062054 0.031945 0.019577 0.12862 0.005005 0.126328 -0.005085 0.036129 -0.083524 0.128441 -0.11892 -0.109323 -0.017536 -0.089555 0.182025 -0.170249 0.077674 0.142229 -0.028755 0.076358 0.062925 0.003933 -0.012566 0.044741 0.017979 0.154949
1.155368 3.302179 -0.818617 0.201583 -0.372035 -0.220049 -2.421694 1.24088 1.022918 0.281963 -0.56672 0.218504 -2.654141 0.687099 1.426786 -2.744465 -2.044989 -0.49789 -1.769702 -2.328375 -1.105508 0.104665 -0.061522 -2.669585 1.369504 1.778184 -0.869744 -1.441309 0.051265 1.116249 1.903031 -0.163683 1.731475 -0.652558 -1.459245 -0.212579 0.382415 1.861636 -0.394668 -0.423196 -0.983827 -1.176007 1.844253 0.853456 0.976233 -0.076248 -1.490589 -0.553926 0.506191 0.326236 0.251095 1.038919 -0.803142 0.658979 -3.236482 -1.07965 1.27678 -0.350029 -1.778651 0.292774 0.002745 0.267431 1.072933 -0.321661 -1.19536 -1.465055 -2.523761 -3.574044 -0.123843 -0.515256 3.2036 -0.08683 1.099575 -0.639959 -1.310584 0.629968 -0.142079 0.66081 -1.289981 -0.152693 -0.105374 0.388507 -1.068849 2.207516 -1.516502 0.618648 0.057959 1.61471 0.888036 -0.337188 -0.73306 -0.809614 -1.409634 -0.094797 -0.938314 1.210802 1.47048 2.210952 -1.933366 0.819087
3.15255 -0.907421 -3.642026 3.17996 3.42207 1.79741 -1.227643 1.238019 3.468645 -1.524123 -0.566973 2.247298 -5.676877 -3.465057 0.468239 -0.491914 -1.179421 -5.83672 -1.538257 2.775791 -2.00479 -1.449758 -1.2796 0.206099 1.947127 -2.184334 -0.629776 0.067498 1.962288 0.042905 -1.775377 -1.31689 1.177621 -0.477848 -4.149457 1.240261 2.627241 0.465456 3.275736 -0.229338 1.461656 -2.33524 -1.892225 -3.19226 0.177513 -1.76301 -0.410329 -0.595822 4.811452 1.986213 4.007822 4.845738 0.252917 1.747265 -0.348649 0.728273 3.103462 1.140455 -1.438188 -2.532658 1.100931 2.908969 -0.149113 1.39746 -0.110243 -0.869566 0.323433 0.189933 -0.593698 1.257804 3.346564 3.900447 -1.435939 2.359596 1.356138 -1.532728 -3.12145 -0.745096 3.148153 -1.649395 -2.176761 3.755593 -0.02329 1.428043 0.63312 -0.20617 3.715836 1.110841 1.264316 -1.176745 1.038138 -1.75898 -2.202135 1.199641 -2.789658 3.940613 -1.314701 0.546179 -0.086898 3.417288
-0.066077 -0.04614 0.177105 0.014828 -0.224598 0.156356 -0.004028 -0.007531 -0.089205 0.028751 0.048576 0.148986 -0.014054 -0.167094 0.07888 0.286417 0.168158 0.125907 -0.00256 0.072251 -0.180823 0.195891 0.220981 1.61E-4 0.092377 -0.111037 0.037183 0.159373 0.115474 -0.107876 -0.034336 0.054294 0.073709 0.031907 -0.149478 -0.282266 -0.085972 -0.143729 0.088277 -0.091016 -0.101417 -0.193437 -0.068736 0.048832 0.079692 -0.219752 -0.076563 0.028148 0.112467 0.123575 0.054896 -0.144447 0.020002 -0.092077 -0.046204 -0.202982 -0.016351 -0.014284 -0.025389 -0.226911 -0.043733 -0.101362 0.021068 -0.219044 -0.134985 -0.073455 0.151863 -0.081384 0.059907 -0.118205 0.109246 0.06212 0.15729 0.025655 0.039673 -0.308074 -0.010718 0.0628 -0.013453 0.051374 0.110286 0.021042 0.042938 -0.12111 -0.059889 0.071295 0.013045 -0.111699 0.183925 0.143572 -0.171258 0.036566 -0.11123 0.166856 0.044894 -0.061448 0.014747 -0.005242 0.02121 -0.069617
2.591633 1.608701 -2.087245 2.00752 3.012652 4.995656 0.847355 -1.594905 -0.365708 -1.629805 -1.650237 3.712017 -0.231463 -0.537534 -2.036098 2.002639 -0.696666 -4.310136 -1.477319 -1.356504 -0.581823 -1.830239 -0.272773 -1.648095 0.090509 0.008711 0.330842 0.396714 2.341035 -0.526067 1.155793 -1.730906 -1.010387 -1.342646 -1.939355 0.734869 0.727366 0.700702 1.516974 -2.133831 -0.280653 -3.051674 0.017123 0.532043 1.478449 0.375441 0.920129 1.548929 1.087478 0.668327 0.707416 3.249232 -0.362503 1.273221 -2.929682 -0.245389 1.633444 -0.119836 0.103459 -3.445175 0.513245 0.427807 0.738792 1.448203 0.501908 0.362882 -0.731533 -0.391201 0.037778 3.053553 4.030229 1.793904 1.24136 0.081706 -1.401954 -0.638804 -0.487445 -0.267924 0.012844 0.538179 -0.241935 -0.068756 1.351665 -0.112558 0.001814 0.447262 0.833441 -0.023876 1.212707 1.514635 -0.568611 0.376173 -3.663739 -4.345135 -0.444319 2.139788 -2.53093 0.92131 -1.399435 1.763954
0.044197 -0.067241 0.091331 0.003757 -0.071452 -0.267992 -0.065081 0.012792 -0.031626 -0.11111 0.31457 0.198641 -0.0253 -0.155432 0.123884 0.200652 0.010671 0.242807 0.194171 -0.031344 -0.138876 0.057022 0.181595 0.169351 -0.066183 0.089477 -0.091346 0.043302 0.274021 -0.096582 -0.089851 0.030939 -0.089984 0.16045 -0.019776 0.032607 -0.109891 -0.029863 -0.038083 0.018772 0.03605 -0.062734 0.066534 0.118874 0.099847 -0.116068 -0.086536 0.213527 -0.030769 0.139569 0.043575 -0.138377 -0.193468 -0.061385 0.041387 -0.112327 -0.117668 0.05408 -0.036521 -7.77E-4 0.019704 -0.065172 0.054937 -0.01229 -0.117798 -0.056897 0.03994 -0.055989 0.030668 -0.004539 -0.074558 -0.019341 0.030568 -0.071697 0.041006 -0.077516 -0.06948 -0.118278 -0.086671 -0.142925 -0.039158 0.112307 0.012461 -0.078031 -0.094845 0.127087 -0.085046 0.056749 0.003789 0.160323 -0.056127 -0.034988 -0.063811 -0.043195 -0.011695 0.011174 0.056203 -0.017131 0.145836 0.024527
-0.001889 -0.015376 0.011577 -0.079922 0.019615 0.005975 0.018085 -0.133459 0.07886 -0.019014 -0.010821 0.041669 -0.011128 0.097962 -0.060935 0.042309 0.015014 8.49E-4 -0.002449 0.038756 0.0685 -0.030124 0.021652 -0.079703 0.075875 -0.122727 0.144977 0.073106 0.120718 -0.115022 0.047765 0.225363 -0.061747 -0.035103 0.080005 0.064342 -0.011293 0.032618 0.076202 0.118833 0.299047 0.176216 0.148892 -0.105455 -0.022399 0.118571 -0.05437 -0.136016 -0.04767 0.112361 0.012505 0.001737 0.056998 -0.132972 0.205737 0.014869 0.130993 0.242588 0.100312 0.073252 -0.019374 -0.073147 -0.042245 -0.05193 0.119558 0.067972 -0.198268 0.013905 0.103121 -0.09962 -0.010563 -0.219254 -0.117595 0.0375 -0.028297 0.03039 -0.116152 0.021365 0.041774 -0.247365 -0.187561 -0.063496 -0.088808 -0.029223 0.057963 0.069802 -0.07258 -0.052825 0.064478 0.040761 0.149345 0.085248 0.239559 0.137326 -0.140966 0.005439 0.083517 -0.02486 -0.028184 0.111642
0.0 0.0 0.0 0.0 0.0 0.0 0.0 0.0 0.0 0.0 0.0 0.0 0.0 0.0 0.0 0.0 0.0 0.0 0.0 0.0 0.0 0.0 0.0 0.0 0.0 0.0 0.0 0.0 0.0 0.0 0.0 0.0 0.0 0.0 0.0 0.0 0.0 0.0 0.0 0.0 0.0 0.0 0.0 0.0 0.0 0.0 0.0 0.0 0.0 0.0 0.0 0.0 0.0 0.0 0.0 0.0 0.0 0.0 0.0 0.0 0.0 0.0 0.0 0.0 0.0 0.0 0.0 0.0 0.0 0.0 0.0 0.0 0.0 0.0 0.0 0.0 0.0 0.0 0.0 0.0 0.0 0.0 0.0 0.0 0.0 0.0 0.0 0.0 0.0 0.0 0.0 0.0 0.0 0.0 0.0 0.0 0.0 0.0 0.0 0.0
0.0 0.0 0.0 0.0 0.0 0.0 0.0 0.0 0.0 0.0 0.0 0.0 0.0 0.0 0.0 0.0 0.0 0.0 0.0 0.0 0.0 0.0 0.0 0.0 0.0 0.0 0.0 0.0 0.0 0.0 0.0 0.0 0.0 0.0 0.0 0.0 0.0 0.0 0.0 0.0 0.0 0.0 0.0 0.0 0.0 0.0 0.0 0.0 0.0 0.0 0.0 0.0 0.0 0.0 0.0 0.0 0.0 0.0 0.0 0.0 0.0 0.0 0.0 0.0 0.0 0.0 0.0 0.0 0.0 0.0 0.0 0.0 0.0 0.0 0.0 0.0 0.0 0.0 0.0 0.0 0.0 0.0 0.0 0.0 0.0 0.0 0.0 0.0 0.0 0.0 0.0 0.0 0.0 0.0 0.0 0.0 0.0 0.0 0.0 0.0
0.0 0.0 0.0 0.0 0.0 0.0 0.0 0.0 0.0 0.0 0.0 0.0 0.0 0.0 0.0 0.0 0.0 0.0 0.0 0.0 0.0 0.0 0.0 0.0 0.0 0.0 0.0 0.0 0.0 0.0 0.0 0.0 0.0 0.0 0.0 0.0 0.0 0.0 0.0 0.0 0.0 0.0 0.0 0.0 0.0 0.0 0.0 0.0 0.0 0.0 0.0 0.0 0.0 0.0 0.0 0.0 0.0 0.0 0.0 0.0 0.0 0.0 0.0 0.0 0.0 0.0 0.0 0.0 0.0 0.0 0.0 0.0 0.0 0.0 0.0 0.0 0.0 0.0 0.0 0.0 0.0 0.0 0.0 0.0 0.0 0.0 0.0 0.0 0.0 0.0 0.0 0.0 0.0 0.0 0.0 0.0 0.0 0.0 0.0 0.0
0.10532 -0.093719 -0.005269 -0.006642 0.10512 -0.041133 -8.44E-4 -0.173589 -0.022792 0.097138 0.065361 -0.067095 0.035054 0.022868 0.096305 0.0393 -0.077829 0.048361 -0.102201 0.084223 0.037049 0.00316 0.031322 -0.036675 -0.084511 -0.030709 -0.045407 -0.067674 -0.073182 -0.145047 0.028499 0.107675 -0.070319 0.182889 0.11093 0.035156 -0.061101 -0.066019 -0.034396 0.098091 0.039529 0.020479 0.045255 -0.018864 -0.117191 0.050411 -0.159854 0.054857 -0.091216 0.035875 0.052987 -0.122013 -0.14068 -0.16448 -0.044673 -0.146379 0.023094 -0.080483 0.022506 0.101537 -0.03896 -0.252499 -0.135146 -0.069382 -0.050218 0.030937 0.020177 -0.12181 0.059257 -0.184898 -0.014435 0.094633 0.074352 0.058123 -0.050455 0.006643 -0.171423 -0.159693 0.017066 -0.108738 -0.108045 0.109475 0.033823 -0.083832 -0.052931 -0.043177 -0.058144 0.212679 0.07216 0.003577 -0.08182 -0.035645 0.225871 0.149214 -0.151223 -0.00643 0.022677 -0.044015 0.105694 -0.214829
-0.04832 0.090324 -0.194188 0.317462 0.032722 -0.006961 -0.002056 -0.026079 -0.038491 0.117021 -0.0279 0.001159 0.026274 0.006893 0.063322 0.006811 -0.167466 0.077843 -0.218526 -0.049729 0.184506 0.017787 0.106408 -0.074128 0.153078 0.045399 -0.019661 0.199252 -0.079072 0.077981 -0.002528 -0.076294 0.070905 -0.1362 -0.021728 -0.123094 0.099832 0.034697 0.155263 -0.013553 -0.135902 -0.064673 0.116065 -0.048622 -0.210925 -0.049275 0.086711 -0.009717 -0.003816 0.178711 -0.092914 -0.170189 0.018779 -0.055215 -0.145297 0.041179 0.138721 0.057468 0.041091 0.005365 0.115135 0.01779 0.068525 -0.011633 0.018509 -0.020141 0.106587 -0.118159 0.028942 0.035181 0.182344 0.073337 -0.124911 0.011314 -0.125504 -0.007116 -0.052859 -0.040021 -0.036749 -0.080962 -0.086283 -0.12496 0.085925 0.157881 -0.009772 -0.164802 -0.028382 0.077599 0.001925 0.063885 0.121283 0.082976 0.018347 -0.246429 -0.184076 -0.19077 -0.045764 -0.016816 0.010814 0.053251
0.352905 0.550922 -1.128945 -0.511125 0.774489 1.405335 -0.371647 0.106012 -0.779785 -0.640302 -0.68578 1.570717 -0.712288 -0.706705 -0.789609 -0.045278 -1.599722 -2.840112 -0.089543 -1.158838 -1.862605 -0.62748 -0.063542 -0.468696 0.750564 0.033551 -0.772222 -0.188991 -0.163115 0.455978 0.038455 -0.779588 0.172303 -1.114448 -0.548246 -0.008155 1.66721 -0.744821 -0.15746 -2.668482 -0.304702 -0.905716 0.479063 0.151803 -0.94063 -0.044338 -0.906122 -0.456182 0.281891 0.268287 0.47007 0.628019 0.328428 1.471286 -2.345457 0.072073 -0.345477 -0.998199 -1.496897 -0.053061 0.351206 -0.934426 0.295591 0.07336 0.24092 0.486976 0.390085 -0.621556 0.375246 -0.02625 1.957847 1.014101 0.004675 0.08874 -0.900479 -0.462149 0.922254 1.355385 -1.048724 0.105897 1.254466 0.410718 0.321258 1.066395 -0.171761 -0.128774 0.315556 0.697301 -0.180925 0.555334 1.005586 -0.891677 -1.232923 -1.994189 -0.567812 0.204184 -0.947385 -0.051526 -0.987029 0.725141
0.0 0.0 0.0 0.0 0.0 0.0 0.0 0.0 0.0 0.0 0.0 0.0 0.0 0.0 0.0 0.0 0.0 0.0 0.0 0.0 0.0 0.0 0.0 0.0 0.0 0.0 0.0 0.0 0.0 0.0 0.0 0.0 0.0 0.0 0.0 0.0 0.0 0.0 0.0 0.0 0.0 0.0 0.0 0.0 0.0 0.0 0.0 0.0 0.0 0.0 0.0 0.0 0.0 0.0 0.0 0.0 0.0 0.0 0.0 0.0 0.0 0.0 0.0 0.0 0.0 0.0 0.0 0.0 0.0 0.0 0.0 0.0 0.0 0.0 0.0 0.0 0.0 0.0 0.0 0.0 0.0 0.0 0.0 0.0 0.0 0.0 0.0 0.0 0.0 0.0 0.0 0.0 0.0 0.0 0.0 0.0 0.0 0.0 0.0 0.0
0.004908 0.120396 0.210823 0.228854 -0.079279 -0.1697 -0.060781 -0.173659 -0.117247 -0.123475 0.121561 0.116809 0.039252 -0.131826 0.094073 0.107497 -0.036421 0.017265 0.135411 0.075545 0.016312 -0.02626 0.12603 7.91E-4 0.038996 -0.09204 -0.063462 0.134404 0.201676 -0.13897 -0.25226 -0.040662 -0.053537 0.172388 -0.204812 -0.155542 0.08377 -0.100033 -0.140652 0.158353 0.015234 0.139347 0.004305 0.026679 0.03687 -0.003347 -0.020734 -0.010766 -0.061854 0.102259 -0.049916 -0.048503 -0.03655 -0.207247 -8.14E-4 -0.16394 -0.006403 -0.06025 0.013015 -0.033318 -0.117782 -0.161154 -0.104171 -0.199619 -0.123507 0.059898 -0.114632 0.177067 0.076212 -0.192444 -0.133785 -0.023285 -0.04479 0.11572 0.014893 -0.026164 -0.024238 0.061765 -0.183185 0.0558 -0.079024 0.148769 0.143007 -0.107537 0.101568 0.120473 0.046079 -0.033248 0.140498 0.015445 -0.032305 -0.050784 0.009293 0.142777 0.092917 -0.074968 0.015646 -0.05209 0.085561 0.037069
0.011154 0.056992 0.047267 0.034761 0.070839 -0.065747 -0.041288 0.0466 -0.150118 0.00945 6.65E-4 -0.037946 0.007966 0.034481 0.009539 -0.066616 -0.252948 0.029422 -0.043187 0.1152 0.016403 0.257038 -0.123039 -0.063269 0.007996 0.138052 0.084362 -0.10093 -0.089597 -0.09896 0.230321 0.016168 -0.045103 -0.198231 -0.085654 -0.065834 0.244568 0.106442 -0.266893 0.043582 -0.110723 0.061013 0.056939 -0.004965 -0.086296 -0.032595 0.14 -0.108813 0.091368 0.237262 0.083437 -0.155858 -0.020775 -0.16532 -0.006719 -0.121437 -0.094145 -0.257008 -0.297467 0.068642 0.053369 0.187593 -0.170292 0.020182 -0.075853 -0.057738 -0.150644 0.053488 -0.024499 0.231306 0.250819 0.192501 -0.073531 0.041268 -0.062054 0.031945 0.019577 0.12862 0.005005 0.126328 -0.005085 0.036129 -0.083524 0.128441 -0.11892 -0.109323 -0.017536 -0.089555 0.182025 -0.170249 0.077674 0.142229 -0.028755 0.076358 0.062925 0.003933 -0.012566 0.044741 0.017979 0.154949
-0.003094 -0.167835 0.414167 0.20214 0.021192 0.110874 -0.142571 -0.037466 0.106848 0.210642 -0.104314 0.368307 -0.180382 0.077357 0.178098 0.279879 0.11783 0.088282 -0.24772 -0.115248 -0.054334 0.134777 0.26336 0.082243 -0.293855 -0.028461 3.44E-4 -0.063758 0.311569 -0.233804 0.127595 -0.011127 -0.128887 0.041042 -0.086175 -0.074408 0.088104 0.068682 0.046454 -0.047408 -0.036691 -0.110982 -0.019407 -0.186861 0.082029 -0.006638 -0.113443 -0.147593 -0.01641 0.094933 0.118614 -0.043671 0.018239 -0.413848 0.281094 0.152042 -0.042809 0.166658 -0.018005 -0.05191 -0.023496 0.119143 -0.092649 -0.042531 0.058689 -0.124429 -0.030609 0.011888 -0.002563 0.032041 0.205577 0.076755 0.032821 0.085427 -0.127106 -0.219912 -0.095765 0.089966 -0.089799 -0.123091 -0.053708 0.014194 0.133849 -0.209805 -0.029523 0.050832 -0.087862 -0.109852 0.313246 0.164122 -0.114575 0.04465 0.051932 -0.079995 -0.022854 -0.28581 -0.010104 0.221313 -0.025797 -0.064144
0.775432 -0.891011 0.432074 -1.277876 0.81251 0.249616 0.786081 -0.911198 -0.934748 0.012339 1.110761 -1.5334 0.544639 1.704334 -0.496752 0.753261 -1.726445 0.021656 -0.764632 -1.401819 0.31104 -0.165828 0.151637 0.706176 0.826479 0.155661 0.302165 -0.96623 -2.448297 -1.431389 2.880696 -1.232641 -1.265021 -0.235156 0.677086 -0.096555 -0.49236 -0.014317 -0.684671 0.575003 0.492846 -1.203781 -0.316221 -0.321815 -1.079541 1.192699 0.801905 -0.056544 -0.130459 -0.205627 0.152146 0.135235 -1.497573 -1.056483 -0.040034 0.95283 -0.662402 0.036156 -0.298266 0.557988 -1.492103 -0.098973 -0.073954 -1.501255 0.183512 1.269822 -0.105934 -1.099231 0.068667 -0.130158 0.27065 -0.268604 0.421403 0.92293 0.725883 0.032179 -0.212795 0.536003 -0.337816 -0.687433 -0.597751 0.487183 -0.842892 -1.184979 1.109837 -0.721096 0.144075 0.551729 1.341968 0.393169 -0.359644 1.380097 -0.579278 -1.576064 -1.491814 -1.227689 -0.418011 -0.151431 0.64876 -0.54468
-0.142869 0.12003 0.300552 0.030557 0.014136 -0.142861 -0.095006 -0.087346 -0.191495 0.089061 0.08815 0.126973 0.092797 -0.046021 0.080835 0.192291 -0.012115 0.220816 0.116447 0.266436 0.018307 0.146891 0.253175 0.063083 -0.257427 -0.240597 -0.121663 -0.046531 -0.0064 -0.164166 -0.030533 -0.01877 -0.07396 0.07355 -0.185875 -0.163159 0.111251 0.022693 0.082856 -0.060155 -0.047011 0.186733 0.145447 -0.088702 -0.005658 0.063053 -0.033033 -0.109262 -0.175175 0.181662 0.063489 -0.125197 0.031307 -0.108679 0.027328 -0.193272 0.03686 0.083402 0.003184 -0.036329 0.107461 -0.068443 0.028295 0.065585 -0.082457 0.103571 -0.005111 0.148969 0.118608 -0.01154 -0.008718 0.121832 -0.276201 0.010062 0.271248 -0.086085 -0.108354 -0.055181 0.018093 -0.207622 -0.061316 0.147111 0.138159 -0.205413 -0.069118 0.137975 0.01554 7.55E-4 0.120184 -0.13094 -0.015905 -0.030445 -0.063018 0.188426 -0.020325 -0.02526 -0.204647 -0.063747 0.122432 -0.210809
2.591633 1.608701 -2.087245 2.00752 3.012652 4.995656 0.847355 -1.594905 -0.365708 -1.629805 -1.650237 3.712017 -0.231463 -0.537534 -2.036098 2.002639 -0.696666 -4.310136 -1.477319 -1.356504 -0.581823 -1.830239 -0.272773 -1.648095 0.090509 0.008711 0.330842 0.396714 2.341035 -0.526067 1.155793 -1.730906 -1.010387 -1.342646 -1.939355 0.734869 0.727366 0.700702 1.516974 -2.133831 -0.280653 -3.051674 0.017123 0.532043 1.478449 0.375441 0.920129 1.548929 1.087478 0.668327 0.707416 3.249232 -0.362503 1.273221 -2.929682 -0.245389 1.633444 -0.119836 0.103459 -3.445175 0.513245 0.427807 0.738792 1.448203 0.501908 0.362882 -0.731533 -0.391201 0.037778 3.053553 4.030229 1.793904 1.24136 0.081706 -1.401954 -0.638804 -0.487445 -0.267924 0.012844 0.538179 -0.241935 -0.068756 1.351665 -0.112558 0.001814 0.447262 0.833441 -0.023876 1.212707 1.514635 -0.568611 0.376173 -3.663739 -4.345135 -0.444319 2.139788 -2.53093 0.92131 -1.399435 1.763954
-0.028486 0.049854 0.119756 0.136161 0.096242 0.142693 -0.193724 0.003784 -0.131613 -0.015393 -0.093333 0.169882 0.060064 0.038716 0.135238 0.170863 0.040459 0.098707 0.161165 0.03105 -0.171876 0.036074 0.178948 -0.066665 0.019706 0.032264 -0.139329 0.093217 0.107651 -0.331063 -0.16467 -0.035012 -0.144377 0.253097 -0.071656 -0.048285 0.029246 0.040159 0.133821 0.021743 -0.110039 0.009346 -0.046412 -0.020652 0.028391 -0.022791 0.175559 -0.115757 -0.223441 -0.106463 -0.017324 -0.09165 -0.14085 -0.075153 0.138549 -0.082898 -0.093317 0.138582 -0.014976 -0.059832 0.014451 -0.194074 -0.04898 -0.266587 -0.02847 -0.041678 0.002186 -0.060269 0.135735 0.027263 0.016615 0.018047 -0.106985 0.062776 -0.104992 -0.11296 -0.05944 -0.014741 -0.030086 0.05047 0.078425 -0.04198 0.044425 -0.060199 0.006105 0.017679 -0.028324 -0.061254 0.13471 -0.00511 -0.162253 -0.053027 -0.133572 0.162937 0.154817 -0.181833 0.029361 -0.126839 -0.067687 -0.048757
0.001946 -0.180107 0.085996 -0.006928 0.056716 0.079684 0.105376 -0.011898 0.058401 0.048554 0.100637 -3.56E-4 0.166656 0.09437 -0.012404 -0.265952 0.038586 -0.006771 -0.076215 0.080969 0.003234 -0.044125 0.015593 -0.078939 0.024431 -0.114753 -0.043154 0.037784 0.11664 -0.231512 -0.045305 0.021362 0.005017 0.00672 -0.052747 0.153949 0.165969 0.033717 0.109227 -0.018938 -0.030017 -0.150293 0.022217 -0.011841 0.070001 0.054878 -0.1002 -0.147251 0.079185 -0.104616 -0.007999 -0.08976 0.016347 -0.05818 -0.031341 0.015775 0.061285 -0.105573 0.01408 0.056722 -0.09438 0.068273 0.083709 -0.115314 0.084571 -0.109283 -0.076218 0.03796 0.023774 0.236699 0.001905 -0.211695 -0.113382 0.181177 0.040866 -0.087077 -0.209043 -0.126582 0.00488 -0.110886 -0.01111 -0.216193 0.072629 -0.032242 -0.04088 -0.052742 -0.206238 -0.037591 -0.020484 0.025874 0.135785 0.1494 -0.078706 -0.081505 -0.022256 -0.080242 -0.057796 0.062104 0.034083 0.047778
0.352905 0.550922 -1.128945 -0.511125 0.774489 1.405335 -0.371647 0.106012 -0.779785 -0.640302 -0.68578 1.570717 -0.712288 -0.706705 -0.789609 -0.045278 -1.599722 -2.840112 -0.089543 -1.158838 -1.862605 -0.62748 -0.063542 -0.468696 0.750564 0.033551 -0.772222 -0.188991 -0.163115 0.455978 0.038455 -0.779588 0.172303 -1.114448 -0.548246 -0.008155 1.66721 -0.744821 -0.15746 -2.668482 -0.304702 -0.905716 0.479063 0.151803 -0.94063 -0.044338 -0.906122 -0.456182 0.281891 0.268287 0.47007 0.628019 0.328428 1.471286 -2.345457 0.072073 -0.345477 -0.998199 -1.496897 -0.053061 0.351206 -0.934426 0.295591 0.07336 0.24092 0.486976 0.390085 -0.621556 0.375246 -0.02625 1.957847 1.014101 0.004675 0.08874 -0.900479 -0.462149 0.922254 1.355385 -1.048724 0.105897 1.254466 0.410718 0.321258 1.066395 -0.171761 -0.128774 0.315556 0.697301 -0.180925 0.555334 1.005586 -0.891677 -1.232923 -1.994189 -0.567812 0.204184 -0.947385 -0.051526 -0.987029 0.725141
0.048677 -0.071297 0.070547 0.121553 -0.126856 0.056556 -0.238173 -0.102264 0.022636 0.053222 0.156326 0.202912 -0.073622 0.05899 0.194811 0.285919 -0.009875 0.190449 -0.052382 0.041608 -0.086809 0.136829 0.263931 0.110612 -0.221058 -0.143258 -0.028299 0.063781 0.197049 -0.147497 -0.05076 -0.085477 -0.095642 0.125735 -0.074886 -0.165463 0.109188 -0.057416 0.164103 0.142613 -0.139128 0.056569 0.025174 0.005991 0.012606 -0.171959 -0.098272 0.077696 -0.147465 0.09252 0.08762 -0.019989 -0.037659 0.05344 0.197986 -0.008003 0.180057 0.035699 0.056729 -0.080456 0.141474 -0.120988 -0.072139 -0.084936 -0.196204 -0.006615 0.031955 0.049928 0.033885 -0.127384 0.045904 0.018913 0.02324 -0.072572 0.178196 -0.051157 -0.048384 -0.130662 -0.049432 0.036976 -0.006248 0.005678 0.054359 -0.029171 0.026946 -0.081563 0.079553 0.091932 0.10216 0.014252 -0.080403 -0.141028 -0.016575 0.187989 -0.123318 -0.057191 0.172105 -0.081053 0.005981 -0.136669
-0.020122 -0.129551 0.079111 0.044247 2.7E-4 -0.085409 0.019656 0.046379 -0.021388 0.122181 0.116338 0.061277 0.152274 -0.07715 0.124793 0.199206 0.0521 0.201831 0.234933 0.152275 -0.031276 -0.011689 0.100916 -0.039356 -0.008555 -0.035747 0.110653 -0.111704 0.084497 -0.082074 -0.101207 0.004416 -0.090269 0.158027 -0.045056 -0.008315 0.146116 -0.110983 -0.2082 -0.037338 -0.132452 0.150695 -0.066258 -0.003108 0.035437 0.142012 0.091725 0.095529 -0.18968 -0.046861 0.036816 -0.115391 -0.138596 -0.023145 0.05101 0.073666 -0.145695 -0.028714 -0.028434 -0.056494 -0.107789 -0.209914 -0.079517 -0.293056 0.030036 0.258249 0.01353 -0.03007 0.208269 -0.095619 -0.104322 -0.068665 -0.06787 0.021478 -0.009794 -0.174201 -0.131599 0.160091 -0.003468 -0.094913 -0.198302 0.090664 0.031848 -0.341998 0.008816 -0.022153 -0.015105 -0.016854 0.170241 -0.016689 -0.147599 -0.039071 0.118536 0.075877 0.031159 -0.249255 0.093822 0.077269 -0.021608 -0.074188
0.073978 -0.132071 0.159513 0.056146 -0.063102 0.046065 -0.035753 -0.092846 -0.078191 -0.026107 0.215206 0.103492 -0.104358 -0.004707 0.065615 0.101643 -0.204928 0.111922 -0.073225 0.091111 0.108652 -0.099917 -0.037111 0.061356 -0.269968 0.010343 0.086444 0.022215 0.225009 -0.181001 -0.058045 -0.009519 -0.171949 -0.03447 -0.005729 0.041119 0.138192 -0.063637 -0.117963 0.002045 0.112797 -0.203134 0.085518 -0.036679 0.06091 0.139162 -0.012989 0.135919 -0.112389 -0.057426 0.175547 -0.231012 -0.12999 -0.019157 0.150613 -0.069222 -0.122846 0.168485 -0.057241 -0.038375 -0.109202 -0.147838 0.118627 -0.013549 -0.111634 -0.08108 -0.184899 -0.13827 0.063954 -0.003242 0.083679 0.022958 0.048618 -0.115389 -0.006092 0.088548 -0.04818 -0.113192 -0.017698 -0.063982 0.054088 -0.11563 0.187888 0.079867 -0.154587 0.013477 -0.083385 -0.084912 0.051787 0.094155 -0.08032 -0.059453 0.026693 -0.029322 -0.004369 -0.048063 -0.080665 0.052223 -0.13938 -0.029253
-0.028706 0.033732 -0.114421 -0.07457 0.127383 -0.072256 0.225561 0.060203 0.083158 -0.055015 -0.008016 -0.013805 -0.051516 0.044168 0.111501 0.025036 -0.238953 0.036993 0.171614 -0.137027 -0.117078 -0.077618 -0.049104 -0.008848 0.057426 -0.057326 0.059874 0.011163 0.064202 0.02249 0.115982 -0.050116 -0.037287 0.022451 0.317696 0.035591 0.023828 -0.193618 -0.051534 -0.084514 -0.011266 -0.085479 -0.049087 0.026278 0.053149 0.155973 -0.017962 0.090405 0.046952 -0.046551 0.079632 -0.054336 -0.079931 -0.02083 -0.19082 0.195755 -0.172548 -0.076107 -0.039663 -0.041625 -9.09E-4 -0.037134 -0.03562 -0.121145 -1.21E-4 -0.01738 0.076054 0.018905 0.018724 -0.037724 0.134652 -0.041302 0.140077 -0.048912 -0.024278 0.051511 -0.020874 0.112695 -0.215306 0.087446 0.074303 -0.127096 0.103432 -0.089674 -0.052799 0.058982 -0.081369 0.292689 -0.046317 0.05673 -0.017009 0.029554 -0.09257 0.016177 0.031009 -0.141385 -0.131271 0.186623 0.243762 0.077857
2.007821 0.538051 -1.591713 -2.165932 1.912745 0.599848 0.401501 1.551414 -0.423974 1.107404 -0.27832 1.012984 -1.763471 0.024703 0.166043 -0.580131 -1.76232 0.788781 0.141854 -0.974763 -1.52283 -0.383242 0.380583 -0.146389 -2.202119 -0.683678 3.098135 3.235085 -2.286704 -1.408567 1.227975 1.427483 0.947307 -2.287905 1.425604 -4.498292 -1.518344 0.856983 0.465775 -0.094921 -0.296412 -3.281656 -1.222074 2.941638 -0.22555 -2.137995 1.588422 0.728405 -0.408111 0.34362 2.596048 0.844802 0.774557 0.15827 -0.526547 0.141595 -1.173989 2.803685 1.663709 -0.188571 -0.523864 0.929424 -0.27286 -1.109882 1.0507 -0.311777 1.259795 -1.263922 0.368728 -0.501308 0.689352 1.476848 0.832959 0.9571 -1.57226 -0.873327 0.014838 -2.541038 0.107314 -0.504736 -2.287469 -1.89436 0.614818 -0.538877 2.069717 0.597738 -0.095649 0.74121 1.918749 -0.433419 1.653448 1.322915 -2.286565 0.647985 0.679441 -1.719864 1.107732 -2.025813 0.039723 1.362105
-0.16225 -0.032322 -0.03917 0.096177 0.096948 0.061502 -0.036537 0.098782 -0.089099 -0.151664 0.035142 0.25276 0.090552 0.030173 -0.166204 0.207673 -0.278657 0.051852 0.192001 -0.171525 -0.279041 -0.229337 0.201596 -0.019003 0.182247 -0.057525 0.053857 -0.186438 0.172656 0.021237 0.07688 -0.168025 -0.052865 -0.004899 0.194309 -0.075175 0.249231 0.062088 0.129553 -0.202323 -0.207369 0.128355 -4.74E-4 0.248014 0.06558 -0.200034 0.31 -0.066517 -0.154945 -0.008659 0.108006 -0.080843 -0.161406 0.174536 -0.211446 0.082693 -0.133933 -0.121253 0.137987 0.135345 0.118639 -0.142715 0.066458 -0.165393 -0.176125 0.10435 0.150449 0.09377 0.291957 0.041535 0.094704 0.014485 0.242912 0.006219 -0.145365 0.159966 -0.12923 -0.071031 0.128476 -0.067087 -0.001964 -0.214279 0.267862 0.012321 -0.026008 -0.039113 -0.004982 0.211859 -0.0904 -0.020908 -0.134764 -0.077557 -0.038871 0.05068 -0.272739 -0.163474 0.051106 0.142399 -0.144492 0.070792
0.110693 -0.089382 -0.1042 0.088095 -0.094345 0.076031 -0.001375 -0.149925 -0.141647 -0.046288 -0.009878 0.081474 0.097894 0.157953 0.193783 0.151017 0.029816 0.045103 0.112677 -0.001287 -0.040243 -0.205078 0.109363 0.019802 -0.036564 0.213122 0.034571 0.016138 0.198142 -0.094925 -0.158766 -0.099852 0.056161 0.174886 0.117313 -0.005402 0.027828 -0.05355 -0.113252 -0.060183 -0.015416 -0.097592 0.052105 -0.240972 -0.013886 0.036541 -0.090512 0.020933 0.110999 -0.240721 0.009113 0.19445 -0.117784 0.048751 0.25332 0.072291 0.195416 -0.001097 0.143113 -0.130869 0.028272 -0.109788 0.033535 0.03135 -0.029411 0.142338 -0.145301 -0.038271 0.050975 0.139342 0.024327 0.05233 0.09886 -0.072485 0.074771 -0.011289 -0.045876 -0.02924 0.042561 -0.086063 0.04112 -0.054474 0.049727 -0.143901 -0.008168 -0.026263 0.234975 0.080949 0.041974 -0.087995 0.054594 -0.096466 0.035802 0.180267 0.040454 0.093537 -0.045373 0.004663 -0.030548 -0.065697
0.060854 -0.011986 -0.038491 -0.215355 -0.196333 0.013959 -0.162443 0.134481 -0.212497 0.029634 0.027952 0.080762 -0.014948 0.07979 0.015262 0.106256 -0.140167 0.062221 0.056658 0.003705 -0.127495 0.040146 0.071066 0.123334 -0.170067 0.049084 0.064598 0.034576 -0.153861 0.059129 -0.122907 0.101599 -0.03729 -0.144749 -0.054557 -0.088295 -0.096698 -0.031594 -0.004937 -0.058224 0.001627 0.103749 0.057639 0.173077 -0.067248 -0.148184 0.083801 0.091989 -0.051326 0.080511 -0.039954 -0.034848 -0.141769 0.053141 0.11912 -0.065528 0.056766 -0.008784 0.041694 -0.183181 0.047779 -0.041783 0.00709 -0.08381 0.007302 0.024247 -0.021254 -0.09643 -0.074851 -0.010163 -0.029143 -0.169037 0.234911 -0.065547 0.066872 -0.113811 0.166807 0.067121 -0.162991 0.064033 0.092899 0.075295 0.092263 0.124227 -0.013228 -0.080937 0.005278 0.092741 0.111105 0.017927 -0.012814 0.028827 -0.039962 0.069081 -0.075695 -0.087783 -0.156934 -0.049833 0.008716 -0.058487
-0.108434 -0.014857 -0.076026 0.099508 0.053882 0.071264 -0.240225 -0.033913 -0.191099 0.025831 -0.047767 0.097222 0.001247 0.037138 0.0312 0.225222 -0.249337 -0.070564 0.011023 0.070364 -0.206446 0.00259 0.251236 0.008168 -0.007805 -0.020951 0.152616 0.074988 0.027309 0.005812 -0.033545 -0.029962 -0.050331 0.21006 -0.324014 -0.196786 0.016368 -0.055262 0.057726 3.65E-4 -0.073361 0.071253 0.062231 0.064509 0.037511 0.00663 0.092588 -0.092208 0.102065 -0.095828 0.057282 -0.092182 -0.066718 0.007684 0.04232 -0.309676 0.023839 -0.013772 0.117433 -0.099474 -0.232413 -0.161031 -0.022362 -0.119426 0.007651 0.150154 0.079974 0.099994 0.18001 0.010763 -0.001769 -0.022615 -0.012422 0.031203 -0.017602 -0.135708 -0.26318 -0.137589 0.076639 -0.014334 -0.128008 0.187787 0.076819 -0.292274 -0.148592 0.237201 0.02746 0.143353 0.040302 -0.024371 -0.196871 -0.029251 -0.124704 0.110499 -0.08176 -0.041541 -0.065787 0.186317 -0.003266 -0.007435
-0.057618 0.072392 -0.029223 0.306452 -0.002597 0.018561 -0.265733 0.006653 -0.060201 -0.037588 0.086003 0.040441 -0.10948 -0.002245 -0.0602 0.189967 -0.029391 -0.001742 0.118749 -0.101939 -0.019855 -0.158953 0.045715 -0.048745 -0.167882 0.250365 -0.076512 -0.114853 0.045165 -0.297679 0.156025 0.035597 -0.003578 -0.054648 -0.142438 0.042692 0.095114 0.194487 0.003718 -0.107812 0.020786 0.078557 0.124211 0.016351 0.002262 -0.331349 0.129989 0.047464 -0.219996 -0.102823 -0.042198 0.109945 -0.002699 0.154312 0.103458 -0.197891 0.181764 0.014739 -0.20992 -0.181488 0.050721 0.156865 -0.05058 -0.166146 -0.228585 0.097708 0.102387 -0.027472 -0.094444 -0.107718 -0.04582 -0.039504 0.025093 -0.118076 0.001383 0.053423 0.078973 -0.109436 -0.005652 -0.051438 -0.16547 0.17584 0.21968 0.003366 -0.125928 -0.257799 0.072256 0.367932 -0.040466 -0.084774 0.024404 0.052381 -0.080701 0.092118 0.043479 -0.071342 -0.020754 0.029107 -0.181811 0.056201
-0.019201 0.028111 0.019217 0.052324 -0.012545 0.076041 0.041859 0.132425 -0.042682 -0.25324 0.153679 -0.052639 -0.234426 0.154245 0.001178 0.07083 0.073083 0.160228 0.024133 -0.054811 0.001969 0.005439 0.181016 0.099355 -0.126409 -0.051701 0.037309 -0.123638 0.247936 -0.162055 0.114555 0.125901 0.087982 0.08593 -0.090916 0.032607 0.058566 -0.084423 -0.083684 -0.120125 -0.142636 -0.134573 0.099572 -0.067549 0.144656 -0.140025 -0.119758 0.069446 0.087216 -0.032862 -0.006618 -0.111395 0.032981 -0.031112 -0.118341 0.110071 -0.111936 0.153878 0.041608 0.007703 0.064796 -0.130385 0.030277 0.045725 -0.1256 0.149386 -0.11782 -0.166733 0.122695 0.114102 -0.065025 -0.01284 -0.004014 -0.036946 -0.052576 0.183617 0.039352 -0.109896 0.002856 -0.049741 0.098582 -0.079185 0.058208 -0.092538 -0.020486 -0.024785 0.136707 0.03449 -0.090652 0.201497 -0.097455 0.025029 -0.120762 -0.013839 -0.051103 -0.067125 -0.00444 -0.252706 0.02388 -0.108891
0.001425 0.004263 0.135305 -0.077384 -0.022612 0.272436 0.221592 -0.051499 -0.098706 0.079002 0.078832 -0.020764 0.171714 0.104323 3.96E-4 0.006149 -0.15675 -0.049389 0.118157 0.018219 0.063871 -0.060376 -0.119384 0.011551 0.15765 -0.252538 0.067585 -0.03541 0.017045 -0.039022 -0.040969 -0.277422 -0.034936 0.085123 0.105513 0.21017 0.065953 -0.029565 0.170693 -0.148116 -0.068244 0.041679 -0.110976 0.085972 -0.077858 -0.048338 0.077963 -0.003733 0.088936 -0.220237 0.095233 -0.2539 -0.287302 -0.008333 -0.080877 0.155346 -0.171005 0.009478 0.10133 -0.047862 -0.006739 -0.096319 0.041545 -0.124681 -0.015785 -8.04E-4 -0.187336 0.019605 0.165307 -0.157156 -0.014743 -0.061977 -0.008215 -0.104042 0.028781 -0.157003 -0.099089 0.121143 -0.233524 -0.028455 0.090829 0.219895 0.030723 0.032929 0.069077 0.016886 -0.052692 -0.020059 0.134103 0.091785 0.156399 0.055355 -0.105379 -0.097026 -0.106326 -0.219712 0.102567 -0.065157 0.073881 -0.013419
-0.215064 -0.17042 -0.120812 0.089947 -0.036376 0.052865 -0.030406 0.019064 0.040386 0.014161 -0.033408 0.096506 -0.167334 -0.03979 -0.013549 0.090914 0.024449 0.127827 0.166226 0.088992 -0.008907 -0.011235 0.045082 0.20572 -0.196179 -0.107524 -0.205158 -0.059713 0.194187 -0.196849 -0.021253 0.04835 0.047147 0.073836 -0.050513 -0.135152 -0.06882 0.005957 -0.011411 0.006593 0.004096 0.112457 -0.06692 0.029218 -0.03084 -0.078429 -0.065985 -0.024935 -0.13219 0.110482 -0.020616 0.088724 -0.208424 0.057908 -0.120792 0.039158 -0.069635 0.028638 -0.061949 -0.174019 0.149461 -0.062419 0.017575 -0.208998 0.066765 -0.010153 0.010557 -0.042797 0.050899 0.016143 -0.076766 0.122914 0.00191 -0.117188 0.092918 -0.136493 -0.01047 0.048717 -0.027291 -0.025392 0.042185 0.138432 0.121585 -0.00964 0.109381 0.165499 -0.095652 0.103752 -0.00449 0.018413 -0.076726 -0.055966 0.083442 0.137556 -0.009179 -0.050784 -0.002494 -0.116751 -0.007653 0.119654
-0.188543 0.017771 0.050078 -0.019022 0.067915 -0.050248 -0.05468 -0.165245 -0.035507 0.06748 0.124413 0.087866 -0.058355 0.10052 0.335489 0.251005 -0.195963 0.197046 0.088944 -0.066602 -0.097833 -0.114229 0.242511 0.035995 -0.2628 -0.135388 -0.048616 -0.254144 0.311044 -0.194069 0.076527 -0.022915 -0.016608 0.028396 -0.11388 -0.035416 0.045782 -0.113824 -0.007515 0.007329 -0.040979 0.236881 0.177469 0.052145 0.069019 -0.060208 0.055744 -0.081964 -0.158538 0.097079 0.03354 -0.101216 -0.011486 0.011527 0.145792 -0.037211 -0.01137 -0.096938 -0.173194 -0.112519 0.003782 -2.88E-4 -0.036068 -0.169543 -0.070358 -0.022597 0.139725 0.014414 0.137222 -0.087438 0.06745 0.001409 0.016971 0.088049 -0.031347 0.127509 -0.063895 -0.082511 -0.097013 -0.095729 0.019906 0.041088 0.175584 -0.037753 -0.045355 0.153434 -0.13618 0.027283 0.13237 -0.013923 -0.119363 -0.23432 -0.068623 0.121777 -0.037598 -0.278362 0.114064 0.015815 0.01678 -0.010727
0.014079 0.249289 0.097357 -0.070038 -0.16919 -0.107697 -0.276371 -0.049454 -0.092184 0.070169 -0.124146 0.153937 -0.053773 -0.014852 -0.227078 -0.006385 0.133499 -0.1107 0.282905 -0.096377 0.081767 -0.253388 -0.184002 0.031643 0.207925 -0.002142 0.007876 0.058697 0.02404 -0.070689 -0.155693 -0.16708 -0.003712 0.001585 0.174331 0.099013 0.044108 0.034861 -0.064535 -0.104368 0.113684 0.211413 -0.038204 0.027336 -0.223955 0.07165 0.075048 0.104989 -0.030454 0.027214 -0.023014 -0.098684 -0.047796 -0.116016 0.106693 0.156479 -0.128311 -0.074736 -0.392015 -0.115148 0.018105 -0.114686 -0.043339 0.162713 0.07721 0.246068 0.045502 -0.0075 -0.069499 0.032209 -0.105278 -0.06127 0.186394 -0.196552 0.099239 -0.087772 -0.039676 0.027986 0.017863 0.037708 -0.115625 -0.029109 0.066023 -0.078972 0.120063 0.162273 -0.042004 -0.041376 -0.091751 -0.197101 0.167794 -0.017433 0.038062 -0.196944 0.042516 0.026176 -0.088453 0.14172 -0.024415 -0.022435
-0.064357 -0.033406 -0.006591 0.181457 0.041885 0.1408 -0.109843 0.016376 0.068228 -0.045519 0.005233 0.012036 0.05064 -0.052642 0.185426 0.139427 -0.155023 0.12963 0.063368 -0.055016 -0.054854 -0.018229 0.216037 -0.004417 -0.285826 -0.095238 -0.069825 -0.021777 0.187402 -0.130867 -0.00675 -0.075803 -0.044586 0.061098 0.044502 -0.138919 0.031721 -0.005549 0.063477 5.3E-5 0.101342 0.067759 0.180205 0.110423 -0.107152 0.014466 -0.095647 -0.001514 -0.13148 0.090497 0.038783 -0.236052 -0.139813 -0.061498 0.050517 -0.013343 -0.001507 0.083055 0.065801 -0.03321 0.124938 -0.104659 -0.042903 -0.049201 -0.088403 -0.030678 0.055664 0.085579 0.303591 -0.024133 0.025756 -0.085778 0.02809 -0.058313 0.028445 -0.065808 -0.182156 -0.019053 0.014958 -0.002839 -0.024485 0.159415 0.06125 -0.100844 0.111327 0.042033 0.023134 -0.078359 0.169092 -0.074151 -0.058673 0.083338 0.03916 0.23854 -0.125673 0.017002 0.129169 0.039082 0.127676 0.034378
0.050302 -0.12009 0.084174 -0.116491 -0.045555 -0.124316 0.051145 -0.174034 -0.027692 0.103208 -0.060318 -0.05675 -0.081737 -0.083512 0.163925 0.144075 -0.125168 0.079343 0.172383 -0.022537 -0.024177 0.066972 0.088805 -0.047403 -0.136072 -0.188316 -0.012886 0.054933 0.08408 -0.018094 0.189229 -0.023451 -0.162673 0.174362 0.073498 -0.007578 -0.03952 -0.04219 0.091584 0.036354 0.049459 -0.016062 -0.171457 0.071997 0.034782 -0.083476 -0.154245 0.099422 0.004489 0.059936 0.047365 -0.114978 0.053816 -0.055702 -0.00184 -0.072897 -0.102248 -0.089562 7.6E-4 -0.019302 0.056548 -0.086836 -0.317136 0.028696 0.035258 0.180164 0.170379 -0.03028 0.053334 -0.080353 -0.062281 0.174468 -0.131705 0.049609 0.159631 -0.058574 -0.089801 -0.038587 -0.001592 -0.126052 -0.111993 0.081373 -0.033031 -0.227569 -0.049212 0.075016 8.7E-5 -0.02541 0.065638 0.119082 -0.077241 -0.002513 -0.116225 0.268898 0.069817 0.050859 -0.053378 -0.149207 -0.010042 0.090943
0.0 0.0 0.0 0.0 0.0 0.0 0.0 0.0 0.0 0.0 0.0 0.0 0.0 0.0 0.0 0.0 0.0 0.0 0.0 0.0 0.0 0.0 0.0 0.0 0.0 0.0 0.0 0.0 0.0 0.0 0.0 0.0 0.0 0.0 0.0 0.0 0.0 0.0 0.0 0.0 0.0 0.0 0.0 0.0 0.0 0.0 0.0 0.0 0.0 0.0 0.0 0.0 0.0 0.0 0.0 0.0 0.0 0.0 0.0 0.0 0.0 0.0 0.0 0.0 0.0 0.0 0.0 0.0 0.0 0.0 0.0 0.0 0.0 0.0 0.0 0.0 0.0 0.0 0.0 0.0 0.0 0.0 0.0 0.0 0.0 0.0 0.0 0.0 0.0 0.0 0.0 0.0 0.0 0.0 0.0 0.0 0.0 0.0 0.0 0.0
0.20461 -0.166756 0.038146 0.047243 0.125238 -0.073833 -0.085065 0.00104 0.019704 -0.243412 0.016709 0.0694 -0.130919 0.200043 0.217566 0.002633 0.126128 0.095798 -0.079815 0.041479 -0.029584 0.147163 0.036164 -0.031427 -0.199607 0.047198 -0.004909 0.069272 0.195524 0.001992 -0.099026 0.003667 -0.048972 -0.019635 -0.013023 0.004434 0.018591 -0.032837 0.088044 0.050994 0.076305 -0.226519 -0.011972 0.11313 0.025772 0.085519 -0.037052 0.057438 0.107295 0.049766 0.00145 0.023882 0.146907 -0.167524 0.069246 -0.25554 0.04342 0.059759 -0.152636 0.136538 -0.097229 0.048584 -0.019764 0.099383 -0.06156 0.043025 0.007856 -0.042876 -0.144602 0.086851 0.016789 0.083486 0.079693 -0.05871 -0.020907 -0.048861 0.160337 0.148756 -0.068688 -0.041918 0.109307 -0.209784 -0.055152 -0.202888 0.12491 -0.026853 0.020186 -0.041216 0.003019 -0.025021 -0.207269 0.152877 -0.034352 0.170913 -0.007669 -0.084765 -0.014427 -0.005015 0.069233 0.097403
-0.252992 0.015788 -0.01815 0.029712 -0.027047 -0.135767 -0.126542 0.142393 -0.02574 0.164791 -0.032488 0.142469 0.242903 0.075552 -0.031947 0.19991 -0.009303 0.134848 0.00891 0.1513 -0.035289 0.175042 0.156984 0.048351 -0.165857 0.017655 0.046739 -0.043098 0.146381 -0.046003 -0.047821 0.038678 -0.075979 0.011307 -0.029411 0.058371 -0.041144 0.060654 0.008311 0.126837 -0.094714 0.170984 -0.057718 0.020396 -0.061307 -0.034433 0.011763 0.006595 -0.161961 0.078596 0.145135 -0.059072 0.056218 0.031076 0.018314 -0.077602 -0.037549 -0.127677 0.065814 0.020464 0.175423 -0.159869 -0.060585 -0.109239 -0.038293 -0.142071 -0.007594 0.084701 -0.049236 -0.077252 -0.179674 0.045942 -0.001507 0.058084 0.058292 -0.110776 -0.068909 0.059646 0.069916 0.044122 0.049889 0.106596 0.064933 -0.16808 0.057736 -0.015178 -0.074011 0.022065 0.086023 0.011132 -0.116709 -0.166425 0.125218 0.033574 -0.021244 -0.128461 0.044409 -0.046271 -0.048367 -0.064943
0.142855 2.096782 -0.44488 -0.186519 4.581101 0.368552 1.025096 -0.312802 -2.617651 -0.157005 2.963322 2.120705 -1.775955 -0.565663 0.972057 2.924774 -3.483148 -0.388176 -2.731071 -0.326463 1.005034 -0.173592 0.985748 -2.472826 -0.247049 -1.602126 -2.48254 -0.015307 0.921201 -0.634243 -0.734395 -4.469334 -2.338912 -3.86095 -2.404253 -1.170435 3.191081 0.66076 0.725646 -0.864367 -2.371157 -0.851367 -3.29822 -1.074393 -2.64488 2.784424 -0.996674 2.506345 2.15789 -2.159862 -0.441733 -0.926918 -0.098512 0.757891 -1.999629 -4.007104 0.387073 -3.003765 1.204233 -2.431844 -2.281004 -0.27222 1.915759 2.567541 -2.305997 0.668549 -1.469449 -4.443738 -0.244681 3.958085 3.663286 2.390184 0.145926 -1.914193 1.202993 0.085106 1.119028 1.764289 0.413107 1.270882 2.30135 -2.063297 -0.209725 -0.837978 1.54811 -1.075222 1.662849 3.024555 -0.817108 2.02425 0.827332 0.999754 -2.964958 -4.68355 2.112919 1.12159 -1.379614 1.011169 -1.034187 2.880255
3.635499 -2.667169 -0.727708 -3.593243 -0.549419 0.733175 0.172204 3.791371 0.328269 2.256884 -1.015368 -2.454698 -0.815327 0.355508 2.474531 -0.626027 0.396756 -3.61148 4.060195 3.372732 -1.01888 -1.349799 1.899754 -0.174013 0.991901 2.851184 0.899687 3.088529 -1.024262 -0.381274 3.254091 1.887557 1.562388 -0.149757 -0.764631 -2.263043 0.226559 -4.539397 -2.292776 2.572466 -0.324225 -7.833081 0.710472 4.044321 2.252584 -2.530319 -4.440532 0.373135 2.812138 2.085804 3.422953 2.060638 1.664619 3.298358 -2.076158 1.662752 3.041493 2.946475 0.282635 0.221192 1.692513 -2.742725 0.560522 -2.398551 -1.409133 1.550326 2.031772 3.358856 -0.618338 1.508416 0.222565 -0.139198 -1.081801 2.824209 0.08751 0.134733 -3.282505 -1.578565 -1.164992 0.083221 4.197984 0.047679 -1.182103 -2.255012 1.520627 0.216734 1.038363 0.444725 0.23736 -2.209961 0.307758 -1.676938 -0.71724 2.328923 3.411993 2.595394 1.158561 -1.974992 -3.019828 -1.602767
0.069355 -0.039597 -0.005989 -0.062185 0.022728 -0.165311 0.035234 -0.120425 0.132455 -0.128698 0.083455 0.01307 -0.224119 0.017696 0.110708 0.178055 -0.047257 0.143673 0.176347 0.049199 -0.101734 0.055208 0.102758 -0.040931 -0.159739 0.006094 -0.021728 0.087741 0.131223 -0.1361 -0.093542 -0.040734 -0.07027 0.14508 -0.057161 0.039198 0.070968 -0.045177 0.071631 0.020347 -0.001218 -0.027881 0.014169 -0.147398 0.002425 0.095469 -0.076174 0.005815 0.150788 0.003418 0.074724 -0.110043 -0.166538 -0.043396 -0.032079 0.103605 -0.152401 0.005723 -0.137949 -0.066454 -0.038214 -0.033129 0.084629 -0.108333 -0.013591 -0.01227 -0.097467 -0.192776 -0.040405 0.135597 0.004788 -0.067766 0.017649 0.025558 0.119741 -0.07408 0.068083 -0.066217 -0.098091 -0.324407 0.052583 -0.038355 -0.063136 -0.060229 -0.228332 -0.085798 0.014013 -0.1166 0.007 0.018169 -0.066404 0.030598 -0.015261 -0.13397 0.088973 0.049941 -0.032936 0.053388 0.0688 -0.063472
-0.001889 -0.015376 0.011577 -0.079922 0.019615 0.005975 0.018085 -0.133459 0.07886 -0.019014 -0.010821 0.041669 -0.011128 0.097962 -0.060935 0.042309 0.015014 8.49E-4 -0.002449 0.038756 0.0685 -0.030124 0.021652 -0.079703 0.075875 -0.122727 0.144977 0.073106 0.120718 -0.115022 0.047765 0.225363 -0.061747 -0.035103 0.080005 0.064342 -0.011293 0.032618 0.076202 0.118833 0.299047 0.176216 0.148892 -0.105455 -0.022399 0.118571 -0.05437 -0.136016 -0.04767 0.112361 0.012505 0.001737 0.056998 -0.132972 0.205737 0.014869 0.130993 0.242588 0.100312 0.073252 -0.019374 -0.073147 -0.042245 -0.05193 0.119558 0.067972 -0.198268 0.013905 0.103121 -0.09962 -0.010563 -0.219254 -0.117595 0.0375 -0.028297 0.03039 -0.116152 0.021365 0.041774 -0.247365 -0.187561 -0.063496 -0.088808 -0.029223 0.057963 0.069802 -0.07258 -0.052825 0.064478 0.040761 0.149345 0.085248 0.239559 0.137326 -0.140966 0.005439 0.083517 -0.02486 -0.028184 0.111642
-0.712057 0.466211 0.063591 0.086174 -1.255988 2.822991 2.076746 0.838774 -0.020671 -1.280441 1.179102 -1.753032 1.376135 0.882455 2.237254 1.983971 0.866371 2.591895 -0.269502 -0.286136 -3.406377 -0.009819 -0.394248 -1.190766 -0.403296 0.709212 0.116725 -0.666605 1.681637 0.990057 1.471824 -0.87375 0.531074 -0.153881 -2.91014 0.753966 -2.665062 -1.117472 -2.337228 -1.729195 -2.683231 -0.651913 0.514991 -2.911624 1.06297 2.151303 -1.372346 0.237424 1.273261 0.514875 -1.367583 3.708289 1.689892 1.139073 0.76024 1.034704 -1.965361 -0.918685 0.228013 2.049749 0.645334 -1.179384 0.972813 0.669267 1.481583 -0.667748 0.57514 -0.714184 -0.381661 -1.775352 -1.511462 0.523812 -2.714397 -1.051762 -2.676722 1.344343 0.740221 1.577323 -1.169534 1.013976 -0.837904 -0.788646 1.780799 1.81327 1.312842 -1.259174 0.378098 2.875814 0.217882 0.80454 -2.934274 -0.415746 1.106138 0.112843 -0.687791 -0.850835 -1.564319 1.301084 -0.965878 2.951018
-0.178936 -0.192764 0.075573 0.150693 -0.042812 0.132495 -0.176647 0.062991 -0.154226 0.220172 0.221315 0.09424 0.014913 0.108039 0.079981 0.159184 0.074498 0.323612 0.012016 0.151077 -0.175548 0.149917 0.142924 0.019112 -0.184264 0.007673 0.003304 -0.031312 0.123293 -0.138967 -0.086628 -0.014401 0.035468 0.132034 -0.18408 -0.020489 -0.104063 -0.004977 0.008863 -0.054165 -0.073857 0.229839 0.043295 -0.200457 0.080613 -0.020306 0.083804 0.009232 -0.218364 -0.065146 0.017359 -0.056747 -0.025991 0.083082 0.145593 0.024688 -0.001611 -0.09465 0.197719 -0.077646 0.056712 0.033799 -0.087356 -0.029315 0.02912 0.023557 0.192087 0.050005 0.096192 -0.151571 -0.048932 -0.075685 -0.125405 -0.105337 -0.096688 0.033679 -0.176306 -0.09797 -0.032725 0.049542 -0.168238 0.092661 -0.028402 -0.295054 0.172389 0.115648 0.046299 0.037743 0.25977 0.025974 -0.182473 0.030772 0.062572 0.067177 0.11439 -0.040999 0.086297 0.002247 -4.87E-4 -0.065335
0.011154 0.056992 0.047267 0.034761 0.070839 -0.065747 -0.041288 0.0466 -0.150118 0.00945 6.65E-4 -0.037946 0.007966 0.034481 0.009539 -0.066616 -0.252948 0.029422 -0.043187 0.1152 0.016403 0.257038 -0.123039 -0.063269 0.007996 0.138052 0.084362 -0.10093 -0.089597 -0.09896 0.230321 0.016168 -0.045103 -0.198231 -0.085654 -0.065834 0.244568 0.106442 -0.266893 0.043582 -0.110723 0.061013 0.056939 -0.004965 -0.086296 -0.032595 0.14 -0.108813 0.091368 0.237262 0.083437 -0.155858 -0.020775 -0.16532 -0.006719 -0.121437 -0.094145 -0.257008 -0.297467 0.068642 0.053369 0.187593 -0.170292 0.020182 -0.075853 -0.057738 -0.150644 0.053488 -0.024499 0.231306 0.250819 0.192501 -0.073531 0.041268 -0.062054 0.031945 0.019577 0.12862 0.005005 0.126328 -0.005085 0.036129 -0.083524 0.128441 -0.11892 -0.109323 -0.017536 -0.089555 0.182025 -0.170249 0.077674 0.142229 -0.028755 0.076358 0.062925 0.003933 -0.012566 0.044741 0.017979 0.154949
0.123128 0.094542 0.00866 0.003842 0.083525 -0.029676 -0.004349 0.073582 -0.079702 -0.186294 0.072116 0.121279 -0.042124 -0.045657 0.015076 -0.034362 -0.019354 -0.108557 -0.125121 -0.025237 0.112064 0.049577 -0.025545 0.091907 -0.119852 -0.016847 0.083066 0.109996 0.152657 -0.079594 0.082174 -0.00992 -0.053644 0.013384 -0.103663 0.011708 0.207781 0.047214 -0.078124 0.004755 -0.055197 -0.36104 -0.148694 0.032708 0.100245 0.041137 -0.17735 -0.047502 0.104532 -0.022641 0.024456 -0.041833 -0.042982 -0.026578 -0.039726 0.02266 -0.088943 -0.043542 0.040877 -0.07645 -0.095527 -0.096833 -0.051677 0.126153 -0.108962 0.034244 -0.066693 -0.030628 0.080151 0.165414 0.121042 -0.007095 0.102344 -0.008544 -0.06443 -0.096247 -0.034503 -0.257529 0.04461 -0.084618 0.088349 0.028353 -0.052116 0.020317 -0.008342 0.104288 0.146326 0.070713 0.102884 0.118751 -0.035691 -0.132432 -0.19816 0.024258 -0.029604 0.003755 -0.11819 0.059113 -0.064012 -0.005194
-0.064357 -0.033406 -0.006591 0.181457 0.041885 0.1408 -0.109843 0.016376 0.068228 -0.045519 0.005233 0.012036 0.05064 -0.052642 0.185426 0.139427 -0.155023 0.12963 0.063368 -0.055016 -0.054854 -0.018229 0.216037 -0.004417 -0.285826 -0.095238 -0.069825 -0.021777 0.187402 -0.130867 -0.00675 -0.075803 -0.044586 0.061098 0.044502 -0.138919 0.031721 -0.005549 0.063477 5.3E-5 0.101342 0.067759 0.180205 0.110423 -0.107152 0.014466 -0.095647 -0.001514 -0.13148 0.090497 0.038783 -0.236052 -0.139813 -0.061498 0.050517 -0.013343 -0.001507 0.083055 0.065801 -0.03321 0.124938 -0.104659 -0.042903 -0.049201 -0.088403 -0.030678 0.055664 0.085579 0.303591 -0.024133 0.025756 -0.085778 0.02809 -0.058313 0.028445 -0.065808 -0.182156 -0.019053 0.014958 -0.002839 -0.024485 0.159415 0.06125 -0.100844 0.111327 0.042033 0.023134 -0.078359 0.169092 -0.074151 -0.058673 0.083338 0.03916 0.23854 -0.125673 0.017002 0.129169 0.039082 0.127676 0.034378
0.135717 -0.065497 0.02281 0.048052 -0.011836 -0.09375 0.0016 -0.035631 -0.026011 -0.016446 0.147576 0.093555 -0.033806 0.001119 0.136647 0.086354 -0.119676 0.293363 0.140583 -0.140273 0.092999 0.105554 0.007309 -0.047042 -0.138044 -0.144529 -0.090671 0.023305 0.042831 -0.089424 -0.009516 -0.050607 -0.11973 0.043476 -0.110033 -0.070775 0.210602 -0.044688 0.047415 0.07877 -0.058849 0.123783 -0.083304 0.146343 -0.016713 -0.014302 -0.083131 -0.029171 -0.052871 0.027786 -0.056479 -0.019677 -0.067362 0.060823 0.051262 -0.094924 0.099503 0.030649 0.106531 -0.086298 0.023543 -0.100214 0.036796 -0.033757 -0.018593 0.054249 -0.041703 -0.048402 0.151764 -0.052203 -0.028287 0.059596 0.03622 0.059919 0.042116 -0.083798 0.077838 -0.039275 -0.10326 -0.058138 -0.047792 -0.041267 0.071076 -0.034964 0.077873 0.115244 -0.016893 -0.059243 0.145701 -0.018047 -0.084552 -0.05323 0.136246 0.034465 0.051731 -0.033088 0.142559 -0.100828 -0.127029 -0.153227
0.121946 -0.114433 0.109071 0.069787 -0.019381 0.063172 0.112669 -0.042137 0.033772 0.06339 0.215291 0.046854 0.00635 -0.118132 0.220089 0.119096 -0.068947 -0.059674 -0.013392 -0.049424 0.031489 0.128941 0.331774 -0.04243 -0.125401 -0.025584 -0.013325 0.055875 0.142686 -0.119738 -0.134164 0.150108 0.191266 -0.010252 -0.160831 -0.056492 -0.165135 -0.059579 -0.197443 0.030543 -0.109457 -0.01325 0.133868 0.098473 0.164959 -0.025554 -0.151097 -0.04284 0.075594 -0.051548 0.216984 -0.019144 -0.250418 0.043659 0.170228 -0.112474 -0.159047 -0.074607 -0.07561 0.008897 0.061891 -0.163442 -0.046261 -0.15469 0.06934 0.013308 0.067802 -0.052971 0.065061 -0.179911 -0.106993 -0.008123 -0.007806 -0.08102 0.062935 -0.022047 -0.055032 0.051841 -0.081971 -0.004302 -0.06202 0.081596 0.026581 -0.295365 0.090229 0.055836 0.060268 -0.006697 0.116929 0.068167 -0.203798 -0.039725 -0.084483 -0.114194 0.070611 -0.1321 -0.03967 -0.088821 0.157823 -0.047708
-0.18255 1.260997 -2.937011 0.741657 0.301679 0.127472 -1.176587 -0.021752 -0.742262 0.233798 0.429781 0.975995 -2.798835 -0.781561 1.800542 0.765993 -3.833084 -2.428071 0.125751 -1.292969 -1.471998 -2.224791 0.887228 -1.830926 -0.837093 -2.394116 -1.028549 0.925758 -1.10665 0.315067 -1.693757 -2.444497 -0.471722 0.598476 -1.04198 0.63184 3.217104 -2.250083 3.737814 -1.932973 0.831435 0.463103 0.949557 -0.956962 -0.488984 1.741216 -3.862303 -0.431256 2.7532 -0.958319 1.58654 -0.182633 -0.680963 2.230035 -1.865555 0.565095 0.376398 0.346151 -0.855264 -2.866216 -1.228112 1.069066 1.567339 0.020816 1.000839 -0.97259 1.037177 -0.604886 1.044482 0.383741 2.476696 0.014949 -2.869114 -1.993708 -1.370498 -1.618366 1.959962 0.624031 -2.814246 -1.413119 2.512324 -0.979847 -1.204673 1.534497 0.90827 0.682642 1.511776 0.258177 -0.760564 0.513091 3.074975 -1.611095 -0.088312 -0.38557 -0.714002 -0.178161 1.209946 -0.16744 0.076855 4.005261
-0.109578 -0.116051 0.072615 -0.008678 0.024475 0.007829 0.054949 0.043533 0.061581 -0.148399 0.081042 0.077007 -0.148948 5.17E-4 0.105476 0.004987 0.323816 0.189784 0.039504 -0.011534 -0.052172 0.282304 0.269781 -0.012112 -0.124448 -0.180954 -0.004992 0.019056 0.209683 -0.248978 -0.053078 0.031661 -0.054061 0.043274 -0.051943 -0.1344 0.026995 -0.01569 0.143799 0.078041 -0.08587 -0.08851 0.022671 0.053782 0.069945 0.008524 0.012632 -0.100996 0.039349 0.038344 0.074509 -0.262194 -0.105649 -0.065764 -0.031049 -0.039731 -0.043326 -0.012097 -0.024479 -0.106941 0.134074 -0.167095 -0.167838 -0.1931 -0.041079 -0.188072 -0.224557 -0.014146 0.064438 -0.149521 -0.124402 0.026644 -0.18279 0.091089 0.002288 -0.009375 -0.001451 -0.008201 -0.156549 -0.078273 0.022374 0.088716 0.176215 -0.09591 0.033117 0.023364 0.177376 0.029618 -0.031073 0.133751 0.02805 0.059429 -0.08081 0.128327 -0.010754 -0.080718 -0.028664 -0.094992 -0.05047 0.047393
3.7985 -1.082345 -4.582426 1.327267 -0.939029 -0.880345 2.582878 0.192085 0.933729 -5.657293 -1.916441 2.467584 0.449633 0.407017 -4.630371 -0.604018 -3.41299 0.29008 -1.614277 -2.756587 -2.714086 -0.93234 0.069074 3.818598 5.539465 -2.931416 1.378435 -0.195403 2.886121 -2.359724 0.419635 0.777901 -1.604804 1.945421 -0.395707 -0.023051 4.087409 -0.366329 -3.355318 -3.952479 -0.50245 -2.18653 3.143122 1.423101 -0.935942 3.468551 -0.549373 -2.844957 -3.095131 -0.789162 -1.201739 -2.336129 -0.953368 -0.622454 -2.972632 -2.495876 -1.663108 -1.168824 -1.361565 1.320152 2.4282 0.900589 0.48678 -1.736467 -2.532431 3.04529 -2.053399 -1.172469 -0.188753 2.497536 0.264387 0.919128 0.837184 -1.662081 -2.185893 -1.944731 3.785047 -1.521675 -2.033386 -0.201458 2.984529 0.574114 2.144407 -2.264628 0.40968 -2.835506 2.241655 1.827251 1.661657 1.329415 2.120007 -1.123921 -2.93135 0.178893 1.060819 6.466646 1.892551 -3.670969 -0.687867 0.674772
-0.895303 -0.502746 0.147086 2.904988 -0.675229 1.477504 -0.211327 1.51698 -2.147745 0.077825 0.657474 0.336427 -0.182904 2.021077 1.53094 0.325635 -0.047374 -2.785726 -1.39518 -0.637063 1.116796 -2.131305 0.770024 -0.805966 0.153579 -0.018533 2.44098 0.274999 2.270784 3.614658 -0.441323 -1.945492 -0.62354 -1.969077 1.187036 0.839384 0.164427 -1.148598 -1.252852 -0.377287 -4.000254 -4.203346 -0.586959 2.467858 -2.415704 0.576514 -2.688904 4.370127 1.506845 2.96571 3.338651 1.26166 2.386784 0.372135 -1.799138 0.595625 -3.029104 3.108212 0.190521 -2.252167 3.892553 0.691249 -0.469749 0.767359 2.533747 1.575118 1.805351 -3.822411 1.665001 1.26934 4.12885 1.705492 0.020874 0.84653 -2.29268 -0.52015 0.773216 -1.309162 2.02159 3.238193 0.049248 0.063972 2.777138 0.104812 -1.695828 0.423193 0.046516 2.836035 -2.161154 -1.835464 2.061084 -4.626534 -2.674416 -0.353638 -1.614879 0.743406 -2.551022 1.850807 1.280547 -1.626849
-0.052715 0.030158 0.136844 -0.03387 0.162279 -0.236489 -0.164431 -0.02774 -0.147535 0.095072 0.232785 -0.100971 0.009202 -0.10619 0.224463 0.340552 -0.056333 0.066304 0.002897 0.130616 0.124428 0.084831 0.255403 0.018743 4.19E-4 -0.314778 -0.079744 -0.005411 0.088464 -0.120358 -0.013301 -0.092477 -0.23561 -0.052042 -0.074716 -0.026331 0.031857 -0.313645 -0.154365 0.121601 -0.110614 0.116141 0.022029 0.004028 0.060204 -0.22172 -0.143335 0.008842 -0.020048 0.022271 0.22899 -0.163363 -0.051564 -0.001669 0.276544 -0.137549 -0.064503 -0.059482 0.160105 -0.150723 0.088751 -0.209675 0.065276 -0.087901 -0.16786 -0.099004 0.083514 0.137946 0.033013 -0.064865 -0.103352 0.12822 -0.056901 0.013549 0.04702 -0.169443 -0.061673 -0.172435 0.025399 0.062463 0.101895 0.096781 0.105911 -0.098942 0.181678 0.124183 -0.022112 0.045184 0.29382 0.141936 -0.159653 0.015474 0.055617 0.016145 0.176934 0.101546 0.093998 -0.214703 0.010821 -0.207471
-0.263574 -0.344594 0.155568 0.098486 0.081859 4.89E-4 -0.168783 -0.05948 0.047323 -0.094014 0.124272 0.008593 0.0414 0.097132 0.127011 0.286929 -0.02574 0.164917 0.052541 -0.013662 -0.043512 0.176992 0.240602 0.272417 -0.285572 -0.144861 0.07971 -5.39E-4 0.295184 -0.168851 -0.078543 -0.092971 -0.082747 0.041314 -0.01454 -0.022157 -0.074168 0.061321 0.120938 0.059008 -0.113287 -0.112643 -0.137887 0.178535 0.044067 0.07936 -0.090875 -0.18216 -0.182937 0.069272 0.139831 -0.072557 -0.155471 -0.034969 0.015259 0.125026 -0.105017 -0.291953 0.058087 -0.151181 0.023625 -0.134199 -0.141587 -0.273453 -0.145733 -0.168573 0.009331 -0.023726 0.009058 -0.176706 -0.00893 -0.008848 -0.053213 -0.03683 0.211519 -0.023676 -0.104283 -0.071208 -0.014334 -0.190968 0.079555 0.093714 -0.006853 -0.151025 -0.100793 -0.042053 -0.123549 0.051212 0.133056 -0.012851 -0.235939 -0.014075 -0.123988 0.235623 -0.029136 0.014416 -0.073796 -0.093494 -0.060052 -0.116181
0.352905 0.550922 -1.128945 -0.511125 0.774489 1.405335 -0.371647 0.106012 -0.779785 -0.640302 -0.68578 1.570717 -0.712288 -0.706705 -0.789609 -0.045278 -1.599722 -2.840112 -0.089543 -1.158838 -1.862605 -0.62748 -0.063542 -0.468696 0.750564 0.033551 -0.772222 -0.188991 -0.163115 0.455978 0.038455 -0.779588 0.172303 -1.114448 -0.548246 -0.008155 1.66721 -0.744821 -0.15746 -2.668482 -0.304702 -0.905716 0.479063 0.151803 -0.94063 -0.044338 -0.906122 -0.456182 0.281891 0.268287 0.47007 0.628019 0.328428 1.471286 -2.345457 0.072073 -0.345477 -0.998199 -1.496897 -0.053061 0.351206 -0.934426 0.295591 0.07336 0.24092 0.486976 0.390085 -0.621556 0.375246 -0.02625 1.957847 1.014101 0.004675 0.08874 -0.900479 -0.462149 0.922254 1.355385 -1.048724 0.105897 1.254466 0.410718 0.321258 1.066395 -0.171761 -0.128774 0.315556 0.697301 -0.180925 0.555334 1.005586 -0.891677 -1.232923 -1.994189 -0.567812 0.204184 -0.947385 -0.051526 -0.987029 0.725141
-0.134008 -0.036238 0.101819 0.06978 -0.145865 -0.11309 -0.163883 -0.247747 -0.146164 0.193955 -0.051005 0.077787 -0.090948 -0.019506 0.03762 0.109274 -0.186923 0.113068 -0.090135 -0.10643 0.04886 0.298286 0.155327 0.059199 0.138458 -0.017476 0.036106 -0.046772 0.004943 -0.02638 0.067951 0.115696 -0.14996 0.043632 -0.1831 0.03796 0.093955 -0.153344 -0.259589 -0.106328 -0.084317 0.174354 0.166607 -0.048267 -0.075681 -0.092909 0.019737 0.073501 -0.119044 0.354156 0.04165 0.064732 -0.045174 -0.111477 0.072813 0.085033 0.143712 -0.014393 0.058013 -0.233979 -0.036168 -0.17949 0.005496 -0.108741 -0.210584 -0.144125 0.11685 0.11331 0.155707 0.156336 -0.052404 -0.018173 0.098398 0.03714 0.121746 0.074775 -0.161222 0.01243 -0.237337 -0.099386 0.093821 0.035655 0.158608 -0.17074 -0.082466 -0.143209 -0.134011 -0.007119 0.162059 0.181588 0.049815 0.034453 -0.093726 0.060205 -0.036982 -0.140768 0.023987 -0.092753 -0.052416 0.060204
-0.284848 0.082235 0.113352 0.030639 -0.164881 0.128437 -0.133941 0.119567 -0.046881 0.056134 -0.016288 1.22E-4 0.016033 0.069598 -0.025255 -0.024748 -0.192435 0.003466 0.018549 -0.011558 -0.142259 -0.059655 -0.03881 0.054848 -0.158702 -0.006384 0.090654 0.001003 0.053779 0.014847 -0.184539 -0.129095 -0.09383 -0.043162 0.004168 -0.111898 0.043134 0.043075 -0.140724 0.187056 0.163781 0.104665 0.115133 0.157366 0.086187 0.067832 0.037513 0.053012 -0.088916 0.041341 0.062205 0.050291 -0.214657 -0.01789 -0.043426 9.87E-4 -0.177344 0.2302 0.009498 -0.114376 -0.163538 0.013765 0.117126 -0.052701 -0.314903 -0.028113 -0.1125 0.158394 -0.309302 0.105325 -0.051897 -0.090511 -0.058253 0.136963 0.015243 0.024239 0.00939 0.096799 -0.186318 0.092793 0.022643 0.149871 0.101272 0.155272 0.11398 -0.128249 0.019516 0.028125 -0.014109 0.140507 0.064242 0.001189 -0.047523 0.124843 -0.056399 -0.038517 0.048198 0.070628 -0.105049 0.014504
-0.194608 0.670805 3.228876 0.074048 -0.746617 -0.355281 -1.048937 -3.42139 2.383536 -1.171273 -0.425413 -2.749274 0.812927 -2.23809 -0.326577 -0.474623 0.626559 1.025672 2.835331 3.586387 1.654261 -0.015286 1.785553 0.762891 -0.821269 1.830849 0.985728 0.157649 -0.55866 1.166607 0.28408 2.758804 -1.654595 -3.205355 -0.321677 1.941762 5.662018 1.343174 -1.054397 2.120903 -0.79405 -1.786683 -1.375434 -1.617941 1.419778 -0.340575 -0.409104 0.171068 -2.790051 2.066724 3.717684 -0.034165 1.885321 2.229779 -1.422355 -1.354273 3.051089 1.592216 1.477431 -0.652922 0.214102 1.403067 0.183465 2.905461 2.223591 1.038301 1.346009 -1.654788 0.234466 0.944958 -0.042091 0.254567 -1.960639 1.413497 -2.841872 -2.92751 1.977542 -1.06384 0.549165 2.779191 3.595127 1.124422 -1.046322 -1.649882 2.200485 -1.916381 -2.554439 -0.595264 -5.413884 1.409688 -2.499954 0.187744 -4.306823 -1.144737 -4.010971 0.632726 0.112888 1.12193 2.870173 0.612354
0.352905 0.550922 -1.128945 -0.511125 0.774489 1.405335 -0.371647 0.106012 -0.779785 -0.640302 -0.68578 1.570717 -0.712288 -0.706705 -0.789609 -0.045278 -1.599722 -2.840112 -0.089543 -1.158838 -1.862605 -0.62748 -0.063542 -0.468696 0.750564 0.033551 -0.772222 -0.188991 -0.163115 0.455978 0.038455 -0.779588 0.172303 -1.114448 -0.548246 -0.008155 1.66721 -0.744821 -0.15746 -2.668482 -0.304702 -0.905716 0.479063 0.151803 -0.94063 -0.044338 -0.906122 -0.456182 0.281891 0.268287 0.47007 0.628019 0.328428 1.471286 -2.345457 0.072073 -0.345477 -0.998199 -1.496897 -0.053061 0.351206 -0.934426 0.295591 0.07336 0.24092 0.486976 0.390085 -0.621556 0.375246 -0.02625 1.957847 1.014101 0.004675 0.08874 -0.900479 -0.462149 0.922254 1.355385 -1.048724 0.105897 1.254466 0.410718 0.321258 1.066395 -0.171761 -0.128774 0.315556 0.697301 -0.180925 0.555334 1.005586 -0.891677 -1.232923 -1.994189 -0.567812 0.204184 -0.947385 -0.051526 -0.987029 0.725141
-0.106341 -0.025289 0.157226 0.106303 -0.064191 -0.015422 0.02183 -0.201887 -0.20022 0.174283 0.013857 0.151936 -0.009764 -0.223386 0.215892 0.2408 -0.262426 0.13532 -0.002108 0.034819 -0.240437 -0.054872 0.330481 0.148716 -0.094321 -0.177818 -0.037123 0.07564 0.122848 -0.107913 0.271694 -0.071245 0.104644 9.81E-4 0.06236 -0.164833 -0.054743 0.111512 0.048259 0.143544 0.072079 0.171577 -0.185646 -0.01255 -0.094527 0.090179 0.103905 -0.036786 -0.113203 0.101057 0.038785 -0.166722 -0.128686 -0.001722 -0.008042 0.093033 -0.098051 0.137199 0.057306 -0.108044 -0.096114 -0.052395 0.109156 -0.151131 -0.019481 0.023731 0.211998 0.071898 0.059129 -0.017931 -0.039928 0.093964 0.074493 -0.03889 -0.061817 0.016564 -0.067137 -0.057543 -0.065775 0.044227 -0.040103 0.004787 0.208697 -0.010734 0.114186 -0.076814 -6.95E-4 0.025397 0.079562 0.040976 -0.18823 -0.029984 0.117031 0.046316 0.016547 -0.078767 0.128991 -0.188737 -0.184088 0.050991
-0.110652 -0.01737 -0.137894 -0.02839 0.212961 0.050575 -0.027647 0.104 -0.032171 -0.012953 0.26789 -0.165361 0.099874 -0.020781 -0.042672 -0.001875 -0.193023 -0.074393 0.00982 -0.158587 -0.022072 0.018959 -0.025409 -0.162434 0.029765 -0.124302 0.028101 0.040986 0.008205 0.127993 -0.08742 -0.111403 0.002278 0.185132 0.179703 -0.02229 0.072929 -0.11285 0.235056 0.002676 -0.014039 -0.107414 0.053678 0.242713 -0.172343 0.107406 -0.002096 0.048325 -0.177546 -0.12262 0.115456 0.01124 0.053629 0.063105 -0.280782 0.076459 -0.026453 0.042783 0.077182 -0.274351 -0.121066 -0.024512 -0.132134 -0.08571 -0.01157 0.07652 0.02953 -0.015412 -0.133182 0.138455 -0.063469 -0.004094 -0.093012 0.024155 -0.004378 -0.079439 -0.075428 0.020746 0.008863 0.089285 0.057719 -0.023499 -0.002595 0.106513 0.144071 0.088283 -0.060024 -0.053846 0.185782 -0.132641 0.062285 -0.030909 0.156899 -0.014894 -0.036211 0.063523 0.044588 0.070534 -0.06575 0.090428
0.082332 -0.109743 -8.73E-4 0.077113 0.046778 -0.01361 -0.006551 0.006092 0.029133 -0.002869 0.149335 0.06824 -0.146933 0.061252 0.295882 0.123003 -0.187134 0.014614 0.047902 -0.126929 0.163152 0.024333 0.088422 -0.086094 0.115652 -0.102063 -0.014904 0.180929 0.163899 -0.141022 0.001863 -0.213674 -0.004402 0.109629 -0.073622 -0.052854 0.305289 -0.025354 -0.042468 -0.251332 -0.043167 0.096683 0.049325 0.131081 -0.123704 -0.022362 0.193679 0.040254 -0.109903 -6.46E-4 -0.118323 0.021881 -0.063654 0.137626 -0.016584 -0.191848 0.012125 0.059385 0.003994 -0.15648 0.008299 0.038937 0.038594 0.111877 -0.146309 0.026179 0.064832 -0.097243 0.147166 -0.041882 -0.059533 0.042271 -0.002152 -0.029193 -0.051673 0.024828 -0.149665 -0.08096 -0.190599 0.011347 -0.076659 -0.047934 0.01922 -0.089726 0.038015 0.101788 0.231871 -0.058869 -0.020759 -0.093401 0.096654 -0.126691 -0.044389 0.04901 -0.041477 -0.016716 0.13784 -0.081254 0.160828 0.117059
2.109678 0.690136 -0.545 -0.830999 0.995201 0.064784 -0.458576 1.363052 2.120223 -0.851362 0.93129 0.619166 -1.263631 0.354207 1.354058 -1.1798 -0.386972 0.333918 -0.537101 -1.864474 0.674518 -1.205797 -0.45147 -0.700799 0.657579 -0.772728 2.03411 4.333917 2.35857 0.074233 0.245767 2.08775 1.768356 1.074105 2.155479 -2.959731 0.331959 -3.361838 2.226252 2.427867 0.738796 -0.531131 1.103719 -3.341216 0.943669 -1.148409 -0.85593 3.167121 -1.390474 2.0125 2.690305 0.079778 -1.734017 0.302356 0.310915 0.953546 0.341462 -0.159874 2.693263 -1.304537 -0.248335 -0.512696 0.262661 -1.273663 0.353424 -0.180182 1.138703 -0.171617 0.130237 -0.345662 -1.557081 -2.056346 1.780258 0.094674 0.986672 -0.836889 0.513439 -2.37097 -0.742467 0.96098 0.200721 -2.029745 1.16585 -1.622879 0.061109 -0.161688 -0.663717 1.638245 1.912167 -0.768903 1.183685 -0.049418 -1.376598 -0.235922 2.525017 1.465748 -0.768889 -0.455502 -1.616328 -0.319291
0.135717 -0.065497 0.02281 0.048052 -0.011836 -0.09375 0.0016 -0.035631 -0.026011 -0.016446 0.147576 0.093555 -0.033806 0.001119 0.136647 0.086354 -0.119676 0.293363 0.140583 -0.140273 0.092999 0.105554 0.007309 -0.047042 -0.138044 -0.144529 -0.090671 0.023305 0.042831 -0.089424 -0.009516 -0.050607 -0.11973 0.043476 -0.110033 -0.070775 0.210602 -0.044688 0.047415 0.07877 -0.058849 0.123783 -0.083304 0.146343 -0.016713 -0.014302 -0.083131 -0.029171 -0.052871 0.027786 -0.056479 -0.019677 -0.067362 0.060823 0.051262 -0.094924 0.099503 0.030649 0.106531 -0.086298 0.023543 -0.100214 0.036796 -0.033757 -0.018593 0.054249 -0.041703 -0.048402 0.151764 -0.052203 -0.028287 0.059596 0.03622 0.059919 0.042116 -0.083798 0.077838 -0.039275 -0.10326 -0.058138 -0.047792 -0.041267 0.071076 -0.034964 0.077873 0.115244 -0.016893 -0.059243 0.145701 -0.018047 -0.084552 -0.05323 0.136246 0.034465 0.051731 -0.033088 0.142559 -0.100828 -0.127029 -0.153227
-0.167083 -0.107108 0.179851 0.109552 -0.024213 0.229157 -0.075334 -0.070437 -0.095383 0.224548 0.109642 0.033348 -0.067277 0.172258 0.1025 -0.097087 0.07275 0.08372 -0.048898 0.027978 -0.092038 0.129573 0.121068 -0.016639 -0.051471 0.206066 -0.057988 -0.03292 0.161717 -0.096696 -0.254576 -0.039036 0.243231 0.132109 0.006361 0.039556 -0.111924 -0.13768 -0.026979 0.009431 0.032213 0.298426 0.011437 -0.207073 0.049479 0.133506 0.130962 0.042425 -0.12671 -0.055215 -0.040495 -0.081002 -0.0113 0.131594 0.136972 0.066241 -0.142628 0.006467 0.082331 -0.023632 0.12726 -0.08866 -0.004003 0.125163 0.172583 0.066611 0.037084 0.379506 0.156894 -0.038809 -0.05146 -0.216693 0.014711 -0.345933 -0.145663 0.265907 -0.165782 -0.251349 0.045053 0.094664 -0.003293 0.027445 -0.371954 -0.293996 0.223192 0.186416 0.033611 0.26388 0.406974 -0.063905 -0.0194 0.070162 0.237415 -0.230282 0.156302 0.152369 -0.00777 0.17857 0.087777 -0.019579
-0.100536 -0.049864 0.130206 -0.049731 -0.042941 -0.032091 -0.064091 0.108566 -0.059113 0.016186 0.090179 0.075443 -0.067953 -0.011079 0.13148 0.00617 -0.112359 0.073998 0.241716 0.119249 -0.08097 0.047562 0.095701 -0.08766 -0.049792 0.050357 -0.046013 0.01235 -0.109682 -0.080465 -0.131787 -0.099841 0.047698 0.13177 -0.112354 -0.111422 -0.075306 0.035333 0.11044 0.153253 -0.10884 0.129701 0.023678 0.040154 0.049655 -0.102259 -0.006475 -0.118121 -0.071722 -0.007759 -0.084045 -0.034862 0.002983 -0.09286 -0.066786 -0.12839 0.05938 -0.082218 0.038846 -0.05921 0.095984 -0.036154 0.046281 -0.156993 -0.221218 -0.030603 0.07015 -0.124411 0.133795 0.036911 0.017639 0.084227 -0.038401 -0.027062 -0.088096 0.029048 -0.06855 -0.005337 -0.01606 -0.054779 0.131409 0.210188 0.010738 -0.053459 -0.106127 0.131147 0.087429 -0.065199 0.099535 -0.074751 -0.113806 -0.011074 -0.057863 0.103176 -0.082159 -0.063912 0.032556 -0.199189 -0.124562 -0.041265
-0.001889 -0.015376 0.011577 -0.079922 0.019615 0.005975 0.018085 -0.133459 0.07886 -0.019014 -0.010821 0.041669 -0.011128 0.097962 -0.060935 0.042309 0.015014 8.49E-4 -0.002449 0.038756 0.0685 -0.030124 0.021652 -0.079703 0.075875 -0.122727 0.144977 0.073106 0.120718 -0.115022 0.047765 0.225363 -0.061747 -0.035103 0.080005 0.064342 -0.011293 0.032618 0.076202 0.118833 0.299047 0.176216 0.148892 -0.105455 -0.022399 0.118571 -0.05437 -0.136016 -0.04767 0.112361 0.012505 0.001737 0.056998 -0.132972 0.205737 0.014869 0.130993 0.242588 0.100312 0.073252 -0.019374 -0.073147 -0.042245 -0.05193 0.119558 0.067972 -0.198268 0.013905 0.103121 -0.09962 -0.010563 -0.219254 -0.117595 0.0375 -0.028297 0.03039 -0.116152 0.021365 0.041774 -0.247365 -0.187561 -0.063496 -0.088808 -0.029223 0.057963 0.069802 -0.07258 -0.052825 0.064478 0.040761 0.149345 0.085248 0.239559 0.137326 -0.140966 0.005439 0.083517 -0.02486 -0.028184 0.111642
