-0.033257 -0.162097 0.13411 0.039813 -0.073992 0.017075 -0.169111 -0.121521 -0.115767 0.060205 0.146022 0.234442 -0.006155 -0.113924 0.185298 0.31845 -0.100185 0.267324 0.039266 -0.01525 -0.196147 0.10478 0.240946 0.177602 -0.317726 -0.114042 -0.111408 -0.078188 0.208757 -0.224511 0.072162 -6.77E-4 -0.223879 0.071993 -0.14613 -0.087636 0.065796 0.02258 0.001129 0.100649 -0.109737 0.134084 0.014364 0.099134 -0.003362 -0.142559 -0.08398 -0.037837 -0.240164 0.13154 0.213635 -0.166226 -0.048227 0.094661 0.061116 -0.132845 -0.036053 -0.024422 0.036178 -0.174638 0.152231 -0.218319 -0.051459 -0.229002 -0.129825 -0.044481 0.040229 0.108288 0.093562 -0.132749 -0.054003 0.029842 -0.058089 0.020125 0.083665 -0.133539 -0.133389 0.012901 -0.133079 -0.11323 -0.086125 0.191948 0.141568 -0.230764 0.068525 0.071524 0.161116 0.104336 0.313751 0.177916 -0.258543 -0.071745 -0.032732 0.165193 -0.15537 -0.168011 0.106084 0.049426 0.022456 -0.107396
-0.094187 -0.04781 -0.105289 -0.024473 -0.070308 0.044785 -0.005661 -0.10267 0.00485 0.037219 0.129074 0.279348 0.11434 -0.266823 0.025878 0.100118 -0.033246 0.135023 0.116859 -0.139288 0.039945 0.062695 0.22975 0.16266 -0.066716 -0.156651 -0.215567 0.087975 0.112238 0.01478 -0.170726 -0.046063 -0.15568 0.071871 -0.038068 -0.041654 0.092456 0.029107 0.21107 0.162743 -0.070348 0.255676 0.121385 0.116763 -0.021566 -0.027922 0.062348 -0.004723 -0.34902 -0.01785 0.327266 -0.184676 -0.035946 -0.013574 0.04243 -0.119244 0.04198 0.065372 0.120123 -0.065071 0.025326 -0.33898 0.028795 -0.038624 -0.118586 -0.031261 0.051654 -0.037551 0.060803 -0.098007 -0.139207 0.060746 -0.024772 0.005862 -0.013813 -0.058966 -0.18722 -0.061767 -0.042274 -0.142357 0.087845 0.155802 0.058432 -0.19419 0.118858 -0.084112 0.045545 0.032071 -0.08809 0.117658 -0.11899 0.048392 -0.021535 0.032389 0.010311 -0.057461 -0.018416 -0.203106 0.036754 -0.059333
-0.037151 -0.002003 -0.152921 -0.223158 0.150566 0.054069 -0.08798 -0.121763 0.066604 -0.006275 -0.063105 0.201565 -0.0514 0.142631 -0.095113 0.075694 0.059189 0.109492 0.169774 -0.072059 -0.139055 -0.017735 0.314985 0.04238 -0.12966 -0.196735 0.051193 0.044206 0.061704 -0.076859 -0.007435 0.081922 -0.028696 0.162639 -0.301052 -0.03406 -0.006239 -0.210075 0.001273 -0.112828 -0.143292 -0.031083 -0.045281 0.169069 -0.033442 0.008069 0.012534 0.01673 0.087701 0.044399 0.112794 -0.030651 -0.142712 0.076924 -0.041577 0.027046 -0.072232 -0.115699 -0.055435 -0.065369 0.021023 0.022796 -0.003838 -0.10981 0.010809 0.023372 -0.108725 -0.049849 -0.076814 -0.017167 0.057123 0.01648 0.144857 0.004895 0.036943 0.028962 -0.00937 0.087117 -0.050739 -0.185548 0.125898 -0.075067 -0.012896 -0.123712 0.06058 0.307677 0.096029 -0.015388 0.047958 0.170261 0.055376 0.121804 0.14165 -0.047726 0.013796 -0.11749 -0.178751 -0.161077 -0.015763 -0.079665
0.117168 -0.081261 -0.21121 -0.066731 -0.275521 -0.130438 -0.046803 -0.273643 -0.150722 0.128034 0.022846 0.025637 0.017576 -0.037796 -0.006386 0.181461 0.040128 0.176475 0.001647 0.03528 0.070044 -0.024315 0.215394 -0.130377 -0.154997 0.123641 -0.07993 -0.058194 0.148347 -0.018316 0.156754 -0.072208 0.001166 -0.053391 0.028107 0.083249 0.022714 -0.070362 -0.004466 0.162951 0.050816 0.152059 -0.164474 -0.096015 0.09615 -0.187866 0.132109 -0.009701 -0.10345 -0.013038 -0.027891 0.111158 0.060939 0.107792 0.130701 -0.200889 0.071201 -0.114933 8.7E-5 0.031794 0.016418 -0.117627 -0.056679 -0.001196 0.089719 0.159084 0.137783 -0.070769 -0.035414 0.08029 -0.036544 0.101405 -0.025484 -0.201066 -0.02413 -0.047368 0.018007 -0.073843 0.064688 0.001593 0.200226 -0.006609 0.254566 0.024887 -0.033327 0.160618 -0.001714 0.167928 -0.14361 -0.241829 -0.169614 -0.106336 0.004607 -0.019156 0.065673 0.113677 0.125263 -0.012755 0.004842 0.018239
3.578956 0.159605 2.102367 2.714721 3.497515 3.118895 1.755325 1.5296 0.783871 -0.915536 -1.011759 -0.316408 1.4355 0.602611 -1.988376 1.35069 1.292083 -2.344223 -2.736323 -0.097093 -0.807743 0.129906 0.678773 -0.587899 0.026181 -0.752963 -0.391208 -1.604133 -0.958226 -0.33824 2.706404 -1.784793 0.555609 -0.842447 -1.661224 1.217676 1.936842 1.282484 -0.264554 -0.633209 0.120974 -0.623031 -0.165239 -0.393347 1.498223 0.774328 -1.67321 -0.162562 0.978371 0.412137 0.63612 0.082214 -2.29502 -0.946992 -3.741277 -0.960746 2.622686 1.552067 -0.44978 -1.169253 0.693454 1.641689 1.800201 -1.378842 2.39772 1.858744 0.601188 0.337861 -1.171013 0.20535 2.562288 1.181219 -1.351923 1.288447 -1.593278 -0.645582 -2.129761 1.615468 -2.134105 0.581986 -0.186998 1.21238 -0.793882 0.937819 1.717523 -0.683628 0.044147 -0.9684 1.026075 -0.815664 -1.112748 1.36191 1.603331 -1.565987 -1.408812 -0.250237 -0.904511 3.136981 -1.095614 1.362779
2.509146 -0.552161 1.034535 1.378933 0.121525 1.267112 -0.264166 1.44874 -0.585351 0.814742 -0.556444 -0.769829 0.721693 3.504652 2.522097 0.698651 -2.00194 1.27341 -3.938691 -1.249814 1.206217 2.236896 -2.105178 2.803302 0.476807 1.734094 -0.304557 -1.727252 -6.730148 2.015861 7.327693 -2.709538 -0.991304 -4.232084 -1.93599 -1.471528 -0.332715 -1.233527 -6.406514 0.046641 0.97283 -0.994667 1.86544 -0.041745 -2.464909 -0.251897 -0.88735 0.232848 -2.86783 -0.039329 0.834739 1.260419 0.129091 -0.430997 -3.704259 -2.831278 0.963296 -3.750342 -1.569821 1.286868 -3.171957 -2.014259 1.227737 0.595818 0.410501 1.398568 -0.483599 -3.157001 2.474234 2.699517 2.327858 -3.891064 -0.294445 1.084606 0.59068 -0.277707 -0.669147 2.024913 0.165398 2.562466 2.359209 -3.092515 -1.052526 -1.255511 1.589703 -4.733644 -0.797907 -0.877859 -0.593432 1.52866 -0.748336 2.11786 -1.366948 -0.910751 -0.194893 -2.824154 0.189273 2.667272 -0.730916 1.569461
1.520346 0.582521 -0.566722 0.672926 -3.445116 1.658963 2.198538 -0.08167 -0.989839 -2.163993 -0.863694 -0.894638 -0.578166 1.188526 1.959891 2.365635 -0.395062 -0.02765 -2.108514 1.120336 -1.88414 -1.013965 -1.787603 -1.997053 1.760792 -1.333675 -0.293454 -0.726163 0.094776 -2.284538 2.504797 0.565388 0.023872 3.085597 0.307704 1.998303 -0.147506 -0.366739 0.412013 0.195531 3.729466 -3.013559 0.931348 0.951273 -1.43188 -0.104025 0.084536 2.305703 1.677983 0.995194 -0.107804 0.131143 0.786624 1.309492 -1.77684 -3.353511 -0.959324 -1.494036 0.632148 -1.541332 -0.766978 0.940467 -1.987767 -0.154009 0.217205 -2.748383 1.682925 -1.945856 0.627521 -0.213196 4.809887 -0.44873 -2.747047 -1.212698 -0.173429 -2.488667 -2.686184 0.463817 0.770117 0.806446 1.328574 -2.189878 -0.813051 -1.256556 0.334516 -1.78635 2.290336 -0.57806 -0.393639 0.185468 1.580344 -2.354734 -0.027256 0.145929 3.273494 -0.079207 -1.113277 1.959356 -1.42397 1.465904
0.028566 0.135166 0.096699 0.105631 0.036535 -0.143409 0.086774 0.050924 0.108259 0.038707 0.117569 0.277209 0.088768 0.147454 0.049805 0.209769 -0.140023 -0.044747 -0.020261 -0.095157 -0.074908 0.102905 -0.115126 -0.068426 -0.035475 -0.030235 0.033792 0.211817 0.155358 -0.029238 -0.010171 0.055346 0.068868 0.040866 0.062192 -0.061423 0.004606 -0.055839 -0.122253 0.018865 -0.086782 0.075329 -0.011442 0.05577 -0.021768 0.044243 0.281932 -0.256007 -0.140494 0.150427 0.058319 -0.089054 0.082799 -0.168304 0.13356 -0.027805 -0.071835 -0.091562 -0.174502 6.17E-4 0.007892 -0.017618 -0.104252 0.034519 0.092304 -0.251686 -0.163454 -0.087788 -0.003563 -0.032691 -0.144932 0.063617 -0.009836 -0.079796 0.008017 0.176916 -0.038438 -6.72E-4 -0.038006 -0.181938 0.179608 0.090493 -0.040085 0.056412 0.111268 -0.150258 -0.01833 0.036197 0.285553 0.145815 0.031913 0.030398 0.078263 0.123398 -7.05E-4 -0.102937 0.152214 0.03334 0.09407 -0.022901
-0.052909 0.025143 0.068653 0.007157 0.011234 0.036372 0.043707 0.054511 -0.053174 -0.043019 0.060511 -0.048646 -0.067574 0.073135 0.180058 -0.067954 0.056104 0.048957 -0.026837 0.017887 -0.066345 0.111809 0.008814 0.042789 -0.081723 -0.231614 -0.054533 -0.042471 0.174947 0.003484 0.075105 -0.05242 -0.102105 0.069054 -0.041269 0.032313 0.116635 5.57E-4 0.085291 0.110494 0.108896 0.042603 -0.056126 0.017715 0.092263 0.169691 0.112594 0.041834 0.060141 0.041644 0.04647 0.064717 -9.63E-4 -0.13351 0.063508 -0.237244 0.079755 -0.099942 0.051928 -0.116207 -0.026734 -0.055449 0.042605 -0.042566 0.040305 0.049141 0.103737 0.088645 -0.117647 -0.164979 -0.036473 -0.052894 0.086874 0.089989 0.129154 -0.122938 -0.022409 -0.039708 -0.120727 -0.078467 -0.016841 0.107075 0.039005 -0.061214 0.127975 0.050425 -0.016271 -0.057088 -0.083193 0.066411 -0.123916 0.0576 0.073208 0.049729 -0.145444 -0.117469 0.03845 -0.056778 -0.005137 0.081234
0.171593 -0.085188 -0.005011 0.309169 -0.152905 0.00381 -0.249387 -0.038448 -0.157923 0.037731 0.104605 0.346345 0.244978 0.024678 0.032649 0.310071 -0.065622 0.036396 0.052969 0.124156 -0.043828 -0.06566 0.269065 -0.177152 0.005016 0.077923 -0.302495 0.040821 0.286835 0.001567 0.013001 -0.230026 -0.074903 -0.033747 -0.205199 -0.039013 0.158052 -0.224509 -0.025489 -0.047903 -0.192269 0.165546 0.069635 -0.04257 0.06969 0.085811 0.04252 -0.017744 -0.24138 0.017786 0.049939 -0.111088 -0.074083 -0.048444 0.073146 -0.056241 -0.005692 0.009777 -0.018746 -0.086046 -0.136093 -0.368411 0.058549 -0.057995 0.004658 -0.164634 0.183809 -0.114823 0.198303 -0.19652 -0.183127 0.044565 -0.09434 -0.054044 0.105077 -0.030626 0.03893 -2.26E-4 -0.247097 0.052807 0.04372 0.275303 -0.041172 0.004343 0.04562 -0.052336 0.091936 -0.411318 0.007728 0.266991 0.171496 0.069051 0.089662 0.12008 0.01404 0.091993 0.086905 0.02851 -0.047985 -0.099695
-0.051771 -0.111781 -0.035414 0.076291 0.026785 -0.065248 -0.092794 -0.161488 0.032662 0.045601 0.109847 0.083416 0.021496 -0.107998 0.100921 -0.02384 0.023337 -0.001919 0.02199 0.072004 0.107364 0.212074 0.139041 0.197585 -0.239548 0.132827 0.180974 -0.029556 0.04635 -0.168158 -0.021421 0.030061 0.034201 0.190647 -0.093352 -0.157579 -0.044214 -0.031619 -0.055907 0.149973 -0.043958 0.055488 -0.080461 0.026597 0.033806 -0.251398 0.03892 -0.041047 -0.159164 -0.054732 0.057709 -0.104154 0.049124 0.052397 -0.064381 0.001191 0.095708 -0.028738 0.063405 0.094098 0.076454 -0.045851 -0.122541 -0.167286 -0.142736 -0.001418 -0.098651 9.34E-4 0.103956 -0.049111 -0.150776 0.020047 0.065475 -0.049934 0.119374 -0.174818 0.077402 0.034367 -0.068037 0.115619 -0.001604 0.164824 0.056884 -0.040451 0.109142 -0.027396 -0.005058 -0.088473 0.113008 0.034218 0.157835 -0.04965 -0.047702 0.098514 -0.216608 -0.157045 0.036533 -0.122185 -0.224538 -0.121661
0.22213 -0.182814 -0.100063 -0.171163 -0.231308 0.114271 -0.173648 -0.036163 -0.019893 -0.047761 0.044887 -0.084732 -0.118669 -0.029473 0.119475 0.119136 0.123877 0.002467 0.1999 0.061602 0.004254 -0.008169 0.162999 0.301903 -0.061147 -0.077441 0.145596 -0.072063 0.098328 -0.025478 -0.05422 0.052934 -0.158115 -0.002064 -0.287517 -0.056178 -0.115385 -0.162378 0.050157 -0.081837 0.08525 0.023405 -0.036294 0.058488 0.118824 0.014964 -0.054853 0.149628 -0.024489 0.063272 -0.16592 -0.259273 0.065336 0.038081 0.022512 0.007899 0.04912 0.217271 0.019368 0.086011 0.04378 0.006124 0.045934 -0.122131 -0.053615 -0.054941 0.071352 -0.074116 0.111231 0.160367 0.240318 0.053096 -0.051979 -0.078075 0.149687 -0.229352 -0.113743 -0.078622 0.204764 0.074031 0.189914 -0.07331 0.027255 -0.13656 -0.029011 0.186069 0.054317 0.064251 0.258273 0.011276 -0.209674 0.134663 0.195964 0.22825 -0.144142 -0.031391 -0.090628 -0.066016 0.047416 0.147391
-0.193592 -0.143273 -0.026849 0.19856 -0.078763 0.017567 -0.087263 0.004275 -0.050853 -0.15331 0.010879 0.148095 -0.001045 0.060967 0.159534 0.009607 -0.060808 0.25066 -0.107173 -0.138917 -0.147372 0.141186 0.027115 -0.059931 -0.10419 0.024207 -0.025661 -0.053422 0.077077 -0.102633 0.105801 0.181785 0.137275 0.232523 0.029936 -0.024055 -0.085602 -0.046199 0.149154 0.15549 0.044198 -0.021355 0.097388 -0.059266 0.036966 -0.068208 -0.047304 0.075928 -0.239935 0.035605 0.153864 -0.072996 0.045731 0.094331 0.04585 0.063902 -0.228555 -0.002125 0.259378 0.048509 0.210225 -0.004787 0.044467 -0.013187 -0.045142 0.023232 0.409288 -0.047739 0.158645 0.079946 -0.011828 0.013932 -0.033402 0.02423 -0.01912 0.053226 -0.001828 0.014364 0.14763 -0.039512 -0.044668 -0.182176 0.143085 0.052911 0.015897 -0.014519 0.158233 -0.029646 0.140977 0.038634 -0.268536 0.187957 0.056743 0.29301 -0.003408 -0.065108 -0.01263 -0.009836 -0.023146 -0.123869
-0.033257 -0.162097 0.13411 0.039813 -0.073992 0.017075 -0.169111 -0.121521 -0.115767 0.060205 0.146022 0.234442 -0.006155 -0.113924 0.185298 0.31845 -0.100185 0.267324 0.039266 -0.01525 -0.196147 0.10478 0.240946 0.177602 -0.317726 -0.114042 -0.111408 -0.078188 0.208757 -0.224511 0.072162 -6.77E-4 -0.223879 0.071993 -0.14613 -0.087636 0.065796 0.02258 0.001129 0.100649 -0.109737 0.134084 0.014364 0.099134 -0.003362 -0.142559 -0.08398 -0.037837 -0.240164 0.13154 0.213635 -0.166226 -0.048227 0.094661 0.061116 -0.132845 -0.036053 -0.024422 0.036178 -0.174638 0.152231 -0.218319 -0.051459 -0.229002 -0.129825 -0.044481 0.040229 0.108288 0.093562 -0.132749 -0.054003 0.029842 -0.058089 0.020125 0.083665 -0.133539 -0.133389 0.012901 -0.133079 -0.11323 -0.086125 0.191948 0.141568 -0.230764 0.068525 0.071524 0.161116 0.104336 0.313751 0.177916 -0.258543 -0.071745 -0.032732 0.165193 -0.15537 -0.168011 0.106084 0.049426 0.022456 -0.107396
-0.094187 -0.04781 -0.105289 -0.024473 -0.070308 0.044785 -0.005661 -0.10267 0.00485 0.037219 0.129074 0.279348 0.11434 -0.266823 0.025878 0.100118 -0.033246 0.135023 0.116859 -0.139288 0.039945 0.062695 0.22975 0.16266 -0.066716 -0.156651 -0.215567 0.087975 0.112238 0.01478 -0.170726 -0.046063 -0.15568 0.071871 -0.038068 -0.041654 0.092456 0.029107 0.21107 0.162743 -0.070348 0.255676 0.121385 0.116763 -0.021566 -0.027922 0.062348 -0.004723 -0.34902 -0.01785 0.327266 -0.184676 -0.035946 -0.013574 0.04243 -0.119244 0.04198 0.065372 0.120123 -0.065071 0.025326 -0.33898 0.028795 -0.038624 -0.118586 -0.031261 0.051654 -0.037551 0.060803 -0.098007 -0.139207 0.060746 -0.024772 0.005862 -0.013813 -0.058966 -0.18722 -0.061767 -0.042274 -0.142357 0.087845 0.155802 0.058432 -0.19419 0.118858 -0.084112 0.045545 0.032071 -0.08809 0.117658 -0.11899 0.048392 -0.021535 0.032389 0.010311 -0.057461 -0.018416 -0.203106 0.036754 -0.059333
-0.058801 -0.11137 0.109382 0.02837 0.065109 0.042929 -0.032412 -0.003263 0.013141 0.016361 0.119405 0.060316 0.027066 -0.087833 0.144249 0.152538 -0.069613 0.159132 0.108102 -0.014652 -0.03827 0.059365 0.122497 0.030915 -0.223893 -0.087402 -0.097444 -0.018249 0.059146 -0.029525 0.036112 0.003546 -0.06084 0.092883 -0.030935 -0.095473 -0.009965 -0.042948 0.045715 0.114556 -0.049689 0.200893 -0.012875 -0.032403 0.076424 -0.056277 0.022842 0.00663 -0.175154 0.095034 0.119467 0.025132 0.020063 -0.007066 -0.056213 -0.003228 -0.059786 0.068424 0.127696 -0.137752 -0.020085 -0.079165 0.005057 -0.200203 -0.079495 0.104963 0.007274 0.062167 0.014687 -0.128764 -0.085034 -0.036003 -0.028047 -0.035131 0.058092 0.00777 -0.117488 -0.035245 -0.184708 0.00204 -0.067219 -0.044855 0.021575 -0.169924 0.014741 0.088647 -0.039934 -0.081393 0.12505 -0.114469 -0.083439 0.02422 0.042053 0.023701 -0.006158 -0.109835 0.079776 -0.073295 -0.075046 -0.010269
0.352905 0.550922 -1.128945 -0.511125 0.774489 1.405335 -0.371647 0.106012 -0.779785 -0.640302 -0.68578 1.570717 -0.712288 -0.706705 -0.789609 -0.045278 -1.599722 -2.840112 -0.089543 -1.158838 -1.862605 -0.62748 -0.063542 -0.468696 0.750564 0.033551 -0.772222 -0.188991 -0.163115 0.455978 0.038455 -0.779588 0.172303 -1.114448 -0.548246 -0.008155 1.66721 -0.744821 -0.15746 -2.668482 -0.304702 -0.905716 0.479063 0.151803 -0.94063 -0.044338 -0.906122 -0.456182 0.281891 0.268287 0.47007 0.628019 0.328428 1.471286 -2.345457 0.072073 -0.345477 -0.998199 -1.496897 -0.053061 0.351206 -0.934426 0.295591 0.07336 0.24092 0.486976 0.390085 -0.621556 0.375246 -0.02625 1.957847 1.014101 0.004675 0.08874 -0.900479 -0.462149 0.922254 1.355385 -1.048724 0.105897 1.254466 0.410718 0.321258 1.066395 -0.171761 -0.128774 0.315556 0.697301 -0.180925 0.555334 1.005586 -0.891677 -1.232923 -1.994189 -0.567812 0.204184 -0.947385 -0.051526 -0.987029 0.725141
0.050302 -0.12009 0.084174 -0.116491 -0.045555 -0.124316 0.051145 -0.174034 -0.027692 0.103208 -0.060318 -0.05675 -0.081737 -0.083512 0.163925 0.144075 -0.125168 0.079343 0.172383 -0.022537 -0.024177 0.066972 0.088805 -0.047403 -0.136072 -0.188316 -0.012886 0.054933 0.08408 -0.018094 0.189229 -0.023451 -0.162673 0.174362 0.073498 -0.007578 -0.03952 -0.04219 0.091584 0.036354 0.049459 -0.016062 -0.171457 0.071997 0.034782 -0.083476 -0.154245 0.099422 0.004489 0.059936 0.047365 -0.114978 0.053816 -0.055702 -0.00184 -0.072897 -0.102248 -0.089562 7.6E-4 -0.019302 0.056548 -0.086836 -0.317136 0.028696 0.035258 0.180164 0.170379 -0.03028 0.053334 -0.080353 -0.062281 0.174468 -0.131705 0.049609 0.159631 -0.058574 -0.089801 -0.038587 -0.001592 -0.126052 -0.111993 0.081373 -0.033031 -0.227569 -0.049212 0.075016 8.7E-5 -0.02541 0.065638 0.119082 -0.077241 -0.002513 -0.116225 0.268898 0.069817 0.050859 -0.053378 -0.149207 -0.010042 0.090943
-0.148633 -0.068114 0.064287 0.119882 0.160994 -0.002219 -0.127022 -0.048078 0.008842 -0.152247 0.111393 0.180024 -0.125117 -0.054163 0.215514 0.221999 -0.10735 0.203174 0.01617 -0.095797 -0.082799 -0.116488 0.004625 -0.07806 -0.284213 0.020197 -0.093932 -0.14192 0.180777 -0.189204 -0.094358 0.01264 -0.12915 0.03942 -0.100302 -0.121036 0.13597 -0.034249 0.062436 0.199773 -0.087144 0.172065 0.083752 0.105631 0.037858 -0.060594 0.014958 -0.014917 -0.003047 -0.050928 0.075059 0.003666 0.035096 0.044765 0.006531 -0.045564 0.031028 0.094723 -0.075531 -0.111516 0.109927 -0.075547 -0.152214 -0.012048 0.07498 0.07718 0.01894 -0.083362 -0.020462 -0.022194 0.028366 0.149555 0.118168 0.077251 -0.002387 0.008192 -0.071522 0.047399 -0.05069 -0.137145 -0.095684 0.09661 0.14821 -0.198791 -0.04893 0.173683 0.18577 -0.045496 0.140994 -0.015408 -0.112654 -0.126968 -0.186831 0.228317 -0.05587 -0.030331 0.045537 -0.092484 0.072181 0.018729
0.229547 0.544727 -0.274649 1.276166 -0.403559 -0.401392 -2.679125 0.639339 -3.356351 -0.051849 1.29832 0.587154 -1.017008 0.98199 -0.010478 0.475955 0.530194 -0.497395 -0.996546 -2.166501 0.296091 1.612848 2.660892 1.487908 -0.372856 1.460905 3.270667 2.293277 -0.122158 -0.397236 1.534 0.964262 -1.510137 -0.353891 -1.153495 -3.466847 1.656319 -1.720978 1.172703 -1.630491 -3.877671 -3.602643 3.775502 0.564637 0.406213 -1.187358 -0.419965 -0.68209 0.52087 -0.369532 -0.021121 -0.982603 -0.827227 0.916302 0.053345 1.460838 -1.538358 -0.19961 2.025315 -3.292123 -2.57876 1.380057 -0.249729 -0.78903 -1.867783 0.665735 -2.268706 -3.418555 1.201707 5.139507 4.458985 -2.876798 1.133844 3.648833 -0.592499 2.038396 -1.183891 -0.944117 1.272498 2.501906 1.659798 -3.084304 -0.294015 -1.277526 -1.614161 -0.067747 0.306641 2.079055 -0.96491 4.179631 -2.134387 -2.230689 -3.937284 -1.615137 1.549554 1.486944 0.518469 -0.540947 0.378382 -0.129263
0.179481 -0.039486 0.088422 0.119132 -0.01022 -0.087767 -0.0352 -0.059837 -0.040708 -0.075945 -0.027555 0.178747 0.045808 -0.085483 0.075008 0.171804 -0.035003 0.125716 -0.108816 0.071556 -0.107251 0.043547 0.03701 -0.045284 -0.073487 -0.046726 0.061367 -0.037704 0.11261 -0.188314 -0.051727 -0.069167 0.07401 0.052011 -0.077109 0.037402 0.008857 -0.063264 -0.14505 -0.080861 -0.096038 0.086762 -0.071949 0.14163 0.17395 -0.112218 0.034902 0.059111 0.031364 0.120614 -0.026112 9.62E-4 -0.0747 -0.030953 0.116381 -0.279596 0.063689 -0.040997 0.039979 0.139193 0.056384 -0.130867 -0.104501 -0.117793 -0.110696 -0.048723 0.137148 -0.037352 0.05477 -0.099561 0.004843 -0.083268 0.001472 -0.026087 0.068973 -0.076513 -0.055165 0.036357 0.105675 -0.110743 0.143297 0.061222 0.037578 -0.046414 0.102366 0.044728 0.101573 0.249374 0.004285 0.115453 -0.095339 -1.14E-4 -0.174281 -0.029945 -0.113661 0.012062 -0.004197 0.046373 0.188596 -0.062237
-0.13982 -0.070825 0.118315 -0.188916 -0.048283 -0.132856 -0.029281 0.019655 0.085709 0.086609 -1.09E-4 -0.165678 -0.168657 0.064968 0.117705 -0.089967 0.060461 0.154044 0.159206 -0.216385 -0.034292 0.002616 0.114454 0.012079 -0.101054 -0.066247 -0.019818 0.041505 0.08108 -0.193241 0.068194 0.076214 0.125376 -0.052328 0.091661 0.081679 -0.014446 0.060696 -0.224715 0.121678 0.111638 0.099933 -0.210582 -0.010916 -0.042724 -0.052161 0.059768 0.005555 -0.012583 0.011093 0.255467 -0.151262 0.143106 0.058177 -0.061392 0.09274 0.044614 -0.077992 0.039983 0.041117 0.050478 -0.036416 -0.244948 -0.113915 0.055078 0.070349 -0.061488 0.015295 -0.138233 0.021685 -0.017643 -0.02245 0.109452 0.020738 0.047203 -0.046728 0.127734 -0.069984 -0.010974 -0.151913 -0.108325 -0.106444 0.117066 0.045376 0.06448 0.087222 -0.020649 0.009947 0.146502 -0.081502 -0.023772 -0.027065 0.059738 0.169912 -0.134561 -0.043472 -0.114556 -0.049832 0.014935 -0.004474
-0.094187 -0.04781 -0.105289 -0.024473 -0.070308 0.044785 -0.005661 -0.10267 0.00485 0.037219 0.129074 0.279348 0.11434 -0.266823 0.025878 0.100118 -0.033246 0.135023 0.116859 -0.139288 0.039945 0.062695 0.22975 0.16266 -0.066716 -0.156651 -0.215567 0.087975 0.112238 0.01478 -0.170726 -0.046063 -0.15568 0.071871 -0.038068 -0.041654 0.092456 0.029107 0.21107 0.162743 -0.070348 0.255676 0.121385 0.116763 -0.021566 -0.027922 0.062348 -0.004723 -0.34902 -0.01785 0.327266 -0.184676 -0.035946 -0.013574 0.04243 -0.119244 0.04198 0.065372 0.120123 -0.065071 0.025326 -0.33898 0.028795 -0.038624 -0.118586 -0.031261 0.051654 -0.037551 0.060803 -0.098007 -0.139207 0.060746 -0.024772 0.005862 -0.013813 -0.058966 -0.18722 -0.061767 -0.042274 -0.142357 0.087845 0.155802 0.058432 -0.19419 0.118858 -0.084112 0.045545 0.032071 -0.08809 0.117658 -0.11899 0.048392 -0.021535 0.032389 0.010311 -0.057461 -0.018416 -0.203106 0.036754 -0.059333
-0.015649 -0.050324 0.021951 0.096281 -0.07189 -0.068802 -0.216424 -0.099506 -0.031397 0.070278 0.064869 0.155082 0.032315 -1.05E-4 -0.105823 0.219656 -0.131776 -0.020869 0.008622 0.021482 -0.163249 -0.125537 0.128792 0.160983 0.029466 0.038986 0.110505 -0.223479 0.096597 -0.094882 0.151638 0.216472 0.061479 -0.077788 0.071276 0.081067 0.265213 0.073712 -0.093377 0.007784 -0.049255 0.136228 -0.070004 -0.014392 0.059467 -0.267032 0.00813 -8.19E-4 -0.136789 0.18408 0.074518 0.063642 0.014646 0.078664 0.019878 0.143755 -0.098224 -0.135197 -0.051322 -0.114719 0.09055 -0.157802 -0.039861 -0.207446 0.026885 0.188557 -0.025436 0.139087 0.160811 0.038632 0.037505 0.176963 0.168487 0.166443 -0.065695 -3.52E-4 -0.030822 0.013078 -0.022148 -0.049754 -0.029561 0.079974 -2.54E-4 0.182068 -0.069246 -0.060911 -0.059438 0.126422 0.143427 -0.043146 -0.174824 -0.03281 -0.132818 0.083396 -0.108889 -0.059112 0.010673 -0.027338 0.06646 -0.071994
0.102519 0.028331 -0.323752 -0.030371 0.104924 -0.018281 0.016625 0.097465 0.083907 0.042919 0.182849 0.180972 0.021027 0.084685 -0.03502 0.052915 0.021381 0.027639 0.138573 -0.029942 -0.076517 0.082537 0.147973 0.028719 -0.012541 -0.183043 0.099658 0.245425 0.125143 -0.016801 -0.126491 -0.088197 -0.059153 0.181222 0.004954 -0.021093 0.093898 0.1473 0.037113 -0.041264 0.084385 -0.277585 0.046048 0.123366 -0.1312 0.057693 0.07317 0.075514 -0.00736 0.022486 -0.064039 -0.104485 -0.129569 0.008917 -0.043765 -0.031673 -0.224168 -0.125023 -0.181158 -0.020923 0.007337 -0.03322 -0.003247 -0.016517 0.027804 0.039792 -0.112792 -0.066678 0.060736 -0.02802 0.020393 -0.090665 0.047658 -0.069936 -0.048246 0.009147 0.079742 -0.184286 -0.059049 -0.151283 0.087534 -0.067633 0.062004 -0.075468 -0.186111 0.007025 -0.104962 0.126863 -0.105695 0.040183 -0.148772 0.00369 -0.055889 -0.114913 -0.007486 -0.011989 -0.054275 0.092619 0.014127 0.185005
0.0 0.0 0.0 0.0 0.0 0.0 0.0 0.0 0.0 0.0 0.0 0.0 0.0 0.0 0.0 0.0 0.0 0.0 0.0 0.0 0.0 0.0 0.0 0.0 0.0 0.0 0.0 0.0 0.0 0.0 0.0 0.0 0.0 0.0 0.0 0.0 0.0 0.0 0.0 0.0 0.0 0.0 0.0 0.0 0.0 0.0 0.0 0.0 0.0 0.0 0.0 0.0 0.0 0.0 0.0 0.0 0.0 0.0 0.0 0.0 0.0 0.0 0.0 0.0 0.0 0.0 0.0 0.0 0.0 0.0 0.0 0.0 0.0 0.0 0.0 0.0 0.0 0.0 0.0 0.0 0.0 0.0 0.0 0.0 0.0 0.0 0.0 0.0 0.0 0.0 0.0 0.0 0.0 0.0 0.0 0.0 0.0 0.0 0.0 0.0
1.979182 1.475284 1.616709 3.670848 1.493383 1.565553 0.713709 0.821536 -0.198276 1.095257 1.13035 3.013426 -0.31575 0.272355 -1.140889 3.059924 -0.481724 -0.114922 -4.136081 -3.168525 0.468706 0.468211 -1.450609 1.536269 1.463073 0.091064 0.456867 -0.772584 1.94826 0.637724 3.384043 1.31124 -0.547482 -2.46209 -1.172514 0.108789 -0.436092 -0.542017 -2.899063 -1.238649 0.992894 -1.25533 1.441906 -2.837638 -0.37597 0.84588 0.567863 1.067483 3.045772 2.851722 1.127934 2.750989 2.037369 -0.330697 -3.137371 -0.277042 1.105257 3.888075 -0.863423 -0.157175 -2.285182 -0.166755 0.331731 -0.01245 0.62688 0.367884 -0.075369 -0.159061 -0.417307 -2.027856 0.1471 0.649553 -2.645108 0.793309 -1.226665 0.217122 -0.469072 -0.459028 -1.403266 -0.635382 -0.504689 1.214626 1.214261 1.363001 0.553679 -3.299866 -1.882137 1.302355 -0.459088 -0.175485 1.192438 -0.480862 1.435369 0.431146 -1.119326 -1.423348 -1.759886 0.376096 -1.342863 3.008839
0.734486 -0.648109 -0.624424 3.468601 -0.850397 1.620151 -1.176956 0.142199 1.288569 1.335838 2.108742 0.755098 0.388601 0.854394 -0.391925 2.297532 -1.467701 -1.205683 -5.437917 -2.803305 1.778659 1.580933 1.455154 -0.126345 1.567741 1.522401 0.899784 -1.593741 -0.338009 1.109452 3.801406 -0.620665 1.263106 -1.206585 0.126529 -0.728847 1.941679 -1.193268 0.058318 -1.958472 -0.810278 -3.19141 2.189196 -2.055793 -0.825801 0.419072 0.098934 -0.170741 1.467702 0.74701 0.94499 0.732926 1.311591 1.755612 -2.331038 0.745509 -1.148743 1.998712 -0.625125 -1.626707 -0.361763 -1.822971 0.509826 -1.79467 1.331875 -2.133013 -0.365861 0.27544 1.943832 2.830426 -0.744524 -1.103382 1.096498 -0.738558 0.673183 0.687085 -0.459193 -0.126001 -0.981084 -0.381365 -0.373544 0.160809 -0.197132 1.126999 0.013265 -1.720603 0.075 2.405382 -1.859988 1.000053 0.525164 1.833496 -2.890167 -1.78274 -0.58567 -0.362074 0.479691 0.178131 0.545078 1.582573
0.065707 -0.236737 0.049548 0.005064 0.085549 -0.015608 -0.09327 0.083561 -0.33115 -0.071492 -0.029597 -0.125936 0.001953 -0.115921 0.13062 0.17542 -0.200711 0.301285 -0.058926 0.153035 -0.003414 -0.056017 0.153323 0.156922 -0.045423 -0.087861 0.046948 -0.059112 -0.136384 -0.038079 0.063692 -0.135378 0.061464 -0.155648 -0.037754 -0.160903 -0.177813 -0.196602 0.071096 0.073159 -0.026922 0.115867 0.026656 0.152844 -0.119419 0.030686 -0.145535 -0.155229 -0.170159 -0.010994 -0.093433 -0.199446 0.082883 0.083101 -0.002141 0.149423 -0.176257 -0.065511 0.042661 0.023788 0.025263 -0.067887 -0.017177 -0.34871 0.178008 -0.150728 0.332548 -0.00373 0.132738 -0.007362 0.189082 0.087182 -0.211625 -0.02619 -0.052819 0.0665 -0.071426 0.074644 0.096138 -0.162914 0.268603 0.129575 0.002134 0.082223 -0.006574 0.184328 0.067383 -0.021471 0.080434 0.181266 0.074618 0.220726 -0.012205 -0.028814 0.083397 0.055165 -0.005573 -0.012942 0.155337 -0.079928
-0.015649 -0.050324 0.021951 0.096281 -0.07189 -0.068802 -0.216424 -0.099506 -0.031397 0.070278 0.064869 0.155082 0.032315 -1.05E-4 -0.105823 0.219656 -0.131776 -0.020869 0.008622 0.021482 -0.163249 -0.125537 0.128792 0.160983 0.029466 0.038986 0.110505 -0.223479 0.096597 -0.094882 0.151638 0.216472 0.061479 -0.077788 0.071276 0.081067 0.265213 0.073712 -0.093377 0.007784 -0.049255 0.136228 -0.070004 -0.014392 0.059467 -0.267032 0.00813 -8.19E-4 -0.136789 0.18408 0.074518 0.063642 0.014646 0.078664 0.019878 0.143755 -0.098224 -0.135197 -0.051322 -0.114719 0.09055 -0.157802 -0.039861 -0.207446 0.026885 0.188557 -0.025436 0.139087 0.160811 0.038632 0.037505 0.176963 0.168487 0.166443 -0.065695 -3.52E-4 -0.030822 0.013078 -0.022148 -0.049754 -0.029561 0.079974 -2.54E-4 0.182068 -0.069246 -0.060911 -0.059438 0.126422 0.143427 -0.043146 -0.174824 -0.03281 -0.132818 0.083396 -0.108889 -0.059112 0.010673 -0.027338 0.06646 -0.071994
2.008925 1.002217 0.749367 0.554026 -0.420761 -2.71814 -2.242725 0.514148 -0.33728 -1.393595 1.256044 -1.42427 -5.254662 -1.664708 -2.167257 2.208561 2.023412 -1.47353 0.93308 -3.015872 1.163134 0.585776 -0.560093 -1.760233 -1.21128 -0.781493 1.499819 0.907366 -3.693964 0.861732 4.322385 -1.993822 -0.021573 -3.700195 -2.089422 -0.390286 -0.367412 0.383265 -0.799781 1.400902 1.529204 -2.910808 -0.286989 0.785584 0.555046 -2.459579 2.996767 -2.162273 0.555934 -1.741298 -0.317135 -1.852064 1.244625 5.660771 0.729578 -0.785467 2.548965 1.331051 0.865868 -0.773548 0.363027 0.850156 0.896465 0.243132 -1.23642 -0.522032 1.275139 -1.955056 2.731715 0.631108 2.059009 3.079915 -1.919444 -0.055569 0.800711 1.125192 -0.795649 -0.339664 3.277642 3.359892 2.099248 0.656643 -1.340796 -1.675397 -0.923824 0.260541 0.957975 4.089312 0.672601 0.091604 1.721634 1.423321 -1.541807 2.230364 -1.617865 1.59656 0.351439 -1.352388 -1.180001 -1.215404
-0.38434 -0.570338 -3.334123 -0.990325 -0.281295 3.633702 1.320934 0.804616 -0.499895 -0.831205 0.460112 1.388349 -2.264975 3.215568 -3.90167 1.353361 -1.448904 -2.546085 -1.024352 -1.734034 -1.344124 0.93203 0.532723 0.23208 -0.507331 0.823317 0.659701 0.36019 1.191168 -0.162178 -0.263719 -1.148898 -0.733443 1.049014 -0.463284 0.424462 1.721949 -2.279087 -0.239497 -3.509027 0.274708 -0.478871 -0.254635 1.092364 -0.333634 -0.504492 -0.065145 -0.538987 0.565458 0.780359 -0.571438 2.952173 0.370658 -0.759209 -2.924849 1.720769 0.511283 1.62778 2.047539 0.727555 2.155394 -1.325505 -0.576841 2.155423 -1.025197 1.359344 -0.744288 -2.504187 -1.775349 1.348846 2.846446 1.640962 1.869469 1.38429 0.797755 -0.790083 2.739745 1.110482 1.051984 -1.114181 2.453474 -0.002451 -1.249565 3.986771 0.736882 -1.32782 1.044597 0.12676 2.039398 0.327395 0.179204 -1.66492 -0.55174 -2.138355 -3.629091 -1.09422 -3.320013 0.282001 -1.758182 -2.017416
0.0 0.0 0.0 0.0 0.0 0.0 0.0 0.0 0.0 0.0 0.0 0.0 0.0 0.0 0.0 0.0 0.0 0.0 0.0 0.0 0.0 0.0 0.0 0.0 0.0 0.0 0.0 0.0 0.0 0.0 0.0 0.0 0.0 0.0 0.0 0.0 0.0 0.0 0.0 0.0 0.0 0.0 0.0 0.0 0.0 0.0 0.0 0.0 0.0 0.0 0.0 0.0 0.0 0.0 0.0 0.0 0.0 0.0 0.0 0.0 0.0 0.0 0.0 0.0 0.0 0.0 0.0 0.0 0.0 0.0 0.0 0.0 0.0 0.0 0.0 0.0 0.0 0.0 0.0 0.0 0.0 0.0 0.0 0.0 0.0 0.0 0.0 0.0 0.0 0.0 0.0 0.0 0.0 0.0 0.0 0.0 0.0 0.0 0.0 0.0
0.070173 0.039308 0.107688 0.062789 0.15652 0.124082 -0.056432 -0.112537 0.025132 0.140503 0.126967 0.06071 -0.074298 -0.14931 0.052424 0.182899 -0.246843 0.13267 -0.060832 0.014249 -0.124324 -0.021889 0.167993 -0.041896 -0.118065 0.060061 0.024644 0.032088 -0.098378 -0.030464 0.132668 0.111752 -0.096096 -0.07199 -0.297173 -0.090519 -0.107836 -0.01026 -0.033938 0.139789 0.127173 0.008027 -0.077124 0.028844 -0.130697 0.091795 0.126437 -0.176726 -0.119183 0.06901 -0.076019 -0.118921 0.198999 0.162416 0.114462 -0.029789 0.075884 0.002354 0.191814 -0.180285 0.032249 -0.02917 -0.088008 -0.271657 -0.066763 -0.045206 0.183388 -0.151886 -0.047672 0.030697 0.168009 0.04855 -0.083223 0.016797 -0.059652 0.092677 -0.173666 0.089986 0.132784 0.016604 -0.157277 0.026626 9.7E-4 -0.212108 0.094052 0.06787 0.070273 -0.148841 0.03981 0.105973 -0.0732 0.025499 0.047122 -0.076291 -0.093202 -0.17149 0.085148 -0.038776 -0.170445 -0.100314
0.036737 -0.032921 0.024463 0.001525 -0.14953 -0.081921 0.05195 0.033054 0.042371 0.187633 -0.169856 -0.043431 -0.173636 0.224604 -0.099043 -0.052621 -0.094147 -0.087315 -0.205223 0.126826 -0.051988 0.057934 0.007092 0.028646 0.030134 0.006318 0.118765 0.00841 -0.042876 -0.067148 -0.15148 -0.042306 0.047684 0.10077 -0.040846 -0.155266 0.173754 7.38E-4 -0.149543 -0.155015 0.042332 1.9E-5 0.164393 -0.109523 -0.01025 0.019395 0.060378 0.084138 0.12078 -0.042878 0.08194 -0.06976 0.047308 0.056745 0.006819 -0.026824 -0.156007 0.042841 -0.214906 -0.100455 0.001679 0.056153 0.00309 0.056995 -0.027269 0.054063 -0.021361 -0.118937 -0.039109 0.253888 -0.099679 0.068347 0.024916 0.004649 0.026359 0.067277 0.089904 -0.116294 -0.057639 -0.070171 0.238942 -0.101354 -0.104886 -0.195107 -0.268537 -0.124495 -0.010152 -7.27E-4 0.045996 0.182311 -0.129108 -0.070264 -0.013 0.100287 -0.131971 0.14376 -0.073632 0.262197 -0.055353 0.017675
0.352905 0.550922 -1.128945 -0.511125 0.774489 1.405335 -0.371647 0.106012 -0.779785 -0.640302 -0.68578 1.570717 -0.712288 -0.706705 -0.789609 -0.045278 -1.599722 -2.840112 -0.089543 -1.158838 -1.862605 -0.62748 -0.063542 -0.468696 0.750564 0.033551 -0.772222 -0.188991 -0.163115 0.455978 0.038455 -0.779588 0.172303 -1.114448 -0.548246 -0.008155 1.66721 -0.744821 -0.15746 -2.668482 -0.304702 -0.905716 0.479063 0.151803 -0.94063 -0.044338 -0.906122 -0.456182 0.281891 0.268287 0.47007 0.628019 0.328428 1.471286 -2.345457 0.072073 -0.345477 -0.998199 -1.496897 -0.053061 0.351206 -0.934426 0.295591 0.07336 0.24092 0.486976 0.390085 -0.621556 0.375246 -0.02625 1.957847 1.014101 0.004675 0.08874 -0.900479 -0.462149 0.922254 1.355385 -1.048724 0.105897 1.254466 0.410718 0.321258 1.066395 -0.171761 -0.128774 0.315556 0.697301 -0.180925 0.555334 1.005586 -0.891677 -1.232923 -1.994189 -0.567812 0.204184 -0.947385 -0.051526 -0.987029 0.725141
0.102519 0.028331 -0.323752 -0.030371 0.104924 -0.018281 0.016625 0.097465 0.083907 0.042919 0.182849 0.180972 0.021027 0.084685 -0.03502 0.052915 0.021381 0.027639 0.138573 -0.029942 -0.076517 0.082537 0.147973 0.028719 -0.012541 -0.183043 0.099658 0.245425 0.125143 -0.016801 -0.126491 -0.088197 -0.059153 0.181222 0.004954 -0.021093 0.093898 0.1473 0.037113 -0.041264 0.084385 -0.277585 0.046048 0.123366 -0.1312 0.057693 0.07317 0.075514 -0.00736 0.022486 -0.064039 -0.104485 -0.129569 0.008917 -0.043765 -0.031673 -0.224168 -0.125023 -0.181158 -0.020923 0.007337 -0.03322 -0.003247 -0.016517 0.027804 0.039792 -0.112792 -0.066678 0.060736 -0.02802 0.020393 -0.090665 0.047658 -0.069936 -0.048246 0.009147 0.079742 -0.184286 -0.059049 -0.151283 0.087534 -0.067633 0.062004 -0.075468 -0.186111 0.007025 -0.104962 0.126863 -0.105695 0.040183 -0.148772 0.00369 -0.055889 -0.114913 -0.007486 -0.011989 -0.054275 0.092619 0.014127 0.185005
0.0 0.0 0.0 0.0 0.0 0.0 0.0 0.0 0.0 0.0 0.0 0.0 0.0 0.0 0.0 0.0 0.0 0.0 0.0 0.0 0.0 0.0 0.0 0.0 0.0 0.0 0.0 0.0 0.0 0.0 0.0 0.0 0.0 0.0 0.0 0.0 0.0 0.0 0.0 0.0 0.0 0.0 0.0 0.0 0.0 0.0 0.0 0.0 0.0 0.0 0.0 0.0 0.0 0.0 0.0 0.0 0.0 0.0 0.0 0.0 0.0 0.0 0.0 0.0 0.0 0.0 0.0 0.0 0.0 0.0 0.0 0.0 0.0 0.0 0.0 0.0 0.0 0.0 0.0 0.0 0.0 0.0 0.0 0.0 0.0 0.0 0.0 0.0 0.0 0.0 0.0 0.0 0.0 0.0 0.0 0.0 0.0 0.0 0.0 0.0
0.468124 0.05561 0.6261 1.431366 -0.197583 0.261863 0.949711 -3.133626 -1.283954 -1.550995 1.54988 -0.404773 0.077002 1.410362 -1.274238 1.349289 -1.164744 -0.546499 -5.12642 -0.118588 -0.753902 2.078658 -2.67347 0.617482 2.28507 -0.554645 0.926152 -0.73768 -0.327973 2.662122 0.778785 -3.956755 0.715716 -2.515779 -0.654362 -0.398897 -1.922042 -1.214916 -3.489688 0.008083 -0.182507 -3.230706 2.986844 -2.581722 -2.131293 0.550491 -0.575297 1.032858 0.033863 0.549328 2.158887 0.224631 -1.208955 -0.852245 -1.876035 -2.367234 -0.329535 0.060524 2.018398 -1.915078 -1.392324 -0.257994 -1.304255 3.323726 2.30374 -3.986873 0.797901 0.727501 0.402694 0.042771 1.508687 -3.866984 -3.05094 3.621505 0.522211 -0.933527 0.501158 0.930001 1.153842 -0.112792 0.981698 1.135506 -1.835513 -2.104743 -0.163192 2.676808 2.691545 1.172344 2.046042 0.48707 0.83416 -0.468312 -2.793722 0.817486 0.804553 -1.729648 -0.872203 3.345958 -2.165021 2.635121
0.117168 -0.081261 -0.21121 -0.066731 -0.275521 -0.130438 -0.046803 -0.273643 -0.150722 0.128034 0.022846 0.025637 0.017576 -0.037796 -0.006386 0.181461 0.040128 0.176475 0.001647 0.03528 0.070044 -0.024315 0.215394 -0.130377 -0.154997 0.123641 -0.07993 -0.058194 0.148347 -0.018316 0.156754 -0.072208 0.001166 -0.053391 0.028107 0.083249 0.022714 -0.070362 -0.004466 0.162951 0.050816 0.152059 -0.164474 -0.096015 0.09615 -0.187866 0.132109 -0.009701 -0.10345 -0.013038 -0.027891 0.111158 0.060939 0.107792 0.130701 -0.200889 0.071201 -0.114933 8.7E-5 0.031794 0.016418 -0.117627 -0.056679 -0.001196 0.089719 0.159084 0.137783 -0.070769 -0.035414 0.08029 -0.036544 0.101405 -0.025484 -0.201066 -0.02413 -0.047368 0.018007 -0.073843 0.064688 0.001593 0.200226 -0.006609 0.254566 0.024887 -0.033327 0.160618 -0.001714 0.167928 -0.14361 -0.241829 -0.169614 -0.106336 0.004607 -0.019156 0.065673 0.113677 0.125263 -0.012755 0.004842 0.018239
-0.141735 -0.027872 0.09452 0.003413 0.059076 0.156868 -0.058411 -0.067813 -0.19242 0.006516 0.034811 0.126347 0.250093 0.030392 -0.151342 0.004812 -0.139806 0.141648 0.088007 0.267747 -0.022016 -0.036974 0.284786 0.014954 -0.107623 -0.096656 -0.057293 0.07725 -0.138222 -0.096544 -0.107288 -0.05273 0.065099 0.014741 -0.126854 -0.155058 0.10156 0.011281 0.21299 0.13288 0.180644 -0.212141 -0.014523 0.041835 -0.173971 -0.218906 0.172395 0.102318 -0.180247 0.178271 0.273705 0.082843 -0.01894 -0.173341 0.162613 -0.174057 -0.161384 -0.138868 0.16228 -0.216267 -0.02778 0.149042 -0.058335 -0.327922 0.021497 -0.060646 8.42E-4 0.148827 0.113429 -0.063505 0.050432 0.064966 -0.127406 -0.094458 -0.350119 -0.054338 -0.053567 -0.112331 -0.1996 -0.027936 -0.163759 0.14158 -0.071156 0.027327 -0.04434 -0.003528 0.108451 0.123163 0.326407 -0.012515 0.135187 -0.013262 -0.077869 0.105092 -0.100443 -0.127938 -0.006557 0.206681 -0.014108 0.148888
0.009865 -0.108776 -0.005598 0.166527 -0.143641 0.090742 0.02741 -0.091958 -0.066164 0.044462 0.25598 0.224979 -0.039704 -0.191177 -0.060361 0.247843 -0.019377 0.118596 -0.022838 -0.144554 -0.102057 0.008502 0.057193 -0.051435 -0.234767 0.187017 0.012984 -0.157159 0.16887 -0.060629 -0.004587 -0.028762 -0.087689 0.255722 0.018986 -0.036885 -0.046209 0.001935 0.018177 0.128328 -0.203005 0.054583 -0.10605 0.047986 0.025944 -0.278394 -0.021704 0.042485 -0.137665 -0.103103 -0.017306 0.071985 0.065712 0.078072 -0.033046 0.094063 0.013427 0.08383 0.184665 -0.107849 0.160272 -0.174836 0.205316 0.008432 -0.00562 0.035308 0.113703 0.020887 0.164345 -0.108534 -0.089833 0.023907 0.182925 0.073619 -0.171143 -0.019821 0.023257 -0.056931 0.110183 0.006365 0.066331 -0.053359 -0.038477 -0.171175 0.313067 -0.021539 0.175138 0.051694 0.211802 -0.078038 -0.050046 -0.073879 0.061652 0.28324 -0.121307 -0.100654 0.123129 0.038072 0.056398 -0.34247
-0.197166 0.092243 0.323573 0.125304 -0.005457 -0.146639 0.076031 -0.062864 -0.140777 0.105246 -0.010582 0.108114 -0.028777 -0.107992 -0.010386 0.157 0.01744 0.165019 0.107002 0.064248 -0.03262 -0.093638 0.131294 0.176775 3.94E-4 0.138296 -0.045429 0.080713 0.056768 -0.086382 0.050352 0.169429 0.189552 -0.084311 -0.16383 0.207206 0.203415 0.135795 -0.029041 0.162092 -0.1931 0.172294 -0.049169 -0.167189 0.031689 -0.066757 0.045005 -0.008493 -0.124891 0.171726 0.124771 -0.169121 0.078147 0.003663 0.237536 -0.243546 -0.084244 -0.024352 -0.051822 -0.131991 -0.131213 -0.24212 0.036298 -0.268405 -0.097996 0.069666 -0.058736 -7.66E-4 -0.129282 0.068816 -0.141778 -0.156922 -0.025664 0.087507 0.075831 -0.173542 -0.001491 0.028886 -0.277484 0.05349 0.042239 0.079337 -0.110702 0.037204 0.035515 -0.030208 0.03545 -0.044322 0.166191 0.033564 0.047028 -0.248141 0.050313 0.09112 -0.149806 0.166842 0.178304 0.049873 0.026774 0.099826
-0.013236 0.183016 0.137952 0.124071 0.111855 -0.013848 0.12599 -0.160735 -0.167335 0.071493 -0.072039 0.066068 -0.027566 0.081976 0.052254 0.123465 -0.174864 0.02446 -0.045685 -0.237289 -0.244287 0.026204 0.052877 -0.006301 -0.151002 0.100691 -0.123263 -0.056683 -0.053021 -0.13193 -0.028315 -0.105084 -0.171898 0.270708 -0.185777 -0.097435 0.110437 0.083319 0.021308 0.045607 -0.113082 0.144202 0.159826 -0.171962 -0.214273 0.232074 -0.064669 -0.069549 -0.129557 -0.031265 0.144488 0.165463 0.1101 -0.049199 0.20567 -0.026533 0.016345 -0.207442 0.06774 0.068588 -0.022172 -0.154304 -0.174507 -0.096071 -0.023112 -0.165038 -0.196652 -0.059831 0.026218 -0.110533 0.020015 0.284088 -0.047222 -0.16451 0.114496 0.247721 -0.022282 -0.313782 0.01307 0.030813 -0.086021 0.080384 0.179901 0.021525 -0.010492 0.187886 0.064668 0.208563 -0.052103 0.129441 0.05107 -0.169305 0.096805 -0.280488 -0.022548 -0.04542 -0.215836 0.100107 0.371492 -0.03141
-1.482363 1.198757 -2.795043 4.105337 -0.505949 1.000841 -1.353562 3.555108 -2.45069 2.79382 -0.919809 0.93274 0.684084 2.558134 -2.615721 -1.252693 1.459412 0.172322 -1.468399 -2.51459 -0.540749 3.031043 -0.0363 1.98412 -1.12275 3.951102 -1.137981 -1.932574 -1.797927 -4.762658 1.537316 0.135806 1.639663 -1.590274 -2.206267 -1.268076 0.736708 1.798377 -4.134606 -0.954425 1.50566 -0.38337 1.635739 -0.997211 -0.073292 -0.940158 -0.069585 1.948804 2.71211 1.050769 -0.475509 2.857272 0.811727 1.930054 1.717178 -0.169999 1.080929 -2.035098 0.879811 -2.555648 -0.335963 -0.226552 0.742867 0.445288 -1.10652 -0.983096 0.183443 -1.280834 -0.378664 -3.331041 -1.033956 2.531596 2.087368 0.625961 -0.03295 -0.897418 -0.79729 0.618051 -0.84824 2.206427 0.46944 1.120584 2.752258 5.112256 0.900844 -2.315369 3.242269 3.898458 0.535597 3.744396 -1.994592 -4.003265 1.879596 -1.416936 3.000749 -0.911197 2.187157 -0.077727 -0.628997 1.9995
-0.050442 0.065104 -0.223606 -0.083413 -0.03304 -0.091214 0.094277 0.154539 -0.214278 0.191291 -0.014927 0.221824 -0.169049 0.267357 -0.115593 -0.068962 0.370212 -0.086884 -0.183111 -0.127643 -0.020713 0.246624 0.118228 -0.098829 0.096085 -0.039639 -0.023819 0.047278 0.17931 0.104488 0.012961 0.169139 0.026403 0.074824 -0.279845 0.129211 -0.261437 0.09263 -0.026748 0.028142 0.033862 -0.357892 -0.082088 -0.083172 0.248105 0.004364 -0.040047 -0.172627 0.211506 -0.063975 -0.097645 -0.372483 -0.043106 -0.043787 0.070886 0.175897 -0.208948 0.140214 0.077968 -0.118249 0.08627 -0.081195 -0.268329 0.095307 0.012826 -0.052207 0.174362 0.059685 0.087883 -0.073203 -0.114763 -0.122783 -0.105162 -0.171145 0.122008 0.497237 -0.164264 -0.050608 -0.060398 0.033942 -0.092593 -0.357729 0.214928 -0.122522 -0.075397 -0.095338 -0.023338 0.052112 -0.24931 0.00997 -0.335666 -0.115407 -0.377598 -0.053701 0.068099 -0.001644 0.003312 0.274424 0.102209 0.086949
-0.094187 -0.04781 -0.105289 -0.024473 -0.070308 0.044785 -0.005661 -0.10267 0.00485 0.037219 0.129074 0.279348 0.11434 -0.266823 0.025878 0.100118 -0.033246 0.135023 0.116859 -0.139288 0.039945 0.062695 0.22975 0.16266 -0.066716 -0.156651 -0.215567 0.087975 0.112238 0.01478 -0.170726 -0.046063 -0.15568 0.071871 -0.038068 -0.041654 0.092456 0.029107 0.21107 0.162743 -0.070348 0.255676 0.121385 0.116763 -0.021566 -0.027922 0.062348 -0.004723 -0.34902 -0.01785 0.327266 -0.184676 -0.035946 -0.013574 0.04243 -0.119244 0.04198 0.065372 0.120123 -0.065071 0.025326 -0.33898 0.028795 -0.038624 -0.118586 -0.031261 0.051654 -0.037551 0.060803 -0.098007 -0.139207 0.060746 -0.024772 0.005862 -0.013813 -0.058966 -0.18722 -0.061767 -0.042274 -0.142357 0.087845 0.155802 0.058432 -0.19419 0.118858 -0.084112 0.045545 0.032071 -0.08809 0.117658 -0.11899 0.048392 -0.021535 0.032389 0.010311 -0.057461 -0.018416 -0.203106 0.036754 -0.059333
1.155368 3.302179 -0.818617 0.201583 -0.372035 -0.220049 -2.421694 1.24088 1.022918 0.281963 -0.56672 0.218504 -2.654141 0.687099 1.426786 -2.744465 -2.044989 -0.49789 -1.769702 -2.328375 -1.105508 0.104665 -0.061522 -2.669585 1.369504 1.778184 -0.869744 -1.441309 0.051265 1.116249 1.903031 -0.163683 1.731475 -0.652558 -1.459245 -0.212579 0.382415 1.861636 -0.394668 -0.423196 -0.983827 -1.176007 1.844253 0.853456 0.976233 -0.076248 -1.490589 -0.553926 0.506191 0.326236 0.251095 1.038919 -0.803142 0.658979 -3.236482 -1.07965 1.27678 -0.350029 -1.778651 0.292774 0.002745 0.267431 1.072933 -0.321661 -1.19536 -1.465055 -2.523761 -3.574044 -0.123843 -0.515256 3.2036 -0.08683 1.099575 -0.639959 -1.310584 0.629968 -0.142079 0.66081 -1.289981 -0.152693 -0.105374 0.388507 -1.068849 2.207516 -1.516502 0.618648 0.057959 1.61471 0.888036 -0.337188 -0.73306 -0.809614 -1.409634 -0.094797 -0.938314 1.210802 1.47048 2.210952 -1.933366 0.819087
0.331419 0.64394 1.77012 0.368664 1.585577 0.870523 3.241225 0.565094 -1.076062 1.293855 -0.509811 1.166451 2.047005 -1.000525 0.433114 -0.863976 -2.127425 -1.961082 -0.119077 0.387017 -2.43615 -1.229757 1.733507 -0.500864 0.932447 0.709778 2.068641 -0.142548 1.508887 2.01333 3.521531 -0.779211 -2.905951 1.105596 -1.230335 -2.244937 1.365966 1.071514 1.969458 -0.010299 2.414731 -3.775082 0.600536 -0.854497 1.662593 0.310051 -2.013766 1.400142 0.983632 -0.75274 0.842835 -0.688229 -1.832087 0.70018 -3.278434 -1.38583 2.834887 -0.81603 -0.651624 -1.647489 1.577119 0.358462 -1.834123 -1.464353 0.817248 0.833594 -0.522668 1.424433 1.990782 1.181837 -0.436203 -1.555165 -3.21963 -2.505999 -0.110419 -3.036721 1.199436 -1.156687 -0.144021 1.422891 -0.369764 -0.839664 -1.278279 1.021703 2.006905 1.598873 0.676578 0.281091 0.616829 -0.813174 2.247108 -1.799492 0.553118 -1.385924 -0.400061 0.663981 -2.3443 -3.788494 0.187567 2.87306
0.084025 -0.019584 -4.05E-4 -6.71E-4 -0.043915 -0.149761 -0.030405 -0.043581 -0.12249 0.024806 0.016758 -0.013708 0.087499 -0.00182 -0.056894 0.226505 0.051892 0.112312 0.118467 0.05474 -0.069454 0.269685 0.111419 -0.113063 -0.114989 -0.156715 0.016165 -0.079808 0.019863 0.043026 -0.057244 -0.052108 0.151025 0.111394 -0.100902 -0.029935 0.050653 0.139238 -0.055344 -0.12329 0.160175 0.108002 0.065317 -0.121116 -0.043148 -0.039102 0.122706 0.046356 -0.2123 0.003441 0.159742 -0.153909 0.04946 0.196452 0.237439 -0.06497 -0.113792 0.098889 0.202944 0.129521 0.054586 -0.216327 -0.107574 -0.076735 0.040591 -0.064024 0.129646 -0.063381 0.100026 -0.204605 -0.002256 0.052459 -0.192791 0.065095 -0.083891 0.009151 -0.060822 -0.143532 0.151611 -0.012226 -0.080693 0.072453 -0.009511 -0.120072 0.062936 -0.082524 0.040923 0.011557 0.17646 -0.11852 0.23002 -0.155879 0.039341 0.147229 -0.040021 -0.170405 0.001753 0.036239 -0.085196 -0.050576
0.065707 -0.236737 0.049548 0.005064 0.085549 -0.015608 -0.09327 0.083561 -0.33115 -0.071492 -0.029597 -0.125936 0.001953 -0.115921 0.13062 0.17542 -0.200711 0.301285 -0.058926 0.153035 -0.003414 -0.056017 0.153323 0.156922 -0.045423 -0.087861 0.046948 -0.059112 -0.136384 -0.038079 0.063692 -0.135378 0.061464 -0.155648 -0.037754 -0.160903 -0.177813 -0.196602 0.071096 0.073159 -0.026922 0.115867 0.026656 0.152844 -0.119419 0.030686 -0.145535 -0.155229 -0.170159 -0.010994 -0.093433 -0.199446 0.082883 0.083101 -0.002141 0.149423 -0.176257 -0.065511 0.042661 0.023788 0.025263 -0.067887 -0.017177 -0.34871 0.178008 -0.150728 0.332548 -0.00373 0.132738 -0.007362 0.189082 0.087182 -0.211625 -0.02619 -0.052819 0.0665 -0.071426 0.074644 0.096138 -0.162914 0.268603 0.129575 0.002134 0.082223 -0.006574 0.184328 0.067383 -0.021471 0.080434 0.181266 0.074618 0.220726 -0.012205 -0.028814 0.083397 0.055165 -0.005573 -0.012942 0.155337 -0.079928
-0.094187 -0.04781 -0.105289 -0.024473 -0.070308 0.044785 -0.005661 -0.10267 0.00485 0.037219 0.129074 0.279348 0.11434 -0.266823 0.025878 0.100118 -0.033246 0.135023 0.116859 -0.139288 0.039945 0.062695 0.22975 0.16266 -0.066716 -0.156651 -0.215567 0.087975 0.112238 0.01478 -0.170726 -0.046063 -0.15568 0.071871 -0.038068 -0.041654 0.092456 0.029107 0.21107 0.162743 -0.070348 0.255676 0.121385 0.116763 -0.021566 -0.027922 0.062348 -0.004723 -0.34902 -0.01785 0.327266 -0.184676 -0.035946 -0.013574 0.04243 -0.119244 0.04198 0.065372 0.120123 -0.065071 0.025326 -0.33898 0.028795 -0.038624 -0.118586 -0.031261 0.051654 -0.037551 0.060803 -0.098007 -0.139207 0.060746 -0.024772 0.005862 -0.013813 -0.058966 -0.18722 -0.061767 -0.042274 -0.142357 0.087845 0.155802 0.058432 -0.19419 0.118858 -0.084112 0.045545 0.032071 -0.08809 0.117658 -0.11899 0.048392 -0.021535 0.032389 0.010311 -0.057461 -0.018416 -0.203106 0.036754 -0.059333
0.117168 -0.081261 -0.21121 -0.066731 -0.275521 -0.130438 -0.046803 -0.273643 -0.150722 0.128034 0.022846 0.025637 0.017576 -0.037796 -0.006386 0.181461 0.040128 0.176475 0.001647 0.03528 0.070044 -0.024315 0.215394 -0.130377 -0.154997 0.123641 -0.07993 -0.058194 0.148347 -0.018316 0.156754 -0.072208 0.001166 -0.053391 0.028107 0.083249 0.022714 -0.070362 -0.004466 0.162951 0.050816 0.152059 -0.164474 -0.096015 0.09615 -0.187866 0.132109 -0.009701 -0.10345 -0.013038 -0.027891 0.111158 0.060939 0.107792 0.130701 -0.200889 0.071201 -0.114933 8.7E-5 0.031794 0.016418 -0.117627 -0.056679 -0.001196 0.089719 0.159084 0.137783 -0.070769 -0.035414 0.08029 -0.036544 0.101405 -0.025484 -0.201066 -0.02413 -0.047368 0.018007 -0.073843 0.064688 0.001593 0.200226 -0.006609 0.254566 0.024887 -0.033327 0.160618 -0.001714 0.167928 -0.14361 -0.241829 -0.169614 -0.106336 0.004607 -0.019156 0.065673 0.113677 0.125263 -0.012755 0.004842 0.018239
2.13E-4 -0.049307 0.072899 0.006129 0.050615 0.012467 -0.097711 -0.035589 -0.162331 -0.140429 0.01302 0.084477 -0.060589 0.117149 -0.009214 0.06867 -0.092715 0.010699 -0.032614 -0.059592 0.03963 0.027581 0.02697 0.142012 -0.011719 -0.005771 0.020724 0.025448 0.197659 -0.084795 0.041242 -0.165967 -0.001382 0.137198 0.03344 -0.028928 0.093898 0.010328 0.149239 -0.003898 -0.009222 -0.160735 -2.63E-4 0.110294 -0.121119 0.0268 0.00304 -0.031128 -0.091666 -0.016481 0.046048 -0.0154 -0.232481 -0.085101 0.020624 -0.035974 -0.109907 -0.0055 -0.027902 -0.109031 -0.089104 -0.059246 -0.295593 -0.156424 0.026911 0.134819 -0.113929 0.001699 0.165319 0.079719 0.044356 0.022627 0.093824 -0.04391 0.133565 -0.129784 -0.059288 -0.109577 -0.071097 -0.034371 -0.020688 0.041542 0.074053 -0.074511 -0.04548 0.023734 0.014272 -0.034788 0.061586 -0.016588 -0.130291 0.073905 -0.061896 0.076689 -0.015738 -0.028718 0.026226 0.142794 0.038859 0.095937
-0.066823 -0.017142 0.0523 0.092548 -0.039119 -0.010943 -0.053737 -0.192297 0.050838 0.049836 0.056518 0.157734 -0.108507 -0.176479 0.036669 0.062554 -0.13196 0.135974 -0.111394 -0.04297 -0.001547 -0.068272 0.116062 0.094671 0.068441 0.040409 -0.086919 0.115866 0.168843 -0.011926 0.005905 0.03948 -0.041808 0.115919 0.003035 -0.077711 0.089349 -0.011996 0.041559 0.18562 0.028084 0.11994 -0.081577 -0.002622 -0.093965 -0.120879 0.061963 -0.019557 -0.068786 -0.112915 -0.044802 0.030656 -0.049303 0.206536 -0.103625 -0.017283 -0.041546 -0.072882 -0.101859 -0.093491 0.045271 -0.061434 0.016355 -0.101155 -0.130641 0.234137 0.031243 -0.00882 -0.004563 -0.151118 0.053724 0.102054 0.16206 -0.032238 -0.021279 -0.007049 -0.119114 0.038615 -0.206072 0.088167 -0.00419 -0.00541 -0.06305 -0.021561 0.125689 0.067121 0.16526 0.003779 0.031548 -0.02448 -0.125407 -0.016753 -0.084773 0.095383 -0.027877 0.076647 0.052092 0.167173 0.019382 0.075152
-0.047421 -0.15849 0.107499 0.089927 0.167776 0.08617 -0.300314 -0.309623 0.108092 0.189928 0.056687 0.033222 -0.077897 -0.080874 0.159018 0.266839 -0.245001 0.016831 -0.085825 0.058383 -0.059198 -0.055262 0.240707 -0.12969 -0.22039 0.060318 -0.047124 -0.139865 0.089529 -0.172326 0.039714 -0.133083 -0.093917 0.050088 -0.217563 -0.099461 0.041898 -0.126919 0.020688 0.317283 0.16597 0.022872 0.046324 -0.073254 -0.180954 0.079862 0.019486 0.185367 0.118476 0.006355 -0.032953 -0.037425 0.063885 0.11699 0.184923 0.052025 0.128145 -0.13686 0.190992 -0.211976 0.013083 -0.015876 -0.029147 0.01214 -0.021098 0.071397 0.239282 -0.021331 -0.132596 -0.213218 -0.047197 -0.061747 0.108005 0.06585 0.170104 0.21 0.017802 0.149472 0.139998 -0.100998 0.016478 -0.071088 -0.215638 -0.123884 -0.172349 0.055991 -0.115719 -0.021301 0.071983 0.092645 -0.139537 0.078519 -0.099633 0.035876 -0.078405 -0.346964 0.042416 0.013565 -0.105723 -0.0419
-0.22978 -0.018185 0.103738 -0.044352 -0.059621 -0.032808 -0.054534 -0.142764 -0.016199 0.223686 0.030848 0.07203 0.055854 -0.035183 0.037918 0.202285 -0.014379 0.140613 0.110721 0.037503 0.049682 -0.019049 0.028965 0.119315 -0.104871 0.126624 -0.072301 0.01379 0.074278 -0.027531 0.08125 0.033504 -0.160981 0.145625 -0.080483 -0.071313 -0.044452 8.08E-4 -0.02506 -0.11913 -0.022082 0.022077 -0.043311 -0.042421 -0.07171 -0.089738 -0.107567 -0.070579 -0.210357 0.088707 0.178031 -0.010236 -0.086769 0.003509 -0.073919 -0.086805 -0.03311 -0.091898 -0.118191 0.056176 0.068967 -0.097166 -0.136343 -0.096603 0.041292 0.005934 -0.114102 0.044221 0.178344 -0.157635 0.086269 -0.050042 -0.030875 0.075718 0.019678 0.016707 -0.073601 0.06917 -0.104909 -0.168955 -0.113198 0.068211 -0.027858 -0.186699 -0.064433 0.079221 -0.028606 0.037404 0.279568 -0.002493 -0.20691 -0.059152 -0.211108 -0.058995 -0.064814 -0.078002 0.145547 0.074928 0.100889 -0.111812
0.070173 0.039308 0.107688 0.062789 0.15652 0.124082 -0.056432 -0.112537 0.025132 0.140503 0.126967 0.06071 -0.074298 -0.14931 0.052424 0.182899 -0.246843 0.13267 -0.060832 0.014249 -0.124324 -0.021889 0.167993 -0.041896 -0.118065 0.060061 0.024644 0.032088 -0.098378 -0.030464 0.132668 0.111752 -0.096096 -0.07199 -0.297173 -0.090519 -0.107836 -0.01026 -0.033938 0.139789 0.127173 0.008027 -0.077124 0.028844 -0.130697 0.091795 0.126437 -0.176726 -0.119183 0.06901 -0.076019 -0.118921 0.198999 0.162416 0.114462 -0.029789 0.075884 0.002354 0.191814 -0.180285 0.032249 -0.02917 -0.088008 -0.271657 -0.066763 -0.045206 0.183388 -0.151886 -0.047672 0.030697 0.168009 0.04855 -0.083223 0.016797 -0.059652 0.092677 -0.173666 0.089986 0.132784 0.016604 -0.157277 0.026626 9.7E-4 -0.212108 0.094052 0.06787 0.070273 -0.148841 0.03981 0.105973 -0.0732 0.025499 0.047122 -0.076291 -0.093202 -0.17149 0.085148 -0.038776 -0.170445 -0.100314
-0.012218 -0.069311 -0.002194 -0.099386 -0.035179 0.12037 -0.041405 -0.19045 -0.182239 0.141586 0.139956 0.158283 0.041026 0.063972 -0.121598 0.136544 -0.003267 0.023439 -0.053545 0.145355 -0.112444 -0.072886 0.39442 -0.267086 0.069946 -0.106699 -0.303101 0.018491 0.28153 0.034692 0.186646 -0.269997 -0.224221 0.143647 -0.018557 -0.106398 0.042161 -0.139049 0.135221 0.118725 0.044996 -0.127803 0.075957 0.065632 0.082495 0.071922 -0.029464 -0.106341 -0.357285 0.080225 0.033858 -0.122958 0.088873 -0.076177 -0.063458 -0.136372 0.02728 -0.2059 0.199683 -0.14611 -0.202146 0.108732 -0.090561 -0.219834 0.062208 -0.193879 0.064222 -0.106479 0.101503 -0.026744 0.05166 -0.117082 -0.067184 0.106673 -0.047857 -0.151128 -0.173237 -0.037517 -0.127051 -0.188279 -0.069318 0.074234 0.15872 -0.165836 -0.101075 8.73E-4 0.120448 -0.056609 0.106311 0.108433 0.197857 -0.140108 0.125687 0.159585 -0.018169 -0.112142 0.035757 0.104307 0.113333 0.184176
0.914512 -1.795941 2.908358 2.120086 1.572933 -0.646488 0.704087 -0.577989 0.342744 -0.408538 0.454917 0.94921 -1.733688 2.094624 0.283457 1.936602 2.572649 -1.956215 -0.35555 -0.324251 -3.163957 -0.852835 1.614343 0.312631 0.755809 0.012506 0.222847 0.167523 -1.111127 -3.504104 0.023016 0.49064 -1.274229 -1.606274 -1.333465 -0.620754 0.486904 -0.816549 -0.008726 -2.741743 -1.569751 -2.102897 0.021582 0.485264 4.186141 1.465637 -2.608795 -0.45397 0.993671 -0.892343 -0.734 1.496953 1.787794 -0.591848 0.12599 -2.284156 -0.835449 -2.172495 0.489491 0.491101 -2.086851 2.692706 -1.649678 -3.024006 -1.43623 0.391832 -3.028374 -1.131584 -0.361839 1.181541 -0.781364 0.44783 -1.639702 -0.427461 -0.366095 0.184896 0.62013 0.755757 -1.572112 -2.936476 2.909268 1.897405 1.006634 -1.488137 -1.080589 -0.377622 -1.988491 0.768692 -0.965705 -0.947518 0.287581 1.255668 -2.66961 0.498157 0.644451 0.316278 -1.666425 -0.228857 1.192872 -0.374365
0.205983 -0.01757 -0.056239 -0.011962 -0.058786 0.01487 0.048078 -0.076479 0.03824 -0.203017 0.092517 -0.230178 -0.098774 -0.132256 0.006848 0.042904 -0.121787 -0.063099 -0.029771 0.008218 -0.040566 0.017573 -0.048595 0.007341 -0.033025 -0.080857 -0.093199 -0.017946 0.178134 0.03977 0.025577 -0.015398 -0.108572 -0.054545 -0.016022 -0.047966 -0.03646 -0.17021 0.126505 0.062268 0.086196 0.118707 0.041492 0.224393 0.011258 -0.135581 -0.234435 0.09645 -0.04413 0.083256 -0.064108 0.116327 0.042212 -0.184964 -0.237055 -0.059747 -0.015533 -0.109227 -0.081848 -0.051396 0.040712 0.030972 -0.032607 -0.014596 0.017509 0.135804 0.097069 -0.007319 0.03155 -0.081575 -0.139801 0.063244 -0.161877 0.049278 -0.036336 -0.021302 -0.167077 -0.152733 -0.116478 -0.120703 0.181406 0.152188 0.072446 0.00262 0.150907 0.098867 -0.083174 -0.011632 0.12173 0.127395 0.029174 0.22871 -0.140809 0.127612 -0.053826 0.169155 0.1052 -0.002879 -0.110539 -0.025626
-0.053061 0.037018 -0.169664 -0.054197 0.062199 -0.090493 0.168104 -0.215463 0.006664 0.060901 0.122024 -0.025368 0.148503 0.126963 0.136634 0.06143 -0.11128 0.158032 0.010059 -0.017682 0.003446 0.085946 0.100846 -0.01015 0.115594 -0.018042 -0.153679 -0.002623 0.138565 -0.093132 0.080173 -0.119201 -0.10393 0.230571 -0.146249 -0.081459 -0.081941 0.105891 0.040961 -0.089913 -0.259372 0.087867 0.05566 -0.085926 0.050779 -0.251592 -0.012656 -0.067027 0.028355 0.009977 -0.016877 -0.224582 0.006423 0.201346 -0.002869 0.056184 -0.012669 0.117249 -0.092271 -0.104519 0.02248 -0.052512 0.043657 -0.063265 0.046884 0.072546 0.153486 -0.057216 0.076468 -0.025795 0.076852 -0.025648 -0.034183 0.0973 0.071031 -0.038481 -0.15161 -0.002136 -0.014189 0.017172 -0.07907 0.090713 0.112909 -0.452928 -0.177323 0.138897 -0.073653 -0.050658 0.262098 -0.107029 -0.226713 0.024083 -0.098788 -0.099925 -0.004867 -0.228869 -0.074424 -0.028851 0.06492 0.023671
-0.08721 -0.073869 0.052143 0.071999 0.035652 -0.166216 -0.148509 -0.110991 -0.051767 0.121554 -0.048585 1.76E-4 -0.071778 -0.055554 0.169758 0.150913 -0.007 0.081963 0.025291 0.050031 -0.081521 0.113075 0.208054 0.106408 -0.134311 -0.086841 0.071797 0.087051 0.033183 0.007719 0.031592 -0.083982 -0.067545 0.093422 -0.014023 -0.202882 0.185815 0.077192 0.188902 -0.035259 -0.070607 -0.068364 0.066357 -0.011429 -0.141765 0.073427 -0.020537 0.108624 0.023646 0.033871 0.159449 -0.010217 0.00813 0.010861 0.060419 -0.112406 -0.055005 -0.011736 0.038018 0.016908 0.062782 -0.068809 -0.125909 -0.032606 0.119591 -0.064209 -0.003853 -0.058697 0.032004 0.017152 0.024211 0.032409 0.066056 0.088288 0.004771 -0.127911 0.089058 0.02219 -0.138723 -0.135807 -0.067497 0.142716 -0.050933 -0.144314 0.111063 -0.084299 -0.053631 -0.009982 0.132805 0.111221 0.043888 -0.053474 -0.004289 0.065703 -0.088101 -0.090573 0.040345 0.009483 0.126862 -0.070986
0.041392 -0.016273 0.029922 -0.069661 -0.118354 0.012796 -0.046938 0.041883 -0.144479 -0.099648 -0.004134 0.024698 -0.014357 0.120408 0.018673 -0.025112 0.127902 0.026898 0.105965 0.144168 -0.02628 -0.057906 0.161009 -0.079885 0.06562 -0.101988 -0.040492 0.155264 0.173497 -0.117535 0.058284 -0.076263 -0.075895 0.106679 0.049406 0.069308 0.014356 -0.009093 0.039259 0.068198 -0.085544 -0.098706 -0.011215 -0.016759 0.115924 -0.113211 -0.057935 0.007783 0.065614 -0.052371 -0.043299 -0.065089 0.06852 -0.033551 -0.015727 -0.038887 -0.067809 -0.003574 -0.030663 -0.00837 -0.071585 0.016483 0.015893 -0.058299 -0.059645 -0.045443 -0.0906 0.052064 0.076719 0.019852 -0.084307 0.112458 -0.077069 -0.040597 -0.021394 -0.099176 0.006771 0.003419 0.023077 -0.05389 0.023097 0.042864 -0.023965 -0.099767 0.003416 -0.010866 0.186994 0.030191 0.008449 0.197713 -0.095154 0.021799 -0.024271 -0.021445 0.046761 -0.00297 -0.088931 -0.112039 0.028108 0.05379
-0.105525 0.005748 0.051302 0.021906 -0.193169 -0.049308 0.040023 0.106824 -0.090271 -0.079578 0.115866 0.208165 -0.048068 0.091641 0.007569 0.075609 -0.039145 0.012762 0.034781 0.096761 0.01259 -0.098532 0.13849 -0.053416 -0.18107 -0.016028 -0.035454 0.032901 0.098201 -0.175606 -0.023507 -0.12521 -0.059974 0.076125 -0.213748 -0.146625 0.127884 0.009109 0.038367 0.193874 0.032923 0.207259 0.147812 0.079722 -0.087116 0.105431 0.026924 0.097063 -0.118027 -0.05635 -0.250165 -0.032748 -0.098395 -0.119412 -0.050484 -0.086723 -0.062018 -0.037319 0.32092 -0.039048 -0.014906 -0.089151 -0.070153 -0.135247 -0.046918 -0.012645 0.180661 0.059369 0.188986 -0.126551 0.055395 0.14005 -0.252568 -0.007578 0.235707 -0.151294 -0.064863 0.142859 0.02331 0.066209 0.14478 0.088763 0.017659 -0.190075 -0.110408 -0.001973 -0.017945 0.045015 0.144204 -0.102462 -0.019327 0.062948 -0.016036 0.051797 -0.077971 0.001891 -0.028029 -0.149175 -0.022383 -0.111512
0.188501 -0.221731 -0.023458 -0.166332 -0.435242 -0.098987 0.041526 0.131867 -0.024584 -0.20076 -0.394665 -0.004484 0.124351 0.402554 0.06752 -0.282665 -0.307667 0.048943 0.334473 -0.006839 -0.306169 -0.063632 0.191828 -0.179945 -0.415866 -0.112347 -0.034418 -0.228495 0.122544 -0.108908 0.219238 0.087714 0.207 -0.24022 -0.424346 0.358776 -0.07543 0.269497 -0.294361 -0.036535 0.037422 0.110508 0.076471 -0.107737 0.136063 -0.090401 0.105502 0.216954 0.012767 0.124794 -0.253905 -0.514057 0.064103 0.014363 0.00642 0.015482 0.003974 -0.081826 0.035421 0.157769 -0.026208 -0.188046 0.027027 -0.257457 -0.211788 -0.168932 -0.100008 0.419656 0.19905 0.180173 0.033282 0.19158 -0.542487 0.170298 0.181455 -0.742332 -0.396801 0.345593 0.318892 -0.116102 0.435821 0.127416 0.174932 -0.404438 -0.079128 0.055735 -0.073836 0.049366 -0.023421 0.056107 -0.168143 0.217572 -0.005289 -0.26019 -0.071229 0.106591 -0.233107 -0.152307 0.045449 -0.150075
0.098967 -0.197107 -0.113299 0.09995 -0.174989 -0.003881 -0.193059 -0.092947 0.1948 0.018486 -0.182426 0.059451 -0.147056 0.228563 0.096719 0.019036 0.16713 -0.064994 -0.175456 0.053932 0.005241 0.197207 0.051655 0.086541 -0.233909 -0.068402 0.114597 -0.039738 0.092418 -0.177938 0.011602 0.012119 -0.032762 -0.054302 -0.089663 -0.060444 0.056516 0.017661 0.03861 0.100246 0.20952 -0.015157 0.052879 -0.131952 0.120124 -0.054601 -0.065201 -0.065767 -0.055088 -0.122335 -0.177837 -0.095953 0.066299 0.069697 0.358981 -0.108825 0.197137 -0.08289 0.064786 0.1037 0.250078 -0.073839 -6.93E-4 0.091706 0.024401 -0.021297 0.034531 -0.007827 -0.101417 -0.340576 0.131224 0.097739 -0.029551 -0.017092 0.140342 -0.2143 -0.117526 -0.00123 -0.222369 0.207676 -0.033501 -0.110195 0.078811 -0.055345 0.227984 -0.038636 -0.130347 0.045672 0.112078 0.101422 0.156315 0.143865 -0.022506 0.173672 -0.173879 -0.121665 -0.039825 -0.286455 0.039412 0.178933
-0.032903 -0.094707 0.076559 -0.018985 -0.136801 0.009299 0.051492 0.169396 -0.00643 0.015722 -0.051891 0.06806 0.088169 -0.066951 0.002157 0.014758 -0.073565 0.036616 0.075677 -0.075119 -0.030467 -0.106464 0.076956 0.18308 -0.017504 -0.195878 0.23471 -0.061483 -0.01894 0.131472 0.018647 0.00125 -0.071924 -0.100483 -0.136579 -0.055121 0.058053 -0.086665 0.164759 -0.143305 -0.085894 0.079087 -0.029024 0.15884 0.040331 -0.116784 0.105685 0.041795 -0.029546 -0.097087 -0.003381 -0.002905 -5.26E-4 -0.091166 -0.061719 0.122239 -0.056034 -0.020235 -0.103517 -0.196643 -0.16195 -0.077991 0.037245 -0.061959 -0.191716 0.073676 -0.023243 0.163696 0.146368 -0.07497 0.088503 -0.013371 0.140937 -0.054814 -0.052321 0.094729 -0.021219 0.23572 0.11697 0.044408 0.111967 -0.083012 0.324307 -0.250197 -0.2319 0.009285 -0.120428 0.177437 0.054447 0.021822 -0.129909 0.023223 0.009985 0.028667 -0.075037 -0.070206 0.051219 -0.048871 -0.198652 0.123204
0.070173 0.039308 0.107688 0.062789 0.15652 0.124082 -0.056432 -0.112537 0.025132 0.140503 0.126967 0.06071 -0.074298 -0.14931 0.052424 0.182899 -0.246843 0.13267 -0.060832 0.014249 -0.124324 -0.021889 0.167993 -0.041896 -0.118065 0.060061 0.024644 0.032088 -0.098378 -0.030464 0.132668 0.111752 -0.096096 -0.07199 -0.297173 -0.090519 -0.107836 -0.01026 -0.033938 0.139789 0.127173 0.008027 -0.077124 0.028844 -0.130697 0.091795 0.126437 -0.176726 -0.119183 0.06901 -0.076019 -0.118921 0.198999 0.162416 0.114462 -0.029789 0.075884 0.002354 0.191814 -0.180285 0.032249 -0.02917 -0.088008 -0.271657 -0.066763 -0.045206 0.183388 -0.151886 -0.047672 0.030697 0.168009 0.04855 -0.083223 0.016797 -0.059652 0.092677 -0.173666 0.089986 0.132784 0.016604 -0.157277 0.026626 9.7E-4 -0.212108 0.094052 0.06787 0.070273 -0.148841 0.03981 0.105973 -0.0732 0.025499 0.047122 -0.076291 -0.093202 -0.17149 0.085148 -0.038776 -0.170445 -0.100314
1.035361 1.319725 0.388011 1.220811 -0.236045 1.447081 -1.78193 3.520004 0.063077 -1.681862 0.545208 0.767849 -1.479444 -1.152839 0.669301 0.685509 -2.946755 -2.239533 -1.187422 -1.793336 0.607402 0.130687 0.296681 -1.569517 1.825066 1.715849 -1.639836 0.849724 -1.742086 0.427502 3.84844 -1.377145 0.671096 -1.312902 -1.152387 0.705431 2.180344 2.97496 1.402098 -0.909545 -1.649212 -0.253421 1.186817 1.193823 3.167747 -0.387379 -0.12198 0.872223 0.13285 0.490844 0.029473 1.345032 0.297008 2.724698 -1.656047 -0.109585 1.500583 -1.148555 -3.658389 1.022988 -1.211381 0.342059 -0.023586 1.22536 -1.874871 -1.957746 -0.188066 -0.235303 -0.067175 1.107354 1.448404 0.838301 1.67396 -0.238039 -0.504146 -1.334739 0.688005 0.37731 -2.953094 0.650433 0.307563 -0.457962 -1.694326 2.40152 -0.816994 0.208705 1.853393 0.15935 -0.989952 1.089235 1.087388 -2.786835 -2.248864 -0.788939 0.405791 0.907533 -1.516669 1.970717 -0.345554 -0.134731
3.660119 0.78308 0.254286 0.776416 0.924581 -0.437481 -0.533561 -0.872012 -2.946113 0.626081 1.53839 1.946758 -0.862899 -0.945613 1.766512 2.166661 3.460992 -2.763582 -0.521572 0.041645 -2.662905 -0.257548 -0.459391 -1.531924 2.25437 1.961662 -0.692198 1.179525 0.681098 0.434618 -0.756693 -0.944351 0.385753 3.34177 -1.955051 -0.977185 5.60649 -3.032247 0.87999 -0.35643 0.18506 -0.430195 -1.966805 -0.00635 1.604138 0.043532 1.353861 1.094314 2.586137 -1.222757 -0.483277 0.486714 0.876855 0.826582 -1.036986 2.303727 1.360498 1.528864 0.387595 -1.935704 -1.284075 -2.451957 1.109406 -2.376212 0.552611 -2.966229 1.776301 -2.655983 0.020251 -0.105776 1.963836 -1.81041 -0.833643 1.907137 0.052139 0.277802 -2.902076 2.079129 0.132403 0.651139 0.09479 -1.462325 2.73655 -3.598651 2.220337 -0.811415 -0.654668 -0.115735 1.991359 -2.338517 1.174129 0.515662 0.748414 0.935736 2.208066 2.017497 2.348255 0.355015 -0.837107 -0.589586
0.039107 -0.02067 -0.10249 -0.024722 -0.063253 0.032916 -0.009982 0.08429 0.031646 0.103876 0.034398 0.092607 0.069173 0.12231 0.103 0.141929 -0.076041 0.117716 -0.001814 0.072521 -0.014655 0.077546 0.174733 0.066339 -0.03128 0.036747 -0.075198 0.10743 0.072084 -0.168768 -0.077598 0.057002 -0.334998 -0.024934 -0.04279 -0.09146 -0.035409 -0.065419 -0.123414 0.062626 0.058385 -0.073858 0.211725 -0.116346 -0.04965 -0.0644 -0.092243 0.024931 0.052204 0.045777 0.045302 -0.053679 -0.050616 0.055598 0.067058 -0.169554 0.080851 5.71E-4 0.066465 -0.022915 0.053478 -0.042859 -0.127706 -0.067637 0.114882 0.027241 0.079241 0.091277 0.176538 -0.034113 0.243043 -0.008071 0.126823 0.046193 -0.042251 -0.106003 -0.090478 1.19E-4 -0.120651 -0.054555 0.061744 0.216144 0.136283 -0.187366 0.100585 0.127902 0.104169 -7.8E-5 0.126204 -0.044382 -0.237683 0.023769 0.005389 0.244522 -0.066904 -0.121136 0.084758 0.058368 0.101701 0.004039
0.0 0.0 0.0 0.0 0.0 0.0 0.0 0.0 0.0 0.0 0.0 0.0 0.0 0.0 0.0 0.0 0.0 0.0 0.0 0.0 0.0 0.0 0.0 0.0 0.0 0.0 0.0 0.0 0.0 0.0 0.0 0.0 0.0 0.0 0.0 0.0 0.0 0.0 0.0 0.0 0.0 0.0 0.0 0.0 0.0 0.0 0.0 0.0 0.0 0.0 0.0 0.0 0.0 0.0 0.0 0.0 0.0 0.0 0.0 0.0 0.0 0.0 0.0 0.0 0.0 0.0 0.0 0.0 0.0 0.0 0.0 0.0 0.0 0.0 0.0 0.0 0.0 0.0 0.0 0.0 0.0 0.0 0.0 0.0 0.0 0.0 0.0 0.0 0.0 0.0 0.0 0.0 0.0 0.0 0.0 0.0 0.0 0.0 0.0 0.0
0.0 0.0 0.0 0.0 0.0 0.0 0.0 0.0 0.0 0.0 0.0 0.0 0.0 0.0 0.0 0.0 0.0 0.0 0.0 0.0 0.0 0.0 0.0 0.0 0.0 0.0 0.0 0.0 0.0 0.0 0.0 0.0 0.0 0.0 0.0 0.0 0.0 0.0 0.0 0.0 0.0 0.0 0.0 0.0 0.0 0.0 0.0 0.0 0.0 0.0 0.0 0.0 0.0 0.0 0.0 0.0 0.0 0.0 0.0 0.0 0.0 0.0 0.0 0.0 0.0 0.0 0.0 0.0 0.0 0.0 0.0 0.0 0.0 0.0 0.0 0.0 0.0 0.0 0.0 0.0 0.0 0.0 0.0 0.0 0.0 0.0 0.0 0.0 0.0 0.0 0.0 0.0 0.0 0.0 0.0 0.0 0.0 0.0 0.0 0.0
0.070173 0.039308 0.107688 0.062789 0.15652 0.124082 -0.056432 -0.112537 0.025132 0.140503 0.126967 0.06071 -0.074298 -0.14931 0.052424 0.182899 -0.246843 0.13267 -0.060832 0.014249 -0.124324 -0.021889 0.167993 -0.041896 -0.118065 0.060061 0.024644 0.032088 -0.098378 -0.030464 0.132668 0.111752 -0.096096 -0.07199 -0.297173 -0.090519 -0.107836 -0.01026 -0.033938 0.139789 0.127173 0.008027 -0.077124 0.028844 -0.130697 0.091795 0.126437 -0.176726 -0.119183 0.06901 -0.076019 -0.118921 0.198999 0.162416 0.114462 -0.029789 0.075884 0.002354 0.191814 -0.180285 0.032249 -0.02917 -0.088008 -0.271657 -0.066763 -0.045206 0.183388 -0.151886 -0.047672 0.030697 0.168009 0.04855 -0.083223 0.016797 -0.059652 0.092677 -0.173666 0.089986 0.132784 0.016604 -0.157277 0.026626 9.7E-4 -0.212108 0.094052 0.06787 0.070273 -0.148841 0.03981 0.105973 -0.0732 0.025499 0.047122 -0.076291 -0.093202 -0.17149 0.085148 -0.038776 -0.170445 -0.100314
-0.233896 -0.10663 0.278339 0.113261 -0.050617 0.049627 -0.217735 -0.027374 0.02913 0.204592 0.259458 0.121216 -0.041754 -0.200317 0.034251 0.140395 -0.151228 0.38963 0.091428 0.092799 -0.242976 0.080613 0.156548 0.014422 -0.230624 -0.032449 -0.128053 0.029426 0.302118 -0.010958 -0.096874 -0.054359 -0.066621 0.107984 -0.090742 -0.086514 -0.011349 -0.191854 -0.021415 0.194813 -0.023694 0.115236 -0.087388 0.039594 0.109732 -0.124624 0.093204 0.008751 -0.205357 0.036057 0.209179 0.005905 -0.095679 0.086578 0.082856 -0.146888 -0.130973 -0.030595 0.146223 -0.107987 0.146115 -0.160987 0.052677 -0.094308 -0.106703 0.007645 0.175909 -0.017297 0.077811 -0.207743 -0.085946 -0.026696 0.040171 -0.127379 -0.074388 -0.085108 -0.108785 0.070924 -0.106138 0.092086 -0.091985 0.095413 0.170201 -0.109472 0.100523 0.16442 0.108283 0.049484 0.206017 0.133908 -0.13998 -0.012309 -0.032374 0.178563 0.001324 -0.031949 0.114554 -9.1E-4 -0.187043 -0.08746
0.127437 0.136563 -0.16501 -0.006877 -0.011328 0.06665 -0.097125 0.104311 -0.177583 -0.30151 0.070412 0.065711 -0.091867 0.126491 0.069489 0.051504 0.007493 -0.209089 0.102895 -0.16418 0.159678 -0.063109 -0.001868 -0.080635 0.038203 -0.011213 0.013561 0.352833 0.219526 -0.130247 -0.025382 -0.04733 -0.123427 0.076098 -0.012491 -0.096628 0.088538 0.055961 0.046655 -0.193167 -0.285168 -0.166588 0.1156 0.129255 0.045112 -0.022694 -0.031091 0.14536 0.10832 -0.153777 0.002048 0.204479 0.03177 0.055538 -0.055382 -0.289152 -0.080398 0.075756 -0.077782 -0.055513 0.066619 0.135058 -0.056698 0.042405 -0.037207 -0.120517 -0.140832 -0.012605 0.002222 0.157094 0.17693 -0.075551 0.094552 -0.168069 -0.004106 0.272983 -0.041992 0.02098 0.103289 0.118408 0.097882 -0.019776 -0.054476 0.027703 -0.170028 -0.091798 0.104825 0.224943 -0.070032 -0.115781 -0.132153 -0.105961 -0.114614 0.072483 -0.098931 -0.026109 -0.012562 0.030932 0.122113 0.3454
-0.023268 -0.198653 0.080259 -0.033119 -0.009743 -0.077713 -0.122981 -0.032361 -0.011665 0.125902 0.163899 0.139932 -0.018659 -0.058227 0.110694 0.117736 -0.045761 0.207168 0.079638 0.004144 -0.095891 0.025603 0.182632 0.144277 -0.051799 -0.022182 -0.087243 -0.005502 0.110512 -0.224808 -0.007787 0.053096 -0.085415 0.106602 -0.140467 -0.132593 -0.064546 -0.018292 0.102037 -0.025144 0.053432 -0.005489 -0.062178 0.060401 0.07321 -0.115869 -0.091859 0.033327 -0.098097 -0.015728 0.249048 -0.222925 -0.182726 0.086475 0.147986 -0.172737 0.025388 -0.1178 0.021929 -0.02277 7.85E-4 -0.052999 -0.03631 -0.156838 3.0E-6 0.036481 0.046044 -0.071523 0.221617 -0.076884 -0.132658 -0.022169 -0.091823 -0.115637 0.042923 -0.159996 -0.226336 -0.049036 -0.00876 -0.097735 -0.049872 -0.037068 0.087594 -0.221507 -0.187444 0.202736 -0.08508 0.009997 0.012409 0.006737 -0.068729 0.049978 -0.029349 -0.049498 0.081399 -0.06883 -0.072567 -0.089351 0.081084 0.039825
-0.046453 -0.114089 0.048378 0.039697 0.205342 -0.134425 0.195579 -0.187425 0.012362 -0.056148 -0.131226 -0.036605 -0.166618 -0.005606 0.011423 -0.035289 0.073024 0.049955 -0.03056 -0.116564 -4.0E-4 0.248965 0.168589 -0.016666 -0.127127 -3.18E-4 0.127741 -0.107854 0.05539 -0.111124 -0.041902 -0.11626 0.086201 0.191946 -0.031307 -0.026238 0.135582 -0.138117 -0.118683 -0.205278 -0.118941 0.075416 -0.021621 -0.074612 0.105553 0.141257 -0.097239 0.031083 -0.191864 0.157126 0.157338 0.018714 -0.190255 -0.078835 0.160698 0.051121 -0.022634 0.282011 -0.210636 0.065967 0.011387 -0.10215 -0.014587 8.06E-4 -0.126806 0.10146 -0.051249 -0.166886 0.138311 -0.092453 -0.203714 0.163209 0.126385 -0.163049 0.060969 -0.136489 -0.119169 0.143901 -0.166778 -0.074124 -0.205023 0.138254 -0.069697 -0.023512 0.056226 -0.151985 0.057434 -0.163405 0.084998 0.19969 0.169875 -0.038445 0.015784 -0.127481 -0.113888 -0.245198 0.065981 0.165014 0.001608 -0.042748
0.0 0.0 0.0 0.0 0.0 0.0 0.0 0.0 0.0 0.0 0.0 0.0 0.0 0.0 0.0 0.0 0.0 0.0 0.0 0.0 0.0 0.0 0.0 0.0 0.0 0.0 0.0 0.0 0.0 0.0 0.0 0.0 0.0 0.0 0.0 0.0 0.0 0.0 0.0 0.0 0.0 0.0 0.0 0.0 0.0 0.0 0.0 0.0 0.0 0.0 0.0 0.0 0.0 0.0 0.0 0.0 0.0 0.0 0.0 0.0 0.0 0.0 0.0 0.0 0.0 0.0 0.0 0.0 0.0 0.0 0.0 0.0 0.0 0.0 0.0 0.0 0.0 0.0 0.0 0.0 0.0 0.0 0.0 0.0 0.0 0.0 0.0 0.0 0.0 0.0 0.0 0.0 0.0 0.0 0.0 0.0 0.0 0.0 0.0 0.0
1.313101 -1.828077 1.255073 -0.57291 -1.221992 -0.141653 0.892546 0.262095 -0.422972 0.52527 2.770927 -2.116018 -1.303039 2.034119 -1.042658 -1.877754 -0.113988 2.948427 -1.157758 0.228368 -1.62103 2.370189 -1.087966 -1.275151 0.610923 3.24562 1.0986 -0.229467 -3.034251 -1.557004 2.718354 -0.823788 -1.708001 -1.364332 0.304998 -1.19356 3.176471 -0.233449 -3.484355 -2.844404 -0.168624 -3.026944 2.318517 -0.33999 -1.533419 -0.264688 -2.004779 -1.258036 -0.82825 0.612678 2.337875 2.021732 1.255669 0.960029 -3.233 -0.309413 2.678803 -1.321722 -2.726613 1.188582 0.358215 2.072681 -2.899753 -1.608204 0.117954 -1.026589 -1.877072 0.22054 -0.516172 0.998566 1.496877 -0.451898 0.04087 3.884146 3.578913 0.680106 -1.856922 0.764707 -0.523331 -0.239934 1.850372 2.376356 -2.081512 2.089242 -1.78243 -2.297229 1.245129 1.257432 -0.202896 -1.347756 -1.270859 2.061053 -0.332924 -0.64474 -1.876097 2.53156 0.742881 -0.423323 2.234084 -1.244354
0.028812 -0.193874 -0.069568 0.131632 0.050237 0.262048 -0.047718 -0.105232 0.015209 0.090714 -0.072417 0.019536 0.113702 0.057842 0.071468 0.173262 -0.074898 0.254407 0.008235 -0.020778 -0.131273 0.026184 0.102019 -0.061661 -0.065665 -0.133121 -0.007978 0.075843 0.047351 -0.225679 -0.015061 -0.28821 -0.04973 0.175841 -0.010909 -0.119084 0.136613 -0.019625 0.217581 0.036251 0.024136 0.061726 0.10502 0.010018 -0.062541 -0.034684 -0.039222 -0.078534 -0.228461 0.088693 0.169479 -0.080341 -0.156163 0.014456 0.060386 -0.071811 0.113755 -0.200075 0.08294 -0.100734 -0.074062 -0.039789 0.142205 -1.65E-4 -0.009906 -0.097965 -0.030123 -0.008877 0.141071 -0.038744 -0.03783 -0.130836 0.055966 0.043303 0.101372 0.003917 -0.166536 0.004383 -0.112085 0.041792 -0.010952 0.125705 0.004544 -0.081338 -0.047733 0.033946 -0.066874 -0.006354 0.028629 -0.031288 -0.081645 -0.043436 0.022948 -0.061105 0.066518 0.021813 0.00237 0.040275 -0.084011 0.004719
