-0.036542 -0.02538 0.058754 0.014258 0.043375 0.047268 -0.169751 -0.120767 -0.071236 0.10054 0.046093 0.057057 0.019031 -0.137289 -0.001224 0.11122 0.103544 -0.001018 -0.010134 0.135732 -0.074324 -0.035915 0.317744 -0.045082 -0.032173 -0.118918 -0.143798 -0.064369 0.088772 -0.087435 -0.082479 0.128774 -0.077516 0.152989 -0.0746 -0.032792 -0.004368 -0.01567 -0.035173 -0.022903 0.010049 0.149014 -4.49E-4 -0.011591 0.050318 -0.092015 -0.036941 -0.061284 -0.065817 0.144417 -0.062907 -0.020481 -0.043902 0.087783 -0.015325 -0.048529 -0.101396 -0.073657 -0.012658 -0.17404 0.009486 -0.069 -0.00194 -0.125625 -0.167415 0.033728 0.07043 0.077122 -0.013815 -0.07231 0.064422 0.126889 0.026997 -0.095201 -0.020973 0.109696 0.08518 -0.045919 -0.062553 -0.06661 0.057752 0.033061 -7.16E-4 -0.082731 0.057291 0.10298 -0.017198 0.080923 0.053762 0.145933 -0.148804 0.001949 -0.181703 0.011419 0.134752 -0.13756 0.025901 -0.104205 0.061202 -0.019935
0.145032 -0.090409 0.112363 0.206801 -0.090159 -0.03382 -0.070766 -0.214824 -0.096195 0.097716 0.088366 0.11419 0.01785 -0.033932 0.183491 0.075294 0.019839 0.158785 -0.105136 0.029434 0.101611 0.157084 0.151922 0.205444 -0.087594 0.050565 -0.131222 -0.186997 0.224525 -0.150881 0.049902 0.059971 -0.102616 0.032489 -0.231809 -0.06732 0.082974 -0.121698 0.028758 0.146404 -0.114295 0.139296 0.068779 -0.052651 0.040944 0.020004 -0.010938 -0.148314 -0.045099 0.082178 0.183436 -0.073777 0.070359 0.022984 -0.075182 -0.033946 0.203093 0.08298 -0.012349 -0.102282 0.016075 -0.142828 0.110106 -0.09946 -0.087635 -0.077478 0.055192 0.032781 -0.103988 -0.1187 0.114945 -0.068919 0.067984 -0.051079 0.179686 0.059726 -0.02702 0.004697 6.12E-4 0.082243 -0.221649 0.113264 0.059489 -0.119857 0.023174 0.103052 0.163798 0.112596 0.149656 0.061558 -0.04166 -0.108795 0.143904 0.187329 -0.093332 -0.149705 0.210109 0.116294 -0.057812 -0.018421
2.238368 0.394273 -1.113736 0.022246 -0.962635 0.921982 -1.610074 0.495245 0.296635 0.020256 -0.635551 0.118928 0.26419 1.608126 -0.071234 1.404867 1.356593 0.110454 0.005985 0.743685 -1.246256 0.562671 0.663027 -1.45974 -0.420872 0.05454 -0.368271 0.305152 0.394352 -0.781568 0.513114 -0.882939 0.091018 -1.359789 -0.194672 -0.277325 -2.577512 -1.153216 -1.708212 -1.163717 0.545044 0.049529 0.072833 -0.971097 0.273874 -0.693921 -0.573698 0.632205 -0.149864 -0.554913 -1.075519 1.295099 0.691193 1.507426 1.249022 -0.328318 1.356901 -0.727316 -0.411989 1.335962 0.970351 0.849468 0.320734 -0.011767 0.159979 -2.580096 -1.585941 -1.498335 1.336547 -1.921986 -0.391161 0.03622 -0.202276 0.496185 -0.88069 0.0236 0.411901 0.289569 0.250247 0.391884 0.805644 -0.023448 1.772227 -1.876511 2.634442 -1.783275 -1.127802 -2.21291 0.241969 1.57257 -0.86791 1.557125 0.88596 0.220448 1.14943 -0.915152 0.084055 0.203387 -1.534518 -0.695234
-0.044837 -0.059402 0.030332 0.241967 -0.062346 0.109101 -0.110666 -0.054967 0.065737 0.040127 -0.042808 0.164668 -0.153839 -0.039862 0.211634 0.130074 0.08454 0.05629 -0.050807 0.052477 -0.089143 0.227134 0.076438 0.068051 -0.031039 -0.092258 -0.067688 0.029545 0.082225 -0.049766 -0.064638 -0.021653 0.13836 0.006605 5.09E-4 -0.098456 -0.073221 0.004961 -0.020252 -0.011711 -0.097628 0.032543 0.076532 -0.068042 0.01682 -0.11534 -0.160978 -0.107205 -0.00273 -0.014053 -0.038951 -0.045136 -0.003943 -0.014608 0.145556 -0.034684 0.018448 -0.154689 -0.04642 -0.185806 0.042083 -0.186932 -0.087293 -0.003587 0.142654 -0.101713 -0.022718 -0.059859 0.071897 0.111206 -0.008224 0.033822 -0.073604 0.115227 -0.077536 -0.093607 -0.077215 0.064121 0.014487 0.086165 -0.049525 0.185644 0.121572 -0.136086 0.122032 0.093258 0.024639 -0.072031 0.095768 -0.032803 -0.130817 0.038988 0.059496 0.129468 -0.132939 -0.042241 0.070801 -0.124625 0.089341 -0.248693
-0.671963 -1.356401 3.602218 0.823366 -0.502176 -0.026847 2.688116 0.953721 0.412325 -0.074957 -2.563688 0.379861 -0.279054 0.512633 -0.426346 -0.669122 -2.193019 -1.985633 1.195718 -0.843091 -3.07709 -2.336138 0.676971 -1.157188 0.84245 -0.067074 1.662677 -0.902702 0.573933 0.762577 1.605777 -0.494156 -0.764054 -4.857189 1.199538 0.081996 1.582965 -1.800896 1.133021 -2.874443 -0.067305 0.527258 -0.963475 2.056148 -0.810059 -2.590427 0.192699 -0.925293 0.533123 0.50128 0.198265 1.047486 -1.15476 -0.133629 -3.660616 2.9145 0.67414 -1.747608 -1.472014 0.506851 -0.089567 -1.009712 -0.989767 -0.231732 -1.20197 -0.899847 -0.180586 -0.280434 1.214359 0.601947 3.002038 1.452004 1.898121 0.64863 -0.773459 -0.546508 1.482508 0.349815 -0.022055 1.977613 1.349274 -0.187718 2.026595 2.419264 -2.256871 -0.764584 -0.110956 2.609596 -0.511332 0.497735 1.205947 -0.553892 0.146347 -2.201324 -0.117853 -0.193777 0.312823 3.388883 -4.036498 2.412019
-0.008737 -0.071431 0.222086 0.09713 -0.012825 -0.094455 -0.048178 -0.0733 -0.050683 -0.044621 0.042914 0.249062 -0.047541 -0.053343 0.127968 0.125924 -0.179997 0.010941 -0.149335 -0.052158 -0.10735 0.019371 0.005032 0.128678 -0.144206 -0.082465 -0.01069 -0.060824 0.081662 -0.090903 -0.028261 0.059491 -0.03112 0.050629 -0.11232 -0.079616 -0.033833 -0.044919 0.021308 0.11316 -0.085494 0.099264 -0.043084 0.024201 0.131184 0.01328 -0.104306 -0.077863 -0.192636 0.147659 0.084202 0.003478 0.021405 -0.05287 0.149339 -0.098789 0.099758 -0.124899 -0.043734 0.010287 0.082724 -0.121057 -0.023188 -0.071734 0.102688 -0.182146 -0.088929 0.123969 -0.016004 -0.201785 -0.174857 0.062809 0.033341 0.067161 0.025379 0.1064 -0.082094 -0.071197 -0.051768 -0.159184 -0.074399 0.040512 0.039029 -0.085302 0.008606 0.015214 0.049197 0.114274 0.191182 0.201162 -0.196956 9.15E-4 0.16356 0.082254 -0.123581 -0.124019 0.027632 -0.012766 -0.058178 -0.07186
-0.107332 -0.119831 -0.09139 -0.118209 0.002665 0.050732 0.057604 -0.004642 0.110712 -0.124328 0.010238 -0.08085 0.163309 0.046214 0.086077 -0.092393 0.112776 0.048239 0.037781 -0.009473 0.060318 0.066469 0.079674 0.086865 0.052368 -0.107125 0.008821 -0.230511 -0.002588 -0.044707 -0.026782 -0.027972 0.072867 0.056421 -0.084306 0.036899 -0.151945 -0.075593 0.01364 0.18016 0.019509 0.061955 0.19462 -0.090637 -3.94E-4 -0.212093 0.094856 0.054489 -0.191274 0.102332 0.169931 0.071094 -0.055747 0.103635 0.092733 0.039555 0.075427 0.082746 -0.082052 0.011023 0.040589 -0.006425 -0.06413 -0.041381 0.146831 -0.113941 -0.03646 -0.16421 0.131959 -0.114876 -0.04377 -0.017154 0.095525 -0.222695 0.008673 -0.053183 -0.198999 -0.095104 0.031007 0.045144 -0.0032 0.034064 0.072754 -0.195526 -0.042672 -0.05152 0.088753 0.229255 -0.052827 -0.222339 -0.16657 0.139136 0.011989 -0.082558 0.203663 0.083003 0.012067 -0.090969 -0.018027 0.006941
-0.186541 -0.103562 0.084023 0.068019 -0.042658 0.054326 -0.089113 -0.0586 -0.025315 -0.00483 0.037133 -0.143385 0.173072 0.036562 0.055564 0.101954 0.116651 0.250489 -4.29E-4 0.128986 -0.083048 0.134853 0.021164 -0.044882 0.023076 -0.022995 0.005891 0.150916 0.099036 0.101321 -0.210468 -0.077551 -0.2085 0.03748 -0.099077 -0.230315 0.105746 0.0173 0.018374 0.002226 0.042904 0.004448 -0.065016 0.114949 -0.029602 -0.120527 0.170661 0.145994 -0.119024 0.034657 0.031884 0.088794 -0.236671 -0.086782 0.134083 -0.088449 0.009924 0.128028 0.028588 0.042431 -0.029266 0.238106 -0.114075 0.005546 -0.205787 -0.028912 -0.106685 -0.09506 0.073417 -0.110768 -0.143758 0.00801 0.015002 -0.05882 -0.073469 0.00593 0.022303 -0.037623 0.017789 -0.007934 0.081754 0.15582 0.049966 -0.037966 0.135168 0.012886 0.042194 -9.5E-5 0.229344 -0.123858 -0.051609 0.032549 -0.058954 0.110117 0.067044 -0.152377 0.082909 -0.154981 0.060898 0.14248
0.073823 -0.194957 -0.016051 0.052837 -0.188533 0.154097 0.066595 0.126567 -0.011962 -0.200295 -0.069964 0.194045 0.125916 -0.159694 -0.111081 0.129367 -0.17214 -0.051649 0.023396 -0.182416 -0.093957 -7.44E-4 0.380477 -0.061166 -0.033713 0.121382 -0.166333 -0.133343 0.123841 -0.003654 -0.071235 -0.230339 -0.126707 -0.009469 -0.09828 -0.351541 -0.092528 0.087812 -0.169793 0.122743 -0.017408 0.136771 0.039154 0.146984 -0.030391 -0.03273 0.187801 -0.140403 -0.066571 0.06361 0.148957 0.073968 0.133235 0.063284 -0.007722 -0.069637 -0.125043 -0.105175 0.293453 -0.050477 0.316832 -0.161631 0.17933 0.252088 0.046649 0.145288 -0.088475 -0.040578 0.204935 0.048501 0.3131 0.070228 0.121067 0.039485 0.110287 -0.018457 0.049499 0.055232 -0.070529 -0.0996 0.043666 0.008806 -0.0126 -0.063934 0.062369 -3.98E-4 -0.116699 -0.053182 -0.017785 -0.073333 0.213412 -0.11415 0.10295 0.076319 -0.293322 -0.099241 -0.0785 -0.306509 -0.125188 -0.305473
1.035361 1.319725 0.388011 1.220811 -0.236045 1.447081 -1.78193 3.520004 0.063077 -1.681862 0.545208 0.767849 -1.479444 -1.152839 0.669301 0.685509 -2.946755 -2.239533 -1.187422 -1.793336 0.607402 0.130687 0.296681 -1.569517 1.825066 1.715849 -1.639836 0.849724 -1.742086 0.427502 3.84844 -1.377145 0.671096 -1.312902 -1.152387 0.705431 2.180344 2.97496 1.402098 -0.909545 -1.649212 -0.253421 1.186817 1.193823 3.167747 -0.387379 -0.12198 0.872223 0.13285 0.490844 0.029473 1.345032 0.297008 2.724698 -1.656047 -0.109585 1.500583 -1.148555 -3.658389 1.022988 -1.211381 0.342059 -0.023586 1.22536 -1.874871 -1.957746 -0.188066 -0.235303 -0.067175 1.107354 1.448404 0.838301 1.67396 -0.238039 -0.504146 -1.334739 0.688005 0.37731 -2.953094 0.650433 0.307563 -0.457962 -1.694326 2.40152 -0.816994 0.208705 1.853393 0.15935 -0.989952 1.089235 1.087388 -2.786835 -2.248864 -0.788939 0.405791 0.907533 -1.516669 1.970717 -0.345554 -0.134731
-0.38434 -0.570338 -3.334123 -0.990325 -0.281295 3.633702 1.320934 0.804616 -0.499895 -0.831205 0.460112 1.388349 -2.264975 3.215568 -3.90167 1.353361 -1.448904 -2.546085 -1.024352 -1.734034 -1.344124 0.93203 0.532723 0.23208 -0.507331 0.823317 0.659701 0.36019 1.191168 -0.162178 -0.263719 -1.148898 -0.733443 1.049014 -0.463284 0.424462 1.721949 -2.279087 -0.239497 -3.509027 0.274708 -0.478871 -0.254635 1.092364 -0.333634 -0.504492 -0.065145 -0.538987 0.565458 0.780359 -0.571438 2.952173 0.370658 -0.759209 -2.924849 1.720769 0.511283 1.62778 2.047539 0.727555 2.155394 -1.325505 -0.576841 2.155423 -1.025197 1.359344 -0.744288 -2.504187 -1.775349 1.348846 2.846446 1.640962 1.869469 1.38429 0.797755 -0.790083 2.739745 1.110482 1.051984 -1.114181 2.453474 -0.002451 -1.249565 3.986771 0.736882 -1.32782 1.044597 0.12676 2.039398 0.327395 0.179204 -1.66492 -0.55174 -2.138355 -3.629091 -1.09422 -3.320013 0.282001 -1.758182 -2.017416
-0.319847 0.069407 -0.010201 0.03449 -0.103224 -0.054339 -0.093449 0.078375 -0.17857 -0.016895 0.080433 0.151355 -0.066944 0.077672 -0.067038 0.271209 -0.004017 0.168122 0.121445 -0.131557 -0.114438 0.099574 0.227084 0.124257 -0.090482 -0.009609 0.149569 0.108596 0.198783 -0.162455 -0.026473 -0.006657 1.51E-4 0.280508 -0.133307 -0.192118 -0.09478 -0.061207 -0.098087 0.185337 -0.097027 -0.001109 -0.020836 -0.073411 -0.043469 -0.16391 -0.148138 -0.09885 -0.024817 -0.017077 0.146947 0.126237 -0.043762 -0.012308 0.076005 -0.037544 -0.089089 0.072003 -0.082444 -0.167248 0.148506 -0.141769 0.068794 -0.052399 -0.225965 -0.052871 0.099072 0.128414 -0.074425 -0.105582 -0.054899 0.132741 0.169536 -0.032551 0.064713 0.189595 -0.101181 0.054272 -0.079761 -0.263169 0.019755 0.112701 0.088978 -0.060104 0.017137 0.020268 0.140849 0.066357 0.161111 0.124882 -0.0938 -0.214652 -0.022234 0.004995 0.022074 -0.081345 0.047112 -0.055863 0.117254 -0.118511
-0.00464 -0.247978 -0.077074 0.006631 0.129847 -0.156486 -0.152011 0.117872 0.044382 0.211165 -0.209428 -0.035882 0.340587 -0.029159 -0.013048 0.069574 0.018004 0.157615 0.025758 -0.134043 -0.20711 0.150841 -0.013347 0.169544 0.047664 -0.276076 -0.126711 0.107693 -0.028069 0.236364 -0.013739 -0.028706 -0.181983 0.147653 -0.02157 0.076276 -0.217977 -0.00948 -0.109784 0.166186 -0.099401 -0.126794 -0.136409 -0.19071 0.24157 -0.304962 0.038169 0.115718 -0.003442 0.018657 0.16984 0.094189 0.01283 0.101575 -0.088688 -0.316831 -0.095174 -0.25745 0.202929 -0.093121 0.243084 0.232967 -0.284561 0.081628 -0.255137 -0.008279 -0.070812 -0.035097 0.217682 -0.136223 0.160112 -0.209373 -0.248392 -0.294082 0.006928 -0.164083 0.029712 0.005565 -0.136994 0.270634 -0.115193 -0.200442 0.012818 0.17771 0.041104 -0.020886 -0.023466 -0.066148 0.145354 -0.172451 -0.058305 -0.165724 0.024884 -0.190655 -0.094187 0.029902 0.250046 -0.13727 -0.133454 0.151073
-0.08721 -0.073869 0.052143 0.071999 0.035652 -0.166216 -0.148509 -0.110991 -0.051767 0.121554 -0.048585 1.76E-4 -0.071778 -0.055554 0.169758 0.150913 -0.007 0.081963 0.025291 0.050031 -0.081521 0.113075 0.208054 0.106408 -0.134311 -0.086841 0.071797 0.087051 0.033183 0.007719 0.031592 -0.083982 -0.067545 0.093422 -0.014023 -0.202882 0.185815 0.077192 0.188902 -0.035259 -0.070607 -0.068364 0.066357 -0.011429 -0.141765 0.073427 -0.020537 0.108624 0.023646 0.033871 0.159449 -0.010217 0.00813 0.010861 0.060419 -0.112406 -0.055005 -0.011736 0.038018 0.016908 0.062782 -0.068809 -0.125909 -0.032606 0.119591 -0.064209 -0.003853 -0.058697 0.032004 0.017152 0.024211 0.032409 0.066056 0.088288 0.004771 -0.127911 0.089058 0.02219 -0.138723 -0.135807 -0.067497 0.142716 -0.050933 -0.144314 0.111063 -0.084299 -0.053631 -0.009982 0.132805 0.111221 0.043888 -0.053474 -0.004289 0.065703 -0.088101 -0.090573 0.040345 0.009483 0.126862 -0.070986
0.073772 -0.092231 0.008713 -0.192381 -0.047253 0.021633 -0.106688 0.0355 -0.022738 -0.04658 0.133378 -0.006376 0.160934 0.120741 -0.112587 0.009878 -0.089685 0.033065 0.019918 0.016807 -0.110738 -0.029149 0.062631 0.025715 -0.078678 -0.101273 0.036326 -0.068148 0.002961 0.081931 -0.13292 -0.058719 -0.20704 -0.026691 -0.163135 -0.065963 0.201632 -0.176477 0.041273 0.054493 -0.095226 0.113574 0.00458 0.052413 0.079006 0.006517 -0.081213 0.171623 -0.048467 0.075954 0.10021 0.107471 0.015778 0.216554 0.138688 -0.125899 0.216787 0.055217 -0.019953 0.025405 0.060062 -0.036163 -0.021358 0.120255 -0.153291 0.042254 0.010207 -0.016591 0.158206 -0.108941 -0.133089 -0.251772 -0.055909 -0.120242 0.038079 -0.093136 0.080914 0.004365 -0.007515 0.038816 0.022155 -0.056778 0.033037 -0.084657 0.117728 0.084587 0.05596 0.061013 0.020566 -0.060221 -0.260211 -0.011253 0.049986 0.091216 -0.066494 -0.170616 0.072112 0.015835 -0.023798 -0.137244
0.046078 -0.16559 0.085199 0.192158 -0.056375 0.124526 -0.228539 0.022624 -0.133617 0.008889 -0.012444 0.047974 0.059323 0.093989 0.003469 0.235171 0.022379 0.094844 -0.035673 0.329614 -0.113719 0.013463 -0.047139 0.097402 -0.171511 0.030033 0.053172 0.068547 0.297521 -0.309687 -0.089883 0.096876 -0.159228 0.01496 -0.121544 -0.082513 -0.018 -0.159739 0.188235 0.078311 -0.177561 -0.037442 0.200169 0.127958 -0.109887 -0.090557 -0.10996 0.032875 0.041471 0.116197 0.003177 -0.113117 7.2E-5 -0.029877 0.172584 -0.060538 -0.020635 0.05906 0.357221 -0.089356 0.085225 -0.03962 0.028204 -0.09046 -0.079547 -0.050159 -0.059871 0.017685 -0.16751 -0.081328 0.112659 -0.23481 0.054212 1.75E-4 0.200413 -0.14775 -0.22432 -0.015627 -0.05553 -0.237301 -0.086933 0.001785 -0.033283 0.054194 0.080176 0.114696 0.109936 0.200503 0.266354 0.062204 -0.168169 0.13079 0.084851 0.221444 -0.006012 -0.308509 -0.231806 -0.055836 -0.065827 -0.006843
2.591633 1.608701 -2.087245 2.00752 3.012652 4.995656 0.847355 -1.594905 -0.365708 -1.629805 -1.650237 3.712017 -0.231463 -0.537534 -2.036098 2.002639 -0.696666 -4.310136 -1.477319 -1.356504 -0.581823 -1.830239 -0.272773 -1.648095 0.090509 0.008711 0.330842 0.396714 2.341035 -0.526067 1.155793 -1.730906 -1.010387 -1.342646 -1.939355 0.734869 0.727366 0.700702 1.516974 -2.133831 -0.280653 -3.051674 0.017123 0.532043 1.478449 0.375441 0.920129 1.548929 1.087478 0.668327 0.707416 3.249232 -0.362503 1.273221 -2.929682 -0.245389 1.633444 -0.119836 0.103459 -3.445175 0.513245 0.427807 0.738792 1.448203 0.501908 0.362882 -0.731533 -0.391201 0.037778 3.053553 4.030229 1.793904 1.24136 0.081706 -1.401954 -0.638804 -0.487445 -0.267924 0.012844 0.538179 -0.241935 -0.068756 1.351665 -0.112558 0.001814 0.447262 0.833441 -0.023876 1.212707 1.514635 -0.568611 0.376173 -3.663739 -4.345135 -0.444319 2.139788 -2.53093 0.92131 -1.399435 1.763954
-0.005265 0.165613 -0.088965 -0.0971 -0.142828 -0.196245 -0.084368 0.207897 0.257693 -0.042297 -0.103907 -0.012205 0.182594 0.045423 0.01871 -0.259488 -0.153064 0.232623 0.07726 0.11457 0.054285 0.076086 -0.001241 0.098323 0.230123 -0.030692 -0.126018 -0.035172 -0.100041 -0.105766 0.063701 -0.142821 -0.11652 -0.13442 0.030169 0.115127 0.001126 0.209421 -0.005197 0.106316 -0.1316 0.044148 0.085699 0.139701 0.182865 0.095002 -0.157175 0.047664 0.124528 0.143474 -0.087709 -0.076853 -0.13707 0.023058 0.079239 2.58E-4 -0.07407 0.078409 -0.06397 0.174735 0.14676 -0.230924 0.054548 -0.031608 0.158565 -0.123513 -0.152195 0.040427 0.002682 -0.069785 -0.119857 -0.007011 -0.111804 -0.165811 0.15201 -0.092337 0.048336 0.076244 0.009564 8.12E-4 -0.043513 0.052071 0.049709 0.139899 0.128798 -0.008313 -0.010745 0.174128 0.101252 0.123819 -0.132806 -0.028287 -0.248663 0.381969 -0.052871 -0.122188 0.109638 0.13306 0.118574 -0.12173
0.646199 3.076416 -0.167708 1.669253 -1.597951 -0.885819 -1.155571 0.921589 0.884704 -0.937557 -2.550333 0.164176 0.688347 -0.49204 1.031716 -5.046291 -3.244576 0.653707 -3.279592 -0.577186 -1.72611 0.408985 -1.693141 0.846167 1.403905 4.037788 -1.041876 0.403271 -3.076927 0.521481 4.686045 -0.477838 -2.100579 -2.077389 -0.680163 1.743973 -0.304839 0.908923 -1.620175 1.237162 -2.00804 -1.504327 3.227498 -3.195751 3.741713 -0.193326 -1.950898 -0.601166 1.965179 1.176679 -2.061654 1.015451 -1.926996 0.574987 -1.715233 1.567111 -0.150449 -0.250937 -4.244114 0.090292 -1.179268 -1.877067 0.087074 1.155257 1.265235 -3.156995 -1.875891 -0.932516 -1.28336 -0.713125 2.20505 -1.315661 0.834268 0.932838 -0.080392 0.07641 -0.804844 -0.503673 -2.432682 1.042478 -2.028055 3.879303 -2.143913 1.353795 2.78756 2.723009 1.516345 4.152477 0.736706 0.967365 -0.884511 0.870796 -5.215215 1.488108 0.121194 -3.146915 -0.020988 4.092257 -0.384476 -0.316539
0.009816 -0.132646 0.013536 -0.024913 0.035848 0.013727 -0.040311 -1.36E-4 -0.253025 -0.113211 -0.087631 0.14568 -0.070049 0.029166 0.08329 0.027195 0.028184 -0.211162 -0.013038 -0.255323 -0.082684 -0.045024 0.292372 -0.036804 0.076119 0.042333 -0.030612 0.048033 -0.144552 -0.020039 0.008163 -0.083534 0.048918 0.047618 -0.255837 -0.09809 0.101674 0.004616 -0.033611 -0.175604 0.013272 0.013751 0.046259 -0.017001 -0.185697 0.146025 -0.013555 0.148442 -0.186016 -0.123888 -0.064524 -0.05257 -0.158445 0.033206 -0.022589 0.272285 0.011967 0.051035 0.077399 0.090494 -0.275395 0.068975 -0.051044 -0.008113 -0.083374 -0.216459 -0.013515 -0.087691 0.171381 0.26922 0.223781 0.066544 -0.114183 -0.061955 0.198409 -0.036221 0.048551 0.109301 -0.022812 -0.07223 0.074231 -0.080034 0.128893 -0.108953 -0.302115 -5.43E-4 -0.039967 0.100236 0.043373 -0.129987 0.097655 0.031988 -0.11098 -0.016587 -0.167472 0.12664 0.101004 -0.096938 0.009529 0.039394
0.057851 -0.112333 0.152677 0.015354 -0.072163 0.067285 -0.147876 -0.074365 -0.153253 -0.110171 0.07493 0.063483 0.134801 0.083522 0.220312 0.013096 0.024994 0.10394 0.141498 -0.066545 0.042082 0.149376 0.210837 0.07758 -0.252652 0.020069 -0.068306 0.034 0.17204 -0.161005 -0.014845 -0.111505 0.168575 0.181876 -0.106426 0.071549 -7.12E-4 -0.06867 -0.096267 -0.021019 -0.044712 0.09787 0.049583 -0.169518 0.045439 -0.116576 -0.027082 -0.064112 -0.08411 0.032248 0.075853 -0.121975 -0.009974 0.018067 0.126962 0.235211 -0.085549 -0.143186 0.204696 -0.210897 -0.028384 -0.067682 -0.157452 -0.173626 0.008413 -0.185294 0.058415 -0.07428 0.067995 0.110689 0.035446 0.008946 -0.16012 0.010064 -0.030497 0.00692 -0.073523 -0.101156 0.069196 0.072953 0.030827 0.033325 -0.111168 -0.19431 0.088331 0.078878 -0.02618 0.253541 0.213063 0.143922 0.072956 0.155627 0.020277 0.091011 0.042992 -0.010879 -0.188462 0.022014 -0.070273 0.010734
-0.08721 -0.073869 0.052143 0.071999 0.035652 -0.166216 -0.148509 -0.110991 -0.051767 0.121554 -0.048585 1.76E-4 -0.071778 -0.055554 0.169758 0.150913 -0.007 0.081963 0.025291 0.050031 -0.081521 0.113075 0.208054 0.106408 -0.134311 -0.086841 0.071797 0.087051 0.033183 0.007719 0.031592 -0.083982 -0.067545 0.093422 -0.014023 -0.202882 0.185815 0.077192 0.188902 -0.035259 -0.070607 -0.068364 0.066357 -0.011429 -0.141765 0.073427 -0.020537 0.108624 0.023646 0.033871 0.159449 -0.010217 0.00813 0.010861 0.060419 -0.112406 -0.055005 -0.011736 0.038018 0.016908 0.062782 -0.068809 -0.125909 -0.032606 0.119591 -0.064209 -0.003853 -0.058697 0.032004 0.017152 0.024211 0.032409 0.066056 0.088288 0.004771 -0.127911 0.089058 0.02219 -0.138723 -0.135807 -0.067497 0.142716 -0.050933 -0.144314 0.111063 -0.084299 -0.053631 -0.009982 0.132805 0.111221 0.043888 -0.053474 -0.004289 0.065703 -0.088101 -0.090573 0.040345 0.009483 0.126862 -0.070986
0.0 0.0 0.0 0.0 0.0 0.0 0.0 0.0 0.0 0.0 0.0 0.0 0.0 0.0 0.0 0.0 0.0 0.0 0.0 0.0 0.0 0.0 0.0 0.0 0.0 0.0 0.0 0.0 0.0 0.0 0.0 0.0 0.0 0.0 0.0 0.0 0.0 0.0 0.0 0.0 0.0 0.0 0.0 0.0 0.0 0.0 0.0 0.0 0.0 0.0 0.0 0.0 0.0 0.0 0.0 0.0 0.0 0.0 0.0 0.0 0.0 0.0 0.0 0.0 0.0 0.0 0.0 0.0 0.0 0.0 0.0 0.0 0.0 0.0 0.0 0.0 0.0 0.0 0.0 0.0 0.0 0.0 0.0 0.0 0.0 0.0 0.0 0.0 0.0 0.0 0.0 0.0 0.0 0.0 0.0 0.0 0.0 0.0 0.0 0.0
0.123314 0.024232 0.067758 -0.019176 0.04035 0.102721 0.022867 0.004876 -0.130388 -0.025998 -0.111174 -0.099004 0.08676 0.050864 -0.09914 -0.024014 -0.171609 -0.023554 -0.121212 -0.180475 0.179989 0.036153 -0.154862 -0.046345 0.094379 -0.14447 -0.041587 -0.048431 -0.136792 0.120946 0.186365 -0.07131 -0.07154 -0.104935 0.223496 -0.046738 -0.060067 -0.130754 -0.062099 -0.018454 0.144663 0.005022 0.142013 0.055336 -0.079464 0.134955 -0.01171 0.012333 -0.042385 0.102204 0.067493 0.045559 0.08181 -0.037308 -0.105499 0.04795 0.127704 0.287375 0.072091 0.04644 0.063593 0.228401 -0.07889 -0.03959 0.122115 0.054482 0.084107 0.013265 0.011559 -0.014696 0.109437 0.025601 -0.204002 0.310683 0.003437 0.019704 0.139319 0.086808 -0.081497 -0.018019 -0.014725 -0.169411 -0.017058 0.108817 -0.009525 -0.201578 -0.092985 0.072472 0.005488 0.045185 0.12776 0.042456 -0.19091 0.059921 -0.111423 0.013748 -0.096482 0.111096 0.034894 -0.026429
-0.247907 0.136389 -0.118536 -0.277564 0.353928 0.014051 0.127364 0.147748 0.059883 0.118456 0.090715 0.07545 -0.168122 -0.002551 0.075375 -0.066232 -0.152994 0.053974 0.237204 -0.276662 0.217891 -0.135369 -0.023774 0.063988 0.152534 0.054484 0.164135 -0.017642 -0.119379 0.108 -0.105857 -0.214758 0.150082 0.208352 0.181874 -0.051021 0.088395 -0.017307 0.140513 0.027654 0.070626 -0.155827 0.139852 -0.12763 -0.072213 -0.041838 -0.065585 0.211675 0.053639 -0.160605 0.109744 -0.126634 0.148564 0.070804 -0.190834 0.089696 -0.027477 -0.103061 -0.053554 0.132251 0.146289 0.240034 0.21979 0.093103 -0.068046 0.186375 0.182283 0.149662 0.067834 0.289889 0.014849 0.133909 -0.034016 -0.017832 -0.181238 -0.038881 0.041068 -0.097541 0.013278 0.118309 -0.046443 0.027269 0.108792 -0.069659 -0.049207 0.081945 -0.077391 0.056547 -0.174597 -0.171833 -0.064645 0.045305 -0.144928 -0.073052 0.016197 0.024287 -0.040476 -0.113868 -0.045621 0.209281
0.352905 0.550922 -1.128945 -0.511125 0.774489 1.405335 -0.371647 0.106012 -0.779785 -0.640302 -0.68578 1.570717 -0.712288 -0.706705 -0.789609 -0.045278 -1.599722 -2.840112 -0.089543 -1.158838 -1.862605 -0.62748 -0.063542 -0.468696 0.750564 0.033551 -0.772222 -0.188991 -0.163115 0.455978 0.038455 -0.779588 0.172303 -1.114448 -0.548246 -0.008155 1.66721 -0.744821 -0.15746 -2.668482 -0.304702 -0.905716 0.479063 0.151803 -0.94063 -0.044338 -0.906122 -0.456182 0.281891 0.268287 0.47007 0.628019 0.328428 1.471286 -2.345457 0.072073 -0.345477 -0.998199 -1.496897 -0.053061 0.351206 -0.934426 0.295591 0.07336 0.24092 0.486976 0.390085 -0.621556 0.375246 -0.02625 1.957847 1.014101 0.004675 0.08874 -0.900479 -0.462149 0.922254 1.355385 -1.048724 0.105897 1.254466 0.410718 0.321258 1.066395 -0.171761 -0.128774 0.315556 0.697301 -0.180925 0.555334 1.005586 -0.891677 -1.232923 -1.994189 -0.567812 0.204184 -0.947385 -0.051526 -0.987029 0.725141
0.0 0.0 0.0 0.0 0.0 0.0 0.0 0.0 0.0 0.0 0.0 0.0 0.0 0.0 0.0 0.0 0.0 0.0 0.0 0.0 0.0 0.0 0.0 0.0 0.0 0.0 0.0 0.0 0.0 0.0 0.0 0.0 0.0 0.0 0.0 0.0 0.0 0.0 0.0 0.0 0.0 0.0 0.0 0.0 0.0 0.0 0.0 0.0 0.0 0.0 0.0 0.0 0.0 0.0 0.0 0.0 0.0 0.0 0.0 0.0 0.0 0.0 0.0 0.0 0.0 0.0 0.0 0.0 0.0 0.0 0.0 0.0 0.0 0.0 0.0 0.0 0.0 0.0 0.0 0.0 0.0 0.0 0.0 0.0 0.0 0.0 0.0 0.0 0.0 0.0 0.0 0.0 0.0 0.0 0.0 0.0 0.0 0.0 0.0 0.0
-0.070971 -0.064854 0.004986 0.061964 -0.103726 0.208108 -0.045402 0.013717 -0.072056 -0.096217 0.147479 0.08622 0.026679 0.006955 0.050267 0.113365 -0.087714 -0.032501 0.012783 -0.035611 -0.166181 0.153913 0.026235 0.137809 -0.181254 -0.096843 -0.020289 0.077251 0.208079 -0.001088 -0.025673 -0.009426 -0.074272 -0.017198 -0.026982 -0.240008 -0.020063 -0.05605 0.171424 0.020122 0.065468 0.015502 0.040366 0.092929 0.011346 -0.051348 0.066473 -0.082357 -0.06156 -0.08698 0.043746 -0.087755 -0.031002 0.114776 -0.256847 -0.026437 -0.155105 -0.029106 0.095888 -0.058717 -0.102588 -0.12305 -0.050077 -0.17907 -0.04543 0.150673 0.163283 -0.022418 0.104048 -0.050214 0.178961 0.100213 -0.031743 -0.00891 0.02628 -0.180775 -0.141311 0.100586 0.057878 -0.12643 0.030562 0.134144 0.179218 -0.040294 0.055233 0.024144 0.026894 -0.047326 0.196354 0.014809 -0.137309 -0.033345 -0.158903 0.130053 -0.097632 0.07278 -0.134722 0.065336 -0.035322 0.008441
0.132854 -0.120194 -0.13704 0.027215 -0.033407 0.090357 -0.121892 -0.003098 -0.213426 0.151262 0.184048 0.160141 0.093843 -0.050394 0.002436 0.195969 0.056675 0.156491 -0.018813 0.010184 -0.038448 -0.069693 0.228098 -0.037197 0.065736 0.105842 0.041992 0.020557 0.154204 -0.275372 0.126177 0.064826 -0.186188 0.101622 -0.087437 -0.164621 -0.064271 -0.127617 0.014254 -0.041051 0.032337 -0.075541 5.6E-4 -0.106215 -0.037369 -0.137977 -0.097557 -0.062459 6.71E-4 0.11173 -0.045544 -0.0687 0.018968 0.010888 0.134823 0.306065 0.036269 0.014504 0.085121 -0.171726 0.128107 -0.123128 0.123683 0.024869 -0.132155 -0.098814 0.231131 -0.014625 -0.025084 -0.024277 -0.010427 0.089605 0.014229 -0.11979 -0.007235 0.264557 -0.221037 -0.163641 -0.026683 0.050526 -0.113937 -0.078149 0.062381 0.04181 -0.028032 -0.024351 -0.008994 0.127862 0.099195 0.145814 -0.06466 -0.051577 0.087016 -0.262504 0.150564 0.074085 -0.100065 -0.103123 -0.160907 -0.140091
-0.045166 -0.10627 -0.014021 -0.098694 -0.138859 0.097053 -0.124173 -0.103908 -0.039557 0.071472 0.028438 -0.066015 0.2192 0.076853 -0.288374 -0.183836 0.148517 0.247266 0.173372 0.15371 -0.01603 -0.003421 -0.050334 -0.03679 0.053 -0.224062 0.009377 0.045356 -0.130667 -0.022379 0.06303 -0.116113 0.001052 0.141266 -0.167892 0.197163 -0.252079 0.129031 -0.08444 0.133113 0.117855 -0.026825 0.062498 -0.118838 0.165708 -0.036266 0.047613 0.007935 0.223705 0.011708 0.021379 0.012776 0.136766 0.051931 0.314945 -0.004283 -0.254126 0.123791 -0.056041 0.04949 -0.3064 -0.052974 -0.040757 -0.312707 -0.174024 -0.035424 0.171626 -0.130949 0.035204 -0.191176 0.092428 0.137324 0.111642 -0.001363 -0.029365 0.026839 0.147464 -0.006057 0.082455 0.037431 0.064692 -0.020633 0.186846 -0.039294 0.039256 0.23488 0.032605 0.085818 -0.128905 0.161123 -0.276837 -0.068394 0.159923 0.062202 0.18962 0.078424 -0.101444 0.175726 -0.068701 -0.12714
-0.190763 -0.119109 0.292837 0.076106 -0.104219 -0.117272 0.076795 -0.236864 0.014675 0.025788 0.007234 0.168469 0.059751 -0.186152 0.116286 0.26215 -0.025455 0.226095 0.115929 0.0535 -0.297415 0.14616 0.122124 0.00926 -0.118763 -0.289316 0.037886 0.07056 0.291514 -0.003972 -0.067244 -0.120219 0.011894 0.270982 -0.202862 0.097198 0.002202 -0.036763 0.014131 0.187052 -0.053669 0.072074 0.075553 0.09399 -0.025906 -0.040688 -0.01142 0.012538 -0.309644 0.24525 0.258273 -0.060889 -0.138028 -0.080129 0.115168 -0.149973 -0.137186 -0.026667 -0.126945 -0.084833 0.065222 -0.096123 -0.135532 -0.103807 -0.034248 0.073888 0.152472 -0.020639 0.087546 0.006064 -0.16957 0.112168 -0.153283 0.045135 -0.129257 -0.002558 -0.018276 -0.134541 -0.143151 -0.108152 0.033464 0.148508 0.085607 -0.165725 -0.130489 0.092451 -0.059031 -0.104718 0.336391 0.22291 -0.182476 0.059875 -0.124678 0.161976 0.00699 -0.18379 -0.075828 -0.207085 -0.074091 -0.083246
-0.005265 0.165613 -0.088965 -0.0971 -0.142828 -0.196245 -0.084368 0.207897 0.257693 -0.042297 -0.103907 -0.012205 0.182594 0.045423 0.01871 -0.259488 -0.153064 0.232623 0.07726 0.11457 0.054285 0.076086 -0.001241 0.098323 0.230123 -0.030692 -0.126018 -0.035172 -0.100041 -0.105766 0.063701 -0.142821 -0.11652 -0.13442 0.030169 0.115127 0.001126 0.209421 -0.005197 0.106316 -0.1316 0.044148 0.085699 0.139701 0.182865 0.095002 -0.157175 0.047664 0.124528 0.143474 -0.087709 -0.076853 -0.13707 0.023058 0.079239 2.58E-4 -0.07407 0.078409 -0.06397 0.174735 0.14676 -0.230924 0.054548 -0.031608 0.158565 -0.123513 -0.152195 0.040427 0.002682 -0.069785 -0.119857 -0.007011 -0.111804 -0.165811 0.15201 -0.092337 0.048336 0.076244 0.009564 8.12E-4 -0.043513 0.052071 0.049709 0.139899 0.128798 -0.008313 -0.010745 0.174128 0.101252 0.123819 -0.132806 -0.028287 -0.248663 0.381969 -0.052871 -0.122188 0.109638 0.13306 0.118574 -0.12173
0.646199 3.076416 -0.167708 1.669253 -1.597951 -0.885819 -1.155571 0.921589 0.884704 -0.937557 -2.550333 0.164176 0.688347 -0.49204 1.031716 -5.046291 -3.244576 0.653707 -3.279592 -0.577186 -1.72611 0.408985 -1.693141 0.846167 1.403905 4.037788 -1.041876 0.403271 -3.076927 0.521481 4.686045 -0.477838 -2.100579 -2.077389 -0.680163 1.743973 -0.304839 0.908923 -1.620175 1.237162 -2.00804 -1.504327 3.227498 -3.195751 3.741713 -0.193326 -1.950898 -0.601166 1.965179 1.176679 -2.061654 1.015451 -1.926996 0.574987 -1.715233 1.567111 -0.150449 -0.250937 -4.244114 0.090292 -1.179268 -1.877067 0.087074 1.155257 1.265235 -3.156995 -1.875891 -0.932516 -1.28336 -0.713125 2.20505 -1.315661 0.834268 0.932838 -0.080392 0.07641 -0.804844 -0.503673 -2.432682 1.042478 -2.028055 3.879303 -2.143913 1.353795 2.78756 2.723009 1.516345 4.152477 0.736706 0.967365 -0.884511 0.870796 -5.215215 1.488108 0.121194 -3.146915 -0.020988 4.092257 -0.384476 -0.316539
0.145032 -0.090409 0.112363 0.206801 -0.090159 -0.03382 -0.070766 -0.214824 -0.096195 0.097716 0.088366 0.11419 0.01785 -0.033932 0.183491 0.075294 0.019839 0.158785 -0.105136 0.029434 0.101611 0.157084 0.151922 0.205444 -0.087594 0.050565 -0.131222 -0.186997 0.224525 -0.150881 0.049902 0.059971 -0.102616 0.032489 -0.231809 -0.06732 0.082974 -0.121698 0.028758 0.146404 -0.114295 0.139296 0.068779 -0.052651 0.040944 0.020004 -0.010938 -0.148314 -0.045099 0.082178 0.183436 -0.073777 0.070359 0.022984 -0.075182 -0.033946 0.203093 0.08298 -0.012349 -0.102282 0.016075 -0.142828 0.110106 -0.09946 -0.087635 -0.077478 0.055192 0.032781 -0.103988 -0.1187 0.114945 -0.068919 0.067984 -0.051079 0.179686 0.059726 -0.02702 0.004697 6.12E-4 0.082243 -0.221649 0.113264 0.059489 -0.119857 0.023174 0.103052 0.163798 0.112596 0.149656 0.061558 -0.04166 -0.108795 0.143904 0.187329 -0.093332 -0.149705 0.210109 0.116294 -0.057812 -0.018421
-0.036542 -0.02538 0.058754 0.014258 0.043375 0.047268 -0.169751 -0.120767 -0.071236 0.10054 0.046093 0.057057 0.019031 -0.137289 -0.001224 0.11122 0.103544 -0.001018 -0.010134 0.135732 -0.074324 -0.035915 0.317744 -0.045082 -0.032173 -0.118918 -0.143798 -0.064369 0.088772 -0.087435 -0.082479 0.128774 -0.077516 0.152989 -0.0746 -0.032792 -0.004368 -0.01567 -0.035173 -0.022903 0.010049 0.149014 -4.49E-4 -0.011591 0.050318 -0.092015 -0.036941 -0.061284 -0.065817 0.144417 -0.062907 -0.020481 -0.043902 0.087783 -0.015325 -0.048529 -0.101396 -0.073657 -0.012658 -0.17404 0.009486 -0.069 -0.00194 -0.125625 -0.167415 0.033728 0.07043 0.077122 -0.013815 -0.07231 0.064422 0.126889 0.026997 -0.095201 -0.020973 0.109696 0.08518 -0.045919 -0.062553 -0.06661 0.057752 0.033061 -7.16E-4 -0.082731 0.057291 0.10298 -0.017198 0.080923 0.053762 0.145933 -0.148804 0.001949 -0.181703 0.011419 0.134752 -0.13756 0.025901 -0.104205 0.061202 -0.019935
-0.192047 0.046634 -0.025507 -0.017735 -0.077364 -0.11422 -0.0034 -0.034042 -0.256144 -0.003132 -0.151935 0.203796 0.065871 0.024345 0.239676 -0.07121 -0.090976 0.062615 -0.098213 0.034355 -0.071763 0.003012 0.144503 0.011921 -0.201755 -0.16991 -0.025441 0.027094 0.220065 -0.112787 0.224746 -0.052433 0.025149 0.120856 -0.152425 0.071928 -0.033648 -0.072602 -0.06787 -0.181808 0.110906 0.138022 -0.107145 -0.09036 0.117089 0.049377 -0.102668 0.066023 -0.072763 -0.053975 -0.015716 -0.143952 -0.092685 0.145094 -0.03028 0.07168 -0.130559 -0.171083 -0.108527 0.097885 0.118666 -0.162538 -0.079745 -0.130957 0.235092 -0.235734 0.173992 0.091378 0.041473 0.159102 0.13515 0.178551 0.079093 -0.023142 -0.106257 0.171671 -0.116628 0.064079 0.137293 0.008595 0.123745 0.111024 0.007556 -0.110378 0.070343 0.143211 -0.183159 0.037262 -0.028518 -0.204046 0.162363 0.112246 -0.054051 0.014568 -0.093728 0.053761 -0.009016 -2.4E-5 -0.083554 -0.196086
0.117168 -0.081261 -0.21121 -0.066731 -0.275521 -0.130438 -0.046803 -0.273643 -0.150722 0.128034 0.022846 0.025637 0.017576 -0.037796 -0.006386 0.181461 0.040128 0.176475 0.001647 0.03528 0.070044 -0.024315 0.215394 -0.130377 -0.154997 0.123641 -0.07993 -0.058194 0.148347 -0.018316 0.156754 -0.072208 0.001166 -0.053391 0.028107 0.083249 0.022714 -0.070362 -0.004466 0.162951 0.050816 0.152059 -0.164474 -0.096015 0.09615 -0.187866 0.132109 -0.009701 -0.10345 -0.013038 -0.027891 0.111158 0.060939 0.107792 0.130701 -0.200889 0.071201 -0.114933 8.7E-5 0.031794 0.016418 -0.117627 -0.056679 -0.001196 0.089719 0.159084 0.137783 -0.070769 -0.035414 0.08029 -0.036544 0.101405 -0.025484 -0.201066 -0.02413 -0.047368 0.018007 -0.073843 0.064688 0.001593 0.200226 -0.006609 0.254566 0.024887 -0.033327 0.160618 -0.001714 0.167928 -0.14361 -0.241829 -0.169614 -0.106336 0.004607 -0.019156 0.065673 0.113677 0.125263 -0.012755 0.004842 0.018239
-0.019201 0.028111 0.019217 0.052324 -0.012545 0.076041 0.041859 0.132425 -0.042682 -0.25324 0.153679 -0.052639 -0.234426 0.154245 0.001178 0.07083 0.073083 0.160228 0.024133 -0.054811 0.001969 0.005439 0.181016 0.099355 -0.126409 -0.051701 0.037309 -0.123638 0.247936 -0.162055 0.114555 0.125901 0.087982 0.08593 -0.090916 0.032607 0.058566 -0.084423 -0.083684 -0.120125 -0.142636 -0.134573 0.099572 -0.067549 0.144656 -0.140025 -0.119758 0.069446 0.087216 -0.032862 -0.006618 -0.111395 0.032981 -0.031112 -0.118341 0.110071 -0.111936 0.153878 0.041608 0.007703 0.064796 -0.130385 0.030277 0.045725 -0.1256 0.149386 -0.11782 -0.166733 0.122695 0.114102 -0.065025 -0.01284 -0.004014 -0.036946 -0.052576 0.183617 0.039352 -0.109896 0.002856 -0.049741 0.098582 -0.079185 0.058208 -0.092538 -0.020486 -0.024785 0.136707 0.03449 -0.090652 0.201497 -0.097455 0.025029 -0.120762 -0.013839 -0.051103 -0.067125 -0.00444 -0.252706 0.02388 -0.108891
0.201522 -0.038247 0.199364 0.232119 0.335323 0.294617 -0.319506 -0.087817 0.073441 0.199354 0.130732 0.035695 -0.152396 0.114294 0.148531 0.201758 -0.382773 -0.008134 -0.218538 -0.225887 -0.038921 -0.042941 0.172595 -0.043109 -0.166686 -0.018235 0.043095 -0.147864 0.086438 -0.125118 0.024659 -0.135408 0.121817 -0.104121 -0.214651 -0.072714 -0.045089 -0.150489 0.108806 0.11444 0.021035 -0.040482 0.030944 -0.132224 -0.058658 0.117341 0.083027 -0.020076 0.302271 0.055671 0.04098 0.142556 -0.135397 0.198693 0.325696 0.331319 -0.007252 0.034834 0.328798 -0.110615 0.065567 0.017401 0.027532 0.095048 0.262877 -0.033632 0.324186 -0.018797 -0.078261 0.082797 0.082349 -0.035289 0.057175 0.112314 0.038199 0.439272 0.104365 0.160945 0.088402 0.049369 -0.214149 -0.158766 -0.286513 -0.270742 0.118211 0.021953 -0.154609 -0.042126 -0.022771 0.233359 -0.315244 -0.073453 -0.107278 -0.095932 0.044489 -0.362543 0.032558 0.270737 -0.116556 -0.035789
-0.075426 -0.075105 0.193742 0.180949 -0.029135 0.156186 -0.189219 -0.049134 -0.006639 -0.157686 0.029279 -0.01027 -0.02494 -0.092018 -0.017753 0.083188 0.096164 0.04253 -0.056425 0.042708 -0.145806 0.093088 0.30713 0.040278 -0.127338 -0.132246 -0.146052 0.109533 -0.02824 -0.145375 0.097268 -0.162673 -0.252111 0.052631 -0.044236 -0.119663 -0.149141 -0.19387 0.007437 0.248378 0.041441 0.149073 0.031645 0.08471 0.110962 -0.079741 -0.042881 0.025033 0.018934 0.225989 -0.01815 -0.018661 0.010662 -0.032152 0.075004 0.093388 0.053522 -0.122315 -0.067338 -0.045551 0.15103 -0.090023 -0.088856 -0.032802 0.069265 -0.052922 -0.007135 0.141833 0.158261 0.050626 -0.061267 -0.009271 0.019279 -0.100305 -0.016125 -0.149336 0.206733 0.253078 0.04238 0.014155 0.149453 0.135752 0.174627 0.010949 0.060963 0.110666 0.030681 0.049513 0.045662 0.093266 0.013467 -0.001749 0.137106 0.007911 0.097675 0.172412 -0.140174 0.037412 0.021077 -0.100774
-1.65896 -0.362843 -3.973061 -0.147038 -1.183186 -1.043224 -0.770279 -1.560958 0.00793 -3.887038 0.17734 0.450067 -1.929221 -0.22219 2.664445 -2.539164 2.90134 1.581896 1.059866 -5.003533 -1.643355 1.293449 2.162121 -1.525513 -0.718965 -1.168392 2.998055 2.536941 -1.673215 1.712287 1.398965 0.089198 1.341142 1.792897 -2.149093 1.827135 -1.538447 -2.395277 -0.80187 -1.94617 -0.939957 1.005238 1.995301 0.671372 0.226365 -0.177174 3.019378 0.751487 1.243139 1.552311 0.100964 1.426079 3.291916 2.700053 0.589507 1.59725 2.401532 -0.987909 -1.597273 1.505415 0.18683 -0.268544 -0.740367 -1.58462 -0.412962 -1.527432 1.572322 0.674242 -1.45705 0.006488 0.446701 1.861196 1.008233 -2.215977 0.422887 -0.526421 -2.504364 0.564856 2.359779 4.020791 2.099366 -1.153514 3.349272 -1.54846 1.831088 -0.304709 2.118722 2.260602 0.984758 1.330162 -0.66889 -0.465553 0.111452 0.844874 -0.247075 2.196681 -2.426471 -1.183464 0.805554 2.293893
-0.170111 0.014202 0.16358 0.12307 -0.099242 -0.068114 -0.033173 -0.063123 0.008406 0.048944 0.054763 0.160206 0.016821 0.041388 0.010912 0.161824 -0.07015 0.094407 -0.002355 -0.235766 -0.29988 0.103092 0.245864 0.086683 -0.144593 0.09756 -0.088752 -0.114798 0.212758 0.010962 -0.050222 0.059017 -0.068749 -0.014641 -0.039567 0.02791 -0.018103 0.081321 -0.098758 0.162508 -0.015273 0.048437 -0.064767 -0.035621 0.19634 -0.049741 -0.051177 0.127821 0.058277 0.16487 0.20763 -0.185586 -0.023552 0.031691 -0.077225 -0.201561 0.042583 -0.119863 0.050816 7.91E-4 0.15521 -0.096115 0.015404 -0.150794 -0.177475 -0.008748 0.005928 0.051338 0.114112 0.026853 -0.109229 -0.028118 -0.068478 -0.007545 0.160209 -0.103787 -0.037996 -0.04667 -0.120173 -0.086755 -0.017837 0.220176 0.026595 -0.054768 -0.016569 0.007605 0.165876 0.138197 0.22279 -0.065064 -0.36431 -0.008705 -0.039604 0.166645 0.001621 -0.224551 0.136061 0.117783 -0.019333 -0.081693
0.476378 -2.398494 -0.560644 0.116902 -3.166577 1.750825 0.557415 3.825001 2.021202 -3.46985 -0.224522 0.723565 1.211689 0.774481 0.591119 -0.631797 -0.742991 2.8141 1.090479 -0.31157 -2.629898 -0.637858 1.368883 -2.516235 -0.121026 0.98251 0.991725 0.625757 -0.549937 1.316177 1.981874 -0.839984 1.278648 0.604092 -2.136075 0.767658 -2.090558 -1.855653 -0.457985 -2.486826 -0.532468 1.156204 0.824 -2.856746 1.156796 -0.591936 -3.11884 2.442345 0.668053 0.816407 -1.873352 1.043131 -1.389888 3.096051 1.855731 1.716737 -1.963019 -0.156193 -0.903513 -0.670569 0.165326 -0.162238 -2.438075 1.652108 -0.09286 -3.082249 -0.214406 -1.292232 0.53253 0.57154 1.8191 0.909282 -1.451904 -0.436306 -1.769888 0.27202 0.971242 1.767586 -0.986737 1.468257 0.630717 -0.661654 1.743384 2.114385 0.617348 1.229519 0.690309 -0.093898 -0.119383 0.94523 -2.952701 -1.370866 0.559817 2.046742 0.03758 2.929903 -0.854203 -0.194977 -0.214709 1.327659
-0.174026 -0.060474 0.067841 -0.107078 -0.194521 0.22722 0.248455 0.215237 0.153783 0.096573 0.124261 -0.106511 0.170621 0.208301 -0.04599 -0.393056 0.269498 0.101021 -0.010937 0.156707 -0.18551 -0.061326 -0.131783 -0.126821 0.287765 0.288226 0.092468 0.025986 -0.116656 0.004014 0.082752 -0.08655 0.30353 -0.135952 -0.180897 0.074578 -0.157224 -0.092598 0.036592 -0.211698 -0.095479 -0.085042 -0.026059 -0.248719 -0.100794 -0.029167 -0.284304 0.040489 0.328407 -0.034055 -0.184957 0.292047 0.033343 0.104486 0.176101 -0.021009 -0.266376 -0.202692 -3.57E-4 0.03047 -0.160416 0.210631 0.079481 0.11837 0.196131 -0.038458 -0.016958 -0.15002 -0.050653 -0.065815 -0.014589 0.397917 -0.100605 0.268554 -0.075384 0.204547 0.189891 -0.042099 -0.016905 -0.098565 0.142005 -0.002233 0.221352 0.13228 0.124037 -0.157821 0.057998 -0.039729 -0.243209 0.253522 -0.16991 -0.146829 0.144693 0.059363 0.022974 0.213292 -0.016538 0.006714 0.116358 0.147815
-0.459039 -0.162851 -1.316549 -0.070411 -1.797519 2.123693 -1.359094 0.938352 1.031528 -0.046355 0.230743 -0.595851 -1.308068 -0.414689 0.639028 -2.761519 0.418925 0.751561 -1.237331 0.340662 -2.44131 1.162068 2.75983 -1.715628 -1.029677 0.365405 1.975927 2.281722 0.293739 -1.14786 -0.690247 0.621231 1.137957 0.761656 -3.485526 1.815865 -0.92388 -0.060527 2.024939 -0.136264 -0.850849 -0.149817 1.189445 -2.802708 0.262786 -1.022525 -0.619739 -0.492669 2.327341 -0.184789 -2.192494 0.723115 -0.204751 0.802708 0.392915 0.918046 0.07789 -0.593593 -0.098681 -1.26882 -0.249514 -2.899067 0.29968 2.193434 0.090696 0.477159 0.013853 0.189773 -1.22847 -0.204261 1.25545 1.503794 -0.632037 0.707484 -0.639088 0.144427 -0.365841 -1.340401 -0.74195 2.756047 -1.301719 -1.352461 3.251216 0.980332 0.936959 -0.649171 1.675511 0.807957 -1.070034 2.74029 -2.698268 -0.657518 1.144862 0.12586 -0.481802 0.765775 -2.209611 0.247826 0.329308 3.364158
0.191109 -0.030006 -0.165353 -0.214252 0.026886 0.024667 -0.08972 -0.003945 0.285045 -0.060948 -0.118761 0.006834 0.0339 0.087787 -0.086687 -0.02044 -0.021864 0.015863 0.065475 0.009454 -0.027211 -0.140438 -0.09183 -0.017119 0.070835 -0.022056 0.08911 0.065235 0.093006 0.045087 -0.031963 0.183327 -0.156793 0.009711 0.022593 0.19059 0.044875 0.059883 -0.094515 -0.068865 0.19298 -0.092147 -0.03845 -0.195166 0.108078 0.144766 -0.220224 -0.166732 -0.079839 0.033004 -0.052449 0.14829 0.015204 -0.022816 0.062804 0.183564 -0.045842 0.035801 -0.042199 -0.115982 -0.054009 -0.023669 0.096245 0.073012 0.059622 -0.040886 -0.028716 0.142871 0.049178 0.032582 0.078608 0.039829 -0.135077 -0.096998 -0.131947 0.032771 0.021366 0.144158 -0.033719 -0.180381 0.079613 -0.061199 -0.003751 0.017463 -0.27205 0.043486 0.001703 0.064282 -0.175203 -0.037215 -0.043608 -0.058403 0.2278 0.144314 -0.064917 -0.005942 -0.050162 0.122653 0.092117 -0.101412
0.090633 -0.038026 0.041182 0.205508 2.08E-4 -0.06618 -0.171155 -0.004437 -0.158744 -0.093591 -0.089565 0.057584 0.046877 -0.051224 -0.017294 -0.163092 0.197842 0.129295 0.028535 -0.011421 0.017329 0.076453 -0.102288 0.069686 0.020951 -0.075978 -0.002302 0.043973 0.075857 -0.00245 -0.184973 -0.065019 0.087361 -0.011867 0.101269 -0.004616 -0.08347 -0.022617 -0.290583 -0.187981 -0.027864 0.106681 -0.043173 -0.068713 -0.103078 0.078187 -0.020114 0.101955 -0.16764 0.078036 -0.103345 0.035267 0.073008 -0.153415 0.060686 0.064087 0.056549 0.036212 -0.095493 0.051952 -0.050849 0.083795 0.075995 -3.96E-4 0.055407 -0.153379 -0.105293 -0.020109 0.147738 -0.211931 0.020307 -0.006143 -0.020162 -0.188094 -0.092905 0.076386 0.05633 -0.148647 0.031956 0.084129 -0.029274 0.013791 -0.22628 -0.006172 0.083905 -0.138987 -0.012244 -0.10726 0.028589 0.130077 -0.031827 -0.028067 -0.07701 -0.127904 0.086416 0.09046 -0.001494 -0.089568 -0.226838 -0.036482
-0.027922 -0.137044 -0.109732 -0.0329 0.006256 0.029245 -0.049641 0.053512 -0.1656 -0.019734 -0.063767 0.171684 -0.03115 -0.024417 0.21364 -0.012046 0.073885 0.096844 0.138955 0.040332 0.075808 0.087907 0.219874 0.090305 -0.161259 -0.204279 0.163681 0.127698 0.077775 -0.008438 -0.222904 0.039784 -0.097178 0.309916 0.034493 -0.084676 0.01183 -0.113879 0.124418 0.05491 -0.067514 0.082055 0.027898 0.174515 -0.027737 -0.19172 0.126293 0.007895 -0.112526 0.072578 0.089239 0.148414 -0.143132 -0.057521 0.062084 0.09088 -0.010395 0.095674 0.032637 -0.060633 -0.027442 0.031454 -0.136099 -0.189817 -0.04352 -0.009445 -0.045605 -0.008401 0.085873 -0.042862 -0.230398 0.086832 0.039113 -0.018275 0.069335 0.021462 -0.096109 0.01452 -0.06402 -0.002306 -0.006431 0.102632 0.175628 -0.196366 -0.063719 0.036988 -0.05127 -0.063489 0.174939 0.091238 -0.143299 -0.027401 0.010481 -0.077801 -0.127053 -0.087073 -0.015942 -0.055493 0.0736 -0.061162
0.352905 0.550922 -1.128945 -0.511125 0.774489 1.405335 -0.371647 0.106012 -0.779785 -0.640302 -0.68578 1.570717 -0.712288 -0.706705 -0.789609 -0.045278 -1.599722 -2.840112 -0.089543 -1.158838 -1.862605 -0.62748 -0.063542 -0.468696 0.750564 0.033551 -0.772222 -0.188991 -0.163115 0.455978 0.038455 -0.779588 0.172303 -1.114448 -0.548246 -0.008155 1.66721 -0.744821 -0.15746 -2.668482 -0.304702 -0.905716 0.479063 0.151803 -0.94063 -0.044338 -0.906122 -0.456182 0.281891 0.268287 0.47007 0.628019 0.328428 1.471286 -2.345457 0.072073 -0.345477 -0.998199 -1.496897 -0.053061 0.351206 -0.934426 0.295591 0.07336 0.24092 0.486976 0.390085 -0.621556 0.375246 -0.02625 1.957847 1.014101 0.004675 0.08874 -0.900479 -0.462149 0.922254 1.355385 -1.048724 0.105897 1.254466 0.410718 0.321258 1.066395 -0.171761 -0.128774 0.315556 0.697301 -0.180925 0.555334 1.005586 -0.891677 -1.232923 -1.994189 -0.567812 0.204184 -0.947385 -0.051526 -0.987029 0.725141
-0.386859 -0.177387 -0.947306 0.229502 -1.005003 1.267659 -0.635215 0.846469 0.575295 -0.112459 -0.663633 -0.451936 1.531531 1.260153 0.909737 -0.582011 0.772573 0.609804 0.507527 1.400753 -2.673123 1.331479 2.541244 -1.106334 0.656941 1.360506 -0.089092 1.319225 -0.686216 0.137267 -0.064293 0.499738 2.976496 -0.46561 -2.193099 0.410227 -0.990421 -0.135651 -0.659209 -0.307289 0.124949 0.785643 0.613206 -1.635316 0.650666 -1.57873 -0.926546 1.117243 1.478065 0.129753 -0.681024 -0.175046 0.475259 1.012853 -1.672987 1.112597 -1.38432 -1.009256 -1.071084 -1.007103 1.427653 -2.070284 -0.493685 0.81156 1.076826 0.403395 0.990048 -1.66655 -0.099019 0.392339 1.157053 1.369791 -1.589433 0.999368 -1.050993 0.344162 0.258562 -0.700981 0.785289 1.537504 -0.244755 -1.288541 0.95265 -0.754959 0.0832 0.595942 1.712099 2.183366 0.150938 3.501177 -2.397699 1.008932 0.853875 -0.25283 0.392829 0.142403 -1.822633 0.194034 0.570707 1.329735
0.0 0.0 0.0 0.0 0.0 0.0 0.0 0.0 0.0 0.0 0.0 0.0 0.0 0.0 0.0 0.0 0.0 0.0 0.0 0.0 0.0 0.0 0.0 0.0 0.0 0.0 0.0 0.0 0.0 0.0 0.0 0.0 0.0 0.0 0.0 0.0 0.0 0.0 0.0 0.0 0.0 0.0 0.0 0.0 0.0 0.0 0.0 0.0 0.0 0.0 0.0 0.0 0.0 0.0 0.0 0.0 0.0 0.0 0.0 0.0 0.0 0.0 0.0 0.0 0.0 0.0 0.0 0.0 0.0 0.0 0.0 0.0 0.0 0.0 0.0 0.0 0.0 0.0 0.0 0.0 0.0 0.0 0.0 0.0 0.0 0.0 0.0 0.0 0.0 0.0 0.0 0.0 0.0 0.0 0.0 0.0 0.0 0.0 0.0 0.0
1.035361 1.319725 0.388011 1.220811 -0.236045 1.447081 -1.78193 3.520004 0.063077 -1.681862 0.545208 0.767849 -1.479444 -1.152839 0.669301 0.685509 -2.946755 -2.239533 -1.187422 -1.793336 0.607402 0.130687 0.296681 -1.569517 1.825066 1.715849 -1.639836 0.849724 -1.742086 0.427502 3.84844 -1.377145 0.671096 -1.312902 -1.152387 0.705431 2.180344 2.97496 1.402098 -0.909545 -1.649212 -0.253421 1.186817 1.193823 3.167747 -0.387379 -0.12198 0.872223 0.13285 0.490844 0.029473 1.345032 0.297008 2.724698 -1.656047 -0.109585 1.500583 -1.148555 -3.658389 1.022988 -1.211381 0.342059 -0.023586 1.22536 -1.874871 -1.957746 -0.188066 -0.235303 -0.067175 1.107354 1.448404 0.838301 1.67396 -0.238039 -0.504146 -1.334739 0.688005 0.37731 -2.953094 0.650433 0.307563 -0.457962 -1.694326 2.40152 -0.816994 0.208705 1.853393 0.15935 -0.989952 1.089235 1.087388 -2.786835 -2.248864 -0.788939 0.405791 0.907533 -1.516669 1.970717 -0.345554 -0.134731
-0.019201 0.028111 0.019217 0.052324 -0.012545 0.076041 0.041859 0.132425 -0.042682 -0.25324 0.153679 -0.052639 -0.234426 0.154245 0.001178 0.07083 0.073083 0.160228 0.024133 -0.054811 0.001969 0.005439 0.181016 0.099355 -0.126409 -0.051701 0.037309 -0.123638 0.247936 -0.162055 0.114555 0.125901 0.087982 0.08593 -0.090916 0.032607 0.058566 -0.084423 -0.083684 -0.120125 -0.142636 -0.134573 0.099572 -0.067549 0.144656 -0.140025 -0.119758 0.069446 0.087216 -0.032862 -0.006618 -0.111395 0.032981 -0.031112 -0.118341 0.110071 -0.111936 0.153878 0.041608 0.007703 0.064796 -0.130385 0.030277 0.045725 -0.1256 0.149386 -0.11782 -0.166733 0.122695 0.114102 -0.065025 -0.01284 -0.004014 -0.036946 -0.052576 0.183617 0.039352 -0.109896 0.002856 -0.049741 0.098582 -0.079185 0.058208 -0.092538 -0.020486 -0.024785 0.136707 0.03449 -0.090652 0.201497 -0.097455 0.025029 -0.120762 -0.013839 -0.051103 -0.067125 -0.00444 -0.252706 0.02388 -0.108891
0.859239 0.673689 -0.290939 -0.531477 -2.10922 2.035813 0.053013 3.136615 -1.086866 -0.032847 0.700746 1.333968 -1.724528 0.82957 0.674361 0.223577 0.753121 0.578528 -0.651298 0.69981 -1.840673 -2.421198 -1.92774 0.812465 0.305951 1.477557 -0.399502 -1.129891 -2.029444 -0.492184 2.567479 -0.03574 0.170095 -0.827749 1.449535 -1.2361 -0.253805 1.273949 0.472593 0.797911 0.335013 1.029314 -0.778648 0.990085 0.468485 -1.201123 0.862058 -0.348481 -0.001726 -1.9189 1.271396 -2.092349 0.466189 3.51941 -3.694 -1.725301 -1.842322 -0.531707 0.297758 -0.785766 -0.083723 1.17025 -0.678009 0.474607 1.714605 -1.459293 0.138731 0.742116 0.572401 0.622107 2.813798 1.670515 -2.990878 -3.204301 1.355485 1.509645 2.264333 -0.90668 0.397642 2.573653 2.178542 -0.616305 -1.750986 1.607468 -0.153016 -0.720591 -0.02845 2.540763 -0.831948 -0.886 0.163541 3.093616 -1.617663 0.557102 -1.36222 -1.985592 -0.264349 -1.714483 -3.242204 -0.922903
-0.022472 -0.0286 0.014651 0.037713 0.053146 0.080121 -0.093468 -0.250423 0.060869 -0.018404 0.192859 0.071127 -0.034619 0.120386 0.06543 -0.038705 -0.125265 -0.166616 0.026529 0.069964 -0.010113 0.047386 -0.105185 0.198162 0.105395 0.097151 0.118624 -0.100568 0.194718 0.16027 0.025583 -0.178672 -0.005309 -0.095614 0.112059 0.055169 0.103159 -0.104924 0.078805 0.116019 0.030468 -0.175176 -0.13289 0.10757 -0.15683 -0.049192 0.003908 0.191115 -0.135681 -0.02097 -0.011078 -0.097853 -0.009189 0.014958 0.104894 -0.038316 -0.070534 0.121314 0.178612 -0.052544 0.100195 0.127438 -0.089321 -0.009738 0.021255 0.030159 0.064451 0.063533 -0.16463 0.259147 0.058314 -0.092746 0.030844 -0.04324 0.101487 0.007273 -0.244303 0.100858 0.069425 -0.022574 -0.165127 0.008106 -0.238021 -0.217159 -0.039656 0.097376 -0.038173 -0.06334 0.028843 0.050891 0.004594 -0.251316 -0.050187 0.12119 -0.120483 0.042783 0.011264 -0.08886 0.109574 -0.057601
2.082039 0.336366 -0.935759 1.511715 -3.560424 -1.928395 -0.911915 -1.085328 -1.256373 0.828435 -1.449189 0.830347 3.442916 1.790874 -0.795908 0.249226 -1.530745 -0.635556 -1.441355 0.696001 -1.140813 2.05411 0.814944 0.836391 -1.047091 -0.889873 3.043443 -1.069069 -0.899694 0.721261 2.050779 -3.380024 0.1115 -1.253804 -2.627244 -0.738129 -1.483601 -2.160747 -3.339145 -0.071523 -1.30318 -1.329457 1.06052 0.453372 1.154068 0.100435 -2.694531 1.675936 0.774536 -0.092699 -0.812041 -0.280022 0.540321 -1.072 0.076079 2.162178 -1.843101 -3.528751 -0.2769 -0.121911 -2.462143 -1.574445 0.452342 -0.434565 0.591436 -2.196673 1.253671 -3.489306 0.254867 0.607124 4.850824 -2.454176 -1.448066 3.273839 1.188581 0.926558 2.282821 1.441728 1.200107 2.581533 1.824633 0.458611 -2.129844 0.248367 1.412666 0.895334 -0.173264 1.487316 -0.204748 2.015196 0.763463 1.086268 -4.820467 0.906443 -0.025663 1.331479 -0.281809 1.843237 -1.288186 0.45067
0.068309 -0.087153 0.064088 0.029203 -0.01056 -0.05189 -0.319101 0.018184 0.046379 0.074911 0.057877 0.116514 0.064875 0.048157 0.218086 0.140645 0.009322 0.070816 0.044347 -0.052735 -0.210997 0.059279 0.196713 0.039629 -0.115573 -0.180613 -0.031741 0.00392 0.18097 -0.05016 -0.050022 -0.113127 -0.119195 0.172167 -0.053294 -0.057206 -0.033516 -0.012544 0.097178 0.132225 0.034236 0.246164 0.066823 0.125837 -0.104736 -0.092266 0.003926 0.039428 -0.11496 0.064544 0.080264 0.03101 -0.061713 -0.115002 0.073857 1.7E-4 0.059467 0.019265 0.095627 0.027502 -6.75E-4 -0.093541 0.01298 -0.136598 -0.027045 -0.114165 0.001047 0.096691 0.163498 -0.171826 0.030981 -0.062518 -0.079589 0.018883 0.049457 -0.068213 -0.149212 -0.007308 -0.116269 -0.056372 -0.107137 0.116841 0.041356 -0.167596 -0.142247 0.061077 -0.044624 0.081563 0.181855 0.098523 -0.040912 -0.032021 -0.026201 0.21486 -0.194414 -0.140253 0.220125 -0.03751 -0.198192 -0.010955
-0.049304 -0.110367 0.0127 -0.035208 0.095575 -0.104559 -0.037247 0.04768 0.113488 -0.039835 0.063804 0.033373 -0.071035 -0.029282 -0.035452 -0.105183 0.023484 0.056347 -0.009063 -0.17848 -0.191747 -0.010183 0.135579 0.005246 -0.370933 -0.180441 -0.051494 0.087623 0.194119 0.116097 0.046157 -0.00255 -0.083376 0.027814 -0.204732 -0.063309 -0.025039 -0.031477 -0.064205 0.021594 0.039499 -0.058701 0.03897 -0.071644 0.148018 -0.029345 0.070402 0.023412 -0.021435 0.026579 -0.087625 -0.028992 -0.007102 0.057822 0.0627 0.057322 0.079373 0.068421 0.143734 -0.039883 0.086602 -0.147327 -0.07687 -0.177286 -0.047132 0.106858 0.164892 0.029537 -0.033732 -0.051086 -0.046873 -1.44E-4 -0.033622 -0.128179 0.120303 -0.046639 -0.09976 -0.01358 -0.018734 0.20462 0.051876 -0.022061 0.12339 -0.023023 -0.102077 0.157936 -0.076713 0.095135 -0.045453 -0.041087 0.103648 -0.031168 0.056619 0.107715 -0.073986 -0.01236 -0.168681 -0.105948 0.036355 0.091909
4.576825 1.829772 -2.921497 0.35633 -2.96301 -2.262088 0.312889 -1.614879 -1.098961 0.362014 -0.625678 0.349944 2.791968 2.431569 1.014511 1.251372 -0.60646 -0.15469 -0.537582 2.853085 -0.078045 0.434491 -1.24517 -2.117113 -0.464771 -1.247461 -1.642884 -0.476422 -2.717773 2.011859 3.133013 -1.975354 0.017981 -1.296624 -4.494658 -1.368734 -1.708212 -0.340824 2.043243 0.576402 -2.100339 -1.013339 0.323114 1.081909 -1.026444 -4.137285 -0.678499 -0.760245 1.627034 1.929081 -2.817467 -3.461468 2.825439 4.021184 -0.260423 -0.384818 2.966753 0.032952 -0.055288 0.906798 1.622791 1.017857 -1.817255 -0.079658 1.644132 0.288531 2.037838 -0.974517 -0.403529 2.447022 3.058547 2.120925 -0.537942 0.936158 -0.593324 -1.081755 0.604481 1.271467 2.419385 3.674406 3.211711 -1.842987 -1.133937 -3.350729 -4.114371 2.734298 -0.223713 0.580741 1.349085 -0.592185 -0.027233 2.086853 -1.195834 -0.196174 -4.159688 -0.71735 -2.85489 -0.997014 -0.926882 1.084662
0.0 0.0 0.0 0.0 0.0 0.0 0.0 0.0 0.0 0.0 0.0 0.0 0.0 0.0 0.0 0.0 0.0 0.0 0.0 0.0 0.0 0.0 0.0 0.0 0.0 0.0 0.0 0.0 0.0 0.0 0.0 0.0 0.0 0.0 0.0 0.0 0.0 0.0 0.0 0.0 0.0 0.0 0.0 0.0 0.0 0.0 0.0 0.0 0.0 0.0 0.0 0.0 0.0 0.0 0.0 0.0 0.0 0.0 0.0 0.0 0.0 0.0 0.0 0.0 0.0 0.0 0.0 0.0 0.0 0.0 0.0 0.0 0.0 0.0 0.0 0.0 0.0 0.0 0.0 0.0 0.0 0.0 0.0 0.0 0.0 0.0 0.0 0.0 0.0 0.0 0.0 0.0 0.0 0.0 0.0 0.0 0.0 0.0 0.0 0.0
2.082039 0.336366 -0.935759 1.511715 -3.560424 -1.928395 -0.911915 -1.085328 -1.256373 0.828435 -1.449189 0.830347 3.442916 1.790874 -0.795908 0.249226 -1.530745 -0.635556 -1.441355 0.696001 -1.140813 2.05411 0.814944 0.836391 -1.047091 -0.889873 3.043443 -1.069069 -0.899694 0.721261 2.050779 -3.380024 0.1115 -1.253804 -2.627244 -0.738129 -1.483601 -2.160747 -3.339145 -0.071523 -1.30318 -1.329457 1.06052 0.453372 1.154068 0.100435 -2.694531 1.675936 0.774536 -0.092699 -0.812041 -0.280022 0.540321 -1.072 0.076079 2.162178 -1.843101 -3.528751 -0.2769 -0.121911 -2.462143 -1.574445 0.452342 -0.434565 0.591436 -2.196673 1.253671 -3.489306 0.254867 0.607124 4.850824 -2.454176 -1.448066 3.273839 1.188581 0.926558 2.282821 1.441728 1.200107 2.581533 1.824633 0.458611 -2.129844 0.248367 1.412666 0.895334 -0.173264 1.487316 -0.204748 2.015196 0.763463 1.086268 -4.820467 0.906443 -0.025663 1.331479 -0.281809 1.843237 -1.288186 0.45067
0.0 0.0 0.0 0.0 0.0 0.0 0.0 0.0 0.0 0.0 0.0 0.0 0.0 0.0 0.0 0.0 0.0 0.0 0.0 0.0 0.0 0.0 0.0 0.0 0.0 0.0 0.0 0.0 0.0 0.0 0.0 0.0 0.0 0.0 0.0 0.0 0.0 0.0 0.0 0.0 0.0 0.0 0.0 0.0 0.0 0.0 0.0 0.0 0.0 0.0 0.0 0.0 0.0 0.0 0.0 0.0 0.0 0.0 0.0 0.0 0.0 0.0 0.0 0.0 0.0 0.0 0.0 0.0 0.0 0.0 0.0 0.0 0.0 0.0 0.0 0.0 0.0 0.0 0.0 0.0 0.0 0.0 0.0 0.0 0.0 0.0 0.0 0.0 0.0 0.0 0.0 0.0 0.0 0.0 0.0 0.0 0.0 0.0 0.0 0.0
1.155368 3.302179 -0.818617 0.201583 -0.372035 -0.220049 -2.421694 1.24088 1.022918 0.281963 -0.56672 0.218504 -2.654141 0.687099 1.426786 -2.744465 -2.044989 -0.49789 -1.769702 -2.328375 -1.105508 0.104665 -0.061522 -2.669585 1.369504 1.778184 -0.869744 -1.441309 0.051265 1.116249 1.903031 -0.163683 1.731475 -0.652558 -1.459245 -0.212579 0.382415 1.861636 -0.394668 -0.423196 -0.983827 -1.176007 1.844253 0.853456 0.976233 -0.076248 -1.490589 -0.553926 0.506191 0.326236 0.251095 1.038919 -0.803142 0.658979 -3.236482 -1.07965 1.27678 -0.350029 -1.778651 0.292774 0.002745 0.267431 1.072933 -0.321661 -1.19536 -1.465055 -2.523761 -3.574044 -0.123843 -0.515256 3.2036 -0.08683 1.099575 -0.639959 -1.310584 0.629968 -0.142079 0.66081 -1.289981 -0.152693 -0.105374 0.388507 -1.068849 2.207516 -1.516502 0.618648 0.057959 1.61471 0.888036 -0.337188 -0.73306 -0.809614 -1.409634 -0.094797 -0.938314 1.210802 1.47048 2.210952 -1.933366 0.819087
1.59218 -0.744131 0.689839 2.093923 -0.77633 0.923024 0.992919 1.126242 -0.335229 0.170585 -1.506492 0.878241 -0.751713 1.099711 1.64054 1.628419 0.203781 -1.760579 0.749654 -0.700268 -2.10246 -0.481242 2.030734 -1.202738 -0.601997 0.121801 1.09372 1.770293 -0.36836 -1.500778 0.612664 -1.03686 -0.051769 -1.783375 -2.80311 -2.609845 1.271345 -1.492404 -0.015804 -3.4869 -0.528276 -1.977168 0.300947 -0.942712 0.015242 -0.378816 -0.858293 -2.175535 2.640533 -0.838356 0.065145 -1.141492 -1.615269 0.152553 -0.457726 1.701061 -0.391457 -1.01236 -2.805666 -0.819134 -1.311 -1.14763 0.666611 -1.887318 0.351626 -1.430957 -1.177431 -1.795786 1.27764 1.851273 3.47236 -0.341192 0.20115 -1.375063 1.574055 0.097095 0.974426 0.078175 1.028413 1.296605 1.390131 -2.743289 0.206343 -0.071423 -1.830799 1.708201 1.04382 2.279693 -0.431192 2.197189 0.859698 -1.408533 -1.24989 -0.770426 0.659744 0.447228 0.240203 0.671489 -1.519564 1.765739
7.24E-4 -0.031559 0.045731 0.030518 0.120621 -0.048906 -0.01325 -0.186245 0.021287 0.0085 0.05109 0.021243 -0.076045 -0.188208 0.004679 0.160169 0.017064 0.141879 0.054208 0.022435 -0.170883 -0.050834 0.085081 0.040636 0.089485 0.090979 0.04581 -0.154161 -0.072734 -0.065645 0.18534 0.059918 0.067037 -0.097336 -0.001173 0.088524 0.079779 -0.006823 0.076717 0.010213 0.022031 0.112512 0.032199 -0.030851 -0.040039 0.062614 0.100346 0.009072 0.020054 0.092271 0.083237 -0.212266 -0.062808 0.036227 -0.025637 -0.064927 -0.130073 -0.048118 0.030728 0.01007 -0.069525 0.085343 9.57E-4 -0.069792 -0.041382 -0.051717 0.015703 0.198753 -0.064245 -0.092735 -0.08027 0.058291 0.056399 0.04245 -0.006346 -0.049423 4.03E-4 0.0354 -0.057731 -0.008255 -0.021348 0.103489 0.047552 -0.043407 -0.160651 -0.078624 0.0135 0.04979 0.131747 0.198337 -0.035769 -0.072526 0.066841 -0.032415 0.006947 0.005046 0.009104 0.060922 0.029884 -0.186175
0.050501 -0.016077 0.219096 0.13083 -0.106353 -0.038385 -0.03673 -0.013936 0.03212 0.182082 0.11479 -0.011922 -0.00895 0.09783 -0.149325 0.149771 -0.040447 0.188617 0.066774 0.148071 -0.032993 0.010327 0.016682 0.027059 -0.007339 0.031035 -0.076029 0.123489 0.252433 -0.206831 -0.145701 -0.099322 0.058848 0.1738 -0.1229 0.103562 0.052364 0.001368 -0.045076 0.160604 -0.093748 0.193671 0.007396 -0.146459 0.182206 -0.110823 0.043947 -0.00712 -0.024281 -0.229148 0.066602 -0.164018 0.004143 0.048709 0.085777 0.003231 -0.020203 -0.037224 0.167118 -0.103246 0.02568 -0.150695 0.023863 -0.053987 -0.003985 0.037959 0.017977 0.066808 0.146633 -0.138732 -0.122943 -0.059755 0.158576 -0.056711 -0.038029 0.104171 -0.137045 -0.156833 0.001631 0.158713 -0.158122 0.140678 -0.070754 -0.204949 0.031813 0.083482 -0.116094 -0.035982 0.288421 0.039429 -0.123495 0.018705 0.069226 -0.007298 0.046848 -0.04666 0.011126 0.013742 -0.098728 0.122048
0.060433 -0.160589 0.051192 -0.094795 0.174439 0.070726 -0.060221 -0.138032 -0.115849 0.056301 0.11846 0.006065 0.046494 0.005695 -0.166631 -0.054631 0.063018 0.223309 -0.011889 0.02344 -0.106071 -0.062653 -0.069169 -0.143648 -0.072167 0.068671 -0.088358 0.025697 0.050451 -0.049365 0.073463 -0.017407 -0.140072 0.055576 0.010811 -0.02756 0.067074 -0.031089 0.193172 0.04397 0.028437 0.08536 0.006007 0.02835 -0.107879 0.018398 -0.045629 -0.01249 -0.173133 0.205044 0.014825 -0.132354 -0.027451 -0.071034 -0.142999 0.022437 -0.096865 -0.140575 -0.044523 0.074001 -0.171139 -0.038881 -0.019183 -0.074809 0.204461 0.031759 -0.078505 0.130095 -0.04034 0.028467 0.040739 0.091662 0.008623 -0.007164 -0.056219 -0.042995 0.025843 0.110094 -0.012418 -0.035109 0.077794 0.166404 0.039925 -0.00398 0.052048 0.080949 0.038143 -0.018422 0.166886 -0.018276 0.189268 0.095709 -0.024419 -0.072682 -0.108784 -0.1018 -0.058702 -0.031519 0.101338 0.118043
0.016761 -0.116603 -0.128803 -0.085956 -0.331505 -0.005635 -0.24598 -0.189948 -0.156206 -0.002443 0.075572 -0.008364 -0.139675 0.126897 -0.004456 0.057895 -0.088723 0.174266 0.085188 -0.085007 -0.075556 0.123927 0.088185 0.026955 -0.130153 0.076374 0.0957 -0.25201 0.003484 -0.238015 -0.036255 0.039226 -0.015772 -0.079196 -0.335473 0.006978 0.172757 -0.121315 -0.06076 -0.098614 -0.100969 0.179943 -0.134157 -0.075677 0.053369 -0.162456 0.128946 0.087226 -0.11526 0.126585 0.04661 -0.14619 0.024327 0.220343 0.068667 -0.090185 0.082926 -0.065364 0.019387 0.003375 0.059688 0.017492 -0.074307 -0.126323 -0.142204 0.029827 -0.080282 -0.049183 0.133455 0.03925 0.081019 0.02228 -0.085705 0.010979 0.090813 -0.218384 -0.081749 0.05013 0.043586 0.112995 0.092207 0.051805 0.232937 0.013064 -0.138894 0.218488 0.139092 0.161748 0.127503 -0.165375 -0.172091 -0.015813 -0.013581 0.0414 -0.044944 -0.06549 -0.065871 -0.026492 -0.022413 -0.13116
-0.013236 0.183016 0.137952 0.124071 0.111855 -0.013848 0.12599 -0.160735 -0.167335 0.071493 -0.072039 0.066068 -0.027566 0.081976 0.052254 0.123465 -0.174864 0.02446 -0.045685 -0.237289 -0.244287 0.026204 0.052877 -0.006301 -0.151002 0.100691 -0.123263 -0.056683 -0.053021 -0.13193 -0.028315 -0.105084 -0.171898 0.270708 -0.185777 -0.097435 0.110437 0.083319 0.021308 0.045607 -0.113082 0.144202 0.159826 -0.171962 -0.214273 0.232074 -0.064669 -0.069549 -0.129557 -0.031265 0.144488 0.165463 0.1101 -0.049199 0.20567 -0.026533 0.016345 -0.207442 0.06774 0.068588 -0.022172 -0.154304 -0.174507 -0.096071 -0.023112 -0.165038 -0.196652 -0.059831 0.026218 -0.110533 0.020015 0.284088 -0.047222 -0.16451 0.114496 0.247721 -0.022282 -0.313782 0.01307 0.030813 -0.086021 0.080384 0.179901 0.021525 -0.010492 0.187886 0.064668 0.208563 -0.052103 0.129441 0.05107 -0.169305 0.096805 -0.280488 -0.022548 -0.04542 -0.215836 0.100107 0.371492 -0.03141
0.244846 0.008423 -0.321803 0.075429 -0.168917 -0.240826 0.035983 -0.182301 -0.227966 0.321749 0.130858 0.18936 0.104314 -0.061886 -0.066201 0.161347 0.228162 0.224636 -0.14367 -0.090403 0.121903 0.122438 -0.045674 -0.1457 -0.019312 -0.143753 0.031351 -0.023381 0.093774 0.037571 -0.185982 -0.198598 -0.105834 -0.021367 -0.248722 -0.0314 0.223078 0.126255 0.047725 -0.185312 -0.068554 0.059766 -0.199794 0.105814 0.241212 -0.195476 -0.097708 0.009249 -0.036295 0.067208 -0.037115 -0.188749 0.173588 0.380423 -0.172419 -0.120369 0.335785 0.02211 -0.094284 0.187817 0.225245 0.275937 0.091572 -0.058213 -0.084509 -0.106452 0.378563 0.022608 0.295106 -0.219769 0.175275 0.016409 0.108856 0.079876 0.095992 -0.120842 -0.022428 0.122198 -0.135668 0.191553 -0.137339 0.008656 -0.014708 -0.014497 0.135376 0.172565 -0.029642 -0.173998 0.159802 -0.113861 -0.162641 0.092535 -0.145933 -0.001909 -0.139173 -0.25196 0.130577 -0.062997 -0.157974 -0.206728
0.352905 0.550922 -1.128945 -0.511125 0.774489 1.405335 -0.371647 0.106012 -0.779785 -0.640302 -0.68578 1.570717 -0.712288 -0.706705 -0.789609 -0.045278 -1.599722 -2.840112 -0.089543 -1.158838 -1.862605 -0.62748 -0.063542 -0.468696 0.750564 0.033551 -0.772222 -0.188991 -0.163115 0.455978 0.038455 -0.779588 0.172303 -1.114448 -0.548246 -0.008155 1.66721 -0.744821 -0.15746 -2.668482 -0.304702 -0.905716 0.479063 0.151803 -0.94063 -0.044338 -0.906122 -0.456182 0.281891 0.268287 0.47007 0.628019 0.328428 1.471286 -2.345457 0.072073 -0.345477 -0.998199 -1.496897 -0.053061 0.351206 -0.934426 0.295591 0.07336 0.24092 0.486976 0.390085 -0.621556 0.375246 -0.02625 1.957847 1.014101 0.004675 0.08874 -0.900479 -0.462149 0.922254 1.355385 -1.048724 0.105897 1.254466 0.410718 0.321258 1.066395 -0.171761 -0.128774 0.315556 0.697301 -0.180925 0.555334 1.005586 -0.891677 -1.232923 -1.994189 -0.567812 0.204184 -0.947385 -0.051526 -0.987029 0.725141
0.087407 -0.074739 0.15548 0.138427 0.04851 0.108997 -0.047644 0.061208 0.073629 -0.035779 -0.106798 0.091208 -0.31849 0.298016 -0.001202 0.110709 -0.023806 0.012085 0.06896 -0.126588 -0.159285 -0.062579 0.148485 0.02435 0.130048 -0.149802 0.30686 0.143438 -0.008516 -0.159257 0.083013 0.109087 -0.033037 0.048248 -0.174182 0.100896 -0.023083 -0.111031 -0.106088 -0.111106 0.022356 -0.11061 -0.049105 0.047016 0.135183 -0.155443 0.016955 0.237714 0.156987 0.084049 -0.017164 -0.293514 -0.064818 0.126201 -0.208988 -0.002571 0.225002 -0.139372 0.041365 -0.007754 -0.055565 0.142384 -0.03457 -0.088803 0.051846 -0.20627 0.113224 0.041716 0.139147 0.128995 0.179614 0.006199 -0.005498 0.067822 -0.03012 0.110529 -0.12879 0.11787 -0.027882 0.19285 0.015908 -0.116332 0.173904 -0.039132 -0.066701 -0.061702 0.030888 0.121366 -0.128278 0.133686 0.230226 0.062427 -0.103048 0.121529 0.169998 0.027668 -0.148747 0.172019 -0.115675 0.159339
0.069413 -0.242883 0.132855 0.002505 -0.356989 0.138622 -0.135927 -0.011188 -0.12135 0.263744 0.076789 0.166872 -0.078357 0.10658 -0.033043 0.153039 0.133695 0.07751 -0.021693 0.094342 -0.03088 -0.297356 0.220655 -0.096631 0.009311 -0.082322 -0.158723 0.250284 0.182571 -0.356156 0.128649 -0.240169 -0.390584 0.190683 -0.103577 -0.137177 0.396886 -0.028603 0.205932 -0.088836 -0.006459 0.042361 0.123326 5.4E-4 -0.052857 -0.026406 -0.221426 0.027439 -0.10796 0.040784 -0.112888 -0.162614 -0.021834 -0.224596 0.157037 -0.167944 0.23614 -0.168334 0.187529 -0.079605 0.104966 -0.234847 -0.241602 -0.110478 0.103045 -0.055228 0.181582 -0.034001 0.145251 -0.079697 -0.085282 0.036235 0.129346 0.047888 0.068179 -0.102706 0.113429 0.003563 -0.017356 6.88E-4 -0.203689 -0.012721 -0.138043 -0.077439 0.217314 -0.0137 -0.032492 -0.096445 -0.004072 -0.056835 0.077162 0.039425 -0.04794 0.141613 -0.160481 0.029481 0.152841 -0.019216 -0.065917 0.091731
0.016761 -0.116603 -0.128803 -0.085956 -0.331505 -0.005635 -0.24598 -0.189948 -0.156206 -0.002443 0.075572 -0.008364 -0.139675 0.126897 -0.004456 0.057895 -0.088723 0.174266 0.085188 -0.085007 -0.075556 0.123927 0.088185 0.026955 -0.130153 0.076374 0.0957 -0.25201 0.003484 -0.238015 -0.036255 0.039226 -0.015772 -0.079196 -0.335473 0.006978 0.172757 -0.121315 -0.06076 -0.098614 -0.100969 0.179943 -0.134157 -0.075677 0.053369 -0.162456 0.128946 0.087226 -0.11526 0.126585 0.04661 -0.14619 0.024327 0.220343 0.068667 -0.090185 0.082926 -0.065364 0.019387 0.003375 0.059688 0.017492 -0.074307 -0.126323 -0.142204 0.029827 -0.080282 -0.049183 0.133455 0.03925 0.081019 0.02228 -0.085705 0.010979 0.090813 -0.218384 -0.081749 0.05013 0.043586 0.112995 0.092207 0.051805 0.232937 0.013064 -0.138894 0.218488 0.139092 0.161748 0.127503 -0.165375 -0.172091 -0.015813 -0.013581 0.0414 -0.044944 -0.06549 -0.065871 -0.026492 -0.022413 -0.13116
0.069766 -0.011048 -0.014419 0.290607 0.040707 0.137698 -0.009331 -0.024271 0.023541 -0.16361 0.004824 -0.036287 -0.00129 0.167759 0.02262 0.033359 -0.032771 0.186868 -0.04891 0.056829 -0.145361 0.144015 -0.065314 0.169126 -0.311133 -0.053071 0.054974 -0.135815 0.127857 -0.097544 -0.025497 0.031926 -0.190796 0.039148 -0.036064 -0.029292 -0.095998 -0.073453 -0.059189 -0.09897 -0.077609 0.010518 -0.045171 0.177092 0.067156 0.041795 -0.097582 0.118979 -0.047412 0.297339 0.048036 -0.110288 -0.018331 0.171456 0.067953 -0.119721 0.016506 0.213966 0.180972 -0.12366 0.108239 0.014544 0.058527 -0.074968 -0.241404 -0.065291 0.089472 0.017881 0.075984 -0.202287 -0.006559 -0.121644 0.068455 -0.113081 -0.010658 -0.120158 -0.132483 -0.065399 -0.127378 -0.050673 0.116181 0.098315 0.076191 0.136896 0.06151 -0.097621 0.228361 0.094828 0.156419 0.030722 -0.110045 -0.014032 0.194809 0.225637 -0.028482 -0.269186 0.007931 0.105414 0.012452 0.228086
-0.028158 -0.155861 0.097196 -0.029797 -0.031563 0.048186 0.007258 -0.126619 0.155633 0.113593 0.056362 0.087785 0.183275 0.116435 0.070382 0.188766 0.108617 0.109441 0.009536 -0.038401 -0.09487 -0.076661 0.183908 0.048432 -0.200777 -0.07675 -0.044138 -0.034256 0.202808 0.041543 -0.035275 -0.072242 -0.099544 0.099008 -0.016768 -0.038303 -0.137639 -0.002554 -0.103607 0.084393 0.051266 0.002022 -0.088347 -0.061227 -0.011442 -0.194066 -0.099999 0.087315 -0.189176 0.003783 0.141447 -0.158853 0.013899 0.113198 0.242148 -0.060765 0.062292 -0.056247 0.182379 -0.069505 -0.001684 -0.017653 -0.017127 -0.058228 -0.167764 0.152007 -0.03499 -0.047408 0.021125 -0.185817 -0.05647 -0.033258 0.107854 -0.025336 -0.137158 0.037137 -0.143561 0.062508 -0.14936 0.026198 -0.204457 0.09676 -0.105272 0.04591 -0.055195 -0.033163 -0.111955 0.113739 0.138533 0.056452 -0.018645 -0.204113 0.0964 -0.039579 -0.093072 -0.046043 0.247041 0.060311 -0.004409 -0.158239
-0.083831 -0.067033 0.03227 -0.017572 -0.12026 -0.198365 0.199892 0.236119 -0.002745 0.274177 0.168473 -0.051805 0.285372 0.296251 -0.176516 -0.341331 0.345271 0.125616 0.059762 0.074277 -0.225323 -0.033708 0.092803 -0.28727 0.001994 0.226133 -0.017297 0.128915 0.058658 0.057338 -0.269225 -0.139958 0.0865 -0.24179 -0.444455 0.202878 -0.389262 -0.180283 -0.160539 -0.084765 -0.057994 0.279066 0.115226 -0.205898 0.063153 0.005282 -0.084136 0.083735 0.072597 -0.097823 0.254288 -0.12119 0.040578 -0.107136 0.22421 0.245545 0.041487 -0.097504 0.228386 0.167858 -0.191837 -0.230727 -0.191175 0.046336 0.254755 -0.053161 0.070896 0.050794 0.336242 -0.062429 -0.16833 0.573947 -0.236917 0.009999 0.008391 0.182951 -0.049599 4.89E-4 -0.068447 -0.200589 -0.132348 -0.001008 0.267017 -0.164847 -0.13185 -0.154102 0.048994 0.058902 -0.145078 0.257643 -0.166516 -0.494216 -0.037268 0.347948 0.135937 0.254924 -0.00513 0.042082 -0.036202 0.046435
-0.345703 0.092025 0.838969 0.479882 0.123852 -0.320462 -0.431779 1.303317 0.410354 -0.152948 0.179746 -0.152525 -0.787815 -0.140864 -0.208444 0.699958 0.441021 0.572026 0.764294 -0.138832 -0.820924 0.473393 -0.632253 0.137066 -0.437371 -0.847581 0.363663 0.238743 -0.378334 1.015486 1.84E-4 -1.121839 -0.73234 -0.279939 0.018682 -0.682483 -0.403506 0.254763 0.724437 -0.469264 0.644188 -0.420932 0.106798 0.763222 -0.004352 -1.146179 1.466481 -0.527937 -1.056343 0.221809 -0.158326 -0.233383 -0.465298 0.298002 0.101335 -0.728292 -0.869074 -0.020467 0.490485 -0.156268 0.242664 0.500617 -0.424796 0.061426 -0.085309 0.400675 1.224413 0.048097 0.683715 -1.218166 0.159524 0.978282 -0.498119 0.377603 0.054553 -0.796999 -0.65024 -0.148666 0.451458 1.508501 0.242698 0.428989 -0.548319 -0.89978 0.081727 0.79009 -0.590575 -0.466483 1.392337 -0.176784 0.909806 1.484936 0.299207 0.58346 0.554221 -0.517907 -0.253216 -1.291626 -0.301236 0.464862
0.086113 -0.133959 0.011476 -0.107841 -0.054651 -0.010092 -0.185441 -0.074012 -0.039972 0.197741 0.131865 0.188695 0.022988 -0.107504 -0.034662 0.160001 -0.034049 0.182595 0.087706 0.001838 -0.105251 -0.124065 0.323141 0.041016 -0.042119 0.018726 -0.156762 0.015485 0.045993 -0.083845 0.081739 0.029297 -0.047462 0.002907 -0.140974 -0.105611 0.05928 -0.139638 0.152441 0.030518 -0.088393 0.037784 -0.0051 0.142249 0.013831 -0.086608 -0.074054 0.19143 -0.185153 0.076805 0.111195 -0.150442 -0.108435 0.042099 -0.002182 -0.204888 0.045435 -0.085544 0.146573 -0.026118 0.113477 -0.223751 0.077291 -0.151951 -0.003728 0.041392 0.044987 -0.078806 -0.072184 -0.094743 -0.055753 0.079514 -0.117336 0.056642 0.019013 -0.135339 -0.068772 -0.017644 -0.039815 -0.143174 -0.120976 0.134644 -0.042132 -0.158606 0.036595 0.096902 0.06604 -0.09925 0.145067 -0.005295 0.211665 -0.106734 -0.0445 0.096851 -0.022355 -0.082709 0.088303 0.151443 0.08621 -0.009423
-0.671963 -1.356401 3.602218 0.823366 -0.502176 -0.026847 2.688116 0.953721 0.412325 -0.074957 -2.563688 0.379861 -0.279054 0.512633 -0.426346 -0.669122 -2.193019 -1.985633 1.195718 -0.843091 -3.07709 -2.336138 0.676971 -1.157188 0.84245 -0.067074 1.662677 -0.902702 0.573933 0.762577 1.605777 -0.494156 -0.764054 -4.857189 1.199538 0.081996 1.582965 -1.800896 1.133021 -2.874443 -0.067305 0.527258 -0.963475 2.056148 -0.810059 -2.590427 0.192699 -0.925293 0.533123 0.50128 0.198265 1.047486 -1.15476 -0.133629 -3.660616 2.9145 0.67414 -1.747608 -1.472014 0.506851 -0.089567 -1.009712 -0.989767 -0.231732 -1.20197 -0.899847 -0.180586 -0.280434 1.214359 0.601947 3.002038 1.452004 1.898121 0.64863 -0.773459 -0.546508 1.482508 0.349815 -0.022055 1.977613 1.349274 -0.187718 2.026595 2.419264 -2.256871 -0.764584 -0.110956 2.609596 -0.511332 0.497735 1.205947 -0.553892 0.146347 -2.201324 -0.117853 -0.193777 0.312823 3.388883 -4.036498 2.412019
0.050501 -0.016077 0.219096 0.13083 -0.106353 -0.038385 -0.03673 -0.013936 0.03212 0.182082 0.11479 -0.011922 -0.00895 0.09783 -0.149325 0.149771 -0.040447 0.188617 0.066774 0.148071 -0.032993 0.010327 0.016682 0.027059 -0.007339 0.031035 -0.076029 0.123489 0.252433 -0.206831 -0.145701 -0.099322 0.058848 0.1738 -0.1229 0.103562 0.052364 0.001368 -0.045076 0.160604 -0.093748 0.193671 0.007396 -0.146459 0.182206 -0.110823 0.043947 -0.00712 -0.024281 -0.229148 0.066602 -0.164018 0.004143 0.048709 0.085777 0.003231 -0.020203 -0.037224 0.167118 -0.103246 0.02568 -0.150695 0.023863 -0.053987 -0.003985 0.037959 0.017977 0.066808 0.146633 -0.138732 -0.122943 -0.059755 0.158576 -0.056711 -0.038029 0.104171 -0.137045 -0.156833 0.001631 0.158713 -0.158122 0.140678 -0.070754 -0.204949 0.031813 0.083482 -0.116094 -0.035982 0.288421 0.039429 -0.123495 0.018705 0.069226 -0.007298 0.046848 -0.04666 0.011126 0.013742 -0.098728 0.122048
0.567082 -0.012173 -0.085593 -0.052264 0.049059 -0.349684 -0.159835 -0.194415 0.026823 0.225216 0.21478 0.086373 0.269693 -0.056757 -0.088474 0.28392 0.41872 -0.016499 -0.2767 0.151558 -0.088794 -0.421654 0.046926 -0.08762 0.024602 0.183902 -0.127468 0.338266 -0.087513 0.160967 0.027034 -0.287198 -0.30627 -0.102828 -0.464896 -0.284118 0.017205 -0.222754 -0.038921 0.116347 0.265384 0.097792 -0.232114 0.160962 0.24694 -0.070489 -0.270861 -0.212378 -0.194527 0.30306 -0.071529 -0.122619 -0.039879 0.128076 0.080486 -0.420916 0.289865 0.101771 0.014754 0.08733 -0.045749 -0.129065 0.129045 -0.132016 0.135666 0.204099 0.261244 0.353263 -0.204705 0.26043 -0.076051 0.113462 -0.132492 -0.050448 -0.150969 0.31808 0.014559 -0.114874 0.133409 -0.081752 -0.141982 0.115524 0.304751 0.063138 -0.192624 -0.032266 0.520795 0.007803 0.19387 0.117601 0.28905 -0.048369 -0.096393 0.065192 -0.202106 0.035451 0.037049 0.217082 -0.021146 1.95E-4
