0.025221 -0.093308 0.035445 0.140234 0.017353 0.05799 -0.229129 -0.146702 -0.115406 0.049934 0.213703 0.096306 0.042679 -0.075069 0.011162 0.081913 0.005102 0.158108 -2.48E-4 0.050375 -0.002611 0.05446 0.143411 0.145736 -0.035037 -0.064939 0.00429 -0.018736 0.005885 -0.12577 -0.113194 0.054826 -0.175511 0.138286 -0.017962 -0.203685 0.105783 -0.055768 -0.005467 0.058447 -0.009671 0.108373 0.138765 0.112922 -0.054337 -0.118926 0.061561 -0.04826 -0.195359 0.09594 0.19489 0.028948 -0.059775 0.04917 0.029512 -0.01291 0.123495 -0.022581 0.148683 -0.175759 0.087296 -0.003092 -0.007752 -0.141628 0.011677 0.087855 0.042794 0.16586 0.046105 -0.018836 -0.218994 0.10647 0.002797 -0.029906 0.14368 -0.148705 -0.106152 -0.077104 -0.02525 -0.029977 -0.080331 0.177528 0.10927 -0.136079 0.132478 -0.010672 0.094835 0.112046 0.147338 0.190698 -0.109719 -0.071363 -0.014729 -0.071372 0.066147 0.019624 0.06284 -0.15035 0.035504 -0.049539
0.015223 -0.023616 0.114725 0.115689 -0.010968 -0.091514 -0.061706 -0.151774 0.11352 0.010824 -0.114875 0.159139 0.168701 -0.023173 0.170171 0.157376 0.062057 0.059867 0.128152 -0.10253 -0.070363 -0.042916 -0.058367 0.119914 -0.09271 -0.13455 -0.198355 0.009594 0.109497 -0.053716 -0.067641 0.087166 -0.064315 -0.07559 -0.097322 -0.082599 0.194233 0.00435 -0.155461 -0.005874 0.247236 -0.066586 -0.164482 0.095691 0.150549 -0.108761 -0.267363 0.001046 -0.110273 0.035907 -0.049237 -0.12922 -0.003856 -0.005523 0.14755 -0.045399 -0.059188 0.028019 0.057101 0.063844 -0.050392 -0.010246 -0.107145 -0.058231 -0.114859 -0.171478 -0.154149 -0.041829 -0.126476 -0.189416 -0.282181 -0.080227 -0.068765 0.072015 0.091131 0.025569 0.003344 0.141245 0.018288 -0.113591 0.100639 0.054545 0.118704 0.021844 -0.12839 -0.092568 -0.00757 -0.043785 0.045832 0.229245 -0.158827 -0.161505 0.054503 -0.008191 -0.208914 -0.233767 -0.04057 -0.252826 0.073989 -0.024551
0.295743 0.177472 -0.119128 0.005556 0.073491 0.126463 -0.068491 0.040956 0.012892 0.010677 0.103698 -0.178339 0.020261 0.006936 -0.070935 0.081626 -0.108648 0.050181 0.087656 0.068466 -0.133293 -0.091202 -0.029839 0.191182 0.16862 -0.083538 -0.080773 0.117052 -0.030354 0.020229 -0.020066 -0.224047 0.009335 0.098728 0.067525 -0.005488 -0.196199 -0.008695 0.025212 0.154709 -0.056867 0.016022 0.001043 -0.133777 -0.3074 0.006754 0.080055 0.159784 -0.188421 0.121369 0.005876 0.016255 -0.002088 0.03774 -0.024821 0.108358 0.059549 0.091882 0.144825 0.055663 0.185403 -0.065581 0.02879 -0.101229 0.071991 -0.002497 -0.006529 -0.10915 0.062274 -0.002956 0.058456 0.004113 0.103328 0.173394 -0.090338 -0.046764 -0.109366 0.052346 0.015598 -0.174578 -0.247551 0.163059 0.183228 -0.050795 0.199708 0.03885 -0.129288 -0.066408 0.026688 0.020572 0.021433 0.010893 0.213161 0.052695 -0.092201 -0.174208 -0.308368 -0.048491 0.048371 0.141119
0.135443 -0.047298 0.144912 0.05446 -0.083602 -0.027016 -0.077478 -0.145637 -0.030226 0.04475 0.042319 -0.030155 -0.044611 0.00177 0.097439 -0.046793 -0.166694 -0.054886 -0.094494 -0.289438 0.216928 -0.1482 0.060722 0.029101 0.091233 0.075867 0.002025 0.01735 -0.018861 0.050703 -0.035685 0.033198 -0.112104 0.029979 0.074383 0.072727 -0.051291 0.114574 0.052627 0.135207 0.014722 0.19505 0.05045 -0.045476 -0.010677 0.032345 -0.083543 0.124801 -0.079479 0.197481 0.013006 -0.133534 -0.048835 -0.061963 0.061713 -0.028923 0.206197 0.030539 -0.025248 -0.05305 -0.072297 -0.201357 -0.005442 0.031333 0.099424 0.086205 0.020467 0.040941 0.122065 -0.124379 0.065248 -0.127692 -0.262479 0.019999 0.084763 -0.079768 -0.162109 -0.021737 -0.041599 0.013875 -0.333121 -0.113468 -0.239444 0.039241 0.030872 -0.243797 0.010932 -0.031234 -0.138667 0.186304 -0.019135 0.244482 0.025404 0.049242 -0.135527 0.124485 -0.018273 -0.047785 -0.128342 0.121981
0.036737 -0.032921 0.024463 0.001525 -0.14953 -0.081921 0.05195 0.033054 0.042371 0.187633 -0.169856 -0.043431 -0.173636 0.224604 -0.099043 -0.052621 -0.094147 -0.087315 -0.205223 0.126826 -0.051988 0.057934 0.007092 0.028646 0.030134 0.006318 0.118765 0.00841 -0.042876 -0.067148 -0.15148 -0.042306 0.047684 0.10077 -0.040846 -0.155266 0.173754 7.38E-4 -0.149543 -0.155015 0.042332 1.9E-5 0.164393 -0.109523 -0.01025 0.019395 0.060378 0.084138 0.12078 -0.042878 0.08194 -0.06976 0.047308 0.056745 0.006819 -0.026824 -0.156007 0.042841 -0.214906 -0.100455 0.001679 0.056153 0.00309 0.056995 -0.027269 0.054063 -0.021361 -0.118937 -0.039109 0.253888 -0.099679 0.068347 0.024916 0.004649 0.026359 0.067277 0.089904 -0.116294 -0.057639 -0.070171 0.238942 -0.101354 -0.104886 -0.195107 -0.268537 -0.124495 -0.010152 -7.27E-4 0.045996 0.182311 -0.129108 -0.070264 -0.013 0.100287 -0.131971 0.14376 -0.073632 0.262197 -0.055353 0.017675
0.021113 -0.034219 0.096845 0.099368 0.011805 -0.185802 -0.07466 -0.086323 0.044209 -0.008517 0.105064 -0.038904 -0.02469 -0.184795 0.069373 0.229028 0.019667 0.134916 0.096494 -0.098391 -0.054854 0.242476 0.016533 -0.003953 -0.164246 -0.014043 -0.030171 -0.117413 0.0303 -0.201781 0.08746 -0.002707 0.156368 0.025523 0.007751 -0.208408 0.10678 0.012596 -0.099906 0.042003 -0.047821 -0.035733 -0.087143 -0.027695 0.004027 0.160066 0.086942 0.038509 -0.045806 0.026377 0.079028 0.023379 0.0384 0.129565 -0.07404 -0.01346 0.104513 0.018205 0.228656 -0.156385 0.057422 0.010468 0.143405 -0.131253 -0.20162 0.047256 0.066257 0.086656 0.040737 -0.05445 -0.157821 0.037137 0.004766 -0.045312 0.078683 -0.072404 0.095922 -0.025897 -0.034502 0.057043 -4.05E-4 0.142654 0.051005 -0.03587 -0.081671 -0.061925 1.4E-4 -0.05706 0.194953 0.007399 -0.152333 -0.058262 0.050935 0.188703 -0.114826 -0.210152 0.096383 0.013702 0.058273 -0.078367
0.117516 0.012286 -0.133959 0.175347 -0.036003 -0.211254 0.028505 -0.039888 0.152154 0.016393 -0.04262 0.133762 -0.070544 -0.071627 -0.123008 0.07742 0.008094 0.008843 0.099229 0.072439 0.210137 -0.042066 0.187716 0.14754 -0.036506 0.089384 -0.170155 0.136286 0.109974 -0.15778 0.01233 0.106059 0.051823 -0.160033 -0.127113 -0.06133 0.091619 -0.063802 -0.287118 -0.043551 9.5E-4 -0.062065 0.063974 0.128057 0.045123 -0.002682 -0.136581 0.054313 -0.126998 0.133666 0.024037 -0.02026 -0.003721 -0.023856 -0.059606 0.080767 0.10174 0.103851 -0.028393 -0.109229 0.154624 -0.054071 0.073084 0.024106 0.276737 -0.042627 0.044729 -0.022768 -0.082268 0.114024 -0.059975 0.055307 0.007922 -0.150273 -0.158173 0.100509 0.052651 0.144239 0.005682 -0.107121 -0.039359 -0.070675 0.124789 0.045105 0.077685 -0.101776 0.06222 -0.06601 -0.139946 -0.132983 0.061863 -0.010594 -0.048688 -0.125684 -0.17478 -0.020399 0.106058 -0.028324 0.022006 0.082997
0.142855 2.096782 -0.44488 -0.186519 4.581101 0.368552 1.025096 -0.312802 -2.617651 -0.157005 2.963322 2.120705 -1.775955 -0.565663 0.972057 2.924774 -3.483148 -0.388176 -2.731071 -0.326463 1.005034 -0.173592 0.985748 -2.472826 -0.247049 -1.602126 -2.48254 -0.015307 0.921201 -0.634243 -0.734395 -4.469334 -2.338912 -3.86095 -2.404253 -1.170435 3.191081 0.66076 0.725646 -0.864367 -2.371157 -0.851367 -3.29822 -1.074393 -2.64488 2.784424 -0.996674 2.506345 2.15789 -2.159862 -0.441733 -0.926918 -0.098512 0.757891 -1.999629 -4.007104 0.387073 -3.003765 1.204233 -2.431844 -2.281004 -0.27222 1.915759 2.567541 -2.305997 0.668549 -1.469449 -4.443738 -0.244681 3.958085 3.663286 2.390184 0.145926 -1.914193 1.202993 0.085106 1.119028 1.764289 0.413107 1.270882 2.30135 -2.063297 -0.209725 -0.837978 1.54811 -1.075222 1.662849 3.024555 -0.817108 2.02425 0.827332 0.999754 -2.964958 -4.68355 2.112919 1.12159 -1.379614 1.011169 -1.034187 2.880255
1.939635 1.52901 1.289587 3.251535 -1.724015 -0.88548 -1.305419 2.302571 -1.417341 -1.68966 -0.63789 2.076267 -3.058223 1.539613 1.180597 0.029053 -0.321402 -2.23572 -2.38652 1.658533 -1.245721 -0.526509 -3.599429 0.754249 -0.80274 0.507379 -2.39552 1.105986 -0.056637 -0.438303 1.940801 -2.557426 0.985315 3.029874 0.213126 0.861485 3.121805 0.640059 -0.820139 -2.40745 -0.196076 -4.070904 0.803788 0.627065 2.287266 2.341116 0.489852 -1.57276 1.345608 0.42161 3.228641 4.822541 2.307207 0.997003 -2.753309 0.364194 3.286885 -0.854741 -0.545387 -4.263543 -0.321177 2.708668 -5.839749 -0.190246 1.192365 1.834868 0.85099 3.023894 0.019983 -0.356687 2.290085 -1.712409 1.283075 5.053623 2.119578 0.310527 -1.882558 -2.366862 0.130671 -0.478639 1.414622 1.526558 0.318589 2.752702 0.046978 -1.332104 0.951956 1.81757 -0.872666 2.804518 -1.758129 0.070445 -0.158419 -4.010314 -0.794193 0.288862 -0.172084 0.635215 -0.313457 -0.581935
0.0 0.0 0.0 0.0 0.0 0.0 0.0 0.0 0.0 0.0 0.0 0.0 0.0 0.0 0.0 0.0 0.0 0.0 0.0 0.0 0.0 0.0 0.0 0.0 0.0 0.0 0.0 0.0 0.0 0.0 0.0 0.0 0.0 0.0 0.0 0.0 0.0 0.0 0.0 0.0 0.0 0.0 0.0 0.0 0.0 0.0 0.0 0.0 0.0 0.0 0.0 0.0 0.0 0.0 0.0 0.0 0.0 0.0 0.0 0.0 0.0 0.0 0.0 0.0 0.0 0.0 0.0 0.0 0.0 0.0 0.0 0.0 0.0 0.0 0.0 0.0 0.0 0.0 0.0 0.0 0.0 0.0 0.0 0.0 0.0 0.0 0.0 0.0 0.0 0.0 0.0 0.0 0.0 0.0 0.0 0.0 0.0 0.0 0.0 0.0
1.979182 1.475284 1.616709 3.670848 1.493383 1.565553 0.713709 0.821536 -0.198276 1.095257 1.13035 3.013426 -0.31575 0.272355 -1.140889 3.059924 -0.481724 -0.114922 -4.136081 -3.168525 0.468706 0.468211 -1.450609 1.536269 1.463073 0.091064 0.456867 -0.772584 1.94826 0.637724 3.384043 1.31124 -0.547482 -2.46209 -1.172514 0.108789 -0.436092 -0.542017 -2.899063 -1.238649 0.992894 -1.25533 1.441906 -2.837638 -0.37597 0.84588 0.567863 1.067483 3.045772 2.851722 1.127934 2.750989 2.037369 -0.330697 -3.137371 -0.277042 1.105257 3.888075 -0.863423 -0.157175 -2.285182 -0.166755 0.331731 -0.01245 0.62688 0.367884 -0.075369 -0.159061 -0.417307 -2.027856 0.1471 0.649553 -2.645108 0.793309 -1.226665 0.217122 -0.469072 -0.459028 -1.403266 -0.635382 -0.504689 1.214626 1.214261 1.363001 0.553679 -3.299866 -1.882137 1.302355 -0.459088 -0.175485 1.192438 -0.480862 1.435369 0.431146 -1.119326 -1.423348 -1.759886 0.376096 -1.342863 3.008839
0.0 0.0 0.0 0.0 0.0 0.0 0.0 0.0 0.0 0.0 0.0 0.0 0.0 0.0 0.0 0.0 0.0 0.0 0.0 0.0 0.0 0.0 0.0 0.0 0.0 0.0 0.0 0.0 0.0 0.0 0.0 0.0 0.0 0.0 0.0 0.0 0.0 0.0 0.0 0.0 0.0 0.0 0.0 0.0 0.0 0.0 0.0 0.0 0.0 0.0 0.0 0.0 0.0 0.0 0.0 0.0 0.0 0.0 0.0 0.0 0.0 0.0 0.0 0.0 0.0 0.0 0.0 0.0 0.0 0.0 0.0 0.0 0.0 0.0 0.0 0.0 0.0 0.0 0.0 0.0 0.0 0.0 0.0 0.0 0.0 0.0 0.0 0.0 0.0 0.0 0.0 0.0 0.0 0.0 0.0 0.0 0.0 0.0 0.0 0.0
0.014988 0.066173 -0.099696 0.166783 0.276822 0.184024 -0.002719 -0.218536 0.148683 0.134339 0.108404 -0.166074 -0.009054 -0.070443 -0.018341 0.36606 -0.221128 0.212805 -0.366285 -0.18492 -0.085637 -0.032288 0.113043 -0.038765 0.23705 -0.391874 -0.26055 0.056066 0.102622 0.175834 -0.115521 -0.103286 -0.255183 -0.149942 0.083702 -0.09883 -0.187436 -0.196402 -0.062534 0.061558 0.224283 -0.066105 -0.2924 -0.276153 -0.152563 0.361582 0.064284 0.211863 -0.374424 0.255618 -0.267599 -0.316806 0.093791 -0.298211 0.03474 0.390155 0.015399 0.358672 0.270713 0.221971 0.058155 0.148888 -0.212838 -0.266919 0.225019 0.094568 -0.080578 -0.50471 0.199171 -0.025082 -0.214089 0.189483 -0.053117 0.353764 -0.144457 -0.140928 -0.012171 -0.122215 0.057778 -0.266797 -0.370826 -0.271018 0.406127 -0.140292 0.322293 -0.396332 -0.254871 -0.047051 -0.034582 0.227534 0.117027 0.291983 0.167717 0.043853 -0.277127 -0.131244 -0.329992 -0.127519 -0.05657 -0.033054
0.135443 -0.047298 0.144912 0.05446 -0.083602 -0.027016 -0.077478 -0.145637 -0.030226 0.04475 0.042319 -0.030155 -0.044611 0.00177 0.097439 -0.046793 -0.166694 -0.054886 -0.094494 -0.289438 0.216928 -0.1482 0.060722 0.029101 0.091233 0.075867 0.002025 0.01735 -0.018861 0.050703 -0.035685 0.033198 -0.112104 0.029979 0.074383 0.072727 -0.051291 0.114574 0.052627 0.135207 0.014722 0.19505 0.05045 -0.045476 -0.010677 0.032345 -0.083543 0.124801 -0.079479 0.197481 0.013006 -0.133534 -0.048835 -0.061963 0.061713 -0.028923 0.206197 0.030539 -0.025248 -0.05305 -0.072297 -0.201357 -0.005442 0.031333 0.099424 0.086205 0.020467 0.040941 0.122065 -0.124379 0.065248 -0.127692 -0.262479 0.019999 0.084763 -0.079768 -0.162109 -0.021737 -0.041599 0.013875 -0.333121 -0.113468 -0.239444 0.039241 0.030872 -0.243797 0.010932 -0.031234 -0.138667 0.186304 -0.019135 0.244482 0.025404 0.049242 -0.135527 0.124485 -0.018273 -0.047785 -0.128342 0.121981
0.025221 -0.093308 0.035445 0.140234 0.017353 0.05799 -0.229129 -0.146702 -0.115406 0.049934 0.213703 0.096306 0.042679 -0.075069 0.011162 0.081913 0.005102 0.158108 -2.48E-4 0.050375 -0.002611 0.05446 0.143411 0.145736 -0.035037 -0.064939 0.00429 -0.018736 0.005885 -0.12577 -0.113194 0.054826 -0.175511 0.138286 -0.017962 -0.203685 0.105783 -0.055768 -0.005467 0.058447 -0.009671 0.108373 0.138765 0.112922 -0.054337 -0.118926 0.061561 -0.04826 -0.195359 0.09594 0.19489 0.028948 -0.059775 0.04917 0.029512 -0.01291 0.123495 -0.022581 0.148683 -0.175759 0.087296 -0.003092 -0.007752 -0.141628 0.011677 0.087855 0.042794 0.16586 0.046105 -0.018836 -0.218994 0.10647 0.002797 -0.029906 0.14368 -0.148705 -0.106152 -0.077104 -0.02525 -0.029977 -0.080331 0.177528 0.10927 -0.136079 0.132478 -0.010672 0.094835 0.112046 0.147338 0.190698 -0.109719 -0.071363 -0.014729 -0.071372 0.066147 0.019624 0.06284 -0.15035 0.035504 -0.049539
0.12182 -0.110935 0.107626 0.040111 0.062464 -0.067036 -0.063516 -0.193383 0.002572 -0.146862 0.348076 -0.043459 -0.030052 0.004899 0.079315 0.273482 0.017553 0.174433 -0.025001 -0.101692 -0.122904 0.311787 0.143204 0.072709 0.08744 0.082134 -0.067978 -0.056667 0.038312 -0.003651 -0.056115 0.187216 -0.057061 0.038149 -0.122401 -0.145555 -0.051275 -0.079672 0.115685 0.035464 -0.150171 0.016966 -0.101943 0.057479 -0.145009 -0.134494 0.143688 0.082547 -0.177292 0.044263 0.254834 -0.071119 -0.158874 -0.153851 0.02216 -0.036462 -0.062592 0.162158 0.197072 -0.157865 0.076315 -0.070877 0.100537 -0.147259 -0.090923 -0.065985 0.085629 -0.076635 -0.004572 0.072807 -0.009242 -0.062128 0.034162 0.048028 -0.213551 -0.161428 -0.071275 0.080937 -0.122485 0.01975 -0.054083 0.087041 0.149486 -0.076071 0.104057 -0.057212 0.058854 -0.124152 0.025038 0.06216 0.141469 -0.069525 -0.076737 0.093487 -0.11981 -0.151132 0.012991 0.021336 -0.078628 0.116689
-0.30156 0.275322 0.117184 0.372315 0.18481 0.094028 0.121871 -0.242122 -0.096961 0.162976 0.527838 0.048581 -0.280914 -0.074616 -0.025567 -0.015441 -0.91021 -0.04883 0.161935 -0.577137 -0.281261 -0.584117 -0.06454 0.777595 0.139414 0.193286 -0.158866 0.372602 -0.068249 0.309832 0.118819 -0.056213 0.122665 -0.193073 0.157165 0.139877 -0.129914 -0.016841 -0.136782 0.362931 -0.168792 -0.530442 0.123837 0.030715 -0.137549 0.125486 -0.373765 0.238082 -0.664912 0.612607 -0.054731 -0.573304 -0.040254 0.153456 -0.595716 0.21614 -0.122594 0.356434 -0.018442 -0.094962 0.036507 -0.020295 -0.167636 0.035205 0.464453 -0.282871 0.351407 -0.134024 0.493637 -0.113272 0.160847 0.116026 0.120271 -0.05793 -0.591576 0.068284 -0.586177 -0.108007 0.07189 -0.29531 0.071244 0.041891 0.076956 -0.108879 0.279923 -0.065299 0.629086 0.009724 0.178481 0.223933 0.094639 0.333508 0.159167 0.010899 0.053089 -0.648525 0.250275 -0.475455 0.350602 0.137228
-0.030824 0.011351 0.014447 -0.184085 -0.01911 -0.109582 -0.026417 -0.126299 0.089826 0.13768 -0.008145 -0.019371 -0.128153 -0.026949 -0.020878 0.16662 -0.142191 0.109089 0.15208 0.017932 0.034944 -0.057547 0.020365 0.174509 -0.03547 -0.160769 0.025115 0.09289 0.101596 -0.003897 -0.084145 -0.113455 -0.028343 0.174963 0.168976 -0.042742 -0.021696 -0.116721 0.008286 -0.203073 -0.026306 0.109679 0.114346 0.103434 -0.147989 0.053586 0.128197 -0.148907 -0.068685 0.021441 0.05611 -0.018222 -0.154662 -0.089033 -0.043421 -0.021144 -0.224362 0.125473 -0.078147 -0.17045 -0.117114 -0.144761 -0.093264 -0.070695 0.088194 0.168153 -0.066961 -0.07376 0.04567 -0.080627 -0.126943 0.131367 0.026053 -0.044011 -0.015145 -0.134637 -0.138837 0.120558 -0.059337 -0.062061 -0.074836 -0.074813 -0.062199 -0.180943 0.201116 0.105779 -0.010697 -0.133099 0.11429 0.19523 -0.086151 -0.174461 0.055385 -0.134162 -0.21321 -0.088353 0.016664 0.181064 0.057403 -0.011671
-0.132812 0.139556 0.048597 -0.018647 0.118408 0.00247 -0.067271 0.095907 -0.081878 -0.091832 -0.001812 0.057942 -0.014087 -0.00986 -0.069185 0.188377 -0.021068 0.076926 0.254723 -0.248385 -0.080721 -0.117294 -0.027162 0.065033 -0.143138 0.09449 -0.062873 0.012455 -0.115085 -0.011352 0.037397 0.054183 0.069252 0.06757 -0.067839 0.049231 -0.00707 0.081329 0.143743 0.05676 0.004699 0.191203 -0.07709 -0.013433 -0.090536 -0.038912 -0.08486 -0.164565 -0.080733 -0.096047 -0.094106 0.077144 0.063995 0.070608 -0.063214 -0.219161 -0.013689 0.092466 -0.155988 0.032974 -0.019331 -0.044742 -0.109981 -0.082229 0.089341 0.060836 -0.060764 0.00179 -0.039211 -0.069223 -0.037374 0.018909 -0.059089 -0.066894 0.039494 0.021798 -0.084994 -2.04E-4 -0.14342 0.063634 -0.048142 0.00607 0.012367 0.200435 -0.023967 0.015599 0.077542 -0.039174 -0.128248 -0.083469 0.005174 -0.008694 -0.008888 0.03434 -0.011309 0.126286 -0.1118 9.13E-4 0.052469 -0.078198
0.0 0.0 0.0 0.0 0.0 0.0 0.0 0.0 0.0 0.0 0.0 0.0 0.0 0.0 0.0 0.0 0.0 0.0 0.0 0.0 0.0 0.0 0.0 0.0 0.0 0.0 0.0 0.0 0.0 0.0 0.0 0.0 0.0 0.0 0.0 0.0 0.0 0.0 0.0 0.0 0.0 0.0 0.0 0.0 0.0 0.0 0.0 0.0 0.0 0.0 0.0 0.0 0.0 0.0 0.0 0.0 0.0 0.0 0.0 0.0 0.0 0.0 0.0 0.0 0.0 0.0 0.0 0.0 0.0 0.0 0.0 0.0 0.0 0.0 0.0 0.0 0.0 0.0 0.0 0.0 0.0 0.0 0.0 0.0 0.0 0.0 0.0 0.0 0.0 0.0 0.0 0.0 0.0 0.0 0.0 0.0 0.0 0.0 0.0 0.0
1.979182 1.475284 1.616709 3.670848 1.493383 1.565553 0.713709 0.821536 -0.198276 1.095257 1.13035 3.013426 -0.31575 0.272355 -1.140889 3.059924 -0.481724 -0.114922 -4.136081 -3.168525 0.468706 0.468211 -1.450609 1.536269 1.463073 0.091064 0.456867 -0.772584 1.94826 0.637724 3.384043 1.31124 -0.547482 -2.46209 -1.172514 0.108789 -0.436092 -0.542017 -2.899063 -1.238649 0.992894 -1.25533 1.441906 -2.837638 -0.37597 0.84588 0.567863 1.067483 3.045772 2.851722 1.127934 2.750989 2.037369 -0.330697 -3.137371 -0.277042 1.105257 3.888075 -0.863423 -0.157175 -2.285182 -0.166755 0.331731 -0.01245 0.62688 0.367884 -0.075369 -0.159061 -0.417307 -2.027856 0.1471 0.649553 -2.645108 0.793309 -1.226665 0.217122 -0.469072 -0.459028 -1.403266 -0.635382 -0.504689 1.214626 1.214261 1.363001 0.553679 -3.299866 -1.882137 1.302355 -0.459088 -0.175485 1.192438 -0.480862 1.435369 0.431146 -1.119326 -1.423348 -1.759886 0.376096 -1.342863 3.008839
0.0 0.0 0.0 0.0 0.0 0.0 0.0 0.0 0.0 0.0 0.0 0.0 0.0 0.0 0.0 0.0 0.0 0.0 0.0 0.0 0.0 0.0 0.0 0.0 0.0 0.0 0.0 0.0 0.0 0.0 0.0 0.0 0.0 0.0 0.0 0.0 0.0 0.0 0.0 0.0 0.0 0.0 0.0 0.0 0.0 0.0 0.0 0.0 0.0 0.0 0.0 0.0 0.0 0.0 0.0 0.0 0.0 0.0 0.0 0.0 0.0 0.0 0.0 0.0 0.0 0.0 0.0 0.0 0.0 0.0 0.0 0.0 0.0 0.0 0.0 0.0 0.0 0.0 0.0 0.0 0.0 0.0 0.0 0.0 0.0 0.0 0.0 0.0 0.0 0.0 0.0 0.0 0.0 0.0 0.0 0.0 0.0 0.0 0.0 0.0
0.014988 0.066173 -0.099696 0.166783 0.276822 0.184024 -0.002719 -0.218536 0.148683 0.134339 0.108404 -0.166074 -0.009054 -0.070443 -0.018341 0.36606 -0.221128 0.212805 -0.366285 -0.18492 -0.085637 -0.032288 0.113043 -0.038765 0.23705 -0.391874 -0.26055 0.056066 0.102622 0.175834 -0.115521 -0.103286 -0.255183 -0.149942 0.083702 -0.09883 -0.187436 -0.196402 -0.062534 0.061558 0.224283 -0.066105 -0.2924 -0.276153 -0.152563 0.361582 0.064284 0.211863 -0.374424 0.255618 -0.267599 -0.316806 0.093791 -0.298211 0.03474 0.390155 0.015399 0.358672 0.270713 0.221971 0.058155 0.148888 -0.212838 -0.266919 0.225019 0.094568 -0.080578 -0.50471 0.199171 -0.025082 -0.214089 0.189483 -0.053117 0.353764 -0.144457 -0.140928 -0.012171 -0.122215 0.057778 -0.266797 -0.370826 -0.271018 0.406127 -0.140292 0.322293 -0.396332 -0.254871 -0.047051 -0.034582 0.227534 0.117027 0.291983 0.167717 0.043853 -0.277127 -0.131244 -0.329992 -0.127519 -0.05657 -0.033054
0.135443 -0.047298 0.144912 0.05446 -0.083602 -0.027016 -0.077478 -0.145637 -0.030226 0.04475 0.042319 -0.030155 -0.044611 0.00177 0.097439 -0.046793 -0.166694 -0.054886 -0.094494 -0.289438 0.216928 -0.1482 0.060722 0.029101 0.091233 0.075867 0.002025 0.01735 -0.018861 0.050703 -0.035685 0.033198 -0.112104 0.029979 0.074383 0.072727 -0.051291 0.114574 0.052627 0.135207 0.014722 0.19505 0.05045 -0.045476 -0.010677 0.032345 -0.083543 0.124801 -0.079479 0.197481 0.013006 -0.133534 -0.048835 -0.061963 0.061713 -0.028923 0.206197 0.030539 -0.025248 -0.05305 -0.072297 -0.201357 -0.005442 0.031333 0.099424 0.086205 0.020467 0.040941 0.122065 -0.124379 0.065248 -0.127692 -0.262479 0.019999 0.084763 -0.079768 -0.162109 -0.021737 -0.041599 0.013875 -0.333121 -0.113468 -0.239444 0.039241 0.030872 -0.243797 0.010932 -0.031234 -0.138667 0.186304 -0.019135 0.244482 0.025404 0.049242 -0.135527 0.124485 -0.018273 -0.047785 -0.128342 0.121981
-0.06456 -0.089828 0.053289 -0.084016 0.118549 -0.074228 -0.099859 0.167507 0.266926 -0.164043 -0.285032 -0.147398 0.067891 0.142107 0.191057 0.104552 0.064329 -0.018381 -0.22499 0.058827 0.26261 0.163467 0.15472 -0.233061 -0.015558 -0.180932 0.110047 0.215715 0.294467 0.053917 0.018978 -0.302757 0.025132 -0.167742 -0.303974 0.108888 0.219863 0.075336 0.058171 0.025192 0.143496 -0.223477 -0.213494 0.125626 -0.14088 -0.106056 -0.032457 0.203418 0.012281 -0.195836 -0.054647 -0.193488 -0.249669 0.238794 0.36306 -0.329788 0.075352 0.095826 -0.021507 -0.056878 0.002133 0.181748 0.13073 -0.211853 0.130295 0.192925 -0.021234 0.275525 0.225545 -0.32668 -0.123163 -0.042932 0.031728 0.244415 0.194681 0.071966 0.318235 0.209809 0.177097 -0.470642 -0.081817 0.089282 0.248022 -0.176305 0.030521 0.021143 -0.142133 -0.285203 0.465501 -0.082512 -0.047683 -0.081388 0.001282 0.237338 -0.078808 -0.144557 0.019408 0.18866 0.100958 -0.194233
-0.004562 -0.100348 0.094524 0.10012 -0.179871 -0.02016 -0.094235 -0.099573 0.011027 0.146971 0.147102 0.184213 -0.023834 2.75E-4 0.159158 0.213021 -0.153684 0.022512 0.027653 -0.150245 -0.132715 0.062684 0.095396 0.212613 -0.078541 -0.119074 -0.119052 -0.002268 0.291432 -0.079183 0.113242 -0.022937 -0.09814 -0.072434 0.018712 -0.105305 -0.053185 -0.149216 0.066468 0.042147 -0.149929 0.075761 -0.005677 0.095925 -0.031254 -0.056541 0.014701 -0.086535 -0.06623 0.03481 0.140603 -0.129709 -0.03764 0.116281 -0.143616 -0.145789 -0.030832 0.04494 0.136655 -0.178783 -0.02784 -0.164396 0.036297 -0.024126 0.038356 -0.140794 0.03202 0.005423 0.078636 -0.176906 -0.021546 0.030375 2.51E-4 -0.046509 -0.076436 -0.151566 -0.055567 0.064979 -0.165415 -0.06608 -0.004399 0.063759 0.135374 -0.047418 0.036585 -0.009274 0.048325 -0.036684 0.219826 -0.031229 -0.14786 -0.089685 -0.092397 0.2125 -0.14363 -0.182505 0.097153 -0.147751 0.047014 -0.17146
-0.027503 -0.065957 -0.00642 -0.051261 -0.006291 -0.104095 -0.135359 0.05245 -0.081351 0.001192 0.023576 0.211981 0.111884 -0.035764 0.043213 0.035878 -0.023919 0.054428 0.11856 -0.039037 -0.039768 -0.007681 0.273961 0.170201 -0.178632 -0.099379 -0.043227 -0.069769 -0.061221 -0.087964 0.145367 -0.067742 -0.004724 0.159577 0.104125 -0.005031 0.073136 0.034221 0.105585 0.017784 0.021412 0.058672 -0.018911 0.058983 -0.13239 -0.171735 0.004295 0.084318 -0.13086 0.085982 0.117053 -0.170664 -0.155976 0.003817 0.044941 -0.049125 -0.13935 -0.022342 -0.040111 0.024334 -0.074884 -0.01209 0.012619 -0.036392 -0.010831 0.225203 0.043751 -0.02719 0.13436 0.032922 -0.06203 -0.02831 0.241118 0.040327 -0.082199 0.006185 -0.130752 -0.086037 -0.035555 -0.129946 -0.070232 0.175561 0.059445 -0.097175 -0.046566 0.057602 -0.042577 0.111494 -0.064057 -0.116502 0.089068 0.029243 -0.091332 0.072055 0.010369 -0.050387 -0.014059 -0.130208 0.046121 0.005691
-0.010736 -0.001262 0.056072 -0.07635 0.058563 -0.083305 0.024417 -0.1084 -0.096518 -0.072844 0.070907 0.071347 -0.058711 -0.0604 0.021645 0.171974 -0.109952 0.123643 0.056258 0.028128 0.018979 0.05136 0.082653 0.14663 -0.081894 -0.195278 -0.241393 0.027194 0.082325 0.134357 -0.090965 -0.027013 -0.024468 0.002099 0.186638 -0.169444 -0.206241 -0.104823 -0.065026 0.230489 0.067428 0.119723 -0.069982 0.103678 -0.083984 0.027416 -0.143636 0.038066 -0.204158 0.227868 -0.035477 0.042784 -0.153995 -0.271706 0.068743 -0.011165 0.047988 0.115946 0.1075 -0.021665 0.093214 0.040884 -0.1486 -0.080094 0.099071 -0.074675 -0.031614 -0.094916 0.066724 0.007623 -0.11485 -0.083986 -0.092135 0.007831 0.15548 -0.160053 -0.183289 -0.006537 -0.100617 -0.063758 -0.082932 0.083646 0.116064 0.118848 0.079214 -0.139986 -0.143003 -0.004935 0.084424 0.082078 0.057587 0.203754 0.129048 -0.011987 -0.047387 0.096069 0.076532 -0.080889 -0.021157 0.163249
-0.19975 -0.163397 0.046376 0.108494 -0.086906 -0.079634 -0.174304 -0.190655 -0.16796 0.054171 0.073367 0.100495 0.028349 0.089697 0.084377 0.226077 -0.144981 0.170875 0.030617 -0.002744 -0.049142 0.147196 0.014105 -0.098415 -0.097857 -0.116433 -0.221617 -0.031682 0.328072 0.174668 0.066348 0.00991 0.088367 -0.047556 0.007861 -0.096847 0.029124 0.106336 -0.027728 0.071993 -0.012189 0.143203 -0.02933 0.062494 -0.056761 -0.120269 -0.12018 -0.017668 -0.062963 0.101128 0.16565 -0.026171 -0.079002 -0.131484 -0.015915 0.040522 -0.181151 -0.002836 0.057121 -0.107145 0.126391 -0.080741 0.019065 -0.07346 -0.064256 0.100005 0.14671 -0.007299 -0.060089 0.006398 0.030183 0.114927 0.121747 -0.032423 0.073375 -0.013173 -0.065432 0.056931 -0.211812 0.024416 -0.072059 -0.018436 0.023346 -0.02972 0.040747 0.006594 0.315286 0.127171 0.034984 0.125694 -0.126999 -0.159279 0.204473 0.190888 -0.115081 -0.166722 0.05582 -0.005334 0.014762 -0.26041
-0.30156 0.275322 0.117184 0.372315 0.18481 0.094028 0.121871 -0.242122 -0.096961 0.162976 0.527838 0.048581 -0.280914 -0.074616 -0.025567 -0.015441 -0.91021 -0.04883 0.161935 -0.577137 -0.281261 -0.584117 -0.06454 0.777595 0.139414 0.193286 -0.158866 0.372602 -0.068249 0.309832 0.118819 -0.056213 0.122665 -0.193073 0.157165 0.139877 -0.129914 -0.016841 -0.136782 0.362931 -0.168792 -0.530442 0.123837 0.030715 -0.137549 0.125486 -0.373765 0.238082 -0.664912 0.612607 -0.054731 -0.573304 -0.040254 0.153456 -0.595716 0.21614 -0.122594 0.356434 -0.018442 -0.094962 0.036507 -0.020295 -0.167636 0.035205 0.464453 -0.282871 0.351407 -0.134024 0.493637 -0.113272 0.160847 0.116026 0.120271 -0.05793 -0.591576 0.068284 -0.586177 -0.108007 0.07189 -0.29531 0.071244 0.041891 0.076956 -0.108879 0.279923 -0.065299 0.629086 0.009724 0.178481 0.223933 0.094639 0.333508 0.159167 0.010899 0.053089 -0.648525 0.250275 -0.475455 0.350602 0.137228
-0.069012 -0.04039 0.117384 0.110839 -0.071973 0.068554 0.265249 0.186985 0.176943 -0.020969 0.051985 0.030133 -0.157305 -0.127623 -0.184668 0.09146 -0.218336 0.00276 -0.138359 -0.135706 -0.032468 0.032387 -0.234817 -0.184464 0.095985 -0.018492 -0.030914 0.11613 -0.069126 0.134184 -0.083208 -0.017943 0.230384 -0.059856 -0.041864 -0.207495 0.061761 -0.21773 -0.171811 -0.080485 -0.298588 -0.006906 -0.098262 0.051066 0.023875 0.193691 0.128638 -0.021213 0.208731 0.078459 -0.261397 -0.062017 -0.014546 0.008825 -0.036835 -0.06755 -0.011416 0.095602 -0.129721 -0.041167 -0.088732 -0.105517 -0.013562 -0.018195 0.041521 0.041917 0.043637 -0.100639 0.122183 0.056916 -0.016961 0.064112 -0.033225 -0.099729 0.043738 0.056361 0.118792 -0.164071 0.179145 0.154632 0.023291 -0.002747 0.014372 0.071711 0.051603 0.046046 0.002522 0.146324 -0.084628 0.045663 0.153464 0.026035 0.164568 -0.131685 0.131433 0.005648 -0.077243 0.003871 -0.018956 0.083213
0.014895 -0.074651 0.149306 0.034592 -0.124813 -0.093557 -0.109336 0.095357 -0.004559 0.120353 0.063101 0.05611 -0.170765 -0.006183 0.124002 0.088 -0.022982 0.178539 0.120661 -0.099426 -0.17549 -0.103627 0.078423 0.137021 -0.092399 0.002396 -0.042626 -0.023468 0.096275 -0.108979 0.132579 0.107589 0.023667 0.08889 -0.068845 0.075061 -0.090449 -0.124697 0.044909 0.153786 -0.062018 0.140137 0.011821 -0.024917 0.008052 -0.056226 0.022864 0.329903 -0.163185 0.142635 0.012172 -0.079026 -0.007989 0.170461 0.037373 -0.096909 -0.048095 0.015752 -0.069819 -0.092043 0.043143 -0.075547 -0.063596 -0.256005 -0.12047 0.106857 0.001612 -0.163451 0.158917 -0.023493 -0.246208 0.135086 -0.028539 0.047393 -0.002472 -0.10495 -0.291074 -0.025242 -0.243293 -0.04879 -0.104205 0.125458 0.272848 -0.229472 0.076153 0.001134 0.120864 0.078803 0.239046 0.089035 -0.119129 0.043415 0.055045 0.077094 0.11125 -0.099579 0.005875 -0.083713 0.00718 0.06281
0.025221 -0.093308 0.035445 0.140234 0.017353 0.05799 -0.229129 -0.146702 -0.115406 0.049934 0.213703 0.096306 0.042679 -0.075069 0.011162 0.081913 0.005102 0.158108 -2.48E-4 0.050375 -0.002611 0.05446 0.143411 0.145736 -0.035037 -0.064939 0.00429 -0.018736 0.005885 -0.12577 -0.113194 0.054826 -0.175511 0.138286 -0.017962 -0.203685 0.105783 -0.055768 -0.005467 0.058447 -0.009671 0.108373 0.138765 0.112922 -0.054337 -0.118926 0.061561 -0.04826 -0.195359 0.09594 0.19489 0.028948 -0.059775 0.04917 0.029512 -0.01291 0.123495 -0.022581 0.148683 -0.175759 0.087296 -0.003092 -0.007752 -0.141628 0.011677 0.087855 0.042794 0.16586 0.046105 -0.018836 -0.218994 0.10647 0.002797 -0.029906 0.14368 -0.148705 -0.106152 -0.077104 -0.02525 -0.029977 -0.080331 0.177528 0.10927 -0.136079 0.132478 -0.010672 0.094835 0.112046 0.147338 0.190698 -0.109719 -0.071363 -0.014729 -0.071372 0.066147 0.019624 0.06284 -0.15035 0.035504 -0.049539
0.295743 0.177472 -0.119128 0.005556 0.073491 0.126463 -0.068491 0.040956 0.012892 0.010677 0.103698 -0.178339 0.020261 0.006936 -0.070935 0.081626 -0.108648 0.050181 0.087656 0.068466 -0.133293 -0.091202 -0.029839 0.191182 0.16862 -0.083538 -0.080773 0.117052 -0.030354 0.020229 -0.020066 -0.224047 0.009335 0.098728 0.067525 -0.005488 -0.196199 -0.008695 0.025212 0.154709 -0.056867 0.016022 0.001043 -0.133777 -0.3074 0.006754 0.080055 0.159784 -0.188421 0.121369 0.005876 0.016255 -0.002088 0.03774 -0.024821 0.108358 0.059549 0.091882 0.144825 0.055663 0.185403 -0.065581 0.02879 -0.101229 0.071991 -0.002497 -0.006529 -0.10915 0.062274 -0.002956 0.058456 0.004113 0.103328 0.173394 -0.090338 -0.046764 -0.109366 0.052346 0.015598 -0.174578 -0.247551 0.163059 0.183228 -0.050795 0.199708 0.03885 -0.129288 -0.066408 0.026688 0.020572 0.021433 0.010893 0.213161 0.052695 -0.092201 -0.174208 -0.308368 -0.048491 0.048371 0.141119
1.519526 1.445578 -1.609499 2.582747 2.460795 3.529971 0.431498 -0.524736 0.238502 0.565084 -2.150664 2.607871 -3.578636 0.22885 1.205379 0.400126 -2.365878 -2.228676 -0.500047 -1.958516 -2.734259 -2.028213 -0.339577 -2.726884 0.003785 -1.85554 -0.90189 1.042933 0.930181 0.561229 0.956561 0.220468 -1.219533 -0.188243 -0.649085 -0.117874 2.101841 -0.317004 1.300647 -1.49228 0.533457 -2.976113 -0.635474 -1.431524 -0.943268 0.543614 -2.072507 -1.004219 4.072807 -1.496014 2.612373 2.458477 -0.120651 0.418572 -2.53177 0.646754 2.04053 2.0667 -2.403623 -3.037353 -1.289071 1.269349 0.447478 0.512568 0.464348 -0.142416 -1.155552 0.32258 -0.986119 3.909852 3.839548 0.865499 -1.089316 -1.400134 0.517204 -3.398406 -0.576028 -0.612853 -0.573641 -1.979957 1.278503 1.159562 0.583915 -0.210028 0.851463 1.075476 2.276915 0.114312 2.2836 1.968815 1.899569 0.001135 -2.286771 -2.666814 -1.408445 1.975128 -0.085175 1.44887 -1.994305 2.796178
-0.030824 0.011351 0.014447 -0.184085 -0.01911 -0.109582 -0.026417 -0.126299 0.089826 0.13768 -0.008145 -0.019371 -0.128153 -0.026949 -0.020878 0.16662 -0.142191 0.109089 0.15208 0.017932 0.034944 -0.057547 0.020365 0.174509 -0.03547 -0.160769 0.025115 0.09289 0.101596 -0.003897 -0.084145 -0.113455 -0.028343 0.174963 0.168976 -0.042742 -0.021696 -0.116721 0.008286 -0.203073 -0.026306 0.109679 0.114346 0.103434 -0.147989 0.053586 0.128197 -0.148907 -0.068685 0.021441 0.05611 -0.018222 -0.154662 -0.089033 -0.043421 -0.021144 -0.224362 0.125473 -0.078147 -0.17045 -0.117114 -0.144761 -0.093264 -0.070695 0.088194 0.168153 -0.066961 -0.07376 0.04567 -0.080627 -0.126943 0.131367 0.026053 -0.044011 -0.015145 -0.134637 -0.138837 0.120558 -0.059337 -0.062061 -0.074836 -0.074813 -0.062199 -0.180943 0.201116 0.105779 -0.010697 -0.133099 0.11429 0.19523 -0.086151 -0.174461 0.055385 -0.134162 -0.21321 -0.088353 0.016664 0.181064 0.057403 -0.011671
-0.114306 -0.113471 -0.113896 -0.056054 0.113421 0.159791 -0.105965 -0.032417 0.031196 0.025244 0.1283 0.006887 -0.201319 -0.233588 0.067023 0.113228 0.102594 0.015683 0.108933 6.67E-4 -0.163526 0.055464 0.049113 -0.151681 -0.265613 -0.273568 -0.148008 0.02704 0.163291 -0.011242 0.195019 -0.050743 -0.249207 0.086674 0.067724 -0.015554 0.055544 0.007168 0.141044 -0.097972 -0.013707 0.005919 -0.122564 -0.154621 -0.079867 -0.108037 0.013809 0.127708 0.084622 -0.054274 -0.036363 -0.123085 -0.091707 -0.037235 -0.063938 0.161105 0.121706 -0.143783 -0.033817 -0.033837 0.037008 0.008842 -0.145063 -0.075745 0.080042 0.058432 0.021218 0.044324 -0.00168 -0.083279 0.013993 -0.149026 0.02431 0.062877 -0.049614 0.066518 0.049237 0.076018 -0.036321 0.020019 0.008454 -0.105874 0.121179 -0.056834 0.00305 0.025164 0.121894 0.034784 0.056166 0.033622 -0.035849 -0.048633 -0.081468 0.061925 -0.050478 0.00964 0.007771 0.232608 0.011845 0.076983
-0.001889 -0.015376 0.011577 -0.079922 0.019615 0.005975 0.018085 -0.133459 0.07886 -0.019014 -0.010821 0.041669 -0.011128 0.097962 -0.060935 0.042309 0.015014 8.49E-4 -0.002449 0.038756 0.0685 -0.030124 0.021652 -0.079703 0.075875 -0.122727 0.144977 0.073106 0.120718 -0.115022 0.047765 0.225363 -0.061747 -0.035103 0.080005 0.064342 -0.011293 0.032618 0.076202 0.118833 0.299047 0.176216 0.148892 -0.105455 -0.022399 0.118571 -0.05437 -0.136016 -0.04767 0.112361 0.012505 0.001737 0.056998 -0.132972 0.205737 0.014869 0.130993 0.242588 0.100312 0.073252 -0.019374 -0.073147 -0.042245 -0.05193 0.119558 0.067972 -0.198268 0.013905 0.103121 -0.09962 -0.010563 -0.219254 -0.117595 0.0375 -0.028297 0.03039 -0.116152 0.021365 0.041774 -0.247365 -0.187561 -0.063496 -0.088808 -0.029223 0.057963 0.069802 -0.07258 -0.052825 0.064478 0.040761 0.149345 0.085248 0.239559 0.137326 -0.140966 0.005439 0.083517 -0.02486 -0.028184 0.111642
-0.213832 -0.073 -0.075231 0.396873 0.048159 -0.467499 0.179787 -0.147452 0.149506 0.247299 -0.291276 0.001745 -0.277625 0.022668 0.185308 0.005907 -0.352557 0.277754 0.004092 -0.250745 0.086223 -0.396017 -0.117957 0.27465 0.257838 -0.040922 -0.22367 0.168266 0.066345 0.025065 0.294644 -0.019375 0.11773 -0.213497 0.058212 0.114812 0.122105 0.024523 -0.170822 0.184695 -0.343997 -0.393778 -0.038238 0.127326 0.173064 0.060276 0.065438 0.245038 -0.451429 0.51316 -0.017999 -0.557165 -0.249222 0.05677 0.02518 -0.091625 -0.472785 -0.049429 0.01572 -0.145684 -0.128192 0.075292 0.250488 -0.09661 0.431294 0.176668 -0.131345 -0.329739 0.109022 -0.041028 -0.115723 0.579757 0.020539 0.274043 -0.051759 -0.222223 -0.210583 0.40418 -0.249445 -0.414645 -0.074423 0.22248 0.264478 -0.0924 0.271178 0.033275 0.092918 -0.212634 0.090379 0.025121 -0.034845 0.015309 -0.02742 0.047435 0.463331 -0.430293 -0.202339 -0.068225 0.144649 -0.023603
0.011039 -0.156654 0.156118 -0.018293 -0.077476 -0.035337 -0.10107 -0.056146 -0.022157 0.033758 0.088132 0.131558 0.055849 -0.067718 0.192353 0.089598 0.044916 0.125142 0.010017 0.073274 0.039236 0.200951 0.130684 0.123852 -0.137454 -0.066289 0.030893 -0.02572 0.124865 -0.112512 -0.026242 0.017504 0.035662 0.023267 -0.086442 0.007496 -0.055944 0.011356 0.081239 -0.043656 -0.051439 0.066253 0.020175 -0.005295 0.11074 -0.074058 -0.007921 0.028343 -0.121479 0.099417 0.067158 -0.226573 -0.076613 -0.035763 0.076309 -0.146114 -0.032689 0.081159 -0.015339 -0.130015 0.038506 -0.096722 -0.060797 -0.118681 0.068332 0.053995 -0.028866 0.048977 0.093362 -0.039475 0.078631 0.077197 0.034002 0.108439 0.041477 0.014154 -0.19705 -0.035584 0.018543 -0.030483 -0.003424 0.152398 0.10973 -0.135551 -0.02141 0.01358 0.033569 0.040574 0.163278 0.086798 -0.12982 0.008572 5.04E-4 0.025079 -0.073123 -0.132753 0.022887 -0.011309 -0.092338 0.042775
-0.069012 -0.04039 0.117384 0.110839 -0.071973 0.068554 0.265249 0.186985 0.176943 -0.020969 0.051985 0.030133 -0.157305 -0.127623 -0.184668 0.09146 -0.218336 0.00276 -0.138359 -0.135706 -0.032468 0.032387 -0.234817 -0.184464 0.095985 -0.018492 -0.030914 0.11613 -0.069126 0.134184 -0.083208 -0.017943 0.230384 -0.059856 -0.041864 -0.207495 0.061761 -0.21773 -0.171811 -0.080485 -0.298588 -0.006906 -0.098262 0.051066 0.023875 0.193691 0.128638 -0.021213 0.208731 0.078459 -0.261397 -0.062017 -0.014546 0.008825 -0.036835 -0.06755 -0.011416 0.095602 -0.129721 -0.041167 -0.088732 -0.105517 -0.013562 -0.018195 0.041521 0.041917 0.043637 -0.100639 0.122183 0.056916 -0.016961 0.064112 -0.033225 -0.099729 0.043738 0.056361 0.118792 -0.164071 0.179145 0.154632 0.023291 -0.002747 0.014372 0.071711 0.051603 0.046046 0.002522 0.146324 -0.084628 0.045663 0.153464 0.026035 0.164568 -0.131685 0.131433 0.005648 -0.077243 0.003871 -0.018956 0.083213
-0.030824 0.011351 0.014447 -0.184085 -0.01911 -0.109582 -0.026417 -0.126299 0.089826 0.13768 -0.008145 -0.019371 -0.128153 -0.026949 -0.020878 0.16662 -0.142191 0.109089 0.15208 0.017932 0.034944 -0.057547 0.020365 0.174509 -0.03547 -0.160769 0.025115 0.09289 0.101596 -0.003897 -0.084145 -0.113455 -0.028343 0.174963 0.168976 -0.042742 -0.021696 -0.116721 0.008286 -0.203073 -0.026306 0.109679 0.114346 0.103434 -0.147989 0.053586 0.128197 -0.148907 -0.068685 0.021441 0.05611 -0.018222 -0.154662 -0.089033 -0.043421 -0.021144 -0.224362 0.125473 -0.078147 -0.17045 -0.117114 -0.144761 -0.093264 -0.070695 0.088194 0.168153 -0.066961 -0.07376 0.04567 -0.080627 -0.126943 0.131367 0.026053 -0.044011 -0.015145 -0.134637 -0.138837 0.120558 -0.059337 -0.062061 -0.074836 -0.074813 -0.062199 -0.180943 0.201116 0.105779 -0.010697 -0.133099 0.11429 0.19523 -0.086151 -0.174461 0.055385 -0.134162 -0.21321 -0.088353 0.016664 0.181064 0.057403 -0.011671
0.173344 0.005123 0.187749 -0.049865 0.057208 0.057459 -0.041715 0.028089 -0.044805 0.186164 -0.110167 0.309858 -0.12526 -0.032664 0.121115 0.160137 0.35197 -0.10555 0.090847 0.127465 -0.260305 -0.02115 -0.113191 -0.235864 0.104194 -0.051618 0.022992 0.100268 0.021842 -0.028781 -0.227781 -0.160656 -0.048679 -0.234753 -0.080746 0.191914 0.150376 0.075047 -0.028842 -0.087012 -0.007326 -0.117884 -0.066936 -0.20325 -0.021989 0.291898 0.190925 -0.077031 -0.046816 -0.085049 -0.309216 0.031541 0.128232 -0.047412 -0.192289 0.052757 0.079167 -0.058437 0.076467 -0.08972 0.099157 -0.133367 -0.21267 0.047824 -0.029809 -0.143088 0.172956 -0.020382 -0.055433 0.09554 0.043766 0.084842 -0.134482 0.022261 -0.261294 -0.261879 -0.215195 0.199523 -0.082589 0.092317 -0.061759 0.118913 0.001952 0.082131 0.048488 0.126695 0.002595 -0.024202 0.223999 0.062825 0.145027 0.066293 -0.014155 0.141782 0.045503 -0.149988 0.093483 -0.141832 -0.119461 0.019324
0.352905 0.550922 -1.128945 -0.511125 0.774489 1.405335 -0.371647 0.106012 -0.779785 -0.640302 -0.68578 1.570717 -0.712288 -0.706705 -0.789609 -0.045278 -1.599722 -2.840112 -0.089543 -1.158838 -1.862605 -0.62748 -0.063542 -0.468696 0.750564 0.033551 -0.772222 -0.188991 -0.163115 0.455978 0.038455 -0.779588 0.172303 -1.114448 -0.548246 -0.008155 1.66721 -0.744821 -0.15746 -2.668482 -0.304702 -0.905716 0.479063 0.151803 -0.94063 -0.044338 -0.906122 -0.456182 0.281891 0.268287 0.47007 0.628019 0.328428 1.471286 -2.345457 0.072073 -0.345477 -0.998199 -1.496897 -0.053061 0.351206 -0.934426 0.295591 0.07336 0.24092 0.486976 0.390085 -0.621556 0.375246 -0.02625 1.957847 1.014101 0.004675 0.08874 -0.900479 -0.462149 0.922254 1.355385 -1.048724 0.105897 1.254466 0.410718 0.321258 1.066395 -0.171761 -0.128774 0.315556 0.697301 -0.180925 0.555334 1.005586 -0.891677 -1.232923 -1.994189 -0.567812 0.204184 -0.947385 -0.051526 -0.987029 0.725141
-0.120936 -0.135299 0.733977 0.674907 0.416903 0.59137 -0.413037 -0.220126 -0.069 0.592454 0.443852 0.026823 0.075656 -0.143188 0.055256 1.619568 -0.139591 0.165764 -0.335308 0.619364 0.356222 0.67076 -0.388467 0.291427 -0.92258 -0.946003 0.23649 -0.269693 0.014488 -0.169883 0.346226 -0.075697 -0.408735 -0.126452 0.501878 -0.575254 -0.722611 0.581307 0.084253 1.420064 0.479223 0.650128 0.076218 -0.377721 -0.320066 -0.68904 -0.050476 -0.612055 -1.054057 0.780963 0.962134 -0.039554 -0.224566 -0.83477 0.134702 -0.30819 -0.139783 0.659682 0.971738 0.316319 0.394379 -0.558633 0.072816 -1.169645 -0.151981 -0.030701 0.797168 0.074629 0.04835 -0.185356 -0.432385 -3.85E-4 -0.13989 -0.125855 -0.775882 -0.365058 -1.09026 -0.08025 0.070454 0.066989 -0.891347 1.094185 0.07986 -0.616911 0.457295 -0.082726 -0.83884 -0.327275 0.900866 0.207961 0.095496 0.459438 0.637507 -0.617663 0.269556 -0.968924 -0.007092 -0.618511 0.133425 0.638156
1.519526 1.445578 -1.609499 2.582747 2.460795 3.529971 0.431498 -0.524736 0.238502 0.565084 -2.150664 2.607871 -3.578636 0.22885 1.205379 0.400126 -2.365878 -2.228676 -0.500047 -1.958516 -2.734259 -2.028213 -0.339577 -2.726884 0.003785 -1.85554 -0.90189 1.042933 0.930181 0.561229 0.956561 0.220468 -1.219533 -0.188243 -0.649085 -0.117874 2.101841 -0.317004 1.300647 -1.49228 0.533457 -2.976113 -0.635474 -1.431524 -0.943268 0.543614 -2.072507 -1.004219 4.072807 -1.496014 2.612373 2.458477 -0.120651 0.418572 -2.53177 0.646754 2.04053 2.0667 -2.403623 -3.037353 -1.289071 1.269349 0.447478 0.512568 0.464348 -0.142416 -1.155552 0.32258 -0.986119 3.909852 3.839548 0.865499 -1.089316 -1.400134 0.517204 -3.398406 -0.576028 -0.612853 -0.573641 -1.979957 1.278503 1.159562 0.583915 -0.210028 0.851463 1.075476 2.276915 0.114312 2.2836 1.968815 1.899569 0.001135 -2.286771 -2.666814 -1.408445 1.975128 -0.085175 1.44887 -1.994305 2.796178
-0.030824 0.011351 0.014447 -0.184085 -0.01911 -0.109582 -0.026417 -0.126299 0.089826 0.13768 -0.008145 -0.019371 -0.128153 -0.026949 -0.020878 0.16662 -0.142191 0.109089 0.15208 0.017932 0.034944 -0.057547 0.020365 0.174509 -0.03547 -0.160769 0.025115 0.09289 0.101596 -0.003897 -0.084145 -0.113455 -0.028343 0.174963 0.168976 -0.042742 -0.021696 -0.116721 0.008286 -0.203073 -0.026306 0.109679 0.114346 0.103434 -0.147989 0.053586 0.128197 -0.148907 -0.068685 0.021441 0.05611 -0.018222 -0.154662 -0.089033 -0.043421 -0.021144 -0.224362 0.125473 -0.078147 -0.17045 -0.117114 -0.144761 -0.093264 -0.070695 0.088194 0.168153 -0.066961 -0.07376 0.04567 -0.080627 -0.126943 0.131367 0.026053 -0.044011 -0.015145 -0.134637 -0.138837 0.120558 -0.059337 -0.062061 -0.074836 -0.074813 -0.062199 -0.180943 0.201116 0.105779 -0.010697 -0.133099 0.11429 0.19523 -0.086151 -0.174461 0.055385 -0.134162 -0.21321 -0.088353 0.016664 0.181064 0.057403 -0.011671
-0.069012 -0.04039 0.117384 0.110839 -0.071973 0.068554 0.265249 0.186985 0.176943 -0.020969 0.051985 0.030133 -0.157305 -0.127623 -0.184668 0.09146 -0.218336 0.00276 -0.138359 -0.135706 -0.032468 0.032387 -0.234817 -0.184464 0.095985 -0.018492 -0.030914 0.11613 -0.069126 0.134184 -0.083208 -0.017943 0.230384 -0.059856 -0.041864 -0.207495 0.061761 -0.21773 -0.171811 -0.080485 -0.298588 -0.006906 -0.098262 0.051066 0.023875 0.193691 0.128638 -0.021213 0.208731 0.078459 -0.261397 -0.062017 -0.014546 0.008825 -0.036835 -0.06755 -0.011416 0.095602 -0.129721 -0.041167 -0.088732 -0.105517 -0.013562 -0.018195 0.041521 0.041917 0.043637 -0.100639 0.122183 0.056916 -0.016961 0.064112 -0.033225 -0.099729 0.043738 0.056361 0.118792 -0.164071 0.179145 0.154632 0.023291 -0.002747 0.014372 0.071711 0.051603 0.046046 0.002522 0.146324 -0.084628 0.045663 0.153464 0.026035 0.164568 -0.131685 0.131433 0.005648 -0.077243 0.003871 -0.018956 0.083213
0.295743 0.177472 -0.119128 0.005556 0.073491 0.126463 -0.068491 0.040956 0.012892 0.010677 0.103698 -0.178339 0.020261 0.006936 -0.070935 0.081626 -0.108648 0.050181 0.087656 0.068466 -0.133293 -0.091202 -0.029839 0.191182 0.16862 -0.083538 -0.080773 0.117052 -0.030354 0.020229 -0.020066 -0.224047 0.009335 0.098728 0.067525 -0.005488 -0.196199 -0.008695 0.025212 0.154709 -0.056867 0.016022 0.001043 -0.133777 -0.3074 0.006754 0.080055 0.159784 -0.188421 0.121369 0.005876 0.016255 -0.002088 0.03774 -0.024821 0.108358 0.059549 0.091882 0.144825 0.055663 0.185403 -0.065581 0.02879 -0.101229 0.071991 -0.002497 -0.006529 -0.10915 0.062274 -0.002956 0.058456 0.004113 0.103328 0.173394 -0.090338 -0.046764 -0.109366 0.052346 0.015598 -0.174578 -0.247551 0.163059 0.183228 -0.050795 0.199708 0.03885 -0.129288 -0.066408 0.026688 0.020572 0.021433 0.010893 0.213161 0.052695 -0.092201 -0.174208 -0.308368 -0.048491 0.048371 0.141119
-0.114306 -0.113471 -0.113896 -0.056054 0.113421 0.159791 -0.105965 -0.032417 0.031196 0.025244 0.1283 0.006887 -0.201319 -0.233588 0.067023 0.113228 0.102594 0.015683 0.108933 6.67E-4 -0.163526 0.055464 0.049113 -0.151681 -0.265613 -0.273568 -0.148008 0.02704 0.163291 -0.011242 0.195019 -0.050743 -0.249207 0.086674 0.067724 -0.015554 0.055544 0.007168 0.141044 -0.097972 -0.013707 0.005919 -0.122564 -0.154621 -0.079867 -0.108037 0.013809 0.127708 0.084622 -0.054274 -0.036363 -0.123085 -0.091707 -0.037235 -0.063938 0.161105 0.121706 -0.143783 -0.033817 -0.033837 0.037008 0.008842 -0.145063 -0.075745 0.080042 0.058432 0.021218 0.044324 -0.00168 -0.083279 0.013993 -0.149026 0.02431 0.062877 -0.049614 0.066518 0.049237 0.076018 -0.036321 0.020019 0.008454 -0.105874 0.121179 -0.056834 0.00305 0.025164 0.121894 0.034784 0.056166 0.033622 -0.035849 -0.048633 -0.081468 0.061925 -0.050478 0.00964 0.007771 0.232608 0.011845 0.076983
-0.26639 -0.104912 0.180519 0.043667 0.041207 -0.008381 0.035828 -0.02579 0.038929 0.035407 -0.045987 0.093855 0.05433 0.066768 0.181295 0.016569 -0.262033 0.088718 -0.019571 0.052693 0.009422 0.007749 -0.062198 0.035078 -0.170783 -0.109887 -0.051371 0.088142 0.135591 -0.010743 0.025514 -0.009047 -0.121579 0.186548 0.022521 0.036774 0.17183 0.066132 0.09254 0.082441 -0.088491 -0.081832 0.017962 -0.036285 -0.059927 0.038842 -0.0052 0.081773 -0.050056 0.091032 0.203915 -0.091347 -0.101425 -0.177557 -0.044136 0.113395 0.140815 -0.005832 0.068476 -0.192456 0.057304 -0.102904 -0.094204 -0.199142 -0.166277 -0.01435 2.05E-4 0.073523 0.121399 0.031439 0.010424 -0.100921 0.049779 0.0731 0.03039 -0.023583 -0.137003 -0.08019 -0.121996 -0.288955 -0.041308 0.110603 0.155086 -0.11951 -0.218402 -0.075287 0.015009 -0.113641 0.196042 0.012681 -0.131442 0.013214 0.01092 0.144369 0.024212 -0.179417 -0.032645 -0.112605 0.114788 0.0294
