0.090393 -0.015445 0.219529 0.028495 0.019128 -0.210243 -0.252264 0.011346 0.034789 0.020117 0.067565 0.319164 0.02573 -0.034217 0.072209 0.025423 -0.141359 0.154983 0.010134 -0.123917 -0.173434 0.073115 0.092267 0.18231 -0.185759 -0.003957 -0.413604 -0.287354 0.070749 -0.14085 0.028181 -0.066833 -0.210717 0.048948 0.032277 0.023589 0.075206 0.00592 -0.03714 0.251323 0.005494 0.29945 -0.060909 0.048721 0.255605 -0.163356 -0.119114 0.039535 -0.159415 0.270105 -0.021972 -0.140135 -0.141828 0.084065 0.07209 -0.03162 -0.149105 -0.127999 -0.045314 -0.149051 0.044475 -0.206573 0.050588 -0.207832 -0.114602 -0.03503 0.043594 0.213569 0.183993 -0.227214 -0.041022 -0.055595 0.001273 -0.061579 0.007139 -0.215621 0.002106 -0.04955 -0.084845 -0.279251 -0.086816 0.040241 0.138209 -0.148539 -0.050468 -0.028445 0.198438 0.065103 0.197813 7.12E-4 -0.090719 0.034426 -0.084326 0.110758 -0.160528 -0.137603 0.010077 0.054871 0.060324 -0.206532
-0.053603 -0.093806 0.129127 0.014075 -0.098105 0.100069 -0.18867 -0.059743 -0.137765 0.022935 0.044529 0.108985 -0.085451 -0.082304 0.067147 0.361989 0.049177 0.243155 3.13E-4 0.088971 0.013545 0.08807 0.233161 0.087545 -0.027097 -0.112183 0.004422 -0.127545 0.136831 -0.203708 0.015348 -0.185809 -0.005115 0.134667 -0.173785 -0.198679 0.12992 0.069469 -0.017008 -0.059793 -0.065511 0.117003 0.065818 0.053649 -0.014411 -0.154378 8.4E-4 0.038972 -0.104549 0.018623 -0.018957 -0.16084 -0.142669 -0.068021 0.192816 -0.186752 0.082667 -0.097589 0.174349 -0.071412 0.002741 -0.104112 0.015078 -0.100904 0.03533 -0.021101 0.031832 0.100146 0.187045 0.006799 0.087284 -0.036087 -0.056076 -0.030717 0.037828 -0.123221 -0.213425 -0.16389 -0.055578 -0.085777 0.020523 0.093259 0.135718 -0.159565 -0.029669 -0.137468 -0.009441 0.014614 0.126369 0.070727 -0.158955 0.152934 -0.035678 0.010272 -0.013119 -0.079618 0.114285 -0.051805 0.13149 -0.051865
-0.030478 -0.029704 0.104285 0.158612 0.020246 -0.063034 0.009871 0.064611 -0.121423 0.066949 0.0209 0.062737 0.101253 -0.059448 0.119358 0.179413 0.033275 -0.051668 -0.069776 0.090521 -0.128209 0.118932 0.104775 0.01293 -0.069656 0.075942 0.028342 -0.08674 0.186082 -0.187311 0.030275 -0.100482 -0.124546 0.020271 -0.210359 -0.018412 -0.064155 -0.088003 -0.069519 -0.003666 -0.074133 -0.112309 0.040917 0.061785 0.075892 -0.061442 0.030421 0.032333 -0.01834 0.025634 0.048241 -0.161526 0.052645 -0.041627 -0.005925 0.039892 -0.070295 0.009903 0.130391 -0.095444 0.015975 -0.076308 0.07472 -0.089704 0.041168 -0.0812 0.091911 -0.052093 -0.068306 -0.007351 0.037662 -0.004718 -0.079382 0.155061 0.077288 -0.017812 -0.161587 -0.073944 -0.051831 -0.090756 -0.080309 -0.070434 0.040414 -0.026328 0.0049 0.048362 0.031225 -0.061932 0.127734 0.095872 -0.111956 -0.009301 0.014213 -0.012897 -0.006996 -0.058216 -0.031507 0.120228 -0.046411 -0.020919
0.0 0.0 0.0 0.0 0.0 0.0 0.0 0.0 0.0 0.0 0.0 0.0 0.0 0.0 0.0 0.0 0.0 0.0 0.0 0.0 0.0 0.0 0.0 0.0 0.0 0.0 0.0 0.0 0.0 0.0 0.0 0.0 0.0 0.0 0.0 0.0 0.0 0.0 0.0 0.0 0.0 0.0 0.0 0.0 0.0 0.0 0.0 0.0 0.0 0.0 0.0 0.0 0.0 0.0 0.0 0.0 0.0 0.0 0.0 0.0 0.0 0.0 0.0 0.0 0.0 0.0 0.0 0.0 0.0 0.0 0.0 0.0 0.0 0.0 0.0 0.0 0.0 0.0 0.0 0.0 0.0 0.0 0.0 0.0 0.0 0.0 0.0 0.0 0.0 0.0 0.0 0.0 0.0 0.0 0.0 0.0 0.0 0.0 0.0 0.0
2.97341 0.161242 -1.937182 -1.307326 -3.885065 -0.284546 -1.157127 0.42553 -1.013186 1.179272 -0.581091 -0.714868 -2.185194 1.672695 -1.391398 -1.037651 1.196406 -2.96516 -0.635853 -3.383435 0.046986 -1.255821 0.969843 -0.661149 -1.125116 -0.271296 1.83219 0.069772 -1.931542 2.519977 1.957097 -0.48734 0.335359 -1.193278 -2.473198 0.584076 1.73091 -2.272486 -0.290211 1.317563 -0.131725 -1.098918 0.083883 -0.465336 -0.47857 -2.002396 -2.296997 -0.042558 1.734407 1.111065 0.005386 3.166283 1.765083 3.202809 0.709851 1.838176 3.288872 -0.043149 -1.526029 1.78704 1.306553 -0.903646 3.887717 -0.474246 -1.388501 0.249082 1.99624 2.423378 0.733092 0.059142 1.366503 1.41855 -0.576889 0.148283 -1.205447 -1.078957 -0.20798 3.139495 0.219312 0.522817 2.917754 -0.030161 0.04369 1.623771 0.861606 -1.046964 -0.23819 1.808717 -0.735958 -2.214234 -2.038252 -4.211499 -0.994151 0.587211 -0.226849 0.561429 1.510372 -0.871251 -1.918795 -0.350556
0.070173 0.039308 0.107688 0.062789 0.15652 0.124082 -0.056432 -0.112537 0.025132 0.140503 0.126967 0.06071 -0.074298 -0.14931 0.052424 0.182899 -0.246843 0.13267 -0.060832 0.014249 -0.124324 -0.021889 0.167993 -0.041896 -0.118065 0.060061 0.024644 0.032088 -0.098378 -0.030464 0.132668 0.111752 -0.096096 -0.07199 -0.297173 -0.090519 -0.107836 -0.01026 -0.033938 0.139789 0.127173 0.008027 -0.077124 0.028844 -0.130697 0.091795 0.126437 -0.176726 -0.119183 0.06901 -0.076019 -0.118921 0.198999 0.162416 0.114462 -0.029789 0.075884 0.002354 0.191814 -0.180285 0.032249 -0.02917 -0.088008 -0.271657 -0.066763 -0.045206 0.183388 -0.151886 -0.047672 0.030697 0.168009 0.04855 -0.083223 0.016797 -0.059652 0.092677 -0.173666 0.089986 0.132784 0.016604 -0.157277 0.026626 9.7E-4 -0.212108 0.094052 0.06787 0.070273 -0.148841 0.03981 0.105973 -0.0732 0.025499 0.047122 -0.076291 -0.093202 -0.17149 0.085148 -0.038776 -0.170445 -0.100314
0.090393 -0.015445 0.219529 0.028495 0.019128 -0.210243 -0.252264 0.011346 0.034789 0.020117 0.067565 0.319164 0.02573 -0.034217 0.072209 0.025423 -0.141359 0.154983 0.010134 -0.123917 -0.173434 0.073115 0.092267 0.18231 -0.185759 -0.003957 -0.413604 -0.287354 0.070749 -0.14085 0.028181 -0.066833 -0.210717 0.048948 0.032277 0.023589 0.075206 0.00592 -0.03714 0.251323 0.005494 0.29945 -0.060909 0.048721 0.255605 -0.163356 -0.119114 0.039535 -0.159415 0.270105 -0.021972 -0.140135 -0.141828 0.084065 0.07209 -0.03162 -0.149105 -0.127999 -0.045314 -0.149051 0.044475 -0.206573 0.050588 -0.207832 -0.114602 -0.03503 0.043594 0.213569 0.183993 -0.227214 -0.041022 -0.055595 0.001273 -0.061579 0.007139 -0.215621 0.002106 -0.04955 -0.084845 -0.279251 -0.086816 0.040241 0.138209 -0.148539 -0.050468 -0.028445 0.198438 0.065103 0.197813 7.12E-4 -0.090719 0.034426 -0.084326 0.110758 -0.160528 -0.137603 0.010077 0.054871 0.060324 -0.206532
0.085886 0.356319 -0.221919 -2.201894 -0.183561 0.139266 0.521303 2.162089 1.21991 -0.095989 -1.357043 -0.129 -3.106405 3.990056 -0.820464 -0.33885 0.431033 -0.23518 -0.568662 -0.739121 -0.416822 -1.30238 -0.507345 0.745091 -0.870985 -0.451147 0.600888 -3.434262 -2.054811 0.384673 0.133107 -1.060507 -0.030035 -0.845209 -2.021914 -1.027246 -0.306525 -0.922801 -0.708073 3.30962 2.075198 0.04145 2.200037 1.307395 1.960915 -1.235538 1.070305 1.493577 0.495332 2.596281 -0.349434 -5.239741 -1.101097 2.983564 0.500782 0.712077 0.588807 -0.595504 0.816969 -2.471882 2.330294 1.96197 0.095342 -0.849246 -0.675735 -0.314379 0.47944 0.706735 -0.535722 -0.28499 0.285157 -0.386009 -1.262611 -0.37054 0.625949 -1.884908 -0.624326 1.232846 1.35449 2.570018 1.755622 -0.26211 -2.106435 -1.496908 -0.688091 0.315535 0.337055 2.931172 -0.394688 -0.259198 0.29868 -0.351087 -0.704977 1.352832 -0.088133 -0.038146 0.01364 2.467777 2.072498 1.712643
-0.061018 0.157623 0.117298 -0.109258 0.01787 0.045393 -0.022422 -0.294216 0.022256 0.058558 0.038763 0.036359 0.07868 -0.152594 -0.142051 -0.006561 0.048106 -0.186814 -0.219902 -0.146332 -0.040248 0.162923 0.206328 0.008315 0.064041 -0.061214 0.088903 0.028344 0.024874 0.075935 -0.107993 -0.283393 0.084838 0.187131 0.046335 0.263285 0.01179 -0.091048 -0.068498 -0.122058 -0.038751 -0.129411 -0.058456 -0.131053 0.030694 -0.04914 0.090078 0.005105 0.098069 -0.099897 0.334519 -0.048818 0.274796 -0.137175 0.00266 0.139418 0.004345 0.119594 -0.040263 -0.21202 0.038889 -0.176923 0.158875 0.078129 0.025839 -0.016447 -0.02998 -0.060089 -0.040361 0.099583 -0.008088 -0.092105 -0.119375 0.043943 0.139698 -0.224044 0.190238 -0.066093 0.103458 -0.004324 -0.130908 0.064415 0.004283 -0.207982 0.059064 0.041556 -0.028417 0.088197 0.079813 -0.058325 -0.11522 -0.016049 -0.123872 0.006802 0.019293 0.070081 0.043632 0.294809 -0.077686 0.04626
-0.068454 -0.122863 0.134262 0.083716 -0.146457 -0.05854 -0.046249 0.145899 -0.070309 0.010732 0.090118 0.029646 -0.134044 0.011502 0.13797 0.056779 -0.07073 0.176961 0.006425 -0.153893 -0.009753 0.0856 0.130737 0.060926 -0.08509 -0.0078 0.032945 0.025603 0.032755 -0.111281 4.93E-4 -0.017962 0.032708 0.128146 -0.085697 0.05081 0.0276 0.03696 0.01402 0.060028 -0.124086 0.028109 -0.015197 0.122354 0.089105 -0.142934 -0.046646 -0.03136 -0.088624 -0.018623 0.176395 0.059223 -0.037748 0.092775 0.211408 -0.085361 -0.007459 -0.099707 -0.09085 0.010112 0.047779 -0.174533 -0.067544 -0.18185 0.006312 -0.081968 0.046034 -0.073605 -0.048238 -0.084453 0.091696 0.038272 0.057807 0.027356 0.14928 -0.024513 -0.009631 -0.031003 -0.064339 0.046794 -0.17687 0.056175 -0.018763 -0.084626 0.021903 -0.031887 -0.026426 -0.017246 0.052909 -0.04163 -0.017914 -0.010917 -0.015599 0.164133 -0.056038 -0.053381 0.088108 0.022985 -0.007861 -0.03771
0.076366 -0.113758 0.198914 -0.086313 0.036109 -0.067986 -0.2657 0.029907 -0.078939 0.256784 -0.058089 0.126061 0.004952 -0.008668 0.170726 0.179781 0.090461 0.284357 -0.096045 0.316709 -0.022347 -0.010218 0.134477 -0.097373 0.001973 0.184655 -0.172801 0.046019 0.032277 -0.2827 0.12387 -0.093307 -0.090799 0.140858 0.001926 -0.171345 -0.002987 -0.154995 -0.091065 0.096881 -0.072253 0.127105 -0.112285 -0.077252 0.029511 -0.013843 -0.137983 -0.104437 0.08774 0.225358 0.044083 -0.154899 -0.083061 0.174348 -0.032597 -0.08616 0.030219 -0.170082 -0.125118 -0.198104 0.089416 -0.044511 0.074327 -0.147045 -0.011408 -0.13262 0.039725 -0.147556 0.035978 0.044765 0.056961 -0.022516 -0.017659 -0.012649 0.061245 -0.001877 0.105214 0.091813 0.189283 0.02412 -0.046732 -0.043772 -0.182393 0.002609 0.097663 0.039182 0.191466 -0.181607 0.037817 0.094593 -0.19255 0.094633 0.003271 0.033055 -0.051123 -0.221446 0.190835 0.054897 -0.1195 0.12647
-0.467921 -1.383882 -1.678015 -0.6027 3.767614 -0.759057 1.551067 0.1189 -0.383661 -0.155335 2.871233 3.546863 0.452564 0.299793 -0.29341 0.305229 1.039041 -3.758092 -1.477248 2.289557 -2.680408 2.540723 3.957598 -1.870584 1.94565 -2.847637 0.543211 0.956155 -1.138089 -0.766601 -0.912223 -2.438379 -0.746158 5.045136 0.992513 -0.727251 -2.731133 -0.089375 -1.075855 1.133576 -0.185849 -3.072574 -0.79421 -1.169097 0.463959 0.290789 -2.580767 0.367816 -0.346754 -2.590897 3.486596 -3.398266 1.741542 1.453118 -1.488942 0.85528 4.165485 1.465 -0.549161 -0.025481 -2.537666 -2.166763 -0.980953 -0.546525 -0.17285 -1.807029 0.842553 -1.804613 0.670838 1.058328 -0.756914 0.619763 3.227809 -1.314044 2.74459 3.224153 -1.151175 3.392939 0.040829 -0.76436 1.178459 3.638028 0.220292 -1.47041 -0.288354 1.37459 -1.243262 4.246599 1.391709 -0.206334 3.201069 2.321392 -5.056724 -1.519187 -0.993119 -0.140607 -1.227215 1.450035 3.334486 3.82919
-0.059907 0.015653 0.229101 0.003704 -0.177367 0.02297 -0.0478 0.014299 0.012491 0.060421 -0.034489 0.214199 0.133007 -0.02666 -0.026742 0.200874 0.010901 0.165739 0.050652 -0.068262 -0.013117 0.318248 0.123408 0.138904 -0.224906 -0.175809 -0.068439 -0.080291 0.088517 -0.288465 -0.011859 -0.135878 -0.147436 0.03277 -0.081899 -0.073773 -0.03163 0.043057 -0.077375 0.012805 0.080302 0.125891 0.117469 0.065311 0.065124 -0.061649 -0.017342 0.019809 -0.131021 0.118338 0.115438 -0.058889 -0.118659 0.028255 0.101445 -0.210441 0.067337 -0.041692 0.107357 -0.021349 0.152666 -0.134921 0.019361 -0.155894 -0.08343 0.021356 0.071561 -0.002488 -0.031856 -0.29242 -0.252192 0.001537 0.037548 0.092142 0.085394 -0.144488 -0.128954 0.083859 -0.014926 0.05747 0.059011 0.11301 0.011728 -0.16471 -0.04844 -0.026685 0.042388 -0.003607 0.150713 0.002803 -0.141782 0.092808 0.043392 0.01289 -0.042381 -0.116511 0.064345 0.029013 0.005755 -0.110591
-0.152449 -0.044303 0.008826 0.158231 0.054784 -0.036343 -0.04934 0.02653 0.052842 -0.009865 0.24279 0.043984 0.050227 -0.12401 -0.04568 0.1744 0.06174 0.143513 0.124166 0.081341 -0.118358 0.074778 -0.083218 -0.139702 -0.194108 -0.183182 -0.029806 0.115596 0.14669 -0.057589 0.003081 -0.107015 -0.218733 0.129099 -0.082711 -0.105818 -0.007266 -0.12266 0.094661 0.107609 -6.14E-4 0.271384 -0.080543 0.138642 -7.32E-4 -0.218865 0.40649 -0.059435 -0.193473 0.033391 0.087914 0.012542 0.041858 0.072755 0.08538 -0.164615 0.060684 0.077212 0.228896 -0.149699 -0.035172 -0.051076 0.093572 -0.128543 -0.134114 0.08237 0.176945 -0.041402 -0.161911 -0.030749 0.08254 -0.088522 -0.191078 -0.044383 0.052967 -0.071657 -0.164673 -0.018605 -0.023125 0.250893 -0.00246 0.057478 -0.181426 -0.265875 0.077014 -0.079216 -0.05958 0.010698 0.257328 -0.041753 0.09074 -0.058726 -0.06347 0.124453 -0.031708 -0.047602 -0.006024 -0.158663 -0.001218 -0.029646
-0.152887 -0.017648 0.097705 -0.129605 -0.040944 -0.073946 -0.124913 0.011148 -0.085984 -0.001289 -0.036889 0.094284 0.040008 0.00921 0.17817 0.061227 -0.068949 0.192866 0.035834 -0.02272 -0.072972 0.125001 0.180433 0.065754 -0.085234 0.023489 -0.077348 -0.028742 0.0982 -0.131585 -0.126914 0.100689 -0.063662 -0.045136 -0.023398 0.137903 -0.057987 -0.031353 0.079968 0.118537 -0.036548 0.115203 -0.034838 0.087655 -0.022782 -0.130275 0.07226 -0.042122 -0.196503 0.074188 0.337228 -0.059413 -0.051297 0.071008 0.152357 -0.042792 0.046629 -0.007032 0.094788 0.029184 0.123585 -0.093723 0.051847 -0.16446 -0.069744 -0.086874 0.116378 0.044264 0.156242 -0.024207 -0.121409 -0.081453 -2.94E-4 -0.056047 0.054839 -0.175321 -0.113677 -0.001973 -0.043787 -0.156828 0.08919 0.012602 0.041417 -0.125356 0.032718 -0.025063 -0.035323 0.052448 0.026178 0.00513 -0.216875 -0.094778 0.032417 0.102266 -0.204375 -0.124199 0.097191 0.032235 -0.091654 -0.05366
0.01138 -0.138514 0.226323 0.132162 0.07805 0.00343 0.083845 -0.09138 0.079482 0.022071 -0.002286 -0.006272 -0.055472 -0.054731 0.078293 -0.140183 0.15088 0.013218 0.007411 0.046312 0.0286 0.219363 -0.011629 -0.130226 -0.150721 -0.283571 -0.028629 0.067705 0.135719 -0.132972 -0.094048 -0.072213 -0.023802 0.214469 -0.250461 -0.012114 0.041212 -0.012535 0.09064 -0.133034 -0.062136 0.154734 -0.068564 -0.062881 0.080259 0.063067 0.019327 0.00957 0.032935 0.016774 -0.050169 0.059704 -0.009306 -0.012702 0.179211 -0.043178 0.076398 0.018125 0.206446 -0.090811 -0.158088 -0.04166 -0.027056 -0.161963 0.015678 0.034851 0.035571 0.172649 -0.019972 -0.118805 -0.018352 -0.127559 -0.069902 -0.121 0.06276 -0.072027 -0.084075 -0.076834 -0.049779 0.009668 -0.106123 0.128864 0.067299 -0.113024 -0.033589 0.034719 -0.040078 0.084181 0.070565 0.001174 0.182729 -0.016327 0.065474 0.261385 -0.113425 -0.125606 -0.105792 0.112522 0.014332 -0.110195
2.591633 1.608701 -2.087245 2.00752 3.012652 4.995656 0.847355 -1.594905 -0.365708 -1.629805 -1.650237 3.712017 -0.231463 -0.537534 -2.036098 2.002639 -0.696666 -4.310136 -1.477319 -1.356504 -0.581823 -1.830239 -0.272773 -1.648095 0.090509 0.008711 0.330842 0.396714 2.341035 -0.526067 1.155793 -1.730906 -1.010387 -1.342646 -1.939355 0.734869 0.727366 0.700702 1.516974 -2.133831 -0.280653 -3.051674 0.017123 0.532043 1.478449 0.375441 0.920129 1.548929 1.087478 0.668327 0.707416 3.249232 -0.362503 1.273221 -2.929682 -0.245389 1.633444 -0.119836 0.103459 -3.445175 0.513245 0.427807 0.738792 1.448203 0.501908 0.362882 -0.731533 -0.391201 0.037778 3.053553 4.030229 1.793904 1.24136 0.081706 -1.401954 -0.638804 -0.487445 -0.267924 0.012844 0.538179 -0.241935 -0.068756 1.351665 -0.112558 0.001814 0.447262 0.833441 -0.023876 1.212707 1.514635 -0.568611 0.376173 -3.663739 -4.345135 -0.444319 2.139788 -2.53093 0.92131 -1.399435 1.763954
-0.020015 -0.064577 -0.039267 0.00225 0.004473 0.102358 0.018363 0.159934 -0.188582 -0.051737 0.081946 0.06379 -0.102722 -0.209108 0.067136 0.103007 -0.127051 0.159879 -0.122798 -0.106819 -0.070137 0.114814 0.171571 -0.173295 -0.11254 0.141112 0.134959 -0.155561 -0.109498 -0.186657 0.113544 -0.161418 -0.118006 -0.059175 -0.094374 -0.038196 -0.015228 0.119325 -0.177475 0.038859 -0.194853 0.039467 -0.028283 -0.15093 -0.168951 -0.049866 -0.033163 0.027288 -0.004101 0.004241 0.008573 -0.146335 0.015995 0.050993 -0.108685 -0.077277 0.036094 -0.046554 0.073144 -0.118773 0.173636 0.058066 0.044118 0.045965 -0.338419 -0.021988 0.12551 -0.083197 0.108791 0.021393 0.098164 0.018907 -0.001159 -0.005702 0.101804 -0.080581 -0.330685 0.062983 0.086153 0.053822 0.013846 0.102873 0.060588 -0.046089 -0.127327 -0.050613 0.159636 0.155209 0.235401 0.069143 0.052979 0.007727 -0.021391 0.121081 -0.147328 -0.097697 0.086277 -0.003848 0.031409 -0.089204
0.126601 0.151835 0.193399 0.174099 -0.646191 0.21379 -0.186482 -0.13997 -0.560394 0.322982 0.241729 0.250542 -0.248364 0.257161 0.120671 -0.082896 0.063186 0.024098 -0.198743 0.035312 0.048625 0.239531 0.179449 -0.097819 0.154074 0.040353 0.008838 -0.140494 -0.259957 -0.206018 -0.045607 0.384231 0.217239 -0.334459 -0.526092 -0.201399 -0.298916 0.348189 -0.3319 0.287573 0.217898 0.041561 0.04366 -0.263123 0.223565 -0.080408 -0.216558 0.135044 0.304656 0.228951 -0.301718 -0.21699 0.312768 0.61832 -0.019189 -0.129991 -0.174961 0.118396 -0.221355 -0.30033 -0.110245 -0.199431 0.284535 -0.144696 -0.276955 -0.081647 0.335849 0.081245 -0.120869 0.085328 0.102655 -0.053456 0.160056 0.422571 0.027799 -0.367977 0.001807 0.548981 0.050874 0.325344 -0.03775 0.365258 0.086237 0.285506 -0.234127 -0.085483 0.330965 -0.176792 -0.16894 0.618085 -0.26391 0.080922 -0.066712 -0.060976 0.217799 0.1752 0.150166 -0.139912 -0.230439 0.107344
-0.128721 -0.020717 -0.03651 0.229706 0.051809 0.224327 0.123493 -0.038363 -0.063055 0.133587 0.069802 0.253002 0.135808 0.134685 -0.183566 0.161938 -0.071543 -0.060325 0.096975 0.111357 -0.135095 0.136486 -0.042982 -0.168204 0.178548 -0.135189 -0.098937 0.248464 0.105809 -0.012574 -0.092208 -0.148274 -0.138621 0.130555 -0.211548 -0.067794 0.168902 -0.138029 0.076011 -0.134448 0.043642 0.030261 0.118017 0.020174 0.104538 0.081722 0.022119 0.006976 -0.136463 0.003213 -0.13625 -0.119046 -0.15545 0.038575 0.011051 -0.096325 0.00649 -0.069671 0.152018 -0.110598 -0.075381 -0.047279 -0.020438 -0.09987 -0.090597 -0.122285 -0.03943 -0.115171 0.12068 -0.182765 0.094394 0.016552 -0.029941 -0.070159 -0.060483 0.024403 -0.015144 0.075776 -0.041238 0.116011 -0.063014 0.032542 -0.044304 0.078091 -0.118008 -0.041363 0.110233 -0.021164 0.091178 0.117985 0.072149 -0.036737 -0.172187 -0.081211 -0.091472 -0.030862 0.160934 0.157104 0.099529 0.069457
-0.046453 -0.114089 0.048378 0.039697 0.205342 -0.134425 0.195579 -0.187425 0.012362 -0.056148 -0.131226 -0.036605 -0.166618 -0.005606 0.011423 -0.035289 0.073024 0.049955 -0.03056 -0.116564 -4.0E-4 0.248965 0.168589 -0.016666 -0.127127 -3.18E-4 0.127741 -0.107854 0.05539 -0.111124 -0.041902 -0.11626 0.086201 0.191946 -0.031307 -0.026238 0.135582 -0.138117 -0.118683 -0.205278 -0.118941 0.075416 -0.021621 -0.074612 0.105553 0.141257 -0.097239 0.031083 -0.191864 0.157126 0.157338 0.018714 -0.190255 -0.078835 0.160698 0.051121 -0.022634 0.282011 -0.210636 0.065967 0.011387 -0.10215 -0.014587 8.06E-4 -0.126806 0.10146 -0.051249 -0.166886 0.138311 -0.092453 -0.203714 0.163209 0.126385 -0.163049 0.060969 -0.136489 -0.119169 0.143901 -0.166778 -0.074124 -0.205023 0.138254 -0.069697 -0.023512 0.056226 -0.151985 0.057434 -0.163405 0.084998 0.19969 0.169875 -0.038445 0.015784 -0.127481 -0.113888 -0.245198 0.065981 0.165014 0.001608 -0.042748
0.777 1.314552 -1.709351 1.279037 -1.161158 1.749827 1.81853 -2.105433 -2.145393 -1.08684 2.411934 2.517726 -0.597069 -2.805907 -1.973805 -1.197839 1.163276 4.517887 -3.491577 -0.338933 -0.776908 0.34388 2.144851 1.297554 4.872602 0.225089 0.260802 -2.219714 0.796345 2.060944 0.239995 -0.094431 -1.320955 2.677181 -0.297467 0.229395 2.251158 -1.299983 0.092002 -5.30937 -0.49068 -1.705395 -0.444429 3.901382 -1.737715 1.600834 -1.740966 -3.969871 1.136135 0.832977 -0.176364 0.299148 1.683409 -1.226608 0.676828 -0.015489 -4.889459 -2.115066 0.907715 -1.266889 -1.586727 1.483547 2.146638 0.522706 -2.90419 1.14062 -1.294704 1.344187 1.672636 -0.31956 -0.188459 -0.364054 -1.316955 -0.965894 -4.440102 -1.055053 0.026037 -0.929302 1.617411 3.757694 3.960576 -2.93695 -0.540357 -2.815161 3.493755 0.866095 2.391279 1.067545 0.407769 1.896599 1.081525 -3.358885 -3.749618 3.252992 -1.145527 0.694275 0.744262 1.284977 2.516769 2.467178
-0.021809 0.027874 -0.1183 -0.014798 -0.04027 0.036087 -0.026677 -0.11823 0.018636 0.059099 0.021554 0.111144 -0.127783 0.035696 0.008757 0.041177 -0.115758 0.092313 -0.017021 -0.005947 -0.142381 -0.119443 0.176836 0.238909 0.071724 -0.023996 0.034427 -0.053442 -0.015806 -0.245017 0.093464 0.1984 8.95E-4 -0.007571 -0.188739 0.064052 -0.040487 -0.084491 0.076731 -0.005023 -0.113765 0.008146 0.080496 0.064331 -0.008054 -0.036437 0.02266 0.028235 -0.093358 0.079873 0.077239 -0.148998 -0.101359 0.047654 -0.246306 -0.11849 0.106899 0.143151 -0.115638 -0.094289 0.133745 -0.065863 0.172708 0.187109 0.093154 -0.057844 0.028105 -0.027515 0.032107 -0.024108 0.065288 -0.043379 0.04258 -0.059404 0.080375 -0.069887 0.058943 -0.037901 0.035446 -0.075564 -0.034222 0.102886 0.024289 0.167547 -0.175277 0.129022 0.093667 -0.174273 -0.093221 0.122252 0.06737 0.092314 0.013605 -0.129282 -0.01963 -0.021677 0.111655 0.025519 -0.016685 0.089855
0.032396 -0.153017 0.013261 0.047099 -0.16096 -0.002847 -0.14501 0.068005 -0.149359 0.076423 0.087914 0.08774 -0.052729 0.078781 0.117473 0.074295 0.151985 0.072683 0.119518 0.122415 -0.135198 0.247231 0.180758 0.015866 -0.113795 -0.127057 -0.071395 0.168229 0.095199 -0.336627 -0.153192 -0.143154 -0.026817 0.033279 -0.138762 -0.11222 0.10966 -0.08999 0.082217 0.118244 -0.209306 -0.145128 0.075727 0.090038 -0.029107 0.029357 -0.046449 0.077719 -0.03284 -0.077257 -0.012984 -0.045672 -0.116 -0.276832 0.093682 -0.058702 0.12833 -0.142148 0.008875 0.083015 -0.016207 -0.124211 -0.089497 -0.070414 -0.053119 -0.049462 -0.046969 0.093573 -0.213675 0.119268 -0.018275 3.93E-4 0.116123 -0.134844 0.078802 -0.103423 -0.118698 -0.023437 0.037259 0.011934 0.026229 -0.010741 0.123861 -0.243128 -0.03501 -0.001409 -0.172359 -0.035735 0.189753 0.012574 -0.164292 0.135864 0.031712 0.210915 -0.032895 0.034045 -0.017284 -0.092774 0.076027 0.134429
-0.081886 0.08331 -0.028382 0.124027 -0.036617 -0.043156 0.009069 0.134815 -0.09018 -0.041327 -0.033041 0.045117 0.055155 -0.009991 -0.124044 -0.188976 0.104629 0.110813 -0.06637 0.155515 0.061604 0.079554 0.076605 -0.126117 -0.053801 0.009985 -0.071253 -0.014116 -0.099278 -0.056385 -0.107187 -0.152096 0.036669 0.012115 0.090789 -0.092586 -0.017654 0.077995 -0.037351 0.030685 -0.009524 0.066678 -0.091618 -0.033864 -0.096038 -0.056734 -0.054848 -0.009941 0.097215 0.068939 -0.170422 0.005656 0.015225 -0.030557 -0.016547 -0.057579 -0.197706 0.045143 -0.022137 -0.012842 -0.007553 0.160793 0.171306 0.045646 0.007079 0.192991 0.013734 0.059926 -0.121218 -0.016479 0.059871 -0.021013 0.115005 -0.022912 -0.048291 0.175074 0.016307 0.020637 0.061035 -0.210906 0.10931 2.84E-4 -0.03172 -0.017428 3.65E-4 -0.081142 0.047955 0.200429 -0.201312 0.028431 -0.024579 -0.114419 0.022804 0.00838 0.158407 0.256447 -0.02784 0.037138 0.02529 -0.009391
0.0 0.0 0.0 0.0 0.0 0.0 0.0 0.0 0.0 0.0 0.0 0.0 0.0 0.0 0.0 0.0 0.0 0.0 0.0 0.0 0.0 0.0 0.0 0.0 0.0 0.0 0.0 0.0 0.0 0.0 0.0 0.0 0.0 0.0 0.0 0.0 0.0 0.0 0.0 0.0 0.0 0.0 0.0 0.0 0.0 0.0 0.0 0.0 0.0 0.0 0.0 0.0 0.0 0.0 0.0 0.0 0.0 0.0 0.0 0.0 0.0 0.0 0.0 0.0 0.0 0.0 0.0 0.0 0.0 0.0 0.0 0.0 0.0 0.0 0.0 0.0 0.0 0.0 0.0 0.0 0.0 0.0 0.0 0.0 0.0 0.0 0.0 0.0 0.0 0.0 0.0 0.0 0.0 0.0 0.0 0.0 0.0 0.0 0.0 0.0
-0.062338 -0.124399 0.222502 0.171342 -0.145245 -0.032374 -0.075462 -0.014118 0.083902 0.152422 0.152625 0.053222 -0.063609 -0.082105 0.127556 0.341953 -0.049064 0.121494 0.092791 0.172334 -0.126053 0.107444 0.313795 0.085774 -0.123598 -0.150989 -0.029682 0.011488 0.204145 -0.156859 -0.024337 -0.141687 0.016288 0.098427 -0.027396 -0.049221 -0.008055 -0.103217 0.057424 0.098527 0.004836 0.07801 -0.003217 -0.10341 -0.001169 -0.174447 0.083729 0.010583 -0.164549 0.126125 0.094658 -0.137487 -0.018932 0.032768 0.076673 -0.158112 -0.001802 0.083678 0.140364 -0.133812 0.057549 -0.038643 0.08358 -0.11427 -0.128801 -0.039315 0.124813 -0.06215 0.054214 -0.076049 -0.02626 -0.035573 -0.123242 0.049204 -0.070051 -0.034477 -0.199232 -0.09361 -0.0969 0.015546 -0.131448 0.173865 0.129118 -0.219474 0.044803 0.08539 0.023968 0.035078 0.253595 -0.091363 -0.141844 0.030406 -0.021609 0.091249 -0.051436 -0.181611 0.025554 0.023735 -0.077116 6.83E-4
0.007246 0.053204 0.100928 0.006342 -0.101763 -0.085197 -0.083461 -0.123321 -0.100071 -0.042788 -0.155182 0.073053 -0.120455 0.059108 0.2188 0.103057 0.06081 0.00949 -0.182921 0.034294 -0.122566 -0.124692 0.14027 0.020579 -0.119203 -0.013958 -0.156626 0.105013 0.218325 -0.087863 -0.012293 -0.149912 -0.102018 0.191563 0.052477 0.053501 0.163665 0.035356 0.069416 0.115013 -0.105517 0.133498 0.044305 0.046916 -0.031637 0.092181 -0.128598 0.004537 -0.117556 -0.017436 0.142292 -0.170739 -0.094203 -0.159656 0.003728 0.017704 -0.079291 -0.10274 0.020011 -0.019057 -0.097359 -0.03764 -0.0914 -0.086059 0.119906 0.067012 0.096686 0.157964 0.068966 -0.023785 0.046974 -0.008436 -0.065665 0.102192 0.01846 0.034072 0.013473 -0.054716 0.045957 -0.220794 -0.231742 0.033982 0.162247 0.016021 0.050697 0.09313 2.07E-4 -0.205807 -0.080609 0.012886 -0.152411 -0.018133 -0.019331 0.073492 -0.026605 -0.060685 -0.069619 0.142252 -0.100558 -0.024004
0.241136 -2.675148 -1.065717 0.69798 -3.733836 -0.524003 0.803449 3.450087 0.061053 -3.325698 4.515945 5.446378 1.034946 2.097065 -2.082487 0.266984 -3.305491 -0.67329 0.622904 -3.109632 -0.30494 -3.005757 -1.809697 5.06518 1.223244 -2.194768 -0.594544 0.181497 -1.63633 -2.090887 -0.167001 -0.992125 1.262372 0.40405 1.765541 -0.22244 2.431408 -1.596351 0.867472 1.77198 -5.791278 -2.536203 4.016088 2.14964 -0.104003 0.376547 0.261065 -4.292746 -0.852583 -0.872132 -0.700585 -2.285809 0.002464 -4.514367 -5.009871 -0.946054 1.329667 4.520755 -2.412363 -0.15797 -0.260579 1.970605 -1.769096 -2.038663 1.268061 -0.777002 0.356194 0.583671 -0.97177 0.651415 -2.248309 -2.136726 -1.903623 -2.851158 -4.106599 -2.256189 6.065419 -2.46208 -0.119085 -0.984045 1.073519 2.989832 -0.387268 -2.42036 5.250014 -2.687369 -0.69312 2.400352 -2.055109 0.335421 -1.324247 -3.77112 3.060263 -0.786036 1.670615 3.130669 -1.182669 -1.417921 3.344155 4.031028
0.0 0.0 0.0 0.0 0.0 0.0 0.0 0.0 0.0 0.0 0.0 0.0 0.0 0.0 0.0 0.0 0.0 0.0 0.0 0.0 0.0 0.0 0.0 0.0 0.0 0.0 0.0 0.0 0.0 0.0 0.0 0.0 0.0 0.0 0.0 0.0 0.0 0.0 0.0 0.0 0.0 0.0 0.0 0.0 0.0 0.0 0.0 0.0 0.0 0.0 0.0 0.0 0.0 0.0 0.0 0.0 0.0 0.0 0.0 0.0 0.0 0.0 0.0 0.0 0.0 0.0 0.0 0.0 0.0 0.0 0.0 0.0 0.0 0.0 0.0 0.0 0.0 0.0 0.0 0.0 0.0 0.0 0.0 0.0 0.0 0.0 0.0 0.0 0.0 0.0 0.0 0.0 0.0 0.0 0.0 0.0 0.0 0.0 0.0 0.0
0.233485 -0.169544 -0.176879 -0.264085 -0.107436 0.057878 -0.060163 0.020134 -0.075479 0.113908 -0.09997 -0.174725 -0.252921 -0.122678 -0.035219 -0.077484 0.037537 -0.037793 0.129264 -0.099879 0.019875 -0.018207 0.00781 -0.131311 -0.122916 0.092196 -0.101513 -0.137821 -0.180387 0.028172 0.152386 0.192303 -0.095574 -0.106227 0.072159 0.021054 0.055603 -0.084775 0.048133 -0.033319 -0.145469 -0.052611 0.055902 0.169461 -0.069542 -0.067575 -0.154715 -0.139578 0.004359 -0.018258 0.099611 -0.130799 0.00714 -0.072897 0.088522 -0.010623 -0.01831 -0.120719 -0.232138 0.024499 0.020253 0.024691 -0.092193 -0.006159 -0.073972 0.145627 -0.15225 -0.053373 0.093501 -0.006107 0.04413 0.186046 -0.098408 0.199472 0.186096 0.163884 0.172805 0.064425 -0.04161 0.131829 0.010201 -0.12358 0.009225 -0.16262 -0.009664 -0.110038 0.19284 0.088062 0.137671 -0.018017 -0.1722 -0.015099 -0.007537 0.047423 -0.025555 0.128165 -0.06147 -0.007149 0.227166 0.114048
0.073697 -0.100703 0.020456 0.009438 0.044443 0.03304 0.08783 -0.148963 0.075929 0.070515 0.193757 0.247672 0.0365 0.002967 -0.087123 0.190345 0.048458 0.034337 0.03555 0.03362 -0.123668 0.154293 -0.020795 -0.03309 -0.125976 -0.142891 -0.175817 -0.067405 -0.005801 -0.027148 0.136184 -0.163041 -0.166647 0.054338 0.00315 -0.100665 -0.031401 -0.134456 -0.090011 -0.086503 -0.128021 0.077016 -0.093212 -0.058077 0.087293 0.041841 -0.105311 0.205569 -0.033794 0.033361 0.03039 0.042701 -0.074986 0.11196 -0.030571 -0.125481 -0.061782 -0.036631 -0.020972 0.295828 -0.019581 -0.090208 -0.039658 0.075499 0.039665 0.111594 -0.09672 0.10556 0.057031 -0.052957 -0.208675 0.1369 -0.00773 0.021513 0.09272 0.087832 -0.060254 0.121853 0.150339 0.017254 -0.161272 -0.103943 0.008884 -0.104197 0.030699 0.091889 0.136639 0.130801 0.085086 0.006657 -0.097977 -0.148594 -0.100547 0.049839 -0.048671 0.06852 -0.028367 -0.060196 -0.097916 -0.1039
-0.152887 -0.017648 0.097705 -0.129605 -0.040944 -0.073946 -0.124913 0.011148 -0.085984 -0.001289 -0.036889 0.094284 0.040008 0.00921 0.17817 0.061227 -0.068949 0.192866 0.035834 -0.02272 -0.072972 0.125001 0.180433 0.065754 -0.085234 0.023489 -0.077348 -0.028742 0.0982 -0.131585 -0.126914 0.100689 -0.063662 -0.045136 -0.023398 0.137903 -0.057987 -0.031353 0.079968 0.118537 -0.036548 0.115203 -0.034838 0.087655 -0.022782 -0.130275 0.07226 -0.042122 -0.196503 0.074188 0.337228 -0.059413 -0.051297 0.071008 0.152357 -0.042792 0.046629 -0.007032 0.094788 0.029184 0.123585 -0.093723 0.051847 -0.16446 -0.069744 -0.086874 0.116378 0.044264 0.156242 -0.024207 -0.121409 -0.081453 -2.94E-4 -0.056047 0.054839 -0.175321 -0.113677 -0.001973 -0.043787 -0.156828 0.08919 0.012602 0.041417 -0.125356 0.032718 -0.025063 -0.035323 0.052448 0.026178 0.00513 -0.216875 -0.094778 0.032417 0.102266 -0.204375 -0.124199 0.097191 0.032235 -0.091654 -0.05366
-0.002795 -0.21011 0.127834 -0.00823 -0.075374 -0.049741 -0.051842 0.023443 0.018768 -0.117286 0.045673 0.183873 0.015618 -0.036521 0.075886 0.215219 0.107905 0.119021 0.182006 0.062936 -0.144146 0.152029 0.062304 0.056924 -0.279897 0.087017 -0.005324 -0.117567 0.147729 -0.255287 -0.046132 0.019501 -0.055959 0.094213 -0.050329 -0.036217 -0.00157 -0.093652 -0.011233 0.091959 0.066806 -0.016812 0.035635 -0.080524 0.108885 0.097184 -0.127981 -0.100494 0.097114 0.06797 0.071666 -0.219084 0.018324 0.088269 0.129009 -0.074538 0.012713 0.049284 -0.05631 -0.001185 0.050445 -0.309752 0.153069 0.02032 0.031139 -0.038214 -0.02165 0.032416 0.07491 -0.108447 -1.66E-4 -0.022387 -0.086169 0.107621 -0.046035 0.011636 -0.032401 0.038874 -0.016808 -0.016776 -0.053123 -0.108705 -0.001653 -0.219547 0.019661 -0.061742 0.059893 0.069224 0.170744 0.235562 -0.269585 0.015752 0.026174 0.05651 0.149015 -0.078086 -0.043971 -0.007838 -0.036333 -0.090567
0.069355 -0.039597 -0.005989 -0.062185 0.022728 -0.165311 0.035234 -0.120425 0.132455 -0.128698 0.083455 0.01307 -0.224119 0.017696 0.110708 0.178055 -0.047257 0.143673 0.176347 0.049199 -0.101734 0.055208 0.102758 -0.040931 -0.159739 0.006094 -0.021728 0.087741 0.131223 -0.1361 -0.093542 -0.040734 -0.07027 0.14508 -0.057161 0.039198 0.070968 -0.045177 0.071631 0.020347 -0.001218 -0.027881 0.014169 -0.147398 0.002425 0.095469 -0.076174 0.005815 0.150788 0.003418 0.074724 -0.110043 -0.166538 -0.043396 -0.032079 0.103605 -0.152401 0.005723 -0.137949 -0.066454 -0.038214 -0.033129 0.084629 -0.108333 -0.013591 -0.01227 -0.097467 -0.192776 -0.040405 0.135597 0.004788 -0.067766 0.017649 0.025558 0.119741 -0.07408 0.068083 -0.066217 -0.098091 -0.324407 0.052583 -0.038355 -0.063136 -0.060229 -0.228332 -0.085798 0.014013 -0.1166 0.007 0.018169 -0.066404 0.030598 -0.015261 -0.13397 0.088973 0.049941 -0.032936 0.053388 0.0688 -0.063472
0.166865 -0.033351 -0.013364 -0.059014 -0.095169 -0.021507 -0.126788 0.103728 -0.200711 -0.063152 0.044354 0.134222 0.002393 0.071524 0.209815 0.100187 0.025401 0.083631 0.120448 0.173878 -0.091184 0.033918 0.054121 0.121356 -0.168415 -0.048991 -0.209931 -0.016042 0.202225 -0.007166 -0.110802 -0.028926 -0.11468 0.016808 -0.064513 -0.05835 -0.015135 0.093734 0.167046 -0.014056 0.02555 -0.101082 -0.016676 -0.00246 -0.017495 0.184926 -0.038011 -0.106257 0.001132 0.03659 0.080797 -0.16487 -0.164051 -0.024617 0.144233 0.037146 0.064814 -0.135114 0.218106 -0.087954 0.024218 -0.008723 0.020657 -0.10933 -0.0401 -0.009808 -0.283523 0.179888 -0.016468 0.100665 -0.045627 0.125868 0.040189 0.113707 0.238166 -0.079786 0.009467 -0.061173 -0.064632 -0.277119 0.084403 -0.091058 0.212317 -0.16461 -0.095926 -0.049768 -0.09268 0.023356 0.096515 0.010373 -0.174271 -0.082788 -0.155016 0.104184 0.044246 0.051147 0.02525 -0.044468 -0.064392 -0.011243
0.085886 0.356319 -0.221919 -2.201894 -0.183561 0.139266 0.521303 2.162089 1.21991 -0.095989 -1.357043 -0.129 -3.106405 3.990056 -0.820464 -0.33885 0.431033 -0.23518 -0.568662 -0.739121 -0.416822 -1.30238 -0.507345 0.745091 -0.870985 -0.451147 0.600888 -3.434262 -2.054811 0.384673 0.133107 -1.060507 -0.030035 -0.845209 -2.021914 -1.027246 -0.306525 -0.922801 -0.708073 3.30962 2.075198 0.04145 2.200037 1.307395 1.960915 -1.235538 1.070305 1.493577 0.495332 2.596281 -0.349434 -5.239741 -1.101097 2.983564 0.500782 0.712077 0.588807 -0.595504 0.816969 -2.471882 2.330294 1.96197 0.095342 -0.849246 -0.675735 -0.314379 0.47944 0.706735 -0.535722 -0.28499 0.285157 -0.386009 -1.262611 -0.37054 0.625949 -1.884908 -0.624326 1.232846 1.35449 2.570018 1.755622 -0.26211 -2.106435 -1.496908 -0.688091 0.315535 0.337055 2.931172 -0.394688 -0.259198 0.29868 -0.351087 -0.704977 1.352832 -0.088133 -0.038146 0.01364 2.467777 2.072498 1.712643
-0.003221 -0.331372 0.101212 0.081807 -0.044161 -0.029591 -0.299821 0.025269 0.089918 0.027226 0.075311 0.026364 0.034202 -0.08399 0.002067 0.059106 0.015815 0.119818 -0.128921 0.153784 -0.080142 0.189381 0.139724 -0.053738 -0.062695 -0.058626 0.052964 0.136218 0.044175 -0.138756 -0.055447 -0.050708 0.16352 0.042548 -0.037732 -0.100818 0.077305 -0.021843 -0.13584 -0.23701 0.049411 0.133277 -0.022833 -0.032191 0.12206 -0.234068 -0.182802 -0.017532 -0.106456 0.073756 0.087346 0.018731 -0.136473 0.076219 0.243862 -0.058258 0.067918 -0.157223 -0.180401 0.055956 0.053347 0.123595 0.065313 0.021869 -0.125453 -0.010388 0.050291 0.142589 0.110297 -0.124092 0.052245 -0.018623 -0.08164 -0.099514 -0.028935 0.007187 -0.033151 0.076881 -0.04876 0.120721 0.087573 -0.088605 0.147411 -0.123163 0.040112 0.029954 0.043984 0.025742 0.059225 0.076466 0.0131 0.096896 0.077535 0.233654 -0.06885 0.068346 -0.069135 0.05735 0.006419 -0.046975
-0.053567 -0.142993 0.188917 0.131061 -0.011158 0.028589 -0.145482 0.037906 -0.015972 0.157397 0.053605 0.013742 0.051942 -0.020262 0.149074 0.098493 0.185563 0.261155 -0.052512 0.055445 -0.184709 0.153814 0.106702 0.154731 -0.091654 -0.055163 -0.101435 0.063048 0.188904 -0.150109 -0.185481 -0.05481 -0.033142 0.089689 -0.04506 0.018734 0.012723 -0.097912 0.087821 0.148841 -0.024835 0.133011 -0.072563 -0.096591 0.095944 -0.048747 0.143287 5.96E-4 -0.143038 -0.032784 0.084652 -0.008906 0.003305 0.134431 0.163485 -0.035649 -0.005939 0.015832 0.062161 -0.077175 0.143035 -0.119518 -0.080427 -0.040163 -0.040274 -0.02333 0.116374 0.034803 0.05815 -0.085004 -0.119478 -0.149929 0.026057 -0.076481 0.011091 -0.037376 -0.182291 -0.102683 -0.058628 0.034744 0.05272 0.064612 -0.026884 -0.307062 0.145646 0.015794 1.39E-4 0.010736 0.204382 0.072149 -0.048438 0.00426 0.076569 0.098638 0.018154 -0.138958 0.081731 0.024186 -0.005064 -0.158263
-0.08079 0.156445 0.153346 0.029386 -0.121228 -0.104788 0.195851 0.068555 -0.14577 0.016729 -0.086266 0.170897 -0.199614 -0.059444 0.15356 0.092822 0.097974 0.036968 0.171375 -0.202418 0.047997 0.163497 0.023134 0.016162 0.11346 -0.108929 0.16605 0.162775 -0.083995 -0.067254 0.005524 -0.098947 0.009413 0.177854 0.096676 0.076115 0.064534 0.054779 6.23E-4 0.007591 0.041787 -0.168629 -0.108724 -0.126121 -0.169228 0.076845 0.018652 -0.04305 -0.196086 0.020774 0.10723 0.007372 0.154004 0.057468 0.033079 0.040253 -0.022807 0.088963 -0.085103 -0.087142 -0.156613 3.22E-4 -0.030054 -0.128846 -0.080348 -0.078613 -0.069529 0.124179 -0.10264 0.02821 -0.02454 0.088702 -0.117483 -0.126236 0.139491 -0.051496 -0.074152 -0.042509 -0.107079 0.083471 -0.095194 0.044512 -0.060728 -0.286734 0.168252 0.151342 0.089848 -0.192327 0.098523 0.130402 0.171136 -0.059832 0.036814 0.018984 0.070344 0.180552 0.210059 -0.022364 0.180415 0.00996
-0.053603 -0.093806 0.129127 0.014075 -0.098105 0.100069 -0.18867 -0.059743 -0.137765 0.022935 0.044529 0.108985 -0.085451 -0.082304 0.067147 0.361989 0.049177 0.243155 3.13E-4 0.088971 0.013545 0.08807 0.233161 0.087545 -0.027097 -0.112183 0.004422 -0.127545 0.136831 -0.203708 0.015348 -0.185809 -0.005115 0.134667 -0.173785 -0.198679 0.12992 0.069469 -0.017008 -0.059793 -0.065511 0.117003 0.065818 0.053649 -0.014411 -0.154378 8.4E-4 0.038972 -0.104549 0.018623 -0.018957 -0.16084 -0.142669 -0.068021 0.192816 -0.186752 0.082667 -0.097589 0.174349 -0.071412 0.002741 -0.104112 0.015078 -0.100904 0.03533 -0.021101 0.031832 0.100146 0.187045 0.006799 0.087284 -0.036087 -0.056076 -0.030717 0.037828 -0.123221 -0.213425 -0.16389 -0.055578 -0.085777 0.020523 0.093259 0.135718 -0.159565 -0.029669 -0.137468 -0.009441 0.014614 0.126369 0.070727 -0.158955 0.152934 -0.035678 0.010272 -0.013119 -0.079618 0.114285 -0.051805 0.13149 -0.051865
-0.053833 0.079877 0.072856 0.139498 -0.105369 0.004769 -0.27073 -0.096518 -0.168103 -0.103006 0.202092 0.363744 -0.141267 -0.129923 0.01534 0.19683 -0.187167 0.111945 0.109179 -0.016332 0.035184 0.139347 0.315416 0.181261 -0.257633 -0.053217 -0.053058 -0.098832 0.23437 -0.331022 -0.084191 -0.075678 -0.001831 -0.110346 -0.013756 -0.266761 0.034555 -0.008762 -0.150297 0.165393 -0.060494 -0.197826 0.147763 -0.035721 0.031472 -0.210231 -0.085577 -0.109783 -0.244063 0.165008 0.054471 -0.00802 0.010601 -0.037268 0.221023 -0.133451 0.002637 -0.019477 0.129964 0.041991 -0.012534 -0.093924 -0.069187 -0.137315 -0.125857 -0.019287 -0.075852 -0.025292 0.08558 -0.045041 0.044839 -0.045932 0.096927 -0.044108 0.128249 -0.290646 -0.150284 -0.045275 0.037713 0.15651 0.143393 -0.066424 0.296246 -0.291488 0.055917 0.059085 0.065453 0.001004 0.226514 0.017525 -0.201115 -0.040421 -0.006957 -0.001567 -0.074785 -0.124046 0.079696 -0.095859 -0.218243 -0.010996
0.047836 -0.260219 0.14638 0.007779 -0.104955 -0.050724 -0.319432 -0.027407 -0.104778 0.124311 0.14477 0.148278 -0.013076 -0.069917 0.254554 0.25292 0.091697 0.206138 0.168034 0.12307 -0.258927 -0.00695 0.102032 0.075771 -0.201948 -0.129118 -0.138297 -0.097396 0.264104 -0.141635 -0.00303 -0.004618 -0.171331 0.006413 -0.129962 -0.058793 -0.107657 -0.040955 0.117533 0.181708 -0.064138 0.225566 -0.062915 -0.035464 0.269723 -0.089994 -0.005719 -0.078063 -0.215832 0.079343 0.266575 -0.25419 -0.128297 0.038341 0.119308 -0.207662 -0.029523 0.019236 0.024436 -0.109361 0.007955 -0.078744 0.071111 -0.325345 -0.091151 0.006054 0.103893 0.156867 0.20827 -0.195221 -0.011492 -0.084134 -0.077224 -0.110934 0.098004 -0.068865 -0.108344 -0.153112 -0.094614 -0.187216 -0.01459 0.218526 0.241999 -0.141711 0.084584 0.252269 0.155438 -0.088298 0.260633 0.198838 -0.176457 -0.052125 -0.045839 0.131111 -0.115358 -0.197565 0.088973 -0.089591 0.060949 -0.086675
0.029123 -0.202661 -0.082236 0.112075 0.034717 0.083283 -0.150318 -0.047979 0.0537 -0.107112 0.04634 0.158862 -0.124034 0.18757 0.243125 0.048926 -0.062394 0.128387 -0.12156 0.010133 -0.143391 -0.042929 0.217782 0.083479 -0.094317 0.077153 -0.017947 0.102334 0.211676 -0.247066 0.100168 0.184418 -0.076372 -0.073394 0.029679 -0.058559 0.06255 -0.125075 0.032415 0.168798 -0.164238 0.009196 -0.030734 0.041768 0.137032 -0.085765 -0.052734 0.091286 -0.028822 -0.040742 0.029708 0.012089 -0.129203 -0.1194 0.070555 0.098677 -0.006343 0.154241 -0.219007 -0.139678 0.027277 -0.17109 -0.163905 -0.146292 -0.039056 0.161603 -0.087597 0.139511 -0.012552 -0.05088 -0.047219 -0.018285 -0.028469 0.07553 0.129683 0.009729 0.067989 0.020222 -0.102176 -0.123969 0.036791 -0.088109 0.085585 -0.056449 -0.05946 -0.091464 0.05156 0.310366 0.205205 -0.01023 -0.107954 -0.120765 -0.131061 -0.016863 0.073024 0.012084 0.189503 0.073264 0.060702 -0.039391
0.070173 0.039308 0.107688 0.062789 0.15652 0.124082 -0.056432 -0.112537 0.025132 0.140503 0.126967 0.06071 -0.074298 -0.14931 0.052424 0.182899 -0.246843 0.13267 -0.060832 0.014249 -0.124324 -0.021889 0.167993 -0.041896 -0.118065 0.060061 0.024644 0.032088 -0.098378 -0.030464 0.132668 0.111752 -0.096096 -0.07199 -0.297173 -0.090519 -0.107836 -0.01026 -0.033938 0.139789 0.127173 0.008027 -0.077124 0.028844 -0.130697 0.091795 0.126437 -0.176726 -0.119183 0.06901 -0.076019 -0.118921 0.198999 0.162416 0.114462 -0.029789 0.075884 0.002354 0.191814 -0.180285 0.032249 -0.02917 -0.088008 -0.271657 -0.066763 -0.045206 0.183388 -0.151886 -0.047672 0.030697 0.168009 0.04855 -0.083223 0.016797 -0.059652 0.092677 -0.173666 0.089986 0.132784 0.016604 -0.157277 0.026626 9.7E-4 -0.212108 0.094052 0.06787 0.070273 -0.148841 0.03981 0.105973 -0.0732 0.025499 0.047122 -0.076291 -0.093202 -0.17149 0.085148 -0.038776 -0.170445 -0.100314
0.0 0.0 0.0 0.0 0.0 0.0 0.0 0.0 0.0 0.0 0.0 0.0 0.0 0.0 0.0 0.0 0.0 0.0 0.0 0.0 0.0 0.0 0.0 0.0 0.0 0.0 0.0 0.0 0.0 0.0 0.0 0.0 0.0 0.0 0.0 0.0 0.0 0.0 0.0 0.0 0.0 0.0 0.0 0.0 0.0 0.0 0.0 0.0 0.0 0.0 0.0 0.0 0.0 0.0 0.0 0.0 0.0 0.0 0.0 0.0 0.0 0.0 0.0 0.0 0.0 0.0 0.0 0.0 0.0 0.0 0.0 0.0 0.0 0.0 0.0 0.0 0.0 0.0 0.0 0.0 0.0 0.0 0.0 0.0 0.0 0.0 0.0 0.0 0.0 0.0 0.0 0.0 0.0 0.0 0.0 0.0 0.0 0.0 0.0 0.0
-0.18255 1.260997 -2.937011 0.741657 0.301679 0.127472 -1.176587 -0.021752 -0.742262 0.233798 0.429781 0.975995 -2.798835 -0.781561 1.800542 0.765993 -3.833084 -2.428071 0.125751 -1.292969 -1.471998 -2.224791 0.887228 -1.830926 -0.837093 -2.394116 -1.028549 0.925758 -1.10665 0.315067 -1.693757 -2.444497 -0.471722 0.598476 -1.04198 0.63184 3.217104 -2.250083 3.737814 -1.932973 0.831435 0.463103 0.949557 -0.956962 -0.488984 1.741216 -3.862303 -0.431256 2.7532 -0.958319 1.58654 -0.182633 -0.680963 2.230035 -1.865555 0.565095 0.376398 0.346151 -0.855264 -2.866216 -1.228112 1.069066 1.567339 0.020816 1.000839 -0.97259 1.037177 -0.604886 1.044482 0.383741 2.476696 0.014949 -2.869114 -1.993708 -1.370498 -1.618366 1.959962 0.624031 -2.814246 -1.413119 2.512324 -0.979847 -1.204673 1.534497 0.90827 0.682642 1.511776 0.258177 -0.760564 0.513091 3.074975 -1.611095 -0.088312 -0.38557 -0.714002 -0.178161 1.209946 -0.16744 0.076855 4.005261
-0.002881 -0.212725 0.055 0.03938 0.019411 0.004379 -0.153715 -0.063061 -0.034585 -0.133832 0.098343 0.11924 -0.090656 -0.011681 -0.034239 0.182098 -0.128273 0.107271 0.0928 0.029879 -0.124943 0.094096 0.252623 0.03585 -0.102942 -0.146062 -0.058523 0.073006 0.260082 -0.181418 0.030339 -0.032625 -0.191712 0.048507 -0.204241 -0.167863 -0.02443 0.0689 0.144335 0.06725 -0.068866 -0.014821 -0.024964 -0.003691 -0.090472 -0.054228 -0.023012 -0.130143 -0.115993 0.099615 0.049697 -0.107102 -0.121198 -0.168261 0.059138 -0.131467 0.057014 -0.088353 0.065103 0.118594 0.001005 -0.018703 -0.095887 -0.395247 -0.134634 -0.07493 0.029887 0.007397 0.021202 0.040519 0.145398 -0.023117 -0.010855 -0.102801 0.145994 -0.103298 -0.052892 0.050904 -0.143789 -0.033344 -0.169643 0.018402 -0.018267 -0.161238 -0.065375 -0.019086 -0.101153 0.10378 0.104127 0.013094 -0.045967 0.054758 -0.150995 0.076506 0.064548 0.017641 -0.020439 -0.152494 0.050792 0.066425
0.133658 0.009986 0.138952 -0.095045 -0.150601 0.033429 -0.157539 0.119307 -0.14746 -0.174664 0.05436 -0.064403 -0.251236 -0.01319 0.231859 0.256623 0.059431 0.043622 0.189471 0.107568 -9.43E-4 0.118534 0.178217 0.134863 -0.240821 -0.108322 -0.030546 -0.031988 0.28019 -0.204743 -0.015384 -0.023617 0.100566 0.067937 -0.017835 -0.045019 -0.015679 -0.052514 0.076652 0.140144 -0.013811 -0.128432 -0.008102 0.128145 0.067734 0.098241 -0.04858 -0.03594 -0.15693 -0.083071 -0.066534 -0.344305 -0.14579 0.128798 0.113175 0.11337 -0.069072 0.012222 -0.017767 -0.111976 -0.136179 -0.160598 -0.252375 -0.269066 -0.112411 -0.104676 -0.125442 -0.202172 -0.031036 0.060726 -0.154076 0.055114 -0.110781 -0.067322 0.019866 -0.053324 0.138083 -0.006563 -0.125187 -0.004538 0.005156 -0.049674 0.065453 -0.297967 -0.067816 0.207561 -0.017369 -0.090657 -4.77E-4 0.201038 -0.180319 -0.095071 -0.090069 0.025703 0.007828 -0.027208 -0.029666 -0.24264 0.016459 0.091212
0.047836 -0.260219 0.14638 0.007779 -0.104955 -0.050724 -0.319432 -0.027407 -0.104778 0.124311 0.14477 0.148278 -0.013076 -0.069917 0.254554 0.25292 0.091697 0.206138 0.168034 0.12307 -0.258927 -0.00695 0.102032 0.075771 -0.201948 -0.129118 -0.138297 -0.097396 0.264104 -0.141635 -0.00303 -0.004618 -0.171331 0.006413 -0.129962 -0.058793 -0.107657 -0.040955 0.117533 0.181708 -0.064138 0.225566 -0.062915 -0.035464 0.269723 -0.089994 -0.005719 -0.078063 -0.215832 0.079343 0.266575 -0.25419 -0.128297 0.038341 0.119308 -0.207662 -0.029523 0.019236 0.024436 -0.109361 0.007955 -0.078744 0.071111 -0.325345 -0.091151 0.006054 0.103893 0.156867 0.20827 -0.195221 -0.011492 -0.084134 -0.077224 -0.110934 0.098004 -0.068865 -0.108344 -0.153112 -0.094614 -0.187216 -0.01459 0.218526 0.241999 -0.141711 0.084584 0.252269 0.155438 -0.088298 0.260633 0.198838 -0.176457 -0.052125 -0.045839 0.131111 -0.115358 -0.197565 0.088973 -0.089591 0.060949 -0.086675
0.028566 0.135166 0.096699 0.105631 0.036535 -0.143409 0.086774 0.050924 0.108259 0.038707 0.117569 0.277209 0.088768 0.147454 0.049805 0.209769 -0.140023 -0.044747 -0.020261 -0.095157 -0.074908 0.102905 -0.115126 -0.068426 -0.035475 -0.030235 0.033792 0.211817 0.155358 -0.029238 -0.010171 0.055346 0.068868 0.040866 0.062192 -0.061423 0.004606 -0.055839 -0.122253 0.018865 -0.086782 0.075329 -0.011442 0.05577 -0.021768 0.044243 0.281932 -0.256007 -0.140494 0.150427 0.058319 -0.089054 0.082799 -0.168304 0.13356 -0.027805 -0.071835 -0.091562 -0.174502 6.17E-4 0.007892 -0.017618 -0.104252 0.034519 0.092304 -0.251686 -0.163454 -0.087788 -0.003563 -0.032691 -0.144932 0.063617 -0.009836 -0.079796 0.008017 0.176916 -0.038438 -6.72E-4 -0.038006 -0.181938 0.179608 0.090493 -0.040085 0.056412 0.111268 -0.150258 -0.01833 0.036197 0.285553 0.145815 0.031913 0.030398 0.078263 0.123398 -7.05E-4 -0.102937 0.152214 0.03334 0.09407 -0.022901
0.684936 -2.1856 -0.824649 1.244749 -0.646566 -0.556593 -1.262686 2.493391 -0.866603 -1.146711 2.541341 -0.370743 -1.958422 1.548068 0.862615 1.77045 1.830344 -1.236237 -0.981684 0.151711 -0.382918 2.275589 1.620384 -2.114498 -1.732978 1.321279 2.230278 1.205863 1.525836 -2.36949 -0.477696 1.002724 0.415032 -0.867438 -1.560706 -0.764957 -1.035982 1.274828 -1.851611 -0.813945 -1.131187 -3.657016 2.411087 2.561703 1.284969 -0.2417 -1.892795 -0.687561 1.392693 -0.961421 0.817445 0.037952 -1.708294 2.120568 2.265449 1.515873 -0.541916 1.068563 -0.029215 -1.295736 -0.009591 1.484938 -0.457017 0.623852 -1.168609 -1.706258 -1.55337 -1.085311 0.910306 0.782966 0.978573 -2.170961 -0.460096 0.706809 2.13064 0.597054 -0.314014 -0.12677 1.075034 -1.155859 -0.041032 -1.747855 0.990436 -2.234108 -2.841765 -0.611618 0.518774 0.915543 -1.411623 2.294441 -1.303616 1.405059 -1.3072 -0.693918 1.754309 0.580663 -3.582149 -0.452321 -2.475698 0.705222
0.352905 0.550922 -1.128945 -0.511125 0.774489 1.405335 -0.371647 0.106012 -0.779785 -0.640302 -0.68578 1.570717 -0.712288 -0.706705 -0.789609 -0.045278 -1.599722 -2.840112 -0.089543 -1.158838 -1.862605 -0.62748 -0.063542 -0.468696 0.750564 0.033551 -0.772222 -0.188991 -0.163115 0.455978 0.038455 -0.779588 0.172303 -1.114448 -0.548246 -0.008155 1.66721 -0.744821 -0.15746 -2.668482 -0.304702 -0.905716 0.479063 0.151803 -0.94063 -0.044338 -0.906122 -0.456182 0.281891 0.268287 0.47007 0.628019 0.328428 1.471286 -2.345457 0.072073 -0.345477 -0.998199 -1.496897 -0.053061 0.351206 -0.934426 0.295591 0.07336 0.24092 0.486976 0.390085 -0.621556 0.375246 -0.02625 1.957847 1.014101 0.004675 0.08874 -0.900479 -0.462149 0.922254 1.355385 -1.048724 0.105897 1.254466 0.410718 0.321258 1.066395 -0.171761 -0.128774 0.315556 0.697301 -0.180925 0.555334 1.005586 -0.891677 -1.232923 -1.994189 -0.567812 0.204184 -0.947385 -0.051526 -0.987029 0.725141
-0.152449 -0.044303 0.008826 0.158231 0.054784 -0.036343 -0.04934 0.02653 0.052842 -0.009865 0.24279 0.043984 0.050227 -0.12401 -0.04568 0.1744 0.06174 0.143513 0.124166 0.081341 -0.118358 0.074778 -0.083218 -0.139702 -0.194108 -0.183182 -0.029806 0.115596 0.14669 -0.057589 0.003081 -0.107015 -0.218733 0.129099 -0.082711 -0.105818 -0.007266 -0.12266 0.094661 0.107609 -6.14E-4 0.271384 -0.080543 0.138642 -7.32E-4 -0.218865 0.40649 -0.059435 -0.193473 0.033391 0.087914 0.012542 0.041858 0.072755 0.08538 -0.164615 0.060684 0.077212 0.228896 -0.149699 -0.035172 -0.051076 0.093572 -0.128543 -0.134114 0.08237 0.176945 -0.041402 -0.161911 -0.030749 0.08254 -0.088522 -0.191078 -0.044383 0.052967 -0.071657 -0.164673 -0.018605 -0.023125 0.250893 -0.00246 0.057478 -0.181426 -0.265875 0.077014 -0.079216 -0.05958 0.010698 0.257328 -0.041753 0.09074 -0.058726 -0.06347 0.124453 -0.031708 -0.047602 -0.006024 -0.158663 -0.001218 -0.029646
-2.648351 -0.794316 -2.108887 0.20446 0.883061 0.242784 1.848653 1.149137 -4.975573 0.237654 -1.499665 2.924494 0.344217 -1.640431 0.763777 0.138944 -3.029439 -2.813434 -0.761102 -1.057557 -1.373735 -0.870599 1.234095 0.127805 -1.372618 1.35802 -1.501738 0.80945 0.172993 -0.484995 1.783363 -0.047587 0.483285 -1.526831 2.103549 2.116639 4.583491 -4.022388 -0.843817 0.361243 -0.546655 -2.301259 -2.000973 2.64631 -1.604053 -1.914206 -1.581895 -0.464185 1.757769 1.056301 0.263866 -0.904419 -0.422466 0.007824 -1.651553 0.7499 1.638666 -0.336108 -3.288466 -2.953238 -1.135414 1.165223 -1.047256 -0.821696 -0.135806 0.434207 -2.389307 -3.56953 -0.656773 0.578325 3.337902 0.782195 -1.250815 2.925509 -1.981492 0.121786 0.836257 1.710923 -2.640405 -0.628995 0.247469 0.863847 1.749171 -0.214156 -0.274807 2.192709 -0.892334 -1.614644 -1.225919 -0.042182 2.51632 3.464583 -3.591523 -2.506587 0.990426 1.8843 -2.460629 0.953462 0.359605 2.267383
0.0361 -0.041609 0.131603 0.160194 -0.062165 -0.12035 -0.019732 0.006327 -0.012516 0.023983 0.146125 -0.121981 -0.063858 -0.129441 -0.098943 0.102309 -0.088961 0.004295 -0.096014 -0.168207 -0.055945 -0.045285 -0.04834 -0.059673 -0.031826 -0.089745 0.095309 -0.088023 -0.012264 -0.05963 0.104168 0.059836 0.018448 0.079215 -0.173284 0.031407 0.145245 -0.041457 0.062542 -0.123895 -0.085023 0.010805 0.068337 -0.012408 -0.090879 -0.046748 -0.101635 0.036582 -0.080812 0.054334 0.21797 -0.02928 0.075223 0.019711 -0.057769 0.148668 -0.118583 0.060051 0.013215 0.001919 -0.201376 -0.165276 0.007101 -0.018542 0.006032 0.035066 -0.143084 0.036431 0.150889 0.048935 -0.066517 0.05333 0.067897 0.051319 0.18683 -0.210924 0.104288 -0.04163 0.041277 0.045368 -0.127638 -0.051086 -0.078414 0.08392 -0.306347 0.13187 -0.081335 0.049766 -0.067945 0.169267 -0.027961 7.35E-4 0.086719 -0.117052 0.066157 0.173111 -0.067411 0.015635 -0.129694 0.011732
-0.024322 -0.303699 6.57E-4 0.124013 0.096642 0.042796 0.078399 -0.043308 -0.039367 -0.030939 0.02516 -0.029414 -0.115077 -0.307309 0.071962 0.11219 -0.082688 -0.069067 0.068999 0.016192 -0.028041 0.198763 -0.032337 -0.011087 0.091512 -0.048044 -0.113547 0.011122 -0.004473 -0.060547 -0.104108 -0.030799 -0.092209 0.08433 -0.070757 -0.066028 0.039562 -0.090053 0.080573 -0.071696 -0.060823 -0.075948 0.110598 0.160809 0.022521 -0.159859 -0.015239 0.115199 -0.12507 -0.04408 -0.085618 0.011849 -0.15078 -0.064003 -0.050593 0.048569 0.072066 -0.039631 0.166476 0.071693 0.031732 0.025521 -0.155724 0.012469 0.070119 0.15155 0.003252 -0.071969 0.157402 -0.06635 -0.072398 0.026004 -0.136485 0.076075 0.056589 -0.064894 -0.249087 0.124056 0.065084 -0.085369 0.043376 -0.165438 -0.007667 0.039438 -0.106483 0.116727 -0.184719 -0.086273 0.029854 -0.045885 0.074966 -0.040103 0.001017 -0.194468 0.035261 -0.224162 0.096102 -0.025166 -0.050546 -0.067245
0.032396 -0.153017 0.013261 0.047099 -0.16096 -0.002847 -0.14501 0.068005 -0.149359 0.076423 0.087914 0.08774 -0.052729 0.078781 0.117473 0.074295 0.151985 0.072683 0.119518 0.122415 -0.135198 0.247231 0.180758 0.015866 -0.113795 -0.127057 -0.071395 0.168229 0.095199 -0.336627 -0.153192 -0.143154 -0.026817 0.033279 -0.138762 -0.11222 0.10966 -0.08999 0.082217 0.118244 -0.209306 -0.145128 0.075727 0.090038 -0.029107 0.029357 -0.046449 0.077719 -0.03284 -0.077257 -0.012984 -0.045672 -0.116 -0.276832 0.093682 -0.058702 0.12833 -0.142148 0.008875 0.083015 -0.016207 -0.124211 -0.089497 -0.070414 -0.053119 -0.049462 -0.046969 0.093573 -0.213675 0.119268 -0.018275 3.93E-4 0.116123 -0.134844 0.078802 -0.103423 -0.118698 -0.023437 0.037259 0.011934 0.026229 -0.010741 0.123861 -0.243128 -0.03501 -0.001409 -0.172359 -0.035735 0.189753 0.012574 -0.164292 0.135864 0.031712 0.210915 -0.032895 0.034045 -0.017284 -0.092774 0.076027 0.134429
-0.06675 -0.143392 0.147022 0.131797 -0.201094 0.041531 0.013612 -0.144758 0.036223 -0.044083 -0.008035 0.140126 -0.062076 0.010561 0.212689 0.150845 0.035666 0.131041 -0.033722 -0.088603 -0.187201 0.138265 0.417791 0.104076 -0.222771 0.005567 0.04475 0.075967 0.226025 -0.197398 -0.088961 -0.192846 0.0805 0.049462 -0.045417 -0.030686 -0.006622 -0.058118 -0.016524 0.067726 0.078763 0.006697 0.111742 -0.177687 -0.032966 -0.127396 -0.148758 -0.137248 -0.185302 0.028087 -0.096791 -0.008902 0.034521 0.099792 0.170422 0.036938 0.016948 -0.226897 -0.020086 0.029181 -0.007432 -0.02347 -0.09456 -0.102955 -0.064027 -0.291047 0.037351 0.016123 0.206862 -0.087322 0.094704 -0.054388 -0.045054 -0.01621 0.001764 -0.015056 -0.066216 -0.082793 -0.077487 0.119749 -7.97E-4 0.021772 0.170011 -0.240651 0.127559 0.034581 -0.11934 -0.044625 0.190032 0.069864 -0.156275 0.28794 -0.099497 0.275102 -0.124416 -0.074913 -0.082467 0.106271 -0.05499 -0.098364
