-0.843668 -1.291814 -0.009021 -2.124645 -2.662001 -0.452484 -1.479559 1.090592 0.690452 -0.011055 0.002207 -0.441335 -0.664756 2.145962 0.896275 0.283673 0.113 -0.188106 -0.866623 -0.047454 1.07683 1.11292 -0.091254 1.096833 -0.436226 -0.751252 1.834405 -0.466282 -2.2976 -0.54188 0.107931 0.673767 -1.390432 -2.200489 -1.057618 -1.145162 -0.4361 -1.61461 0.070524 -0.162344 2.033243 -2.169993 -2.776667 0.980296 1.886601 -0.816108 1.368617 0.772404 0.892721 -0.78333 -1.016953 -1.907206 -0.815936 3.066322 -1.482261 1.461964 1.515153 -0.193991 -1.014373 -0.177801 1.153119 -0.065995 -1.088878 -1.157028 -0.991687 -0.557669 -0.031412 0.385964 0.177011 -0.200681 -0.18008 -0.958533 -0.688018 -0.28202 0.309336 -0.182646 -3.397702 -0.774017 1.906898 0.755612 -1.491732 -0.274225 1.862775 -2.96857 -1.394698 0.243469 1.114415 -0.902559 0.156037 0.014937 -0.827298 2.034754 -0.107463 -1.478413 0.232942 -0.613244 0.044688 0.74417 0.246182 0.34583
-0.083823 -0.165045 -0.012782 0.008489 0.030191 -0.007215 -0.187155 -0.025589 -0.120884 0.154078 0.235347 0.131401 0.021309 -0.15207 -0.086784 0.196181 0.092573 0.125789 0.229329 0.219178 0.169897 0.140626 0.06814 -0.048396 0.00421 -0.370539 0.122221 -0.163118 -0.037866 -0.040068 -0.194131 0.041946 -0.030064 0.040519 -0.154073 -0.068705 -0.154757 0.256816 -0.01708 -0.093676 0.008993 0.443929 0.008666 0.012388 0.056564 -0.115613 0.027442 -0.034646 -0.161803 -0.032112 -0.0266 -0.188564 0.129639 0.165411 0.158626 -0.010431 0.28268 0.080381 -0.026544 -0.069151 0.115069 -0.161017 -0.034051 -0.002306 -0.042446 -0.045717 0.126797 -0.097134 -0.003817 -0.157153 0.058017 -0.181377 -0.101897 0.04078 -0.081514 -0.137046 0.06527 -0.11204 -0.008583 0.01426 -0.172564 0.144057 -0.01154 0.121032 0.101343 -0.205693 0.118992 -0.22536 0.139395 0.074098 0.045004 0.110079 -0.183831 0.059954 -0.157712 -0.085933 0.350541 0.090902 -0.215095 -0.156024
0.031527 -0.112428 0.003849 -0.006694 -0.133716 -0.094137 -0.133856 0.076033 -0.134094 0.020447 0.180045 -0.008691 0.02393 -0.04192 0.151126 0.03119 -0.12957 0.085163 0.10968 -0.012125 -0.12243 0.082091 0.171614 -0.090643 -0.217105 -0.08942 -0.056535 0.130559 0.063384 -0.011143 0.075972 0.091286 -0.120708 0.10879 -0.144138 -0.080092 0.068619 -0.104325 0.053319 -0.036602 -0.13098 -0.126041 0.056674 0.098666 0.016531 0.04086 -0.001545 0.019159 -0.075018 -0.143838 -0.011435 -0.138275 0.120575 -0.030305 -0.039214 -0.213165 0.117079 0.181839 -0.015824 -0.120976 0.020348 0.040265 -0.247831 -0.016105 -0.021426 0.081026 -0.064019 -0.074052 -0.030658 0.097609 -0.072729 -0.045499 0.117865 0.023705 -0.077755 -0.07818 -0.026196 -0.058708 -0.005459 -0.158063 -0.078564 -0.180911 -0.137997 -0.116423 0.015313 0.007515 0.064959 0.050702 0.270713 -0.057066 0.023661 -0.091294 -0.044681 -0.032531 -0.214279 -0.109218 -0.025108 0.059735 -0.085432 0.066374
-0.127289 -0.033535 -0.002654 0.021356 0.003834 -0.072479 0.040649 -0.10071 -0.035915 -0.016152 0.052938 0.203389 -0.006705 0.088955 0.019089 0.19442 0.022009 0.125704 0.062436 0.048246 0.024704 -0.036144 0.251523 0.085013 -0.238506 -0.169494 -0.007207 0.08153 0.313826 -0.245214 0.024599 0.018135 -0.049687 0.07095 -0.036985 -0.048098 0.217191 0.015423 0.059857 0.065984 -6.99E-4 -0.162974 0.03122 0.153743 -0.105147 -0.032629 -0.005784 -0.009523 -0.031866 0.017145 0.100365 -0.099224 0.0071 0.080369 0.115431 -0.088047 -0.206371 -0.076003 0.038441 -0.233953 -0.030688 -0.101956 0.050931 -0.034584 -0.04582 -0.035907 -0.053458 -0.052091 0.005392 -0.036388 -0.038292 -0.147517 0.083808 0.031172 0.08733 0.00766 -0.045876 -0.203356 -0.172851 -0.11001 0.097199 0.066178 0.163895 0.092716 -0.091375 0.111047 0.088126 0.067545 7.7E-4 0.064595 -0.108282 -0.015357 -0.117401 0.107263 -0.065776 -0.074334 -0.002595 -0.082235 -0.016136 0.039314
0.0 0.0 0.0 0.0 0.0 0.0 0.0 0.0 0.0 0.0 0.0 0.0 0.0 0.0 0.0 0.0 0.0 0.0 0.0 0.0 0.0 0.0 0.0 0.0 0.0 0.0 0.0 0.0 0.0 0.0 0.0 0.0 0.0 0.0 0.0 0.0 0.0 0.0 0.0 0.0 0.0 0.0 0.0 0.0 0.0 0.0 0.0 0.0 0.0 0.0 0.0 0.0 0.0 0.0 0.0 0.0 0.0 0.0 0.0 0.0 0.0 0.0 0.0 0.0 0.0 0.0 0.0 0.0 0.0 0.0 0.0 0.0 0.0 0.0 0.0 0.0 0.0 0.0 0.0 0.0 0.0 0.0 0.0 0.0 0.0 0.0 0.0 0.0 0.0 0.0 0.0 0.0 0.0 0.0 0.0 0.0 0.0 0.0 0.0 0.0
0.123314 0.024232 0.067758 -0.019176 0.04035 0.102721 0.022867 0.004876 -0.130388 -0.025998 -0.111174 -0.099004 0.08676 0.050864 -0.09914 -0.024014 -0.171609 -0.023554 -0.121212 -0.180475 0.179989 0.036153 -0.154862 -0.046345 0.094379 -0.14447 -0.041587 -0.048431 -0.136792 0.120946 0.186365 -0.07131 -0.07154 -0.104935 0.223496 -0.046738 -0.060067 -0.130754 -0.062099 -0.018454 0.144663 0.005022 0.142013 0.055336 -0.079464 0.134955 -0.01171 0.012333 -0.042385 0.102204 0.067493 0.045559 0.08181 -0.037308 -0.105499 0.04795 0.127704 0.287375 0.072091 0.04644 0.063593 0.228401 -0.07889 -0.03959 0.122115 0.054482 0.084107 0.013265 0.011559 -0.014696 0.109437 0.025601 -0.204002 0.310683 0.003437 0.019704 0.139319 0.086808 -0.081497 -0.018019 -0.014725 -0.169411 -0.017058 0.108817 -0.009525 -0.201578 -0.092985 0.072472 0.005488 0.045185 0.12776 0.042456 -0.19091 0.059921 -0.111423 0.013748 -0.096482 0.111096 0.034894 -0.026429
0.0 0.0 0.0 0.0 0.0 0.0 0.0 0.0 0.0 0.0 0.0 0.0 0.0 0.0 0.0 0.0 0.0 0.0 0.0 0.0 0.0 0.0 0.0 0.0 0.0 0.0 0.0 0.0 0.0 0.0 0.0 0.0 0.0 0.0 0.0 0.0 0.0 0.0 0.0 0.0 0.0 0.0 0.0 0.0 0.0 0.0 0.0 0.0 0.0 0.0 0.0 0.0 0.0 0.0 0.0 0.0 0.0 0.0 0.0 0.0 0.0 0.0 0.0 0.0 0.0 0.0 0.0 0.0 0.0 0.0 0.0 0.0 0.0 0.0 0.0 0.0 0.0 0.0 0.0 0.0 0.0 0.0 0.0 0.0 0.0 0.0 0.0 0.0 0.0 0.0 0.0 0.0 0.0 0.0 0.0 0.0 0.0 0.0 0.0 0.0
0.100195 -0.080192 0.098636 -0.002196 0.010816 -0.057799 -0.189106 0.035665 -0.158401 0.017096 0.057723 -0.073496 -0.154333 -0.058186 0.055717 0.179485 -0.09119 0.047592 -1.1E-5 -0.036447 0.069542 -0.026364 0.113772 0.231986 -0.134337 -0.215597 0.010651 -0.012594 -0.064549 -0.007239 -0.011789 -0.096077 0.077943 -0.071619 -8.0E-5 -0.047155 0.073651 0.037863 -0.040627 0.055824 0.044377 0.007974 0.031266 0.114302 -0.02862 -0.031345 -0.079388 -0.051952 -0.221712 0.085653 0.037433 -0.19096 0.086855 -0.018699 -0.0544 0.140116 -0.057536 -0.02972 0.014695 -0.057303 -0.13393 -0.114809 -0.125779 -0.174829 0.064946 0.061459 0.014127 -0.050541 0.147494 -0.078643 -0.089289 0.069975 -0.046343 0.105745 0.018637 0.028574 -0.076456 -0.003611 -0.026723 -0.119504 0.041653 -0.081001 0.007688 -0.065893 0.117237 -0.046508 -0.04831 0.071317 0.133236 0.021252 0.027556 0.093483 -0.054558 0.072389 -0.048773 -0.055195 -0.030206 -0.077247 -0.105549 -0.120534
-0.020892 -0.118995 0.162166 0.122723 0.280551 0.110134 -0.170222 -0.094985 0.022663 -0.096152 0.256238 -0.100829 -0.080812 0.117885 0.071203 0.073747 -0.283052 -0.00865 0.053285 -0.06135 -0.20049 0.113432 0.184392 0.098893 -0.302982 -0.092137 -0.052162 -0.023556 0.127995 -0.164167 -0.093513 -0.20606 -0.112134 0.15593 -0.102057 -0.290756 0.094313 -0.190004 0.126246 0.124971 -0.067207 -0.022883 0.192596 -0.017167 -0.098132 -0.002793 0.073871 0.015025 0.144251 0.159564 0.152852 0.142563 -0.127496 0.218968 -0.01863 0.108195 -0.06489 0.056022 0.330959 -0.233376 0.163535 0.057803 -0.20535 -0.22593 -0.210829 0.059133 0.062431 -0.070913 -0.219805 -0.068653 -0.086861 0.008006 0.08474 0.025432 0.120814 0.095618 -0.093603 0.083745 -0.08213 -0.029395 0.019301 0.048208 -0.091801 -0.138467 0.030923 0.071388 -0.098868 0.17327 0.148358 0.232573 -0.143218 -0.030999 -0.127425 0.038931 -0.186786 -0.121369 0.048425 -0.0115 -0.055581 -0.050098
1.155368 3.302179 -0.818617 0.201583 -0.372035 -0.220049 -2.421694 1.24088 1.022918 0.281963 -0.56672 0.218504 -2.654141 0.687099 1.426786 -2.744465 -2.044989 -0.49789 -1.769702 -2.328375 -1.105508 0.104665 -0.061522 -2.669585 1.369504 1.778184 -0.869744 -1.441309 0.051265 1.116249 1.903031 -0.163683 1.731475 -0.652558 -1.459245 -0.212579 0.382415 1.861636 -0.394668 -0.423196 -0.983827 -1.176007 1.844253 0.853456 0.976233 -0.076248 -1.490589 -0.553926 0.506191 0.326236 0.251095 1.038919 -0.803142 0.658979 -3.236482 -1.07965 1.27678 -0.350029 -1.778651 0.292774 0.002745 0.267431 1.072933 -0.321661 -1.19536 -1.465055 -2.523761 -3.574044 -0.123843 -0.515256 3.2036 -0.08683 1.099575 -0.639959 -1.310584 0.629968 -0.142079 0.66081 -1.289981 -0.152693 -0.105374 0.388507 -1.068849 2.207516 -1.516502 0.618648 0.057959 1.61471 0.888036 -0.337188 -0.73306 -0.809614 -1.409634 -0.094797 -0.938314 1.210802 1.47048 2.210952 -1.933366 0.819087
-0.055117 -0.111846 0.234831 0.226258 -0.181623 0.053392 0.020148 -0.012418 -0.061638 -0.045422 -0.1044 0.134619 0.050099 0.029457 0.036951 0.072458 0.119944 0.152803 -0.079983 -0.025915 -0.137722 0.100769 0.111764 -0.046841 -0.01821 -0.140028 -0.042581 0.059696 -0.016329 -0.139456 -0.162912 -0.021388 -0.068227 -0.035799 -0.160737 -0.129431 -0.090847 0.205701 0.128188 -0.196167 -0.054531 0.030872 0.070571 -0.03469 0.03892 -0.085901 -0.030089 -0.090293 0.086974 0.008383 -0.106008 -0.190624 0.11807 -0.108653 -0.190858 -0.236882 -0.131992 -0.0064 0.216252 -0.033027 -0.073734 -0.005207 0.056485 -0.344828 -0.113025 -0.231819 0.08554 0.253194 0.129127 0.057442 0.181713 0.058613 -4.96E-4 0.125319 -0.069341 -0.340744 -0.001687 0.138247 0.006026 -0.009997 0.143713 0.40349 0.153493 -0.159243 -0.007911 0.049956 -0.154303 0.021663 0.089791 0.195836 -0.01718 0.040345 -0.061375 0.238807 0.081671 -0.113927 -0.113889 0.052653 0.119044 -0.097643
-0.111962 -0.142046 0.14832 -0.04155 -0.131381 0.132103 0.052344 0.058809 0.075491 0.135687 0.26577 0.078364 0.012133 0.18955 0.056271 0.003616 0.078386 0.179922 0.043185 -0.052023 -0.174368 0.177361 0.25506 0.178413 -0.105803 0.025712 -0.116732 -0.054443 0.176184 -0.187858 0.123633 -0.129056 -0.098478 -0.079453 -0.171709 0.195528 -0.085588 0.041425 -0.18975 -0.216232 0.02346 -0.028904 0.008956 -0.097678 -0.006027 0.027155 -0.04765 -0.107571 -0.001368 0.058537 0.07012 0.169559 -0.166234 0.070463 0.135961 0.208091 4.05E-4 0.028359 0.01578 -0.065464 0.148109 -0.105272 0.046493 0.136442 0.07603 -0.013461 0.095132 0.093735 0.133836 -0.18186 -0.013227 0.303637 -0.032469 -0.248384 -0.120875 0.13634 -0.050728 -0.032498 0.108748 0.159837 -0.021691 -0.104113 0.245351 -0.016139 -0.059983 -0.177985 -0.011354 0.122162 0.085281 0.164647 -0.358864 -0.0927 -0.075221 0.151504 0.096519 -0.123882 0.143564 -0.061759 -0.008435 0.054149
-2.648351 -0.794316 -2.108887 0.20446 0.883061 0.242784 1.848653 1.149137 -4.975573 0.237654 -1.499665 2.924494 0.344217 -1.640431 0.763777 0.138944 -3.029439 -2.813434 -0.761102 -1.057557 -1.373735 -0.870599 1.234095 0.127805 -1.372618 1.35802 -1.501738 0.80945 0.172993 -0.484995 1.783363 -0.047587 0.483285 -1.526831 2.103549 2.116639 4.583491 -4.022388 -0.843817 0.361243 -0.546655 -2.301259 -2.000973 2.64631 -1.604053 -1.914206 -1.581895 -0.464185 1.757769 1.056301 0.263866 -0.904419 -0.422466 0.007824 -1.651553 0.7499 1.638666 -0.336108 -3.288466 -2.953238 -1.135414 1.165223 -1.047256 -0.821696 -0.135806 0.434207 -2.389307 -3.56953 -0.656773 0.578325 3.337902 0.782195 -1.250815 2.925509 -1.981492 0.121786 0.836257 1.710923 -2.640405 -0.628995 0.247469 0.863847 1.749171 -0.214156 -0.274807 2.192709 -0.892334 -1.614644 -1.225919 -0.042182 2.51632 3.464583 -3.591523 -2.506587 0.990426 1.8843 -2.460629 0.953462 0.359605 2.267383
-0.196378 -0.124527 0.075469 -0.005025 -0.201426 -0.033078 -0.005151 -0.025823 -0.134686 0.148143 0.009639 0.052167 -0.181159 -0.120047 -0.043782 0.215523 0.023422 0.291186 0.18364 -0.016074 -0.110889 0.315667 -0.024953 0.094077 -0.232807 -0.158684 0.073606 -0.039688 0.17275 -0.07609 -0.129752 0.104054 0.052472 -0.125417 -0.222996 -0.073411 0.045401 8.28E-4 0.130327 -0.153925 -0.023576 0.072946 0.074527 0.015025 0.224417 -0.115425 0.036671 0.02152 0.076359 0.098168 0.11409 -0.150787 0.028894 0.203084 0.019812 -0.037701 4.85E-4 -0.055753 0.178202 -0.166369 -0.006046 0.239265 0.052687 -0.173221 -0.110179 -0.039989 -0.028546 0.02066 -0.059348 -0.077794 -0.211972 -0.078481 -0.071585 0.013738 0.059958 -0.205221 0.036796 0.105951 -0.113863 0.161719 0.010698 0.455828 0.098652 0.006509 -0.06508 -0.074358 -0.049288 -0.011355 0.08401 0.056766 -0.069512 -0.039128 -0.078748 0.028244 0.042451 -0.237782 -0.091966 -0.129073 -0.016123 -0.184537
-0.034355 -0.032624 0.199767 0.005333 -0.017739 0.056352 0.029424 -0.030199 0.021501 -0.058459 0.007633 0.035986 -0.019477 -0.066338 0.122967 0.109226 0.019004 0.106931 -0.021536 0.088322 -0.146882 0.060271 -0.048463 0.045495 -0.071025 -0.098507 0.019002 0.035445 0.148947 -0.236889 0.031148 -0.108787 -0.034147 -0.086219 0.067012 -0.055364 0.080612 -0.007981 -0.045472 0.064676 -0.109496 0.060769 0.041785 -0.009122 0.044502 -0.088972 0.049544 0.038709 -0.028194 -0.033044 0.020137 -0.100587 0.087732 0.023429 0.131458 -0.257082 -0.013136 -0.208503 0.050067 -0.141838 0.147681 -0.008098 -0.012417 -0.073334 -0.157796 -0.104002 0.021573 -0.049296 -0.140103 -0.104901 -0.037706 0.087579 -0.036719 0.004416 0.079762 -0.175127 -0.116852 -9.54E-4 -0.001441 -0.018956 0.049765 -0.094634 -0.056623 -0.059285 0.103667 -0.086029 0.041032 -0.055263 0.035383 0.097164 -0.162184 0.094111 -0.037403 0.121801 -0.145614 -0.0602 0.033289 -0.037582 0.038226 -0.090747
0.062098 0.08763 0.051294 0.022802 0.075574 0.043302 -0.015178 0.003411 -0.033745 -0.041568 -0.047229 0.101845 -0.01256 -0.061591 0.021896 0.043728 -0.174868 0.05962 0.074023 0.118708 0.084009 0.080038 -0.025494 0.054901 0.047579 -0.002926 -0.020936 0.097978 0.016619 0.04729 -0.04665 -0.193161 -0.199604 0.085117 -0.151689 0.023993 0.025773 0.087716 0.029994 -0.065484 -2.7E-4 -0.054095 0.023356 0.029562 -0.037691 -0.035675 0.017255 0.150037 0.032713 -0.084817 0.119361 0.061548 -0.131074 -0.086167 -0.051781 -0.170707 -7.69E-4 -0.073988 0.084331 -0.04188 0.134442 -0.008156 0.006795 0.034622 -0.065651 -0.056781 -0.011303 0.02334 0.008505 0.163805 0.090244 0.070487 0.035154 0.007013 0.188806 0.089974 -0.234988 0.023557 -0.123577 -0.088407 0.013429 0.201356 -0.171596 0.00274 -0.248015 -0.156855 0.188284 -0.101998 0.006252 -0.09741 -0.051313 0.016936 -0.126348 0.199318 -0.064685 -0.217633 -0.013635 0.012666 0.077108 0.124351
0.016761 -0.116603 -0.128803 -0.085956 -0.331505 -0.005635 -0.24598 -0.189948 -0.156206 -0.002443 0.075572 -0.008364 -0.139675 0.126897 -0.004456 0.057895 -0.088723 0.174266 0.085188 -0.085007 -0.075556 0.123927 0.088185 0.026955 -0.130153 0.076374 0.0957 -0.25201 0.003484 -0.238015 -0.036255 0.039226 -0.015772 -0.079196 -0.335473 0.006978 0.172757 -0.121315 -0.06076 -0.098614 -0.100969 0.179943 -0.134157 -0.075677 0.053369 -0.162456 0.128946 0.087226 -0.11526 0.126585 0.04661 -0.14619 0.024327 0.220343 0.068667 -0.090185 0.082926 -0.065364 0.019387 0.003375 0.059688 0.017492 -0.074307 -0.126323 -0.142204 0.029827 -0.080282 -0.049183 0.133455 0.03925 0.081019 0.02228 -0.085705 0.010979 0.090813 -0.218384 -0.081749 0.05013 0.043586 0.112995 0.092207 0.051805 0.232937 0.013064 -0.138894 0.218488 0.139092 0.161748 0.127503 -0.165375 -0.172091 -0.015813 -0.013581 0.0414 -0.044944 -0.06549 -0.065871 -0.026492 -0.022413 -0.13116
-0.843668 -1.291814 -0.009021 -2.124645 -2.662001 -0.452484 -1.479559 1.090592 0.690452 -0.011055 0.002207 -0.441335 -0.664756 2.145962 0.896275 0.283673 0.113 -0.188106 -0.866623 -0.047454 1.07683 1.11292 -0.091254 1.096833 -0.436226 -0.751252 1.834405 -0.466282 -2.2976 -0.54188 0.107931 0.673767 -1.390432 -2.200489 -1.057618 -1.145162 -0.4361 -1.61461 0.070524 -0.162344 2.033243 -2.169993 -2.776667 0.980296 1.886601 -0.816108 1.368617 0.772404 0.892721 -0.78333 -1.016953 -1.907206 -0.815936 3.066322 -1.482261 1.461964 1.515153 -0.193991 -1.014373 -0.177801 1.153119 -0.065995 -1.088878 -1.157028 -0.991687 -0.557669 -0.031412 0.385964 0.177011 -0.200681 -0.18008 -0.958533 -0.688018 -0.28202 0.309336 -0.182646 -3.397702 -0.774017 1.906898 0.755612 -1.491732 -0.274225 1.862775 -2.96857 -1.394698 0.243469 1.114415 -0.902559 0.156037 0.014937 -0.827298 2.034754 -0.107463 -1.478413 0.232942 -0.613244 0.044688 0.74417 0.246182 0.34583
-0.083823 -0.165045 -0.012782 0.008489 0.030191 -0.007215 -0.187155 -0.025589 -0.120884 0.154078 0.235347 0.131401 0.021309 -0.15207 -0.086784 0.196181 0.092573 0.125789 0.229329 0.219178 0.169897 0.140626 0.06814 -0.048396 0.00421 -0.370539 0.122221 -0.163118 -0.037866 -0.040068 -0.194131 0.041946 -0.030064 0.040519 -0.154073 -0.068705 -0.154757 0.256816 -0.01708 -0.093676 0.008993 0.443929 0.008666 0.012388 0.056564 -0.115613 0.027442 -0.034646 -0.161803 -0.032112 -0.0266 -0.188564 0.129639 0.165411 0.158626 -0.010431 0.28268 0.080381 -0.026544 -0.069151 0.115069 -0.161017 -0.034051 -0.002306 -0.042446 -0.045717 0.126797 -0.097134 -0.003817 -0.157153 0.058017 -0.181377 -0.101897 0.04078 -0.081514 -0.137046 0.06527 -0.11204 -0.008583 0.01426 -0.172564 0.144057 -0.01154 0.121032 0.101343 -0.205693 0.118992 -0.22536 0.139395 0.074098 0.045004 0.110079 -0.183831 0.059954 -0.157712 -0.085933 0.350541 0.090902 -0.215095 -0.156024
0.031527 -0.112428 0.003849 -0.006694 -0.133716 -0.094137 -0.133856 0.076033 -0.134094 0.020447 0.180045 -0.008691 0.02393 -0.04192 0.151126 0.03119 -0.12957 0.085163 0.10968 -0.012125 -0.12243 0.082091 0.171614 -0.090643 -0.217105 -0.08942 -0.056535 0.130559 0.063384 -0.011143 0.075972 0.091286 -0.120708 0.10879 -0.144138 -0.080092 0.068619 -0.104325 0.053319 -0.036602 -0.13098 -0.126041 0.056674 0.098666 0.016531 0.04086 -0.001545 0.019159 -0.075018 -0.143838 -0.011435 -0.138275 0.120575 -0.030305 -0.039214 -0.213165 0.117079 0.181839 -0.015824 -0.120976 0.020348 0.040265 -0.247831 -0.016105 -0.021426 0.081026 -0.064019 -0.074052 -0.030658 0.097609 -0.072729 -0.045499 0.117865 0.023705 -0.077755 -0.07818 -0.026196 -0.058708 -0.005459 -0.158063 -0.078564 -0.180911 -0.137997 -0.116423 0.015313 0.007515 0.064959 0.050702 0.270713 -0.057066 0.023661 -0.091294 -0.044681 -0.032531 -0.214279 -0.109218 -0.025108 0.059735 -0.085432 0.066374
-0.127289 -0.033535 -0.002654 0.021356 0.003834 -0.072479 0.040649 -0.10071 -0.035915 -0.016152 0.052938 0.203389 -0.006705 0.088955 0.019089 0.19442 0.022009 0.125704 0.062436 0.048246 0.024704 -0.036144 0.251523 0.085013 -0.238506 -0.169494 -0.007207 0.08153 0.313826 -0.245214 0.024599 0.018135 -0.049687 0.07095 -0.036985 -0.048098 0.217191 0.015423 0.059857 0.065984 -6.99E-4 -0.162974 0.03122 0.153743 -0.105147 -0.032629 -0.005784 -0.009523 -0.031866 0.017145 0.100365 -0.099224 0.0071 0.080369 0.115431 -0.088047 -0.206371 -0.076003 0.038441 -0.233953 -0.030688 -0.101956 0.050931 -0.034584 -0.04582 -0.035907 -0.053458 -0.052091 0.005392 -0.036388 -0.038292 -0.147517 0.083808 0.031172 0.08733 0.00766 -0.045876 -0.203356 -0.172851 -0.11001 0.097199 0.066178 0.163895 0.092716 -0.091375 0.111047 0.088126 0.067545 7.7E-4 0.064595 -0.108282 -0.015357 -0.117401 0.107263 -0.065776 -0.074334 -0.002595 -0.082235 -0.016136 0.039314
0.0 0.0 0.0 0.0 0.0 0.0 0.0 0.0 0.0 0.0 0.0 0.0 0.0 0.0 0.0 0.0 0.0 0.0 0.0 0.0 0.0 0.0 0.0 0.0 0.0 0.0 0.0 0.0 0.0 0.0 0.0 0.0 0.0 0.0 0.0 0.0 0.0 0.0 0.0 0.0 0.0 0.0 0.0 0.0 0.0 0.0 0.0 0.0 0.0 0.0 0.0 0.0 0.0 0.0 0.0 0.0 0.0 0.0 0.0 0.0 0.0 0.0 0.0 0.0 0.0 0.0 0.0 0.0 0.0 0.0 0.0 0.0 0.0 0.0 0.0 0.0 0.0 0.0 0.0 0.0 0.0 0.0 0.0 0.0 0.0 0.0 0.0 0.0 0.0 0.0 0.0 0.0 0.0 0.0 0.0 0.0 0.0 0.0 0.0 0.0
0.123314 0.024232 0.067758 -0.019176 0.04035 0.102721 0.022867 0.004876 -0.130388 -0.025998 -0.111174 -0.099004 0.08676 0.050864 -0.09914 -0.024014 -0.171609 -0.023554 -0.121212 -0.180475 0.179989 0.036153 -0.154862 -0.046345 0.094379 -0.14447 -0.041587 -0.048431 -0.136792 0.120946 0.186365 -0.07131 -0.07154 -0.104935 0.223496 -0.046738 -0.060067 -0.130754 -0.062099 -0.018454 0.144663 0.005022 0.142013 0.055336 -0.079464 0.134955 -0.01171 0.012333 -0.042385 0.102204 0.067493 0.045559 0.08181 -0.037308 -0.105499 0.04795 0.127704 0.287375 0.072091 0.04644 0.063593 0.228401 -0.07889 -0.03959 0.122115 0.054482 0.084107 0.013265 0.011559 -0.014696 0.109437 0.025601 -0.204002 0.310683 0.003437 0.019704 0.139319 0.086808 -0.081497 -0.018019 -0.014725 -0.169411 -0.017058 0.108817 -0.009525 -0.201578 -0.092985 0.072472 0.005488 0.045185 0.12776 0.042456 -0.19091 0.059921 -0.111423 0.013748 -0.096482 0.111096 0.034894 -0.026429
0.0 0.0 0.0 0.0 0.0 0.0 0.0 0.0 0.0 0.0 0.0 0.0 0.0 0.0 0.0 0.0 0.0 0.0 0.0 0.0 0.0 0.0 0.0 0.0 0.0 0.0 0.0 0.0 0.0 0.0 0.0 0.0 0.0 0.0 0.0 0.0 0.0 0.0 0.0 0.0 0.0 0.0 0.0 0.0 0.0 0.0 0.0 0.0 0.0 0.0 0.0 0.0 0.0 0.0 0.0 0.0 0.0 0.0 0.0 0.0 0.0 0.0 0.0 0.0 0.0 0.0 0.0 0.0 0.0 0.0 0.0 0.0 0.0 0.0 0.0 0.0 0.0 0.0 0.0 0.0 0.0 0.0 0.0 0.0 0.0 0.0 0.0 0.0 0.0 0.0 0.0 0.0 0.0 0.0 0.0 0.0 0.0 0.0 0.0 0.0
0.100195 -0.080192 0.098636 -0.002196 0.010816 -0.057799 -0.189106 0.035665 -0.158401 0.017096 0.057723 -0.073496 -0.154333 -0.058186 0.055717 0.179485 -0.09119 0.047592 -1.1E-5 -0.036447 0.069542 -0.026364 0.113772 0.231986 -0.134337 -0.215597 0.010651 -0.012594 -0.064549 -0.007239 -0.011789 -0.096077 0.077943 -0.071619 -8.0E-5 -0.047155 0.073651 0.037863 -0.040627 0.055824 0.044377 0.007974 0.031266 0.114302 -0.02862 -0.031345 -0.079388 -0.051952 -0.221712 0.085653 0.037433 -0.19096 0.086855 -0.018699 -0.0544 0.140116 -0.057536 -0.02972 0.014695 -0.057303 -0.13393 -0.114809 -0.125779 -0.174829 0.064946 0.061459 0.014127 -0.050541 0.147494 -0.078643 -0.089289 0.069975 -0.046343 0.105745 0.018637 0.028574 -0.076456 -0.003611 -0.026723 -0.119504 0.041653 -0.081001 0.007688 -0.065893 0.117237 -0.046508 -0.04831 0.071317 0.133236 0.021252 0.027556 0.093483 -0.054558 0.072389 -0.048773 -0.055195 -0.030206 -0.077247 -0.105549 -0.120534
-0.020892 -0.118995 0.162166 0.122723 0.280551 0.110134 -0.170222 -0.094985 0.022663 -0.096152 0.256238 -0.100829 -0.080812 0.117885 0.071203 0.073747 -0.283052 -0.00865 0.053285 -0.06135 -0.20049 0.113432 0.184392 0.098893 -0.302982 -0.092137 -0.052162 -0.023556 0.127995 -0.164167 -0.093513 -0.20606 -0.112134 0.15593 -0.102057 -0.290756 0.094313 -0.190004 0.126246 0.124971 -0.067207 -0.022883 0.192596 -0.017167 -0.098132 -0.002793 0.073871 0.015025 0.144251 0.159564 0.152852 0.142563 -0.127496 0.218968 -0.01863 0.108195 -0.06489 0.056022 0.330959 -0.233376 0.163535 0.057803 -0.20535 -0.22593 -0.210829 0.059133 0.062431 -0.070913 -0.219805 -0.068653 -0.086861 0.008006 0.08474 0.025432 0.120814 0.095618 -0.093603 0.083745 -0.08213 -0.029395 0.019301 0.048208 -0.091801 -0.138467 0.030923 0.071388 -0.098868 0.17327 0.148358 0.232573 -0.143218 -0.030999 -0.127425 0.038931 -0.186786 -0.121369 0.048425 -0.0115 -0.055581 -0.050098
1.155368 3.302179 -0.818617 0.201583 -0.372035 -0.220049 -2.421694 1.24088 1.022918 0.281963 -0.56672 0.218504 -2.654141 0.687099 1.426786 -2.744465 -2.044989 -0.49789 -1.769702 -2.328375 -1.105508 0.104665 -0.061522 -2.669585 1.369504 1.778184 -0.869744 -1.441309 0.051265 1.116249 1.903031 -0.163683 1.731475 -0.652558 -1.459245 -0.212579 0.382415 1.861636 -0.394668 -0.423196 -0.983827 -1.176007 1.844253 0.853456 0.976233 -0.076248 -1.490589 -0.553926 0.506191 0.326236 0.251095 1.038919 -0.803142 0.658979 -3.236482 -1.07965 1.27678 -0.350029 -1.778651 0.292774 0.002745 0.267431 1.072933 -0.321661 -1.19536 -1.465055 -2.523761 -3.574044 -0.123843 -0.515256 3.2036 -0.08683 1.099575 -0.639959 -1.310584 0.629968 -0.142079 0.66081 -1.289981 -0.152693 -0.105374 0.388507 -1.068849 2.207516 -1.516502 0.618648 0.057959 1.61471 0.888036 -0.337188 -0.73306 -0.809614 -1.409634 -0.094797 -0.938314 1.210802 1.47048 2.210952 -1.933366 0.819087
-0.055117 -0.111846 0.234831 0.226258 -0.181623 0.053392 0.020148 -0.012418 -0.061638 -0.045422 -0.1044 0.134619 0.050099 0.029457 0.036951 0.072458 0.119944 0.152803 -0.079983 -0.025915 -0.137722 0.100769 0.111764 -0.046841 -0.01821 -0.140028 -0.042581 0.059696 -0.016329 -0.139456 -0.162912 -0.021388 -0.068227 -0.035799 -0.160737 -0.129431 -0.090847 0.205701 0.128188 -0.196167 -0.054531 0.030872 0.070571 -0.03469 0.03892 -0.085901 -0.030089 -0.090293 0.086974 0.008383 -0.106008 -0.190624 0.11807 -0.108653 -0.190858 -0.236882 -0.131992 -0.0064 0.216252 -0.033027 -0.073734 -0.005207 0.056485 -0.344828 -0.113025 -0.231819 0.08554 0.253194 0.129127 0.057442 0.181713 0.058613 -4.96E-4 0.125319 -0.069341 -0.340744 -0.001687 0.138247 0.006026 -0.009997 0.143713 0.40349 0.153493 -0.159243 -0.007911 0.049956 -0.154303 0.021663 0.089791 0.195836 -0.01718 0.040345 -0.061375 0.238807 0.081671 -0.113927 -0.113889 0.052653 0.119044 -0.097643
-0.111962 -0.142046 0.14832 -0.04155 -0.131381 0.132103 0.052344 0.058809 0.075491 0.135687 0.26577 0.078364 0.012133 0.18955 0.056271 0.003616 0.078386 0.179922 0.043185 -0.052023 -0.174368 0.177361 0.25506 0.178413 -0.105803 0.025712 -0.116732 -0.054443 0.176184 -0.187858 0.123633 -0.129056 -0.098478 -0.079453 -0.171709 0.195528 -0.085588 0.041425 -0.18975 -0.216232 0.02346 -0.028904 0.008956 -0.097678 -0.006027 0.027155 -0.04765 -0.107571 -0.001368 0.058537 0.07012 0.169559 -0.166234 0.070463 0.135961 0.208091 4.05E-4 0.028359 0.01578 -0.065464 0.148109 -0.105272 0.046493 0.136442 0.07603 -0.013461 0.095132 0.093735 0.133836 -0.18186 -0.013227 0.303637 -0.032469 -0.248384 -0.120875 0.13634 -0.050728 -0.032498 0.108748 0.159837 -0.021691 -0.104113 0.245351 -0.016139 -0.059983 -0.177985 -0.011354 0.122162 0.085281 0.164647 -0.358864 -0.0927 -0.075221 0.151504 0.096519 -0.123882 0.143564 -0.061759 -0.008435 0.054149
-2.648351 -0.794316 -2.108887 0.20446 0.883061 0.242784 1.848653 1.149137 -4.975573 0.237654 -1.499665 2.924494 0.344217 -1.640431 0.763777 0.138944 -3.029439 -2.813434 -0.761102 -1.057557 -1.373735 -0.870599 1.234095 0.127805 -1.372618 1.35802 -1.501738 0.80945 0.172993 -0.484995 1.783363 -0.047587 0.483285 -1.526831 2.103549 2.116639 4.583491 -4.022388 -0.843817 0.361243 -0.546655 -2.301259 -2.000973 2.64631 -1.604053 -1.914206 -1.581895 -0.464185 1.757769 1.056301 0.263866 -0.904419 -0.422466 0.007824 -1.651553 0.7499 1.638666 -0.336108 -3.288466 -2.953238 -1.135414 1.165223 -1.047256 -0.821696 -0.135806 0.434207 -2.389307 -3.56953 -0.656773 0.578325 3.337902 0.782195 -1.250815 2.925509 -1.981492 0.121786 0.836257 1.710923 -2.640405 -0.628995 0.247469 0.863847 1.749171 -0.214156 -0.274807 2.192709 -0.892334 -1.614644 -1.225919 -0.042182 2.51632 3.464583 -3.591523 -2.506587 0.990426 1.8843 -2.460629 0.953462 0.359605 2.267383
-0.196378 -0.124527 0.075469 -0.005025 -0.201426 -0.033078 -0.005151 -0.025823 -0.134686 0.148143 0.009639 0.052167 -0.181159 -0.120047 -0.043782 0.215523 0.023422 0.291186 0.18364 -0.016074 -0.110889 0.315667 -0.024953 0.094077 -0.232807 -0.158684 0.073606 -0.039688 0.17275 -0.07609 -0.129752 0.104054 0.052472 -0.125417 -0.222996 -0.073411 0.045401 8.28E-4 0.130327 -0.153925 -0.023576 0.072946 0.074527 0.015025 0.224417 -0.115425 0.036671 0.02152 0.076359 0.098168 0.11409 -0.150787 0.028894 0.203084 0.019812 -0.037701 4.85E-4 -0.055753 0.178202 -0.166369 -0.006046 0.239265 0.052687 -0.173221 -0.110179 -0.039989 -0.028546 0.02066 -0.059348 -0.077794 -0.211972 -0.078481 -0.071585 0.013738 0.059958 -0.205221 0.036796 0.105951 -0.113863 0.161719 0.010698 0.455828 0.098652 0.006509 -0.06508 -0.074358 -0.049288 -0.011355 0.08401 0.056766 -0.069512 -0.039128 -0.078748 0.028244 0.042451 -0.237782 -0.091966 -0.129073 -0.016123 -0.184537
-0.034355 -0.032624 0.199767 0.005333 -0.017739 0.056352 0.029424 -0.030199 0.021501 -0.058459 0.007633 0.035986 -0.019477 -0.066338 0.122967 0.109226 0.019004 0.106931 -0.021536 0.088322 -0.146882 0.060271 -0.048463 0.045495 -0.071025 -0.098507 0.019002 0.035445 0.148947 -0.236889 0.031148 -0.108787 -0.034147 -0.086219 0.067012 -0.055364 0.080612 -0.007981 -0.045472 0.064676 -0.109496 0.060769 0.041785 -0.009122 0.044502 -0.088972 0.049544 0.038709 -0.028194 -0.033044 0.020137 -0.100587 0.087732 0.023429 0.131458 -0.257082 -0.013136 -0.208503 0.050067 -0.141838 0.147681 -0.008098 -0.012417 -0.073334 -0.157796 -0.104002 0.021573 -0.049296 -0.140103 -0.104901 -0.037706 0.087579 -0.036719 0.004416 0.079762 -0.175127 -0.116852 -9.54E-4 -0.001441 -0.018956 0.049765 -0.094634 -0.056623 -0.059285 0.103667 -0.086029 0.041032 -0.055263 0.035383 0.097164 -0.162184 0.094111 -0.037403 0.121801 -0.145614 -0.0602 0.033289 -0.037582 0.038226 -0.090747
0.062098 0.08763 0.051294 0.022802 0.075574 0.043302 -0.015178 0.003411 -0.033745 -0.041568 -0.047229 0.101845 -0.01256 -0.061591 0.021896 0.043728 -0.174868 0.05962 0.074023 0.118708 0.084009 0.080038 -0.025494 0.054901 0.047579 -0.002926 -0.020936 0.097978 0.016619 0.04729 -0.04665 -0.193161 -0.199604 0.085117 -0.151689 0.023993 0.025773 0.087716 0.029994 -0.065484 -2.7E-4 -0.054095 0.023356 0.029562 -0.037691 -0.035675 0.017255 0.150037 0.032713 -0.084817 0.119361 0.061548 -0.131074 -0.086167 -0.051781 -0.170707 -7.69E-4 -0.073988 0.084331 -0.04188 0.134442 -0.008156 0.006795 0.034622 -0.065651 -0.056781 -0.011303 0.02334 0.008505 0.163805 0.090244 0.070487 0.035154 0.007013 0.188806 0.089974 -0.234988 0.023557 -0.123577 -0.088407 0.013429 0.201356 -0.171596 0.00274 -0.248015 -0.156855 0.188284 -0.101998 0.006252 -0.09741 -0.051313 0.016936 -0.126348 0.199318 -0.064685 -0.217633 -0.013635 0.012666 0.077108 0.124351
0.016761 -0.116603 -0.128803 -0.085956 -0.331505 -0.005635 -0.24598 -0.189948 -0.156206 -0.002443 0.075572 -0.008364 -0.139675 0.126897 -0.004456 0.057895 -0.088723 0.174266 0.085188 -0.085007 -0.075556 0.123927 0.088185 0.026955 -0.130153 0.076374 0.0957 -0.25201 0.003484 -0.238015 -0.036255 0.039226 -0.015772 -0.079196 -0.335473 0.006978 0.172757 -0.121315 -0.06076 -0.098614 -0.100969 0.179943 -0.134157 -0.075677 0.053369 -0.162456 0.128946 0.087226 -0.11526 0.126585 0.04661 -0.14619 0.024327 0.220343 0.068667 -0.090185 0.082926 -0.065364 0.019387 0.003375 0.059688 0.017492 -0.074307 -0.126323 -0.142204 0.029827 -0.080282 -0.049183 0.133455 0.03925 0.081019 0.02228 -0.085705 0.010979 0.090813 -0.218384 -0.081749 0.05013 0.043586 0.112995 0.092207 0.051805 0.232937 0.013064 -0.138894 0.218488 0.139092 0.161748 0.127503 -0.165375 -0.172091 -0.015813 -0.013581 0.0414 -0.044944 -0.06549 -0.065871 -0.026492 -0.022413 -0.13116
0.142855 2.096782 -0.44488 -0.186519 4.581101 0.368552 1.025096 -0.312802 -2.617651 -0.157005 2.963322 2.120705 -1.775955 -0.565663 0.972057 2.924774 -3.483148 -0.388176 -2.731071 -0.326463 1.005034 -0.173592 0.985748 -2.472826 -0.247049 -1.602126 -2.48254 -0.015307 0.921201 -0.634243 -0.734395 -4.469334 -2.338912 -3.86095 -2.404253 -1.170435 3.191081 0.66076 0.725646 -0.864367 -2.371157 -0.851367 -3.29822 -1.074393 -2.64488 2.784424 -0.996674 2.506345 2.15789 -2.159862 -0.441733 -0.926918 -0.098512 0.757891 -1.999629 -4.007104 0.387073 -3.003765 1.204233 -2.431844 -2.281004 -0.27222 1.915759 2.567541 -2.305997 0.668549 -1.469449 -4.443738 -0.244681 3.958085 3.663286 2.390184 0.145926 -1.914193 1.202993 0.085106 1.119028 1.764289 0.413107 1.270882 2.30135 -2.063297 -0.209725 -0.837978 1.54811 -1.075222 1.662849 3.024555 -0.817108 2.02425 0.827332 0.999754 -2.964958 -4.68355 2.112919 1.12159 -1.379614 1.011169 -1.034187 2.880255
1.939635 1.52901 1.289587 3.251535 -1.724015 -0.88548 -1.305419 2.302571 -1.417341 -1.68966 -0.63789 2.076267 -3.058223 1.539613 1.180597 0.029053 -0.321402 -2.23572 -2.38652 1.658533 -1.245721 -0.526509 -3.599429 0.754249 -0.80274 0.507379 -2.39552 1.105986 -0.056637 -0.438303 1.940801 -2.557426 0.985315 3.029874 0.213126 0.861485 3.121805 0.640059 -0.820139 -2.40745 -0.196076 -4.070904 0.803788 0.627065 2.287266 2.341116 0.489852 -1.57276 1.345608 0.42161 3.228641 4.822541 2.307207 0.997003 -2.753309 0.364194 3.286885 -0.854741 -0.545387 -4.263543 -0.321177 2.708668 -5.839749 -0.190246 1.192365 1.834868 0.85099 3.023894 0.019983 -0.356687 2.290085 -1.712409 1.283075 5.053623 2.119578 0.310527 -1.882558 -2.366862 0.130671 -0.478639 1.414622 1.526558 0.318589 2.752702 0.046978 -1.332104 0.951956 1.81757 -0.872666 2.804518 -1.758129 0.070445 -0.158419 -4.010314 -0.794193 0.288862 -0.172084 0.635215 -0.313457 -0.581935
0.0 0.0 0.0 0.0 0.0 0.0 0.0 0.0 0.0 0.0 0.0 0.0 0.0 0.0 0.0 0.0 0.0 0.0 0.0 0.0 0.0 0.0 0.0 0.0 0.0 0.0 0.0 0.0 0.0 0.0 0.0 0.0 0.0 0.0 0.0 0.0 0.0 0.0 0.0 0.0 0.0 0.0 0.0 0.0 0.0 0.0 0.0 0.0 0.0 0.0 0.0 0.0 0.0 0.0 0.0 0.0 0.0 0.0 0.0 0.0 0.0 0.0 0.0 0.0 0.0 0.0 0.0 0.0 0.0 0.0 0.0 0.0 0.0 0.0 0.0 0.0 0.0 0.0 0.0 0.0 0.0 0.0 0.0 0.0 0.0 0.0 0.0 0.0 0.0 0.0 0.0 0.0 0.0 0.0 0.0 0.0 0.0 0.0 0.0 0.0
1.979182 1.475284 1.616709 3.670848 1.493383 1.565553 0.713709 0.821536 -0.198276 1.095257 1.13035 3.013426 -0.31575 0.272355 -1.140889 3.059924 -0.481724 -0.114922 -4.136081 -3.168525 0.468706 0.468211 -1.450609 1.536269 1.463073 0.091064 0.456867 -0.772584 1.94826 0.637724 3.384043 1.31124 -0.547482 -2.46209 -1.172514 0.108789 -0.436092 -0.542017 -2.899063 -1.238649 0.992894 -1.25533 1.441906 -2.837638 -0.37597 0.84588 0.567863 1.067483 3.045772 2.851722 1.127934 2.750989 2.037369 -0.330697 -3.137371 -0.277042 1.105257 3.888075 -0.863423 -0.157175 -2.285182 -0.166755 0.331731 -0.01245 0.62688 0.367884 -0.075369 -0.159061 -0.417307 -2.027856 0.1471 0.649553 -2.645108 0.793309 -1.226665 0.217122 -0.469072 -0.459028 -1.403266 -0.635382 -0.504689 1.214626 1.214261 1.363001 0.553679 -3.299866 -1.882137 1.302355 -0.459088 -0.175485 1.192438 -0.480862 1.435369 0.431146 -1.119326 -1.423348 -1.759886 0.376096 -1.342863 3.008839
-0.094504 0.064036 0.208032 0.047202 0.234219 -0.30541 0.092508 -0.023043 -0.133811 -0.082084 0.150367 -0.092649 -0.094825 -0.107572 0.342914 0.511572 -0.353722 0.309351 -0.333997 -0.322119 -0.045374 0.128135 -0.035427 -0.001672 0.0461 -0.063521 0.007164 -0.085059 -0.084338 0.082334 0.038617 0.210757 -0.144268 -0.162882 0.050761 0.102363 0.138149 0.00315 -0.138063 0.0789 0.016815 0.134618 -0.201075 -0.227547 -0.202566 0.458211 0.150801 -0.083098 -0.04699 0.343486 -0.241728 -0.226577 -0.060169 -0.176198 -0.245563 -0.010359 -0.052984 0.154996 -0.065223 -0.16135 0.067134 -0.049596 -0.152819 -0.193663 -0.138381 0.333892 0.093114 -0.281959 0.189841 -0.046502 0.066092 0.404141 0.001893 0.392063 -0.069823 -0.045004 -0.232401 -0.104565 -0.064923 -0.170555 -0.124821 -0.185289 0.410246 -0.088954 0.095413 -0.462605 0.00654 -0.006531 0.064267 0.316663 0.065796 0.255844 0.130049 -0.113737 0.054964 -0.131501 0.038533 0.046515 0.082117 -0.442424
0.0 0.0 0.0 0.0 0.0 0.0 0.0 0.0 0.0 0.0 0.0 0.0 0.0 0.0 0.0 0.0 0.0 0.0 0.0 0.0 0.0 0.0 0.0 0.0 0.0 0.0 0.0 0.0 0.0 0.0 0.0 0.0 0.0 0.0 0.0 0.0 0.0 0.0 0.0 0.0 0.0 0.0 0.0 0.0 0.0 0.0 0.0 0.0 0.0 0.0 0.0 0.0 0.0 0.0 0.0 0.0 0.0 0.0 0.0 0.0 0.0 0.0 0.0 0.0 0.0 0.0 0.0 0.0 0.0 0.0 0.0 0.0 0.0 0.0 0.0 0.0 0.0 0.0 0.0 0.0 0.0 0.0 0.0 0.0 0.0 0.0 0.0 0.0 0.0 0.0 0.0 0.0 0.0 0.0 0.0 0.0 0.0 0.0 0.0 0.0
0.197246 -0.165613 0.122956 -0.032277 -0.099665 -0.024211 0.050762 -0.022967 -0.01137 0.049389 0.10031 0.066083 -0.074557 -0.141668 -0.151508 0.174515 -0.076802 0.241732 -0.107628 0.024792 -0.177017 0.162746 0.050304 0.074222 -0.030587 -0.119586 0.014556 0.15769 0.19174 -0.188239 -0.214752 0.018327 0.120297 0.063609 -0.056034 -0.160286 4.75E-4 0.078305 -0.147693 0.094734 -0.156502 -0.003672 0.062234 0.040062 -0.080216 -0.145814 0.028281 0.008805 -0.130718 -0.022768 0.199961 0.114865 0.118271 0.052211 0.192397 -0.120776 0.049596 0.064631 0.003026 0.013971 0.055832 0.015001 -0.092819 -0.149283 -0.095534 -0.029456 0.132262 0.00101 0.165173 -0.147739 0.056772 -0.003817 -0.042098 -0.081459 2.96E-4 -0.100367 0.032068 0.004045 -0.010458 -0.021304 -0.057818 0.177753 0.100028 -0.017413 0.085129 -0.215981 -0.162845 0.058978 0.121185 0.126577 -0.04532 0.118306 0.097703 -0.060395 -0.108637 -0.074323 0.143914 -0.006089 -0.026484 0.012009
0.0 0.0 0.0 0.0 0.0 0.0 0.0 0.0 0.0 0.0 0.0 0.0 0.0 0.0 0.0 0.0 0.0 0.0 0.0 0.0 0.0 0.0 0.0 0.0 0.0 0.0 0.0 0.0 0.0 0.0 0.0 0.0 0.0 0.0 0.0 0.0 0.0 0.0 0.0 0.0 0.0 0.0 0.0 0.0 0.0 0.0 0.0 0.0 0.0 0.0 0.0 0.0 0.0 0.0 0.0 0.0 0.0 0.0 0.0 0.0 0.0 0.0 0.0 0.0 0.0 0.0 0.0 0.0 0.0 0.0 0.0 0.0 0.0 0.0 0.0 0.0 0.0 0.0 0.0 0.0 0.0 0.0 0.0 0.0 0.0 0.0 0.0 0.0 0.0 0.0 0.0 0.0 0.0 0.0 0.0 0.0 0.0 0.0 0.0 0.0
-0.056999 -0.158509 -0.018362 0.070992 0.147826 -0.064124 -0.108268 -0.130334 -0.17257 0.073087 0.071047 0.174835 -0.036911 -0.027515 0.271218 0.248133 0.058208 0.047987 -0.064434 0.060639 0.019902 0.030471 0.116566 0.070869 -0.042572 -0.10112 -0.159462 -0.015594 0.199727 -0.270593 -0.223599 0.042439 4.63E-4 -0.008276 -0.0531 -0.103463 -0.044228 -0.106284 0.043963 -0.00853 -0.077059 0.0943 -0.07686 0.137008 0.05912 0.074989 -0.059077 -0.048718 -0.059362 -0.042617 0.178518 -0.278492 -0.129127 -0.070142 0.063248 -0.012159 -0.135296 0.036728 -0.067895 -0.032111 -0.147431 -0.005939 -0.033109 -0.132893 0.032005 0.024213 -9.08E-4 -0.043175 -0.004361 0.010211 -0.054773 0.135012 0.097594 -0.069736 0.04815 -0.175826 -0.14525 -0.049826 0.034553 -0.321595 -0.045485 0.118925 0.148454 -0.16954 0.102646 0.150185 5.66E-4 0.152498 0.087681 0.094117 -0.038354 -0.006521 -0.183671 -0.006654 0.091454 0.119018 -0.128132 -0.009501 -0.004531 0.003262
2.591633 1.608701 -2.087245 2.00752 3.012652 4.995656 0.847355 -1.594905 -0.365708 -1.629805 -1.650237 3.712017 -0.231463 -0.537534 -2.036098 2.002639 -0.696666 -4.310136 -1.477319 -1.356504 -0.581823 -1.830239 -0.272773 -1.648095 0.090509 0.008711 0.330842 0.396714 2.341035 -0.526067 1.155793 -1.730906 -1.010387 -1.342646 -1.939355 0.734869 0.727366 0.700702 1.516974 -2.133831 -0.280653 -3.051674 0.017123 0.532043 1.478449 0.375441 0.920129 1.548929 1.087478 0.668327 0.707416 3.249232 -0.362503 1.273221 -2.929682 -0.245389 1.633444 -0.119836 0.103459 -3.445175 0.513245 0.427807 0.738792 1.448203 0.501908 0.362882 -0.731533 -0.391201 0.037778 3.053553 4.030229 1.793904 1.24136 0.081706 -1.401954 -0.638804 -0.487445 -0.267924 0.012844 0.538179 -0.241935 -0.068756 1.351665 -0.112558 0.001814 0.447262 0.833441 -0.023876 1.212707 1.514635 -0.568611 0.376173 -3.663739 -4.345135 -0.444319 2.139788 -2.53093 0.92131 -1.399435 1.763954
2.230384 2.57E-4 -1.678975 -1.555628 -2.357657 2.265452 0.678842 0.233296 0.076624 1.843067 0.745985 1.41654 -0.995556 -0.944992 -0.225089 -0.071161 -1.830699 0.884739 -0.386654 1.080697 0.907707 0.50039 0.713684 -2.638825 0.19146 -0.737758 2.83714 0.679558 -2.546489 -0.675405 1.524268 -1.871826 0.812828 -2.532114 0.366652 2.367975 -1.560134 -0.894714 2.144815 0.035824 -0.517329 -1.167498 -0.322439 1.487399 1.288337 -2.455925 -0.68873 0.347358 -0.101244 -0.312722 2.424421 0.652207 0.309418 1.587607 -1.875759 -0.402055 0.501426 -0.378165 0.025554 0.077194 0.750846 0.300912 -0.447255 1.120057 0.690596 2.037422 -0.579657 -2.340285 1.805962 -0.041606 1.865699 -1.513036 -1.873489 0.769817 -0.706352 1.230228 -0.533311 0.452896 0.84748 0.852587 1.517258 0.085008 -0.258423 1.705048 0.345877 -0.608669 -0.45161 1.672221 1.368211 2.38534 -0.532738 0.104139 0.838027 2.854114 2.751583 0.196215 -0.430762 0.913765 -0.033766 3.275335
0.031527 -0.112428 0.003849 -0.006694 -0.133716 -0.094137 -0.133856 0.076033 -0.134094 0.020447 0.180045 -0.008691 0.02393 -0.04192 0.151126 0.03119 -0.12957 0.085163 0.10968 -0.012125 -0.12243 0.082091 0.171614 -0.090643 -0.217105 -0.08942 -0.056535 0.130559 0.063384 -0.011143 0.075972 0.091286 -0.120708 0.10879 -0.144138 -0.080092 0.068619 -0.104325 0.053319 -0.036602 -0.13098 -0.126041 0.056674 0.098666 0.016531 0.04086 -0.001545 0.019159 -0.075018 -0.143838 -0.011435 -0.138275 0.120575 -0.030305 -0.039214 -0.213165 0.117079 0.181839 -0.015824 -0.120976 0.020348 0.040265 -0.247831 -0.016105 -0.021426 0.081026 -0.064019 -0.074052 -0.030658 0.097609 -0.072729 -0.045499 0.117865 0.023705 -0.077755 -0.07818 -0.026196 -0.058708 -0.005459 -0.158063 -0.078564 -0.180911 -0.137997 -0.116423 0.015313 0.007515 0.064959 0.050702 0.270713 -0.057066 0.023661 -0.091294 -0.044681 -0.032531 -0.214279 -0.109218 -0.025108 0.059735 -0.085432 0.066374
0.079087 -0.271346 -0.014942 -0.087134 -0.397119 -0.005452 -0.031313 -0.086639 -0.008556 -0.032863 -0.032034 0.035571 -0.096019 0.027127 -0.037591 0.210487 -0.022158 0.058091 0.126328 0.136933 0.186269 -0.061087 0.120258 -0.111752 -0.223703 0.062161 0.163425 -0.243081 -0.097058 0.02939 0.068187 -0.051974 -0.151147 0.016456 -0.090799 0.002401 -0.049537 0.006001 -0.080784 0.170858 0.128906 0.047386 0.109523 0.152073 0.121546 -0.111285 0.036396 -0.042892 -0.331818 -0.058422 0.141413 -0.021105 0.049562 -0.049459 0.01082 -0.145744 0.040034 8.13E-4 0.108208 0.042629 -0.023845 -0.076687 -0.040045 0.078621 0.205228 -0.003126 0.056093 -0.009908 -0.068613 0.03997 0.293593 0.032946 -0.212062 0.041998 0.058685 0.088667 0.014688 0.043339 0.031656 -0.032083 -0.133234 -0.032978 0.06669 -0.025207 -0.192197 0.031664 -0.003702 0.078521 0.119063 0.125034 -0.197376 0.093705 -0.051642 0.076118 -0.077225 0.211134 0.164345 -0.246193 -0.052562 -0.091168
-0.108733 -0.061423 -0.098863 -0.132174 0.184499 -0.159858 0.044677 0.091311 0.018223 0.206392 0.081431 0.184179 0.086857 -0.192188 0.062003 0.012817 -0.027886 0.136135 0.138969 -0.074148 0.157175 0.23459 0.08172 0.162628 -0.009311 0.056522 0.039702 0.086811 -0.104706 -0.112551 -0.082889 -0.070624 -0.169422 0.088699 -0.159366 0.019041 0.045287 0.042583 0.102902 -0.249259 -0.127177 0.005548 0.100066 0.140519 -0.113002 0.106162 -0.007585 -0.092711 -0.339348 -0.016454 0.327331 -0.065714 -0.053133 0.046734 -0.078521 -0.151404 -0.054898 0.120586 0.031034 -0.242538 -0.111968 0.087063 0.162687 -0.245404 -0.050231 -0.015502 -0.306047 -0.169036 -0.107036 0.126173 -0.088695 0.239271 -0.065743 0.175986 -0.147415 -0.182975 -0.107658 -0.289069 -0.144229 -0.006646 -0.025676 0.269919 0.169115 -0.18592 -0.171916 0.156869 0.058985 -0.044186 -0.091025 -0.205298 -0.183991 0.011627 0.369494 0.13835 0.141525 0.027377 -0.19293 0.150134 0.254698 -0.015459
-0.020015 -0.064577 -0.039267 0.00225 0.004473 0.102358 0.018363 0.159934 -0.188582 -0.051737 0.081946 0.06379 -0.102722 -0.209108 0.067136 0.103007 -0.127051 0.159879 -0.122798 -0.106819 -0.070137 0.114814 0.171571 -0.173295 -0.11254 0.141112 0.134959 -0.155561 -0.109498 -0.186657 0.113544 -0.161418 -0.118006 -0.059175 -0.094374 -0.038196 -0.015228 0.119325 -0.177475 0.038859 -0.194853 0.039467 -0.028283 -0.15093 -0.168951 -0.049866 -0.033163 0.027288 -0.004101 0.004241 0.008573 -0.146335 0.015995 0.050993 -0.108685 -0.077277 0.036094 -0.046554 0.073144 -0.118773 0.173636 0.058066 0.044118 0.045965 -0.338419 -0.021988 0.12551 -0.083197 0.108791 0.021393 0.098164 0.018907 -0.001159 -0.005702 0.101804 -0.080581 -0.330685 0.062983 0.086153 0.053822 0.013846 0.102873 0.060588 -0.046089 -0.127327 -0.050613 0.159636 0.155209 0.235401 0.069143 0.052979 0.007727 -0.021391 0.121081 -0.147328 -0.097697 0.086277 -0.003848 0.031409 -0.089204
-0.182863 -0.302811 0.149265 0.160868 -0.074778 0.089523 -0.234409 -0.121304 -0.098604 0.115224 0.283025 0.052652 0.050254 -0.140451 0.183078 0.377254 0.018968 0.084524 -0.083 0.103202 -0.120832 0.12739 0.110611 -0.026089 0.021765 -0.156839 0.085043 0.063318 0.128195 -0.113092 -0.298902 -0.206534 -0.137263 0.147448 -0.146413 -0.225917 0.096689 0.027078 0.105626 0.05258 0.17589 0.153263 0.035113 0.277285 0.011224 -0.029191 -0.020406 0.052697 -0.219527 0.163172 0.122206 -0.160173 -0.067708 0.003453 0.116039 -0.291552 -0.063219 -0.034825 -0.027754 -0.20857 0.045746 -0.086738 -0.140594 -0.232593 -0.17228 0.109836 -0.052654 0.104963 0.195929 -0.083898 -0.002807 0.022006 0.005649 0.112124 0.043317 -0.077841 0.10759 -0.125188 -0.064651 -0.036626 0.201149 0.153932 -0.114927 0.069528 -0.005829 0.020984 0.140281 -0.044278 0.188863 0.129028 -0.23677 -0.023245 -0.155401 0.206886 -0.112247 0.051632 0.09773 -0.098727 -0.044158 -0.121319
-0.05763 -0.256262 -0.085346 -0.008351 -0.179725 0.025394 -0.06205 0.029651 -0.088682 0.11047 -0.112526 -0.052776 0.152888 0.069069 0.04804 0.10505 0.279457 -0.003252 0.130128 0.008577 -0.018834 0.041622 0.092357 0.169429 -0.157673 -0.08295 0.126776 -0.059477 0.132295 -0.142263 -0.239144 0.006963 -0.153219 -0.134168 -0.095838 -0.026248 -0.133145 0.032495 -0.089139 -0.078787 0.063091 0.070244 0.069636 0.145461 -0.108259 0.104333 0.022244 0.006002 -0.04785 0.01119 0.049577 0.03563 -0.14872 -0.121162 0.172205 0.066591 0.166575 -0.044861 0.100721 -0.067303 0.196315 -0.118749 0.054638 -0.167853 -0.137644 -0.097875 0.090175 0.054897 0.077635 -0.094956 0.001595 0.065569 4.74E-4 0.11657 0.071736 -0.117284 0.0129 0.069674 -0.006986 -0.156887 0.104732 0.080445 0.162411 -0.19303 -0.173243 0.138032 0.054852 0.073375 0.13385 0.314503 -0.12755 -0.020982 -0.020388 0.096559 -0.066948 -0.077558 0.180639 -0.177181 0.114853 -0.09813
-2.648351 -0.794316 -2.108887 0.20446 0.883061 0.242784 1.848653 1.149137 -4.975573 0.237654 -1.499665 2.924494 0.344217 -1.640431 0.763777 0.138944 -3.029439 -2.813434 -0.761102 -1.057557 -1.373735 -0.870599 1.234095 0.127805 -1.372618 1.35802 -1.501738 0.80945 0.172993 -0.484995 1.783363 -0.047587 0.483285 -1.526831 2.103549 2.116639 4.583491 -4.022388 -0.843817 0.361243 -0.546655 -2.301259 -2.000973 2.64631 -1.604053 -1.914206 -1.581895 -0.464185 1.757769 1.056301 0.263866 -0.904419 -0.422466 0.007824 -1.651553 0.7499 1.638666 -0.336108 -3.288466 -2.953238 -1.135414 1.165223 -1.047256 -0.821696 -0.135806 0.434207 -2.389307 -3.56953 -0.656773 0.578325 3.337902 0.782195 -1.250815 2.925509 -1.981492 0.121786 0.836257 1.710923 -2.640405 -0.628995 0.247469 0.863847 1.749171 -0.214156 -0.274807 2.192709 -0.892334 -1.614644 -1.225919 -0.042182 2.51632 3.464583 -3.591523 -2.506587 0.990426 1.8843 -2.460629 0.953462 0.359605 2.267383
-0.210297 -0.110426 0.216681 0.234905 0.146177 -0.027548 -0.167471 0.090435 -0.207622 -0.092425 0.003913 0.178187 -0.016488 0.102242 0.121312 0.07318 0.056993 0.388147 0.139244 0.12288 0.130087 0.201213 0.113501 -0.015419 -0.231154 -0.007734 -0.231062 -0.078131 0.05559 -0.303317 -0.035802 -0.253457 -0.076114 -0.133836 -0.075931 -0.035982 -0.057258 0.141355 -0.232815 0.059615 0.021996 -0.030046 -0.130594 -0.228321 -0.011104 -0.012042 -0.175301 0.090232 -0.045175 -0.161788 0.125901 0.021348 -0.079319 -0.213233 0.125293 -0.349209 0.047147 -0.198495 -0.04132 -0.060085 0.043266 -0.128431 0.108734 0.328802 -0.308664 -0.195565 -0.074267 -0.2212 0.076606 0.207828 0.06611 0.127721 0.126594 -0.043507 0.204157 -0.138518 0.086449 0.128265 0.002965 0.146771 0.202147 -0.035849 0.128995 0.019777 -0.140549 -0.164229 0.047008 0.253277 0.113727 0.042127 -0.320517 -0.071481 -0.067294 0.093729 0.195632 -0.137148 0.111997 0.06802 -0.233878 0.165139
1.342529 0.562731 0.551242 -1.399313 -0.235827 1.024096 -1.139197 -0.801063 -0.422151 2.768728 0.227273 2.155471 -1.143809 2.595699 1.992564 2.745422 -2.326348 -3.622388 1.097812 4.667395 -1.212745 -1.601212 -0.193469 -0.442039 2.202239 0.691203 -2.293492 1.06697 0.099384 -0.196852 -1.016051 2.102351 -1.147958 -0.547494 -1.975977 -0.321869 1.244972 -2.365268 -0.580669 -1.911 0.526591 -1.465601 -0.851681 -0.778765 1.157505 -3.649656 -2.73338 0.551238 0.121076 0.337288 2.726243 2.294477 -2.40652 0.22401 -1.791898 0.540235 -1.382093 0.994896 0.29059 -1.868327 0.485743 -1.375132 0.099233 -0.332219 -0.564609 2.975268 1.288045 1.074168 0.290827 0.615998 0.464817 0.860775 2.459877 2.175081 0.515132 -0.66029 0.327633 -1.159459 0.005724 1.860148 3.252023 2.089638 -0.285852 0.28858 1.861501 1.200659 -0.442679 1.876996 -0.521982 -1.443073 1.684455 -1.703366 -0.279185 -1.054853 1.207323 3.999912 1.01964 -1.644281 1.094894 1.648353
2.591633 1.608701 -2.087245 2.00752 3.012652 4.995656 0.847355 -1.594905 -0.365708 -1.629805 -1.650237 3.712017 -0.231463 -0.537534 -2.036098 2.002639 -0.696666 -4.310136 -1.477319 -1.356504 -0.581823 -1.830239 -0.272773 -1.648095 0.090509 0.008711 0.330842 0.396714 2.341035 -0.526067 1.155793 -1.730906 -1.010387 -1.342646 -1.939355 0.734869 0.727366 0.700702 1.516974 -2.133831 -0.280653 -3.051674 0.017123 0.532043 1.478449 0.375441 0.920129 1.548929 1.087478 0.668327 0.707416 3.249232 -0.362503 1.273221 -2.929682 -0.245389 1.633444 -0.119836 0.103459 -3.445175 0.513245 0.427807 0.738792 1.448203 0.501908 0.362882 -0.731533 -0.391201 0.037778 3.053553 4.030229 1.793904 1.24136 0.081706 -1.401954 -0.638804 -0.487445 -0.267924 0.012844 0.538179 -0.241935 -0.068756 1.351665 -0.112558 0.001814 0.447262 0.833441 -0.023876 1.212707 1.514635 -0.568611 0.376173 -3.663739 -4.345135 -0.444319 2.139788 -2.53093 0.92131 -1.399435 1.763954
-0.106314 0.02649 -0.064576 -0.146871 0.117487 -0.043104 0.021386 -0.025235 0.076081 0.113041 0.043065 0.188577 0.09966 -0.05155 -0.208188 0.080889 -0.13942 0.289748 0.039805 0.046475 -0.116998 -0.029836 -0.011098 0.12808 0.090027 -0.160672 -0.091503 0.186609 0.03328 -0.022888 -0.016823 0.004536 -0.189715 0.190191 -0.121253 -0.146497 0.001137 0.122067 -0.014505 -0.028134 0.239581 0.085425 -0.055775 -0.053035 0.019365 0.060072 0.13711 -0.008601 -0.079014 0.028345 -0.152332 -0.113432 -0.077908 0.008303 0.013694 0.019925 -0.094005 -0.056115 -0.011003 -0.078953 0.047602 -0.07789 -0.066102 -0.134921 -0.003909 0.060721 -0.049322 0.151991 0.019427 -4.25E-4 -0.050978 0.192064 0.111815 0.039185 -0.066667 -0.132328 -0.124602 0.061114 -0.158992 -0.006423 -0.112133 0.161276 0.12742 -0.033032 -0.039314 -0.13856 0.03065 -0.064034 -0.01246 -0.066241 -0.005899 -0.119393 -0.033258 -0.057062 -0.071774 -0.206617 0.071847 0.119981 0.066023 -0.032954
-0.11719 0.157112 -0.014117 -0.088458 -0.080283 0.118121 -0.031509 -0.018573 -0.083695 0.070928 0.089856 0.085562 0.01686 -0.109276 0.14001 0.040275 -0.128641 0.025602 -0.042511 -0.070822 -0.095003 0.099692 0.143652 0.141249 -0.040176 0.080077 -0.08681 0.030607 -0.020226 0.142357 0.07923 0.088488 -0.322635 0.060545 0.157514 -0.083109 0.042134 0.069799 0.002264 -0.247601 -0.0496 -0.088127 -0.00728 0.14979 -0.12509 -0.133064 -0.160255 0.02237 -0.08645 0.070527 0.143149 0.137326 -0.054762 0.137942 -0.195493 -0.06551 -0.154348 0.135263 -0.161696 -0.042704 -0.006986 0.099685 0.061137 -0.044457 -0.059555 0.216352 0.054275 -0.015218 0.045034 -0.014972 -0.007714 -0.012673 0.066129 0.02302 -0.013105 0.013703 -0.197739 0.021511 0.056039 -0.097501 -0.128551 0.359602 0.084534 -0.132362 -0.049248 0.040423 -0.009948 0.066171 0.073117 -0.121229 -0.056422 0.103031 -0.047446 -0.131591 -0.061782 0.034015 -0.026256 0.001815 -0.010916 0.008569
1.035361 1.319725 0.388011 1.220811 -0.236045 1.447081 -1.78193 3.520004 0.063077 -1.681862 0.545208 0.767849 -1.479444 -1.152839 0.669301 0.685509 -2.946755 -2.239533 -1.187422 -1.793336 0.607402 0.130687 0.296681 -1.569517 1.825066 1.715849 -1.639836 0.849724 -1.742086 0.427502 3.84844 -1.377145 0.671096 -1.312902 -1.152387 0.705431 2.180344 2.97496 1.402098 -0.909545 -1.649212 -0.253421 1.186817 1.193823 3.167747 -0.387379 -0.12198 0.872223 0.13285 0.490844 0.029473 1.345032 0.297008 2.724698 -1.656047 -0.109585 1.500583 -1.148555 -3.658389 1.022988 -1.211381 0.342059 -0.023586 1.22536 -1.874871 -1.957746 -0.188066 -0.235303 -0.067175 1.107354 1.448404 0.838301 1.67396 -0.238039 -0.504146 -1.334739 0.688005 0.37731 -2.953094 0.650433 0.307563 -0.457962 -1.694326 2.40152 -0.816994 0.208705 1.853393 0.15935 -0.989952 1.089235 1.087388 -2.786835 -2.248864 -0.788939 0.405791 0.907533 -1.516669 1.970717 -0.345554 -0.134731
0.111892 0.01378 -0.047297 0.162341 0.067451 0.10902 -0.119088 -0.090107 -0.097076 0.025296 -0.017535 0.107782 -0.00256 0.080795 0.058893 -0.0372 -0.011759 -0.146208 -0.16243 0.06978 0.094832 0.025283 0.105435 -0.05398 0.080288 -0.052925 -0.020773 0.103992 -0.014634 -0.084328 0.101895 0.190913 0.05204 -0.029759 -0.021684 -0.013872 0.2671 -0.019463 0.095875 -0.102192 -0.084271 -0.100327 0.133149 0.029422 -0.027453 -0.081145 -0.103923 -0.075562 0.083272 -0.014515 0.138298 -0.001562 -0.028913 0.076054 0.003076 0.115093 0.034456 -0.034865 0.03911 -0.13262 0.095919 0.001019 0.00623 -0.127794 -0.06241 -0.034712 -0.013499 -0.056035 -0.005595 0.156541 -0.025752 -0.013765 0.05656 0.032367 0.013893 -4.69E-4 -0.055776 -0.100697 -0.098114 0.153965 0.071293 -0.046671 -0.071572 0.024842 0.053576 0.002123 0.018444 0.109556 0.030393 0.121736 0.008703 -0.110794 -0.18146 0.103898 -0.109619 0.044195 -0.104034 0.011503 -0.081351 0.146507
0.170861 -0.033456 0.042011 0.109228 -0.006111 -0.053859 -0.049316 -0.217773 -0.280103 0.092763 0.038591 0.070929 -0.091364 0.113956 -0.010765 0.005993 -0.133179 0.023964 -0.197807 0.100849 0.087772 0.131837 0.174564 -0.002642 -0.09715 0.084011 -0.047629 -0.130648 0.14931 -0.04551 -0.137316 0.107635 -0.025688 -0.023067 0.00102 -0.06442 -0.016912 0.022991 -0.101432 0.013679 0.015218 0.119201 0.300141 0.034604 -0.118257 -0.327475 0.20263 0.068082 -0.078871 -0.04184 0.045335 -0.024608 -0.018593 -0.114041 0.215547 -0.02002 -0.027627 -0.302955 0.106071 -0.118022 0.017775 0.016594 -0.034003 -0.013985 -0.173502 -0.041718 0.27724 0.2009 0.064732 0.027921 0.009641 -0.039923 0.02456 0.095852 0.122081 -0.136088 -0.072417 0.068661 0.018152 0.025987 -0.053625 0.049371 -0.071504 0.098424 -0.002368 -0.130024 0.16077 -0.011124 0.0218 0.019872 -0.006768 0.142894 -0.065337 0.104023 0.007706 0.011546 0.007826 -0.246329 -0.049819 0.027476
-0.015499 0.057351 -0.045178 -0.334165 -0.118998 -0.12174 0.048563 0.002548 0.26049 -0.070169 -0.236679 -0.090215 -0.1117 -0.017727 0.18818 -0.01852 -0.047805 -0.068975 -0.088173 0.035368 -0.003106 -0.046164 -0.014188 0.002107 0.028281 -0.071442 0.125093 -0.278255 0.24975 0.043588 -0.008323 0.031976 0.165114 0.039907 0.075451 0.183219 0.256364 -0.042436 0.124916 -0.091479 -2.41E-4 -0.166279 0.023024 -0.161923 4.81E-4 0.168805 0.08227 -0.20219 -0.02261 -0.154085 -0.064559 -0.037743 -0.038552 -0.17856 0.050426 0.23744 0.024525 0.090169 -0.167555 0.065234 0.033524 -0.166927 -0.078052 0.108171 -0.171548 -0.146182 -0.056243 -0.083968 0.07146 0.051271 0.081756 0.018144 -0.017082 0.036614 0.161171 0.210061 0.085362 -0.095316 0.092893 -0.199161 -0.032881 -0.272469 -0.061519 0.121568 0.020292 -0.143322 -0.121383 0.012361 0.03079 0.036855 0.065896 -0.078398 -0.116226 -0.004776 0.070568 0.077738 0.139243 0.207348 0.014876 0.001629
-0.083823 -0.165045 -0.012782 0.008489 0.030191 -0.007215 -0.187155 -0.025589 -0.120884 0.154078 0.235347 0.131401 0.021309 -0.15207 -0.086784 0.196181 0.092573 0.125789 0.229329 0.219178 0.169897 0.140626 0.06814 -0.048396 0.00421 -0.370539 0.122221 -0.163118 -0.037866 -0.040068 -0.194131 0.041946 -0.030064 0.040519 -0.154073 -0.068705 -0.154757 0.256816 -0.01708 -0.093676 0.008993 0.443929 0.008666 0.012388 0.056564 -0.115613 0.027442 -0.034646 -0.161803 -0.032112 -0.0266 -0.188564 0.129639 0.165411 0.158626 -0.010431 0.28268 0.080381 -0.026544 -0.069151 0.115069 -0.161017 -0.034051 -0.002306 -0.042446 -0.045717 0.126797 -0.097134 -0.003817 -0.157153 0.058017 -0.181377 -0.101897 0.04078 -0.081514 -0.137046 0.06527 -0.11204 -0.008583 0.01426 -0.172564 0.144057 -0.01154 0.121032 0.101343 -0.205693 0.118992 -0.22536 0.139395 0.074098 0.045004 0.110079 -0.183831 0.059954 -0.157712 -0.085933 0.350541 0.090902 -0.215095 -0.156024
0.484241 -0.661924 -1.907541 1.933975 -0.749601 -0.486347 -5.200978 -0.362321 3.679988 -1.043034 -0.911906 0.745269 -0.03524 3.92877 -0.252917 2.6075 3.166136 -0.440498 0.460058 -1.070901 -0.167234 1.688522 0.684133 -1.395407 -1.637013 -1.068007 1.349811 1.851656 2.160822 -0.047733 1.020031 -2.104588 2.992274 -1.94135 -0.899344 0.591581 -2.443956 -0.494809 0.338818 -0.194211 -1.445519 -3.042186 -0.309069 -1.178563 -2.324277 -1.928139 1.280841 0.747364 0.827966 -1.730704 0.120441 1.253829 1.223718 -4.023524 1.774723 -1.064466 -4.040236 1.249063 -2.764903 0.964121 -0.50866 -1.573828 -2.020168 -2.390114 -0.650321 -0.504108 2.081825 -0.345484 0.781659 -0.564844 2.046967 0.375326 -1.141523 -1.008701 -0.857071 -2.26907 0.022949 1.147147 0.383516 -0.632609 1.435307 -0.650538 0.939325 -2.78559 -0.51875 3.294029 -0.015677 2.31298 0.684535 2.246078 0.626691 0.399866 0.707312 0.668645 2.464671 0.57136 -2.231186 2.563682 1.358806 -1.387426
2.169819 1.092619 1.659942 -0.988613 -1.400016 0.593354 -1.858374 -1.285414 1.092916 -0.571783 0.028217 -0.805138 -1.014225 1.419278 1.700796 3.459569 0.982006 0.171864 1.510666 -0.089538 -0.935896 3.136852 1.180154 -0.227135 0.150093 -0.212367 1.556078 0.684379 0.932087 1.67515 0.16162 0.386092 1.492144 0.41853 -0.62059 0.493583 1.317085 0.072215 -0.596047 -0.834395 0.421104 -3.202802 0.069832 0.500344 -0.778037 -1.020249 0.629177 2.188962 1.657077 0.174329 -1.035736 2.291635 -0.005742 -1.091608 -1.096394 -1.32439 -3.267427 0.820412 -2.913521 -0.785461 -2.739521 -0.259463 1.417446 -2.193791 -0.84542 0.479177 3.071701 -2.184536 0.965508 -2.398886 1.024148 0.808948 1.184571 -0.318736 2.504185 0.279954 0.918803 1.737697 2.192016 1.107646 0.858714 -0.494975 0.725248 -0.992746 -0.542617 2.880631 -1.096348 2.549649 -0.931937 2.160383 0.426077 0.309975 -0.321193 -2.09093 0.624996 -0.868953 -0.276372 1.81001 -0.55118 -0.99427
-0.170205 -0.144595 -0.013509 0.181564 -0.062616 -7.61E-4 -0.181672 -0.075145 -0.211158 0.253109 0.094722 0.233225 0.143612 -0.357472 0.003962 0.074906 0.045027 0.140368 0.018154 0.264137 -0.19999 0.091775 0.241394 -0.017813 -0.31342 -0.134544 -0.329471 -0.037148 0.185241 -0.139347 -0.050331 -0.152643 -0.244624 0.02758 -0.128341 -0.085833 0.299353 -0.162725 0.001509 0.294342 0.012933 -0.02625 -0.067183 0.067065 -0.098696 -0.082849 -0.129815 0.010112 -0.120436 0.308658 -0.040452 -0.228609 0.114784 0.032307 0.069598 -0.12964 0.048075 -0.064014 0.009056 -0.196887 -0.027548 -0.019696 0.085198 -0.102368 -0.044609 -0.068371 -0.035304 0.162054 0.068598 -0.125131 -0.069339 -0.014665 -0.18047 0.013859 -0.073747 -0.068685 -0.104832 0.071499 -0.257915 -0.104579 -0.04522 0.130665 0.141386 -0.207987 -0.06382 0.196213 -0.142391 0.018659 0.149278 0.067008 -0.03666 -0.011896 -0.033402 0.109002 0.079188 -0.026246 -0.07679 -0.105647 0.090802 -0.074765
-0.053833 0.079877 0.072856 0.139498 -0.105369 0.004769 -0.27073 -0.096518 -0.168103 -0.103006 0.202092 0.363744 -0.141267 -0.129923 0.01534 0.19683 -0.187167 0.111945 0.109179 -0.016332 0.035184 0.139347 0.315416 0.181261 -0.257633 -0.053217 -0.053058 -0.098832 0.23437 -0.331022 -0.084191 -0.075678 -0.001831 -0.110346 -0.013756 -0.266761 0.034555 -0.008762 -0.150297 0.165393 -0.060494 -0.197826 0.147763 -0.035721 0.031472 -0.210231 -0.085577 -0.109783 -0.244063 0.165008 0.054471 -0.00802 0.010601 -0.037268 0.221023 -0.133451 0.002637 -0.019477 0.129964 0.041991 -0.012534 -0.093924 -0.069187 -0.137315 -0.125857 -0.019287 -0.075852 -0.025292 0.08558 -0.045041 0.044839 -0.045932 0.096927 -0.044108 0.128249 -0.290646 -0.150284 -0.045275 0.037713 0.15651 0.143393 -0.066424 0.296246 -0.291488 0.055917 0.059085 0.065453 0.001004 0.226514 0.017525 -0.201115 -0.040421 -0.006957 -0.001567 -0.074785 -0.124046 0.079696 -0.095859 -0.218243 -0.010996
0.172633 -0.123497 -0.025144 -0.051571 -0.021684 0.009513 0.024965 -0.070089 -0.162122 0.044902 -0.066471 0.183612 -0.158597 -0.138247 0.109142 -0.019739 -0.034427 -0.133012 -0.046033 0.101875 -0.16482 -0.071987 0.178118 -0.068561 -0.063461 -0.09846 0.042484 0.130016 0.165242 0.025441 -0.169865 0.032621 -0.093659 -0.023793 -0.082033 -0.131701 0.032548 -0.207618 -0.006472 -0.018442 0.014793 -0.142302 0.107775 0.206527 0.032503 -0.093924 -0.018917 0.097431 0.150183 -0.050431 -0.150689 0.00893 -0.011393 0.032067 -0.08896 -0.031352 -0.057676 -0.071167 -0.005389 -0.17218 0.056652 -0.053201 0.069253 -0.027612 -0.045682 -0.044697 -0.030101 -0.057778 -0.124386 0.161396 -0.08052 -0.071833 0.003182 0.026035 0.034584 -0.201728 -0.024615 0.021576 0.077717 0.066089 0.140713 -0.062258 0.11156 -0.09363 -0.080545 0.058468 -0.078043 -0.042491 -0.052312 0.239053 -0.201098 -0.020052 -0.030776 -0.154485 0.101765 0.197628 -0.052855 -0.027901 -0.015538 -0.004839
0.142855 2.096782 -0.44488 -0.186519 4.581101 0.368552 1.025096 -0.312802 -2.617651 -0.157005 2.963322 2.120705 -1.775955 -0.565663 0.972057 2.924774 -3.483148 -0.388176 -2.731071 -0.326463 1.005034 -0.173592 0.985748 -2.472826 -0.247049 -1.602126 -2.48254 -0.015307 0.921201 -0.634243 -0.734395 -4.469334 -2.338912 -3.86095 -2.404253 -1.170435 3.191081 0.66076 0.725646 -0.864367 -2.371157 -0.851367 -3.29822 -1.074393 -2.64488 2.784424 -0.996674 2.506345 2.15789 -2.159862 -0.441733 -0.926918 -0.098512 0.757891 -1.999629 -4.007104 0.387073 -3.003765 1.204233 -2.431844 -2.281004 -0.27222 1.915759 2.567541 -2.305997 0.668549 -1.469449 -4.443738 -0.244681 3.958085 3.663286 2.390184 0.145926 -1.914193 1.202993 0.085106 1.119028 1.764289 0.413107 1.270882 2.30135 -2.063297 -0.209725 -0.837978 1.54811 -1.075222 1.662849 3.024555 -0.817108 2.02425 0.827332 0.999754 -2.964958 -4.68355 2.112919 1.12159 -1.379614 1.011169 -1.034187 2.880255
1.035361 1.319725 0.388011 1.220811 -0.236045 1.447081 -1.78193 3.520004 0.063077 -1.681862 0.545208 0.767849 -1.479444 -1.152839 0.669301 0.685509 -2.946755 -2.239533 -1.187422 -1.793336 0.607402 0.130687 0.296681 -1.569517 1.825066 1.715849 -1.639836 0.849724 -1.742086 0.427502 3.84844 -1.377145 0.671096 -1.312902 -1.152387 0.705431 2.180344 2.97496 1.402098 -0.909545 -1.649212 -0.253421 1.186817 1.193823 3.167747 -0.387379 -0.12198 0.872223 0.13285 0.490844 0.029473 1.345032 0.297008 2.724698 -1.656047 -0.109585 1.500583 -1.148555 -3.658389 1.022988 -1.211381 0.342059 -0.023586 1.22536 -1.874871 -1.957746 -0.188066 -0.235303 -0.067175 1.107354 1.448404 0.838301 1.67396 -0.238039 -0.504146 -1.334739 0.688005 0.37731 -2.953094 0.650433 0.307563 -0.457962 -1.694326 2.40152 -0.816994 0.208705 1.853393 0.15935 -0.989952 1.089235 1.087388 -2.786835 -2.248864 -0.788939 0.405791 0.907533 -1.516669 1.970717 -0.345554 -0.134731
0.036903 -0.189601 -0.020609 0.00605 0.012618 0.088186 -0.050233 -0.198125 -0.102302 0.118384 0.187427 0.103609 -0.050766 0.043744 0.067109 0.09483 -0.024368 0.040508 0.005774 -0.008936 -0.150345 0.037029 0.170653 0.278486 -0.09006 -0.217548 -0.055853 0.010204 0.00432 -0.142911 -0.086807 0.073802 0.071402 0.078249 0.120669 -0.085243 -0.033744 -0.051996 0.152086 0.140703 0.123453 -0.05414 0.096248 0.034511 -0.11831 -0.02302 0.033732 -0.032284 -0.054707 0.140981 0.08261 -0.153659 -0.08693 -0.005037 -0.054453 0.020069 -0.085498 -0.115273 0.113954 -0.057529 -0.089896 -0.041633 0.087834 -0.247267 0.027296 0.181343 -0.039196 -0.013266 0.140145 -0.13665 -0.268081 -0.038239 -0.137336 -0.015386 0.032886 -0.077421 -0.051809 -0.108988 -0.128323 -0.117072 -0.067944 -0.001983 0.16214 -0.131931 0.055468 -0.105463 -0.063296 0.128103 0.089557 0.047575 -0.043916 0.056918 -0.103469 0.133354 -0.21897 -0.214716 0.025723 0.09097 -0.047847 -0.134892
-0.063002 -0.234083 0.048008 -0.021485 0.118425 -0.069097 -0.089614 0.015575 -0.088887 0.008327 0.207637 0.145627 0.039454 -0.145483 0.089805 0.196481 -0.026693 0.037297 0.038377 -0.023252 -0.091593 0.155254 0.091762 0.050857 -0.144125 -0.075574 0.049194 -0.032084 0.088898 -0.067973 -0.157209 -0.065605 -0.063939 0.138195 -0.158256 -0.04692 0.110173 -0.083955 0.114583 -0.018865 -0.089491 -0.035668 -0.039526 -0.115205 0.064068 0.002368 -0.123687 -0.024408 -0.086747 -0.035676 0.106402 -0.137065 -0.237056 -0.05544 0.044405 -0.024529 -0.050672 -0.058347 0.091211 -0.044203 0.049511 -0.047131 -0.007296 -0.041396 -0.197592 0.039256 0.094077 0.002507 0.045318 -0.030448 -0.002259 0.129894 0.004666 -0.055742 0.17851 -0.088069 -0.097555 -0.041865 -0.069832 -0.013662 0.134387 0.047405 0.029899 -0.225063 -0.109655 -0.168055 0.098443 0.06128 0.226794 0.174187 -0.15428 5.93E-4 -0.052234 -0.024077 0.128116 -0.13384 -0.03913 0.070803 -0.065908 0.038777
0.100195 -0.080192 0.098636 -0.002196 0.010816 -0.057799 -0.189106 0.035665 -0.158401 0.017096 0.057723 -0.073496 -0.154333 -0.058186 0.055717 0.179485 -0.09119 0.047592 -1.1E-5 -0.036447 0.069542 -0.026364 0.113772 0.231986 -0.134337 -0.215597 0.010651 -0.012594 -0.064549 -0.007239 -0.011789 -0.096077 0.077943 -0.071619 -8.0E-5 -0.047155 0.073651 0.037863 -0.040627 0.055824 0.044377 0.007974 0.031266 0.114302 -0.02862 -0.031345 -0.079388 -0.051952 -0.221712 0.085653 0.037433 -0.19096 0.086855 -0.018699 -0.0544 0.140116 -0.057536 -0.02972 0.014695 -0.057303 -0.13393 -0.114809 -0.125779 -0.174829 0.064946 0.061459 0.014127 -0.050541 0.147494 -0.078643 -0.089289 0.069975 -0.046343 0.105745 0.018637 0.028574 -0.076456 -0.003611 -0.026723 -0.119504 0.041653 -0.081001 0.007688 -0.065893 0.117237 -0.046508 -0.04831 0.071317 0.133236 0.021252 0.027556 0.093483 -0.054558 0.072389 -0.048773 -0.055195 -0.030206 -0.077247 -0.105549 -0.120534
-0.006449 -0.153499 0.101213 0.025071 -0.025549 8.12E-4 -0.006798 -0.098634 -0.184565 0.05498 -0.124604 0.185318 0.001132 -0.02884 -0.053717 0.378249 -0.083008 0.143533 0.047323 -0.014438 -0.088582 -0.018581 0.085201 0.055559 -0.030266 -0.138266 0.189702 0.077809 0.241186 -0.062909 -0.165132 -0.040297 -0.046576 -0.068152 -0.060899 -0.183167 0.04104 -0.019354 0.175882 -0.161376 -0.147765 0.065251 0.004425 0.080523 0.018966 0.048547 -0.218597 -0.099258 -0.194519 0.016694 0.172033 -0.18357 -0.08039 0.022567 -0.042835 0.163554 -0.053181 -0.103303 0.055871 -0.157093 -0.123526 -0.04249 0.126128 -0.168031 -0.131907 -0.081317 -0.065406 0.166663 0.13953 -0.053365 0.083006 -0.06121 0.05693 -0.051551 0.006058 -0.068001 0.039408 -0.052797 -0.064339 -0.026476 -0.171262 0.033643 0.022305 -0.06295 -0.049789 0.164201 -0.088317 0.0451 0.030315 0.165859 -0.07309 0.015882 -0.06394 0.010069 0.02775 -0.080793 0.064878 0.073738 -0.14166 -0.020233
-0.196378 -0.124527 0.075469 -0.005025 -0.201426 -0.033078 -0.005151 -0.025823 -0.134686 0.148143 0.009639 0.052167 -0.181159 -0.120047 -0.043782 0.215523 0.023422 0.291186 0.18364 -0.016074 -0.110889 0.315667 -0.024953 0.094077 -0.232807 -0.158684 0.073606 -0.039688 0.17275 -0.07609 -0.129752 0.104054 0.052472 -0.125417 -0.222996 -0.073411 0.045401 8.28E-4 0.130327 -0.153925 -0.023576 0.072946 0.074527 0.015025 0.224417 -0.115425 0.036671 0.02152 0.076359 0.098168 0.11409 -0.150787 0.028894 0.203084 0.019812 -0.037701 4.85E-4 -0.055753 0.178202 -0.166369 -0.006046 0.239265 0.052687 -0.173221 -0.110179 -0.039989 -0.028546 0.02066 -0.059348 -0.077794 -0.211972 -0.078481 -0.071585 0.013738 0.059958 -0.205221 0.036796 0.105951 -0.113863 0.161719 0.010698 0.455828 0.098652 0.006509 -0.06508 -0.074358 -0.049288 -0.011355 0.08401 0.056766 -0.069512 -0.039128 -0.078748 0.028244 0.042451 -0.237782 -0.091966 -0.129073 -0.016123 -0.184537
-0.034355 -0.032624 0.199767 0.005333 -0.017739 0.056352 0.029424 -0.030199 0.021501 -0.058459 0.007633 0.035986 -0.019477 -0.066338 0.122967 0.109226 0.019004 0.106931 -0.021536 0.088322 -0.146882 0.060271 -0.048463 0.045495 -0.071025 -0.098507 0.019002 0.035445 0.148947 -0.236889 0.031148 -0.108787 -0.034147 -0.086219 0.067012 -0.055364 0.080612 -0.007981 -0.045472 0.064676 -0.109496 0.060769 0.041785 -0.009122 0.044502 -0.088972 0.049544 0.038709 -0.028194 -0.033044 0.020137 -0.100587 0.087732 0.023429 0.131458 -0.257082 -0.013136 -0.208503 0.050067 -0.141838 0.147681 -0.008098 -0.012417 -0.073334 -0.157796 -0.104002 0.021573 -0.049296 -0.140103 -0.104901 -0.037706 0.087579 -0.036719 0.004416 0.079762 -0.175127 -0.116852 -9.54E-4 -0.001441 -0.018956 0.049765 -0.094634 -0.056623 -0.059285 0.103667 -0.086029 0.041032 -0.055263 0.035383 0.097164 -0.162184 0.094111 -0.037403 0.121801 -0.145614 -0.0602 0.033289 -0.037582 0.038226 -0.090747
0.062098 0.08763 0.051294 0.022802 0.075574 0.043302 -0.015178 0.003411 -0.033745 -0.041568 -0.047229 0.101845 -0.01256 -0.061591 0.021896 0.043728 -0.174868 0.05962 0.074023 0.118708 0.084009 0.080038 -0.025494 0.054901 0.047579 -0.002926 -0.020936 0.097978 0.016619 0.04729 -0.04665 -0.193161 -0.199604 0.085117 -0.151689 0.023993 0.025773 0.087716 0.029994 -0.065484 -2.7E-4 -0.054095 0.023356 0.029562 -0.037691 -0.035675 0.017255 0.150037 0.032713 -0.084817 0.119361 0.061548 -0.131074 -0.086167 -0.051781 -0.170707 -7.69E-4 -0.073988 0.084331 -0.04188 0.134442 -0.008156 0.006795 0.034622 -0.065651 -0.056781 -0.011303 0.02334 0.008505 0.163805 0.090244 0.070487 0.035154 0.007013 0.188806 0.089974 -0.234988 0.023557 -0.123577 -0.088407 0.013429 0.201356 -0.171596 0.00274 -0.248015 -0.156855 0.188284 -0.101998 0.006252 -0.09741 -0.051313 0.016936 -0.126348 0.199318 -0.064685 -0.217633 -0.013635 0.012666 0.077108 0.124351
0.041182 -0.071701 -0.007566 -0.111173 0.078129 -0.015794 0.102992 0.084804 -0.294614 0.062785 -0.224475 0.044822 -0.054604 0.018822 -0.254624 0.187632 0.057536 -0.04948 0.077868 0.052887 -0.065284 -0.04327 -0.015092 0.035227 -0.120777 -0.01384 0.019468 0.133926 -0.002242 0.025286 0.056421 -0.140413 -0.062551 0.118069 0.067541 0.127629 -0.190311 0.209374 0.192921 0.054712 -0.148947 0.032204 -0.170128 -0.03032 -0.002925 0.169345 0.085453 -0.024603 -0.011659 -0.145112 -0.290293 -0.065943 -0.09053 -0.275955 0.113964 -0.118032 -0.172779 -0.215132 0.00824 0.127013 -0.169866 0.062208 0.042766 -0.087616 -0.10884 0.286924 0.050741 0.130539 0.292731 0.017204 -0.096873 -0.187146 0.25168 0.10377 0.08209 -0.05794 0.019952 -0.023549 -0.204179 -0.090327 0.135311 0.171028 -0.109687 0.012397 -0.001672 0.281126 0.051025 0.031007 0.309401 0.149164 -0.249441 -0.005679 -0.012549 0.20681 0.267068 -0.060891 -0.256129 0.182048 0.03837 0.01928
-1.321651 0.054234 -0.199554 1.338378 0.750825 0.491392 0.440192 -0.219764 0.450202 1.890925 -2.044724 3.461154 -1.694791 -0.174079 2.478085 -1.420779 1.658556 -2.469666 -2.375672 -2.514743 -1.212159 -1.757936 1.388319 -1.88878 -1.276996 0.178176 1.076686 -0.50059 1.216462 -0.139836 0.746555 0.882508 1.54854 1.249029 -0.375457 0.615533 0.910147 0.448121 3.914072 -1.488501 -0.829346 -1.020522 -1.230394 -0.092011 -0.219247 -0.0857 -0.297361 1.360479 1.127863 -1.637497 -0.032647 2.112287 0.183079 -0.60646 0.917557 1.039356 0.580587 0.135874 -1.617783 0.771689 0.823616 -0.796364 0.131117 0.520308 -1.926352 2.483096 -1.372478 -0.018998 -0.172528 0.125318 1.221687 0.399011 0.145571 -1.491891 1.426976 -1.43375 1.866543 -0.944126 -1.43367 1.301639 -0.322467 -1.551714 0.762624 1.5963 1.308983 -0.974276 0.259373 2.476859 0.450502 1.452517 -2.68E-4 -0.473102 -3.219219 -1.349556 -0.954501 -0.748365 1.839107 0.223617 -1.42408 2.611624
0.021801 0.047767 0.03396 0.045414 -0.116247 -0.055074 -0.024745 -0.074947 -4.79E-4 0.04414 0.181623 -0.224626 -0.073607 -0.060446 0.011759 -0.063758 -0.009581 -0.110683 -0.021059 -0.021534 -0.180234 0.032658 0.048933 0.018761 -0.03702 0.149393 0.035452 -0.019397 0.338091 -0.067393 -0.029922 0.053453 0.202563 0.139385 0.139224 0.024787 0.11352 0.091446 -0.017206 0.079608 -0.082898 0.043839 0.087418 0.1131 -0.026485 0.055588 -0.016671 -0.153957 0.296557 0.090681 -0.146927 -0.104523 -0.076023 -0.013352 0.168942 -0.123345 -0.015107 0.009174 -0.023022 -0.070333 0.100208 -0.195211 -0.036155 -0.079596 -0.209194 0.025225 -0.104081 -0.068625 0.096678 0.046218 0.046445 0.075604 0.059536 0.022914 -0.147549 -0.341762 0.078235 0.099777 -0.027845 0.151788 -0.205136 -0.039023 0.169104 0.026798 0.082909 0.008252 0.059797 -0.212183 0.046873 0.038391 0.033162 -0.112818 0.107139 -0.090984 0.104094 -0.085878 0.006286 0.16308 0.060007 -0.056075
-0.099779 -0.088851 -0.036921 0.088425 -0.040922 0.072369 -0.154586 0.011688 -0.007618 0.076278 0.089523 0.224786 0.062236 -0.233317 0.06423 0.133326 -0.132016 0.100983 -0.096608 0.02889 -0.116602 0.025416 0.115793 0.091144 -0.181606 0.01795 -0.140598 -0.079933 0.06915 -0.108515 0.060402 0.033142 -0.039611 0.073342 -0.337017 -0.119071 0.154116 0.004965 0.122293 -0.024123 -0.094374 0.202871 0.064663 -0.093456 -0.016288 -0.107149 -0.02292 -0.015554 -0.210102 0.17543 0.117124 -0.187922 0.003764 0.002373 0.07756 -0.167652 0.007686 -0.033869 0.020928 -0.055266 0.082302 -0.15228 0.001255 -0.170724 0.066994 0.10561 0.053247 0.006181 0.130398 -0.056247 0.049538 0.055487 0.010175 0.04748 0.065952 -0.050069 -0.103701 -0.065108 -0.023664 -0.057811 -0.024543 0.009046 0.093955 -0.110368 -0.096206 -0.04799 0.09091 0.135345 0.033909 0.149976 -0.22925 0.022657 -0.119194 0.012082 -0.17202 0.012624 0.055093 0.005004 -0.105271 -0.143153
0.0 0.0 0.0 0.0 0.0 0.0 0.0 0.0 0.0 0.0 0.0 0.0 0.0 0.0 0.0 0.0 0.0 0.0 0.0 0.0 0.0 0.0 0.0 0.0 0.0 0.0 0.0 0.0 0.0 0.0 0.0 0.0 0.0 0.0 0.0 0.0 0.0 0.0 0.0 0.0 0.0 0.0 0.0 0.0 0.0 0.0 0.0 0.0 0.0 0.0 0.0 0.0 0.0 0.0 0.0 0.0 0.0 0.0 0.0 0.0 0.0 0.0 0.0 0.0 0.0 0.0 0.0 0.0 0.0 0.0 0.0 0.0 0.0 0.0 0.0 0.0 0.0 0.0 0.0 0.0 0.0 0.0 0.0 0.0 0.0 0.0 0.0 0.0 0.0 0.0 0.0 0.0 0.0 0.0 0.0 0.0 0.0 0.0 0.0 0.0
2.415313 -0.34157 -0.0955 0.624972 1.244667 1.692816 -0.531851 0.206191 -0.735873 -0.612539 -0.038568 0.266214 2.331221 0.694065 2.635804 0.169469 -1.313332 0.24453 -1.722089 -0.086566 -0.718461 3.896963 -0.848983 0.255117 3.295884 0.624064 -0.44351 -0.681188 -3.757309 -0.542435 4.370264 -1.129628 -2.765845 -1.28619 0.724274 -0.51263 2.086502 -1.92857 -4.119601 0.062422 -0.310634 0.179512 3.058102 0.589475 0.395665 0.977313 0.314317 -1.042674 2.079314 -0.919024 2.278623 -4.313172 -1.537104 0.066877 -3.864234 -0.60112 1.659109 2.287183 1.621359 0.113089 1.787301 2.029128 0.528256 -0.083823 2.295228 0.674007 3.115173 -0.913142 -1.939658 0.449034 -0.297662 2.161154 -1.420345 -1.658119 -1.699901 -1.297249 -2.473682 -1.436993 -0.534053 1.266741 -0.462397 -0.810429 0.634928 2.272203 -0.839515 -0.129122 -1.77943 3.505079 -2.700053 2.953955 2.436079 -0.836886 0.405112 -1.096344 -4.124146 -3.295181 2.0753 4.836797 1.692797 -0.66384
-0.109163 -0.191478 0.176938 0.158747 -0.094603 0.014841 -0.097218 0.023553 -0.118593 0.29949 0.062688 0.138529 0.020623 0.106482 0.050719 0.08577 0.066896 0.274331 0.045083 0.035189 -0.17428 0.162765 0.114625 0.100983 -0.212349 0.005975 -0.044796 -0.0677 0.13026 -0.162669 -0.063661 -0.080109 -0.010793 0.127913 -0.205086 0.034233 0.016162 -0.138748 -0.03618 0.060254 -0.004051 0.254393 -0.064235 -0.256121 0.010128 -0.088343 0.124967 -0.071961 -0.124844 0.025526 0.107904 -0.098654 2.27E-4 0.06325 0.167935 0.066961 -0.050435 -0.029641 0.157162 -0.015336 0.072403 0.002033 -0.05103 0.012141 -0.007908 0.027512 0.104649 0.051594 0.084238 0.010704 -0.124188 -0.04354 0.016384 -0.051366 -0.095012 0.002764 -0.100361 -0.193219 0.091158 0.018723 0.004189 0.090707 0.054073 -0.281747 0.119344 0.007114 -0.050421 0.145364 0.172627 -0.030182 -0.154156 -0.020021 0.013087 0.026662 0.130919 -0.147982 0.047687 -0.05669 -0.013603 0.0402
-0.049635 -0.103073 0.253887 0.04108 0.052319 -0.05142 -0.189597 -0.011542 0.097531 0.019262 0.114527 -0.061102 -0.133151 -0.113371 -0.033199 0.136072 0.054274 0.349724 0.038691 0.110156 -0.1179 0.163816 0.394264 -0.007222 -0.168843 0.098743 -0.10521 -0.087412 0.040951 -0.188737 0.098713 -0.043611 -0.055949 0.238297 -0.186196 -0.028662 -0.089183 0.183903 -0.066614 -0.103684 -0.131928 -0.00787 0.062976 0.041979 0.043564 0.032857 -0.123864 -0.037007 -0.173638 0.033704 0.18433 -0.12014 -0.10154 0.029101 0.183689 0.042064 0.013369 0.130856 0.0106 -0.243803 0.0724 0.002816 -0.314683 -0.183085 0.034406 -0.088406 -0.045928 -0.022786 -0.071209 -0.081021 -0.196672 0.062834 -0.075166 0.01034 0.069947 0.031525 -0.19813 -0.161053 -0.05765 -0.077149 -0.016348 -0.018007 0.043652 -0.363365 -0.062151 0.006908 0.152125 -0.071699 -0.087589 -0.033835 -0.160873 -0.101492 -0.02442 -0.017106 0.004936 -0.058972 -0.002956 -0.213757 0.042222 0.024238
-0.163312 -0.292994 -0.155895 -1.026258 1.235007 -0.079407 -0.06134 2.480421 1.307222 0.242924 -1.75048 0.282292 0.009432 0.27678 0.441738 0.534302 0.163956 1.349448 -0.139653 1.509612 0.063859 0.486391 0.066898 -0.518028 -0.315279 0.726094 -0.411496 -1.044597 -0.419784 0.931183 -1.362395 1.58299 -0.218355 -2.614146 -0.055422 -0.710646 -0.940707 0.789607 -0.224667 0.917002 0.327351 0.668908 0.24389 1.439296 0.729503 -0.642387 -0.299766 0.194209 1.387285 0.086281 -0.207128 -0.494758 -1.84574 1.042791 1.12539 0.09097 -0.331735 -0.605199 2.068982 -0.207219 2.931409 0.968558 2.301146 -0.739266 -0.13495 0.059629 1.113869 0.206911 1.23082 -0.619976 0.691301 -1.977301 0.802595 0.931452 0.681332 -1.768511 1.396745 -0.026925 0.253037 0.80456 -0.845123 0.569855 2.210923 -0.522891 1.240944 -0.319495 1.275538 -0.75652 0.011 0.42367 0.032554 0.411413 -0.468153 -0.677677 0.838837 -0.51561 1.149073 -0.062521 1.843732 -1.341859
0.042977 -0.070017 0.190589 0.125939 -0.001648 -0.282782 -0.184673 -0.030186 0.171311 0.25555 0.153918 -0.067445 0.229226 -0.022902 0.01267 0.088778 0.144701 0.314307 0.121789 0.235019 0.043835 0.08807 0.350391 0.282603 0.105164 0.117864 -0.064751 -0.09476 -0.023881 0.02563 -0.020781 0.080013 -0.122777 0.372616 0.044695 0.021286 0.046796 0.104347 0.195547 0.219867 0.062328 0.322906 0.056318 -0.257579 0.266307 0.020749 0.295405 0.050107 -0.153979 0.041789 -0.078178 -0.316537 -0.043145 -0.138436 0.178763 -0.099915 -0.135673 -0.071253 0.042782 0.066688 0.04965 -0.092471 -0.040387 -0.062192 0.05117 0.163648 0.027194 0.193685 0.274763 0.153062 -0.237018 0.288556 0.006994 -0.021292 0.141502 -0.122121 0.044016 0.101737 -0.150596 -0.053955 0.020618 0.233818 0.028681 -0.247148 -0.239298 0.055977 0.102303 -0.052792 -0.210779 0.17465 -0.1398 -0.415253 -0.064726 -0.047848 -0.125273 0.210987 0.036443 0.058052 -0.135235 -0.07852
0.464728 0.698564 4.351004 0.356522 -2.312163 -0.106534 -0.626926 1.638133 -2.30394 0.843816 0.076319 1.347129 1.683631 1.131922 -2.537392 -0.989717 1.841428 -0.357445 -0.033138 0.259323 -3.791949 1.079092 1.665312 -1.293563 4.119525 -0.073337 1.187487 -2.581648 -1.551698 1.357854 1.735133 -2.821812 -3.934329 2.030408 -2.512176 -3.266193 1.515871 1.344586 -1.176812 -1.466112 -1.57161 -4.248335 0.228562 1.27687 0.096625 -0.160909 -1.981642 -2.367107 0.031295 -0.860197 1.396765 0.979309 -0.319894 0.648387 1.075709 -4.400717 1.62419 -0.255286 0.311649 0.279676 -0.08885 0.600988 -2.359182 -0.203244 0.142085 -3.757186 1.657524 1.921388 -0.13259 1.103804 -2.116039 1.522432 -1.524913 0.061974 -2.453366 -0.192137 3.612906 -1.635196 -0.162291 -1.02934 -1.94599 -0.543792 -0.724015 -0.121633 -0.384733 0.49915 2.829963 0.49686 -0.185457 0.664357 2.769713 0.522985 -2.925678 -0.655118 0.568952 -0.847246 -1.90933 0.695948 2.836577 -0.523278
0.035769 0.058317 0.191975 -0.135082 0.077683 0.133058 0.21069 -0.143426 -0.106562 0.002701 -0.224116 0.205582 0.076537 0.001996 -0.130578 -0.149406 0.098282 -0.155785 -0.057403 0.08067 -0.230811 -0.04997 0.042281 0.013696 -0.103447 -0.17395 -0.063526 -0.004448 -0.156893 0.112694 0.007401 -0.021781 -0.175916 0.235261 -0.085464 -0.232835 -0.113726 -0.004095 -0.027213 -0.03003 -0.120417 -0.103691 0.028289 0.126456 -0.047919 -0.012561 0.048385 -0.098322 -0.032864 0.106018 -0.041385 0.217367 -0.06791 -0.188917 0.007965 0.025893 -0.16814 0.026786 -0.143664 -0.076195 0.030508 -0.075149 0.017679 -0.08101 0.20174 0.202075 0.094835 0.090572 -0.172597 0.130066 -0.231244 0.078757 -0.006643 0.055191 -0.072693 -0.165465 0.156288 0.059163 -0.0263 -0.18595 -0.04885 0.033057 -0.160339 -0.177348 -0.159418 -0.050726 -0.043463 0.026769 -0.2603 0.149814 -0.085542 0.033092 0.008019 -0.338678 0.196495 0.161688 -0.035479 -0.221108 0.190353 -0.012114
-0.019201 0.028111 0.019217 0.052324 -0.012545 0.076041 0.041859 0.132425 -0.042682 -0.25324 0.153679 -0.052639 -0.234426 0.154245 0.001178 0.07083 0.073083 0.160228 0.024133 -0.054811 0.001969 0.005439 0.181016 0.099355 -0.126409 -0.051701 0.037309 -0.123638 0.247936 -0.162055 0.114555 0.125901 0.087982 0.08593 -0.090916 0.032607 0.058566 -0.084423 -0.083684 -0.120125 -0.142636 -0.134573 0.099572 -0.067549 0.144656 -0.140025 -0.119758 0.069446 0.087216 -0.032862 -0.006618 -0.111395 0.032981 -0.031112 -0.118341 0.110071 -0.111936 0.153878 0.041608 0.007703 0.064796 -0.130385 0.030277 0.045725 -0.1256 0.149386 -0.11782 -0.166733 0.122695 0.114102 -0.065025 -0.01284 -0.004014 -0.036946 -0.052576 0.183617 0.039352 -0.109896 0.002856 -0.049741 0.098582 -0.079185 0.058208 -0.092538 -0.020486 -0.024785 0.136707 0.03449 -0.090652 0.201497 -0.097455 0.025029 -0.120762 -0.013839 -0.051103 -0.067125 -0.00444 -0.252706 0.02388 -0.108891
-0.047421 -0.15849 0.107499 0.089927 0.167776 0.08617 -0.300314 -0.309623 0.108092 0.189928 0.056687 0.033222 -0.077897 -0.080874 0.159018 0.266839 -0.245001 0.016831 -0.085825 0.058383 -0.059198 -0.055262 0.240707 -0.12969 -0.22039 0.060318 -0.047124 -0.139865 0.089529 -0.172326 0.039714 -0.133083 -0.093917 0.050088 -0.217563 -0.099461 0.041898 -0.126919 0.020688 0.317283 0.16597 0.022872 0.046324 -0.073254 -0.180954 0.079862 0.019486 0.185367 0.118476 0.006355 -0.032953 -0.037425 0.063885 0.11699 0.184923 0.052025 0.128145 -0.13686 0.190992 -0.211976 0.013083 -0.015876 -0.029147 0.01214 -0.021098 0.071397 0.239282 -0.021331 -0.132596 -0.213218 -0.047197 -0.061747 0.108005 0.06585 0.170104 0.21 0.017802 0.149472 0.139998 -0.100998 0.016478 -0.071088 -0.215638 -0.123884 -0.172349 0.055991 -0.115719 -0.021301 0.071983 0.092645 -0.139537 0.078519 -0.099633 0.035876 -0.078405 -0.346964 0.042416 0.013565 -0.105723 -0.0419
