-0.046795 0.065498 -0.090288 -0.15443 -0.174664 0.062825 -0.199215 -1.69E-4 -0.09179 -0.294911 -0.093717 0.061663 -0.166139 0.069289 -0.09831 -0.093233 0.022324 0.030848 0.115399 -0.082777 -0.160793 -0.065526 0.133221 -0.048052 0.022524 0.008832 0.124248 -0.198092 0.060541 0.183147 -0.011295 0.09562 0.250527 -0.038112 -0.31055 0.194624 -0.187763 -0.15182 -0.069097 0.047592 0.063592 -0.061033 0.155767 -0.012217 0.129098 -0.278468 -0.012968 0.107424 -0.082054 -0.155546 -0.450702 0.133798 0.141995 0.158253 -0.056732 -0.185178 -0.096913 0.214026 -0.051384 0.064459 0.010651 -0.12791 -0.04749 0.102012 0.093965 -0.332258 -0.239685 -0.102285 -0.08125 -0.025704 -0.074411 0.150237 -0.488105 -0.075756 0.107115 -0.215233 -0.321395 0.19946 -0.0131 0.169642 0.124643 0.002302 0.210361 0.164391 0.085145 0.25432 0.067896 0.21036 0.074294 0.244167 -0.491163 0.057786 -0.104787 -0.373241 -0.106033 -0.009849 -0.215659 -0.170895 0.034096 -0.046044
2.395766 1.011938 -1.052161 -2.585505 -0.377036 1.87837 -2.729561 -1.81345 -2.645714 0.503701 -1.606632 -0.06001 -1.856868 0.056276 0.838114 4.158875 3.932166 -2.093753 -1.489471 1.080061 -1.664243 0.918901 0.577553 -1.552055 1.141216 -0.235109 -0.570407 2.130142 0.308287 -0.613615 -0.982433 0.120117 -1.451542 0.677147 -1.95021 1.379324 0.750422 -3.02324 -0.322741 -0.303241 -0.163887 -1.466579 -0.294867 -1.375136 1.320218 -1.500966 1.35189 1.329801 3.032682 -0.809991 -1.071792 0.758551 -0.246075 1.123646 -1.049312 0.118316 -2.086002 -0.995873 -1.944948 -1.657865 -1.699957 -1.164021 2.624535 -2.742484 2.987239 -0.26127 1.501464 -1.22734 -0.848639 0.098418 3.425768 0.508025 -0.168178 -0.315643 -0.015186 0.828246 0.67686 1.180381 -2.676826 0.13856 -0.245373 2.564102 1.104745 -1.378707 0.834476 -0.365015 1.855932 0.057943 0.792726 1.261207 0.868141 0.333814 -1.099932 0.039652 1.997085 1.786676 -1.169512 -0.573885 -0.380289 1.020488
-0.097204 -0.10323 0.053526 0.013255 -0.039119 0.050303 -0.091298 0.001627 -0.038991 0.075332 0.128608 0.04208 0.103362 -0.009678 0.160546 0.1346 0.110642 0.192047 0.088019 -0.010464 -0.008668 0.216641 0.06079 0.017823 -0.083785 0.014762 -0.015114 -0.041888 0.106989 -0.018216 -0.127348 -2.84E-4 0.027854 0.064274 -0.145144 0.01531 -0.03649 -0.183502 0.010253 -0.050216 -0.045976 0.08304 -0.020941 -0.04625 0.07067 -0.010573 0.069444 0.045879 -0.029963 -0.08957 0.025801 -0.011033 -0.030842 0.101721 0.110262 -0.031307 -0.038468 -0.009199 0.103354 -0.065116 0.133549 -0.046137 -0.026184 -0.035805 0.016391 -0.007293 0.159656 0.020862 0.035031 -0.069256 -0.057652 -0.036117 0.040071 -0.097456 -0.086221 0.126878 -0.120482 -0.094221 0.04692 0.071136 0.020391 0.078483 -0.044232 -0.227928 0.04827 0.042482 0.079133 0.154932 0.14813 0.054526 -0.165885 -0.053842 -0.015411 -0.027434 0.035171 -0.02284 0.076609 0.039282 -0.053239 -0.055678
-0.01962 -0.05695 -0.107025 0.054649 0.052361 0.085034 0.024466 -0.158673 -0.158075 -0.116891 0.029933 0.047456 -0.118 -0.059339 -0.059388 0.061936 -0.143942 0.031008 0.086891 0.153955 -0.050165 0.024443 0.007827 0.124126 0.080677 -0.029323 0.091258 0.053866 0.081644 0.064287 -0.054257 -0.028253 -0.256732 0.081018 -0.088313 0.032974 0.042676 -0.117601 0.061631 -0.140403 -0.07452 -0.054501 0.032488 -4.88E-4 -0.002733 -0.172753 0.080065 0.080482 -0.078265 -0.007758 -0.006831 0.192073 -0.226863 -0.148704 -0.077058 0.095931 -0.101971 0.007738 0.002738 -0.183185 -0.078416 0.085421 0.059795 -0.001629 0.254022 0.097468 0.133822 -0.286067 -0.040077 -0.152735 -0.022574 -0.055336 0.070615 0.049166 -0.010149 0.124306 -0.200914 0.0219 -0.057625 -0.098357 0.051517 0.133641 0.087347 -0.228762 -0.142815 0.287694 0.017566 -0.007529 0.013309 0.111164 -0.041189 0.0265 -0.082694 0.06888 -0.005759 -0.144865 -0.019904 0.042003 -0.114617 -0.141964
-0.042678 -0.11581 0.224654 0.180184 0.046951 -0.127659 -0.223645 -0.072567 0.02744 -0.031627 0.23083 0.114615 -0.146656 -0.103802 0.124178 0.190905 0.038352 0.223753 0.101341 -0.05839 -0.108746 0.110045 0.284564 0.11439 -0.29351 -0.095319 -0.102196 0.039363 0.131456 -0.121373 0.035247 0.069248 -0.145372 0.043425 -0.074531 -0.125179 0.093597 0.057277 0.026069 0.211606 -0.095373 0.193361 0.118839 0.076711 0.090329 -0.146924 -4.03E-4 -0.03858 -0.181913 0.113764 0.207394 -0.286399 -0.137896 0.169741 0.031181 -0.184502 0.167153 -0.04877 -0.017437 -0.062228 0.113816 -0.149499 -0.066622 -0.258098 -0.02689 7.25E-4 0.046073 0.047368 0.117825 -0.14712 -0.131902 0.037238 -0.088663 -0.088854 0.121464 -0.091448 -0.233248 0.040909 -0.180606 -0.134376 0.013263 0.162123 0.154862 -0.11818 0.0689 0.076647 0.083548 0.037984 0.251342 0.189115 -0.102218 -0.089013 -0.094456 0.146544 -0.177494 0.039111 0.038637 -0.086365 -0.044197 0.037639
-0.091049 -0.059995 0.19558 0.304352 0.014133 0.080053 -0.165018 -0.087928 -0.046714 0.030527 0.128108 0.195479 0.009734 -0.043632 0.180863 0.073457 -1.5E-4 0.129258 0.035179 -0.03228 -0.077309 0.101007 0.152607 0.241528 -0.222899 0.105539 -0.172043 -0.011313 0.200425 -0.112789 -0.101666 -0.122514 0.182688 0.152815 0.083608 -0.034535 0.0293 0.015545 0.13465 0.034327 -0.051932 0.284724 -0.080297 -0.099753 0.083098 -0.078899 0.015182 -0.08972 -0.153677 -0.027394 0.144945 -0.024039 0.035979 0.086773 0.060234 -0.085857 -0.199495 -0.039177 0.183111 -0.174049 0.210072 -0.122109 0.002506 0.041035 0.030538 -0.153183 0.050863 0.116847 0.01881 -0.072765 0.012454 0.027054 0.017346 -0.186113 -0.101022 -0.048369 -0.13109 -0.023444 0.010359 0.05596 -0.044252 0.11382 0.007705 -0.143161 0.089855 0.197416 0.104916 0.0331 0.182811 -0.06059 -0.001546 -0.166022 0.046937 0.084673 0.090921 -4.26E-4 0.031596 0.227201 -0.051998 -0.141768
-0.680353 -1.179684 0.426429 0.291542 -1.681451 1.013757 -0.215944 1.775826 0.136214 0.338989 1.129514 0.894521 -0.88867 1.742476 0.490825 -3.274628 1.533607 1.282205 -1.460452 -0.37327 -2.163277 0.693359 -0.206331 -1.674158 -0.12521 -0.028105 0.706135 1.551763 1.035107 1.573097 1.524947 -2.180185 1.389227 -1.171144 -1.788728 1.822956 -1.345042 0.445084 -0.528639 0.026789 1.167191 -1.597799 1.207633 -1.659363 0.618183 -2.560903 -0.266315 0.053702 -1.605525 0.12746 -0.253811 0.194725 -0.421135 1.475246 -0.725148 0.607803 -0.594257 0.711442 -0.773831 0.342635 0.836584 -2.005639 -0.861817 1.121355 1.079944 0.44648 0.208733 -0.810176 -0.765384 0.166367 0.66221 1.363254 -3.536052 0.176583 -1.274157 1.165425 -0.468146 1.593004 1.294588 -0.790598 0.134812 -0.207035 0.839019 -1.520672 0.728747 -1.064473 -0.056375 3.942407 -1.460944 2.740106 -2.610748 0.396083 2.861345 2.895674 0.636931 1.610137 -1.050849 1.407112 0.603902 1.961462
0.021 -0.017019 0.221199 0.114329 0.036471 0.125872 -0.235083 0.078065 0.0256 0.191366 -0.127035 0.161951 0.086085 -0.081923 -0.065238 0.310385 -0.115093 0.158523 0.034698 -0.165479 0.042841 0.206123 0.119552 0.283697 -0.090919 -0.1798 -0.01879 -0.137393 -0.101186 -0.172704 -0.090845 -0.315025 -0.14532 -0.001993 -0.100335 0.021297 0.067913 0.04505 -0.18561 -0.148554 -0.061772 0.09668 -0.05118 -0.135161 -0.037031 -0.023474 -0.11412 -0.116714 0.056086 0.018883 0.027103 0.199849 0.003255 0.102103 0.144849 -0.27339 -0.190699 -0.192333 0.105097 -0.34804 -0.041219 -0.166025 -0.03757 0.028946 -0.204375 -0.077069 0.003581 -0.095931 0.111933 -0.114449 0.04229 0.004511 0.090554 -0.065368 0.169936 -0.081546 0.220538 0.20027 -0.21719 0.057157 0.030494 -0.016599 0.094882 0.027409 0.034831 -0.170257 -0.262189 0.023649 0.236294 -0.001009 -0.016061 -0.054798 0.018874 0.016563 -0.200357 -0.065587 0.100984 -0.016307 -0.057213 0.018828
0.067365 -0.098234 -0.087276 0.094984 -0.016626 0.332459 -0.07222 0.121676 -0.031477 0.14974 0.243532 -0.094988 -0.09894 0.20782 -0.007434 0.059112 -0.183023 0.126756 -0.015388 0.019289 0.193392 0.252587 0.249131 0.168913 -0.049026 0.13608 0.04419 -0.036512 -0.084217 -0.184984 0.046543 -0.297416 -0.155453 -0.100258 0.179937 -0.444897 -0.114554 -0.037583 0.164788 -0.060788 -0.105272 -0.041323 0.084466 0.178411 -0.182368 -0.315266 0.162192 -0.065039 -0.280966 -0.058211 0.103369 0.03917 -0.34387 0.092852 -0.126362 -0.030967 -0.080224 -0.374896 0.404137 -0.045019 0.169645 0.177729 -0.019474 -0.242705 -0.103578 -0.046288 -0.297823 -0.049549 -0.100837 0.102079 0.043778 0.192599 0.026613 0.048479 0.284639 -0.171068 -0.227212 0.006306 0.074202 0.025097 0.023176 0.370704 0.061126 0.164567 0.3824 -0.356018 0.022405 0.177539 0.19105 0.024056 -0.155907 0.119275 0.056992 -0.014233 0.052606 0.065523 0.024943 -0.183555 0.066572 -0.056079
-0.144336 0.074372 0.113318 0.085118 -0.148613 0.116197 -0.043826 0.097308 0.028569 0.0599 0.122926 0.129504 -0.202531 -0.024615 -0.184827 0.130076 -0.320919 0.065363 0.003498 0.051718 -0.144357 -0.139014 -0.049753 0.108518 -0.082871 0.171983 0.073164 -0.210686 -0.009667 0.210213 0.060274 0.046079 -0.075353 -0.162488 0.155761 -0.129948 -0.292558 -0.091019 -0.218721 0.241112 -0.031704 0.071499 0.229555 0.017352 -0.080441 0.02619 0.111902 -0.063922 0.15966 0.018002 0.091424 -0.033691 -0.13884 -0.017261 0.032462 0.057671 0.059981 0.008869 0.121346 -0.080853 0.079416 0.001784 0.19468 -0.254343 -0.090097 -0.09996 0.234742 -0.05806 -0.035704 -0.10223 -0.09253 0.014641 0.023658 0.024081 0.087838 0.004814 -0.031244 0.126039 -0.042851 0.057792 0.054989 0.062025 0.114046 -0.024096 0.166209 -0.182425 0.030826 0.162165 0.294079 0.052697 -0.053533 0.047016 -0.011732 0.117571 0.109081 -0.155768 -0.001293 -0.333485 -0.017285 0.020007
-0.108733 -0.061423 -0.098863 -0.132174 0.184499 -0.159858 0.044677 0.091311 0.018223 0.206392 0.081431 0.184179 0.086857 -0.192188 0.062003 0.012817 -0.027886 0.136135 0.138969 -0.074148 0.157175 0.23459 0.08172 0.162628 -0.009311 0.056522 0.039702 0.086811 -0.104706 -0.112551 -0.082889 -0.070624 -0.169422 0.088699 -0.159366 0.019041 0.045287 0.042583 0.102902 -0.249259 -0.127177 0.005548 0.100066 0.140519 -0.113002 0.106162 -0.007585 -0.092711 -0.339348 -0.016454 0.327331 -0.065714 -0.053133 0.046734 -0.078521 -0.151404 -0.054898 0.120586 0.031034 -0.242538 -0.111968 0.087063 0.162687 -0.245404 -0.050231 -0.015502 -0.306047 -0.169036 -0.107036 0.126173 -0.088695 0.239271 -0.065743 0.175986 -0.147415 -0.182975 -0.107658 -0.289069 -0.144229 -0.006646 -0.025676 0.269919 0.169115 -0.18592 -0.171916 0.156869 0.058985 -0.044186 -0.091025 -0.205298 -0.183991 0.011627 0.369494 0.13835 0.141525 0.027377 -0.19293 0.150134 0.254698 -0.015459
-0.120275 -0.076624 0.060001 0.16806 -0.099074 -0.179 -0.138545 -0.046315 -0.153346 -0.013029 0.06142 0.100548 -0.052307 -0.083166 0.098766 0.303514 0.078996 0.09986 -0.114068 -0.063848 -0.002261 0.297448 0.251458 0.137863 -0.068201 -0.015344 -0.004984 -0.065486 0.205865 -0.073548 0.131509 0.089437 -0.064868 -0.074377 -0.033386 -0.048961 0.13246 0.014515 -0.140166 0.058029 -0.057859 0.061261 -0.025467 -0.037082 0.041226 -0.122018 -0.082621 -0.012521 0.038862 0.110036 0.17262 -0.110084 0.001906 -0.259051 0.146055 -0.013699 0.034776 0.073848 -0.020211 -0.078644 0.032437 -0.212562 -0.079578 -0.174384 -0.06224 -5.31E-4 -0.125005 -0.085579 0.122879 -0.004955 -0.219484 -0.163308 -0.336882 0.086699 -0.014117 -0.105441 -0.110134 -0.021006 -0.038278 -0.097487 -0.135202 0.045969 0.166956 -0.171197 -0.14435 0.013855 -0.032949 -0.034161 -0.050665 0.034896 -0.09674 0.05297 -0.165976 0.174622 -0.149682 -0.092368 0.033895 0.02091 -0.035898 -0.080623
2.097164 -0.684685 -0.553311 1.458123 -0.361984 1.488648 1.630849 -0.547477 0.47489 0.560779 1.147556 1.539561 -1.932941 -0.11562 0.57818 0.806424 -1.418521 -2.667003 -0.404307 -0.989205 -1.565511 -0.075045 -0.224478 -1.593667 -0.559622 1.609323 2.101845 1.713226 0.339484 -0.764511 0.677974 -0.946163 0.391299 -1.386644 -1.354432 -0.47665 1.338354 -0.707447 -0.991086 -1.892278 0.948519 -1.548238 0.87698 -0.199978 -0.431374 0.788559 -0.81503 0.171272 0.574567 -0.922672 -0.541769 1.441391 -0.539436 1.61253 -0.535686 0.383211 1.146898 -1.381123 -0.560221 -1.975539 -0.725461 0.781178 -0.379347 -0.175998 -1.317066 -1.041156 -0.854758 -0.983401 0.970127 1.811068 3.418947 0.275835 0.602118 0.250477 1.673823 -0.047512 1.019559 0.701407 0.301924 -0.204249 1.558021 0.467911 -0.656596 -0.659069 -1.000279 -0.825337 1.172484 0.135611 -0.399185 0.803773 0.206766 0.004044 -0.451418 -0.835186 -0.620386 0.953422 -0.936139 1.506188 -0.979472 2.919243
0.171593 -0.085188 -0.005011 0.309169 -0.152905 0.00381 -0.249387 -0.038448 -0.157923 0.037731 0.104605 0.346345 0.244978 0.024678 0.032649 0.310071 -0.065622 0.036396 0.052969 0.124156 -0.043828 -0.06566 0.269065 -0.177152 0.005016 0.077923 -0.302495 0.040821 0.286835 0.001567 0.013001 -0.230026 -0.074903 -0.033747 -0.205199 -0.039013 0.158052 -0.224509 -0.025489 -0.047903 -0.192269 0.165546 0.069635 -0.04257 0.06969 0.085811 0.04252 -0.017744 -0.24138 0.017786 0.049939 -0.111088 -0.074083 -0.048444 0.073146 -0.056241 -0.005692 0.009777 -0.018746 -0.086046 -0.136093 -0.368411 0.058549 -0.057995 0.004658 -0.164634 0.183809 -0.114823 0.198303 -0.19652 -0.183127 0.044565 -0.09434 -0.054044 0.105077 -0.030626 0.03893 -2.26E-4 -0.247097 0.052807 0.04372 0.275303 -0.041172 0.004343 0.04562 -0.052336 0.091936 -0.411318 0.007728 0.266991 0.171496 0.069051 0.089662 0.12008 0.01404 0.091993 0.086905 0.02851 -0.047985 -0.099695
0.046729 -0.216736 0.133015 0.200424 -0.072449 -0.107732 -0.107096 0.007049 0.008123 -0.014062 0.193637 0.147621 -0.18514 -0.02621 0.090958 0.239355 -0.174316 0.031916 -0.071048 0.018211 0.235662 0.072303 0.226965 0.027285 0.11822 -0.068565 0.11486 -0.155104 0.224237 -0.26791 0.087206 0.031171 0.188981 0.076244 -0.209699 -0.182732 0.009188 -0.156594 -0.063733 -0.210317 -0.150358 -0.005333 0.074979 0.059454 0.002074 -0.195923 0.025792 -0.02729 -0.029 0.109464 0.061124 -0.054037 -0.15075 0.001417 0.070656 0.046826 -0.045444 0.147052 -0.084852 -0.183688 0.19315 -0.225017 -0.095531 -0.243003 -0.15364 -0.024354 0.124168 -0.03766 0.117728 0.128158 -0.043124 0.119001 0.156306 -0.017651 0.063236 0.007759 -0.288612 0.036864 0.04906 0.051673 -0.233976 0.00924 0.07684 -0.025006 0.006364 -0.151466 -0.037829 0.164037 -0.054149 -0.05999 -0.1616 0.038663 -0.243176 0.090299 -0.120476 -0.115196 0.054519 -0.032313 0.013341 0.071664
0.228089 -0.076397 0.121632 0.153361 0.021971 -0.164467 -0.390763 -0.070305 -0.156446 -0.164575 0.184316 0.12296 -0.069024 0.011717 0.171951 0.083846 -0.07434 0.108608 0.096813 0.026788 0.035574 0.049512 0.32435 0.151662 -0.246574 -0.04073 -0.204539 -0.033564 0.193977 -0.130371 0.113817 0.225621 -0.024085 -0.078932 0.086436 -0.10597 -0.011148 0.165692 0.036359 0.132403 -0.126893 -0.042017 0.034563 -0.040749 -0.037906 0.015609 -0.216032 0.015169 -0.011081 0.046156 0.205087 -0.127792 -0.155141 -0.127963 0.10533 -0.006584 -0.030525 -0.108613 -0.195015 -0.051406 0.063997 -0.035868 0.023274 -0.183447 -0.199249 0.009986 -0.086643 0.156787 0.089567 -0.109139 -0.077489 0.105843 0.020242 -0.037241 0.188328 -0.020593 0.017215 0.020454 -0.020531 -0.116021 -0.021434 0.105352 0.130209 -0.251311 -0.101699 0.072116 0.071328 -0.151569 -0.036687 0.073199 -0.084178 -0.050348 -0.098997 0.111596 -0.027499 -0.197105 0.083975 -0.075878 0.133659 0.035825
-0.087196 -0.102482 0.13964 0.054818 -0.10958 0.037206 -0.273724 -0.081604 -0.025699 -0.094771 -0.108471 0.080499 -3.86E-4 0.004337 -0.024702 0.045742 -0.014367 0.051812 -0.071228 -0.122714 -0.178213 -0.164789 0.103611 0.226379 -0.052943 -0.051341 -0.055864 0.018995 0.099935 -0.004212 0.089027 -0.063837 -0.09091 0.046627 -0.084746 -0.023935 -0.010237 -0.025289 0.093579 -0.088376 -0.071731 0.079101 0.052294 -0.015144 -0.021944 -5.8E-5 -0.084644 0.029409 -0.235579 0.134585 0.082904 -0.128962 -0.085625 -0.046327 0.084262 -0.054959 -0.124062 -0.062509 -0.049838 -0.007177 0.010095 -0.18262 -0.014572 -0.101411 0.033516 0.049501 0.107741 -0.160006 0.223848 -0.045046 0.002082 -0.031572 -0.146178 0.002101 0.03927 -0.106825 -0.069331 0.031073 -0.123084 -0.055153 0.031424 -0.01378 0.1348 -0.154105 -0.122943 -0.027 -0.072165 -0.163292 0.213837 -0.011113 0.009644 0.003378 0.009595 0.077777 -0.077246 -0.018925 -0.038336 0.092399 0.055868 -0.106817
0.004908 0.120396 0.210823 0.228854 -0.079279 -0.1697 -0.060781 -0.173659 -0.117247 -0.123475 0.121561 0.116809 0.039252 -0.131826 0.094073 0.107497 -0.036421 0.017265 0.135411 0.075545 0.016312 -0.02626 0.12603 7.91E-4 0.038996 -0.09204 -0.063462 0.134404 0.201676 -0.13897 -0.25226 -0.040662 -0.053537 0.172388 -0.204812 -0.155542 0.08377 -0.100033 -0.140652 0.158353 0.015234 0.139347 0.004305 0.026679 0.03687 -0.003347 -0.020734 -0.010766 -0.061854 0.102259 -0.049916 -0.048503 -0.03655 -0.207247 -8.14E-4 -0.16394 -0.006403 -0.06025 0.013015 -0.033318 -0.117782 -0.161154 -0.104171 -0.199619 -0.123507 0.059898 -0.114632 0.177067 0.076212 -0.192444 -0.133785 -0.023285 -0.04479 0.11572 0.014893 -0.026164 -0.024238 0.061765 -0.183185 0.0558 -0.079024 0.148769 0.143007 -0.107537 0.101568 0.120473 0.046079 -0.033248 0.140498 0.015445 -0.032305 -0.050784 0.009293 0.142777 0.092917 -0.074968 0.015646 -0.05209 0.085561 0.037069
0.074034 -0.120586 -0.009346 0.336363 0.062932 0.020839 -0.177046 -0.087074 0.038978 -0.005495 0.049281 0.110663 0.061973 0.081752 0.112497 -0.0053 0.059601 0.060508 0.02056 0.049841 -0.00654 0.183764 0.090227 0.011444 -0.247765 0.004781 -0.035673 0.046489 0.121596 -0.034487 -0.09803 0.05116 -0.012326 0.037828 0.091343 -0.168963 -0.232785 -0.019095 0.042553 0.158525 -0.132248 -0.079236 -0.180255 -0.076755 -0.0247 -0.041959 0.071709 0.087001 -0.248853 0.076532 0.131283 9.37E-4 -0.05628 0.083975 0.36264 -0.098368 -0.044052 -0.029187 -0.069525 0.035054 0.073116 0.121142 0.049915 -0.162092 0.009365 -0.007546 0.002255 -0.084858 -0.052458 -0.188639 -0.116955 0.080333 0.032729 -0.122035 0.077708 -0.13911 0.091386 0.129314 -0.024054 0.035914 -0.012047 0.061013 0.206119 -0.133202 -0.012959 -0.059966 -0.023351 0.044931 -0.071462 -0.016341 -0.176701 -0.117206 -0.155929 0.155044 -0.16771 -0.28764 0.0146 -0.125139 -0.005339 0.163475
-0.055181 -0.092678 -0.022107 0.08712 -0.101184 -0.177112 -0.076408 0.006569 -0.135864 0.009218 0.149526 0.046041 -0.184596 0.105353 0.061596 0.159773 0.012365 0.006049 0.17019 0.058319 -0.103075 0.189919 0.142835 0.068681 -0.163124 -0.217384 -0.080896 0.041775 0.206721 -0.18616 0.081685 0.031375 -0.142672 0.057867 -0.038573 0.077913 -0.002953 -0.079231 0.019953 0.061209 0.033035 -0.076174 -0.019854 0.086351 0.163353 -0.029554 0.045185 0.008684 -0.035896 0.170436 0.106 -0.230473 -0.114574 -0.054562 0.179283 0.124264 -0.021861 -8.14E-4 0.010991 -0.082285 -0.061133 -0.209933 -0.042535 -0.24434 -0.052061 0.055039 -0.0765 0.011459 -0.186665 0.108366 0.004851 0.039243 -0.054653 -0.003782 0.15306 -0.006873 -0.008529 -0.074 -0.113743 -0.132941 0.188758 -0.134712 0.120189 -0.075198 0.13826 -0.06336 0.089864 -0.043055 0.095522 0.090066 -0.021111 -0.187141 -0.086231 -0.031694 -0.020262 -0.162338 -0.067745 -0.094713 0.256494 -0.045589
0.021 -0.017019 0.221199 0.114329 0.036471 0.125872 -0.235083 0.078065 0.0256 0.191366 -0.127035 0.161951 0.086085 -0.081923 -0.065238 0.310385 -0.115093 0.158523 0.034698 -0.165479 0.042841 0.206123 0.119552 0.283697 -0.090919 -0.1798 -0.01879 -0.137393 -0.101186 -0.172704 -0.090845 -0.315025 -0.14532 -0.001993 -0.100335 0.021297 0.067913 0.04505 -0.18561 -0.148554 -0.061772 0.09668 -0.05118 -0.135161 -0.037031 -0.023474 -0.11412 -0.116714 0.056086 0.018883 0.027103 0.199849 0.003255 0.102103 0.144849 -0.27339 -0.190699 -0.192333 0.105097 -0.34804 -0.041219 -0.166025 -0.03757 0.028946 -0.204375 -0.077069 0.003581 -0.095931 0.111933 -0.114449 0.04229 0.004511 0.090554 -0.065368 0.169936 -0.081546 0.220538 0.20027 -0.21719 0.057157 0.030494 -0.016599 0.094882 0.027409 0.034831 -0.170257 -0.262189 0.023649 0.236294 -0.001009 -0.016061 -0.054798 0.018874 0.016563 -0.200357 -0.065587 0.100984 -0.016307 -0.057213 0.018828
0.0 0.0 0.0 0.0 0.0 0.0 0.0 0.0 0.0 0.0 0.0 0.0 0.0 0.0 0.0 0.0 0.0 0.0 0.0 0.0 0.0 0.0 0.0 0.0 0.0 0.0 0.0 0.0 0.0 0.0 0.0 0.0 0.0 0.0 0.0 0.0 0.0 0.0 0.0 0.0 0.0 0.0 0.0 0.0 0.0 0.0 0.0 0.0 0.0 0.0 0.0 0.0 0.0 0.0 0.0 0.0 0.0 0.0 0.0 0.0 0.0 0.0 0.0 0.0 0.0 0.0 0.0 0.0 0.0 0.0 0.0 0.0 0.0 0.0 0.0 0.0 0.0 0.0 0.0 0.0 0.0 0.0 0.0 0.0 0.0 0.0 0.0 0.0 0.0 0.0 0.0 0.0 0.0 0.0 0.0 0.0 0.0 0.0 0.0 0.0
-0.024322 -0.303699 6.57E-4 0.124013 0.096642 0.042796 0.078399 -0.043308 -0.039367 -0.030939 0.02516 -0.029414 -0.115077 -0.307309 0.071962 0.11219 -0.082688 -0.069067 0.068999 0.016192 -0.028041 0.198763 -0.032337 -0.011087 0.091512 -0.048044 -0.113547 0.011122 -0.004473 -0.060547 -0.104108 -0.030799 -0.092209 0.08433 -0.070757 -0.066028 0.039562 -0.090053 0.080573 -0.071696 -0.060823 -0.075948 0.110598 0.160809 0.022521 -0.159859 -0.015239 0.115199 -0.12507 -0.04408 -0.085618 0.011849 -0.15078 -0.064003 -0.050593 0.048569 0.072066 -0.039631 0.166476 0.071693 0.031732 0.025521 -0.155724 0.012469 0.070119 0.15155 0.003252 -0.071969 0.157402 -0.06635 -0.072398 0.026004 -0.136485 0.076075 0.056589 -0.064894 -0.249087 0.124056 0.065084 -0.085369 0.043376 -0.165438 -0.007667 0.039438 -0.106483 0.116727 -0.184719 -0.086273 0.029854 -0.045885 0.074966 -0.040103 0.001017 -0.194468 0.035261 -0.224162 0.096102 -0.025166 -0.050546 -0.067245
0.077315 0.094458 -0.007108 -0.173733 -0.124016 0.10268 -0.147921 -0.038812 -0.110229 0.125727 0.078715 0.103655 -0.14702 0.038875 0.173455 0.029172 0.085332 0.02049 0.028974 0.209103 -0.048985 0.096129 0.022119 0.051125 -0.02515 0.079908 0.031651 0.190444 0.035202 -0.042677 -0.105544 -0.140258 -0.017468 -0.128506 -0.137886 -0.069351 -0.162297 -0.091859 -0.189312 0.107815 0.219664 0.041735 -0.07544 -0.084491 -0.059106 -0.063775 -0.109205 0.196058 0.051562 -0.084445 -0.072622 -0.069628 -0.035997 -0.118006 0.208404 -0.229657 -0.07943 -0.150258 0.011007 0.191667 0.083006 -0.084947 0.014942 0.17921 -0.015157 0.068533 0.004176 0.048989 0.028669 0.143713 0.076645 0.028479 -0.023023 0.029246 -0.099158 0.02435 -0.105521 0.100665 0.051662 -0.025748 0.125299 -0.043305 0.202724 -0.034303 0.013237 -0.157912 0.118345 0.092195 -0.004208 0.186132 -0.235138 0.02556 0.023231 0.199088 -0.027192 0.068552 0.0464 0.132222 -0.011505 0.162654
0.228089 -0.076397 0.121632 0.153361 0.021971 -0.164467 -0.390763 -0.070305 -0.156446 -0.164575 0.184316 0.12296 -0.069024 0.011717 0.171951 0.083846 -0.07434 0.108608 0.096813 0.026788 0.035574 0.049512 0.32435 0.151662 -0.246574 -0.04073 -0.204539 -0.033564 0.193977 -0.130371 0.113817 0.225621 -0.024085 -0.078932 0.086436 -0.10597 -0.011148 0.165692 0.036359 0.132403 -0.126893 -0.042017 0.034563 -0.040749 -0.037906 0.015609 -0.216032 0.015169 -0.011081 0.046156 0.205087 -0.127792 -0.155141 -0.127963 0.10533 -0.006584 -0.030525 -0.108613 -0.195015 -0.051406 0.063997 -0.035868 0.023274 -0.183447 -0.199249 0.009986 -0.086643 0.156787 0.089567 -0.109139 -0.077489 0.105843 0.020242 -0.037241 0.188328 -0.020593 0.017215 0.020454 -0.020531 -0.116021 -0.021434 0.105352 0.130209 -0.251311 -0.101699 0.072116 0.071328 -0.151569 -0.036687 0.073199 -0.084178 -0.050348 -0.098997 0.111596 -0.027499 -0.197105 0.083975 -0.075878 0.133659 0.035825
0.236608 -0.108316 -0.1578 0.060155 -0.11996 0.089966 -0.075064 0.170417 -0.187954 0.036772 0.082927 -0.10126 -0.096321 0.015454 0.048163 0.027346 -0.153423 -0.12123 -0.091067 0.034379 -0.036766 -0.120271 0.110568 -0.060233 -0.042509 -0.014429 0.067419 0.033106 -0.036124 0.088781 -0.058735 -0.039498 -0.095558 -0.121422 0.067922 -0.007378 -0.033934 -0.04257 0.068265 0.054656 -0.098198 -0.007587 0.031954 -0.012025 0.088608 -0.056333 -0.112801 0.077911 -0.160951 -0.008525 0.1248 -0.012732 -0.066033 0.230583 -0.037806 0.026794 0.179791 0.019734 0.081992 -0.035877 -0.045764 0.025522 0.095709 -0.120059 -0.096463 0.11296 0.033049 -0.047248 0.132867 0.048229 0.00195 -0.18512 0.083195 -0.031235 -0.03115 -0.092022 -0.083491 0.035449 0.030567 0.083521 0.047424 0.077526 -0.104537 -0.153694 0.2152 -0.028223 0.088798 0.035602 0.067354 -0.00516 -0.211362 -0.037892 -0.17368 0.017887 0.068911 0.008841 -0.014294 0.166487 -0.141188 -0.012248
0.0 0.0 0.0 0.0 0.0 0.0 0.0 0.0 0.0 0.0 0.0 0.0 0.0 0.0 0.0 0.0 0.0 0.0 0.0 0.0 0.0 0.0 0.0 0.0 0.0 0.0 0.0 0.0 0.0 0.0 0.0 0.0 0.0 0.0 0.0 0.0 0.0 0.0 0.0 0.0 0.0 0.0 0.0 0.0 0.0 0.0 0.0 0.0 0.0 0.0 0.0 0.0 0.0 0.0 0.0 0.0 0.0 0.0 0.0 0.0 0.0 0.0 0.0 0.0 0.0 0.0 0.0 0.0 0.0 0.0 0.0 0.0 0.0 0.0 0.0 0.0 0.0 0.0 0.0 0.0 0.0 0.0 0.0 0.0 0.0 0.0 0.0 0.0 0.0 0.0 0.0 0.0 0.0 0.0 0.0 0.0 0.0 0.0 0.0 0.0
0.071347 -0.117134 -0.188679 -0.132542 -0.189588 -0.028014 -0.335047 -0.022015 -0.287318 0.066501 0.232523 0.065609 -0.074985 0.114678 -0.023668 0.176653 0.043563 0.205939 -9.02E-4 0.17139 0.019366 0.153611 0.124693 0.195786 -0.018676 -0.008107 0.074326 0.081431 0.177812 -0.122672 -0.023543 -0.08371 -0.007663 -0.102892 -0.123632 -0.151689 -0.033086 0.057591 0.002527 0.074237 0.245506 0.084195 0.026763 0.103806 0.089489 -0.090815 -0.022842 0.04797 -0.004003 -0.155689 -0.197703 0.015881 -0.066955 0.116883 0.084262 -0.112627 0.168694 -0.113955 0.170721 0.034036 0.214198 9.51E-4 0.023088 -0.079186 -0.057068 -0.103261 0.028327 0.122047 0.046813 -0.046507 0.278292 0.08352 -0.025175 0.010353 0.073615 -0.015691 -0.157398 -0.014412 0.033609 0.091994 -0.082784 0.164281 0.194399 -0.036966 0.10279 0.088501 0.059999 -0.014372 -0.011458 0.096111 -0.203095 0.062078 -0.03428 0.019881 -0.161722 -0.051936 0.027742 -0.050591 0.163804 0.051217
0.74334 1.601029 -1.524525 1.549506 -4.971571 -0.810137 -0.908865 -0.345912 2.474077 1.606901 -1.057244 -6.175909 -1.31527 0.155469 -0.952546 0.635913 0.664595 -1.148619 -5.031108 -4.364949 -1.730397 -2.964469 -0.362611 -0.442647 0.246145 -1.700258 -4.148767 0.726902 -0.271506 0.748506 2.535527 1.85244 0.506802 1.135795 0.902598 0.122902 4.466625 -1.341887 -2.815702 -3.969936 -1.06591 -1.814989 4.760847 1.166727 3.754108 0.774362 3.004582 -0.154009 -1.531087 -0.884391 1.45791 4.505675 0.367917 3.382324 -0.317552 2.400044 1.228385 0.081062 0.514281 -2.380965 -0.205065 -2.585362 -4.924434 -3.395548 3.51408 1.231052 -0.802163 0.796009 -2.472944 -0.245475 5.042906 -1.350984 1.734208 0.450008 1.309282 -1.654781 -1.092554 -4.37115 0.938911 1.506177 0.068402 0.541712 1.859425 1.512196 -1.489988 3.299871 -0.050076 -3.382112 -3.504698 1.662699 -1.693324 1.173485 0.137044 -3.060931 -2.754799 -0.078767 1.764491 2.2204 0.987745 -4.115108
-0.057061 0.011149 0.001734 -0.020052 -0.017081 0.013941 0.008496 0.040012 -0.075553 -0.197986 0.032026 0.009435 -0.106191 0.031608 -0.012292 0.318777 -0.009516 -0.046213 -0.090637 0.038706 0.125612 0.062519 0.195047 0.098049 -0.113457 0.018712 0.148141 0.00787 0.09623 0.031306 -0.025809 -0.115358 0.020562 0.167505 -0.102459 -0.100414 0.084804 -0.172228 -0.012478 -0.127311 -0.113151 -0.111403 -0.074078 0.173185 -0.120525 -0.012161 0.115619 -0.203002 0.041297 0.110835 0.020572 0.050428 0.01241 -0.140832 -0.056825 -0.093047 -0.02145 0.144323 0.136851 0.055992 -0.155845 -0.053673 -0.234939 -0.072383 -0.151869 -7.4E-5 0.057808 -0.039778 -0.022082 0.043285 0.041492 -0.033646 0.043119 0.108812 -0.009271 0.050276 -0.031341 0.11336 -0.027364 -0.130399 -0.201851 -0.043934 0.247729 -0.166567 0.0175 0.063581 0.069506 0.032938 0.097215 -0.033042 0.019769 -0.002347 -0.087393 0.197666 -0.235837 0.057836 0.087323 0.156435 -0.17795 0.171984
-0.029839 -0.256135 0.17418 0.087476 -0.062677 0.096442 -0.234691 -0.198817 -0.051685 0.210107 0.055997 0.083639 0.069614 -0.18871 0.158961 0.150654 0.135127 0.336899 0.096511 0.148565 -0.078665 0.024298 0.061703 0.224686 -0.163948 -0.176967 0.068451 -0.142644 0.149171 -0.310249 -0.128869 0.055989 -0.082477 0.114346 -0.128444 -0.21228 -0.021708 -0.019211 0.107083 -0.041924 -0.031402 0.258185 -0.041179 0.032023 0.057482 -0.111084 0.0734 -0.025309 -0.181365 0.025697 0.142557 -0.268785 -0.099751 -0.091835 0.114473 -0.024919 -0.010553 0.042964 -0.045269 0.028584 0.061294 -0.055589 0.039428 -0.162727 0.00877 -0.095857 -0.049855 -0.164835 -0.049302 -0.127939 -0.010661 -0.033293 0.142385 -0.14142 -0.003906 0.060149 -0.039631 -0.071446 -0.058485 -0.057886 0.032141 0.073606 0.298371 -0.161466 0.176383 0.208624 -0.027923 8.64E-4 0.077137 -0.017202 -0.004238 -0.086493 -0.06507 -0.024832 -0.070543 -0.287456 -0.024854 -0.242796 0.043607 0.090532
0.208298 -0.023579 0.143455 0.152879 -0.171964 0.016652 -0.200939 -0.126584 -0.191367 0.144153 -0.076233 0.173406 -0.106429 0.100516 -0.074164 0.112365 0.093413 0.074582 -0.095749 0.12083 -0.03159 0.278237 0.188759 0.132787 0.082654 -0.1158 -0.011043 0.072103 0.095679 -0.134276 0.015165 -0.101614 -0.052468 0.025259 -0.120625 -0.118164 0.051027 0.006474 -0.183357 -0.074007 -0.129336 0.111675 0.096913 0.029014 0.153532 0.09867 -0.005037 0.002684 0.002635 -0.056776 -0.159513 -0.060409 -0.056455 -0.067954 0.112907 -0.042598 -0.157269 -0.076013 -0.051997 -0.131166 -0.004993 -0.129698 -0.037885 -0.027742 0.118061 -0.129733 0.038143 0.050387 0.140331 -0.135915 -0.016885 -0.031442 0.097821 0.001233 0.067339 0.004167 -0.037173 0.177818 -0.051966 0.022471 -0.04365 0.190116 0.117661 -0.061444 0.148821 0.070213 0.08204 4.47E-4 0.177942 0.141889 -0.01908 -0.105543 -0.059038 0.189095 -0.043838 0.002156 -0.121569 0.173801 0.068017 -0.094603
-0.08527 -0.011954 -0.008522 -0.070471 -0.027368 -0.034217 -0.154683 0.170025 -0.211351 0.005175 0.035054 0.061369 -0.05016 0.042209 -0.103162 0.026348 -0.113398 0.250342 0.37709 -0.140929 0.03508 0.14316 0.155727 0.199993 -0.055704 0.038226 -0.057878 -0.17484 -0.071578 -0.310512 -0.031749 -0.282726 -0.202981 0.040096 0.005533 -0.088928 -0.075045 0.079848 -0.186911 0.116578 0.097923 0.069315 0.293092 0.16102 -0.093612 -0.038429 0.253428 0.110811 -0.095616 0.076348 -0.077247 -0.117277 -0.007219 -0.015298 0.02128 -0.16697 0.077035 -0.250845 0.226215 -0.091739 0.065957 0.055509 0.058185 0.002781 -0.163207 0.072809 -0.02191 0.153176 0.112132 -0.189062 0.007301 0.122526 0.076668 0.120301 0.118231 -0.078156 -0.030493 0.179634 0.032708 0.039865 -0.070133 0.396054 0.247863 -0.05226 -0.019937 -0.18977 0.174569 0.286988 -0.121259 0.104363 -0.223968 0.007609 -0.014909 -0.062617 -0.202583 0.046452 0.124781 0.043147 -6.14E-4 -0.1257
-0.36841 1.513444 -1.838171 3.403038 0.671672 1.622458 -2.908681 -1.708858 0.863716 2.282866 0.635927 -0.103462 0.331327 2.300215 1.017446 5.214146 -1.881265 -0.23936 0.333033 -0.844694 -3.591968 -2.612507 0.919915 -1.027188 0.497727 1.467576 0.224107 3.03871 -2.756592 2.188018 1.117249 0.052708 -0.885234 -1.085475 0.032046 1.576074 1.698914 0.318818 -0.029863 -0.116492 -2.056068 -2.644953 1.452071 -0.582875 -1.927319 1.999539 -0.720461 2.422593 2.040711 2.822704 1.843434 -1.513669 1.937895 -0.581443 -2.485586 -0.940137 0.316515 3.948978 0.16494 -0.302284 3.51631 2.876316 -0.965426 -0.904518 -0.289307 0.658121 0.923617 -2.860303 0.806213 1.394096 3.472015 1.425355 4.661679 4.072598 -2.100009 -2.317379 1.78491 -0.0546 0.753992 -0.211913 -0.352573 -1.606013 4.150368 0.369519 0.272659 -0.573907 0.054241 -0.329642 -1.305306 0.819769 2.941053 2.908024 1.617088 0.703031 1.032178 0.368721 -1.464458 -0.340373 -0.38375 -0.451768
-0.133171 0.07267 0.150127 0.017286 0.007353 0.163232 0.133741 -0.195195 -0.188102 0.003456 -0.2784 0.091006 -0.258535 -0.056465 0.392257 0.198061 -0.127876 -0.194359 -0.131834 0.07383 0.049799 0.034818 0.374566 0.162013 -0.04243 -0.121716 -0.155289 0.207693 0.163184 -0.18169 0.069944 -0.198635 0.006388 0.099751 -0.053914 -0.083748 0.214197 0.121498 -0.010874 -0.052318 0.043991 -0.08516 0.070206 0.087895 0.074792 0.027296 0.034846 -0.216629 0.010482 -0.103523 0.148766 -0.06199 0.036962 0.056296 0.001824 -0.002639 -0.095132 0.027857 -0.025811 -0.226189 0.066145 0.066684 0.013032 -0.038828 -0.107837 -0.053667 -0.074134 0.081482 -0.087255 0.308307 0.07753 0.05896 0.138613 0.003397 -0.067919 0.042912 0.280948 8.88E-4 -0.120076 0.06493 -0.108621 -0.165791 0.055443 -0.077234 0.022961 -0.060494 -0.002728 0.040448 -0.055311 0.050302 0.111676 0.085724 -0.137658 0.188317 0.120659 0.041778 -0.069715 -0.029423 -0.124513 0.053864
2.591633 1.608701 -2.087245 2.00752 3.012652 4.995656 0.847355 -1.594905 -0.365708 -1.629805 -1.650237 3.712017 -0.231463 -0.537534 -2.036098 2.002639 -0.696666 -4.310136 -1.477319 -1.356504 -0.581823 -1.830239 -0.272773 -1.648095 0.090509 0.008711 0.330842 0.396714 2.341035 -0.526067 1.155793 -1.730906 -1.010387 -1.342646 -1.939355 0.734869 0.727366 0.700702 1.516974 -2.133831 -0.280653 -3.051674 0.017123 0.532043 1.478449 0.375441 0.920129 1.548929 1.087478 0.668327 0.707416 3.249232 -0.362503 1.273221 -2.929682 -0.245389 1.633444 -0.119836 0.103459 -3.445175 0.513245 0.427807 0.738792 1.448203 0.501908 0.362882 -0.731533 -0.391201 0.037778 3.053553 4.030229 1.793904 1.24136 0.081706 -1.401954 -0.638804 -0.487445 -0.267924 0.012844 0.538179 -0.241935 -0.068756 1.351665 -0.112558 0.001814 0.447262 0.833441 -0.023876 1.212707 1.514635 -0.568611 0.376173 -3.663739 -4.345135 -0.444319 2.139788 -2.53093 0.92131 -1.399435 1.763954
0.021638 0.085262 0.02023 0.115224 -0.157609 0.068752 -0.18999 0.005624 -0.039331 0.143501 -0.009855 0.106442 -0.024869 -0.083215 -0.084178 0.201883 0.01737 0.21181 -0.068061 -0.137603 -0.135837 -0.017926 -0.022224 -0.079615 -0.140924 0.165184 -0.230508 -0.195581 0.004918 -0.043862 0.288731 0.054513 -0.081642 -0.044657 0.010072 -0.206796 -0.053651 -0.029227 -0.11158 0.049256 -0.022226 0.014351 -0.099289 0.029201 -0.023082 -0.430456 0.139249 0.033079 -0.008389 -0.076428 -0.063908 0.053104 -0.087714 0.219232 0.214792 -0.22102 0.153097 0.06937 0.121812 -0.107916 0.149703 0.28649 0.031342 -0.165368 -0.285203 -0.14687 0.150747 -0.001165 0.028907 -0.123947 -0.301338 0.010887 -0.109543 -0.147987 -0.069934 0.133435 -0.095475 0.035611 0.080443 0.191562 -0.048648 0.206872 0.396944 -0.031468 0.131307 -0.313766 -0.057103 -0.001878 0.022028 0.048132 -0.088793 -0.18428 -0.093993 0.011851 0.024255 -0.310881 0.241748 -0.126803 -0.178432 0.020891
4.088196 0.297704 -1.028615 4.747435 1.110235 3.134462 1.265814 0.610371 -0.19393 -2.629615 0.757407 2.031496 -1.681606 -0.750734 0.607439 1.730475 -0.575801 -4.9484 -3.106981 1.433708 -2.933383 -0.607278 0.21502 -0.936141 2.201521 -3.425759 0.586913 1.130422 0.587819 -0.544596 0.736509 0.737671 0.264796 0.179184 -4.64829 0.041762 0.734897 0.498987 2.005224 -0.478501 -0.946017 -3.056592 0.966226 -1.025565 0.551075 0.107511 -0.35197 -2.926284 3.608778 0.68242 1.34705 3.202598 -2.869086 -0.732502 -1.947601 1.534661 1.056872 2.271927 0.48151 -4.047965 -0.142861 1.538222 0.398362 -0.676201 0.098441 0.236745 -0.520654 -2.577075 -1.766508 3.842722 3.056848 1.899663 0.194581 1.398197 0.852022 -0.084509 -1.080607 0.04108 1.806659 -3.684653 -2.340004 0.651856 0.016765 1.240274 3.416146 5.020018 2.589897 0.918731 3.34579 -1.734813 2.131855 2.079846 1.246448 0.333801 -2.336565 1.727393 -1.314646 0.072673 -2.721992 3.204293
0.229547 0.544727 -0.274649 1.276166 -0.403559 -0.401392 -2.679125 0.639339 -3.356351 -0.051849 1.29832 0.587154 -1.017008 0.98199 -0.010478 0.475955 0.530194 -0.497395 -0.996546 -2.166501 0.296091 1.612848 2.660892 1.487908 -0.372856 1.460905 3.270667 2.293277 -0.122158 -0.397236 1.534 0.964262 -1.510137 -0.353891 -1.153495 -3.466847 1.656319 -1.720978 1.172703 -1.630491 -3.877671 -3.602643 3.775502 0.564637 0.406213 -1.187358 -0.419965 -0.68209 0.52087 -0.369532 -0.021121 -0.982603 -0.827227 0.916302 0.053345 1.460838 -1.538358 -0.19961 2.025315 -3.292123 -2.57876 1.380057 -0.249729 -0.78903 -1.867783 0.665735 -2.268706 -3.418555 1.201707 5.139507 4.458985 -2.876798 1.133844 3.648833 -0.592499 2.038396 -1.183891 -0.944117 1.272498 2.501906 1.659798 -3.084304 -0.294015 -1.277526 -1.614161 -0.067747 0.306641 2.079055 -0.96491 4.179631 -2.134387 -2.230689 -3.937284 -1.615137 1.549554 1.486944 0.518469 -0.540947 0.378382 -0.129263
1.813396 -0.737001 -0.718594 -0.999002 0.463762 -0.028986 0.942913 0.934497 -0.654995 2.806878 -1.573222 -0.825768 -1.658436 -0.278079 0.814381 1.12304 0.126086 -2.780957 2.892647 1.196937 0.461113 -1.337295 1.239136 -1.576982 0.705684 -0.118308 2.750828 1.706097 0.776252 -2.777957 1.428729 0.101967 -0.868651 -0.876261 -0.811229 -1.80953 2.256669 -2.822841 0.920677 -0.143402 -1.649236 -4.970859 0.358084 1.039541 1.467272 -1.448061 -2.243351 3.257005 6.484246 -0.811637 2.469195 0.324094 0.969117 0.411715 -1.60129 0.883326 1.194499 1.62202 -1.838585 -1.892551 1.992658 -1.51506 0.035957 -0.977122 -1.315108 0.723397 1.327935 0.016335 0.277149 2.330978 1.656954 0.468674 1.16455 0.193019 0.378276 -0.036928 -0.430152 -1.779794 -2.259556 0.817826 2.7877 1.469176 -1.004814 -0.432789 2.137614 -0.030451 2.511223 -0.048974 0.773389 0.751556 0.170507 -1.050268 -3.323359 0.444167 2.163409 1.859544 -0.717734 -2.465949 -1.585766 0.248102
-0.081714 0.101186 6.43E-4 0.079627 -0.027409 0.048776 -0.081564 -0.028954 0.006422 0.023362 0.02268 0.140191 0.042186 0.069796 -0.034389 0.229198 0.049254 -0.013616 0.017597 -0.014893 -0.1186 0.158421 -0.15715 0.107607 0.010724 -0.077342 -0.057743 -0.001372 0.096621 0.06335 -0.01497 -0.118739 -0.193654 0.091975 -0.07743 -0.058742 0.135635 0.067064 0.04539 -0.046936 -0.074894 0.048062 0.021201 0.090131 -0.108461 -0.011278 -0.00868 -0.07478 -0.122938 -0.063777 0.150128 -0.034535 -0.128415 0.006353 -0.045283 -0.116184 -0.122955 0.248216 0.126424 -0.166204 -0.007883 -0.11585 0.046032 0.050697 -0.070873 0.136965 0.073501 -0.021391 0.213463 -0.082846 -0.058938 -0.096848 0.055758 -0.005384 0.071693 -0.127177 -0.144753 -0.114898 -0.054453 0.024116 0.164947 0.087912 0.089012 -0.057562 0.064979 0.058006 0.121664 -0.114722 0.207554 -0.041297 -0.042093 -0.064291 -0.09628 0.211326 0.014725 -0.027811 -0.065858 0.038091 0.111655 0.123542
-0.08527 -0.011954 -0.008522 -0.070471 -0.027368 -0.034217 -0.154683 0.170025 -0.211351 0.005175 0.035054 0.061369 -0.05016 0.042209 -0.103162 0.026348 -0.113398 0.250342 0.37709 -0.140929 0.03508 0.14316 0.155727 0.199993 -0.055704 0.038226 -0.057878 -0.17484 -0.071578 -0.310512 -0.031749 -0.282726 -0.202981 0.040096 0.005533 -0.088928 -0.075045 0.079848 -0.186911 0.116578 0.097923 0.069315 0.293092 0.16102 -0.093612 -0.038429 0.253428 0.110811 -0.095616 0.076348 -0.077247 -0.117277 -0.007219 -0.015298 0.02128 -0.16697 0.077035 -0.250845 0.226215 -0.091739 0.065957 0.055509 0.058185 0.002781 -0.163207 0.072809 -0.02191 0.153176 0.112132 -0.189062 0.007301 0.122526 0.076668 0.120301 0.118231 -0.078156 -0.030493 0.179634 0.032708 0.039865 -0.070133 0.396054 0.247863 -0.05226 -0.019937 -0.18977 0.174569 0.286988 -0.121259 0.104363 -0.223968 0.007609 -0.014909 -0.062617 -0.202583 0.046452 0.124781 0.043147 -6.14E-4 -0.1257
-0.030478 -0.029704 0.104285 0.158612 0.020246 -0.063034 0.009871 0.064611 -0.121423 0.066949 0.0209 0.062737 0.101253 -0.059448 0.119358 0.179413 0.033275 -0.051668 -0.069776 0.090521 -0.128209 0.118932 0.104775 0.01293 -0.069656 0.075942 0.028342 -0.08674 0.186082 -0.187311 0.030275 -0.100482 -0.124546 0.020271 -0.210359 -0.018412 -0.064155 -0.088003 -0.069519 -0.003666 -0.074133 -0.112309 0.040917 0.061785 0.075892 -0.061442 0.030421 0.032333 -0.01834 0.025634 0.048241 -0.161526 0.052645 -0.041627 -0.005925 0.039892 -0.070295 0.009903 0.130391 -0.095444 0.015975 -0.076308 0.07472 -0.089704 0.041168 -0.0812 0.091911 -0.052093 -0.068306 -0.007351 0.037662 -0.004718 -0.079382 0.155061 0.077288 -0.017812 -0.161587 -0.073944 -0.051831 -0.090756 -0.080309 -0.070434 0.040414 -0.026328 0.0049 0.048362 0.031225 -0.061932 0.127734 0.095872 -0.111956 -0.009301 0.014213 -0.012897 -0.006996 -0.058216 -0.031507 0.120228 -0.046411 -0.020919
-0.019746 -0.012961 0.147992 -0.140019 0.034402 -0.192861 0.081553 0.01133 0.032511 -0.132681 0.056427 0.102583 -0.0083 -0.003731 0.0345 0.226931 -0.193607 -0.047697 -0.035281 -0.215178 -0.057759 0.094633 0.051398 0.070479 -0.13496 -0.135945 -0.042021 0.037695 0.1597 -0.00139 -0.007647 -0.091093 0.119478 0.16011 0.034066 0.049639 0.163614 -0.215439 -0.076097 -0.005081 0.058494 -0.248892 -0.055876 -0.093836 -0.070603 -0.050568 0.001613 -0.042336 0.080545 -0.052429 0.012204 -0.025183 -0.066905 -0.007698 0.18121 0.062382 -0.015877 -0.072574 -0.068817 -0.072514 -0.029765 -0.217365 -0.014163 -0.031127 -0.188783 0.170637 0.152475 -0.00415 0.047736 -0.049677 0.061045 0.004984 -0.043613 -0.05589 0.116332 0.214723 0.162304 -0.010198 0.0738 -0.054894 -0.123597 -0.097009 0.311521 -0.113286 0.048997 -0.079457 0.040556 -0.044363 -0.005459 0.012692 0.097532 -0.084058 -0.156728 -0.05531 0.053665 -0.086991 0.025832 0.023237 0.107442 0.117047
0.684936 -2.1856 -0.824649 1.244749 -0.646566 -0.556593 -1.262686 2.493391 -0.866603 -1.146711 2.541341 -0.370743 -1.958422 1.548068 0.862615 1.77045 1.830344 -1.236237 -0.981684 0.151711 -0.382918 2.275589 1.620384 -2.114498 -1.732978 1.321279 2.230278 1.205863 1.525836 -2.36949 -0.477696 1.002724 0.415032 -0.867438 -1.560706 -0.764957 -1.035982 1.274828 -1.851611 -0.813945 -1.131187 -3.657016 2.411087 2.561703 1.284969 -0.2417 -1.892795 -0.687561 1.392693 -0.961421 0.817445 0.037952 -1.708294 2.120568 2.265449 1.515873 -0.541916 1.068563 -0.029215 -1.295736 -0.009591 1.484938 -0.457017 0.623852 -1.168609 -1.706258 -1.55337 -1.085311 0.910306 0.782966 0.978573 -2.170961 -0.460096 0.706809 2.13064 0.597054 -0.314014 -0.12677 1.075034 -1.155859 -0.041032 -1.747855 0.990436 -2.234108 -2.841765 -0.611618 0.518774 0.915543 -1.411623 2.294441 -1.303616 1.405059 -1.3072 -0.693918 1.754309 0.580663 -3.582149 -0.452321 -2.475698 0.705222
2.591633 1.608701 -2.087245 2.00752 3.012652 4.995656 0.847355 -1.594905 -0.365708 -1.629805 -1.650237 3.712017 -0.231463 -0.537534 -2.036098 2.002639 -0.696666 -4.310136 -1.477319 -1.356504 -0.581823 -1.830239 -0.272773 -1.648095 0.090509 0.008711 0.330842 0.396714 2.341035 -0.526067 1.155793 -1.730906 -1.010387 -1.342646 -1.939355 0.734869 0.727366 0.700702 1.516974 -2.133831 -0.280653 -3.051674 0.017123 0.532043 1.478449 0.375441 0.920129 1.548929 1.087478 0.668327 0.707416 3.249232 -0.362503 1.273221 -2.929682 -0.245389 1.633444 -0.119836 0.103459 -3.445175 0.513245 0.427807 0.738792 1.448203 0.501908 0.362882 -0.731533 -0.391201 0.037778 3.053553 4.030229 1.793904 1.24136 0.081706 -1.401954 -0.638804 -0.487445 -0.267924 0.012844 0.538179 -0.241935 -0.068756 1.351665 -0.112558 0.001814 0.447262 0.833441 -0.023876 1.212707 1.514635 -0.568611 0.376173 -3.663739 -4.345135 -0.444319 2.139788 -2.53093 0.92131 -1.399435 1.763954
-0.08527 -0.011954 -0.008522 -0.070471 -0.027368 -0.034217 -0.154683 0.170025 -0.211351 0.005175 0.035054 0.061369 -0.05016 0.042209 -0.103162 0.026348 -0.113398 0.250342 0.37709 -0.140929 0.03508 0.14316 0.155727 0.199993 -0.055704 0.038226 -0.057878 -0.17484 -0.071578 -0.310512 -0.031749 -0.282726 -0.202981 0.040096 0.005533 -0.088928 -0.075045 0.079848 -0.186911 0.116578 0.097923 0.069315 0.293092 0.16102 -0.093612 -0.038429 0.253428 0.110811 -0.095616 0.076348 -0.077247 -0.117277 -0.007219 -0.015298 0.02128 -0.16697 0.077035 -0.250845 0.226215 -0.091739 0.065957 0.055509 0.058185 0.002781 -0.163207 0.072809 -0.02191 0.153176 0.112132 -0.189062 0.007301 0.122526 0.076668 0.120301 0.118231 -0.078156 -0.030493 0.179634 0.032708 0.039865 -0.070133 0.396054 0.247863 -0.05226 -0.019937 -0.18977 0.174569 0.286988 -0.121259 0.104363 -0.223968 0.007609 -0.014909 -0.062617 -0.202583 0.046452 0.124781 0.043147 -6.14E-4 -0.1257
-0.061863 -0.079345 0.103598 0.045211 0.061593 -0.077624 -0.067189 -0.012872 -0.201992 0.080875 0.162167 0.028598 0.040467 -0.204114 0.076455 0.152766 -0.027006 0.06825 0.020634 0.071285 -0.081458 0.195743 0.215241 0.245682 -0.24624 -0.117262 0.002516 -0.068687 0.196092 -0.227624 -0.20016 -0.038738 -0.050658 0.178066 -0.29978 -0.118063 -0.115515 0.005599 -0.068775 0.064049 0.037323 -0.034479 -0.065635 -0.0807 -0.098913 -0.101213 -0.097232 -0.031206 -0.130468 0.073487 0.180285 -0.200842 -0.026162 -0.085043 0.201517 -0.021145 -0.038832 -0.036929 0.171265 -0.063117 0.05324 -0.08952 0.003775 -0.089382 -0.132004 0.101306 -0.011311 -0.02325 0.077661 0.076793 -0.113444 0.017192 -0.133459 0.059805 0.244545 -0.126165 -0.089391 -0.100507 -0.001827 -0.07036 0.042199 0.201295 0.006624 -0.23504 0.023052 0.056736 0.027739 -0.188469 0.219602 0.22098 -0.27377 -0.014261 -0.070813 0.062091 -0.006003 -0.033712 0.096357 -0.198023 0.127128 -0.074758
-0.049467 -0.21716 0.090937 0.090442 0.039471 -0.158319 -0.11269 -0.069629 -0.152616 -0.168774 0.174922 -0.001446 -0.103807 0.051497 0.194559 0.131969 0.040381 0.032635 -0.067156 -0.025622 -0.010711 -0.020901 0.119984 0.244719 -0.109187 0.082315 -0.135338 -0.023344 0.21433 -0.064577 -0.064485 0.074849 0.149247 -0.027656 0.004969 0.03268 0.06585 -0.057646 0.153199 -0.005728 -0.022326 -0.274079 0.004042 0.014306 0.05418 -0.043258 -0.168469 -0.040621 -0.157761 -0.0691 0.094353 0.072912 -0.075834 -0.197271 0.168871 0.117121 -0.136197 -0.055852 -0.009409 -0.089041 -0.057739 -0.071827 -0.092378 -0.079523 -0.113948 -0.038776 0.031106 -0.010216 0.104807 -0.099296 -0.017116 -0.076253 -0.094261 0.043236 -0.070148 -0.074738 -0.099196 -0.105257 -0.096505 -0.240964 -0.008615 -0.07672 0.040914 0.071479 -0.071285 0.055601 0.005485 -0.102117 0.010954 0.072108 0.050477 0.154822 -0.090926 0.117414 0.012584 0.026602 -0.071613 -0.136944 0.106969 0.012461
0.164741 0.104044 0.020106 0.148015 0.276419 0.055164 -0.177028 -0.095803 -0.312122 0.149541 0.026521 0.111523 0.174546 0.060055 0.084428 0.341678 0.087752 -0.320102 0.139203 0.269537 -0.464171 -0.093491 0.182478 -0.182741 0.04527 -0.16321 -0.132708 0.376559 0.209051 -0.004888 -0.396268 -0.110742 -0.178245 0.030275 -0.15989 -0.222414 0.301441 -0.219075 0.007828 -0.022327 -0.237891 -0.276302 0.022695 0.522038 0.13234 0.107355 -0.07217 0.178221 0.269735 0.077644 0.11317 -0.292052 -0.078251 0.246046 -0.377947 0.026182 0.117538 0.081771 0.177311 0.019522 0.18662 0.025842 -0.014923 -0.063116 -0.075799 0.225591 0.032094 0.191919 -0.004728 -0.055382 0.055269 -0.029919 0.169134 0.138442 0.133708 -0.048524 -0.072356 0.286113 -0.161223 0.198808 0.241381 -0.05409 -0.28573 -0.043612 0.108037 0.036868 0.023419 0.082607 0.215387 0.288214 -0.104648 0.097582 -0.225498 -0.155101 0.09818 -0.106277 0.12446 -0.005864 -0.20053 -0.04621
0.133658 0.009986 0.138952 -0.095045 -0.150601 0.033429 -0.157539 0.119307 -0.14746 -0.174664 0.05436 -0.064403 -0.251236 -0.01319 0.231859 0.256623 0.059431 0.043622 0.189471 0.107568 -9.43E-4 0.118534 0.178217 0.134863 -0.240821 -0.108322 -0.030546 -0.031988 0.28019 -0.204743 -0.015384 -0.023617 0.100566 0.067937 -0.017835 -0.045019 -0.015679 -0.052514 0.076652 0.140144 -0.013811 -0.128432 -0.008102 0.128145 0.067734 0.098241 -0.04858 -0.03594 -0.15693 -0.083071 -0.066534 -0.344305 -0.14579 0.128798 0.113175 0.11337 -0.069072 0.012222 -0.017767 -0.111976 -0.136179 -0.160598 -0.252375 -0.269066 -0.112411 -0.104676 -0.125442 -0.202172 -0.031036 0.060726 -0.154076 0.055114 -0.110781 -0.067322 0.019866 -0.053324 0.138083 -0.006563 -0.125187 -0.004538 0.005156 -0.049674 0.065453 -0.297967 -0.067816 0.207561 -0.017369 -0.090657 -4.77E-4 0.201038 -0.180319 -0.095071 -0.090069 0.025703 0.007828 -0.027208 -0.029666 -0.24264 0.016459 0.091212
-0.061748 -0.114364 0.156185 0.072679 0.006463 -0.138635 -0.033851 -0.041798 -0.00243 0.094893 -0.032813 0.065356 0.028988 -0.089423 0.223069 0.122255 -0.015562 0.049704 0.035022 0.023485 0.003668 0.080983 0.215972 0.048498 -0.233913 -0.03819 -0.113414 0.058983 0.279367 -0.178126 -0.065915 0.002082 0.035167 0.0559 -0.107677 -0.063432 0.092545 0.068213 -0.061745 0.088047 -0.003353 -0.043713 0.06842 -0.04189 0.005293 0.015632 -0.082067 3.88E-4 -0.089667 -0.110796 0.079691 -0.043351 -0.041415 0.135007 0.143466 -0.076153 0.025003 -0.008922 -0.103682 -0.328706 0.0213 -0.113506 0.083308 -0.212761 -0.020692 0.024444 0.020086 0.036965 0.089865 -0.060722 -0.214881 -0.043945 -0.045913 0.099438 -0.04504 -0.056611 -0.064537 0.055721 0.052136 -0.194322 -0.064886 0.079205 0.133663 -0.219925 0.001864 0.032353 0.001709 -0.053832 0.205909 0.104873 -0.110395 -0.025494 -0.074713 0.085951 -0.041183 -0.130563 -0.091411 -0.039883 0.075581 -0.17537
0.0 0.0 0.0 0.0 0.0 0.0 0.0 0.0 0.0 0.0 0.0 0.0 0.0 0.0 0.0 0.0 0.0 0.0 0.0 0.0 0.0 0.0 0.0 0.0 0.0 0.0 0.0 0.0 0.0 0.0 0.0 0.0 0.0 0.0 0.0 0.0 0.0 0.0 0.0 0.0 0.0 0.0 0.0 0.0 0.0 0.0 0.0 0.0 0.0 0.0 0.0 0.0 0.0 0.0 0.0 0.0 0.0 0.0 0.0 0.0 0.0 0.0 0.0 0.0 0.0 0.0 0.0 0.0 0.0 0.0 0.0 0.0 0.0 0.0 0.0 0.0 0.0 0.0 0.0 0.0 0.0 0.0 0.0 0.0 0.0 0.0 0.0 0.0 0.0 0.0 0.0 0.0 0.0 0.0 0.0 0.0 0.0 0.0 0.0 0.0
1.219979 0.840896 -0.889874 1.497061 0.359939 0.146731 -2.201161 0.483676 -1.725902 -0.978197 -0.356077 -0.234536 -1.475796 -0.289149 0.770841 2.620823 -1.409437 -2.538311 -1.120352 -1.693365 0.145075 -0.605518 0.982137 -0.159265 2.12607 0.308494 -1.876083 2.079224 1.353198 -0.963628 -0.046424 -0.806909 0.625672 1.849321 -2.230211 -1.820351 2.264509 -1.234566 1.239084 -1.665912 -1.112559 -3.463763 0.494633 0.282674 2.0141 2.000156 -1.575268 -0.706065 2.560699 0.202354 2.03992 0.343462 -0.582066 0.846577 -0.270955 0.712605 0.339486 1.417198 -1.110318 -1.571178 -1.529763 0.220338 -0.505979 -1.763048 -1.044964 0.249273 -1.121451 -1.860006 -0.322231 2.972221 1.748183 0.605485 0.208847 -1.113874 -0.261203 -0.387651 1.487286 0.603139 -2.605518 -1.142366 0.503438 -1.086088 -0.12459 -0.056509 -1.660534 0.534014 0.942284 -0.088356 0.703531 3.071906 0.348358 -0.478752 -3.365751 -0.561459 1.56756 2.364135 1.053051 0.51308 -1.024781 1.110015
-0.072483 -0.153446 -0.040155 0.052251 -0.170043 0.148478 0.100226 -0.160464 -0.109759 0.168298 0.219223 0.102042 -0.138442 -0.268076 0.110624 0.137683 -0.130861 0.073583 0.044772 0.15071 -0.064718 -0.03111 0.016906 -0.134438 -0.213888 -0.14675 0.120559 0.066266 0.113945 -0.231543 -0.208583 -0.077391 -0.169914 0.162375 -0.305591 -0.250691 0.141491 -0.103359 0.086753 -0.002678 -0.024249 -0.108447 0.236118 0.100982 -0.041716 0.026556 0.003183 0.020262 0.012499 0.029556 0.115098 -0.115137 -0.040177 0.056733 -0.039765 -0.151743 -0.064624 0.117997 -0.20965 -0.148433 -0.168087 -0.055897 0.226185 -0.162535 -0.110505 0.012207 -0.127858 -0.094511 0.044272 0.218487 -0.047439 0.031751 0.019664 -0.014026 -0.01387 -0.054654 -0.109719 7.05E-4 -0.017007 -0.035983 0.05436 0.164784 0.18969 -0.013743 0.113008 0.012103 -0.139759 0.15396 -0.001822 -0.013078 -0.009957 -0.214008 -0.036 0.020388 0.051009 -0.013952 0.009186 0.209307 -0.167453 -0.052211
0.067365 -0.098234 -0.087276 0.094984 -0.016626 0.332459 -0.07222 0.121676 -0.031477 0.14974 0.243532 -0.094988 -0.09894 0.20782 -0.007434 0.059112 -0.183023 0.126756 -0.015388 0.019289 0.193392 0.252587 0.249131 0.168913 -0.049026 0.13608 0.04419 -0.036512 -0.084217 -0.184984 0.046543 -0.297416 -0.155453 -0.100258 0.179937 -0.444897 -0.114554 -0.037583 0.164788 -0.060788 -0.105272 -0.041323 0.084466 0.178411 -0.182368 -0.315266 0.162192 -0.065039 -0.280966 -0.058211 0.103369 0.03917 -0.34387 0.092852 -0.126362 -0.030967 -0.080224 -0.374896 0.404137 -0.045019 0.169645 0.177729 -0.019474 -0.242705 -0.103578 -0.046288 -0.297823 -0.049549 -0.100837 0.102079 0.043778 0.192599 0.026613 0.048479 0.284639 -0.171068 -0.227212 0.006306 0.074202 0.025097 0.023176 0.370704 0.061126 0.164567 0.3824 -0.356018 0.022405 0.177539 0.19105 0.024056 -0.155907 0.119275 0.056992 -0.014233 0.052606 0.065523 0.024943 -0.183555 0.066572 -0.056079
-0.08527 -0.011954 -0.008522 -0.070471 -0.027368 -0.034217 -0.154683 0.170025 -0.211351 0.005175 0.035054 0.061369 -0.05016 0.042209 -0.103162 0.026348 -0.113398 0.250342 0.37709 -0.140929 0.03508 0.14316 0.155727 0.199993 -0.055704 0.038226 -0.057878 -0.17484 -0.071578 -0.310512 -0.031749 -0.282726 -0.202981 0.040096 0.005533 -0.088928 -0.075045 0.079848 -0.186911 0.116578 0.097923 0.069315 0.293092 0.16102 -0.093612 -0.038429 0.253428 0.110811 -0.095616 0.076348 -0.077247 -0.117277 -0.007219 -0.015298 0.02128 -0.16697 0.077035 -0.250845 0.226215 -0.091739 0.065957 0.055509 0.058185 0.002781 -0.163207 0.072809 -0.02191 0.153176 0.112132 -0.189062 0.007301 0.122526 0.076668 0.120301 0.118231 -0.078156 -0.030493 0.179634 0.032708 0.039865 -0.070133 0.396054 0.247863 -0.05226 -0.019937 -0.18977 0.174569 0.286988 -0.121259 0.104363 -0.223968 0.007609 -0.014909 -0.062617 -0.202583 0.046452 0.124781 0.043147 -6.14E-4 -0.1257
-0.217622 0.099551 -0.1788 0.148128 0.131541 -0.071998 -0.088706 -0.090213 -0.168853 0.151684 -0.04797 0.203297 0.0948 0.213809 -0.023789 0.042139 -0.078633 0.103449 0.00966 -0.202018 -0.011194 -0.127344 0.024803 0.126006 0.049995 -0.10908 -0.057699 -0.13152 -0.005173 -0.052793 0.151821 0.05043 -0.255439 -0.002872 -0.031667 -0.066219 0.074826 0.071271 0.11909 -0.088312 0.003708 0.038564 -0.001743 -0.010963 -0.007699 -0.029344 0.067294 0.051736 -0.248372 0.193963 0.186096 -0.014138 -0.039565 0.108706 0.102777 -0.19065 0.010801 0.089382 0.022675 -0.007416 0.008789 0.015136 -9.99E-4 -0.123342 -0.014369 0.187522 -0.141317 -0.041627 0.064227 -0.03007 -0.006382 0.177663 0.211161 0.041135 -0.041127 0.030943 -0.155315 -0.143258 -0.091196 0.125358 -0.120306 0.12258 0.039654 -0.05828 -0.018611 0.028777 -0.020865 0.14492 -0.031455 0.071133 -0.037407 -0.156116 0.031923 0.132171 -0.012344 -0.158414 0.054987 -0.121596 0.101989 0.032146
-0.178361 0.023108 0.030516 -0.00779 -0.127135 0.033774 -0.058489 0.108023 -0.081989 0.181792 0.15754 -0.042374 0.022531 0.074904 0.06134 0.212379 0.125077 0.182368 0.042925 0.141779 -0.175989 0.068378 0.056694 0.173894 -0.156246 -0.052193 0.009312 0.006255 0.137546 -0.101633 -0.01366 -4.65E-4 -0.057965 0.105498 0.088793 -0.099231 -0.069107 0.033709 -0.094455 0.070188 0.08289 0.088396 0.081002 -0.251021 0.005646 -0.147359 -0.131828 0.036224 -0.096342 -0.051767 -0.006245 -0.057025 -0.177246 0.121287 0.13194 -0.054862 -1.47E-4 -0.090271 0.044172 -0.094164 0.068466 0.014386 0.044188 0.055794 -0.294903 -0.052435 0.071505 -0.126545 0.164685 -0.079436 -0.032483 0.014316 0.023237 0.036095 -0.003958 -0.126208 -0.175707 0.050816 0.018969 -0.135684 -0.112811 0.192106 0.262908 -0.161332 0.045463 -0.091907 -0.012066 -0.066752 -0.01573 0.008406 -0.178769 -0.032234 0.170579 0.307644 -0.092665 -0.064283 -0.192889 -0.104724 0.032471 -0.060748
-1.3982 -1.509374 -1.361633 -2.763293 -2.557752 -0.791833 0.422226 1.537109 2.067845 0.917381 -1.573132 -0.417836 -0.446575 2.326211 1.78719 2.74299 -0.192913 -0.414575 -0.585248 0.549211 1.042558 1.439301 -0.10956 -2.759268 -0.532491 0.014499 0.637073 -2.261124 -2.495915 -0.7911 0.539768 1.314579 0.817665 -5.283718 -1.83908 0.560987 1.131661 1.7208 -0.305391 0.358235 0.255065 0.188787 0.906684 2.364416 2.639111 -1.167224 0.987954 1.174944 -1.002683 -0.257839 -0.246144 0.06335 -1.123762 0.344086 1.532443 -0.34525 -0.496453 0.892043 0.904805 1.53749 2.354738 1.320817 1.467894 -1.013219 -1.911103 0.083495 2.438002 -0.200744 -0.040441 0.862193 1.337157 1.237082 -0.267697 0.402678 0.695508 -2.895822 -1.087187 0.673951 3.040659 -0.980831 -0.857038 1.288735 2.013501 1.491208 0.212176 1.333868 0.856291 -1.860538 0.47849 0.478698 -2.2995 4.253244 0.298359 1.440935 1.295467 -1.563311 1.920523 -2.105404 0.625557 -1.005922
0.021 -0.017019 0.221199 0.114329 0.036471 0.125872 -0.235083 0.078065 0.0256 0.191366 -0.127035 0.161951 0.086085 -0.081923 -0.065238 0.310385 -0.115093 0.158523 0.034698 -0.165479 0.042841 0.206123 0.119552 0.283697 -0.090919 -0.1798 -0.01879 -0.137393 -0.101186 -0.172704 -0.090845 -0.315025 -0.14532 -0.001993 -0.100335 0.021297 0.067913 0.04505 -0.18561 -0.148554 -0.061772 0.09668 -0.05118 -0.135161 -0.037031 -0.023474 -0.11412 -0.116714 0.056086 0.018883 0.027103 0.199849 0.003255 0.102103 0.144849 -0.27339 -0.190699 -0.192333 0.105097 -0.34804 -0.041219 -0.166025 -0.03757 0.028946 -0.204375 -0.077069 0.003581 -0.095931 0.111933 -0.114449 0.04229 0.004511 0.090554 -0.065368 0.169936 -0.081546 0.220538 0.20027 -0.21719 0.057157 0.030494 -0.016599 0.094882 0.027409 0.034831 -0.170257 -0.262189 0.023649 0.236294 -0.001009 -0.016061 -0.054798 0.018874 0.016563 -0.200357 -0.065587 0.100984 -0.016307 -0.057213 0.018828
-0.895303 -0.502746 0.147086 2.904988 -0.675229 1.477504 -0.211327 1.51698 -2.147745 0.077825 0.657474 0.336427 -0.182904 2.021077 1.53094 0.325635 -0.047374 -2.785726 -1.39518 -0.637063 1.116796 -2.131305 0.770024 -0.805966 0.153579 -0.018533 2.44098 0.274999 2.270784 3.614658 -0.441323 -1.945492 -0.62354 -1.969077 1.187036 0.839384 0.164427 -1.148598 -1.252852 -0.377287 -4.000254 -4.203346 -0.586959 2.467858 -2.415704 0.576514 -2.688904 4.370127 1.506845 2.96571 3.338651 1.26166 2.386784 0.372135 -1.799138 0.595625 -3.029104 3.108212 0.190521 -2.252167 3.892553 0.691249 -0.469749 0.767359 2.533747 1.575118 1.805351 -3.822411 1.665001 1.26934 4.12885 1.705492 0.020874 0.84653 -2.29268 -0.52015 0.773216 -1.309162 2.02159 3.238193 0.049248 0.063972 2.777138 0.104812 -1.695828 0.423193 0.046516 2.836035 -2.161154 -1.835464 2.061084 -4.626534 -2.674416 -0.353638 -1.614879 0.743406 -2.551022 1.850807 1.280547 -1.626849
0.092506 -0.190181 -0.169651 -0.176859 -0.157274 0.117434 -0.246053 -0.095055 -0.226845 0.056095 -0.066084 0.025004 -0.043226 -0.06793 -0.068137 0.165682 0.061116 0.071951 0.064888 0.034774 -0.026295 0.078465 0.039067 -0.01204 -0.068662 -0.153453 0.017397 -0.052319 0.055524 -0.091639 0.124383 0.018886 -0.198151 0.077424 -0.103548 0.018512 -0.201059 0.101664 0.168027 0.022853 0.047591 -0.143808 -0.088134 0.074183 -0.119839 -0.069799 -0.289185 -0.063018 -0.136762 0.08873 0.186365 0.03422 -0.076668 -0.108907 0.163803 0.019469 -0.087732 -0.04543 1.34E-4 -0.053077 -0.090084 -0.032118 0.017588 -0.110636 0.093312 0.082828 -0.008866 -0.122675 0.005555 -0.156537 0.059343 0.058546 0.136846 -0.008335 0.094648 -0.058541 0.079997 0.127917 -0.051985 -0.109897 0.141124 -0.007186 0.001759 0.100589 -0.004111 0.049543 -0.027096 0.154899 0.081346 0.093517 -0.033063 -0.068032 0.135419 7.35E-4 -0.010201 0.097192 -0.043545 -0.058325 0.031733 0.071254
-0.113698 -0.040879 0.068577 0.02192 0.127921 -0.008797 -0.012707 0.181962 0.09771 -0.007688 -0.201993 -0.019949 -0.037121 0.178718 -0.109836 0.065797 -0.016464 0.086678 -0.063254 -0.146919 -0.148385 -0.357227 -0.257491 0.137288 0.11187 -0.07573 0.412638 -0.115997 -0.055024 0.187497 0.01101 0.165382 -0.047314 -0.179832 0.105768 0.267805 0.15638 -0.03661 0.115327 -0.060013 -0.076671 0.011495 0.034206 0.100128 0.024267 0.053123 0.030079 -0.047569 0.102143 -0.120123 0.032608 0.110114 0.063098 0.176169 -0.115369 0.144281 -0.036711 -0.18842 0.049428 -0.165754 -0.094408 0.008524 0.022781 -0.07309 -0.149669 0.158956 -0.070327 -0.128408 0.017173 0.040823 -0.024192 -0.15328 0.109518 -0.156109 -0.115865 0.191443 0.020312 0.021795 -0.130784 0.254466 -0.029579 -0.234177 0.21948 0.131687 -0.169905 -0.124606 -0.005156 0.311988 -0.08531 0.043034 -0.032014 -0.177317 0.122472 0.051195 -0.018199 -0.049937 -0.051036 -0.079558 -0.100131 0.003594
-0.001889 -0.015376 0.011577 -0.079922 0.019615 0.005975 0.018085 -0.133459 0.07886 -0.019014 -0.010821 0.041669 -0.011128 0.097962 -0.060935 0.042309 0.015014 8.49E-4 -0.002449 0.038756 0.0685 -0.030124 0.021652 -0.079703 0.075875 -0.122727 0.144977 0.073106 0.120718 -0.115022 0.047765 0.225363 -0.061747 -0.035103 0.080005 0.064342 -0.011293 0.032618 0.076202 0.118833 0.299047 0.176216 0.148892 -0.105455 -0.022399 0.118571 -0.05437 -0.136016 -0.04767 0.112361 0.012505 0.001737 0.056998 -0.132972 0.205737 0.014869 0.130993 0.242588 0.100312 0.073252 -0.019374 -0.073147 -0.042245 -0.05193 0.119558 0.067972 -0.198268 0.013905 0.103121 -0.09962 -0.010563 -0.219254 -0.117595 0.0375 -0.028297 0.03039 -0.116152 0.021365 0.041774 -0.247365 -0.187561 -0.063496 -0.088808 -0.029223 0.057963 0.069802 -0.07258 -0.052825 0.064478 0.040761 0.149345 0.085248 0.239559 0.137326 -0.140966 0.005439 0.083517 -0.02486 -0.028184 0.111642
0.014401 0.056522 -0.067027 0.003451 -0.029767 0.073351 -0.024849 0.036841 0.040807 0.005458 0.13335 -0.120096 -0.117021 -0.119265 0.024171 -0.015156 0.05961 -0.1094 -0.023646 -0.066864 -0.026603 0.054721 0.037844 -0.047458 0.049247 0.214332 -0.031197 -0.081032 0.0982 -0.06176 -0.187928 0.07447 0.140843 0.089594 0.127182 -0.106684 -0.115247 0.047985 0.017104 -0.188258 0.201881 0.035723 0.17568 -0.081601 0.023983 0.109685 -0.107213 -0.203239 -0.014228 0.042078 0.128434 -0.15446 -0.162105 -0.057687 -0.123467 0.099686 -0.003883 0.05067 0.065316 -0.21982 0.00112 -0.059011 -0.046757 0.11549 0.023983 -0.006561 -0.066449 -0.189888 -0.017994 0.220568 0.052927 -0.029092 0.221103 -0.013212 3.38E-4 -0.022332 0.015746 0.1407 0.033685 0.174891 -0.062061 -0.068634 0.002461 -0.013492 0.017944 0.018135 0.023988 -0.324442 0.001304 0.173735 -0.02299 0.007869 0.154087 -0.09733 0.080793 0.236875 -0.030117 0.131032 0.157627 -0.019791
1.519526 1.445578 -1.609499 2.582747 2.460795 3.529971 0.431498 -0.524736 0.238502 0.565084 -2.150664 2.607871 -3.578636 0.22885 1.205379 0.400126 -2.365878 -2.228676 -0.500047 -1.958516 -2.734259 -2.028213 -0.339577 -2.726884 0.003785 -1.85554 -0.90189 1.042933 0.930181 0.561229 0.956561 0.220468 -1.219533 -0.188243 -0.649085 -0.117874 2.101841 -0.317004 1.300647 -1.49228 0.533457 -2.976113 -0.635474 -1.431524 -0.943268 0.543614 -2.072507 -1.004219 4.072807 -1.496014 2.612373 2.458477 -0.120651 0.418572 -2.53177 0.646754 2.04053 2.0667 -2.403623 -3.037353 -1.289071 1.269349 0.447478 0.512568 0.464348 -0.142416 -1.155552 0.32258 -0.986119 3.909852 3.839548 0.865499 -1.089316 -1.400134 0.517204 -3.398406 -0.576028 -0.612853 -0.573641 -1.979957 1.278503 1.159562 0.583915 -0.210028 0.851463 1.075476 2.276915 0.114312 2.2836 1.968815 1.899569 0.001135 -2.286771 -2.666814 -1.408445 1.975128 -0.085175 1.44887 -1.994305 2.796178
0.166865 -0.033351 -0.013364 -0.059014 -0.095169 -0.021507 -0.126788 0.103728 -0.200711 -0.063152 0.044354 0.134222 0.002393 0.071524 0.209815 0.100187 0.025401 0.083631 0.120448 0.173878 -0.091184 0.033918 0.054121 0.121356 -0.168415 -0.048991 -0.209931 -0.016042 0.202225 -0.007166 -0.110802 -0.028926 -0.11468 0.016808 -0.064513 -0.05835 -0.015135 0.093734 0.167046 -0.014056 0.02555 -0.101082 -0.016676 -0.00246 -0.017495 0.184926 -0.038011 -0.106257 0.001132 0.03659 0.080797 -0.16487 -0.164051 -0.024617 0.144233 0.037146 0.064814 -0.135114 0.218106 -0.087954 0.024218 -0.008723 0.020657 -0.10933 -0.0401 -0.009808 -0.283523 0.179888 -0.016468 0.100665 -0.045627 0.125868 0.040189 0.113707 0.238166 -0.079786 0.009467 -0.061173 -0.064632 -0.277119 0.084403 -0.091058 0.212317 -0.16461 -0.095926 -0.049768 -0.09268 0.023356 0.096515 0.010373 -0.174271 -0.082788 -0.155016 0.104184 0.044246 0.051147 0.02525 -0.044468 -0.064392 -0.011243
-0.052909 0.025143 0.068653 0.007157 0.011234 0.036372 0.043707 0.054511 -0.053174 -0.043019 0.060511 -0.048646 -0.067574 0.073135 0.180058 -0.067954 0.056104 0.048957 -0.026837 0.017887 -0.066345 0.111809 0.008814 0.042789 -0.081723 -0.231614 -0.054533 -0.042471 0.174947 0.003484 0.075105 -0.05242 -0.102105 0.069054 -0.041269 0.032313 0.116635 5.57E-4 0.085291 0.110494 0.108896 0.042603 -0.056126 0.017715 0.092263 0.169691 0.112594 0.041834 0.060141 0.041644 0.04647 0.064717 -9.63E-4 -0.13351 0.063508 -0.237244 0.079755 -0.099942 0.051928 -0.116207 -0.026734 -0.055449 0.042605 -0.042566 0.040305 0.049141 0.103737 0.088645 -0.117647 -0.164979 -0.036473 -0.052894 0.086874 0.089989 0.129154 -0.122938 -0.022409 -0.039708 -0.120727 -0.078467 -0.016841 0.107075 0.039005 -0.061214 0.127975 0.050425 -0.016271 -0.057088 -0.083193 0.066411 -0.123916 0.0576 0.073208 0.049729 -0.145444 -0.117469 0.03845 -0.056778 -0.005137 0.081234
-0.680353 -1.179684 0.426429 0.291542 -1.681451 1.013757 -0.215944 1.775826 0.136214 0.338989 1.129514 0.894521 -0.88867 1.742476 0.490825 -3.274628 1.533607 1.282205 -1.460452 -0.37327 -2.163277 0.693359 -0.206331 -1.674158 -0.12521 -0.028105 0.706135 1.551763 1.035107 1.573097 1.524947 -2.180185 1.389227 -1.171144 -1.788728 1.822956 -1.345042 0.445084 -0.528639 0.026789 1.167191 -1.597799 1.207633 -1.659363 0.618183 -2.560903 -0.266315 0.053702 -1.605525 0.12746 -0.253811 0.194725 -0.421135 1.475246 -0.725148 0.607803 -0.594257 0.711442 -0.773831 0.342635 0.836584 -2.005639 -0.861817 1.121355 1.079944 0.44648 0.208733 -0.810176 -0.765384 0.166367 0.66221 1.363254 -3.536052 0.176583 -1.274157 1.165425 -0.468146 1.593004 1.294588 -0.790598 0.134812 -0.207035 0.839019 -1.520672 0.728747 -1.064473 -0.056375 3.942407 -1.460944 2.740106 -2.610748 0.396083 2.861345 2.895674 0.636931 1.610137 -1.050849 1.407112 0.603902 1.961462
0.029749 -0.263142 -0.053581 -0.080629 0.109347 0.074374 -0.195005 -0.066192 -0.087422 0.080044 0.079603 0.226214 -0.036702 -0.007829 0.270803 0.202707 0.077635 0.32318 0.018279 -0.037368 -0.139415 -0.089165 0.165748 0.085509 -0.187608 -0.005756 -0.046555 0.034391 0.205413 0.023097 -0.098738 0.034993 -0.172457 0.264795 0.062831 -0.004645 0.12522 0.120631 0.028297 0.005662 -0.065101 0.078526 -0.16702 0.112535 -0.030722 -0.148525 -0.038439 -0.038 -0.277797 0.01482 0.06376 -0.136314 -0.134525 -0.021348 0.015662 -0.028238 -0.158193 0.023915 -0.268193 0.146278 0.067162 -0.089421 -0.066745 -0.103626 -0.086795 0.15669 -0.162988 -0.180409 0.077172 -0.012034 -0.134706 0.135922 -0.106565 -0.047468 -0.012268 -0.095881 -0.090923 -0.086663 -0.118716 -0.174754 0.051576 0.141824 0.170759 -0.314898 0.176754 0.162286 0.174061 0.004101 0.192725 -0.08078 -0.032201 0.092594 -0.072631 0.106182 -0.041393 -0.076769 -0.129118 -0.083006 -0.005693 0.100426
-0.08527 -0.011954 -0.008522 -0.070471 -0.027368 -0.034217 -0.154683 0.170025 -0.211351 0.005175 0.035054 0.061369 -0.05016 0.042209 -0.103162 0.026348 -0.113398 0.250342 0.37709 -0.140929 0.03508 0.14316 0.155727 0.199993 -0.055704 0.038226 -0.057878 -0.17484 -0.071578 -0.310512 -0.031749 -0.282726 -0.202981 0.040096 0.005533 -0.088928 -0.075045 0.079848 -0.186911 0.116578 0.097923 0.069315 0.293092 0.16102 -0.093612 -0.038429 0.253428 0.110811 -0.095616 0.076348 -0.077247 -0.117277 -0.007219 -0.015298 0.02128 -0.16697 0.077035 -0.250845 0.226215 -0.091739 0.065957 0.055509 0.058185 0.002781 -0.163207 0.072809 -0.02191 0.153176 0.112132 -0.189062 0.007301 0.122526 0.076668 0.120301 0.118231 -0.078156 -0.030493 0.179634 0.032708 0.039865 -0.070133 0.396054 0.247863 -0.05226 -0.019937 -0.18977 0.174569 0.286988 -0.121259 0.104363 -0.223968 0.007609 -0.014909 -0.062617 -0.202583 0.046452 0.124781 0.043147 -6.14E-4 -0.1257
0.038826 0.057241 0.327799 -0.045647 0.191496 -0.049803 -0.17699 0.014172 -0.03957 -0.197826 -0.018384 0.089204 -0.014888 0.046538 0.082575 0.15331 -0.064986 0.127831 0.057104 0.249344 0.104899 0.136459 -0.004628 -0.140759 -0.289996 -0.086021 0.035062 -0.161015 0.063854 -0.179087 0.048598 -0.200793 -0.111273 -0.087891 0.077496 -0.087373 0.094546 0.14933 -0.160426 0.255454 0.039611 0.063766 -0.172434 -0.049711 -0.022499 0.11055 -0.198775 0.017058 -0.069897 -0.061186 -0.088704 0.135471 0.026566 -0.189047 0.064772 -0.238668 -0.054692 -0.47177 -0.010358 -0.209178 -0.072942 -0.071801 0.034949 0.115615 -0.455111 0.204519 0.04734 0.005466 0.034813 0.063101 0.028298 -0.065616 -0.1038 -0.072467 0.146892 -0.21605 -0.080481 0.20539 0.003417 0.040435 -0.001497 -0.050524 -0.071648 -0.202773 -0.199845 0.017659 0.151043 0.042351 0.132325 -0.04072 -0.280076 0.181232 -0.060654 0.217049 0.258221 -0.133451 -0.091122 0.156114 -0.130382 0.171243
-0.034812 -0.133515 -0.086204 0.022457 -0.029721 -0.02075 -0.16369 -0.079586 -0.077429 0.132016 0.258768 0.143891 0.166757 -0.093488 0.059792 0.22027 -0.005194 0.097421 0.009307 -0.139972 -0.170596 0.038615 0.248116 0.063334 -0.104465 -0.091829 -0.083461 0.023524 0.148531 -0.151568 0.090073 -0.108381 -0.147843 0.186743 -0.140073 -0.063208 0.212287 -0.204516 0.334855 -0.036292 -0.194393 0.007633 0.169108 0.097309 -0.082062 -0.066794 0.134093 0.097946 -0.12322 0.061138 0.127938 -0.26024 0.012624 0.127768 -0.002512 -0.18753 0.017756 0.061517 -0.082691 -0.177179 0.092168 -0.011432 0.087983 -0.142896 -0.151101 -0.038403 -0.008946 -0.028721 0.097233 -0.048524 -0.109176 0.109497 0.120938 0.088499 -0.03967 0.024029 -0.169295 0.045749 -0.150652 0.00335 -0.069099 0.224476 0.033231 -0.134366 0.079649 0.134569 0.137641 0.128788 0.212644 -0.029561 -0.120304 -0.069512 -0.049811 0.101987 -0.041591 -0.155753 -0.009334 -0.028792 0.025867 0.146575
-0.046453 -0.114089 0.048378 0.039697 0.205342 -0.134425 0.195579 -0.187425 0.012362 -0.056148 -0.131226 -0.036605 -0.166618 -0.005606 0.011423 -0.035289 0.073024 0.049955 -0.03056 -0.116564 -4.0E-4 0.248965 0.168589 -0.016666 -0.127127 -3.18E-4 0.127741 -0.107854 0.05539 -0.111124 -0.041902 -0.11626 0.086201 0.191946 -0.031307 -0.026238 0.135582 -0.138117 -0.118683 -0.205278 -0.118941 0.075416 -0.021621 -0.074612 0.105553 0.141257 -0.097239 0.031083 -0.191864 0.157126 0.157338 0.018714 -0.190255 -0.078835 0.160698 0.051121 -0.022634 0.282011 -0.210636 0.065967 0.011387 -0.10215 -0.014587 8.06E-4 -0.126806 0.10146 -0.051249 -0.166886 0.138311 -0.092453 -0.203714 0.163209 0.126385 -0.163049 0.060969 -0.136489 -0.119169 0.143901 -0.166778 -0.074124 -0.205023 0.138254 -0.069697 -0.023512 0.056226 -0.151985 0.057434 -0.163405 0.084998 0.19969 0.169875 -0.038445 0.015784 -0.127481 -0.113888 -0.245198 0.065981 0.165014 0.001608 -0.042748
-0.755456 -0.486842 -0.636761 1.007647 0.411575 1.911715 -0.567697 0.258283 0.27926 0.941215 -0.443203 -0.72611 0.926361 0.323373 0.228569 2.711518 1.402208 -0.378893 0.096004 -0.076658 -2.219521 -1.81994 2.531086 0.602017 0.774003 -0.869081 1.872485 2.369261 2.457754 2.059572 0.200768 -0.812932 1.056632 -1.058114 -0.369611 0.814726 -0.543104 0.916349 -1.516046 -2.380797 -0.779106 1.372211 0.244057 0.996867 -0.432122 0.227896 -2.773652 1.975727 1.488233 -1.054278 0.73044 0.035912 2.678513 -0.371952 -0.457132 2.126628 1.789241 1.814787 -0.387069 -1.477383 0.704505 0.315884 -0.509234 0.932451 1.224023 0.275019 -0.210255 0.197125 -2.887693 -1.399978 2.331163 -0.005377 -1.929671 0.53962 -2.409831 0.810552 1.80261 -0.496126 -1.375873 4.144521 1.08608 1.655903 0.16942 0.293835 2.249895 -0.667994 0.884882 -0.047375 0.645673 1.179637 -0.322902 -1.513284 -0.271224 0.39018 1.633259 0.989986 0.6289 2.579239 -2.66714 0.664074
0.017182 0.114487 -0.095538 0.052446 -0.022798 -0.29093 0.197996 -0.096426 -0.353303 -0.117805 0.232843 0.276623 0.044867 -0.123517 0.104306 0.280013 -0.126813 0.256064 -0.237659 0.004539 0.183394 0.152106 0.348438 0.137984 0.132188 -0.215104 -0.081916 0.038555 0.124217 -0.152042 0.077932 -0.091084 -0.079702 -0.190606 -0.042614 -0.221762 0.202286 0.041684 -0.229104 0.125945 -0.063472 0.121921 -0.232282 -0.129387 -0.174318 0.02424 0.05087 -0.089392 -0.127875 -0.055749 0.21456 -0.329093 -0.161358 -0.079642 0.203893 -0.279411 0.074028 -0.04076 0.076795 -0.106407 0.100514 -0.249864 0.114765 -0.154223 -0.351302 -0.103217 -0.079102 -0.188275 0.281798 -0.110994 9.54E-4 0.112686 0.067199 -0.064008 0.045107 0.015023 0.025537 0.034247 -0.028997 0.095448 -0.097597 -0.03695 0.257745 -0.28714 0.064592 -0.195051 0.059516 0.020756 0.07712 0.071562 0.166167 -0.090355 -0.273412 0.043632 0.022114 0.253859 0.469762 -0.196714 0.127434 0.071321
0.090592 -0.083604 0.024649 0.133682 -0.088965 -0.024589 0.063804 -0.050051 0.045123 -0.066043 0.090645 0.029783 0.023505 0.04618 0.09618 0.182095 -0.019903 0.01327 0.091002 0.01352 -0.17043 -0.058674 0.133109 0.085692 -0.209853 -0.152758 -0.067309 0.038909 0.021296 0.003607 -0.038638 -0.066564 -0.144532 0.026055 0.054866 -0.189371 0.175461 -0.094739 -0.0401 0.114581 -0.019227 0.089445 0.08929 0.143019 -0.130988 0.066257 -0.042065 0.084997 -0.026535 0.063992 -0.025873 -0.047241 -0.134722 0.050746 -0.0619 -0.036903 0.110423 0.06198 0.029813 -0.170762 0.097651 -0.056537 0.016299 -0.156251 -0.229159 0.071877 0.027617 0.035416 0.152834 -0.126798 -0.099113 -0.100261 0.029015 0.166221 0.115961 -0.012504 -0.098568 -0.052666 -0.040827 -0.144332 0.025598 0.037255 0.027463 0.002493 -0.051618 0.035101 -0.018394 0.103613 0.211118 0.063924 -0.141035 -0.169562 -0.052069 0.252574 -0.081469 -0.084071 0.059319 0.094186 -0.060524 0.039293
-0.047421 -0.15849 0.107499 0.089927 0.167776 0.08617 -0.300314 -0.309623 0.108092 0.189928 0.056687 0.033222 -0.077897 -0.080874 0.159018 0.266839 -0.245001 0.016831 -0.085825 0.058383 -0.059198 -0.055262 0.240707 -0.12969 -0.22039 0.060318 -0.047124 -0.139865 0.089529 -0.172326 0.039714 -0.133083 -0.093917 0.050088 -0.217563 -0.099461 0.041898 -0.126919 0.020688 0.317283 0.16597 0.022872 0.046324 -0.073254 -0.180954 0.079862 0.019486 0.185367 0.118476 0.006355 -0.032953 -0.037425 0.063885 0.11699 0.184923 0.052025 0.128145 -0.13686 0.190992 -0.211976 0.013083 -0.015876 -0.029147 0.01214 -0.021098 0.071397 0.239282 -0.021331 -0.132596 -0.213218 -0.047197 -0.061747 0.108005 0.06585 0.170104 0.21 0.017802 0.149472 0.139998 -0.100998 0.016478 -0.071088 -0.215638 -0.123884 -0.172349 0.055991 -0.115719 -0.021301 0.071983 0.092645 -0.139537 0.078519 -0.099633 0.035876 -0.078405 -0.346964 0.042416 0.013565 -0.105723 -0.0419
0.054352 -0.021795 0.028176 0.066435 -0.173868 0.061368 -0.090305 -0.062232 -0.106442 0.046086 -0.069867 0.121469 0.012804 0.028268 -0.00995 -0.005063 -0.031819 -0.071208 -0.043794 -0.157431 -0.148828 0.102309 0.198414 0.076514 -0.009283 -0.102173 0.050605 -0.167548 0.148206 -0.168994 0.049709 0.133627 -0.010389 -0.090109 -0.067265 -0.077433 -0.028872 -0.090199 -0.001051 0.00798 -0.120024 -0.049519 0.01961 0.09616 -0.030138 -0.066326 -0.011688 0.115626 -0.020043 0.016572 0.081696 -0.002666 0.056285 0.19654 0.078213 -0.070903 0.195394 -0.107794 0.134989 -0.164979 0.003633 -0.004719 0.043714 -0.059951 -0.129795 0.074629 -0.081361 -0.01824 -0.155246 -0.078374 0.027672 0.087636 0.226577 0.098096 0.073764 3.53E-4 -0.001216 -0.143016 -0.105517 0.024919 0.024723 0.020856 0.040917 -0.037224 -0.025617 -0.028566 -0.047708 0.017193 0.034585 -0.057548 -0.08309 -0.076211 -0.005797 0.04097 -0.092064 -0.049658 0.016701 -0.152674 0.024814 0.047938
0.141477 -0.095133 -0.028174 0.235261 -0.173839 0.02322 -0.231058 -0.072821 -0.200279 0.087883 0.149959 -0.086533 0.013467 0.194562 0.225242 0.087439 0.180732 -0.118655 0.0162 0.210587 -0.039457 0.016579 0.264039 0.199399 0.0503 0.075761 0.121465 0.126743 -0.007597 -0.25087 0.268222 -0.135049 -0.052855 -0.138559 -0.242879 -0.052878 -0.010074 -0.025369 0.004071 0.098558 -0.035547 -0.040316 0.023119 -0.072846 -0.107456 -0.167837 0.184729 -0.116025 -0.07204 -0.083477 -0.066873 0.291345 -0.196453 0.052339 0.172419 -0.139038 -0.010224 -0.02177 0.135351 -0.238895 0.150723 -0.009939 -0.186613 -0.05278 -0.129819 0.077678 -0.056549 -0.233591 0.121884 0.386017 -0.096764 -0.026681 -0.019229 -0.012186 -0.206756 -0.014065 -0.184837 0.02292 -0.057942 0.06815 -0.103443 0.001504 0.094946 -0.277383 0.342591 -0.045378 0.317627 0.18728 0.31351 -0.064652 0.11863 -0.057365 -0.156541 -0.016792 -0.029006 -0.079886 -0.033766 0.101709 -0.200939 -0.035227
