-0.800986 0.059218 -1.298179 0.369452 -0.309993 2.519996 2.848041 -0.034751 -0.362575 1.800262 0.753069 -0.585982 -0.676025 1.334427 -1.026406 1.090397 2.59785 2.592669 -0.506076 0.363162 -4.493815 -0.950235 0.853549 -3.071773 0.901885 -0.860983 0.483924 1.326413 1.09367 -2.72323 2.503385 -0.737928 -0.26118 0.08762 -2.011725 0.024293 1.540523 1.421999 -0.302405 -1.397915 -0.405207 -0.087616 -2.45213 -2.17856 1.409334 -0.068859 -3.038278 1.454597 0.355901 -0.470559 -0.459286 -1.078807 0.271594 -0.56723 -1.896113 0.010302 1.650728 -0.683977 1.036853 1.539929 -2.137207 0.427425 -0.387335 -0.321493 0.638576 -2.56023 1.968295 0.604878 -1.249972 -1.117556 1.085893 -0.427669 -0.553653 0.225559 -0.297129 0.89341 -0.252973 0.631637 0.264635 1.647513 -2.312323 -0.274431 -0.629407 0.471367 2.285594 -1.570679 1.156018 -0.643656 -0.863082 -0.607325 -1.061679 0.248776 -0.448265 0.724967 -0.341312 1.365787 0.911224 2.336541 -0.485306 0.735299
-0.800986 0.059218 -1.298179 0.369452 -0.309993 2.519996 2.848041 -0.034751 -0.362575 1.800262 0.753069 -0.585982 -0.676025 1.334427 -1.026406 1.090397 2.59785 2.592669 -0.506076 0.363162 -4.493815 -0.950235 0.853549 -3.071773 0.901885 -0.860983 0.483924 1.326413 1.09367 -2.72323 2.503385 -0.737928 -0.26118 0.08762 -2.011725 0.024293 1.540523 1.421999 -0.302405 -1.397915 -0.405207 -0.087616 -2.45213 -2.17856 1.409334 -0.068859 -3.038278 1.454597 0.355901 -0.470559 -0.459286 -1.078807 0.271594 -0.56723 -1.896113 0.010302 1.650728 -0.683977 1.036853 1.539929 -2.137207 0.427425 -0.387335 -0.321493 0.638576 -2.56023 1.968295 0.604878 -1.249972 -1.117556 1.085893 -0.427669 -0.553653 0.225559 -0.297129 0.89341 -0.252973 0.631637 0.264635 1.647513 -2.312323 -0.274431 -0.629407 0.471367 2.285594 -1.570679 1.156018 -0.643656 -0.863082 -0.607325 -1.061679 0.248776 -0.448265 0.724967 -0.341312 1.365787 0.911224 2.336541 -0.485306 0.735299
0.070173 0.039308 0.107688 0.062789 0.15652 0.124082 -0.056432 -0.112537 0.025132 0.140503 0.126967 0.06071 -0.074298 -0.14931 0.052424 0.182899 -0.246843 0.13267 -0.060832 0.014249 -0.124324 -0.021889 0.167993 -0.041896 -0.118065 0.060061 0.024644 0.032088 -0.098378 -0.030464 0.132668 0.111752 -0.096096 -0.07199 -0.297173 -0.090519 -0.107836 -0.01026 -0.033938 0.139789 0.127173 0.008027 -0.077124 0.028844 -0.130697 0.091795 0.126437 -0.176726 -0.119183 0.06901 -0.076019 -0.118921 0.198999 0.162416 0.114462 -0.029789 0.075884 0.002354 0.191814 -0.180285 0.032249 -0.02917 -0.088008 -0.271657 -0.066763 -0.045206 0.183388 -0.151886 -0.047672 0.030697 0.168009 0.04855 -0.083223 0.016797 -0.059652 0.092677 -0.173666 0.089986 0.132784 0.016604 -0.157277 0.026626 9.7E-4 -0.212108 0.094052 0.06787 0.070273 -0.148841 0.03981 0.105973 -0.0732 0.025499 0.047122 -0.076291 -0.093202 -0.17149 0.085148 -0.038776 -0.170445 -0.100314
-0.010225 0.052929 0.072225 -0.013093 -0.062957 0.019587 -0.213749 -0.019734 -0.059349 -0.030797 -0.154443 -0.101324 -0.063202 0.103932 0.142269 -0.141635 0.094552 0.040995 0.137757 0.066863 -0.04687 0.083074 0.01374 -0.053353 0.168485 0.121068 0.072492 -0.147876 -0.0801 0.151189 0.030692 0.022971 -0.072031 -0.115084 -0.090363 -0.00268 -0.056198 0.02322 -0.051549 -0.045378 0.046775 -0.012107 0.175564 0.003019 0.230461 -0.301158 0.116345 0.159075 0.009487 -0.065682 -0.073097 -0.084583 -0.049887 0.012921 0.168027 -0.087545 -0.123388 -0.094521 0.080416 0.103421 0.064276 -0.023201 -0.033277 -0.098456 -0.193161 -0.153835 0.154645 -0.101067 0.217755 -0.052445 0.03853 0.112724 -0.082939 0.232207 0.260472 -0.070393 0.014932 0.049411 0.126518 -0.046932 -0.009606 0.053962 0.092473 0.007273 -0.035325 0.179889 0.078214 -0.123617 -0.177076 0.106385 -0.151224 0.072924 0.006547 0.070497 0.035858 -0.02292 0.068132 -0.227913 -0.14721 0.045746
0.088277 -0.004466 -0.158539 -0.117081 0.109007 0.074349 -0.119847 -0.120788 -0.060845 0.10249 0.111981 -0.035051 2.65E-4 -0.044607 -0.076962 0.047286 0.073412 0.016372 0.247975 0.129203 0.179236 -0.085604 -0.024656 0.048022 0.15703 -0.117118 -0.131712 -0.080895 -0.1215 -0.019239 -0.02725 0.067724 0.033527 0.058351 -0.012884 0.088653 -0.009617 -0.011262 0.099722 0.15307 -0.016398 0.14864 0.08158 -0.03777 0.074921 -0.004688 0.013997 -0.13343 -0.081174 -0.117478 -0.081954 -0.179054 0.096011 -0.055936 0.090275 0.141782 -0.024829 0.067613 0.027954 0.12128 -0.006362 -0.023824 -0.055896 -0.05899 -0.045788 0.097998 0.1172 -0.033011 0.061935 0.101827 -0.18941 -0.190717 0.023001 0.083677 -0.152777 -0.097529 0.010073 0.067951 0.016559 -0.007831 -0.095463 -0.118609 -0.046693 0.002423 -0.051916 0.037264 0.056341 -0.072786 0.097087 0.025026 -0.096223 -0.06302 0.108892 0.038595 -0.028848 0.013231 0.121505 -0.027588 -0.028085 -0.007608
-0.017517 -0.034424 -0.059268 0.163196 -0.092995 0.063415 0.024502 -0.061276 0.106484 0.079059 -0.058015 -0.011886 -0.082312 0.108355 -0.162779 0.148763 -0.097404 0.020054 0.001862 0.07123 0.104345 0.121248 0.071461 0.121638 -0.213101 0.062756 0.138863 0.025485 0.115897 -0.069244 -0.003044 -0.052377 0.003332 0.119696 -0.04639 0.144301 0.148832 -0.01763 -0.110392 0.006302 -0.052803 0.201392 -0.015498 -0.096823 0.049672 0.074357 -0.106172 -0.062292 -0.118135 0.155998 0.035659 0.1632 -0.005588 0.013793 0.061732 0.112049 0.114457 -0.081569 0.120167 -0.061584 0.190145 -0.223325 -0.133386 0.099031 0.06422 -0.024284 8.99E-4 0.078462 0.012989 0.006187 -0.261945 0.253234 -0.077729 -0.018455 0.120841 0.043654 -0.043189 0.153243 0.142427 9.04E-4 -0.034463 -0.027938 0.052953 -0.145432 -0.170892 -0.018288 -0.088891 0.033613 -0.160944 0.005143 -0.161292 0.076509 0.115126 -0.052293 -0.079769 -0.154853 0.054113 0.073721 -0.022923 -0.015544
-0.471366 0.019074 0.589119 0.323826 -1.032798 0.031386 -0.67137 -0.008535 0.557927 -0.55451 -0.426993 -0.402005 0.568847 0.325718 -0.30498 0.621102 0.240327 0.838679 0.525633 0.837987 0.260781 0.429709 0.720806 0.214511 0.300114 0.327315 0.229798 -0.314217 -0.54884 -0.091488 0.054875 1.17478 0.405398 0.212497 -1.001088 0.243292 -0.107326 -0.052237 0.689808 1.378504 0.824988 0.048051 -0.637357 0.575232 0.343379 -0.635333 0.982043 -0.464088 -0.171725 0.186414 0.584498 -1.237625 0.095791 0.186543 0.709397 -0.77934 0.445029 -0.274274 0.403933 0.562377 0.758674 0.101392 0.306509 0.361125 -0.077112 -0.601257 0.230969 0.436803 -0.02868 -0.128338 -1.384913 0.485474 -0.436879 0.193471 0.984554 -0.573007 -0.534269 0.049214 0.679206 0.534005 0.325951 0.307513 1.054075 -0.933629 -0.076362 -0.007963 -0.218639 -0.189222 -0.68452 0.282974 -0.440279 -0.204221 0.072029 -0.508637 -0.673939 -0.555677 0.543387 -0.85761 -0.389491 0.076274
0.0 0.0 0.0 0.0 0.0 0.0 0.0 0.0 0.0 0.0 0.0 0.0 0.0 0.0 0.0 0.0 0.0 0.0 0.0 0.0 0.0 0.0 0.0 0.0 0.0 0.0 0.0 0.0 0.0 0.0 0.0 0.0 0.0 0.0 0.0 0.0 0.0 0.0 0.0 0.0 0.0 0.0 0.0 0.0 0.0 0.0 0.0 0.0 0.0 0.0 0.0 0.0 0.0 0.0 0.0 0.0 0.0 0.0 0.0 0.0 0.0 0.0 0.0 0.0 0.0 0.0 0.0 0.0 0.0 0.0 0.0 0.0 0.0 0.0 0.0 0.0 0.0 0.0 0.0 0.0 0.0 0.0 0.0 0.0 0.0 0.0 0.0 0.0 0.0 0.0 0.0 0.0 0.0 0.0 0.0 0.0 0.0 0.0 0.0 0.0
2.757216 1.638645 -1.279477 -1.671434 -1.079818 1.522349 -1.184603 2.520106 0.615693 -1.77711 1.194576 1.797484 -1.187835 -0.139363 0.23309 0.577511 -0.478235 1.569578 -2.625609 -1.255947 -1.373316 0.399194 0.874871 -1.499391 0.28023 1.797424 3.990992 -1.8455 -1.612828 1.887759 1.814421 -2.424986 -0.117821 -1.91596 -3.252688 -0.407041 -1.709301 0.765283 -1.639781 1.580889 -0.606942 -4.374649 3.625058 -1.03981 2.648034 -1.235356 0.349264 -0.062743 -0.94375 -3.711695 -1.776213 -3.552936 4.95063 4.147472 -2.752341 0.972751 -0.111412 1.724169 0.20753 -1.850091 0.1859 1.650825 -2.835514 -1.248647 -1.551092 -3.799143 0.843606 -0.757752 2.949386 3.155641 0.581037 1.522442 -5.647353 2.697333 3.244214 2.435763 -0.867029 -0.100576 -0.500576 3.001563 -0.02042 -0.087139 -0.377589 -0.076639 -1.069993 -0.483469 1.634389 5.633514 3.38664 2.200387 0.316578 2.22301 0.12935 -0.421701 2.63747 2.489725 -1.095721 -0.128477 0.647166 0.893511
0.174721 -0.123117 0.077311 -0.456082 -0.022039 -0.23781 -0.098061 -0.021235 -0.111131 0.219539 0.149198 -0.219445 -0.154667 -0.107262 0.105536 0.325039 -0.018995 0.113479 -0.073769 0.080503 0.033993 -0.254811 0.031563 -0.209343 0.036042 -0.117176 0.467005 0.113928 0.381208 -0.185674 0.027444 0.057128 -0.153522 0.099572 -0.070082 -0.232176 0.186046 -0.076905 -0.250888 0.163208 -0.13818 0.125521 -0.023267 -0.020286 0.187874 0.061303 -0.060699 -0.060322 -0.167697 -0.290729 0.155776 0.132801 -0.381459 0.043331 0.204889 0.007351 0.018205 0.123217 0.048826 -0.021634 -0.084969 -0.088479 0.188201 -0.224854 -0.256844 -0.032219 0.111137 0.023598 0.065611 -0.001662 -0.012561 0.147182 0.067775 0.03661 -0.01424 0.065751 -0.350971 0.122788 -0.009707 -0.529048 -0.042105 0.161715 -0.140436 0.167417 0.238074 0.070687 0.080842 0.289062 0.062885 -0.043682 -0.12389 -0.081843 -0.150085 0.076973 -0.141382 0.013994 -0.167448 0.146179 0.091782 -0.24869
-0.197833 -0.056555 0.156001 0.123736 -0.078276 0.209854 -0.04605 -0.056084 0.117749 0.201505 0.189318 0.115444 -0.051356 0.117573 0.104551 0.215521 0.051078 0.194911 0.097816 -0.067885 -0.122903 0.133484 0.124077 0.166248 -0.173279 0.096572 -0.121208 -0.06144 0.102379 -0.092414 -0.146914 -0.154051 0.133624 0.227045 -0.040131 0.100694 0.050121 -0.107362 -0.129501 -0.102805 -0.006017 0.185476 0.004392 -0.32418 0.012541 0.102556 -0.031325 -0.126352 -0.03189 0.035365 -0.058277 0.086185 -0.063092 0.143738 0.25712 0.123805 -0.069733 0.064837 0.132952 -0.096966 0.125216 -0.184824 -0.064649 -0.028584 0.009996 0.092827 0.079385 0.023906 0.110844 -7.11E-4 -0.113065 0.038267 0.031492 -0.204851 -0.127336 0.006785 -0.083664 0.021108 -0.052775 -0.0097 -0.018415 0.23085 0.019228 -0.258988 0.15704 0.062168 0.0228 0.178515 0.22944 0.033785 -0.054281 -0.150031 0.11069 -0.002578 0.052516 -0.001554 0.046663 0.097402 -0.004102 0.018743
-0.105822 -0.099504 -6.1E-5 -0.037641 -0.094849 0.001514 0.029901 -0.064676 -0.00738 0.079685 0.118019 0.141888 0.110064 0.089232 0.078756 -0.001913 0.114622 0.312206 0.087776 -0.005747 -0.051885 0.093393 0.070225 0.079912 -0.173402 -0.019644 -0.088079 0.051892 0.124458 0.042917 -0.043074 0.088696 0.055531 0.077229 -0.122276 -0.078898 0.046315 0.026945 0.079311 -0.076046 -0.111879 0.056031 -0.09175 -0.081192 0.027639 0.105572 -0.076943 -0.166895 -0.104735 0.030607 0.045404 0.041094 -0.060058 -0.025054 0.209084 0.025625 -0.129525 -0.142385 -0.176097 0.072268 0.04495 -0.235614 0.048904 0.053232 0.017261 -0.191383 -0.002634 0.069229 0.120054 -0.246368 -0.081415 0.03288 -0.027501 -0.007807 0.019199 0.220149 -0.268194 -0.064196 -0.061396 -0.011917 -0.148986 -0.003776 0.057933 -0.162626 -0.001596 -0.117901 0.103493 0.024001 0.064105 0.073437 -0.211932 -0.025324 0.078885 -0.041096 0.090138 0.033101 -0.005923 -0.021627 0.057516 0.010749
-0.718438 -0.830038 -0.584242 2.1215 -0.644012 1.416116 -0.587713 -0.321771 0.15449 -1.337212 0.646351 2.943981 -2.520119 -0.053393 1.892255 -0.247068 0.153723 -1.774544 -1.713547 1.03615 -2.316809 -1.758234 0.596352 -1.216816 0.651834 0.378166 -0.461749 -1.113127 -1.262089 1.808952 2.079526 -0.645053 -1.036425 -0.051591 0.752853 1.877822 1.149022 -1.563167 0.088195 1.179668 0.264795 -0.643595 -1.254162 2.294433 -0.67558 -0.480528 -1.903531 -1.404449 3.451226 0.215378 -0.348073 3.059608 -0.201534 3.176656 -2.660815 -0.397857 0.658943 0.204092 -2.861443 -2.700162 -0.267356 1.597524 -0.058446 0.400235 0.112722 2.04443 -0.418444 -0.708333 -0.409393 0.970238 4.077705 1.113589 0.123738 0.071757 1.385313 -2.550826 0.377188 -1.266978 -0.033552 1.268038 1.334944 -1.192168 -2.617046 1.325431 1.537295 0.868143 0.029881 0.136091 0.48518 -1.968409 0.753802 -0.972635 0.324233 1.386425 1.801178 1.298403 -2.240443 1.965765 -0.567086 2.183566
0.427926 0.046734 -0.141886 -0.877066 -0.644826 0.40069 -0.540981 0.395339 0.338524 0.080181 -0.062146 0.171874 0.015854 -0.170023 -0.34529 -0.171033 0.281798 -0.014914 -0.235105 -0.021101 -0.357932 -0.513576 -0.18832 -0.288666 -0.281971 0.069966 0.17402 -0.20829 0.075435 0.093561 0.272143 -0.206756 -0.543674 -0.641997 -1.35783 0.023837 0.095125 -0.23289 0.178005 -0.094277 0.167812 0.009547 0.559916 -0.066293 0.580966 -0.161827 -0.094697 0.191787 -0.007863 -0.48425 -0.535356 -0.935995 0.672077 0.174549 -0.680816 -0.031559 0.275639 -0.589235 0.038801 -0.25669 -0.199911 0.037181 -0.021351 -0.230402 -0.461944 0.153536 0.293716 0.04757 0.241177 0.228548 0.020287 0.276493 -0.73659 0.403424 0.289727 -0.134942 -0.388505 0.102082 -0.066823 -0.196707 -0.024861 0.135586 -0.399656 -0.20774 -0.250227 0.603119 -0.156023 0.254368 0.24237 0.506481 0.131239 0.533176 -0.136589 0.22827 0.489774 0.299062 -0.806129 0.368715 -0.182328 0.321905
-2.648351 -0.794316 -2.108887 0.20446 0.883061 0.242784 1.848653 1.149137 -4.975573 0.237654 -1.499665 2.924494 0.344217 -1.640431 0.763777 0.138944 -3.029439 -2.813434 -0.761102 -1.057557 -1.373735 -0.870599 1.234095 0.127805 -1.372618 1.35802 -1.501738 0.80945 0.172993 -0.484995 1.783363 -0.047587 0.483285 -1.526831 2.103549 2.116639 4.583491 -4.022388 -0.843817 0.361243 -0.546655 -2.301259 -2.000973 2.64631 -1.604053 -1.914206 -1.581895 -0.464185 1.757769 1.056301 0.263866 -0.904419 -0.422466 0.007824 -1.651553 0.7499 1.638666 -0.336108 -3.288466 -2.953238 -1.135414 1.165223 -1.047256 -0.821696 -0.135806 0.434207 -2.389307 -3.56953 -0.656773 0.578325 3.337902 0.782195 -1.250815 2.925509 -1.981492 0.121786 0.836257 1.710923 -2.640405 -0.628995 0.247469 0.863847 1.749171 -0.214156 -0.274807 2.192709 -0.892334 -1.614644 -1.225919 -0.042182 2.51632 3.464583 -3.591523 -2.506587 0.990426 1.8843 -2.460629 0.953462 0.359605 2.267383
1.155368 3.302179 -0.818617 0.201583 -0.372035 -0.220049 -2.421694 1.24088 1.022918 0.281963 -0.56672 0.218504 -2.654141 0.687099 1.426786 -2.744465 -2.044989 -0.49789 -1.769702 -2.328375 -1.105508 0.104665 -0.061522 -2.669585 1.369504 1.778184 -0.869744 -1.441309 0.051265 1.116249 1.903031 -0.163683 1.731475 -0.652558 -1.459245 -0.212579 0.382415 1.861636 -0.394668 -0.423196 -0.983827 -1.176007 1.844253 0.853456 0.976233 -0.076248 -1.490589 -0.553926 0.506191 0.326236 0.251095 1.038919 -0.803142 0.658979 -3.236482 -1.07965 1.27678 -0.350029 -1.778651 0.292774 0.002745 0.267431 1.072933 -0.321661 -1.19536 -1.465055 -2.523761 -3.574044 -0.123843 -0.515256 3.2036 -0.08683 1.099575 -0.639959 -1.310584 0.629968 -0.142079 0.66081 -1.289981 -0.152693 -0.105374 0.388507 -1.068849 2.207516 -1.516502 0.618648 0.057959 1.61471 0.888036 -0.337188 -0.73306 -0.809614 -1.409634 -0.094797 -0.938314 1.210802 1.47048 2.210952 -1.933366 0.819087
-0.013236 0.183016 0.137952 0.124071 0.111855 -0.013848 0.12599 -0.160735 -0.167335 0.071493 -0.072039 0.066068 -0.027566 0.081976 0.052254 0.123465 -0.174864 0.02446 -0.045685 -0.237289 -0.244287 0.026204 0.052877 -0.006301 -0.151002 0.100691 -0.123263 -0.056683 -0.053021 -0.13193 -0.028315 -0.105084 -0.171898 0.270708 -0.185777 -0.097435 0.110437 0.083319 0.021308 0.045607 -0.113082 0.144202 0.159826 -0.171962 -0.214273 0.232074 -0.064669 -0.069549 -0.129557 -0.031265 0.144488 0.165463 0.1101 -0.049199 0.20567 -0.026533 0.016345 -0.207442 0.06774 0.068588 -0.022172 -0.154304 -0.174507 -0.096071 -0.023112 -0.165038 -0.196652 -0.059831 0.026218 -0.110533 0.020015 0.284088 -0.047222 -0.16451 0.114496 0.247721 -0.022282 -0.313782 0.01307 0.030813 -0.086021 0.080384 0.179901 0.021525 -0.010492 0.187886 0.064668 0.208563 -0.052103 0.129441 0.05107 -0.169305 0.096805 -0.280488 -0.022548 -0.04542 -0.215836 0.100107 0.371492 -0.03141
0.077795 0.038786 0.095631 -0.055248 0.139355 0.052403 -0.212313 -0.211038 0.033551 -0.15126 0.024084 0.190569 -0.148816 -0.100479 0.017778 0.043339 -0.003457 -0.029875 0.00891 -0.018389 -0.058266 -0.012051 -0.053033 0.034602 0.048519 -0.007 -0.087515 0.077457 0.075716 -0.090963 0.010727 0.126819 0.027764 -0.052773 0.005561 0.056883 0.032131 -0.040239 -0.05263 0.104486 -0.114575 0.0136 -0.12307 -0.069653 0.070031 0.002601 -0.025502 0.00918 0.052078 -0.075588 -0.056422 -0.076673 -0.072181 0.228989 0.019327 0.064132 0.042437 -0.073272 -0.073064 -0.005282 0.093274 0.014029 -0.049952 -0.107247 0.185131 0.099109 -0.034876 -0.182928 -0.03442 -0.020531 0.037521 -0.089782 0.019665 0.065264 0.115423 -0.075067 0.036447 -0.065671 -0.017682 -0.182977 -0.141305 -0.121162 0.142629 -0.167823 -0.04217 0.038882 -0.019313 -0.032406 0.110194 -0.045184 -2.75E-4 -0.044527 -0.300965 0.010622 0.05809 -0.021449 -0.208292 -0.115912 -0.010099 0.016732
2.097164 -0.684685 -0.553311 1.458123 -0.361984 1.488648 1.630849 -0.547477 0.47489 0.560779 1.147556 1.539561 -1.932941 -0.11562 0.57818 0.806424 -1.418521 -2.667003 -0.404307 -0.989205 -1.565511 -0.075045 -0.224478 -1.593667 -0.559622 1.609323 2.101845 1.713226 0.339484 -0.764511 0.677974 -0.946163 0.391299 -1.386644 -1.354432 -0.47665 1.338354 -0.707447 -0.991086 -1.892278 0.948519 -1.548238 0.87698 -0.199978 -0.431374 0.788559 -0.81503 0.171272 0.574567 -0.922672 -0.541769 1.441391 -0.539436 1.61253 -0.535686 0.383211 1.146898 -1.381123 -0.560221 -1.975539 -0.725461 0.781178 -0.379347 -0.175998 -1.317066 -1.041156 -0.854758 -0.983401 0.970127 1.811068 3.418947 0.275835 0.602118 0.250477 1.673823 -0.047512 1.019559 0.701407 0.301924 -0.204249 1.558021 0.467911 -0.656596 -0.659069 -1.000279 -0.825337 1.172484 0.135611 -0.399185 0.803773 0.206766 0.004044 -0.451418 -0.835186 -0.620386 0.953422 -0.936139 1.506188 -0.979472 2.919243
-0.043145 0.012281 -0.217595 -0.071285 0.052157 0.181162 -0.119804 -0.09611 -0.144841 0.097308 0.072652 0.001757 -0.108284 -0.079961 -0.104155 0.082348 -0.135383 -0.004891 0.059983 0.02744 -0.217138 0.051376 0.059437 0.057671 -0.050694 -0.102972 -0.058591 -0.023347 -0.116415 -0.040561 0.071366 0.223981 -0.106379 0.082729 0.034726 -0.11401 0.05488 0.042338 0.182901 0.015861 -0.058425 0.138361 0.005666 0.037873 -0.10221 -0.101146 -0.016762 0.009323 -0.073328 -0.052671 -0.070033 0.106216 -0.076261 0.066904 -0.103414 -0.176306 -0.077643 -0.009903 -0.014741 0.009753 -0.035484 0.015834 -0.020714 -0.047203 0.124383 0.042884 -0.053498 -0.008386 0.021344 -0.067561 0.065113 0.056041 0.015761 -0.216312 0.030804 0.115766 0.042202 0.040089 -0.04552 0.037696 -0.035265 -0.061292 0.089332 -0.073238 0.059697 0.059535 -0.110628 -0.009766 -0.06961 -0.097859 0.113874 -0.112083 0.054601 0.019945 -0.02968 0.029021 -0.070732 0.021012 -0.030158 -0.007574
2.591633 1.608701 -2.087245 2.00752 3.012652 4.995656 0.847355 -1.594905 -0.365708 -1.629805 -1.650237 3.712017 -0.231463 -0.537534 -2.036098 2.002639 -0.696666 -4.310136 -1.477319 -1.356504 -0.581823 -1.830239 -0.272773 -1.648095 0.090509 0.008711 0.330842 0.396714 2.341035 -0.526067 1.155793 -1.730906 -1.010387 -1.342646 -1.939355 0.734869 0.727366 0.700702 1.516974 -2.133831 -0.280653 -3.051674 0.017123 0.532043 1.478449 0.375441 0.920129 1.548929 1.087478 0.668327 0.707416 3.249232 -0.362503 1.273221 -2.929682 -0.245389 1.633444 -0.119836 0.103459 -3.445175 0.513245 0.427807 0.738792 1.448203 0.501908 0.362882 -0.731533 -0.391201 0.037778 3.053553 4.030229 1.793904 1.24136 0.081706 -1.401954 -0.638804 -0.487445 -0.267924 0.012844 0.538179 -0.241935 -0.068756 1.351665 -0.112558 0.001814 0.447262 0.833441 -0.023876 1.212707 1.514635 -0.568611 0.376173 -3.663739 -4.345135 -0.444319 2.139788 -2.53093 0.92131 -1.399435 1.763954
-0.035128 -0.004635 0.103617 0.130451 -0.029409 -0.121051 0.043187 0.070834 0.120511 0.04104 -0.084016 0.114321 -0.113274 0.045725 0.14604 0.052035 -0.057068 0.009963 -0.141161 0.06982 0.09722 -0.064314 0.091325 -0.020204 0.052001 -0.033704 -0.133857 -0.053958 0.146923 0.053363 -0.0586 -0.047389 0.095693 -0.041621 -0.137363 0.131729 -0.04096 -0.172088 0.07359 -0.003864 -0.144826 2.5E-5 -0.079387 0.08565 0.108478 0.044995 -0.059245 0.064874 -0.007821 -0.042446 -0.011822 0.052097 -0.084828 0.034789 0.061945 0.125374 -0.055996 0.020738 0.004995 0.044627 0.037096 -0.078419 -0.064436 -0.059685 -0.102795 -0.080579 0.020665 -0.048857 0.164814 -0.026796 -0.095203 0.034331 -0.023374 0.147247 0.024371 -0.001258 -0.157049 0.031101 0.131538 -0.022934 -0.005558 -0.158126 0.061786 -0.089837 -0.186633 0.100753 -0.121289 0.015091 -2.25E-4 0.109191 -0.016197 -0.064237 0.087074 -0.113613 -0.009957 -0.044301 0.060829 -0.077952 -0.02778 0.064282
0.053585 -0.085687 0.067096 -0.088437 0.096007 -0.003382 0.083439 -0.094563 -0.057592 -0.136014 0.148233 -0.066694 0.086388 -0.221666 -0.010859 0.020634 -0.012664 0.07768 0.012359 0.036294 -0.098641 -0.017315 0.147532 -0.036405 -0.073578 -0.254248 -0.006893 0.111129 -0.003768 0.128239 0.020426 -0.114203 0.085361 0.143291 -0.06281 -0.107839 -0.073802 -0.012484 0.081937 0.121195 -0.032644 -0.16444 0.035742 0.113197 -0.07082 -0.048438 0.191946 0.05252 -0.180794 -0.089245 0.004575 -0.090255 -0.073881 -0.008915 -0.066027 0.006861 0.1337 0.136297 0.213497 0.086248 -0.052701 -0.013609 -0.079877 -0.069191 0.071066 0.072653 -0.021971 -0.041377 0.216102 -0.120348 0.021081 -0.030102 0.033889 0.012821 0.011163 -0.041069 -0.112718 0.047008 0.094062 -0.011663 -0.009726 -0.039355 -0.018346 0.139121 -0.024697 0.146486 -0.013283 0.14293 0.144096 -0.003453 -0.100662 -0.132569 -0.210418 0.110042 0.02961 -0.077611 0.195663 0.109405 0.047124 0.045664
-0.028706 0.033732 -0.114421 -0.07457 0.127383 -0.072256 0.225561 0.060203 0.083158 -0.055015 -0.008016 -0.013805 -0.051516 0.044168 0.111501 0.025036 -0.238953 0.036993 0.171614 -0.137027 -0.117078 -0.077618 -0.049104 -0.008848 0.057426 -0.057326 0.059874 0.011163 0.064202 0.02249 0.115982 -0.050116 -0.037287 0.022451 0.317696 0.035591 0.023828 -0.193618 -0.051534 -0.084514 -0.011266 -0.085479 -0.049087 0.026278 0.053149 0.155973 -0.017962 0.090405 0.046952 -0.046551 0.079632 -0.054336 -0.079931 -0.02083 -0.19082 0.195755 -0.172548 -0.076107 -0.039663 -0.041625 -9.09E-4 -0.037134 -0.03562 -0.121145 -1.21E-4 -0.01738 0.076054 0.018905 0.018724 -0.037724 0.134652 -0.041302 0.140077 -0.048912 -0.024278 0.051511 -0.020874 0.112695 -0.215306 0.087446 0.074303 -0.127096 0.103432 -0.089674 -0.052799 0.058982 -0.081369 0.292689 -0.046317 0.05673 -0.017009 0.029554 -0.09257 0.016177 0.031009 -0.141385 -0.131271 0.186623 0.243762 0.077857
-0.130676 -0.199196 -0.035099 0.032604 -0.042615 -0.023303 0.060237 -0.076584 0.00545 -3.35E-4 0.118055 0.026695 0.105707 -0.087032 -0.074505 0.037002 0.065281 -0.0393 -0.02517 -0.164946 -0.046293 0.003275 0.142592 0.137317 -0.170921 -0.034709 -0.10291 0.048386 0.126692 -0.266657 -0.127747 -0.057535 0.122498 0.074111 0.291178 -0.160118 -0.075608 -0.043598 0.006866 0.015539 -0.137898 -0.115492 0.208727 -0.008284 0.052131 -0.116619 0.023857 0.210145 -0.047289 -0.018462 0.033972 0.011168 -0.074561 -0.257832 -0.0933 -0.024824 -0.097729 0.006717 0.038456 0.006223 -0.011547 0.063837 -0.152379 -0.094751 -0.137922 0.048831 1.73E-4 -0.012646 0.098069 0.060623 -0.129729 0.0301 -0.09719 -0.052737 0.068991 -0.122321 0.078189 -0.077004 0.078852 -0.080564 0.044351 0.069768 0.02003 -0.028151 -0.244601 0.090499 -0.068458 -0.008291 0.107898 -0.035807 -0.070642 0.014903 -0.141891 -0.031287 0.151151 -0.009146 -0.130039 -0.011589 0.097959 0.081507
-0.105822 -0.099504 -6.1E-5 -0.037641 -0.094849 0.001514 0.029901 -0.064676 -0.00738 0.079685 0.118019 0.141888 0.110064 0.089232 0.078756 -0.001913 0.114622 0.312206 0.087776 -0.005747 -0.051885 0.093393 0.070225 0.079912 -0.173402 -0.019644 -0.088079 0.051892 0.124458 0.042917 -0.043074 0.088696 0.055531 0.077229 -0.122276 -0.078898 0.046315 0.026945 0.079311 -0.076046 -0.111879 0.056031 -0.09175 -0.081192 0.027639 0.105572 -0.076943 -0.166895 -0.104735 0.030607 0.045404 0.041094 -0.060058 -0.025054 0.209084 0.025625 -0.129525 -0.142385 -0.176097 0.072268 0.04495 -0.235614 0.048904 0.053232 0.017261 -0.191383 -0.002634 0.069229 0.120054 -0.246368 -0.081415 0.03288 -0.027501 -0.007807 0.019199 0.220149 -0.268194 -0.064196 -0.061396 -0.011917 -0.148986 -0.003776 0.057933 -0.162626 -0.001596 -0.117901 0.103493 0.024001 0.064105 0.073437 -0.211932 -0.025324 0.078885 -0.041096 0.090138 0.033101 -0.005923 -0.021627 0.057516 0.010749
0.0 0.0 0.0 0.0 0.0 0.0 0.0 0.0 0.0 0.0 0.0 0.0 0.0 0.0 0.0 0.0 0.0 0.0 0.0 0.0 0.0 0.0 0.0 0.0 0.0 0.0 0.0 0.0 0.0 0.0 0.0 0.0 0.0 0.0 0.0 0.0 0.0 0.0 0.0 0.0 0.0 0.0 0.0 0.0 0.0 0.0 0.0 0.0 0.0 0.0 0.0 0.0 0.0 0.0 0.0 0.0 0.0 0.0 0.0 0.0 0.0 0.0 0.0 0.0 0.0 0.0 0.0 0.0 0.0 0.0 0.0 0.0 0.0 0.0 0.0 0.0 0.0 0.0 0.0 0.0 0.0 0.0 0.0 0.0 0.0 0.0 0.0 0.0 0.0 0.0 0.0 0.0 0.0 0.0 0.0 0.0 0.0 0.0 0.0 0.0
0.070173 0.039308 0.107688 0.062789 0.15652 0.124082 -0.056432 -0.112537 0.025132 0.140503 0.126967 0.06071 -0.074298 -0.14931 0.052424 0.182899 -0.246843 0.13267 -0.060832 0.014249 -0.124324 -0.021889 0.167993 -0.041896 -0.118065 0.060061 0.024644 0.032088 -0.098378 -0.030464 0.132668 0.111752 -0.096096 -0.07199 -0.297173 -0.090519 -0.107836 -0.01026 -0.033938 0.139789 0.127173 0.008027 -0.077124 0.028844 -0.130697 0.091795 0.126437 -0.176726 -0.119183 0.06901 -0.076019 -0.118921 0.198999 0.162416 0.114462 -0.029789 0.075884 0.002354 0.191814 -0.180285 0.032249 -0.02917 -0.088008 -0.271657 -0.066763 -0.045206 0.183388 -0.151886 -0.047672 0.030697 0.168009 0.04855 -0.083223 0.016797 -0.059652 0.092677 -0.173666 0.089986 0.132784 0.016604 -0.157277 0.026626 9.7E-4 -0.212108 0.094052 0.06787 0.070273 -0.148841 0.03981 0.105973 -0.0732 0.025499 0.047122 -0.076291 -0.093202 -0.17149 0.085148 -0.038776 -0.170445 -0.100314
-2.648351 -0.794316 -2.108887 0.20446 0.883061 0.242784 1.848653 1.149137 -4.975573 0.237654 -1.499665 2.924494 0.344217 -1.640431 0.763777 0.138944 -3.029439 -2.813434 -0.761102 -1.057557 -1.373735 -0.870599 1.234095 0.127805 -1.372618 1.35802 -1.501738 0.80945 0.172993 -0.484995 1.783363 -0.047587 0.483285 -1.526831 2.103549 2.116639 4.583491 -4.022388 -0.843817 0.361243 -0.546655 -2.301259 -2.000973 2.64631 -1.604053 -1.914206 -1.581895 -0.464185 1.757769 1.056301 0.263866 -0.904419 -0.422466 0.007824 -1.651553 0.7499 1.638666 -0.336108 -3.288466 -2.953238 -1.135414 1.165223 -1.047256 -0.821696 -0.135806 0.434207 -2.389307 -3.56953 -0.656773 0.578325 3.337902 0.782195 -1.250815 2.925509 -1.981492 0.121786 0.836257 1.710923 -2.640405 -0.628995 0.247469 0.863847 1.749171 -0.214156 -0.274807 2.192709 -0.892334 -1.614644 -1.225919 -0.042182 2.51632 3.464583 -3.591523 -2.506587 0.990426 1.8843 -2.460629 0.953462 0.359605 2.267383
0.0 0.0 0.0 0.0 0.0 0.0 0.0 0.0 0.0 0.0 0.0 0.0 0.0 0.0 0.0 0.0 0.0 0.0 0.0 0.0 0.0 0.0 0.0 0.0 0.0 0.0 0.0 0.0 0.0 0.0 0.0 0.0 0.0 0.0 0.0 0.0 0.0 0.0 0.0 0.0 0.0 0.0 0.0 0.0 0.0 0.0 0.0 0.0 0.0 0.0 0.0 0.0 0.0 0.0 0.0 0.0 0.0 0.0 0.0 0.0 0.0 0.0 0.0 0.0 0.0 0.0 0.0 0.0 0.0 0.0 0.0 0.0 0.0 0.0 0.0 0.0 0.0 0.0 0.0 0.0 0.0 0.0 0.0 0.0 0.0 0.0 0.0 0.0 0.0 0.0 0.0 0.0 0.0 0.0 0.0 0.0 0.0 0.0 0.0 0.0
-0.035128 -0.004635 0.103617 0.130451 -0.029409 -0.121051 0.043187 0.070834 0.120511 0.04104 -0.084016 0.114321 -0.113274 0.045725 0.14604 0.052035 -0.057068 0.009963 -0.141161 0.06982 0.09722 -0.064314 0.091325 -0.020204 0.052001 -0.033704 -0.133857 -0.053958 0.146923 0.053363 -0.0586 -0.047389 0.095693 -0.041621 -0.137363 0.131729 -0.04096 -0.172088 0.07359 -0.003864 -0.144826 2.5E-5 -0.079387 0.08565 0.108478 0.044995 -0.059245 0.064874 -0.007821 -0.042446 -0.011822 0.052097 -0.084828 0.034789 0.061945 0.125374 -0.055996 0.020738 0.004995 0.044627 0.037096 -0.078419 -0.064436 -0.059685 -0.102795 -0.080579 0.020665 -0.048857 0.164814 -0.026796 -0.095203 0.034331 -0.023374 0.147247 0.024371 -0.001258 -0.157049 0.031101 0.131538 -0.022934 -0.005558 -0.158126 0.061786 -0.089837 -0.186633 0.100753 -0.121289 0.015091 -2.25E-4 0.109191 -0.016197 -0.064237 0.087074 -0.113613 -0.009957 -0.044301 0.060829 -0.077952 -0.02778 0.064282
-0.079125 0.165496 0.110897 -0.05513 -0.065724 -0.016421 -0.129675 -0.099214 0.02807 -0.013086 0.098924 0.006428 0.015865 0.019545 -0.032119 -0.00207 -0.045287 -0.050114 0.055247 0.03426 0.233659 0.072283 -0.012443 -0.03855 0.031879 -0.210001 -0.099797 -0.143277 0.004465 -0.144344 0.108815 0.013896 0.093599 -0.034792 0.068236 0.288351 0.068627 0.01563 0.272114 0.010639 -0.007226 -0.080718 -0.127818 -0.11284 -0.050929 -0.118455 0.067435 0.03741 -0.036989 -0.080063 0.041965 -0.124513 -0.086496 0.030034 0.236339 -0.182109 -0.019218 -0.122632 -0.245188 0.10252 0.060751 0.064868 -0.041636 -0.091022 0.104927 0.017689 0.096578 0.10721 0.097177 0.042127 0.07152 -0.005611 0.094549 0.007239 -0.062212 -0.051875 0.108705 0.011637 -0.124956 -0.015681 -0.121867 -0.007958 0.040644 0.024469 0.141174 0.121792 0.197302 -0.088771 0.159092 -0.241288 -0.069209 -0.034296 0.127442 -0.006425 -0.121656 -0.116899 0.054485 0.121344 0.041694 0.048051
0.03213 -0.145343 -0.211359 -0.061709 -0.009763 -0.08214 -0.057169 -0.008004 -0.341947 0.037822 0.099692 0.00802 0.183251 0.056653 0.21234 0.089839 -0.034994 -0.207421 -0.009885 0.067675 0.195806 0.024439 0.060976 0.210238 0.074307 -0.138699 -0.072834 0.176388 0.228798 -0.090707 -0.207635 0.052888 -0.128908 0.003368 0.049887 0.217928 -0.056113 -0.107728 -0.24592 0.144543 -0.088103 -0.087162 -0.004066 0.003554 -0.04972 0.094902 0.141941 -0.131819 -0.267031 0.052306 0.116989 -0.006467 0.050669 0.057552 0.079548 0.076513 0.145697 -0.086758 0.082547 -0.055058 -0.049726 -0.149702 -0.037179 -0.117418 0.026512 0.036514 0.093566 0.004716 0.143452 0.031958 0.00195 -0.111538 -0.064918 -0.202715 0.185491 -0.047775 -0.01168 -0.151821 0.068508 -0.267862 -0.260506 -0.205152 0.114957 -0.107373 -0.092133 -0.1971 -0.021306 0.179691 -0.037403 0.056542 -0.289734 0.059086 -0.062183 -0.047247 -0.036263 0.050954 -0.092111 -0.032889 -0.143019 -0.029728
-0.032903 -0.094707 0.076559 -0.018985 -0.136801 0.009299 0.051492 0.169396 -0.00643 0.015722 -0.051891 0.06806 0.088169 -0.066951 0.002157 0.014758 -0.073565 0.036616 0.075677 -0.075119 -0.030467 -0.106464 0.076956 0.18308 -0.017504 -0.195878 0.23471 -0.061483 -0.01894 0.131472 0.018647 0.00125 -0.071924 -0.100483 -0.136579 -0.055121 0.058053 -0.086665 0.164759 -0.143305 -0.085894 0.079087 -0.029024 0.15884 0.040331 -0.116784 0.105685 0.041795 -0.029546 -0.097087 -0.003381 -0.002905 -5.26E-4 -0.091166 -0.061719 0.122239 -0.056034 -0.020235 -0.103517 -0.196643 -0.16195 -0.077991 0.037245 -0.061959 -0.191716 0.073676 -0.023243 0.163696 0.146368 -0.07497 0.088503 -0.013371 0.140937 -0.054814 -0.052321 0.094729 -0.021219 0.23572 0.11697 0.044408 0.111967 -0.083012 0.324307 -0.250197 -0.2319 0.009285 -0.120428 0.177437 0.054447 0.021822 -0.129909 0.023223 0.009985 0.028667 -0.075037 -0.070206 0.051219 -0.048871 -0.198652 0.123204
-0.035128 -0.004635 0.103617 0.130451 -0.029409 -0.121051 0.043187 0.070834 0.120511 0.04104 -0.084016 0.114321 -0.113274 0.045725 0.14604 0.052035 -0.057068 0.009963 -0.141161 0.06982 0.09722 -0.064314 0.091325 -0.020204 0.052001 -0.033704 -0.133857 -0.053958 0.146923 0.053363 -0.0586 -0.047389 0.095693 -0.041621 -0.137363 0.131729 -0.04096 -0.172088 0.07359 -0.003864 -0.144826 2.5E-5 -0.079387 0.08565 0.108478 0.044995 -0.059245 0.064874 -0.007821 -0.042446 -0.011822 0.052097 -0.084828 0.034789 0.061945 0.125374 -0.055996 0.020738 0.004995 0.044627 0.037096 -0.078419 -0.064436 -0.059685 -0.102795 -0.080579 0.020665 -0.048857 0.164814 -0.026796 -0.095203 0.034331 -0.023374 0.147247 0.024371 -0.001258 -0.157049 0.031101 0.131538 -0.022934 -0.005558 -0.158126 0.061786 -0.089837 -0.186633 0.100753 -0.121289 0.015091 -2.25E-4 0.109191 -0.016197 -0.064237 0.087074 -0.113613 -0.009957 -0.044301 0.060829 -0.077952 -0.02778 0.064282
-0.265876 -0.18006 0.214272 0.120262 -0.156758 -0.319241 -0.239136 -0.012211 0.126129 0.282074 0.316241 0.143386 0.312931 0.163423 0.12948 -0.092285 0.090656 0.613875 -0.04666 0.625951 0.156055 0.234435 0.208247 -0.111536 0.021505 0.184533 0.06798 -0.264341 0.236968 -0.35627 -0.05296 0.235943 -0.001238 0.433323 -0.091335 0.002941 -0.032503 0.236538 0.139252 0.137803 0.164679 -0.114811 -0.051257 -0.175426 0.1645 -0.125763 0.24844 -0.014572 -0.295356 0.159781 0.109427 -0.450975 -0.509719 0.06398 0.269799 -0.139733 0.148253 -0.042203 0.044113 0.100041 0.141509 -0.166942 0.014574 0.071988 -0.09701 -0.135531 0.049063 -0.168836 0.069872 -0.028012 -0.57869 0.11271 -0.194967 0.113022 -0.127137 -0.514184 0.064735 -0.170574 0.283403 0.354052 0.158758 0.290999 0.350877 -0.079997 -0.138673 0.024646 0.404063 -0.038676 -0.206839 -0.033878 -0.095352 -0.114535 -0.254405 -0.118197 -0.022348 -0.470936 0.439114 -0.226366 -0.259558 0.025677
0.06783 0.025188 0.012581 0.070895 -0.028219 0.17018 -0.137087 0.026484 0.003028 -0.024638 -0.032256 0.002211 -0.127905 0.18044 -0.026265 0.090763 0.160912 -0.003068 0.104959 -0.069775 0.052753 0.212962 0.313584 0.139382 0.032242 0.01995 0.012177 0.027263 -0.018834 0.091756 0.048193 -0.126659 -0.051376 0.103509 -0.088813 -0.050785 0.045706 -0.060446 0.002771 0.049477 0.089626 -0.046643 -0.038612 0.022703 0.007457 -0.184562 0.059677 -0.141035 0.157251 -0.056263 0.015977 -0.28412 0.12998 -0.110595 0.062071 0.034593 -0.031185 -0.009849 -0.259714 -0.110686 0.020794 -0.239441 -0.100728 0.017278 0.065703 -0.032889 -0.155825 -0.102783 -0.026366 0.073756 0.164493 0.018171 -0.020222 -0.091231 0.024143 0.085906 0.153808 -0.026706 0.065671 0.055559 -0.082681 -0.111285 -0.057268 -0.104855 0.004845 -0.019599 -0.114193 -0.103328 -0.095787 0.15787 -0.003409 -0.014436 0.034117 0.030998 -0.036187 0.155561 -0.022576 0.060793 -0.121132 -0.090289
0.0 0.0 0.0 0.0 0.0 0.0 0.0 0.0 0.0 0.0 0.0 0.0 0.0 0.0 0.0 0.0 0.0 0.0 0.0 0.0 0.0 0.0 0.0 0.0 0.0 0.0 0.0 0.0 0.0 0.0 0.0 0.0 0.0 0.0 0.0 0.0 0.0 0.0 0.0 0.0 0.0 0.0 0.0 0.0 0.0 0.0 0.0 0.0 0.0 0.0 0.0 0.0 0.0 0.0 0.0 0.0 0.0 0.0 0.0 0.0 0.0 0.0 0.0 0.0 0.0 0.0 0.0 0.0 0.0 0.0 0.0 0.0 0.0 0.0 0.0 0.0 0.0 0.0 0.0 0.0 0.0 0.0 0.0 0.0 0.0 0.0 0.0 0.0 0.0 0.0 0.0 0.0 0.0 0.0 0.0 0.0 0.0 0.0 0.0 0.0
-0.035128 -0.004635 0.103617 0.130451 -0.029409 -0.121051 0.043187 0.070834 0.120511 0.04104 -0.084016 0.114321 -0.113274 0.045725 0.14604 0.052035 -0.057068 0.009963 -0.141161 0.06982 0.09722 -0.064314 0.091325 -0.020204 0.052001 -0.033704 -0.133857 -0.053958 0.146923 0.053363 -0.0586 -0.047389 0.095693 -0.041621 -0.137363 0.131729 -0.04096 -0.172088 0.07359 -0.003864 -0.144826 2.5E-5 -0.079387 0.08565 0.108478 0.044995 -0.059245 0.064874 -0.007821 -0.042446 -0.011822 0.052097 -0.084828 0.034789 0.061945 0.125374 -0.055996 0.020738 0.004995 0.044627 0.037096 -0.078419 -0.064436 -0.059685 -0.102795 -0.080579 0.020665 -0.048857 0.164814 -0.026796 -0.095203 0.034331 -0.023374 0.147247 0.024371 -0.001258 -0.157049 0.031101 0.131538 -0.022934 -0.005558 -0.158126 0.061786 -0.089837 -0.186633 0.100753 -0.121289 0.015091 -2.25E-4 0.109191 -0.016197 -0.064237 0.087074 -0.113613 -0.009957 -0.044301 0.060829 -0.077952 -0.02778 0.064282
2.757216 1.638645 -1.279477 -1.671434 -1.079818 1.522349 -1.184603 2.520106 0.615693 -1.77711 1.194576 1.797484 -1.187835 -0.139363 0.23309 0.577511 -0.478235 1.569578 -2.625609 -1.255947 -1.373316 0.399194 0.874871 -1.499391 0.28023 1.797424 3.990992 -1.8455 -1.612828 1.887759 1.814421 -2.424986 -0.117821 -1.91596 -3.252688 -0.407041 -1.709301 0.765283 -1.639781 1.580889 -0.606942 -4.374649 3.625058 -1.03981 2.648034 -1.235356 0.349264 -0.062743 -0.94375 -3.711695 -1.776213 -3.552936 4.95063 4.147472 -2.752341 0.972751 -0.111412 1.724169 0.20753 -1.850091 0.1859 1.650825 -2.835514 -1.248647 -1.551092 -3.799143 0.843606 -0.757752 2.949386 3.155641 0.581037 1.522442 -5.647353 2.697333 3.244214 2.435763 -0.867029 -0.100576 -0.500576 3.001563 -0.02042 -0.087139 -0.377589 -0.076639 -1.069993 -0.483469 1.634389 5.633514 3.38664 2.200387 0.316578 2.22301 0.12935 -0.421701 2.63747 2.489725 -1.095721 -0.128477 0.647166 0.893511
-0.121112 0.048105 0.253478 0.037535 -0.085239 -0.012615 -0.100339 -0.048228 -0.1287 -0.00819 -0.130429 -0.076255 0.021157 0.02373 0.04885 0.194538 -0.077097 -0.054278 -0.233046 -0.049042 -0.120087 -0.021496 0.115201 0.035521 -0.115926 -0.088555 -0.15645 0.154017 0.283672 -0.083249 0.050679 0.004757 0.085404 0.042849 -0.070296 0.040138 0.240068 -0.08177 -0.238757 -0.044224 -0.098062 -0.116066 0.041496 0.028907 0.147399 -0.070048 0.01947 -0.03746 -0.047305 -0.055774 0.100188 -0.118248 0.018525 -0.119681 0.017216 0.144044 -0.078041 -0.189261 0.011239 -0.060849 0.104631 -0.084296 -0.326516 -0.180141 0.227033 0.051139 0.035902 -0.23669 0.004666 0.206837 -0.145052 -0.069982 0.073386 0.034108 0.165468 -0.110415 0.046536 -0.061086 0.050986 -0.144496 -0.086859 0.149352 -0.11645 0.075596 -0.210357 0.026733 0.17098 0.064105 -0.054764 -0.064546 0.008758 0.103629 -0.028676 -0.010423 0.086696 0.041064 -0.149816 0.007519 -0.04833 -0.02376
-0.064195 -0.117086 -0.039943 0.169783 -0.049972 -0.131549 0.028375 0.128883 -0.276888 0.043386 -0.031909 0.175556 -0.100628 -0.197332 0.049809 0.087903 0.078242 0.170539 -0.136416 0.104461 0.078807 0.07651 0.171874 0.1068 -0.131497 -0.105907 -0.072115 -0.029739 0.091957 -0.223834 0.106718 0.023237 -0.054262 -0.130882 0.033409 -0.029223 0.119043 -0.091811 -0.121317 0.029602 -0.106251 0.142973 0.020019 0.090746 0.06177 -0.247453 -0.128954 0.162439 -0.04877 0.1303 0.007417 -0.041617 0.007381 -0.059681 0.258224 0.038548 -0.00134 0.040674 -0.101333 -0.037116 0.139645 0.07904 0.067312 -0.243378 -0.012248 -0.024835 -0.073562 -0.077112 -0.135011 -0.026165 -0.013964 -0.027847 -0.173528 0.246164 -0.05887 -0.051838 -0.180275 0.119143 -0.033255 -0.064342 -0.092832 0.070973 0.105014 -0.073728 0.004946 0.186448 0.0736 -0.009804 0.035064 0.123994 -0.006252 0.014451 -0.032777 -0.006731 -0.06405 0.029499 0.090927 -0.08189 0.024738 -0.051373
0.343438 0.229527 -1.694119 1.130874 2.191538 0.535544 -0.532862 0.57552 -1.733407 1.103 0.880196 1.472585 -0.609341 -0.448605 -0.739255 1.891 -1.929479 -2.688603 0.228509 -1.812764 -1.317513 0.71045 1.318161 1.413847 0.033874 0.120829 0.62379 3.001002 0.456124 -1.258147 -1.410466 0.134196 0.980516 0.704821 -1.325765 -1.139943 2.370865 -1.116757 1.313574 -1.332694 -2.56652 -3.707061 0.240385 0.371504 -1.363723 1.276897 -1.082878 -1.891862 0.660764 -0.660147 1.383951 -0.585535 -1.417497 1.769495 -0.706042 1.42796 -0.307258 0.354226 -1.279261 -3.181787 -0.267638 0.150519 -0.15729 -2.594746 -2.232076 1.140833 -1.017786 -2.195866 -1.135092 1.974684 3.359118 -0.013495 0.637055 0.62696 1.486446 -0.239905 1.497714 1.511991 -0.169367 -0.506105 0.573118 -0.656714 -0.410501 0.469186 -0.629195 1.316862 0.098456 -1.150134 0.457543 3.469013 0.964341 -0.239708 -2.871351 -3.81722 1.624714 2.347626 0.527425 0.120594 -0.116767 0.903178
-0.014906 -0.179331 0.062412 -0.018426 0.032403 0.035606 -0.07339 -0.122988 0.035568 -0.159223 -0.176422 -0.056575 0.007353 -0.040541 0.080313 0.043654 0.072392 -0.146002 0.056159 0.115621 -0.101909 -0.089346 0.039362 0.231306 -0.015291 0.106151 0.223521 -0.122485 -0.103941 -0.109222 0.019393 0.085253 -0.250102 0.098939 0.048278 -0.140849 0.060987 -0.082541 0.120677 -0.006603 -0.087437 -5.5E-5 0.108294 0.019486 -0.172323 -0.089582 0.081095 -0.232988 -0.089113 -0.058225 0.09051 0.030755 -0.116446 -0.134446 0.134573 -0.059241 0.02702 0.040282 -0.040912 -0.022651 -0.176871 -0.182688 0.047668 0.010743 0.204452 -0.025916 -0.085715 0.056903 -0.136532 0.073142 -0.034453 -0.120754 0.066523 0.006098 -0.041821 0.05324 -0.021527 -0.017185 0.209629 -0.235879 -0.062667 0.05716 0.029217 -0.02873 -0.16844 -0.04665 -0.096258 0.128581 0.014877 0.057531 -0.106041 -0.001095 -0.07977 -0.26606 -0.100396 0.008798 -0.124225 -0.200795 -0.054341 0.123579
-0.178361 0.023108 0.030516 -0.00779 -0.127135 0.033774 -0.058489 0.108023 -0.081989 0.181792 0.15754 -0.042374 0.022531 0.074904 0.06134 0.212379 0.125077 0.182368 0.042925 0.141779 -0.175989 0.068378 0.056694 0.173894 -0.156246 -0.052193 0.009312 0.006255 0.137546 -0.101633 -0.01366 -4.65E-4 -0.057965 0.105498 0.088793 -0.099231 -0.069107 0.033709 -0.094455 0.070188 0.08289 0.088396 0.081002 -0.251021 0.005646 -0.147359 -0.131828 0.036224 -0.096342 -0.051767 -0.006245 -0.057025 -0.177246 0.121287 0.13194 -0.054862 -1.47E-4 -0.090271 0.044172 -0.094164 0.068466 0.014386 0.044188 0.055794 -0.294903 -0.052435 0.071505 -0.126545 0.164685 -0.079436 -0.032483 0.014316 0.023237 0.036095 -0.003958 -0.126208 -0.175707 0.050816 0.018969 -0.135684 -0.112811 0.192106 0.262908 -0.161332 0.045463 -0.091907 -0.012066 -0.066752 -0.01573 0.008406 -0.178769 -0.032234 0.170579 0.307644 -0.092665 -0.064283 -0.192889 -0.104724 0.032471 -0.060748
0.0361 -0.041609 0.131603 0.160194 -0.062165 -0.12035 -0.019732 0.006327 -0.012516 0.023983 0.146125 -0.121981 -0.063858 -0.129441 -0.098943 0.102309 -0.088961 0.004295 -0.096014 -0.168207 -0.055945 -0.045285 -0.04834 -0.059673 -0.031826 -0.089745 0.095309 -0.088023 -0.012264 -0.05963 0.104168 0.059836 0.018448 0.079215 -0.173284 0.031407 0.145245 -0.041457 0.062542 -0.123895 -0.085023 0.010805 0.068337 -0.012408 -0.090879 -0.046748 -0.101635 0.036582 -0.080812 0.054334 0.21797 -0.02928 0.075223 0.019711 -0.057769 0.148668 -0.118583 0.060051 0.013215 0.001919 -0.201376 -0.165276 0.007101 -0.018542 0.006032 0.035066 -0.143084 0.036431 0.150889 0.048935 -0.066517 0.05333 0.067897 0.051319 0.18683 -0.210924 0.104288 -0.04163 0.041277 0.045368 -0.127638 -0.051086 -0.078414 0.08392 -0.306347 0.13187 -0.081335 0.049766 -0.067945 0.169267 -0.027961 7.35E-4 0.086719 -0.117052 0.066157 0.173111 -0.067411 0.015635 -0.129694 0.011732
-2.648351 -0.794316 -2.108887 0.20446 0.883061 0.242784 1.848653 1.149137 -4.975573 0.237654 -1.499665 2.924494 0.344217 -1.640431 0.763777 0.138944 -3.029439 -2.813434 -0.761102 -1.057557 -1.373735 -0.870599 1.234095 0.127805 -1.372618 1.35802 -1.501738 0.80945 0.172993 -0.484995 1.783363 -0.047587 0.483285 -1.526831 2.103549 2.116639 4.583491 -4.022388 -0.843817 0.361243 -0.546655 -2.301259 -2.000973 2.64631 -1.604053 -1.914206 -1.581895 -0.464185 1.757769 1.056301 0.263866 -0.904419 -0.422466 0.007824 -1.651553 0.7499 1.638666 -0.336108 -3.288466 -2.953238 -1.135414 1.165223 -1.047256 -0.821696 -0.135806 0.434207 -2.389307 -3.56953 -0.656773 0.578325 3.337902 0.782195 -1.250815 2.925509 -1.981492 0.121786 0.836257 1.710923 -2.640405 -0.628995 0.247469 0.863847 1.749171 -0.214156 -0.274807 2.192709 -0.892334 -1.614644 -1.225919 -0.042182 2.51632 3.464583 -3.591523 -2.506587 0.990426 1.8843 -2.460629 0.953462 0.359605 2.267383
-0.043145 0.012281 -0.217595 -0.071285 0.052157 0.181162 -0.119804 -0.09611 -0.144841 0.097308 0.072652 0.001757 -0.108284 -0.079961 -0.104155 0.082348 -0.135383 -0.004891 0.059983 0.02744 -0.217138 0.051376 0.059437 0.057671 -0.050694 -0.102972 -0.058591 -0.023347 -0.116415 -0.040561 0.071366 0.223981 -0.106379 0.082729 0.034726 -0.11401 0.05488 0.042338 0.182901 0.015861 -0.058425 0.138361 0.005666 0.037873 -0.10221 -0.101146 -0.016762 0.009323 -0.073328 -0.052671 -0.070033 0.106216 -0.076261 0.066904 -0.103414 -0.176306 -0.077643 -0.009903 -0.014741 0.009753 -0.035484 0.015834 -0.020714 -0.047203 0.124383 0.042884 -0.053498 -0.008386 0.021344 -0.067561 0.065113 0.056041 0.015761 -0.216312 0.030804 0.115766 0.042202 0.040089 -0.04552 0.037696 -0.035265 -0.061292 0.089332 -0.073238 0.059697 0.059535 -0.110628 -0.009766 -0.06961 -0.097859 0.113874 -0.112083 0.054601 0.019945 -0.02968 0.029021 -0.070732 0.021012 -0.030158 -0.007574
-0.035128 -0.004635 0.103617 0.130451 -0.029409 -0.121051 0.043187 0.070834 0.120511 0.04104 -0.084016 0.114321 -0.113274 0.045725 0.14604 0.052035 -0.057068 0.009963 -0.141161 0.06982 0.09722 -0.064314 0.091325 -0.020204 0.052001 -0.033704 -0.133857 -0.053958 0.146923 0.053363 -0.0586 -0.047389 0.095693 -0.041621 -0.137363 0.131729 -0.04096 -0.172088 0.07359 -0.003864 -0.144826 2.5E-5 -0.079387 0.08565 0.108478 0.044995 -0.059245 0.064874 -0.007821 -0.042446 -0.011822 0.052097 -0.084828 0.034789 0.061945 0.125374 -0.055996 0.020738 0.004995 0.044627 0.037096 -0.078419 -0.064436 -0.059685 -0.102795 -0.080579 0.020665 -0.048857 0.164814 -0.026796 -0.095203 0.034331 -0.023374 0.147247 0.024371 -0.001258 -0.157049 0.031101 0.131538 -0.022934 -0.005558 -0.158126 0.061786 -0.089837 -0.186633 0.100753 -0.121289 0.015091 -2.25E-4 0.109191 -0.016197 -0.064237 0.087074 -0.113613 -0.009957 -0.044301 0.060829 -0.077952 -0.02778 0.064282
0.004577 -0.077139 0.186696 0.192622 -0.122348 0.03174 -0.059208 -0.298223 -0.097779 0.049746 0.056097 0.240002 0.071719 0.068956 -0.03834 0.26472 -0.088507 0.336059 0.024975 0.081693 -0.025406 0.2262 0.20086 0.182967 -0.13429 -0.16792 0.0705 -0.047265 0.121626 -0.07506 -0.205217 -0.175597 -0.136736 0.135177 -0.017349 -0.206152 0.013709 0.103611 -0.102685 0.017773 -0.08926 0.153647 0.011442 -0.040664 -0.047171 -0.118774 -0.005246 0.044751 -0.058672 0.046157 0.080276 -0.048172 -0.03771 0.11095 0.029518 -0.070148 -0.033146 -0.008512 0.039747 -0.12649 0.006828 -0.086185 -0.00663 0.04893 -0.134276 -0.039226 0.118615 -0.071338 0.039573 0.041567 0.005918 0.051412 0.031927 -0.147693 0.180613 -0.124274 -0.281498 -0.032309 -0.057821 0.051871 0.100375 0.153059 0.088905 -0.204906 -0.017154 -0.053508 0.201842 0.070378 0.354441 -0.029274 -0.23367 0.03927 -0.015055 0.260397 -0.070372 -0.104677 0.127208 -0.056051 -0.229486 0.026219
-0.034424 -0.090495 -0.006773 -0.063608 0.025844 -0.050896 -0.030293 -0.009106 0.026906 -0.044443 0.083632 0.211106 -0.056644 -0.003204 0.068913 0.139971 -0.018232 0.07223 -0.008158 0.135321 -0.211678 -0.044636 0.214762 0.104317 0.126688 -0.145755 0.048735 0.080406 -0.019864 0.022406 0.099692 0.117281 -0.121534 0.048982 -0.07444 -0.216494 -0.038637 -0.052552 -0.00625 0.010676 0.060297 0.130151 -0.090589 0.288476 -0.221613 -0.216615 0.061654 -0.118286 -0.087815 0.034581 0.236602 -0.157248 -0.139222 -0.027552 -0.022158 -0.059575 -0.003735 -0.02372 0.188294 -0.13495 -0.07087 0.007757 -0.074851 -0.140176 -0.063901 0.010573 0.05899 0.168781 0.096597 -0.009023 0.052519 -0.089059 0.224771 -0.058932 -0.025187 -0.033411 -0.005812 -0.092213 -0.003395 0.189132 -0.02921 -0.05402 0.261623 -0.065074 -0.04169 0.037347 -0.209589 0.033176 -0.019425 0.056532 0.089111 -0.092857 -0.05726 0.157672 -0.220883 -0.115913 0.054802 -0.003083 0.108346 0.096591
-0.138592 -0.271833 0.118814 -0.02021 -0.266493 0.161467 -0.265617 0.099836 -0.190334 -0.12667 -0.029054 0.221119 -0.033505 0.007077 0.069918 0.063172 -0.14928 0.075313 -0.078727 0.11767 0.040559 -0.062533 0.107711 -0.013662 -0.194602 -0.027123 0.02078 0.017081 0.202102 -0.175173 -0.177316 0.045238 -0.107053 -0.077784 -0.048914 -0.065415 -0.056133 -0.004421 -0.231409 0.146404 0.088599 -0.169967 0.130374 0.144953 0.227703 0.013735 0.014891 0.196793 0.203234 -0.115706 0.040348 -0.277525 -0.258434 -0.039265 0.049736 -0.159048 -0.261463 -0.061389 -0.116186 -0.065953 -0.020217 -0.015362 -0.005119 -0.077227 -0.193008 0.087169 0.104908 0.108972 -0.024335 0.003069 -0.0114 -0.07505 0.146028 0.092169 0.009984 0.009441 -0.089921 -0.076484 0.149382 -0.129716 -0.030101 0.241964 0.221506 0.163706 0.116518 0.157613 -0.029026 0.013605 -0.156119 0.108773 0.016597 -0.048682 -0.181749 0.07382 0.002511 -0.142316 -0.145874 -0.013444 -0.094413 -0.047403
-0.124276 -2.054402 -0.343635 1.81865 -2.16991 1.782205 0.82505 0.982572 -2.067194 -1.156199 0.298204 0.610046 -4.440783 -0.456446 1.442584 1.853605 -0.146562 2.077692 0.195573 -0.915147 0.599326 0.594442 1.900077 -1.11832 -0.711089 1.802311 -0.934321 4.923428 0.778654 -0.69484 -0.912197 0.151877 -0.031909 -0.121674 -3.551828 0.057548 0.447763 -0.623346 2.678004 -1.345078 -3.955954 -4.075293 -1.036935 -1.334541 -0.166985 -0.129224 -1.031956 -2.988586 3.17002 0.328676 1.405671 0.778493 -1.163548 2.145235 -1.779305 1.663516 1.887483 0.848116 -1.423908 -2.594846 -0.535155 -0.166339 0.121853 -0.577388 -1.832659 -2.926389 -3.361567 0.159506 -0.752505 4.326194 2.90284 -1.469079 -0.616227 0.788738 -0.806913 2.13246 1.096647 1.237584 -0.288162 0.179698 1.570163 0.091941 -1.524701 -1.102449 -1.615839 -0.364109 -2.101004 -0.663784 -0.318699 0.051272 0.686067 -1.094801 1.568548 -3.03993 1.893188 -1.377119 -2.094228 3.564402 -2.235058 -0.581437
-0.063002 -0.234083 0.048008 -0.021485 0.118425 -0.069097 -0.089614 0.015575 -0.088887 0.008327 0.207637 0.145627 0.039454 -0.145483 0.089805 0.196481 -0.026693 0.037297 0.038377 -0.023252 -0.091593 0.155254 0.091762 0.050857 -0.144125 -0.075574 0.049194 -0.032084 0.088898 -0.067973 -0.157209 -0.065605 -0.063939 0.138195 -0.158256 -0.04692 0.110173 -0.083955 0.114583 -0.018865 -0.089491 -0.035668 -0.039526 -0.115205 0.064068 0.002368 -0.123687 -0.024408 -0.086747 -0.035676 0.106402 -0.137065 -0.237056 -0.05544 0.044405 -0.024529 -0.050672 -0.058347 0.091211 -0.044203 0.049511 -0.047131 -0.007296 -0.041396 -0.197592 0.039256 0.094077 0.002507 0.045318 -0.030448 -0.002259 0.129894 0.004666 -0.055742 0.17851 -0.088069 -0.097555 -0.041865 -0.069832 -0.013662 0.134387 0.047405 0.029899 -0.225063 -0.109655 -0.168055 0.098443 0.06128 0.226794 0.174187 -0.15428 5.93E-4 -0.052234 -0.024077 0.128116 -0.13384 -0.03913 0.070803 -0.065908 0.038777
