1.519526 1.445578 -1.609499 2.582747 2.460795 3.529971 0.431498 -0.524736 0.238502 0.565084 -2.150664 2.607871 -3.578636 0.22885 1.205379 0.400126 -2.365878 -2.228676 -0.500047 -1.958516 -2.734259 -2.028213 -0.339577 -2.726884 0.003785 -1.85554 -0.90189 1.042933 0.930181 0.561229 0.956561 0.220468 -1.219533 -0.188243 -0.649085 -0.117874 2.101841 -0.317004 1.300647 -1.49228 0.533457 -2.976113 -0.635474 -1.431524 -0.943268 0.543614 -2.072507 -1.004219 4.072807 -1.496014 2.612373 2.458477 -0.120651 0.418572 -2.53177 0.646754 2.04053 2.0667 -2.403623 -3.037353 -1.289071 1.269349 0.447478 0.512568 0.464348 -0.142416 -1.155552 0.32258 -0.986119 3.909852 3.839548 0.865499 -1.089316 -1.400134 0.517204 -3.398406 -0.576028 -0.612853 -0.573641 -1.979957 1.278503 1.159562 0.583915 -0.210028 0.851463 1.075476 2.276915 0.114312 2.2836 1.968815 1.899569 0.001135 -2.286771 -2.666814 -1.408445 1.975128 -0.085175 1.44887 -1.994305 2.796178
-0.677312 0.09511 -1.230047 1.903677 0.652217 -0.185988 -0.562781 0.238829 -3.958763 2.282122 1.771464 0.543791 1.143982 2.830857 1.379161 -0.323231 -1.347092 -1.943635 0.645272 -1.587707 -0.448157 -2.92131 1.274703 1.287047 0.037409 2.814955 -0.158637 3.456063 1.133146 0.160265 4.54E-4 -0.880197 0.118063 -1.511028 -2.810492 1.406956 0.167518 -0.541811 0.76375 -1.007832 -2.493547 -3.526779 1.512087 1.115607 -1.168527 1.157736 -1.452034 2.625853 1.398946 1.512749 -0.083779 1.656599 0.026878 -1.578199 2.124408 -1.763242 -1.803401 -2.123873 -1.224563 0.603936 0.816863 0.935249 0.086696 -0.807959 0.777805 1.119706 -1.877779 -2.828141 3.925899 1.418502 1.266194 -0.143852 -0.569693 1.320483 1.829915 0.077372 -0.422105 1.080421 0.446327 2.867953 -0.036064 0.91063 1.41591 0.344673 -0.412533 -1.771892 -0.304325 2.406796 -1.192684 1.156664 -2.274498 -2.05445 -1.464296 -2.091583 1.635481 -0.79807 -0.950704 0.852834 -0.59517 0.908533
0.067336 0.050346 -0.067045 -0.197089 0.117449 0.016755 -0.034265 0.076267 -0.074312 0.127083 0.025535 0.10173 -0.064116 0.117585 -0.067005 2.9E-4 0.026026 0.178467 0.37647 0.142118 -0.084626 0.042509 0.118255 0.011744 -0.100692 -0.258827 0.035261 0.047407 0.200313 0.057453 -0.073263 0.038505 -0.140998 0.087784 -0.261024 0.088116 -0.113794 -0.036346 0.06012 0.021329 -0.245731 -0.03983 -0.052892 -0.133982 0.0561 -0.058784 0.048184 -0.156117 -0.320223 0.144306 0.065905 -0.075693 -0.028441 0.109526 0.003268 0.118044 -0.073949 -0.069239 -0.108584 -0.063366 -0.0139 -0.151599 -0.082334 -0.236785 0.086857 -0.168092 0.11519 -0.096642 0.167058 -0.020163 0.077572 0.045473 -0.122342 0.135913 0.109802 0.187196 -0.125602 0.05445 -0.067541 0.037408 -0.219734 0.141466 -0.209203 -0.3257 0.209074 0.100352 0.144364 -0.101923 -0.025721 0.222499 0.042689 -0.052745 -5.25E-4 -0.091562 -0.011906 -0.095056 -0.199082 0.089326 0.17442 -0.263638
0.0 0.0 0.0 0.0 0.0 0.0 0.0 0.0 0.0 0.0 0.0 0.0 0.0 0.0 0.0 0.0 0.0 0.0 0.0 0.0 0.0 0.0 0.0 0.0 0.0 0.0 0.0 0.0 0.0 0.0 0.0 0.0 0.0 0.0 0.0 0.0 0.0 0.0 0.0 0.0 0.0 0.0 0.0 0.0 0.0 0.0 0.0 0.0 0.0 0.0 0.0 0.0 0.0 0.0 0.0 0.0 0.0 0.0 0.0 0.0 0.0 0.0 0.0 0.0 0.0 0.0 0.0 0.0 0.0 0.0 0.0 0.0 0.0 0.0 0.0 0.0 0.0 0.0 0.0 0.0 0.0 0.0 0.0 0.0 0.0 0.0 0.0 0.0 0.0 0.0 0.0 0.0 0.0 0.0 0.0 0.0 0.0 0.0 0.0 0.0
0.018809 -0.056255 -0.003233 -0.103144 0.030368 -0.015657 0.103871 -0.015613 0.061763 -0.014888 0.013792 0.094581 -0.08777 -0.107114 0.148158 -0.057553 -0.005293 -0.024582 0.059479 0.001105 -0.153692 0.061426 0.071559 -0.030056 -0.028429 0.095042 -0.011028 -0.018911 0.124573 -0.023809 0.115208 -0.057434 0.019051 0.106982 0.003925 -0.011536 0.030194 0.068838 0.052337 -0.180459 -0.114091 0.075967 0.051985 -0.155532 0.080624 -0.045647 -0.071426 0.035519 -0.207887 0.101014 0.149129 -0.014963 0.057978 0.011141 0.233072 -0.082537 -0.038003 -0.09325 -0.016466 -0.017333 -0.005163 -0.004512 0.007591 -0.046044 -0.114609 -0.061183 -0.065239 -0.045402 -0.066933 -0.174851 0.033997 0.01436 0.035181 0.033644 -0.084292 0.021747 0.063019 -0.009097 0.060552 0.042109 -0.068724 0.133849 -0.053773 -0.072215 -0.103991 -0.153113 -0.016112 0.09342 0.074841 0.007762 -0.184422 -0.06462 0.188844 -0.109518 -0.087767 -0.037503 -0.12706 -0.01669 -0.06459 -0.074934
0.0 0.0 0.0 0.0 0.0 0.0 0.0 0.0 0.0 0.0 0.0 0.0 0.0 0.0 0.0 0.0 0.0 0.0 0.0 0.0 0.0 0.0 0.0 0.0 0.0 0.0 0.0 0.0 0.0 0.0 0.0 0.0 0.0 0.0 0.0 0.0 0.0 0.0 0.0 0.0 0.0 0.0 0.0 0.0 0.0 0.0 0.0 0.0 0.0 0.0 0.0 0.0 0.0 0.0 0.0 0.0 0.0 0.0 0.0 0.0 0.0 0.0 0.0 0.0 0.0 0.0 0.0 0.0 0.0 0.0 0.0 0.0 0.0 0.0 0.0 0.0 0.0 0.0 0.0 0.0 0.0 0.0 0.0 0.0 0.0 0.0 0.0 0.0 0.0 0.0 0.0 0.0 0.0 0.0 0.0 0.0 0.0 0.0 0.0 0.0
-1.230496 -1.784998 -2.701176 0.758382 1.022601 0.134257 -0.985047 1.562518 0.310835 -0.272668 -2.093218 0.576908 2.040189 3.9509 0.774258 -3.034902 0.015918 3.094607 -0.955282 -0.161599 1.346793 -0.427151 2.407651 2.929724 -1.837484 3.452367 0.53745 -0.982041 -0.926567 -0.170227 1.02313 -0.319885 0.057295 -0.759491 -3.167264 0.215212 0.199355 2.17803 -2.880665 -3.126606 1.987815 -0.672563 -1.358064 -0.033815 -0.248648 -1.018406 0.174184 0.367458 2.183337 2.743262 -1.304921 3.026151 -0.376082 1.947597 -1.255474 -1.064786 1.087376 -2.089309 0.970619 0.252176 5.222122 -0.33553 0.351429 0.429232 -0.472527 -0.662081 -0.365277 -1.304831 1.49886 -2.889978 0.333237 -0.579763 2.984992 1.952844 2.048453 -0.167153 0.122451 0.366104 2.33386 4.508055 2.013939 1.926481 3.227053 4.010036 0.598998 -2.80402 1.407855 2.476772 -2.103011 3.048537 -0.582139 -2.261293 -0.407356 -1.748715 -0.955609 0.330801 0.787854 1.235672 2.16538 0.751083
0.721306 -1.664197 -3.555886 -1.983803 -2.048338 -1.566021 -2.13183 3.037637 2.299882 -2.33087 1.158713 0.279679 1.24378 0.744441 1.385945 -1.703033 -0.513885 1.640494 0.81632 1.463214 -2.592332 -0.992956 1.143327 -1.414461 0.172048 1.72794 0.030451 1.696044 0.391391 -0.383004 -0.807983 -1.584379 1.320191 -0.281917 -2.861244 1.901033 -1.036611 -0.689543 -2.388391 -1.231557 1.860236 -0.159928 -1.118769 -2.464249 1.772196 -0.690825 -0.380075 2.894535 1.660446 -0.856489 -2.064541 0.55096 0.408453 2.156677 -0.3144 -1.491781 -3.707349 -0.496634 -0.135807 -1.443198 3.097029 -0.841893 -0.523502 -1.835718 1.767247 -1.343271 1.213721 -0.371599 -0.582907 1.977293 1.99883 3.028152 -3.54777 0.225872 -2.360388 1.491875 -1.692884 1.009607 1.730277 2.369019 -0.815261 -1.089757 1.762396 -1.251928 -0.468277 1.283272 0.733456 1.001606 1.532406 4.213451 -2.50094 1.86118 -0.067248 0.435436 0.223463 1.332645 -2.315333 2.187068 0.302409 0.227734
0.034733 -0.047239 0.146198 0.07865 -0.106409 -0.077535 -0.019588 -0.016829 -0.066054 0.223105 0.111722 0.224105 0.141952 -0.12976 0.046701 0.064269 -0.183748 0.21341 -0.061861 0.127766 0.038256 0.019132 0.17944 -0.002331 -0.097874 0.087884 -0.177085 -0.098658 0.183255 -0.263653 3.6E-5 -0.155376 -0.096569 0.226488 -0.004206 -0.065823 -0.005457 -0.107038 -0.005512 0.128521 -0.133505 0.10497 0.003064 -0.249338 0.022386 0.241815 -0.04324 -0.188904 -0.013142 0.067457 -0.075317 -0.091254 -0.026665 -0.062898 0.168704 -0.046895 0.049197 -0.00872 0.111297 -0.166359 0.151071 -0.209862 -0.087078 0.013302 -0.054052 -0.045986 0.174819 -0.150406 0.177557 -0.055979 -0.010461 0.056778 -0.018561 -0.047682 -0.027504 -0.03564 -0.156768 -0.105095 0.023277 -0.007893 -0.048374 0.100354 0.220367 -0.081184 -0.101513 0.201738 -0.075197 0.094998 0.149967 -0.051212 -0.118531 -0.119864 -0.062471 0.015945 -0.101983 -0.196547 1.96E-4 -0.198289 0.002339 -0.282652
0.0 0.0 0.0 0.0 0.0 0.0 0.0 0.0 0.0 0.0 0.0 0.0 0.0 0.0 0.0 0.0 0.0 0.0 0.0 0.0 0.0 0.0 0.0 0.0 0.0 0.0 0.0 0.0 0.0 0.0 0.0 0.0 0.0 0.0 0.0 0.0 0.0 0.0 0.0 0.0 0.0 0.0 0.0 0.0 0.0 0.0 0.0 0.0 0.0 0.0 0.0 0.0 0.0 0.0 0.0 0.0 0.0 0.0 0.0 0.0 0.0 0.0 0.0 0.0 0.0 0.0 0.0 0.0 0.0 0.0 0.0 0.0 0.0 0.0 0.0 0.0 0.0 0.0 0.0 0.0 0.0 0.0 0.0 0.0 0.0 0.0 0.0 0.0 0.0 0.0 0.0 0.0 0.0 0.0 0.0 0.0 0.0 0.0 0.0 0.0
0.0 0.0 0.0 0.0 0.0 0.0 0.0 0.0 0.0 0.0 0.0 0.0 0.0 0.0 0.0 0.0 0.0 0.0 0.0 0.0 0.0 0.0 0.0 0.0 0.0 0.0 0.0 0.0 0.0 0.0 0.0 0.0 0.0 0.0 0.0 0.0 0.0 0.0 0.0 0.0 0.0 0.0 0.0 0.0 0.0 0.0 0.0 0.0 0.0 0.0 0.0 0.0 0.0 0.0 0.0 0.0 0.0 0.0 0.0 0.0 0.0 0.0 0.0 0.0 0.0 0.0 0.0 0.0 0.0 0.0 0.0 0.0 0.0 0.0 0.0 0.0 0.0 0.0 0.0 0.0 0.0 0.0 0.0 0.0 0.0 0.0 0.0 0.0 0.0 0.0 0.0 0.0 0.0 0.0 0.0 0.0 0.0 0.0 0.0 0.0
-0.165105 -0.102598 0.112322 0.06702 -0.01877 0.114775 0.197876 -0.032791 -0.03067 0.226756 0.123395 -0.115224 0.052586 -0.008154 0.195414 -0.060657 0.207179 0.261253 -0.022458 0.023996 -0.219102 0.109431 0.139416 0.055951 -0.153765 0.033558 0.080759 0.017061 0.157203 -0.167695 -0.037721 0.03355 0.033438 0.179519 -0.200558 -0.132693 -0.112475 -0.095132 -0.009905 -0.00624 -0.02818 0.055591 0.08698 -0.145081 -0.011764 -0.115644 -0.131685 0.015977 -0.156119 -0.080605 0.033555 0.024558 -0.08423 0.156639 0.156688 0.030464 -0.104452 -0.127246 0.045543 0.130967 0.061633 -0.231952 -0.084566 -0.002546 -0.1006 0.059479 0.167381 0.03459 -0.07713 -0.180785 -0.073341 0.035352 -0.12246 -0.083753 -1.12E-4 0.181609 -0.034096 -0.184215 0.012746 0.0758 -0.032523 0.086386 0.055161 0.017425 0.046033 -0.130775 0.060348 0.070976 0.028238 0.105886 -0.250475 0.004502 0.016227 0.254699 0.058138 0.064681 -0.042544 0.025433 0.027166 -0.099578
0.101208 -0.104143 0.057945 0.110495 -0.150147 0.004254 0.027794 -0.065789 -0.044458 -0.053563 0.070267 -0.01962 -0.03037 -0.096778 0.150147 0.08377 0.006326 0.15083 0.05544 0.111184 -0.19057 0.178404 0.190793 0.163413 -0.131819 -0.122298 0.140731 -0.153841 0.100746 -0.261453 -0.033716 -0.067229 -0.017413 0.043762 -0.213659 -0.141695 -0.064706 -0.033031 -0.140058 -0.120875 -0.051611 -0.025612 -0.032288 0.074749 0.029162 -3.67E-4 -0.230106 0.018027 -0.066307 0.181443 0.008741 -0.166059 0.028319 -0.140915 0.133059 -0.018914 0.231799 -0.032489 -0.012754 -0.015577 0.181752 -0.146165 0.051874 -0.357642 -0.241702 -0.072287 0.202858 -0.031413 0.046958 -0.031005 -0.09473 -0.11547 -0.049953 -0.06097 0.023288 -0.026422 -0.037737 -0.026589 0.033373 0.019171 -0.056578 0.161369 0.227 -0.056493 -0.079231 0.070859 -0.069955 -0.070367 0.095697 0.334597 -0.112843 -0.085604 -0.023417 -0.031303 0.109771 -0.241238 0.104443 -0.203216 -0.002807 0.030404
-0.066387 -0.191382 -0.040072 -0.031317 0.001748 -0.211124 -0.12955 -0.056877 -0.327823 0.029477 0.199683 -0.011607 -0.122913 0.104793 0.127961 0.111823 0.055767 0.159314 -0.082177 -0.106509 -0.209616 0.010259 0.357658 0.06651 -0.071454 -0.13973 -0.008839 0.04759 -0.001865 -0.161367 0.082546 -0.123489 -0.254788 0.021493 -0.140414 0.072879 0.154504 0.018791 -0.13723 0.099407 0.185516 -0.075312 -0.007493 -0.144113 -0.082648 -0.023712 -0.005139 0.0709 -0.188005 0.002784 -0.002256 -0.268679 0.022485 0.187181 -0.099394 -0.110192 0.050668 -0.07428 0.111231 0.149441 -0.007016 -0.027802 0.079691 -0.011606 0.033208 0.042172 0.141051 0.034506 0.275852 0.110048 0.051031 0.0526 -0.014979 0.02789 0.046975 -0.004397 -0.134678 0.097203 0.069253 -0.050754 -0.025463 -0.053347 0.00135 -0.096409 -0.075557 -0.114367 0.160637 0.127747 0.127116 0.110197 -0.072292 0.00719 -0.085347 0.024408 -0.076053 -0.058608 0.051038 -0.252751 -0.03446 -0.142006
-6.76E-4 -0.012543 0.055617 -0.22433 0.154051 0.043938 -0.058132 0.04435 -0.218151 0.190242 -0.163109 -0.065925 -0.082914 -0.040105 0.041627 0.17697 -0.163328 -0.065631 0.092575 -0.178484 -0.448114 -0.258493 -0.242136 0.025665 -0.224333 -0.023665 0.267683 0.251542 0.122316 -0.23345 -0.138153 -0.036312 -0.026122 -0.053887 -0.150154 -0.05173 -0.023852 0.042927 0.020255 -0.226894 -0.00798 0.201528 -0.157258 0.103205 -0.409561 0.052703 0.053756 0.540796 -0.051521 -0.185163 -0.051754 0.090069 0.098987 0.042411 0.166546 -0.177187 -0.208661 -0.217364 -0.167284 -0.288947 0.331057 -0.164085 0.167 -0.162968 -0.094315 0.313301 -0.121762 -0.249787 -0.117687 -0.212993 -0.239165 0.069935 0.014672 0.023547 0.33077 -0.024501 0.037555 0.095512 -0.060861 -0.190005 0.399849 0.342016 0.181721 0.147619 0.287467 -0.074183 -0.052064 0.15133 0.093932 0.075659 -0.095808 0.112012 -0.144018 -0.074669 -0.076773 0.037865 -0.084091 -0.111081 -0.011053 -0.069805
4.16671 -4.710187 -0.38714 -1.050427 2.019744 -1.077429 -1.130881 2.736144 5.159245 -2.071071 -7.675488 -4.375703 0.689348 6.696964 0.183143 -1.149585 1.590563 -1.669467 -1.98923 -1.653525 3.037481 -0.115282 1.903519 -0.603187 -2.348942 -1.843158 0.949445 2.508976 3.485157 0.811285 3.001241 -1.658033 -1.864741 -4.136213 -0.376205 -1.306517 3.743685 2.54356 -4.147024 -2.02847 1.818004 0.817006 -3.4572 1.522452 -0.436018 0.163943 2.054321 4.816357 -2.041713 -4.690818 -0.869307 1.512188 -3.879441 3.216369 0.120111 -4.675975 2.499202 -3.79822 -1.763442 1.763622 1.797888 1.460106 -1.146463 -0.560309 5.60393 2.990513 -2.085951 -1.125529 -0.735223 -3.668124 -0.633196 2.852414 -0.708171 5.187646 0.797478 0.567591 4.072711 0.977163 -2.927251 -3.764517 4.203474 -0.204883 0.665053 2.760128 -1.882502 -1.445495 2.392971 1.682828 0.26579 -4.767659 -3.101837 4.398678 0.838704 3.819134 -0.961421 -4.14442 -2.927779 0.412766 -1.275905 -1.429956
-0.090134 0.158683 0.22642 0.137057 -0.253758 0.180088 -0.247246 -0.063174 -0.183177 0.137465 -0.008365 0.106113 0.048324 0.337359 -0.207084 0.275963 0.105168 0.16439 -0.202199 -0.12233 -0.297728 0.310968 0.197378 -0.075884 -0.03575 0.018949 0.003042 0.163161 0.215978 -0.262966 -0.237182 0.038746 -0.23537 -0.035217 -0.178907 -0.37999 -0.111609 -0.24657 0.082363 -0.178865 -0.084722 0.092181 0.0327 -0.045066 0.175214 -0.195805 0.112416 -0.118638 -0.1414 0.161134 -0.134135 -0.100018 0.123464 -0.013723 0.082109 -0.051029 -0.003561 -0.065346 0.05669 -0.014911 -0.182339 0.195139 -0.089416 -0.077568 -0.100539 -0.138063 -0.039498 0.092684 0.032645 -0.16393 -0.073063 0.071336 0.069254 -0.052601 -0.064453 -0.094493 -0.040368 0.079798 -0.009502 -0.048006 -0.065501 0.208332 0.082441 -0.11298 -0.049744 0.149461 0.129642 -0.03832 0.236738 0.248823 -0.111943 0.0172 -0.062128 -0.002935 0.179016 -0.11419 -0.204463 -0.102175 0.148669 0.012717
0.037774 -0.276861 0.11359 0.030404 0.165489 0.039034 -0.027355 -0.25539 0.088963 -0.175512 -0.208856 -0.141791 -0.019225 -0.054882 0.061309 -0.049439 0.127068 -0.10354 -0.015722 0.101087 0.100001 -0.106058 0.123384 -0.093046 -0.124758 0.030994 -0.081696 0.015233 -0.112655 0.133431 -0.097672 0.253173 0.076775 -0.081261 0.306567 0.132026 -0.043329 0.141923 -0.133675 0.320163 -0.165509 -0.080791 0.072495 0.09207 0.065218 -0.081439 -0.178356 0.092006 0.066237 -0.033477 0.225748 -0.122231 -0.16105 0.140558 0.040436 -0.056752 -0.123368 0.044671 -0.022418 0.357119 -0.12322 -0.100629 -0.1666 0.129334 0.01352 0.115823 0.0616 -0.030779 -0.013148 0.137584 -0.292171 -0.079903 0.075979 0.017068 -0.067083 -0.060319 0.012744 0.074662 -0.051103 0.097786 0.214324 -0.028169 0.126432 -0.01288 -0.06336 -0.021678 -0.032648 -0.013247 -0.03292 -0.315721 -0.076877 -0.134111 0.089818 0.026961 -0.056906 0.102643 -0.043494 0.136294 -0.032065 -0.232788
-5.07E-4 -0.138801 0.044895 -0.053891 0.066303 0.103171 0.002664 -0.272951 0.029724 0.079659 -0.216564 0.076274 0.110079 -0.024406 0.175764 0.117099 -0.204212 0.023393 0.096763 -0.026515 -0.129473 0.036843 0.083988 0.066748 -0.054864 -0.149023 0.024482 -0.060471 0.189929 -0.042607 0.043517 0.044683 0.00655 0.150132 -0.165682 -0.065337 0.168298 -0.083151 0.08009 -0.061111 -0.251349 0.081629 -0.026211 0.008436 -0.108863 0.014026 -0.047829 -0.044999 -0.182201 0.070984 -0.124108 -0.029156 -0.123481 0.071903 0.13274 -0.104684 -0.016059 0.170196 -0.23512 -0.015995 0.057575 0.016883 -0.065158 -0.046399 0.264743 -0.096449 0.145792 -0.134248 0.259976 -0.182648 -0.051455 -0.114675 -0.045974 0.23144 -0.049584 -0.08518 -0.124234 0.14041 -0.173816 -0.081237 -0.002222 -0.012393 0.008979 -0.021606 -0.15571 0.01556 0.15604 -0.153005 0.071398 -0.104535 -0.053011 0.101181 -0.060532 -0.030308 0.28098 -0.080545 0.053687 -0.127365 0.089008 0.014958
0.174546 -2.091618 -2.229957 2.116532 1.124194 0.654434 -1.199268 -0.806569 0.039746 -0.658842 -0.642939 0.295541 0.232641 1.819335 2.025957 -1.562273 -2.323995 -2.918465 -0.409799 0.22338 -2.74036 -2.252618 -0.307057 -1.851584 -0.855013 0.427652 1.303244 -0.093205 1.270449 1.068455 0.42455 0.485857 -0.114469 -0.781314 1.083732 1.20589 0.655832 -0.061626 1.709428 0.933519 -1.308513 -0.966002 0.020568 -0.187863 -0.413323 -1.57252 -1.972074 3.497262 -0.942445 -0.219124 2.091992 1.193462 1.028252 0.488955 -1.604832 0.460819 0.916603 0.607999 -1.715487 -1.038746 0.047609 -0.536787 1.020723 -0.382137 2.521372 -1.047191 1.491055 -1.62445 -0.554106 0.691197 2.404207 0.328184 -0.882193 1.250365 -1.727749 -1.272435 -1.180857 -0.821222 -0.404291 0.618077 1.035154 0.405418 -3.187345 2.076513 2.322226 0.489301 2.214018 1.769888 -0.670327 -0.820002 2.033189 0.393987 -0.777997 1.320942 0.774546 1.538761 0.323749 -0.904698 0.655913 1.687343
-0.156205 -0.035454 -0.103585 0.028341 -0.024473 0.065322 0.010035 -0.124244 -0.035431 0.036369 0.018314 0.079724 0.014703 -0.032385 0.01033 0.199298 0.006544 0.168992 0.048346 0.057449 0.010282 0.118885 0.097085 0.033914 -0.109964 -0.037897 -0.237696 -0.054612 -0.03595 -0.058103 0.035739 0.051606 0.030091 0.07953 -0.097459 0.041162 -0.069145 0.080415 -0.040936 -0.020471 -0.039187 0.083649 0.103926 0.013485 -0.026863 -0.034114 -0.055979 9.82E-4 -0.008431 0.041708 -0.072255 0.05828 -0.033778 -0.016625 0.026567 -0.010246 -0.101351 -0.145201 -0.023781 0.094557 0.107854 -0.16719 0.103277 -0.012221 0.136861 0.071026 0.113186 0.022855 0.061767 0.160342 -0.105927 0.057565 0.026991 0.198892 -0.013697 -0.281916 -0.111229 0.084204 -0.004608 0.05297 0.041137 0.001646 0.0892 0.038246 0.01202 0.056719 0.071712 0.032244 0.161553 0.007944 -0.10857 -0.047368 0.125184 -0.064963 0.035425 -0.05571 0.130622 0.003702 -0.067735 0.004397
0.070392 0.036604 -0.118559 -0.108438 -0.230239 0.924756 -0.218464 0.104455 -0.396732 0.726538 -0.177342 0.691356 0.566844 0.143783 -0.662645 0.689737 0.279451 0.413617 -0.070215 0.58457 -0.366563 -0.01156 0.014364 -0.320303 0.516539 0.258583 -0.591767 0.30943 0.119794 -0.045508 0.261671 -0.366124 -0.619954 0.049638 -0.558867 -0.057228 0.557829 -0.264363 0.225766 0.070564 -0.183488 -0.066999 -0.160371 0.025231 0.240214 0.299774 -0.317505 -0.194058 -0.294307 0.191061 -0.27216 -0.204801 0.257124 0.003105 0.204307 -0.448997 1.426806 -0.443804 1.035705 -0.290812 -0.084561 0.250761 -0.366124 -0.294492 0.050428 -0.384057 0.569126 -0.12755 0.038098 0.228803 0.429342 -0.08129 0.145277 0.199203 0.323109 -0.005087 0.068977 0.032459 -0.552872 -0.053631 -0.241456 0.041989 -0.141294 0.257069 0.047361 -0.166507 0.239168 -0.185766 0.155768 -0.44518 0.232447 0.117088 -0.172023 0.078195 0.041556 -0.177604 0.221591 -0.11074 -0.014256 0.272338
0.352905 0.550922 -1.128945 -0.511125 0.774489 1.405335 -0.371647 0.106012 -0.779785 -0.640302 -0.68578 1.570717 -0.712288 -0.706705 -0.789609 -0.045278 -1.599722 -2.840112 -0.089543 -1.158838 -1.862605 -0.62748 -0.063542 -0.468696 0.750564 0.033551 -0.772222 -0.188991 -0.163115 0.455978 0.038455 -0.779588 0.172303 -1.114448 -0.548246 -0.008155 1.66721 -0.744821 -0.15746 -2.668482 -0.304702 -0.905716 0.479063 0.151803 -0.94063 -0.044338 -0.906122 -0.456182 0.281891 0.268287 0.47007 0.628019 0.328428 1.471286 -2.345457 0.072073 -0.345477 -0.998199 -1.496897 -0.053061 0.351206 -0.934426 0.295591 0.07336 0.24092 0.486976 0.390085 -0.621556 0.375246 -0.02625 1.957847 1.014101 0.004675 0.08874 -0.900479 -0.462149 0.922254 1.355385 -1.048724 0.105897 1.254466 0.410718 0.321258 1.066395 -0.171761 -0.128774 0.315556 0.697301 -0.180925 0.555334 1.005586 -0.891677 -1.232923 -1.994189 -0.567812 0.204184 -0.947385 -0.051526 -0.987029 0.725141
4.09546 -2.282237 1.560777 -1.501211 -1.35074 -0.415266 -1.242711 -2.590696 -1.33992 0.210722 0.638315 0.677155 1.838753 -0.562853 -0.770779 0.286342 1.055852 -0.41167 0.23418 2.00118 -0.307869 -0.120556 -0.187204 -1.542111 3.456205 3.55073 -0.112753 -0.516519 0.939152 0.67428 -1.352463 -1.59465 0.64529 0.100873 -0.693588 -1.451396 1.009306 -0.346548 -0.949409 0.989568 -1.136258 0.954176 -0.262594 -0.149053 1.905464 -1.106072 -0.50272 -0.626569 -0.642468 -1.063999 -0.197208 -1.702689 0.569973 1.08782 -1.534137 1.357036 1.287423 -1.530617 -0.301645 -0.446224 1.298418 -0.757032 1.230007 -0.905219 -0.842275 0.921656 2.269439 -1.273352 -1.170364 1.113564 1.836859 -1.908085 0.737833 -0.360646 -3.471805 -0.993132 2.174768 -1.625098 1.590848 0.265645 -0.540379 -0.488286 -0.782854 -0.630813 0.573406 0.78568 2.476748 -1.622003 -1.242167 -1.823344 1.98524 1.285475 -2.045451 2.533998 -2.743841 0.087987 -0.28101 3.293372 0.420925 -1.513104
-0.097265 -0.270364 0.094029 0.173032 -0.134129 0.028961 -0.208588 0.116416 -0.12811 0.032664 0.006319 0.131995 -0.103105 0.14927 0.040582 0.17515 0.202278 0.121389 0.043881 0.249107 -0.096651 0.207439 0.280258 -0.103072 -0.100415 0.027185 -0.113487 0.206504 0.008449 -0.157041 -0.111885 -0.378805 -0.021452 -0.141889 -0.261892 -0.234954 -0.027611 0.10332 -0.147536 0.135886 -0.191024 0.097447 -0.128763 -0.319073 0.164041 0.197204 -0.032267 0.018235 -0.046352 -0.13479 -0.186454 -0.144545 0.193183 -0.172031 0.020479 0.045198 0.070867 -0.234144 0.055526 -0.122383 0.027889 -0.052701 -0.111979 0.062128 0.082889 0.030329 0.109995 -0.160834 -0.054382 0.102775 -0.128643 -0.077138 -0.048145 -0.027007 0.073404 -0.090951 0.014445 0.092936 0.048145 0.193952 0.052056 0.09556 0.021654 -0.179807 0.070654 0.024289 0.179686 -0.121467 0.08293 0.081726 -0.032177 0.149321 -0.093406 0.07785 0.270465 0.045942 -0.096495 0.064625 -0.192681 -0.179708
0.016761 -0.116603 -0.128803 -0.085956 -0.331505 -0.005635 -0.24598 -0.189948 -0.156206 -0.002443 0.075572 -0.008364 -0.139675 0.126897 -0.004456 0.057895 -0.088723 0.174266 0.085188 -0.085007 -0.075556 0.123927 0.088185 0.026955 -0.130153 0.076374 0.0957 -0.25201 0.003484 -0.238015 -0.036255 0.039226 -0.015772 -0.079196 -0.335473 0.006978 0.172757 -0.121315 -0.06076 -0.098614 -0.100969 0.179943 -0.134157 -0.075677 0.053369 -0.162456 0.128946 0.087226 -0.11526 0.126585 0.04661 -0.14619 0.024327 0.220343 0.068667 -0.090185 0.082926 -0.065364 0.019387 0.003375 0.059688 0.017492 -0.074307 -0.126323 -0.142204 0.029827 -0.080282 -0.049183 0.133455 0.03925 0.081019 0.02228 -0.085705 0.010979 0.090813 -0.218384 -0.081749 0.05013 0.043586 0.112995 0.092207 0.051805 0.232937 0.013064 -0.138894 0.218488 0.139092 0.161748 0.127503 -0.165375 -0.172091 -0.015813 -0.013581 0.0414 -0.044944 -0.06549 -0.065871 -0.026492 -0.022413 -0.13116
0.721306 -1.664197 -3.555886 -1.983803 -2.048338 -1.566021 -2.13183 3.037637 2.299882 -2.33087 1.158713 0.279679 1.24378 0.744441 1.385945 -1.703033 -0.513885 1.640494 0.81632 1.463214 -2.592332 -0.992956 1.143327 -1.414461 0.172048 1.72794 0.030451 1.696044 0.391391 -0.383004 -0.807983 -1.584379 1.320191 -0.281917 -2.861244 1.901033 -1.036611 -0.689543 -2.388391 -1.231557 1.860236 -0.159928 -1.118769 -2.464249 1.772196 -0.690825 -0.380075 2.894535 1.660446 -0.856489 -2.064541 0.55096 0.408453 2.156677 -0.3144 -1.491781 -3.707349 -0.496634 -0.135807 -1.443198 3.097029 -0.841893 -0.523502 -1.835718 1.767247 -1.343271 1.213721 -0.371599 -0.582907 1.977293 1.99883 3.028152 -3.54777 0.225872 -2.360388 1.491875 -1.692884 1.009607 1.730277 2.369019 -0.815261 -1.089757 1.762396 -1.251928 -0.468277 1.283272 0.733456 1.001606 1.532406 4.213451 -2.50094 1.86118 -0.067248 0.435436 0.223463 1.332645 -2.315333 2.187068 0.302409 0.227734
0.034733 -0.047239 0.146198 0.07865 -0.106409 -0.077535 -0.019588 -0.016829 -0.066054 0.223105 0.111722 0.224105 0.141952 -0.12976 0.046701 0.064269 -0.183748 0.21341 -0.061861 0.127766 0.038256 0.019132 0.17944 -0.002331 -0.097874 0.087884 -0.177085 -0.098658 0.183255 -0.263653 3.6E-5 -0.155376 -0.096569 0.226488 -0.004206 -0.065823 -0.005457 -0.107038 -0.005512 0.128521 -0.133505 0.10497 0.003064 -0.249338 0.022386 0.241815 -0.04324 -0.188904 -0.013142 0.067457 -0.075317 -0.091254 -0.026665 -0.062898 0.168704 -0.046895 0.049197 -0.00872 0.111297 -0.166359 0.151071 -0.209862 -0.087078 0.013302 -0.054052 -0.045986 0.174819 -0.150406 0.177557 -0.055979 -0.010461 0.056778 -0.018561 -0.047682 -0.027504 -0.03564 -0.156768 -0.105095 0.023277 -0.007893 -0.048374 0.100354 0.220367 -0.081184 -0.101513 0.201738 -0.075197 0.094998 0.149967 -0.051212 -0.118531 -0.119864 -0.062471 0.015945 -0.101983 -0.196547 1.96E-4 -0.198289 0.002339 -0.282652
0.081136 -0.136923 0.070417 0.20508 -0.022939 -0.059967 -0.312815 -0.141054 -0.096877 0.178968 0.164506 -0.047259 -0.054307 -0.071616 0.17262 0.304261 -0.003812 0.057163 -0.023592 -0.083519 -0.214665 -0.03219 0.075441 0.021646 -0.180604 -0.089558 -0.084739 -0.031649 0.243774 -0.279346 0.130584 -0.068305 -0.30723 -0.085302 -0.194516 1.73E-4 0.028814 -0.04522 0.032331 0.064634 -0.300218 0.035444 0.107679 0.034083 0.044666 -0.096232 -0.001438 0.037183 -0.073123 0.136581 -0.070902 -0.01961 -0.196579 0.198403 0.11681 -0.296456 -0.042441 0.140602 0.167704 -0.092967 0.006746 -0.182827 0.106805 0.029922 -0.149056 0.034431 0.234385 0.020857 0.237826 -0.164406 -0.260021 -0.077359 -0.057429 -0.073959 0.049306 -0.206054 -0.191122 -0.090317 0.010752 0.033561 -0.031283 -0.039874 0.305987 -0.039613 0.090988 0.243328 0.058233 0.137311 0.093671 -0.184745 -0.109444 0.175813 -0.031512 0.210213 -0.045824 -0.140244 0.028579 -0.120376 -0.00594 0.099595
0.0 0.0 0.0 0.0 0.0 0.0 0.0 0.0 0.0 0.0 0.0 0.0 0.0 0.0 0.0 0.0 0.0 0.0 0.0 0.0 0.0 0.0 0.0 0.0 0.0 0.0 0.0 0.0 0.0 0.0 0.0 0.0 0.0 0.0 0.0 0.0 0.0 0.0 0.0 0.0 0.0 0.0 0.0 0.0 0.0 0.0 0.0 0.0 0.0 0.0 0.0 0.0 0.0 0.0 0.0 0.0 0.0 0.0 0.0 0.0 0.0 0.0 0.0 0.0 0.0 0.0 0.0 0.0 0.0 0.0 0.0 0.0 0.0 0.0 0.0 0.0 0.0 0.0 0.0 0.0 0.0 0.0 0.0 0.0 0.0 0.0 0.0 0.0 0.0 0.0 0.0 0.0 0.0 0.0 0.0 0.0 0.0 0.0 0.0 0.0
-1.388385 -2.474954 0.876301 -0.340905 -1.136558 0.368688 0.856935 0.620943 0.593566 -0.72452 1.883359 -0.498737 1.143604 0.868706 1.046386 -1.694983 2.013737 1.620589 -1.29633 1.400697 -1.80089 -0.970044 2.482576 0.301474 -0.151043 2.586281 0.4763 2.450729 0.343544 1.338127 -1.254478 0.122534 1.115821 -0.837275 -2.453816 0.759604 -0.480668 -0.837789 -1.251085 -2.025216 0.404626 -0.579344 -0.445166 -2.850474 1.62383 0.254019 -0.225159 0.502471 -0.099085 0.527546 -1.713745 -0.052878 0.088839 2.364425 0.022823 0.155232 -0.117856 -0.623673 -1.362625 1.062664 0.744869 -1.463479 -1.03343 -0.458924 0.34224 -1.125928 2.055803 -0.469581 1.02684 1.359511 -0.431454 2.189748 -1.874071 -0.669457 -0.616318 1.992885 -0.425401 0.436808 0.945209 0.136482 -0.805328 -0.09276 1.492585 -0.393628 0.396785 -0.701848 1.655982 0.951976 0.370822 2.363045 -1.568527 0.616731 -0.045299 -0.151158 0.584181 -1.177308 -0.714632 1.360729 0.762115 1.645721
-0.402982 -0.024018 0.161661 0.030479 -0.071012 -0.065498 -0.181334 0.202462 -0.027725 0.041487 -0.051619 0.091008 0.011325 -0.10986 -0.089225 0.102537 -0.006338 0.220061 0.094134 0.023228 -0.068928 0.16466 -0.039692 0.060757 -0.014455 -0.083667 0.036403 -0.021209 0.132477 0.112384 -0.301997 0.052408 -0.105928 -0.078715 0.049939 -0.139044 0.018359 0.206528 -0.11461 0.160429 -0.025551 0.274984 0.066777 0.104864 0.012178 -0.06516 -0.023166 0.078374 -0.130232 0.251029 -0.055209 -0.094977 -0.116954 0.061556 0.08928 -0.153001 0.129174 -0.090322 0.183529 -0.118432 0.330698 -0.069865 0.047298 -0.226113 -0.1763 -0.091601 0.192512 0.171635 0.023284 -0.133111 -0.155663 -0.015107 -0.043741 -0.007188 0.216577 -0.094968 -0.044871 0.082854 0.133052 -0.095855 0.054183 0.231448 0.128149 0.077779 0.052489 0.054522 -0.045028 -0.155594 -0.011984 0.066122 -0.189781 0.008045 0.069557 0.005337 0.043937 -0.242777 0.159944 -0.220084 -0.041777 -0.016676
-0.171789 -0.006273 0.059886 0.169022 0.044186 0.063082 -0.05534 -0.027505 -0.118388 0.058692 0.04 0.120164 0.148743 -0.07685 0.167751 0.125568 -0.192318 0.120941 0.004502 -0.0242 -0.17934 0.031238 0.072752 0.083896 -0.166098 -0.044515 -0.05836 -0.041809 0.189354 -0.015675 0.014642 -0.15871 -0.027474 0.140623 -0.100423 0.045003 0.043079 -0.011433 -0.053601 0.03363 -0.014421 -0.062689 -0.027584 0.122281 -0.080956 -0.080338 -0.032523 -0.023953 -0.212738 0.017416 0.1197 -0.050757 -0.03697 0.053921 -0.067185 -0.224643 0.037885 0.145902 0.11429 -0.032933 0.009361 -0.037006 0.167389 -0.039447 -0.085959 0.077689 0.11408 -0.072277 0.050279 0.030863 0.094497 -0.00462 0.136818 0.111563 -0.026028 0.043062 -0.281029 -0.141188 -0.019887 -0.110642 0.124728 -0.094026 0.165531 -0.085625 0.001865 -0.0761 0.217293 0.0629 0.296806 -0.129193 -0.045274 -1.47E-4 0.016644 0.208614 -0.059732 -0.103978 0.033846 0.063251 -0.125777 0.145024
-0.099722 -0.023082 -0.11422 0.091686 -0.101924 0.137682 -0.205791 -0.059283 -0.059788 -0.058166 0.106459 0.16667 -0.1474 0.027425 0.021904 0.043899 0.137594 0.135409 -0.068695 0.097967 -0.026356 0.19522 0.065458 0.118906 -0.184275 -0.111731 0.086895 -0.123535 0.167337 -0.009213 -0.142953 0.033874 -3.64E-4 0.045871 -0.049938 -0.094674 -0.079372 0.009163 -0.093107 -0.035496 0.00389 0.050832 0.057844 0.022437 0.067274 -0.192658 0.033549 8.7E-4 -0.167895 0.085358 0.069398 -0.035334 -0.080102 0.13744 0.065855 -0.091938 0.025365 -0.172289 -0.050366 -0.021358 0.116249 0.104679 0.12937 -0.044193 -0.091073 -0.020512 0.106726 -0.048081 0.081474 0.019534 -0.065928 0.154195 -0.153331 -0.021198 0.012078 0.016339 -0.135176 0.009201 0.173593 0.196362 0.084843 0.026898 0.196442 -0.1388 -0.015119 -0.052684 -0.041727 -0.048943 -0.028704 0.038877 -0.157691 0.019387 0.066014 0.194867 -0.003675 -0.060943 0.080577 -0.079562 0.050684 0.052984
0.061414 -0.1174 0.216262 -0.102033 -0.124949 -0.223868 -0.130089 -0.085138 -0.090502 -0.062252 0.073287 -0.03763 0.19574 0.063469 -0.20403 0.037547 -0.073197 0.003936 0.147267 -0.062384 -0.160048 -0.026869 0.12319 0.080784 0.034104 -0.020598 -0.232452 -0.117323 -0.149269 -0.008881 -0.125004 0.022842 -0.166386 0.088427 -0.021082 -0.101955 -0.00147 -0.176588 0.072889 0.025255 -0.02927 -0.001522 0.001891 0.131061 -0.328314 0.104773 -0.25467 0.085542 -0.333821 0.12322 0.193378 -0.008512 -0.144536 -0.152227 -0.138036 0.101319 -0.051497 0.1805 -0.159838 -0.20122 0.048472 0.043935 -0.100866 0.036083 -0.017251 -0.039259 0.038082 -0.035226 -0.164333 -0.16802 -0.019375 -0.013168 -0.074316 0.071208 0.121848 0.127924 -0.243998 -0.087778 -0.025009 -0.073452 -0.007865 0.351981 0.010397 0.002165 -0.051433 -0.21347 0.129877 -0.129751 0.02702 -0.014982 -0.085066 0.041035 -0.072327 -0.004366 0.051917 0.089556 0.080577 -0.059995 -0.017452 -0.143643
-0.011896 -0.111337 -0.023805 0.028469 -0.059433 -0.051826 -0.222085 -0.018786 -0.057654 0.05464 0.091946 0.002413 -0.181016 0.023059 0.159326 -0.041087 0.106392 -0.075265 0.019885 0.045854 -0.116876 -0.193863 -0.003716 0.150062 -0.022418 -0.112381 -0.066767 0.147207 0.043731 -0.032508 -0.097278 0.098721 0.057338 -0.152347 0.102921 -0.217184 -0.063688 -0.197047 0.109893 -0.040076 -0.189259 -0.00596 0.037343 -0.09057 0.042207 0.072431 -0.212749 0.001053 -0.009144 -0.119793 0.001093 -0.064475 0.115026 0.104483 0.050334 0.008683 0.089321 -0.031485 -0.176373 0.089541 -0.088946 0.076051 -2.77E-4 0.130815 0.214537 -0.091028 0.236055 -0.331075 0.12052 -0.003628 -0.072828 -0.107529 0.129533 -0.051552 -0.069964 -0.237332 -0.147973 -0.065205 0.020891 -0.116422 0.036312 0.049448 0.241042 -0.101202 0.041392 -0.039849 0.013178 -0.065806 -0.033974 -0.053259 0.154066 0.145584 0.027552 -0.014962 -0.107417 -0.067768 -0.023102 -0.04868 -0.037091 0.030428
4.262803 -1.890382 0.098391 1.536035 -1.687492 0.061622 0.499833 -0.870893 2.405686 0.098833 2.249794 0.502215 2.836509 -1.115595 -0.478439 0.034863 0.70996 0.838104 -3.211371 1.283498 1.837589 -0.533442 -2.040802 -0.838205 -0.850688 1.437247 3.042732 0.225905 -0.239472 2.1588 1.776828 -2.156094 -0.119065 -0.89227 -1.640866 2.188249 1.397856 -3.953466 -2.753357 0.618416 -0.788158 -0.499679 0.092752 -0.08431 -0.02332 0.506942 -0.678939 -1.001021 2.3368 -0.470408 0.128312 -1.856187 -0.857492 0.894124 -1.265139 -1.848677 -2.978855 0.061351 -1.037864 -0.06904 2.825289 -1.148157 -2.013495 -0.101056 -0.842776 -2.063927 2.691944 -1.998592 -0.61004 1.594881 3.794458 -2.911707 -1.316633 1.413582 -0.866055 -3.566408 2.394211 -1.219406 -1.952718 1.333707 -1.296772 -4.589664 -0.364504 -3.791755 1.108652 -0.22178 0.64616 -1.535036 -1.02833 -2.649289 0.612957 -0.250225 0.032554 1.022895 -1.20846 0.461679 0.175464 2.148988 -0.752262 0.592474
0.048451 0.048943 0.026255 -0.142791 0.257417 0.021697 -0.052108 -0.126993 -0.055798 0.07919 0.127021 0.088853 -0.126144 -0.121665 0.096434 0.252869 -0.283228 0.055847 -0.00442 0.034294 0.00181 0.047116 0.135611 -0.087696 -0.126704 -0.178222 0.002191 0.140082 -0.01166 -0.045982 0.178097 -0.072877 0.038233 0.109718 -0.186794 -0.156431 0.121869 -0.199474 0.095059 0.106791 0.044091 -0.012833 0.054677 -0.094681 -0.051842 -0.035806 -0.008347 0.074441 -0.022846 0.12142 0.147163 -0.017792 -0.021929 -0.063993 -0.003119 0.099365 -0.031124 0.088146 0.108558 -0.056021 0.059275 -0.238041 -0.00737 -0.187649 -0.129026 -0.005761 0.070195 -0.09095 -0.014755 -0.080458 -0.032642 -0.052085 -0.132086 0.125015 0.119449 0.107517 -0.012324 0.04989 0.015782 -0.010208 -0.131326 -0.015175 -0.05225 -0.140239 0.0461 0.063485 -0.011541 -0.037095 0.129359 0.040955 -0.140376 -0.137932 -0.115481 0.091497 -0.012021 -0.152446 0.066943 0.109027 -0.054351 -0.01621
-0.075677 -0.102597 0.084449 0.001146 -0.107687 0.018397 -0.104487 0.054325 -0.189182 0.019413 0.124626 0.089478 -0.133804 0.206899 -0.002144 0.195373 0.076855 0.118614 0.186572 -0.033133 0.047151 0.100249 0.060759 0.073985 -0.0498 -0.1979 0.127451 0.118576 -0.050228 -0.228623 -0.112861 -0.10485 -0.204727 0.198856 -0.175688 -0.143099 0.005708 -0.048797 0.036382 -0.104848 -0.233 0.058448 0.086919 0.073111 -0.024038 -0.048792 -0.030349 -0.051261 0.001278 0.019489 0.268476 -0.090533 -0.242128 -0.11913 -0.049764 -0.098197 0.084777 -0.011997 0.127781 -0.145529 0.018303 -0.09823 -0.022329 0.014355 -0.135725 0.050814 0.101133 0.135312 0.135262 0.128487 0.044607 -0.05772 0.061343 -0.20129 0.147641 -0.010198 -0.207526 0.065835 -0.148188 -0.16481 0.178853 -0.054851 0.090044 -0.073413 -0.138759 -0.13852 0.128027 0.100866 0.101283 -0.113527 0.003262 -0.111685 -0.100998 0.211075 -0.123315 -0.149002 -0.017135 -0.029072 0.033094 0.054007
0.081136 -0.136923 0.070417 0.20508 -0.022939 -0.059967 -0.312815 -0.141054 -0.096877 0.178968 0.164506 -0.047259 -0.054307 -0.071616 0.17262 0.304261 -0.003812 0.057163 -0.023592 -0.083519 -0.214665 -0.03219 0.075441 0.021646 -0.180604 -0.089558 -0.084739 -0.031649 0.243774 -0.279346 0.130584 -0.068305 -0.30723 -0.085302 -0.194516 1.73E-4 0.028814 -0.04522 0.032331 0.064634 -0.300218 0.035444 0.107679 0.034083 0.044666 -0.096232 -0.001438 0.037183 -0.073123 0.136581 -0.070902 -0.01961 -0.196579 0.198403 0.11681 -0.296456 -0.042441 0.140602 0.167704 -0.092967 0.006746 -0.182827 0.106805 0.029922 -0.149056 0.034431 0.234385 0.020857 0.237826 -0.164406 -0.260021 -0.077359 -0.057429 -0.073959 0.049306 -0.206054 -0.191122 -0.090317 0.010752 0.033561 -0.031283 -0.039874 0.305987 -0.039613 0.090988 0.243328 0.058233 0.137311 0.093671 -0.184745 -0.109444 0.175813 -0.031512 0.210213 -0.045824 -0.140244 0.028579 -0.120376 -0.00594 0.099595
1.519526 1.445578 -1.609499 2.582747 2.460795 3.529971 0.431498 -0.524736 0.238502 0.565084 -2.150664 2.607871 -3.578636 0.22885 1.205379 0.400126 -2.365878 -2.228676 -0.500047 -1.958516 -2.734259 -2.028213 -0.339577 -2.726884 0.003785 -1.85554 -0.90189 1.042933 0.930181 0.561229 0.956561 0.220468 -1.219533 -0.188243 -0.649085 -0.117874 2.101841 -0.317004 1.300647 -1.49228 0.533457 -2.976113 -0.635474 -1.431524 -0.943268 0.543614 -2.072507 -1.004219 4.072807 -1.496014 2.612373 2.458477 -0.120651 0.418572 -2.53177 0.646754 2.04053 2.0667 -2.403623 -3.037353 -1.289071 1.269349 0.447478 0.512568 0.464348 -0.142416 -1.155552 0.32258 -0.986119 3.909852 3.839548 0.865499 -1.089316 -1.400134 0.517204 -3.398406 -0.576028 -0.612853 -0.573641 -1.979957 1.278503 1.159562 0.583915 -0.210028 0.851463 1.075476 2.276915 0.114312 2.2836 1.968815 1.899569 0.001135 -2.286771 -2.666814 -1.408445 1.975128 -0.085175 1.44887 -1.994305 2.796178
-0.131356 -0.224293 0.105304 0.168514 -0.032959 -0.096466 -0.187846 0.133578 0.08882 -0.051787 -0.065958 0.151391 0.031709 -0.140538 0.075485 0.199378 0.028728 0.098597 0.054421 -0.010979 -0.178819 0.474819 0.099437 0.036138 -0.353537 -0.196912 0.058513 -0.023735 0.168697 -0.049727 0.101916 -0.151648 0.08959 2.88E-4 0.044915 -0.098943 0.071781 -0.18769 -0.081606 0.004122 0.084485 -0.209237 -0.045454 0.035476 0.098479 -0.213001 -0.113458 0.026223 -0.012165 0.142698 0.150408 -0.134866 -0.077764 0.336922 0.223592 -0.138301 0.04916 0.109412 0.069022 -0.001302 0.09728 0.131195 -0.067439 -0.00531 -0.347594 -0.004603 -0.023621 -0.114872 0.042117 -0.143834 -0.159926 -0.155756 -0.021405 -0.074775 -0.053866 -0.268727 0.064232 0.125163 -0.05416 0.023134 0.016038 0.080364 0.215613 -0.060262 0.066163 -0.045642 0.026715 -0.010255 0.161351 -0.079476 0.023102 0.120987 0.078888 0.167268 -0.2173 -0.27817 0.025207 -0.125503 -0.144069 -0.018216
1.155368 3.302179 -0.818617 0.201583 -0.372035 -0.220049 -2.421694 1.24088 1.022918 0.281963 -0.56672 0.218504 -2.654141 0.687099 1.426786 -2.744465 -2.044989 -0.49789 -1.769702 -2.328375 -1.105508 0.104665 -0.061522 -2.669585 1.369504 1.778184 -0.869744 -1.441309 0.051265 1.116249 1.903031 -0.163683 1.731475 -0.652558 -1.459245 -0.212579 0.382415 1.861636 -0.394668 -0.423196 -0.983827 -1.176007 1.844253 0.853456 0.976233 -0.076248 -1.490589 -0.553926 0.506191 0.326236 0.251095 1.038919 -0.803142 0.658979 -3.236482 -1.07965 1.27678 -0.350029 -1.778651 0.292774 0.002745 0.267431 1.072933 -0.321661 -1.19536 -1.465055 -2.523761 -3.574044 -0.123843 -0.515256 3.2036 -0.08683 1.099575 -0.639959 -1.310584 0.629968 -0.142079 0.66081 -1.289981 -0.152693 -0.105374 0.388507 -1.068849 2.207516 -1.516502 0.618648 0.057959 1.61471 0.888036 -0.337188 -0.73306 -0.809614 -1.409634 -0.094797 -0.938314 1.210802 1.47048 2.210952 -1.933366 0.819087
2.097164 -0.684685 -0.553311 1.458123 -0.361984 1.488648 1.630849 -0.547477 0.47489 0.560779 1.147556 1.539561 -1.932941 -0.11562 0.57818 0.806424 -1.418521 -2.667003 -0.404307 -0.989205 -1.565511 -0.075045 -0.224478 -1.593667 -0.559622 1.609323 2.101845 1.713226 0.339484 -0.764511 0.677974 -0.946163 0.391299 -1.386644 -1.354432 -0.47665 1.338354 -0.707447 -0.991086 -1.892278 0.948519 -1.548238 0.87698 -0.199978 -0.431374 0.788559 -0.81503 0.171272 0.574567 -0.922672 -0.541769 1.441391 -0.539436 1.61253 -0.535686 0.383211 1.146898 -1.381123 -0.560221 -1.975539 -0.725461 0.781178 -0.379347 -0.175998 -1.317066 -1.041156 -0.854758 -0.983401 0.970127 1.811068 3.418947 0.275835 0.602118 0.250477 1.673823 -0.047512 1.019559 0.701407 0.301924 -0.204249 1.558021 0.467911 -0.656596 -0.659069 -1.000279 -0.825337 1.172484 0.135611 -0.399185 0.803773 0.206766 0.004044 -0.451418 -0.835186 -0.620386 0.953422 -0.936139 1.506188 -0.979472 2.919243
-0.402982 -0.024018 0.161661 0.030479 -0.071012 -0.065498 -0.181334 0.202462 -0.027725 0.041487 -0.051619 0.091008 0.011325 -0.10986 -0.089225 0.102537 -0.006338 0.220061 0.094134 0.023228 -0.068928 0.16466 -0.039692 0.060757 -0.014455 -0.083667 0.036403 -0.021209 0.132477 0.112384 -0.301997 0.052408 -0.105928 -0.078715 0.049939 -0.139044 0.018359 0.206528 -0.11461 0.160429 -0.025551 0.274984 0.066777 0.104864 0.012178 -0.06516 -0.023166 0.078374 -0.130232 0.251029 -0.055209 -0.094977 -0.116954 0.061556 0.08928 -0.153001 0.129174 -0.090322 0.183529 -0.118432 0.330698 -0.069865 0.047298 -0.226113 -0.1763 -0.091601 0.192512 0.171635 0.023284 -0.133111 -0.155663 -0.015107 -0.043741 -0.007188 0.216577 -0.094968 -0.044871 0.082854 0.133052 -0.095855 0.054183 0.231448 0.128149 0.077779 0.052489 0.054522 -0.045028 -0.155594 -0.011984 0.066122 -0.189781 0.008045 0.069557 0.005337 0.043937 -0.242777 0.159944 -0.220084 -0.041777 -0.016676
0.018336 -0.137163 -0.029627 0.128172 -0.045956 -0.023802 -0.108621 -0.04369 -0.16751 0.133 0.175361 0.163902 0.007596 -0.041028 -0.062108 0.239324 0.06215 -0.005503 0.052969 0.086646 -0.045702 0.073246 0.075648 0.007983 -0.042623 -0.183391 -0.034467 0.016647 0.007929 -0.167663 -0.132052 -0.131696 -0.281045 0.090862 -0.169253 -0.151134 0.081827 -0.19741 -0.082489 -0.027545 -0.162824 -0.116384 -0.079359 0.027846 0.196157 -0.124446 0.027944 0.068258 -0.164819 -0.067346 -0.032165 -0.128372 -0.016769 -0.101562 0.129065 0.031056 0.016591 0.027301 0.066687 0.002282 0.079472 -0.056693 0.111025 -0.111667 -0.041353 0.027727 -0.062785 -0.024992 0.015069 0.074928 -0.087496 -1.75E-4 -0.16281 -0.073809 0.042645 -0.091865 0.051474 -0.007921 0.028972 0.065995 0.057448 0.146347 0.084188 -0.027034 0.101409 0.0779 0.129895 0.102215 0.230054 -0.052916 -0.025521 -0.012097 -0.004752 0.010025 0.062464 0.101908 0.132857 -0.076193 0.102684 0.00554
-0.019201 0.028111 0.019217 0.052324 -0.012545 0.076041 0.041859 0.132425 -0.042682 -0.25324 0.153679 -0.052639 -0.234426 0.154245 0.001178 0.07083 0.073083 0.160228 0.024133 -0.054811 0.001969 0.005439 0.181016 0.099355 -0.126409 -0.051701 0.037309 -0.123638 0.247936 -0.162055 0.114555 0.125901 0.087982 0.08593 -0.090916 0.032607 0.058566 -0.084423 -0.083684 -0.120125 -0.142636 -0.134573 0.099572 -0.067549 0.144656 -0.140025 -0.119758 0.069446 0.087216 -0.032862 -0.006618 -0.111395 0.032981 -0.031112 -0.118341 0.110071 -0.111936 0.153878 0.041608 0.007703 0.064796 -0.130385 0.030277 0.045725 -0.1256 0.149386 -0.11782 -0.166733 0.122695 0.114102 -0.065025 -0.01284 -0.004014 -0.036946 -0.052576 0.183617 0.039352 -0.109896 0.002856 -0.049741 0.098582 -0.079185 0.058208 -0.092538 -0.020486 -0.024785 0.136707 0.03449 -0.090652 0.201497 -0.097455 0.025029 -0.120762 -0.013839 -0.051103 -0.067125 -0.00444 -0.252706 0.02388 -0.108891
0.782148 0.522092 0.388398 0.910101 -2.69545 -3.708773 -0.142187 1.316417 -0.473543 -0.430363 1.040311 -0.791252 -0.293084 -0.489302 -1.867248 -1.583134 -0.404347 0.060038 -2.51167 1.103277 2.042293 -0.278641 0.443791 -0.596846 0.08577 1.383039 -0.235977 -2.270094 0.694625 -0.570515 0.467186 -0.868606 -0.266274 0.214637 0.978822 -2.883188 -1.135823 2.511618 1.168302 1.092034 -2.181224 1.56829 -0.524395 -0.427157 1.268707 -0.856272 0.821841 2.201392 1.423815 -0.822434 -0.6781 -1.372734 0.839454 0.226434 -0.156925 0.961836 -0.295409 -1.692343 1.190234 1.303758 2.079341 -0.975949 1.041772 -1.894644 -0.914104 -1.777106 1.358504 1.149409 0.413955 -2.983788 0.308836 -1.583614 -0.622472 -0.184291 0.626314 -1.008195 1.606084 -0.26638 1.401086 -0.892237 -0.037542 1.765005 0.635169 -0.586176 -0.156388 -0.608291 1.565436 -3.38498 0.204289 -0.840589 1.212076 1.235364 -1.327618 2.511278 0.008752 -1.180587 1.805855 -0.250503 1.468355 -1.444725
-0.033059 -0.003841 0.030108 0.163011 0.105352 0.147194 -0.036178 -0.068444 0.038477 0.06238 0.121326 0.096957 -0.03952 0.059737 0.108019 0.088335 -0.065316 -0.055853 0.004409 0.284164 -0.120727 0.012958 0.211637 -0.05379 -0.076821 0.048247 -0.036615 0.131151 0.105124 -0.132452 -0.004586 0.047553 0.018431 0.082375 -0.037184 -0.057503 -0.05921 0.098712 0.126763 0.00903 -0.082714 -0.216583 0.133272 -0.007393 0.089772 -0.115459 0.110736 -0.118571 0.00702 0.039542 0.055305 -0.1787 -0.106418 -0.041918 -0.069195 0.051072 -0.156254 0.108775 0.05522 -0.136086 -0.016338 0.004462 -0.009961 -0.119515 0.133079 0.064662 -0.03509 -0.099412 0.227227 0.051663 0.156802 -0.189851 -0.023435 0.082887 0.088759 0.099828 -0.107043 0.02213 -0.023956 -0.070325 -0.032073 0.11249 0.114516 -0.11666 -0.042468 0.059348 -0.026855 0.038676 0.052443 0.077647 0.162325 -0.039425 -5.71E-4 0.002889 -0.038787 -0.036086 -0.056988 0.015773 -0.025481 0.004083
0.047492 -0.010669 0.154947 0.067592 -0.28873 0.201191 0.115123 -0.085084 -0.102148 0.06619 0.243179 0.065292 -0.030116 0.073252 -0.13614 0.142387 -0.086006 -0.028755 -0.040421 -0.264527 -0.183846 -0.243598 0.266235 -0.094547 0.157501 -0.057124 -0.264259 -0.112961 0.163222 0.180292 -0.004756 -0.237403 -0.284836 0.310112 -0.198337 -0.115177 -0.086886 -0.053437 -0.078792 0.124662 -0.184125 -0.091562 -0.064127 -0.107288 0.097829 -0.187111 0.182008 0.208158 -0.007243 0.279841 -0.082114 -0.075126 0.019202 4.19E-4 -0.020425 0.145115 0.176072 -0.160586 0.209381 0.057113 -0.022263 -0.185317 0.121613 -0.113701 0.16727 0.027822 0.338035 -0.109963 0.312075 0.060827 -0.073922 -0.067948 -0.224654 0.133206 -0.190794 -0.211935 0.090106 0.209556 0.263653 -0.118151 0.168419 0.100804 -0.080654 0.182565 0.05871 0.081267 0.183569 -0.226354 -0.132321 0.038013 -0.174659 -0.018365 0.039929 -0.12189 -0.124096 0.054038 -0.127828 0.166067 -0.136301 -0.376253
-0.061364 -0.148303 0.045638 0.02879 -0.18617 -0.040533 -0.268509 0.027684 -0.150567 0.057279 0.242194 -0.027417 -0.141927 0.078581 0.090316 0.315204 -0.066132 -0.017578 0.007251 -0.058873 -0.145536 -0.061791 0.219256 0.04468 -0.040154 -0.022628 -0.046182 0.100212 0.235899 -0.09638 -0.07708 -0.0595 -0.238868 -0.01056 -0.185674 -0.129834 0.110508 0.028946 0.07777 -0.049921 -0.001611 0.085079 0.025849 0.153409 -0.03087 0.032487 0.017801 0.006581 -0.174503 0.069374 0.059592 -0.016112 -0.027782 -0.04103 0.068045 -0.026669 0.054286 -0.137401 0.125978 0.008407 0.168003 -0.041798 -0.126086 -0.138808 -0.037859 0.063664 0.146997 -0.134827 0.187205 -0.250864 -0.063798 -0.05278 -0.068733 -0.072927 7.64E-4 -0.085688 -0.002705 -0.020125 -0.017215 -0.023896 0.132517 0.080046 0.152664 -0.048768 0.003837 -0.045979 -0.017312 -0.009511 0.151606 0.036378 -0.11175 -0.031611 0.071656 0.350182 -0.007855 -0.091148 -0.098627 -0.054256 0.040123 0.044723
0.036737 -0.032921 0.024463 0.001525 -0.14953 -0.081921 0.05195 0.033054 0.042371 0.187633 -0.169856 -0.043431 -0.173636 0.224604 -0.099043 -0.052621 -0.094147 -0.087315 -0.205223 0.126826 -0.051988 0.057934 0.007092 0.028646 0.030134 0.006318 0.118765 0.00841 -0.042876 -0.067148 -0.15148 -0.042306 0.047684 0.10077 -0.040846 -0.155266 0.173754 7.38E-4 -0.149543 -0.155015 0.042332 1.9E-5 0.164393 -0.109523 -0.01025 0.019395 0.060378 0.084138 0.12078 -0.042878 0.08194 -0.06976 0.047308 0.056745 0.006819 -0.026824 -0.156007 0.042841 -0.214906 -0.100455 0.001679 0.056153 0.00309 0.056995 -0.027269 0.054063 -0.021361 -0.118937 -0.039109 0.253888 -0.099679 0.068347 0.024916 0.004649 0.026359 0.067277 0.089904 -0.116294 -0.057639 -0.070171 0.238942 -0.101354 -0.104886 -0.195107 -0.268537 -0.124495 -0.010152 -7.27E-4 0.045996 0.182311 -0.129108 -0.070264 -0.013 0.100287 -0.131971 0.14376 -0.073632 0.262197 -0.055353 0.017675
0.171593 -0.085188 -0.005011 0.309169 -0.152905 0.00381 -0.249387 -0.038448 -0.157923 0.037731 0.104605 0.346345 0.244978 0.024678 0.032649 0.310071 -0.065622 0.036396 0.052969 0.124156 -0.043828 -0.06566 0.269065 -0.177152 0.005016 0.077923 -0.302495 0.040821 0.286835 0.001567 0.013001 -0.230026 -0.074903 -0.033747 -0.205199 -0.039013 0.158052 -0.224509 -0.025489 -0.047903 -0.192269 0.165546 0.069635 -0.04257 0.06969 0.085811 0.04252 -0.017744 -0.24138 0.017786 0.049939 -0.111088 -0.074083 -0.048444 0.073146 -0.056241 -0.005692 0.009777 -0.018746 -0.086046 -0.136093 -0.368411 0.058549 -0.057995 0.004658 -0.164634 0.183809 -0.114823 0.198303 -0.19652 -0.183127 0.044565 -0.09434 -0.054044 0.105077 -0.030626 0.03893 -2.26E-4 -0.247097 0.052807 0.04372 0.275303 -0.041172 0.004343 0.04562 -0.052336 0.091936 -0.411318 0.007728 0.266991 0.171496 0.069051 0.089662 0.12008 0.01404 0.091993 0.086905 0.02851 -0.047985 -0.099695
-0.013006 -0.118379 0.033248 -0.086703 -0.122945 0.054024 -0.105954 0.086953 -0.008314 0.037737 0.026517 0.202887 0.057473 0.10463 0.060993 0.164488 0.280731 0.235639 0.060156 0.073235 -0.105967 0.095067 0.21609 0.159707 -0.247029 -0.053178 0.213588 -0.163418 0.172043 -0.043476 0.005781 0.076681 0.0549 0.065827 -0.131163 -0.008544 0.018881 -0.024295 0.029425 0.145305 -0.053472 0.092048 -0.040266 0.194685 0.051225 -0.056091 0.052884 -0.035118 -0.044842 0.033586 0.030209 -0.225483 0.071924 -0.138642 0.181913 -0.179615 0.121881 -0.129775 -0.069768 -0.016177 0.31128 -0.011069 0.071507 -0.269585 -0.039461 -0.20419 0.164372 0.040425 -0.144214 0.019767 -0.143172 0.054418 -0.140112 0.15995 0.007503 -0.086442 -0.073308 0.181186 0.068323 0.055373 0.063983 0.035385 0.17434 -0.02698 0.121368 -0.207728 0.02406 0.033372 0.03302 0.306965 -0.173081 -0.053316 -0.094297 0.09213 -0.07528 -0.11779 0.025709 -0.15948 0.064401 0.00683
-0.013236 0.183016 0.137952 0.124071 0.111855 -0.013848 0.12599 -0.160735 -0.167335 0.071493 -0.072039 0.066068 -0.027566 0.081976 0.052254 0.123465 -0.174864 0.02446 -0.045685 -0.237289 -0.244287 0.026204 0.052877 -0.006301 -0.151002 0.100691 -0.123263 -0.056683 -0.053021 -0.13193 -0.028315 -0.105084 -0.171898 0.270708 -0.185777 -0.097435 0.110437 0.083319 0.021308 0.045607 -0.113082 0.144202 0.159826 -0.171962 -0.214273 0.232074 -0.064669 -0.069549 -0.129557 -0.031265 0.144488 0.165463 0.1101 -0.049199 0.20567 -0.026533 0.016345 -0.207442 0.06774 0.068588 -0.022172 -0.154304 -0.174507 -0.096071 -0.023112 -0.165038 -0.196652 -0.059831 0.026218 -0.110533 0.020015 0.284088 -0.047222 -0.16451 0.114496 0.247721 -0.022282 -0.313782 0.01307 0.030813 -0.086021 0.080384 0.179901 0.021525 -0.010492 0.187886 0.064668 0.208563 -0.052103 0.129441 0.05107 -0.169305 0.096805 -0.280488 -0.022548 -0.04542 -0.215836 0.100107 0.371492 -0.03141
-0.06989 -0.082454 0.033304 0.066166 0.053079 0.076984 0.00699 -0.325371 -0.046957 0.211469 -0.114179 0.081004 0.019207 -0.042891 -0.052884 0.131969 -0.172467 0.034857 -0.019882 0.170954 -0.017649 0.032092 0.329151 0.034461 0.001433 -0.034585 -0.156219 0.042102 -0.009771 0.116264 0.049745 0.060673 -0.183417 0.09743 -0.164979 0.273627 -0.062746 0.123235 -0.183099 0.032764 -0.012403 0.07765 -0.139594 0.00452 0.027564 -0.013549 -0.112051 -0.008075 -0.261524 0.2147 0.196205 -0.114951 0.116242 0.183487 0.11984 0.027762 -0.072545 -0.211714 0.01217 0.037559 0.221668 0.003166 -0.171799 -0.083948 -0.130999 -0.152956 0.067544 0.032837 -9.3E-5 0.076609 0.078806 0.037935 0.262428 0.264299 0.057865 0.027191 0.118005 0.211757 -0.119983 0.164582 -0.074943 0.069409 -0.143959 0.229321 -0.087632 -0.040633 -0.001586 -0.011082 -0.075727 0.19152 -0.151159 -0.147635 0.070973 -0.099449 -0.307229 -0.053124 0.204533 0.047004 0.035331 -0.098172
0.721306 -1.664197 -3.555886 -1.983803 -2.048338 -1.566021 -2.13183 3.037637 2.299882 -2.33087 1.158713 0.279679 1.24378 0.744441 1.385945 -1.703033 -0.513885 1.640494 0.81632 1.463214 -2.592332 -0.992956 1.143327 -1.414461 0.172048 1.72794 0.030451 1.696044 0.391391 -0.383004 -0.807983 -1.584379 1.320191 -0.281917 -2.861244 1.901033 -1.036611 -0.689543 -2.388391 -1.231557 1.860236 -0.159928 -1.118769 -2.464249 1.772196 -0.690825 -0.380075 2.894535 1.660446 -0.856489 -2.064541 0.55096 0.408453 2.156677 -0.3144 -1.491781 -3.707349 -0.496634 -0.135807 -1.443198 3.097029 -0.841893 -0.523502 -1.835718 1.767247 -1.343271 1.213721 -0.371599 -0.582907 1.977293 1.99883 3.028152 -3.54777 0.225872 -2.360388 1.491875 -1.692884 1.009607 1.730277 2.369019 -0.815261 -1.089757 1.762396 -1.251928 -0.468277 1.283272 0.733456 1.001606 1.532406 4.213451 -2.50094 1.86118 -0.067248 0.435436 0.223463 1.332645 -2.315333 2.187068 0.302409 0.227734
0.034733 -0.047239 0.146198 0.07865 -0.106409 -0.077535 -0.019588 -0.016829 -0.066054 0.223105 0.111722 0.224105 0.141952 -0.12976 0.046701 0.064269 -0.183748 0.21341 -0.061861 0.127766 0.038256 0.019132 0.17944 -0.002331 -0.097874 0.087884 -0.177085 -0.098658 0.183255 -0.263653 3.6E-5 -0.155376 -0.096569 0.226488 -0.004206 -0.065823 -0.005457 -0.107038 -0.005512 0.128521 -0.133505 0.10497 0.003064 -0.249338 0.022386 0.241815 -0.04324 -0.188904 -0.013142 0.067457 -0.075317 -0.091254 -0.026665 -0.062898 0.168704 -0.046895 0.049197 -0.00872 0.111297 -0.166359 0.151071 -0.209862 -0.087078 0.013302 -0.054052 -0.045986 0.174819 -0.150406 0.177557 -0.055979 -0.010461 0.056778 -0.018561 -0.047682 -0.027504 -0.03564 -0.156768 -0.105095 0.023277 -0.007893 -0.048374 0.100354 0.220367 -0.081184 -0.101513 0.201738 -0.075197 0.094998 0.149967 -0.051212 -0.118531 -0.119864 -0.062471 0.015945 -0.101983 -0.196547 1.96E-4 -0.198289 0.002339 -0.282652
0.081136 -0.136923 0.070417 0.20508 -0.022939 -0.059967 -0.312815 -0.141054 -0.096877 0.178968 0.164506 -0.047259 -0.054307 -0.071616 0.17262 0.304261 -0.003812 0.057163 -0.023592 -0.083519 -0.214665 -0.03219 0.075441 0.021646 -0.180604 -0.089558 -0.084739 -0.031649 0.243774 -0.279346 0.130584 -0.068305 -0.30723 -0.085302 -0.194516 1.73E-4 0.028814 -0.04522 0.032331 0.064634 -0.300218 0.035444 0.107679 0.034083 0.044666 -0.096232 -0.001438 0.037183 -0.073123 0.136581 -0.070902 -0.01961 -0.196579 0.198403 0.11681 -0.296456 -0.042441 0.140602 0.167704 -0.092967 0.006746 -0.182827 0.106805 0.029922 -0.149056 0.034431 0.234385 0.020857 0.237826 -0.164406 -0.260021 -0.077359 -0.057429 -0.073959 0.049306 -0.206054 -0.191122 -0.090317 0.010752 0.033561 -0.031283 -0.039874 0.305987 -0.039613 0.090988 0.243328 0.058233 0.137311 0.093671 -0.184745 -0.109444 0.175813 -0.031512 0.210213 -0.045824 -0.140244 0.028579 -0.120376 -0.00594 0.099595
-0.062107 -0.090249 0.198811 -0.021381 0.053144 -0.149608 -0.00604 -0.155559 0.136523 0.154086 0.097229 0.117536 0.048891 -0.089273 0.080332 0.185063 -0.14495 0.071182 0.15602 0.194363 -0.098894 0.021829 -0.039834 0.1367 0.004485 -0.043547 0.045996 -0.089932 0.115141 0.067219 -0.022376 0.085587 -0.072183 -0.030309 -0.044053 0.027941 -0.043903 -0.078486 0.046369 -0.048465 0.101134 0.075011 0.068927 -0.042689 5.33E-4 -0.029586 -0.079777 0.033215 -0.086984 0.022703 0.044393 -0.041257 0.049136 -0.083561 0.008722 -0.093253 -0.216117 0.019713 -0.076056 -0.075053 0.020199 -0.27833 -0.020947 -0.061961 0.066746 0.036819 -0.036141 0.17086 0.228002 -0.066673 0.05466 -0.001762 -0.064315 0.011571 0.019134 -0.0905 0.003893 0.074263 -0.069385 -0.146756 -0.122022 0.024139 0.104485 -0.05547 -6.68E-4 0.144602 -0.05248 -0.133646 0.18081 -0.015619 -0.096865 -0.037852 0.055533 0.018921 -0.026247 -0.13381 0.09815 0.129947 0.114801 0.102934
0.151909 -0.280103 -0.112139 -0.192645 0.151967 0.186323 0.07255 0.099047 -0.112604 -0.219033 0.082877 -0.159053 -0.246199 -0.03973 -0.064906 -0.192443 0.082832 -0.190778 -0.193236 -0.09365 0.187918 -0.071823 -0.114761 -0.34321 -0.025143 0.133816 0.260836 0.095027 0.214534 0.083889 -0.018757 0.06395 0.034652 0.122376 0.311086 0.069513 -0.041911 -0.21043 -0.134827 -0.02054 0.014683 -0.239484 -4.64E-4 -0.092054 0.109394 0.418289 0.125606 0.141801 0.232862 -0.249504 0.108587 0.225081 -0.214224 -0.046554 0.080323 0.266705 -0.178458 0.089374 -0.543134 0.065595 -0.422961 0.00135 0.046756 0.145725 0.036195 0.111827 -0.197988 -0.073684 -0.250392 0.163707 0.163703 0.107593 0.001037 -0.054983 -0.194434 0.212777 0.051287 0.03677 0.217813 -0.186121 -0.067689 -0.386062 0.066865 -0.135666 0.010744 -0.154198 -0.281845 -0.139427 -0.143517 0.258422 0.065765 -0.150671 -0.105574 -0.371797 0.480346 0.058779 -0.137591 0.270148 -0.135284 -0.022005
-0.114629 -0.13626 -0.078929 0.084601 -0.016885 0.112705 0.065489 -0.004679 -0.019247 -0.006387 -0.073606 -0.040135 -0.125929 -0.0042 -0.074912 0.048436 -0.038214 0.089133 0.090469 -0.018251 -0.081441 0.015759 0.094625 -0.035219 -0.016399 -0.012751 0.068389 -0.087595 -0.17946 -0.058431 0.075413 -6.52E-4 0.097583 0.031443 -0.167186 -0.20392 0.035647 0.112956 -0.008216 -0.23743 -0.011915 -0.125958 0.069366 0.033831 -0.153714 -0.170287 -0.035509 -0.009687 -0.009942 0.045059 0.042852 -0.006977 -0.102327 -0.005753 -0.094822 0.239706 -0.012191 -0.268788 -0.136738 -0.05988 0.05012 0.097715 -0.157588 -0.092707 0.067062 -0.005812 -0.19068 -0.087558 -0.026922 0.208337 0.16513 0.0634 0.08632 0.035448 -0.103493 0.050984 0.078468 0.041105 -0.011609 -0.207333 -0.028526 0.066677 -0.00612 -0.039123 0.103234 -0.03445 -0.070083 0.261932 -0.034308 0.207033 0.140324 0.001785 -0.037761 -0.179624 0.109518 -0.180108 -0.195183 -0.071272 -0.07659 0.087669
0.782148 0.522092 0.388398 0.910101 -2.69545 -3.708773 -0.142187 1.316417 -0.473543 -0.430363 1.040311 -0.791252 -0.293084 -0.489302 -1.867248 -1.583134 -0.404347 0.060038 -2.51167 1.103277 2.042293 -0.278641 0.443791 -0.596846 0.08577 1.383039 -0.235977 -2.270094 0.694625 -0.570515 0.467186 -0.868606 -0.266274 0.214637 0.978822 -2.883188 -1.135823 2.511618 1.168302 1.092034 -2.181224 1.56829 -0.524395 -0.427157 1.268707 -0.856272 0.821841 2.201392 1.423815 -0.822434 -0.6781 -1.372734 0.839454 0.226434 -0.156925 0.961836 -0.295409 -1.692343 1.190234 1.303758 2.079341 -0.975949 1.041772 -1.894644 -0.914104 -1.777106 1.358504 1.149409 0.413955 -2.983788 0.308836 -1.583614 -0.622472 -0.184291 0.626314 -1.008195 1.606084 -0.26638 1.401086 -0.892237 -0.037542 1.765005 0.635169 -0.586176 -0.156388 -0.608291 1.565436 -3.38498 0.204289 -0.840589 1.212076 1.235364 -1.327618 2.511278 0.008752 -1.180587 1.805855 -0.250503 1.468355 -1.444725
0.139155 -0.006959 -0.098373 0.237146 0.061082 -0.004976 -0.188049 0.155994 0.224115 -0.104159 0.207906 0.018883 -0.031667 -0.05553 -0.004094 0.242517 0.008059 0.202435 0.019894 -0.024434 -0.155577 -0.020203 0.134632 0.095315 -0.094298 -0.024208 -0.278715 0.023025 0.138888 0.152221 0.185256 -0.158067 -0.03301 -0.174787 0.035492 -0.270621 0.016283 -0.051667 0.072976 0.108714 0.003638 0.061163 0.056824 -0.09549 0.010137 0.142082 -0.025005 0.002989 -0.221001 0.15004 -0.132701 0.091827 -0.207305 0.044787 -0.063406 0.089853 -0.088587 0.127656 -0.034879 -0.025524 0.008866 -0.271755 -0.037642 0.022522 0.002913 0.155529 0.098031 -0.096358 0.013213 -0.083956 0.077928 -0.037786 -0.051574 0.045744 0.053957 -0.129998 -0.063296 -0.0873 -0.024022 -0.034172 -0.025208 0.174558 0.15367 0.016847 -0.021114 -0.113335 -0.064247 -0.139863 -0.107273 0.065314 0.047668 0.099183 0.064902 0.192991 -0.07193 0.066719 0.163521 -0.21608 0.087134 -0.037378
-0.089712 0.007848 0.012629 0.065429 0.041631 0.100514 -0.034368 -0.111556 0.106337 -0.092196 -0.21623 0.010814 0.081395 0.084733 0.265044 -0.073327 0.079481 0.078686 0.304876 0.109826 -0.10464 0.035457 -0.111935 -0.039079 -0.081577 -0.154843 -0.146263 -0.077171 0.345002 -0.14379 0.044819 -0.05014 0.016006 -0.055961 -0.005092 -0.109836 -0.018816 0.074496 0.072223 -0.115007 0.065996 0.005896 0.024485 0.059913 0.223341 -0.110677 -0.038621 -0.048468 -0.092362 0.158544 0.175042 -0.03226 -0.150672 -0.003421 0.221171 0.223929 -0.114552 0.119556 0.003761 -0.002178 0.06602 -0.095944 -0.072484 -0.121138 -0.035258 -0.007152 -0.137867 -0.013036 0.117318 -0.086232 -0.20318 0.033402 0.02138 -0.070048 0.08982 -0.045666 0.064289 -0.110156 0.167763 -0.291921 0.08956 0.131763 -0.047938 -0.187648 -0.12642 0.030396 -0.09325 0.17436 0.169548 0.050727 -0.165986 0.033857 -0.008825 0.154651 -0.140299 -0.115698 -0.209645 -0.209293 0.091343 -0.017085
0.018809 -0.056255 -0.003233 -0.103144 0.030368 -0.015657 0.103871 -0.015613 0.061763 -0.014888 0.013792 0.094581 -0.08777 -0.107114 0.148158 -0.057553 -0.005293 -0.024582 0.059479 0.001105 -0.153692 0.061426 0.071559 -0.030056 -0.028429 0.095042 -0.011028 -0.018911 0.124573 -0.023809 0.115208 -0.057434 0.019051 0.106982 0.003925 -0.011536 0.030194 0.068838 0.052337 -0.180459 -0.114091 0.075967 0.051985 -0.155532 0.080624 -0.045647 -0.071426 0.035519 -0.207887 0.101014 0.149129 -0.014963 0.057978 0.011141 0.233072 -0.082537 -0.038003 -0.09325 -0.016466 -0.017333 -0.005163 -0.004512 0.007591 -0.046044 -0.114609 -0.061183 -0.065239 -0.045402 -0.066933 -0.174851 0.033997 0.01436 0.035181 0.033644 -0.084292 0.021747 0.063019 -0.009097 0.060552 0.042109 -0.068724 0.133849 -0.053773 -0.072215 -0.103991 -0.153113 -0.016112 0.09342 0.074841 0.007762 -0.184422 -0.06462 0.188844 -0.109518 -0.087767 -0.037503 -0.12706 -0.01669 -0.06459 -0.074934
0.0 0.0 0.0 0.0 0.0 0.0 0.0 0.0 0.0 0.0 0.0 0.0 0.0 0.0 0.0 0.0 0.0 0.0 0.0 0.0 0.0 0.0 0.0 0.0 0.0 0.0 0.0 0.0 0.0 0.0 0.0 0.0 0.0 0.0 0.0 0.0 0.0 0.0 0.0 0.0 0.0 0.0 0.0 0.0 0.0 0.0 0.0 0.0 0.0 0.0 0.0 0.0 0.0 0.0 0.0 0.0 0.0 0.0 0.0 0.0 0.0 0.0 0.0 0.0 0.0 0.0 0.0 0.0 0.0 0.0 0.0 0.0 0.0 0.0 0.0 0.0 0.0 0.0 0.0 0.0 0.0 0.0 0.0 0.0 0.0 0.0 0.0 0.0 0.0 0.0 0.0 0.0 0.0 0.0 0.0 0.0 0.0 0.0 0.0 0.0
0.0 0.0 0.0 0.0 0.0 0.0 0.0 0.0 0.0 0.0 0.0 0.0 0.0 0.0 0.0 0.0 0.0 0.0 0.0 0.0 0.0 0.0 0.0 0.0 0.0 0.0 0.0 0.0 0.0 0.0 0.0 0.0 0.0 0.0 0.0 0.0 0.0 0.0 0.0 0.0 0.0 0.0 0.0 0.0 0.0 0.0 0.0 0.0 0.0 0.0 0.0 0.0 0.0 0.0 0.0 0.0 0.0 0.0 0.0 0.0 0.0 0.0 0.0 0.0 0.0 0.0 0.0 0.0 0.0 0.0 0.0 0.0 0.0 0.0 0.0 0.0 0.0 0.0 0.0 0.0 0.0 0.0 0.0 0.0 0.0 0.0 0.0 0.0 0.0 0.0 0.0 0.0 0.0 0.0 0.0 0.0 0.0 0.0 0.0 0.0
-0.028676 0.06163 0.033004 0.310146 -0.079849 0.046145 -0.317666 -0.023351 -0.131738 0.053062 0.163828 0.113167 0.131 -0.116808 0.101902 0.187708 0.075027 0.135621 0.099019 0.076677 -0.032639 0.200455 0.363253 0.086596 -0.210068 -0.07344 0.130983 0.066327 0.145285 -0.022218 -0.002635 -0.056879 0.068721 -0.047406 -0.111099 -0.19795 0.065878 -0.056119 -0.120561 0.048171 0.127318 -0.055893 -0.007121 -0.010269 0.062555 -0.294912 0.055986 0.110998 -0.096816 0.083691 0.107637 -0.035147 0.036813 0.220498 0.213437 -0.270114 -0.031997 0.164815 -0.040151 0.118819 -0.024902 -0.128068 -0.162683 0.039966 -0.120754 -0.016648 0.09206 -0.073865 0.208859 -0.172765 -0.102493 -0.064294 0.066216 -0.021688 0.053507 -0.115995 -0.056144 -0.005458 0.057029 0.302051 -0.056311 0.261343 0.116922 -0.048007 0.155816 -0.017134 -0.05662 0.077044 0.014827 -0.06784 -0.076724 -0.07644 -0.088968 -0.011786 -0.219056 -0.207323 0.236575 -0.199524 -0.177135 0.084777
0.142855 2.096782 -0.44488 -0.186519 4.581101 0.368552 1.025096 -0.312802 -2.617651 -0.157005 2.963322 2.120705 -1.775955 -0.565663 0.972057 2.924774 -3.483148 -0.388176 -2.731071 -0.326463 1.005034 -0.173592 0.985748 -2.472826 -0.247049 -1.602126 -2.48254 -0.015307 0.921201 -0.634243 -0.734395 -4.469334 -2.338912 -3.86095 -2.404253 -1.170435 3.191081 0.66076 0.725646 -0.864367 -2.371157 -0.851367 -3.29822 -1.074393 -2.64488 2.784424 -0.996674 2.506345 2.15789 -2.159862 -0.441733 -0.926918 -0.098512 0.757891 -1.999629 -4.007104 0.387073 -3.003765 1.204233 -2.431844 -2.281004 -0.27222 1.915759 2.567541 -2.305997 0.668549 -1.469449 -4.443738 -0.244681 3.958085 3.663286 2.390184 0.145926 -1.914193 1.202993 0.085106 1.119028 1.764289 0.413107 1.270882 2.30135 -2.063297 -0.209725 -0.837978 1.54811 -1.075222 1.662849 3.024555 -0.817108 2.02425 0.827332 0.999754 -2.964958 -4.68355 2.112919 1.12159 -1.379614 1.011169 -1.034187 2.880255
3.229447 1.832686 -0.196265 -0.303454 -0.824437 2.082854 1.150219 -0.493805 -3.50143 -0.594107 2.103319 2.396154 1.056781 -0.578498 -1.172209 3.210305 -0.978008 -1.908997 -0.472705 -1.788789 -2.346806 -2.098664 -0.288581 -2.078696 0.41261 0.520842 -1.276654 0.578767 1.70845 -0.136278 -1.41294 0.371846 1.173228 1.232021 0.598135 -3.597398 4.723318 -0.907374 3.160397 -2.027976 1.188048 -5.433854 0.01906 -0.240727 2.932695 1.836205 0.69537 0.647449 5.328198 0.625981 0.041762 2.070653 0.300511 1.656161 -2.571092 0.908767 3.294905 2.941907 -1.065341 -2.086696 -0.817265 -1.894089 0.299235 -1.879644 0.485823 1.848637 -0.344618 -2.532108 2.074767 0.482597 3.034693 1.42216 0.457834 2.431775 -0.318071 1.666885 -1.364005 1.576786 -1.71492 -0.790398 2.548478 -2.38312 -0.502643 1.256626 0.730181 1.714355 1.091085 4.672542 0.202716 -0.959086 0.774024 -2.161259 -1.810393 -2.763748 0.167227 4.207294 2.675714 0.636561 -0.117425 -0.284099
0.116223 -0.114481 0.100973 0.030231 0.179821 -0.192506 0.04348 -0.009206 0.060852 0.140189 0.226733 -0.004959 0.043311 0.104423 0.007959 0.094292 -0.151781 0.096908 -0.196085 0.006861 0.096389 0.214827 -0.052469 0.071471 -0.115062 -0.019769 0.172594 -0.070708 -0.152732 0.049076 0.068193 0.136727 -0.128071 -0.172429 0.225428 -0.016599 0.070609 0.054711 -0.134167 0.160325 -0.222709 -0.064015 0.03835 -0.129592 -0.07471 0.128557 -0.01101 -0.030772 0.056429 0.257577 0.054149 -0.12721 0.075846 -0.160742 -0.00251 -0.063957 -0.013114 0.14369 -0.023768 0.011799 -0.109025 0.080088 -0.223416 -0.096692 0.155382 0.16376 -0.02479 -0.004907 -0.094847 0.049297 -0.060041 0.006333 0.05368 0.022489 0.039517 -0.110085 -0.260389 0.012583 0.101197 -0.060396 -0.126008 -0.022552 0.293128 -0.044408 0.119762 -0.232664 0.115387 -0.05951 0.037801 0.049206 0.119085 0.212581 -0.024904 0.203118 0.06663 -0.074337 0.034649 0.17496 0.069111 0.110862
-0.124276 -2.054402 -0.343635 1.81865 -2.16991 1.782205 0.82505 0.982572 -2.067194 -1.156199 0.298204 0.610046 -4.440783 -0.456446 1.442584 1.853605 -0.146562 2.077692 0.195573 -0.915147 0.599326 0.594442 1.900077 -1.11832 -0.711089 1.802311 -0.934321 4.923428 0.778654 -0.69484 -0.912197 0.151877 -0.031909 -0.121674 -3.551828 0.057548 0.447763 -0.623346 2.678004 -1.345078 -3.955954 -4.075293 -1.036935 -1.334541 -0.166985 -0.129224 -1.031956 -2.988586 3.17002 0.328676 1.405671 0.778493 -1.163548 2.145235 -1.779305 1.663516 1.887483 0.848116 -1.423908 -2.594846 -0.535155 -0.166339 0.121853 -0.577388 -1.832659 -2.926389 -3.361567 0.159506 -0.752505 4.326194 2.90284 -1.469079 -0.616227 0.788738 -0.806913 2.13246 1.096647 1.237584 -0.288162 0.179698 1.570163 0.091941 -1.524701 -1.102449 -1.615839 -0.364109 -2.101004 -0.663784 -0.318699 0.051272 0.686067 -1.094801 1.568548 -3.03993 1.893188 -1.377119 -2.094228 3.564402 -2.235058 -0.581437
0.071192 0.045068 -0.023793 0.123065 0.101912 0.139692 0.056816 -0.003893 -0.12216 0.164326 0.058394 -0.015741 0.04214 0.049129 -0.289037 -0.172881 0.204294 -0.048807 -0.043127 -0.238543 -0.017866 0.088233 -0.078462 -0.205901 0.153401 0.182092 -0.002656 0.063246 -0.027073 -0.13136 0.033242 -0.119172 0.050154 -0.036348 -0.161123 0.015677 0.136837 -0.137803 0.092201 -0.118468 -0.10595 -0.025159 0.114314 0.078671 0.106531 0.170871 -0.092603 0.005286 -0.058458 0.096196 -0.114486 -0.0349 0.154658 -0.002244 0.091786 -0.21261 0.297727 0.119857 -0.064175 -0.067058 -0.148504 -0.028225 0.107149 -0.089345 -0.065614 -0.020453 0.078651 0.003653 0.129779 0.154116 0.197731 0.076662 0.009082 -0.004618 -0.152015 0.018254 -0.035146 5.29E-4 -0.290312 -0.0532 -0.183897 0.027651 0.019012 -0.147248 0.067387 -0.046769 0.150617 -0.163954 0.050207 0.058721 0.125804 -0.138711 0.03531 -0.022206 7.76E-4 -0.093841 -0.032615 0.00515 -0.117657 -0.133737
