-0.144591 -0.01706 0.004047 0.061329 -0.05038 -0.032448 -0.134613 0.148859 -0.141322 0.037844 -0.113941 -0.012286 -0.177462 -0.036696 0.023328 0.085298 -0.108827 -0.093124 0.072502 0.054801 0.04611 0.005612 0.004772 0.078731 0.052579 0.156838 0.035949 -0.074413 -0.176108 -0.099363 0.091427 0.00653 0.133464 0.074133 0.041445 -0.091571 -0.045369 0.134044 0.214521 -0.018201 0.140205 0.044761 -0.095686 -0.065242 -0.180515 0.142225 -0.08015 -0.070281 0.069301 -0.151004 -0.09636 -0.099988 -0.074041 -0.113629 0.205882 0.003821 0.154743 -0.082674 0.101634 -0.235746 -0.019434 -0.097555 -0.074315 -0.022384 -0.050897 -0.07317 -0.046602 0.032318 -0.113086 -0.159978 -0.033973 0.136774 -0.052974 -0.093702 -0.035339 0.048024 0.198333 -0.23885 -0.060935 0.145458 0.044467 -0.117313 0.097491 8.83E-4 0.072153 0.001622 -0.186894 -0.08286 -0.072155 -0.215288 0.015905 0.079732 -0.101057 -0.038303 0.121024 -0.028532 -0.169589 -0.127638 -0.103225 -0.131157
-0.005431 -0.075151 -0.022379 0.151609 0.043169 -0.044256 -0.064317 -0.096044 -0.083503 0.203583 0.081188 0.247463 0.052028 -0.202642 0.110252 0.016954 0.053662 0.03804 -0.046798 -0.030016 -0.159845 -0.031529 0.09232 0.060658 -0.155008 -0.098928 0.049251 0.014592 0.123219 -0.03799 -0.253674 0.052281 -0.087139 0.098395 0.001912 0.106295 -0.050799 0.050501 0.073047 0.076333 -0.214312 0.002608 0.09096 0.077694 0.054054 -0.06185 -0.202951 0.217777 -0.219863 0.065268 0.063298 -0.0696 0.021778 -0.03875 -0.050809 -0.021389 -0.05229 -0.044532 -0.10831 -0.142079 -0.004502 -0.018321 0.129044 -0.008979 0.049781 0.127985 -0.121475 -0.064231 0.098399 -0.050646 -0.066742 -0.05061 0.043909 0.064619 -0.012127 -0.051505 -0.070338 0.037559 -0.045359 -0.208811 0.133755 0.147055 0.094239 -0.080436 -0.071973 0.170847 0.176524 -0.132841 0.066408 0.068475 -0.101958 0.011235 0.00196 -0.063354 -0.077148 0.044365 0.078175 -0.012337 -0.017855 -0.068059
-0.138592 -0.271833 0.118814 -0.02021 -0.266493 0.161467 -0.265617 0.099836 -0.190334 -0.12667 -0.029054 0.221119 -0.033505 0.007077 0.069918 0.063172 -0.14928 0.075313 -0.078727 0.11767 0.040559 -0.062533 0.107711 -0.013662 -0.194602 -0.027123 0.02078 0.017081 0.202102 -0.175173 -0.177316 0.045238 -0.107053 -0.077784 -0.048914 -0.065415 -0.056133 -0.004421 -0.231409 0.146404 0.088599 -0.169967 0.130374 0.144953 0.227703 0.013735 0.014891 0.196793 0.203234 -0.115706 0.040348 -0.277525 -0.258434 -0.039265 0.049736 -0.159048 -0.261463 -0.061389 -0.116186 -0.065953 -0.020217 -0.015362 -0.005119 -0.077227 -0.193008 0.087169 0.104908 0.108972 -0.024335 0.003069 -0.0114 -0.07505 0.146028 0.092169 0.009984 0.009441 -0.089921 -0.076484 0.149382 -0.129716 -0.030101 0.241964 0.221506 0.163706 0.116518 0.157613 -0.029026 0.013605 -0.156119 0.108773 0.016597 -0.048682 -0.181749 0.07382 0.002511 -0.142316 -0.145874 -0.013444 -0.094413 -0.047403
0.237634 0.109306 -0.041507 -0.201799 -0.149374 0.089779 -0.158518 -0.160494 -0.10045 0.139645 -0.078359 -0.155787 0.095709 0.083922 3.7E-4 0.109712 0.110221 -0.135581 0.234728 -0.052115 0.041085 -0.103376 0.237218 0.1233 -0.012453 -0.048067 0.138511 -0.135972 -0.036411 -0.107397 0.071741 0.157296 0.078333 0.032471 0.097229 -0.083432 0.037941 -0.071868 -0.073983 -0.062846 0.002712 -0.02559 -0.132649 0.048527 0.143802 -0.145214 -0.124616 0.044458 0.230509 0.081613 0.043638 0.28979 6.87E-4 -0.128232 0.105152 -0.075264 0.258126 0.025548 0.092303 -0.081444 0.053322 -0.407514 0.213285 -0.036615 -0.132724 0.099077 -0.017887 0.139513 0.092207 -0.253351 -0.224958 0.063673 0.08363 0.119876 0.188093 0.006222 -0.108333 0.106555 -0.254995 0.071608 0.201145 0.095737 0.012383 -0.016244 0.127919 0.013806 -0.029543 0.161299 0.071132 -0.180434 -0.017303 -0.118944 0.078936 0.328372 0.100792 0.139749 0.016598 -0.03948 -0.041089 -0.302976
0.06553 -0.125673 0.034491 0.043696 -0.08785 -0.070191 -0.104459 -0.048669 0.006119 0.030927 -0.13537 -0.036367 -0.163152 -0.059444 0.060532 -0.023973 0.098727 0.031182 -0.080261 0.051743 -0.07395 0.036216 -0.082271 -0.07694 -0.227916 8.49E-4 0.074039 -0.007776 0.046045 -0.104478 0.002922 0.032865 -0.001549 -0.142678 0.054115 -0.01641 0.00671 0.02971 0.075554 0.035918 0.017778 0.02266 0.074529 -0.007011 -0.166621 -0.149341 -0.036893 0.187838 -0.051182 0.035542 0.035646 -0.071808 0.164016 0.07998 0.087969 -0.192645 -0.030305 -0.225898 -0.106839 -0.021025 0.244137 -0.057087 -0.051305 0.059616 -0.184024 0.189175 0.205994 -0.054882 -0.034451 -0.087239 0.044602 -0.036991 -0.094929 -0.008204 0.212651 0.003758 -0.115127 0.104404 0.032918 0.078207 0.184447 0.044535 -0.025218 -0.026929 -0.017865 0.117728 0.029414 -0.031504 0.043071 0.093661 -0.096078 -0.012874 0.052235 0.078689 -0.053345 -0.059396 0.152948 -0.086422 -0.102222 -0.027954
0.124059 -0.150273 -0.066682 -0.097664 -0.079785 -0.163594 0.24014 0.100515 -0.122674 -0.067622 0.046024 0.149535 -0.099236 -0.190966 0.11374 0.020989 -0.081717 0.047359 -0.062845 0.073846 0.029215 0.158954 0.045178 -0.017108 -0.197354 0.058478 0.122034 -0.137729 -0.032049 0.06367 -0.106203 -0.106857 -0.033448 -0.010995 -0.063317 -0.07553 -0.03065 0.172584 -0.067852 0.21518 -0.136793 0.135252 -0.07615 0.030407 0.186634 -0.009614 0.166564 -0.122681 -0.187041 0.1453 -0.168337 -0.083616 0.007859 0.043356 0.145171 -0.114609 0.042333 -0.117058 0.11023 -0.017394 -0.095385 0.045269 -0.034887 -0.015498 -0.188815 -0.082708 0.035093 -0.039279 -0.005897 -0.149161 0.028199 -0.123463 0.059659 -0.002213 0.170861 0.004412 -0.101304 0.137877 -0.116357 0.099783 0.009802 0.08156 -0.037168 -0.041393 -0.052647 -0.007078 4.33E-4 0.13609 0.119014 -0.170403 0.018818 0.047448 0.124776 0.102796 -0.129473 -0.164741 0.075167 0.065086 -0.068975 -0.177284
-0.890678 0.059938 1.815377 -2.36158 -0.743707 0.105003 -2.565211 -1.546759 -0.236864 -0.454791 -0.42549 0.511464 -2.515728 1.797961 -0.482668 1.110062 -0.889068 -0.890036 0.775525 -0.918713 0.799193 1.779235 2.307447 -0.521531 0.614595 1.570031 1.136432 -3.38529 -0.182539 -0.615678 0.382121 -1.067453 0.030349 -1.294266 -0.387474 1.821113 -3.62192 -0.64428 0.875894 -0.452294 2.476485 -1.11769 0.674445 -2.140893 -0.498068 -2.065002 2.344599 -0.078678 -1.832834 0.87494 -2.391624 0.694969 3.067447 -3.238687 0.569656 -2.941819 0.272065 0.640931 -0.601232 3.153293 1.22417 0.25807 -1.466485 -1.407365 -2.384528 -2.49932 0.008595 -1.847309 1.132072 0.146427 -0.146505 -0.837883 0.103396 -1.445956 1.025591 -4.521006 0.948407 -0.600785 0.882803 -0.51324 1.279734 -2.090384 2.34931 1.566642 1.100794 2.189514 1.847448 -0.585611 -1.896511 -1.162898 -1.508562 -0.22747 0.616038 1.541672 -2.723373 -3.72575 0.50034 -0.504161 -1.24857 0.452768
0.022408 -0.004484 0.041233 -0.181128 -0.105222 0.040901 -0.188063 -0.167848 0.086843 0.071929 0.112516 -0.001719 0.036754 0.029108 0.086897 0.052245 0.028252 -0.002953 0.058955 0.020434 0.101536 -0.117024 0.171091 0.122319 0.105072 0.054777 0.153279 -0.254705 0.035013 0.114549 -0.034112 0.019412 -0.030277 0.073379 0.131801 -0.180919 -0.040365 0.223825 0.095708 0.07456 -0.015576 -0.029508 -0.233976 0.069143 0.095534 -0.116328 -0.001178 -0.097875 -0.047768 0.045921 -0.120447 -0.173899 0.121618 -0.076799 0.011295 -0.039886 0.096864 0.127692 -0.060079 -0.074577 0.079669 0.139867 -0.106427 -0.132574 -0.123958 -0.178203 0.040802 -0.176901 -0.006477 -0.229715 -0.039158 0.027094 0.097377 0.082212 0.081845 0.064988 -0.047587 -0.025194 -0.051219 -0.116643 -0.022519 -0.049379 0.059675 -0.112087 -0.130033 -0.027202 -0.062096 0.037956 0.119603 0.121688 0.089532 0.031967 0.178544 0.041655 0.131254 -0.041192 0.091131 0.060617 0.039615 -0.217264
0.0 0.0 0.0 0.0 0.0 0.0 0.0 0.0 0.0 0.0 0.0 0.0 0.0 0.0 0.0 0.0 0.0 0.0 0.0 0.0 0.0 0.0 0.0 0.0 0.0 0.0 0.0 0.0 0.0 0.0 0.0 0.0 0.0 0.0 0.0 0.0 0.0 0.0 0.0 0.0 0.0 0.0 0.0 0.0 0.0 0.0 0.0 0.0 0.0 0.0 0.0 0.0 0.0 0.0 0.0 0.0 0.0 0.0 0.0 0.0 0.0 0.0 0.0 0.0 0.0 0.0 0.0 0.0 0.0 0.0 0.0 0.0 0.0 0.0 0.0 0.0 0.0 0.0 0.0 0.0 0.0 0.0 0.0 0.0 0.0 0.0 0.0 0.0 0.0 0.0 0.0 0.0 0.0 0.0 0.0 0.0 0.0 0.0 0.0 0.0
0.035383 -0.164998 0.090449 0.280547 -0.115185 0.052324 -0.033498 0.032398 0.051416 -0.116734 0.013492 -0.008862 -0.153742 0.05129 0.035752 0.061681 -0.03735 0.132439 0.021308 -0.145713 0.052689 0.099361 0.170176 -0.122464 -0.083669 0.096051 -0.133162 -0.060633 0.128481 -0.056609 0.050374 -0.033011 0.061302 -0.025334 -0.137175 -0.137691 0.12511 -0.058717 0.142376 0.045533 -0.118527 -0.116518 0.054774 0.019069 -0.021576 -0.077299 -0.168628 -0.173539 -0.099854 0.07679 0.205415 -0.030033 0.057061 0.136404 -0.026938 0.034452 0.021303 -0.073512 0.011759 -0.127336 -0.06313 -0.157206 0.052962 -0.104557 -0.034202 -0.036611 0.141877 0.005674 0.064679 -0.021441 0.156258 0.049987 -0.077389 -0.060609 0.034554 -0.008766 -0.028947 -0.137797 -0.118871 -0.182372 0.013622 0.063905 0.070384 0.064434 0.095806 0.020792 0.013453 0.060489 0.063512 0.043622 0.055647 0.059402 -0.07428 0.034029 -0.071599 -0.186608 -0.025654 -0.100153 -0.090121 -0.101208
0.031951 0.112154 -0.028126 0.066621 0.127299 0.063481 0.094169 0.031083 0.042826 0.210475 0.02235 -0.012947 0.004457 -0.039433 0.037618 0.055724 0.021311 0.163163 -0.112648 -0.114815 0.030989 -0.096346 -0.188561 -0.188835 0.19298 0.185028 0.022127 0.097981 -0.131461 0.062768 -0.082113 -0.046454 0.054269 0.016266 -0.148679 -0.025989 0.168939 -0.157309 0.090085 -0.082531 0.071902 -0.063215 0.097458 -0.013804 -0.188684 0.014557 0.045802 -0.004211 0.054598 -0.051582 -0.072996 0.013243 -0.098989 0.085923 -0.037492 -0.009024 0.04934 0.00138 0.032871 -0.108112 -0.075825 -0.157723 -0.124759 -0.028201 -0.064644 -0.023863 0.119358 -0.08643 -0.028531 -0.036438 0.037072 -0.078938 -0.014269 0.045468 -0.073935 -0.025008 -0.02953 0.039581 0.103297 -0.053919 0.008125 0.017721 -0.022024 -0.028195 -0.068561 0.134286 0.136396 0.044701 -0.14403 0.023183 0.108311 -0.093253 0.009317 0.030936 0.113314 -0.096759 0.043489 0.070401 -0.074607 -0.025927
-0.11719 0.157112 -0.014117 -0.088458 -0.080283 0.118121 -0.031509 -0.018573 -0.083695 0.070928 0.089856 0.085562 0.01686 -0.109276 0.14001 0.040275 -0.128641 0.025602 -0.042511 -0.070822 -0.095003 0.099692 0.143652 0.141249 -0.040176 0.080077 -0.08681 0.030607 -0.020226 0.142357 0.07923 0.088488 -0.322635 0.060545 0.157514 -0.083109 0.042134 0.069799 0.002264 -0.247601 -0.0496 -0.088127 -0.00728 0.14979 -0.12509 -0.133064 -0.160255 0.02237 -0.08645 0.070527 0.143149 0.137326 -0.054762 0.137942 -0.195493 -0.06551 -0.154348 0.135263 -0.161696 -0.042704 -0.006986 0.099685 0.061137 -0.044457 -0.059555 0.216352 0.054275 -0.015218 0.045034 -0.014972 -0.007714 -0.012673 0.066129 0.02302 -0.013105 0.013703 -0.197739 0.021511 0.056039 -0.097501 -0.128551 0.359602 0.084534 -0.132362 -0.049248 0.040423 -0.009948 0.066171 0.073117 -0.121229 -0.056422 0.103031 -0.047446 -0.131591 -0.061782 0.034015 -0.026256 0.001815 -0.010916 0.008569
-0.113592 0.021734 -0.107796 -0.055351 -0.254265 0.192693 -0.030184 -0.204755 -0.032514 0.111876 -0.069056 0.148943 0.022106 0.088739 -0.244831 0.054588 0.057001 -0.117027 -0.09707 -0.196372 0.046108 0.042787 0.105808 -0.087283 -0.181546 0.031456 -0.306925 -0.052706 0.028012 -0.156616 0.123923 -0.102664 -0.039407 -0.158384 0.032382 0.027736 -0.137251 -0.065033 -0.151039 -0.159096 -0.019389 0.092833 0.082254 0.212047 0.073603 0.018875 -0.01008 -0.040293 0.133672 0.113824 -0.128214 0.137444 0.021716 0.077402 0.033978 -0.009936 0.113947 0.065402 -0.020108 0.037263 0.100731 0.145186 0.110231 -0.145082 -0.027738 -0.002764 0.073832 0.061556 0.159483 0.005298 -0.093692 0.075918 0.096387 0.016326 0.17705 -0.051498 -0.021815 -0.081634 0.07395 0.065289 0.015232 0.069114 0.302198 -0.206156 -0.038991 0.009985 0.007459 -0.126381 0.025956 0.155047 0.010664 -0.107695 -0.057463 -0.109059 0.189162 -0.332972 0.179268 -0.195442 -0.156902 0.018572
-0.033446 -0.003951 0.165486 0.047881 -0.070991 0.040324 0.020776 0.034316 -0.032279 0.089928 0.137709 0.031776 -0.028871 -0.001 -0.043865 0.177724 0.031044 0.144452 -0.006724 0.057533 -0.108526 0.105335 0.127636 -0.0015 -0.17239 0.024142 -0.161529 -0.106888 0.174055 0.030573 -0.080603 0.012311 -0.03995 0.137466 -0.123416 -0.095794 0.054333 -0.034463 0.080243 0.043666 -0.052168 0.023173 0.042502 0.108558 0.024914 -0.102279 -0.007208 0.041751 -0.186924 0.061631 0.080769 -0.105901 -0.001814 0.019081 0.055371 -0.064946 -0.024509 -0.121468 0.128267 -0.055238 -0.024007 -0.07861 0.060585 -0.041837 -0.080359 0.041693 0.081294 -0.101496 -0.071196 -0.067272 -0.094261 0.035191 -0.041029 -0.022958 0.080925 -0.130239 0.025133 -0.0539 -0.09403 -0.140185 -0.118056 0.047829 0.088009 -0.067574 0.014884 0.002841 0.004273 0.005297 -0.044595 0.080307 -0.004684 0.019002 -0.006039 0.019218 -0.002705 -0.102984 0.045653 0.047906 -0.034795 -0.022844
-0.258308 -0.108394 0.022958 -0.004101 0.047779 -0.171712 -0.072103 0.131246 -0.048988 0.06657 0.123995 0.041433 -0.234884 -0.02199 0.30164 0.052077 0.079492 0.008455 0.006319 0.012655 -0.072702 0.12341 0.203618 0.014153 -0.0841 0.014383 0.029615 0.126504 0.14127 -0.087756 -0.062961 0.23386 -0.155911 0.00531 -0.011699 0.035597 0.051275 -0.065885 0.213869 -0.207487 -0.081531 -0.343385 0.068798 -0.001441 -0.094427 -0.05294 -0.066201 -6.09E-4 0.091683 0.135202 0.175144 0.022562 -0.001889 0.057189 0.273859 0.09827 -0.160663 0.021815 0.024199 -0.163398 0.141852 0.224879 -0.093696 0.039375 0.010414 0.056515 -0.183767 -0.211433 -0.194554 0.157222 -0.010812 -0.149703 -0.033354 0.0679 -0.019148 0.056006 0.133898 -0.096498 -0.080068 0.036891 0.118654 -0.040662 -0.125016 -0.202784 -0.0362 0.125578 0.086064 0.013093 0.063226 0.216142 0.156492 -0.119817 -0.342229 -0.030519 0.04713 0.061711 -0.239814 -0.134669 0.159457 0.187545
-0.144591 -0.01706 0.004047 0.061329 -0.05038 -0.032448 -0.134613 0.148859 -0.141322 0.037844 -0.113941 -0.012286 -0.177462 -0.036696 0.023328 0.085298 -0.108827 -0.093124 0.072502 0.054801 0.04611 0.005612 0.004772 0.078731 0.052579 0.156838 0.035949 -0.074413 -0.176108 -0.099363 0.091427 0.00653 0.133464 0.074133 0.041445 -0.091571 -0.045369 0.134044 0.214521 -0.018201 0.140205 0.044761 -0.095686 -0.065242 -0.180515 0.142225 -0.08015 -0.070281 0.069301 -0.151004 -0.09636 -0.099988 -0.074041 -0.113629 0.205882 0.003821 0.154743 -0.082674 0.101634 -0.235746 -0.019434 -0.097555 -0.074315 -0.022384 -0.050897 -0.07317 -0.046602 0.032318 -0.113086 -0.159978 -0.033973 0.136774 -0.052974 -0.093702 -0.035339 0.048024 0.198333 -0.23885 -0.060935 0.145458 0.044467 -0.117313 0.097491 8.83E-4 0.072153 0.001622 -0.186894 -0.08286 -0.072155 -0.215288 0.015905 0.079732 -0.101057 -0.038303 0.121024 -0.028532 -0.169589 -0.127638 -0.103225 -0.131157
-0.133852 0.098538 0.166613 0.686558 0.085591 0.055974 -0.29899 0.009321 -0.310438 -0.162091 0.222959 0.315734 -0.205051 0.403908 -0.093932 0.385403 0.660168 -0.023473 -0.165562 0.06259 -0.168704 0.7865 0.539483 0.540286 0.027395 -0.09905 0.437054 0.266658 -0.045127 -0.379841 0.221481 0.186723 -0.341539 0.020051 -0.783491 -0.254154 -0.153968 0.141835 -0.125349 -0.466023 0.001403 -0.668996 0.225816 -0.300644 0.070173 -0.034806 -0.007868 0.212294 0.654371 -0.085911 -0.006537 -0.182451 0.289546 -0.723011 0.181001 -0.352401 -0.244305 0.293308 -0.404284 -0.614926 -0.306964 0.229709 0.034257 -0.042021 -0.143309 -0.214849 -0.126245 -0.336167 -0.187085 -0.142932 0.425687 0.263332 0.202756 0.293969 -0.368969 0.037276 0.07471 0.026815 -0.405073 0.349222 0.111507 -0.139426 0.160534 -0.254668 0.00468 -0.21928 -0.266431 0.228603 -0.130277 0.61522 -0.48205 0.101208 -0.286331 0.128638 0.414031 -0.506121 -0.365745 0.25682 -0.419829 -0.106838
-0.247907 0.136389 -0.118536 -0.277564 0.353928 0.014051 0.127364 0.147748 0.059883 0.118456 0.090715 0.07545 -0.168122 -0.002551 0.075375 -0.066232 -0.152994 0.053974 0.237204 -0.276662 0.217891 -0.135369 -0.023774 0.063988 0.152534 0.054484 0.164135 -0.017642 -0.119379 0.108 -0.105857 -0.214758 0.150082 0.208352 0.181874 -0.051021 0.088395 -0.017307 0.140513 0.027654 0.070626 -0.155827 0.139852 -0.12763 -0.072213 -0.041838 -0.065585 0.211675 0.053639 -0.160605 0.109744 -0.126634 0.148564 0.070804 -0.190834 0.089696 -0.027477 -0.103061 -0.053554 0.132251 0.146289 0.240034 0.21979 0.093103 -0.068046 0.186375 0.182283 0.149662 0.067834 0.289889 0.014849 0.133909 -0.034016 -0.017832 -0.181238 -0.038881 0.041068 -0.097541 0.013278 0.118309 -0.046443 0.027269 0.108792 -0.069659 -0.049207 0.081945 -0.077391 0.056547 -0.174597 -0.171833 -0.064645 0.045305 -0.144928 -0.073052 0.016197 0.024287 -0.040476 -0.113868 -0.045621 0.209281
-0.144591 -0.01706 0.004047 0.061329 -0.05038 -0.032448 -0.134613 0.148859 -0.141322 0.037844 -0.113941 -0.012286 -0.177462 -0.036696 0.023328 0.085298 -0.108827 -0.093124 0.072502 0.054801 0.04611 0.005612 0.004772 0.078731 0.052579 0.156838 0.035949 -0.074413 -0.176108 -0.099363 0.091427 0.00653 0.133464 0.074133 0.041445 -0.091571 -0.045369 0.134044 0.214521 -0.018201 0.140205 0.044761 -0.095686 -0.065242 -0.180515 0.142225 -0.08015 -0.070281 0.069301 -0.151004 -0.09636 -0.099988 -0.074041 -0.113629 0.205882 0.003821 0.154743 -0.082674 0.101634 -0.235746 -0.019434 -0.097555 -0.074315 -0.022384 -0.050897 -0.07317 -0.046602 0.032318 -0.113086 -0.159978 -0.033973 0.136774 -0.052974 -0.093702 -0.035339 0.048024 0.198333 -0.23885 -0.060935 0.145458 0.044467 -0.117313 0.097491 8.83E-4 0.072153 0.001622 -0.186894 -0.08286 -0.072155 -0.215288 0.015905 0.079732 -0.101057 -0.038303 0.121024 -0.028532 -0.169589 -0.127638 -0.103225 -0.131157
-0.113592 0.021734 -0.107796 -0.055351 -0.254265 0.192693 -0.030184 -0.204755 -0.032514 0.111876 -0.069056 0.148943 0.022106 0.088739 -0.244831 0.054588 0.057001 -0.117027 -0.09707 -0.196372 0.046108 0.042787 0.105808 -0.087283 -0.181546 0.031456 -0.306925 -0.052706 0.028012 -0.156616 0.123923 -0.102664 -0.039407 -0.158384 0.032382 0.027736 -0.137251 -0.065033 -0.151039 -0.159096 -0.019389 0.092833 0.082254 0.212047 0.073603 0.018875 -0.01008 -0.040293 0.133672 0.113824 -0.128214 0.137444 0.021716 0.077402 0.033978 -0.009936 0.113947 0.065402 -0.020108 0.037263 0.100731 0.145186 0.110231 -0.145082 -0.027738 -0.002764 0.073832 0.061556 0.159483 0.005298 -0.093692 0.075918 0.096387 0.016326 0.17705 -0.051498 -0.021815 -0.081634 0.07395 0.065289 0.015232 0.069114 0.302198 -0.206156 -0.038991 0.009985 0.007459 -0.126381 0.025956 0.155047 0.010664 -0.107695 -0.057463 -0.109059 0.189162 -0.332972 0.179268 -0.195442 -0.156902 0.018572
-0.033446 -0.003951 0.165486 0.047881 -0.070991 0.040324 0.020776 0.034316 -0.032279 0.089928 0.137709 0.031776 -0.028871 -0.001 -0.043865 0.177724 0.031044 0.144452 -0.006724 0.057533 -0.108526 0.105335 0.127636 -0.0015 -0.17239 0.024142 -0.161529 -0.106888 0.174055 0.030573 -0.080603 0.012311 -0.03995 0.137466 -0.123416 -0.095794 0.054333 -0.034463 0.080243 0.043666 -0.052168 0.023173 0.042502 0.108558 0.024914 -0.102279 -0.007208 0.041751 -0.186924 0.061631 0.080769 -0.105901 -0.001814 0.019081 0.055371 -0.064946 -0.024509 -0.121468 0.128267 -0.055238 -0.024007 -0.07861 0.060585 -0.041837 -0.080359 0.041693 0.081294 -0.101496 -0.071196 -0.067272 -0.094261 0.035191 -0.041029 -0.022958 0.080925 -0.130239 0.025133 -0.0539 -0.09403 -0.140185 -0.118056 0.047829 0.088009 -0.067574 0.014884 0.002841 0.004273 0.005297 -0.044595 0.080307 -0.004684 0.019002 -0.006039 0.019218 -0.002705 -0.102984 0.045653 0.047906 -0.034795 -0.022844
0.0125 -0.006356 0.031141 -0.012653 0.201116 -0.030747 -0.156059 0.136295 -0.10545 0.006327 0.132893 0.165453 -0.057437 0.015495 0.252975 0.016743 -0.090193 -0.003628 -0.018946 0.101727 -0.080913 0.023345 0.025384 -9.3E-5 -0.215605 -0.171714 0.066589 -0.111749 0.019986 0.078367 -0.05179 -0.069377 -0.138546 0.004044 -0.226068 -0.049643 0.007491 0.157014 0.138155 0.087859 -0.177158 0.083563 -0.029203 -0.047579 -0.174316 -0.042568 0.030637 0.085501 0.086956 0.117641 -0.220909 -0.104154 -0.135317 -0.055959 -0.178538 -0.107764 0.183665 -0.018237 -0.023672 -0.071728 0.116753 -0.046655 0.163354 -0.003011 -0.194007 0.162643 0.168918 -0.045305 0.11578 0.122089 0.201399 -0.003951 -0.006808 -0.065458 0.178304 -0.175738 -0.113011 0.033517 -0.162456 -0.009783 -0.022234 0.137287 -0.035209 -0.155346 0.012763 0.061517 0.110342 0.154664 0.262345 0.039824 -0.056593 -0.027583 -0.058768 0.046709 0.044653 0.01072 -0.038933 0.004946 -0.156442 0.126234
0.239869 -0.014069 0.022117 -0.163529 0.284262 -0.122832 0.023058 0.003359 0.063284 -0.114743 -0.097246 -0.063813 0.161394 -0.092454 0.10904 0.030443 0.059157 0.092244 -0.085519 -0.029831 -0.016015 0.031509 0.166406 0.107922 -0.06308 -0.260537 -0.021238 -0.02237 -0.076685 -0.19545 -0.141439 -0.125726 -0.049243 0.115075 -0.15104 -0.173566 0.176713 -0.19783 0.176081 0.084286 0.055459 0.113771 -0.028266 0.088967 0.019613 -0.174621 -0.077167 -0.184821 -0.11703 0.110373 0.005299 -0.02298 -0.204521 -0.124152 -0.199796 0.007573 0.037702 0.065079 0.115265 -0.025127 0.002142 -0.099919 0.155592 -0.010232 0.038602 0.114798 -0.038394 -0.05721 -0.150826 -0.195895 -0.047824 0.112566 -0.040814 0.095983 0.140101 0.035469 -0.088849 -0.033525 -0.047059 0.123215 -0.217172 0.076343 0.048417 -0.02995 0.226778 -0.014919 0.057473 -0.097176 0.068374 0.28277 -0.014645 -0.051332 0.029819 -0.064586 0.056218 -0.092123 -0.034001 0.20866 0.033888 0.047539
-0.089712 0.007848 0.012629 0.065429 0.041631 0.100514 -0.034368 -0.111556 0.106337 -0.092196 -0.21623 0.010814 0.081395 0.084733 0.265044 -0.073327 0.079481 0.078686 0.304876 0.109826 -0.10464 0.035457 -0.111935 -0.039079 -0.081577 -0.154843 -0.146263 -0.077171 0.345002 -0.14379 0.044819 -0.05014 0.016006 -0.055961 -0.005092 -0.109836 -0.018816 0.074496 0.072223 -0.115007 0.065996 0.005896 0.024485 0.059913 0.223341 -0.110677 -0.038621 -0.048468 -0.092362 0.158544 0.175042 -0.03226 -0.150672 -0.003421 0.221171 0.223929 -0.114552 0.119556 0.003761 -0.002178 0.06602 -0.095944 -0.072484 -0.121138 -0.035258 -0.007152 -0.137867 -0.013036 0.117318 -0.086232 -0.20318 0.033402 0.02138 -0.070048 0.08982 -0.045666 0.064289 -0.110156 0.167763 -0.291921 0.08956 0.131763 -0.047938 -0.187648 -0.12642 0.030396 -0.09325 0.17436 0.169548 0.050727 -0.165986 0.033857 -0.008825 0.154651 -0.140299 -0.115698 -0.209645 -0.209293 0.091343 -0.017085
-0.890678 0.059938 1.815377 -2.36158 -0.743707 0.105003 -2.565211 -1.546759 -0.236864 -0.454791 -0.42549 0.511464 -2.515728 1.797961 -0.482668 1.110062 -0.889068 -0.890036 0.775525 -0.918713 0.799193 1.779235 2.307447 -0.521531 0.614595 1.570031 1.136432 -3.38529 -0.182539 -0.615678 0.382121 -1.067453 0.030349 -1.294266 -0.387474 1.821113 -3.62192 -0.64428 0.875894 -0.452294 2.476485 -1.11769 0.674445 -2.140893 -0.498068 -2.065002 2.344599 -0.078678 -1.832834 0.87494 -2.391624 0.694969 3.067447 -3.238687 0.569656 -2.941819 0.272065 0.640931 -0.601232 3.153293 1.22417 0.25807 -1.466485 -1.407365 -2.384528 -2.49932 0.008595 -1.847309 1.132072 0.146427 -0.146505 -0.837883 0.103396 -1.445956 1.025591 -4.521006 0.948407 -0.600785 0.882803 -0.51324 1.279734 -2.090384 2.34931 1.566642 1.100794 2.189514 1.847448 -0.585611 -1.896511 -1.162898 -1.508562 -0.22747 0.616038 1.541672 -2.723373 -3.72575 0.50034 -0.504161 -1.24857 0.452768
0.022408 -0.004484 0.041233 -0.181128 -0.105222 0.040901 -0.188063 -0.167848 0.086843 0.071929 0.112516 -0.001719 0.036754 0.029108 0.086897 0.052245 0.028252 -0.002953 0.058955 0.020434 0.101536 -0.117024 0.171091 0.122319 0.105072 0.054777 0.153279 -0.254705 0.035013 0.114549 -0.034112 0.019412 -0.030277 0.073379 0.131801 -0.180919 -0.040365 0.223825 0.095708 0.07456 -0.015576 -0.029508 -0.233976 0.069143 0.095534 -0.116328 -0.001178 -0.097875 -0.047768 0.045921 -0.120447 -0.173899 0.121618 -0.076799 0.011295 -0.039886 0.096864 0.127692 -0.060079 -0.074577 0.079669 0.139867 -0.106427 -0.132574 -0.123958 -0.178203 0.040802 -0.176901 -0.006477 -0.229715 -0.039158 0.027094 0.097377 0.082212 0.081845 0.064988 -0.047587 -0.025194 -0.051219 -0.116643 -0.022519 -0.049379 0.059675 -0.112087 -0.130033 -0.027202 -0.062096 0.037956 0.119603 0.121688 0.089532 0.031967 0.178544 0.041655 0.131254 -0.041192 0.091131 0.060617 0.039615 -0.217264
-0.001256 0.023038 0.09635 0.038522 -0.007318 -0.081515 -0.114676 -0.159545 -0.028368 0.043293 0.172582 0.148768 0.050989 -0.099594 0.033886 0.111356 -0.047878 0.126617 0.021198 -0.004038 -0.141936 0.059107 0.2422 0.034709 -0.125961 0.005595 -0.038627 0.069103 0.102428 0.010573 -0.026078 -0.018599 0.014938 -0.0089 -0.195041 -0.092427 0.054984 0.017644 -0.035551 0.069615 -0.024581 0.218525 0.066551 0.135332 0.012692 -0.096675 -0.082869 0.033904 -0.137602 0.039599 0.055561 -0.055411 -0.020377 0.040375 0.038131 -0.056374 -0.008954 -0.029237 -0.055383 0.002254 0.0819 -0.198616 -0.077137 -0.044265 0.034735 0.024564 0.067035 0.109545 0.034873 -0.132638 -0.038354 -0.001736 -0.126343 0.015645 -0.039726 0.050784 -0.01816 0.111201 -0.076343 -0.058805 -0.077573 0.071917 0.088462 -0.091142 0.130231 -0.040646 0.18843 0.008816 0.158621 0.160052 -0.187311 -0.031462 0.032518 0.031541 -0.130325 -0.118773 0.007507 0.110758 -0.147518 -0.057813
-0.172879 -0.116147 0.089794 0.257275 0.040147 -0.094544 0.07892 -0.145054 0.084347 -0.171475 -0.004658 -0.147659 -0.13682 0.068627 0.131969 -0.058517 -0.180228 -0.01359 -0.060915 -0.244909 -0.041058 -0.09017 0.189432 0.055615 -0.065959 -0.049447 -0.125167 0.109016 0.108098 -0.03439 -0.233722 -0.041266 -0.127828 0.235835 -0.095746 0.064765 -0.228829 -0.034687 0.11849 0.151573 -0.004453 -0.185759 -0.008172 0.179662 -0.070623 0.006213 -0.136559 -0.033468 -0.069012 0.045551 0.103641 -0.071738 -0.040175 -0.079173 -0.188381 -0.026078 -0.025627 -0.007764 0.072106 0.058086 -0.033106 -0.135013 0.083283 0.048923 0.085488 -0.062056 0.039898 0.069596 -0.186403 0.033921 0.054974 -0.055581 -0.206939 -0.11205 0.122712 0.032655 -0.112008 -0.267124 -0.10249 -0.206276 0.231471 -0.228737 0.100603 0.108841 -0.085512 0.091102 0.110742 -0.010611 0.215564 -0.041238 0.071492 0.103662 -0.084139 0.007729 0.007861 0.005413 -0.189397 0.077279 0.244125 0.126077
-0.133171 0.07267 0.150127 0.017286 0.007353 0.163232 0.133741 -0.195195 -0.188102 0.003456 -0.2784 0.091006 -0.258535 -0.056465 0.392257 0.198061 -0.127876 -0.194359 -0.131834 0.07383 0.049799 0.034818 0.374566 0.162013 -0.04243 -0.121716 -0.155289 0.207693 0.163184 -0.18169 0.069944 -0.198635 0.006388 0.099751 -0.053914 -0.083748 0.214197 0.121498 -0.010874 -0.052318 0.043991 -0.08516 0.070206 0.087895 0.074792 0.027296 0.034846 -0.216629 0.010482 -0.103523 0.148766 -0.06199 0.036962 0.056296 0.001824 -0.002639 -0.095132 0.027857 -0.025811 -0.226189 0.066145 0.066684 0.013032 -0.038828 -0.107837 -0.053667 -0.074134 0.081482 -0.087255 0.308307 0.07753 0.05896 0.138613 0.003397 -0.067919 0.042912 0.280948 8.88E-4 -0.120076 0.06493 -0.108621 -0.165791 0.055443 -0.077234 0.022961 -0.060494 -0.002728 0.040448 -0.055311 0.050302 0.111676 0.085724 -0.137658 0.188317 0.120659 0.041778 -0.069715 -0.029423 -0.124513 0.053864
-0.007132 -0.18519 -0.063269 0.049527 -0.20521 0.087511 -0.069538 0.028023 -0.168299 -0.044057 0.0445 0.13101 -0.046667 -0.03587 0.025718 0.08438 0.018756 -0.02661 -0.009569 0.082158 0.037022 0.03711 0.435223 -0.062578 -0.138381 -0.131449 0.163039 0.027321 0.091246 -0.10472 0.24872 -0.139943 0.069912 -0.019539 -0.019039 -0.082957 0.133316 -0.119748 -0.041082 0.076728 -0.131855 0.048518 0.204273 -0.004312 -0.091912 -0.164885 -0.03237 0.051997 -0.027426 0.07883 -0.012739 0.026847 -0.018776 -0.013892 0.101298 -0.051246 0.201251 0.099612 -0.078589 -0.126854 0.260979 0.055039 -0.066313 0.043554 -0.165016 -0.120442 0.004475 -0.021506 0.21412 -0.029003 0.047951 -0.12731 -0.138379 0.019404 0.117727 0.085571 -0.148573 -0.162643 0.021942 -0.099382 -0.162093 0.007912 0.118557 -0.218859 -0.056914 0.010527 0.034537 0.062189 0.048273 0.046315 -0.139365 -0.081218 -0.118315 0.138816 -0.138099 -0.071623 0.219011 -0.131635 -0.202791 0.100778
0.040517 -0.20564 -0.053352 -7.75E-4 -0.128679 0.095758 0.03873 -0.058335 -0.009842 0.151468 0.068839 -0.005445 0.028987 0.041145 -0.005778 0.076719 -0.090412 0.15763 0.013815 -0.027854 -0.037322 -0.298763 -0.159082 -0.084004 -0.030025 0.064903 0.098739 -0.043286 0.008555 0.00985 -0.115479 -0.094033 -0.033682 0.067745 -0.030303 -0.003434 -0.045369 0.045091 0.155477 -0.050492 -0.159943 0.217662 -0.003418 -0.116908 -0.02661 -0.101249 -0.028401 0.019802 0.099572 -0.056238 -0.041529 0.142784 -0.206206 0.0449 -0.178965 0.174909 -0.226178 -0.048884 -0.035528 -0.070908 -0.05632 -0.338538 0.089688 0.048594 -0.121645 0.098606 0.091253 0.128031 0.034668 0.058593 0.036565 0.007979 0.057332 -0.15145 -0.074082 0.131631 0.111836 0.018485 -0.104802 0.084619 -0.108381 -0.008198 0.136464 0.03574 -0.170954 0.212636 -0.072952 0.048831 0.024961 -0.031093 -0.016074 -0.128623 -0.01216 -0.23526 0.05221 -0.086082 0.012199 0.13351 0.102033 0.083242
-0.321051 -5.982152 3.681155 -4.050179 -2.948045 4.554063 -5.132358 0.736413 0.367667 -2.771314 -2.825014 0.475863 -3.005293 -0.321177 -3.429025 -2.26775 -2.479006 -0.386916 -2.050865 1.783429 0.144251 -4.718711 -2.02897 1.336526 -4.506418 -1.790883 3.300767 -1.385269 2.088806 -1.640267 -1.095156 0.700922 -3.002581 -1.810791 -1.619578 0.14697 3.522589 -0.331814 -9.544651 1.027236 5.690997 -1.261448 0.909086 2.917407 4.191034 6.321394 3.131102 5.874175 -3.331787 -2.400714 3.951603 0.684037 -4.159357 -3.109079 1.192322 -3.941014 -4.178263 -1.857713 -3.691467 4.819512 -1.872126 0.786209 -0.817229 1.874039 -1.645297 0.03793 -5.752268 2.43842 -1.164518 0.026441 0.007042 1.667224 1.225551 0.8295 -2.07549 1.759887 -0.379935 1.164948 -0.711065 -3.287236 0.845475 0.012777 4.062068 7.260866 3.119361 -0.968796 1.028001 -0.002188 -4.00993 0.766716 3.624426 -0.647796 -2.517512 5.454072 1.905255 -1.113396 -2.096104 -0.081185 -2.847684 -1.085913
