0.065293 0.125328 0.047517 0.101579 0.239204 -0.032909 0.091249 -0.268676 -0.200299 -0.062418 -0.148884 0.200596 -0.164423 0.086752 -0.004277 -0.003788 -0.210687 0.021066 -0.059793 0.070649 -0.086241 0.093167 0.26656 -0.38652 0.040532 -0.033728 0.061649 0.349691 0.098071 0.155348 0.007041 0.029216 0.030356 0.121543 -0.116491 -0.049152 0.340361 -0.092031 0.067232 -0.082542 0.19359 -0.082622 0.020129 0.017139 -0.088447 -0.125735 0.097803 -0.133369 0.071885 0.136886 -0.099415 0.151644 -0.143832 0.165491 -0.184189 -0.034039 -0.062455 -0.052868 0.190477 -0.140846 -0.053768 0.126428 -0.238267 -0.137597 -0.04409 0.084917 0.16301 0.246386 0.216856 -0.087721 -0.063226 0.101558 -0.368357 0.146025 -0.152885 -0.042397 -0.264961 -0.079635 -0.144328 0.019048 0.035422 -0.03887 -0.05916 -0.136405 -0.027318 0.017228 0.044776 0.025228 0.158469 0.158712 0.042441 -0.012794 -0.301657 0.070901 0.041701 0.041495 0.138091 0.357448 -0.283685 -0.258274
-0.111222 0.039124 -0.113704 0.00348 0.147556 0.222705 0.072442 0.109251 -0.062309 -0.034227 -0.070104 0.032923 -0.100164 -0.013077 -0.050603 0.138185 0.135583 0.052445 0.194674 0.365864 0.362126 0.278103 0.066463 -0.158667 -0.023758 -0.27085 0.015972 0.142344 0.124873 -0.021056 -0.175286 -0.100711 -0.082826 0.219094 -0.129399 -0.123152 0.069609 -0.381872 0.206404 -0.154798 -0.066262 0.209244 -0.106105 0.30893 0.131289 0.003943 -0.081096 0.069744 0.165617 -0.059466 -0.169959 -0.126711 -0.201185 -0.150701 0.041894 -0.169988 0.351785 0.098326 0.150179 0.020852 0.11643 -0.125348 -0.162041 -0.082338 -0.132177 -0.162636 -0.059407 0.093177 0.058427 -0.370672 -0.001548 0.178278 -0.020524 -0.142637 -0.047166 -0.098101 -0.266345 0.288026 -0.168086 0.072564 0.014027 0.077889 -0.322414 0.280058 0.113879 -0.079234 -0.034986 -0.078511 0.051622 -0.049322 0.06797 -0.072902 -0.072379 -0.005969 -0.201419 -0.176588 0.281967 0.11306 -0.067353 -0.30201
-0.06302 -0.152009 0.275411 0.17777 -0.001871 -0.059707 -0.166029 -0.12287 -0.060277 0.030052 0.023436 0.142641 -0.002569 0.101569 0.105459 0.153965 -0.044383 0.172614 0.146829 0.009084 -0.130416 0.21207 0.043144 -0.0822 -0.184854 -0.190981 -0.056765 -0.137035 0.185884 0.044722 -0.199689 -0.156702 -0.061075 0.130773 -0.09084 -0.209773 -0.059749 -0.083598 0.083996 0.021238 0.011203 0.289189 -0.078906 0.003201 0.082624 -0.152361 0.064333 0.059794 -0.055301 0.045637 -0.040049 -0.05679 -0.073445 0.077359 -0.004152 -0.06862 0.061543 0.03169 0.020473 -0.014971 0.08488 -0.255411 0.010016 -0.178567 0.021488 0.043566 0.106286 0.023651 0.254846 -0.123738 -0.04786 0.04025 -0.039901 -0.077139 -0.021968 0.018057 -0.101277 0.052426 -0.089837 -0.078773 0.075959 0.153494 0.022509 -0.27042 0.076782 -0.015081 0.019306 -0.251098 0.118902 0.002501 0.040935 -0.0581 -0.019349 0.101849 -0.076787 -0.050659 0.110967 -0.047919 -0.058948 -0.169335
-0.072674 -7.172178 3.243542 -3.416216 -3.078808 6.196021 -4.841667 1.097196 -0.069161 1.281094 -1.867299 2.00664 -3.509578 -1.91784 -3.71946 -1.31319 -2.045076 0.300286 -1.171953 -1.055153 0.413733 -4.900678 -1.569404 0.87886 -2.045129 -1.808549 3.916455 -0.208298 2.321721 -2.340044 -1.758158 0.426659 -1.302078 -0.956855 -1.534045 -0.5092 3.699516 -1.615464 -4.803689 1.209575 2.470521 -1.772277 -1.289194 0.075271 2.969475 5.294761 1.165935 1.551812 -2.864125 -2.655352 5.174971 1.730763 -3.638956 -1.622863 -1.08695 -1.558467 -3.220565 0.142856 -2.906218 2.40766 -2.416126 -0.276478 1.480663 0.762824 -0.901475 0.444124 -2.828977 2.000263 -3.260752 0.442676 2.227862 0.843619 -0.517631 -1.033588 -2.178106 1.253474 -1.086825 1.923508 1.341381 -3.757782 1.47075 1.992821 3.822498 6.974607 4.826773 0.101915 1.476335 -1.446077 -2.964966 2.275137 5.51195 -1.78916 -2.196929 -0.36233 1.699235 -0.269662 -2.034092 -1.169337 -1.898828 -0.46444
-0.062574 -0.108973 -0.145495 0.055877 -0.155858 0.08921 -0.013244 -0.044042 -0.043853 -0.179456 -0.149593 -0.276282 -0.001934 -0.07495 -0.301756 -0.008448 0.137368 0.074711 0.090139 -0.032402 -0.00457 0.257405 -0.018398 0.144576 -0.11541 0.112658 -0.026886 -0.052581 0.080135 -0.007777 0.103466 0.154032 -0.018474 0.099379 -0.132567 -0.066842 -0.028204 -0.023463 0.334049 0.074622 -0.076538 -0.165406 -0.050037 -0.037745 -0.066966 0.004024 -0.091949 -0.059625 0.018915 -0.112114 -0.255192 0.030431 -0.04758 -0.082147 -0.075611 -0.148433 0.043028 -0.108469 0.148797 0.185136 0.151357 -0.002854 0.089053 0.074919 -0.207584 0.113768 -0.108715 -0.026869 0.080747 -0.186707 -0.025322 -0.006177 -0.084312 0.049932 0.029048 0.016667 0.036115 -0.158789 -0.011694 0.216654 -0.055802 -0.163875 0.180262 0.061505 -0.101957 0.063434 -0.019946 0.114447 -0.027701 0.144657 -0.051446 0.095036 -0.004411 -0.187423 0.273024 -0.171534 -0.137943 -0.043453 -0.056878 0.123849
-0.087255 -0.05591 0.054305 -0.024922 0.12279 0.041971 0.011628 -0.098172 0.13061 0.088978 0.139548 0.154385 0.10967 -0.074364 0.077608 0.342633 -0.019875 0.008986 0.121981 0.055307 -0.003396 0.250389 -0.003606 -0.027202 -0.077535 -1.16E-4 -0.00206 0.156913 0.196292 -0.041947 -0.256602 -0.075561 -0.331833 -0.028169 -0.227118 -0.023069 -0.031505 -0.123196 0.067817 0.109003 -0.150311 -0.176863 -0.003222 0.297853 0.06886 0.054723 0.197442 -0.009663 0.124548 -0.115984 -0.107457 -0.134223 -0.057877 0.014351 -0.020055 -0.038021 0.086742 0.251573 0.36257 0.003758 0.053095 -0.086013 -0.02227 -0.136233 -0.017961 0.053643 0.053971 -0.264445 0.141244 -0.001727 0.102822 -0.045402 0.072919 -0.05572 -0.011331 -0.015733 -0.123198 -0.088768 0.042072 -0.014455 -0.084923 -0.030051 0.101633 -0.145179 0.084003 0.006179 0.137993 -0.044962 0.159725 0.029218 -0.030525 -0.103093 -0.1477 -0.002794 0.039423 -0.078334 0.05768 0.210979 -0.090714 -0.257268
-0.113883 -0.053133 0.103651 0.129878 -0.112306 -0.165096 -0.158043 -0.009701 0.077694 0.086665 -0.010783 0.0963 0.008409 -0.006248 -0.105114 0.038636 -0.098267 0.299637 9.91E-4 -0.002289 -0.142046 0.075726 0.321965 0.045805 -0.106918 -0.131055 -0.100605 -0.036875 -0.104213 -0.080234 0.049934 -0.014063 -0.034637 -0.065565 -0.052302 0.076487 -0.108786 0.099468 0.040548 0.134465 0.039579 0.063567 0.061831 -0.049868 0.181939 -0.046349 -0.031614 0.121431 -0.098987 0.065895 0.025172 0.065244 -0.12025 -0.009974 0.093857 -0.029358 -0.007716 0.031173 0.037331 0.019002 0.110549 -0.202989 0.092557 0.037267 0.026696 0.070472 -0.017565 -0.005648 -0.0348 -0.104546 -0.099691 0.014667 -0.079396 -0.070162 0.080361 -0.027952 -0.140434 -0.126013 -0.019881 -0.081448 -0.016999 0.001899 0.006051 -0.186743 0.049392 0.133467 0.010533 0.04777 0.093483 -0.019256 -0.158472 0.119421 -0.084195 0.122315 0.035147 -0.173554 0.159985 0.050011 0.072765 -0.065922
-0.634129 -0.116628 -0.403844 1.589822 -0.216009 1.455066 -0.529508 0.771788 -0.648176 -2.453316 1.917732 -0.800627 3.276225 -1.54024 -1.498602 0.444358 -1.190708 -2.87305 -2.718677 -1.564559 0.008554 1.554967 -2.085095 -1.524454 -3.697245 -3.801369 -0.841317 0.30622 -1.846837 5.341967 -2.401416 -3.074007 -1.053654 0.868767 -1.749135 0.827992 -0.087086 0.539376 0.64962 1.077137 1.827695 -1.758335 -1.085645 4.210859 -4.128051 -2.368457 -2.576973 -0.731455 1.527519 0.22005 6.129143 3.222704 2.375077 0.886784 -3.942258 1.291699 1.961008 0.291086 -0.316456 0.080337 2.467371 0.896314 -1.23679 -0.475635 0.053093 -1.04327 1.411485 -1.402452 -1.840482 1.896568 0.727823 -0.987723 0.75011 3.684237 -0.753541 1.225596 0.910247 -1.166294 1.714927 3.199465 0.764568 0.714025 0.91388 1.021949 0.074568 3.306388 3.836719 1.984248 -1.433158 -0.755905 0.677207 1.989384 -3.407877 1.015886 0.037496 0.975344 -0.479796 2.107396 -2.380342 -0.630028
-0.062574 -0.108973 -0.145495 0.055877 -0.155858 0.08921 -0.013244 -0.044042 -0.043853 -0.179456 -0.149593 -0.276282 -0.001934 -0.07495 -0.301756 -0.008448 0.137368 0.074711 0.090139 -0.032402 -0.00457 0.257405 -0.018398 0.144576 -0.11541 0.112658 -0.026886 -0.052581 0.080135 -0.007777 0.103466 0.154032 -0.018474 0.099379 -0.132567 -0.066842 -0.028204 -0.023463 0.334049 0.074622 -0.076538 -0.165406 -0.050037 -0.037745 -0.066966 0.004024 -0.091949 -0.059625 0.018915 -0.112114 -0.255192 0.030431 -0.04758 -0.082147 -0.075611 -0.148433 0.043028 -0.108469 0.148797 0.185136 0.151357 -0.002854 0.089053 0.074919 -0.207584 0.113768 -0.108715 -0.026869 0.080747 -0.186707 -0.025322 -0.006177 -0.084312 0.049932 0.029048 0.016667 0.036115 -0.158789 -0.011694 0.216654 -0.055802 -0.163875 0.180262 0.061505 -0.101957 0.063434 -0.019946 0.114447 -0.027701 0.144657 -0.051446 0.095036 -0.004411 -0.187423 0.273024 -0.171534 -0.137943 -0.043453 -0.056878 0.123849
-0.029286 -0.014455 0.059149 0.033118 -0.032637 -0.067667 -0.08093 0.027355 -0.160822 0.06104 0.064252 -0.015261 -0.23257 0.159481 0.071223 0.078452 0.02138 0.031978 -0.070376 0.051055 0.167258 -0.024817 0.197827 0.065265 -0.076168 0.011676 -0.029734 0.143341 0.05525 -0.036865 -0.015966 0.031316 0.07905 0.08625 0.02865 0.036293 -0.052834 -0.183621 0.138387 0.091953 -0.154564 -0.126113 -0.090987 0.031969 0.097322 0.022643 -0.092082 -0.019082 -8.9E-4 -0.133906 0.06438 -0.089912 0.03693 0.137816 -0.11469 0.064534 -0.08614 0.001976 0.0226 -0.148874 -0.107001 0.042298 -0.03552 -0.084001 -0.01756 -0.03727 0.068266 -0.097254 0.068175 0.036138 0.111631 0.014317 -0.061953 -0.078465 0.038628 -0.078335 -0.164786 -0.038389 0.117773 -0.136854 0.103996 -0.032816 0.069406 0.009716 -0.086636 0.182745 0.01029 -0.019687 -0.087212 -6.07E-4 0.063293 -0.016581 -0.118043 -0.009156 0.083954 0.032562 0.046468 -0.053734 -0.025457 -0.002224
0.065293 0.125328 0.047517 0.101579 0.239204 -0.032909 0.091249 -0.268676 -0.200299 -0.062418 -0.148884 0.200596 -0.164423 0.086752 -0.004277 -0.003788 -0.210687 0.021066 -0.059793 0.070649 -0.086241 0.093167 0.26656 -0.38652 0.040532 -0.033728 0.061649 0.349691 0.098071 0.155348 0.007041 0.029216 0.030356 0.121543 -0.116491 -0.049152 0.340361 -0.092031 0.067232 -0.082542 0.19359 -0.082622 0.020129 0.017139 -0.088447 -0.125735 0.097803 -0.133369 0.071885 0.136886 -0.099415 0.151644 -0.143832 0.165491 -0.184189 -0.034039 -0.062455 -0.052868 0.190477 -0.140846 -0.053768 0.126428 -0.238267 -0.137597 -0.04409 0.084917 0.16301 0.246386 0.216856 -0.087721 -0.063226 0.101558 -0.368357 0.146025 -0.152885 -0.042397 -0.264961 -0.079635 -0.144328 0.019048 0.035422 -0.03887 -0.05916 -0.136405 -0.027318 0.017228 0.044776 0.025228 0.158469 0.158712 0.042441 -0.012794 -0.301657 0.070901 0.041701 0.041495 0.138091 0.357448 -0.283685 -0.258274
-0.111222 0.039124 -0.113704 0.00348 0.147556 0.222705 0.072442 0.109251 -0.062309 -0.034227 -0.070104 0.032923 -0.100164 -0.013077 -0.050603 0.138185 0.135583 0.052445 0.194674 0.365864 0.362126 0.278103 0.066463 -0.158667 -0.023758 -0.27085 0.015972 0.142344 0.124873 -0.021056 -0.175286 -0.100711 -0.082826 0.219094 -0.129399 -0.123152 0.069609 -0.381872 0.206404 -0.154798 -0.066262 0.209244 -0.106105 0.30893 0.131289 0.003943 -0.081096 0.069744 0.165617 -0.059466 -0.169959 -0.126711 -0.201185 -0.150701 0.041894 -0.169988 0.351785 0.098326 0.150179 0.020852 0.11643 -0.125348 -0.162041 -0.082338 -0.132177 -0.162636 -0.059407 0.093177 0.058427 -0.370672 -0.001548 0.178278 -0.020524 -0.142637 -0.047166 -0.098101 -0.266345 0.288026 -0.168086 0.072564 0.014027 0.077889 -0.322414 0.280058 0.113879 -0.079234 -0.034986 -0.078511 0.051622 -0.049322 0.06797 -0.072902 -0.072379 -0.005969 -0.201419 -0.176588 0.281967 0.11306 -0.067353 -0.30201
-0.06302 -0.152009 0.275411 0.17777 -0.001871 -0.059707 -0.166029 -0.12287 -0.060277 0.030052 0.023436 0.142641 -0.002569 0.101569 0.105459 0.153965 -0.044383 0.172614 0.146829 0.009084 -0.130416 0.21207 0.043144 -0.0822 -0.184854 -0.190981 -0.056765 -0.137035 0.185884 0.044722 -0.199689 -0.156702 -0.061075 0.130773 -0.09084 -0.209773 -0.059749 -0.083598 0.083996 0.021238 0.011203 0.289189 -0.078906 0.003201 0.082624 -0.152361 0.064333 0.059794 -0.055301 0.045637 -0.040049 -0.05679 -0.073445 0.077359 -0.004152 -0.06862 0.061543 0.03169 0.020473 -0.014971 0.08488 -0.255411 0.010016 -0.178567 0.021488 0.043566 0.106286 0.023651 0.254846 -0.123738 -0.04786 0.04025 -0.039901 -0.077139 -0.021968 0.018057 -0.101277 0.052426 -0.089837 -0.078773 0.075959 0.153494 0.022509 -0.27042 0.076782 -0.015081 0.019306 -0.251098 0.118902 0.002501 0.040935 -0.0581 -0.019349 0.101849 -0.076787 -0.050659 0.110967 -0.047919 -0.058948 -0.169335
-0.072483 -0.153446 -0.040155 0.052251 -0.170043 0.148478 0.100226 -0.160464 -0.109759 0.168298 0.219223 0.102042 -0.138442 -0.268076 0.110624 0.137683 -0.130861 0.073583 0.044772 0.15071 -0.064718 -0.03111 0.016906 -0.134438 -0.213888 -0.14675 0.120559 0.066266 0.113945 -0.231543 -0.208583 -0.077391 -0.169914 0.162375 -0.305591 -0.250691 0.141491 -0.103359 0.086753 -0.002678 -0.024249 -0.108447 0.236118 0.100982 -0.041716 0.026556 0.003183 0.020262 0.012499 0.029556 0.115098 -0.115137 -0.040177 0.056733 -0.039765 -0.151743 -0.064624 0.117997 -0.20965 -0.148433 -0.168087 -0.055897 0.226185 -0.162535 -0.110505 0.012207 -0.127858 -0.094511 0.044272 0.218487 -0.047439 0.031751 0.019664 -0.014026 -0.01387 -0.054654 -0.109719 7.05E-4 -0.017007 -0.035983 0.05436 0.164784 0.18969 -0.013743 0.113008 0.012103 -0.139759 0.15396 -0.001822 -0.013078 -0.009957 -0.214008 -0.036 0.020388 0.051009 -0.013952 0.009186 0.209307 -0.167453 -0.052211
2.591633 1.608701 -2.087245 2.00752 3.012652 4.995656 0.847355 -1.594905 -0.365708 -1.629805 -1.650237 3.712017 -0.231463 -0.537534 -2.036098 2.002639 -0.696666 -4.310136 -1.477319 -1.356504 -0.581823 -1.830239 -0.272773 -1.648095 0.090509 0.008711 0.330842 0.396714 2.341035 -0.526067 1.155793 -1.730906 -1.010387 -1.342646 -1.939355 0.734869 0.727366 0.700702 1.516974 -2.133831 -0.280653 -3.051674 0.017123 0.532043 1.478449 0.375441 0.920129 1.548929 1.087478 0.668327 0.707416 3.249232 -0.362503 1.273221 -2.929682 -0.245389 1.633444 -0.119836 0.103459 -3.445175 0.513245 0.427807 0.738792 1.448203 0.501908 0.362882 -0.731533 -0.391201 0.037778 3.053553 4.030229 1.793904 1.24136 0.081706 -1.401954 -0.638804 -0.487445 -0.267924 0.012844 0.538179 -0.241935 -0.068756 1.351665 -0.112558 0.001814 0.447262 0.833441 -0.023876 1.212707 1.514635 -0.568611 0.376173 -3.663739 -4.345135 -0.444319 2.139788 -2.53093 0.92131 -1.399435 1.763954
-0.062574 -0.108973 -0.145495 0.055877 -0.155858 0.08921 -0.013244 -0.044042 -0.043853 -0.179456 -0.149593 -0.276282 -0.001934 -0.07495 -0.301756 -0.008448 0.137368 0.074711 0.090139 -0.032402 -0.00457 0.257405 -0.018398 0.144576 -0.11541 0.112658 -0.026886 -0.052581 0.080135 -0.007777 0.103466 0.154032 -0.018474 0.099379 -0.132567 -0.066842 -0.028204 -0.023463 0.334049 0.074622 -0.076538 -0.165406 -0.050037 -0.037745 -0.066966 0.004024 -0.091949 -0.059625 0.018915 -0.112114 -0.255192 0.030431 -0.04758 -0.082147 -0.075611 -0.148433 0.043028 -0.108469 0.148797 0.185136 0.151357 -0.002854 0.089053 0.074919 -0.207584 0.113768 -0.108715 -0.026869 0.080747 -0.186707 -0.025322 -0.006177 -0.084312 0.049932 0.029048 0.016667 0.036115 -0.158789 -0.011694 0.216654 -0.055802 -0.163875 0.180262 0.061505 -0.101957 0.063434 -0.019946 0.114447 -0.027701 0.144657 -0.051446 0.095036 -0.004411 -0.187423 0.273024 -0.171534 -0.137943 -0.043453 -0.056878 0.123849
-0.087255 -0.05591 0.054305 -0.024922 0.12279 0.041971 0.011628 -0.098172 0.13061 0.088978 0.139548 0.154385 0.10967 -0.074364 0.077608 0.342633 -0.019875 0.008986 0.121981 0.055307 -0.003396 0.250389 -0.003606 -0.027202 -0.077535 -1.16E-4 -0.00206 0.156913 0.196292 -0.041947 -0.256602 -0.075561 -0.331833 -0.028169 -0.227118 -0.023069 -0.031505 -0.123196 0.067817 0.109003 -0.150311 -0.176863 -0.003222 0.297853 0.06886 0.054723 0.197442 -0.009663 0.124548 -0.115984 -0.107457 -0.134223 -0.057877 0.014351 -0.020055 -0.038021 0.086742 0.251573 0.36257 0.003758 0.053095 -0.086013 -0.02227 -0.136233 -0.017961 0.053643 0.053971 -0.264445 0.141244 -0.001727 0.102822 -0.045402 0.072919 -0.05572 -0.011331 -0.015733 -0.123198 -0.088768 0.042072 -0.014455 -0.084923 -0.030051 0.101633 -0.145179 0.084003 0.006179 0.137993 -0.044962 0.159725 0.029218 -0.030525 -0.103093 -0.1477 -0.002794 0.039423 -0.078334 0.05768 0.210979 -0.090714 -0.257268
0.166865 -0.033351 -0.013364 -0.059014 -0.095169 -0.021507 -0.126788 0.103728 -0.200711 -0.063152 0.044354 0.134222 0.002393 0.071524 0.209815 0.100187 0.025401 0.083631 0.120448 0.173878 -0.091184 0.033918 0.054121 0.121356 -0.168415 -0.048991 -0.209931 -0.016042 0.202225 -0.007166 -0.110802 -0.028926 -0.11468 0.016808 -0.064513 -0.05835 -0.015135 0.093734 0.167046 -0.014056 0.02555 -0.101082 -0.016676 -0.00246 -0.017495 0.184926 -0.038011 -0.106257 0.001132 0.03659 0.080797 -0.16487 -0.164051 -0.024617 0.144233 0.037146 0.064814 -0.135114 0.218106 -0.087954 0.024218 -0.008723 0.020657 -0.10933 -0.0401 -0.009808 -0.283523 0.179888 -0.016468 0.100665 -0.045627 0.125868 0.040189 0.113707 0.238166 -0.079786 0.009467 -0.061173 -0.064632 -0.277119 0.084403 -0.091058 0.212317 -0.16461 -0.095926 -0.049768 -0.09268 0.023356 0.096515 0.010373 -0.174271 -0.082788 -0.155016 0.104184 0.044246 0.051147 0.02525 -0.044468 -0.064392 -0.011243
0.0 0.0 0.0 0.0 0.0 0.0 0.0 0.0 0.0 0.0 0.0 0.0 0.0 0.0 0.0 0.0 0.0 0.0 0.0 0.0 0.0 0.0 0.0 0.0 0.0 0.0 0.0 0.0 0.0 0.0 0.0 0.0 0.0 0.0 0.0 0.0 0.0 0.0 0.0 0.0 0.0 0.0 0.0 0.0 0.0 0.0 0.0 0.0 0.0 0.0 0.0 0.0 0.0 0.0 0.0 0.0 0.0 0.0 0.0 0.0 0.0 0.0 0.0 0.0 0.0 0.0 0.0 0.0 0.0 0.0 0.0 0.0 0.0 0.0 0.0 0.0 0.0 0.0 0.0 0.0 0.0 0.0 0.0 0.0 0.0 0.0 0.0 0.0 0.0 0.0 0.0 0.0 0.0 0.0 0.0 0.0 0.0 0.0 0.0 0.0
0.065293 0.125328 0.047517 0.101579 0.239204 -0.032909 0.091249 -0.268676 -0.200299 -0.062418 -0.148884 0.200596 -0.164423 0.086752 -0.004277 -0.003788 -0.210687 0.021066 -0.059793 0.070649 -0.086241 0.093167 0.26656 -0.38652 0.040532 -0.033728 0.061649 0.349691 0.098071 0.155348 0.007041 0.029216 0.030356 0.121543 -0.116491 -0.049152 0.340361 -0.092031 0.067232 -0.082542 0.19359 -0.082622 0.020129 0.017139 -0.088447 -0.125735 0.097803 -0.133369 0.071885 0.136886 -0.099415 0.151644 -0.143832 0.165491 -0.184189 -0.034039 -0.062455 -0.052868 0.190477 -0.140846 -0.053768 0.126428 -0.238267 -0.137597 -0.04409 0.084917 0.16301 0.246386 0.216856 -0.087721 -0.063226 0.101558 -0.368357 0.146025 -0.152885 -0.042397 -0.264961 -0.079635 -0.144328 0.019048 0.035422 -0.03887 -0.05916 -0.136405 -0.027318 0.017228 0.044776 0.025228 0.158469 0.158712 0.042441 -0.012794 -0.301657 0.070901 0.041701 0.041495 0.138091 0.357448 -0.283685 -0.258274
-0.045549 -0.019643 0.046605 0.01937 -0.048165 0.002386 0.133692 -0.105972 -0.036092 0.01926 -0.041897 0.101992 -0.024171 -0.015948 -0.078548 0.018259 -0.021959 -6.9E-5 0.068206 0.037825 0.056655 -0.263488 0.019989 0.022684 -0.095743 0.148716 0.020395 0.005975 0.24558 -0.064396 -0.038624 0.103727 -0.009889 0.096239 -0.304886 0.02822 0.080687 0.038994 0.079709 -0.050449 0.091042 0.026191 0.163824 -0.046615 -0.100267 0.010837 -0.087407 0.084683 -0.041542 -0.01353 0.034989 -0.127666 0.142675 -0.144064 -0.010746 0.042543 -0.055325 -0.066353 -0.06669 -0.203929 0.043696 -0.15489 0.225267 -0.112238 -0.083936 0.01865 0.080721 -0.045273 0.053165 0.012791 -0.251947 -0.087307 -0.030465 0.051097 -0.029058 -0.055214 -0.077598 -0.017701 0.140202 -0.094673 -0.079917 0.236495 -0.033887 0.011453 -0.003383 0.141896 -0.034788 -0.14658 0.023186 0.099968 -0.072668 -0.031315 -0.073928 0.05957 0.035095 -0.094544 -4.16E-4 0.006228 0.001092 -0.050299
0.357307 -0.267067 -0.330443 1.443674 -1.811941 1.456843 -1.897286 0.30091 -1.519621 -3.121542 0.537737 4.639633 -0.342282 0.448352 -2.067859 1.190686 -0.290334 -1.895893 0.174952 -6.821774 -0.962555 -2.952836 1.130416 2.439852 -0.089505 -1.187497 -1.558091 2.151235 -0.588624 -1.852344 -0.904285 -1.090336 2.065849 1.103432 0.969843 1.252023 -1.933199 -0.890722 0.740971 1.27713 -2.239767 0.821539 0.855235 3.8869 2.673979 -1.413302 0.085133 -1.411693 -3.999054 -3.314299 -1.747906 0.562883 -0.400171 -2.935897 -1.460357 -1.618513 5.219 1.207752 -3.637277 -1.287495 -5.478665 -0.585946 0.331974 -1.846729 0.652564 -2.480196 1.748734 -0.9569 -2.746861 3.521045 1.333384 -1.28769 -1.516851 -2.651291 -1.360979 -2.075099 3.211571 -1.188224 0.178605 1.611881 0.177594 2.467363 1.06452 -1.027013 4.00513 -4.700041 1.584191 3.219263 -1.447187 -0.152946 2.991063 -1.91923 3.025061 1.881829 0.31103 4.229571 0.109104 -4.13003 7.443192 3.266112
0.047932 -0.190813 0.06833 0.128804 0.145515 0.057816 0.021842 0.007906 0.060986 0.129232 0.216069 0.076667 0.071868 0.036271 -0.055828 -0.014789 0.138235 0.048174 0.055982 -0.026023 -0.038235 0.367365 0.155346 0.017366 -0.209618 0.140989 -0.021274 0.058164 -0.002232 0.012858 0.086936 -0.028284 -0.059348 0.106907 -0.173156 -0.061133 -0.016381 0.009237 -0.097548 -0.04766 -0.006476 0.042408 0.067184 -0.196095 -0.09539 -0.067961 -0.116101 0.127272 -0.100033 0.053922 0.16661 -0.059991 -0.044874 0.020384 -0.039578 -0.165925 -0.142193 0.009137 -0.118204 0.036282 -0.049239 0.042212 0.077793 -0.02959 -0.005675 0.046236 0.096409 0.108586 0.016702 -0.160992 -0.005082 -0.089859 0.011272 0.03352 -0.086922 0.057004 -0.134615 -0.025304 0.116946 0.062388 0.04579 0.185194 0.052642 -0.04505 -0.094408 0.044299 0.162949 0.253197 0.006095 0.17538 -0.276199 -0.040922 0.132221 -0.026628 -0.052802 0.072134 -0.089862 0.200979 -0.048778 -0.041062
-0.101423 -0.111223 0.204943 0.132795 0.05788 0.002316 -0.036371 0.128742 -0.099987 -0.203751 -0.005747 -0.076661 0.061493 0.129923 0.03874 0.055627 -0.263836 -0.184604 0.011424 -0.007279 0.055684 -0.07375 0.014547 0.147661 -0.137906 -0.053606 -0.109156 0.116562 0.167124 -0.150614 0.060862 0.022001 -0.10916 0.25015 -0.078021 -0.006786 -0.141903 0.141898 -0.160938 -0.126208 0.099444 0.188346 -0.14893 0.061422 -0.089297 -0.141281 -0.053777 0.056071 -0.033157 -0.040216 0.128842 -0.039396 0.153451 -0.099596 0.009729 -0.066533 -0.087515 -0.014641 -0.090516 0.13632 -0.012204 -0.13469 0.080049 0.037476 -0.028325 0.033903 0.019994 0.045848 0.02642 0.068674 -0.091896 0.015101 0.058041 -0.015662 0.014985 0.073895 0.155834 -0.167799 -0.15315 0.063915 0.007151 -0.100262 0.020611 0.155 -0.277609 0.145833 0.11182 0.07878 -0.028091 -0.019437 0.04089 -0.021383 0.025695 0.057773 -0.115688 0.142605 -0.064814 -0.090623 0.132294 -0.086139
2.591633 1.608701 -2.087245 2.00752 3.012652 4.995656 0.847355 -1.594905 -0.365708 -1.629805 -1.650237 3.712017 -0.231463 -0.537534 -2.036098 2.002639 -0.696666 -4.310136 -1.477319 -1.356504 -0.581823 -1.830239 -0.272773 -1.648095 0.090509 0.008711 0.330842 0.396714 2.341035 -0.526067 1.155793 -1.730906 -1.010387 -1.342646 -1.939355 0.734869 0.727366 0.700702 1.516974 -2.133831 -0.280653 -3.051674 0.017123 0.532043 1.478449 0.375441 0.920129 1.548929 1.087478 0.668327 0.707416 3.249232 -0.362503 1.273221 -2.929682 -0.245389 1.633444 -0.119836 0.103459 -3.445175 0.513245 0.427807 0.738792 1.448203 0.501908 0.362882 -0.731533 -0.391201 0.037778 3.053553 4.030229 1.793904 1.24136 0.081706 -1.401954 -0.638804 -0.487445 -0.267924 0.012844 0.538179 -0.241935 -0.068756 1.351665 -0.112558 0.001814 0.447262 0.833441 -0.023876 1.212707 1.514635 -0.568611 0.376173 -3.663739 -4.345135 -0.444319 2.139788 -2.53093 0.92131 -1.399435 1.763954
-1.832984 -1.377499 0.351573 1.061378 1.635668 2.271626 -0.127276 -1.331487 -0.230849 -3.13698 3.118266 1.834769 3.076061 -1.26867 -0.552668 1.707135 -1.706548 0.556126 -2.113229 0.369172 0.422781 -2.392254 2.172984 -0.628807 1.401421 -2.228717 0.084907 1.357351 -2.489768 1.223291 1.607069 -0.018279 0.332139 1.535874 3.398443 0.121237 1.360611 -2.426812 2.930306 2.124509 0.719365 -0.119839 -0.373605 0.936925 -1.778203 -2.16892 -0.421218 -0.573855 0.949754 -0.399991 3.974662 0.721851 1.168265 1.317319 -1.688571 -1.428256 -1.50232 1.989244 3.259995 1.851137 -0.207937 0.307391 -0.350678 -0.357304 0.07117 0.706298 1.712982 -0.847892 1.38395 1.98695 0.384582 -1.156 1.220572 1.265398 -1.906106 -2.298199 -1.142708 0.002213 -0.018339 0.506257 2.022957 -3.530051 1.887916 2.187879 1.94343 0.601237 -1.009785 -1.069902 0.842127 0.803541 2.19424 3.631222 -1.444317 -0.460594 -0.501736 -0.406431 -1.120221 0.802264 1.136096 1.232127
-0.066209 -0.073042 0.232668 0.061633 -0.046755 -0.049015 0.034905 -0.087404 -0.156695 0.093054 0.010355 0.281883 0.015338 -0.115132 -0.03562 0.26832 -0.012447 0.072255 -0.01071 0.124517 -0.102676 0.1141 0.01727 -0.126446 -0.100756 -0.002271 -0.018802 0.148135 0.199499 0.026987 -0.024568 -4.63E-4 -0.013269 0.027354 -0.12675 -0.104674 -0.060954 -0.057142 6.1E-5 0.057388 0.038408 -0.041467 -0.062605 0.134412 -0.087699 0.01632 -0.100562 -0.068014 0.071764 0.174721 0.021607 -0.095641 -0.013282 0.024532 0.027855 -0.113116 -0.094663 -0.09203 0.177226 -0.012721 0.061868 -0.033823 0.024904 -0.146192 -0.045286 -0.121771 0.0105 -0.043926 0.041046 -0.113414 -0.116876 -0.034349 -0.056701 0.015782 0.085877 -0.067358 -0.079904 0.002945 -0.088584 -0.086015 0.054708 0.340474 0.059487 0.071124 -0.084645 0.271404 -0.0671 -0.10599 0.182568 0.173104 -0.004432 0.07107 -0.070217 -0.055778 0.133036 -0.070992 0.089147 -0.176209 -0.126865 -0.1616
-0.259035 -0.03544 0.068662 0.233622 0.044005 -0.059957 -0.096752 0.009094 -0.07691 -0.001971 0.093255 0.009386 -0.032454 -0.126627 0.113945 0.314729 -0.03801 0.090597 -0.0126 0.009467 0.042303 0.080073 -0.035165 0.014249 -0.04233 0.009341 -0.096693 0.097912 0.095635 -0.104512 -0.173536 -0.098517 -0.040519 0.121149 -0.074563 -0.260754 0.132754 -0.305702 0.048906 7.24E-4 -0.004688 -0.062211 -0.157643 0.163787 -0.051187 -0.033076 -0.076364 -0.032618 -0.072498 0.128717 0.134201 -0.076602 -0.123722 0.083496 -0.028438 -0.183214 0.040369 0.0031 -0.033715 0.034729 -0.077765 -0.048612 -0.0688 -0.17546 -0.161476 0.108912 0.2117 -0.045156 0.084458 -0.266194 0.033087 0.178347 -0.02546 0.220646 0.003983 -0.205559 -0.152822 -0.086942 -0.068308 -0.084219 0.088495 0.168408 0.036985 -0.064849 0.133697 0.187529 0.036237 -0.085146 0.187172 0.188673 -0.158358 0.076023 -0.139607 -0.106972 0.089002 -0.125668 0.078949 0.10434 0.003305 0.044417
-0.062574 -0.108973 -0.145495 0.055877 -0.155858 0.08921 -0.013244 -0.044042 -0.043853 -0.179456 -0.149593 -0.276282 -0.001934 -0.07495 -0.301756 -0.008448 0.137368 0.074711 0.090139 -0.032402 -0.00457 0.257405 -0.018398 0.144576 -0.11541 0.112658 -0.026886 -0.052581 0.080135 -0.007777 0.103466 0.154032 -0.018474 0.099379 -0.132567 -0.066842 -0.028204 -0.023463 0.334049 0.074622 -0.076538 -0.165406 -0.050037 -0.037745 -0.066966 0.004024 -0.091949 -0.059625 0.018915 -0.112114 -0.255192 0.030431 -0.04758 -0.082147 -0.075611 -0.148433 0.043028 -0.108469 0.148797 0.185136 0.151357 -0.002854 0.089053 0.074919 -0.207584 0.113768 -0.108715 -0.026869 0.080747 -0.186707 -0.025322 -0.006177 -0.084312 0.049932 0.029048 0.016667 0.036115 -0.158789 -0.011694 0.216654 -0.055802 -0.163875 0.180262 0.061505 -0.101957 0.063434 -0.019946 0.114447 -0.027701 0.144657 -0.051446 0.095036 -0.004411 -0.187423 0.273024 -0.171534 -0.137943 -0.043453 -0.056878 0.123849
0.0 0.0 0.0 0.0 0.0 0.0 0.0 0.0 0.0 0.0 0.0 0.0 0.0 0.0 0.0 0.0 0.0 0.0 0.0 0.0 0.0 0.0 0.0 0.0 0.0 0.0 0.0 0.0 0.0 0.0 0.0 0.0 0.0 0.0 0.0 0.0 0.0 0.0 0.0 0.0 0.0 0.0 0.0 0.0 0.0 0.0 0.0 0.0 0.0 0.0 0.0 0.0 0.0 0.0 0.0 0.0 0.0 0.0 0.0 0.0 0.0 0.0 0.0 0.0 0.0 0.0 0.0 0.0 0.0 0.0 0.0 0.0 0.0 0.0 0.0 0.0 0.0 0.0 0.0 0.0 0.0 0.0 0.0 0.0 0.0 0.0 0.0 0.0 0.0 0.0 0.0 0.0 0.0 0.0 0.0 0.0 0.0 0.0 0.0 0.0
0.040605 -0.122513 0.0133 -0.014846 0.097934 0.005269 0.001168 0.026936 0.0137 -0.050717 -0.029762 0.026296 -0.123507 -0.058953 0.233202 0.169967 -0.070421 0.047084 -0.010955 0.12221 0.062894 0.152738 0.18115 -0.03879 -0.224771 -0.068218 -0.094537 -0.044041 -0.009634 -0.046667 -0.098465 0.083138 -0.072031 0.19798 0.002016 -0.153018 -0.075386 0.020654 -0.037364 0.127048 -0.183547 0.088872 -0.028551 0.105256 0.034935 -0.113322 -0.001606 0.121235 -0.118221 0.166055 0.035004 0.081893 -0.121582 -0.099498 0.120378 -0.016534 -0.15856 -0.031555 0.155184 0.009563 0.027574 -0.146988 0.129285 -0.061186 -0.032453 0.007123 0.094789 -0.061724 -0.056433 -0.181504 -0.012694 -0.090566 0.011397 0.083173 0.062284 -0.071866 -0.005043 -0.002711 -0.084026 -0.048686 -0.063399 0.162056 0.108399 -0.104081 0.007232 -0.004962 0.018736 0.015003 0.103073 0.023795 0.002341 0.008611 0.047705 -0.014164 0.007996 -0.20082 0.069452 -0.050441 -0.046158 -0.011962
-0.671963 -1.356401 3.602218 0.823366 -0.502176 -0.026847 2.688116 0.953721 0.412325 -0.074957 -2.563688 0.379861 -0.279054 0.512633 -0.426346 -0.669122 -2.193019 -1.985633 1.195718 -0.843091 -3.07709 -2.336138 0.676971 -1.157188 0.84245 -0.067074 1.662677 -0.902702 0.573933 0.762577 1.605777 -0.494156 -0.764054 -4.857189 1.199538 0.081996 1.582965 -1.800896 1.133021 -2.874443 -0.067305 0.527258 -0.963475 2.056148 -0.810059 -2.590427 0.192699 -0.925293 0.533123 0.50128 0.198265 1.047486 -1.15476 -0.133629 -3.660616 2.9145 0.67414 -1.747608 -1.472014 0.506851 -0.089567 -1.009712 -0.989767 -0.231732 -1.20197 -0.899847 -0.180586 -0.280434 1.214359 0.601947 3.002038 1.452004 1.898121 0.64863 -0.773459 -0.546508 1.482508 0.349815 -0.022055 1.977613 1.349274 -0.187718 2.026595 2.419264 -2.256871 -0.764584 -0.110956 2.609596 -0.511332 0.497735 1.205947 -0.553892 0.146347 -2.201324 -0.117853 -0.193777 0.312823 3.388883 -4.036498 2.412019
0.209881 0.264698 -0.216926 0.215739 -0.074142 -0.169926 -0.270362 -0.12392 -0.416598 0.177685 0.118609 0.05118 -0.180942 -0.059006 -0.276354 -0.230962 0.115974 -0.316342 0.179025 -0.120295 0.018996 -0.178335 -0.087279 -0.114575 0.043682 -0.202554 0.088234 0.083602 -0.180273 0.200652 -0.035218 -0.218725 0.137131 -0.120105 -0.018168 0.368182 -0.303783 0.261046 0.125624 0.139509 0.370381 0.164986 0.022295 -0.007139 0.157286 -0.053086 -0.019213 0.167965 0.109963 0.055735 -0.383645 0.221791 0.048792 -0.201839 -0.048051 -0.103677 0.02953 0.202695 -0.121135 0.474525 0.013977 0.226593 -0.062668 0.083011 -0.173305 -0.001338 0.005721 -0.158028 0.214839 0.131718 -0.056365 0.01986 0.015831 0.133247 0.13801 0.055079 -0.039997 -0.190935 -0.107536 -0.142876 0.233449 -0.004151 -0.164843 0.03038 -0.168682 0.07433 0.032083 -0.296056 -0.23754 -0.16216 -0.134065 0.099405 -0.046272 -0.019491 0.300431 -0.350214 0.074255 0.115945 0.013389 -0.294396
0.034303 -0.209306 -0.103289 -0.008452 -0.151473 -0.029689 -0.17949 0.032226 -0.002495 0.115404 -0.225842 0.07661 -0.028757 0.064606 -0.036615 0.098549 0.099151 0.039523 0.046777 0.159339 -0.0336 0.26802 -0.01331 -0.030521 -0.106896 -0.102471 -0.014087 -0.152521 0.136998 0.030996 -0.004767 -0.048042 0.041751 -0.125445 -0.240797 0.060229 -0.216198 0.073182 -0.076444 -0.057925 -0.037218 0.049783 0.012112 0.118407 0.057465 -0.02217 -0.061325 0.037605 0.085267 0.029387 -0.126837 -0.068321 0.164817 0.074704 0.088025 0.032619 -0.039703 -0.125943 -0.03936 0.070178 0.305456 -0.028825 0.028922 -0.020497 0.023463 -0.05079 0.037389 0.045762 0.038282 -0.118097 0.106151 -0.002115 -0.181556 0.075154 0.005329 -0.044153 -0.047035 0.082977 0.024697 0.036045 -0.065213 0.033432 0.112701 -0.105864 0.119031 0.104864 -0.01082 0.041119 0.019067 0.21766 -0.127199 0.227972 -0.005336 0.149928 0.134845 0.005694 0.053363 -0.023428 0.01117 0.11074
0.174579 -0.136728 -0.051226 0.020722 -0.006999 0.182304 -0.026571 0.028348 -0.056181 -0.008225 -0.006719 0.123411 -0.116958 0.067063 -0.070431 0.036747 0.038718 0.027768 0.023312 -0.088689 0.061433 -0.020277 0.259541 -0.094786 -0.095916 0.094827 0.024537 -0.02138 0.088986 -0.222601 0.103167 -0.001705 -0.126386 0.084151 -0.211735 -0.029013 0.140156 -0.020962 0.053455 -0.191046 -0.124863 -0.041487 0.136145 0.105226 -0.015967 -0.183445 -0.047984 0.115111 -0.019542 0.13034 -0.027747 -0.056535 -0.108365 -0.105363 0.081886 -0.149182 -0.11381 -0.099116 -0.181035 -0.164047 0.046733 -0.125779 0.073804 -0.112401 0.07152 0.061743 0.019104 -0.098201 0.014577 0.063876 -0.025147 0.141799 0.106453 -0.019125 -0.084889 0.059635 -0.102028 0.054798 -0.039091 -0.147142 0.035738 0.191847 0.115855 -0.22498 -0.237968 0.006138 0.263927 0.028048 -0.051407 0.156325 -0.066949 -0.023049 0.193957 -0.012836 0.006804 -0.136759 -0.093368 0.121825 -0.030451 -0.039809
0.040605 -0.122513 0.0133 -0.014846 0.097934 0.005269 0.001168 0.026936 0.0137 -0.050717 -0.029762 0.026296 -0.123507 -0.058953 0.233202 0.169967 -0.070421 0.047084 -0.010955 0.12221 0.062894 0.152738 0.18115 -0.03879 -0.224771 -0.068218 -0.094537 -0.044041 -0.009634 -0.046667 -0.098465 0.083138 -0.072031 0.19798 0.002016 -0.153018 -0.075386 0.020654 -0.037364 0.127048 -0.183547 0.088872 -0.028551 0.105256 0.034935 -0.113322 -0.001606 0.121235 -0.118221 0.166055 0.035004 0.081893 -0.121582 -0.099498 0.120378 -0.016534 -0.15856 -0.031555 0.155184 0.009563 0.027574 -0.146988 0.129285 -0.061186 -0.032453 0.007123 0.094789 -0.061724 -0.056433 -0.181504 -0.012694 -0.090566 0.011397 0.083173 0.062284 -0.071866 -0.005043 -0.002711 -0.084026 -0.048686 -0.063399 0.162056 0.108399 -0.104081 0.007232 -0.004962 0.018736 0.015003 0.103073 0.023795 0.002341 0.008611 0.047705 -0.014164 0.007996 -0.20082 0.069452 -0.050441 -0.046158 -0.011962
-0.023725 -0.265581 -0.041655 0.122232 0.026794 -0.088378 -0.095963 -0.07173 -0.107796 -0.053451 0.244892 0.188711 -0.170801 0.022715 -8.47E-4 0.204389 -0.068086 0.024141 0.111102 0.050266 -0.042829 -0.104548 0.056634 0.106866 -0.035671 -0.111641 0.164909 0.066612 0.15263 -0.04625 0.072838 0.047495 -0.171938 0.101539 -0.079368 -0.007698 0.092885 -0.147097 0.195496 -0.035855 -0.218068 -0.098775 0.231561 0.129023 -0.111343 -0.171763 -0.061107 -0.054208 0.042218 0.022472 0.07198 -0.214236 -0.161899 -0.018452 0.010509 -0.022686 0.086178 0.078149 -0.072518 -0.183167 0.119658 -0.068118 0.051934 -0.01767 -0.158406 -0.063514 -0.107352 0.120173 0.133667 0.053117 0.01506 -0.054873 0.029177 -0.089398 -0.004805 -0.012248 0.112717 -0.080168 -0.105325 -0.109812 -0.087183 -0.176569 0.227813 -0.2492 -0.148258 -0.003471 0.100996 0.024248 0.093904 0.123002 -0.140595 0.053374 -0.09475 -0.046893 -0.002508 -0.046196 0.066997 0.183339 -0.060206 -0.072608
-0.223429 -0.07773 0.298535 0.011167 0.11896 -0.226395 -0.254368 0.042905 0.060036 -0.004082 -0.097057 0.073135 -0.25429 -0.2145 0.124618 0.026922 -0.064749 0.26406 0.171843 0.291733 -0.237116 -0.138898 0.266449 0.186824 -0.221423 -0.075135 -0.314143 0.13096 -0.084884 -0.112401 0.037976 0.196451 -0.135174 0.020401 -0.130258 -0.226229 0.094451 -0.016933 0.158832 -0.180022 -0.008973 0.224665 -0.115403 -0.008496 -0.211661 -0.112505 -0.135775 -0.163758 -0.438293 0.043755 0.15724 -0.181724 -0.030868 -0.193704 0.093989 0.142708 -0.148962 -0.004245 0.084814 -0.140228 0.010422 -0.098455 0.115434 -0.224869 -0.186112 0.129106 0.066752 -0.11872 0.041462 -0.102785 0.09885 -0.155277 0.035795 -0.100174 0.073371 0.106399 0.076004 -0.186627 0.132496 -0.170863 0.158825 0.008399 0.195147 0.00851 0.15287 -0.074129 0.288542 -0.113814 0.228158 -0.127687 0.077021 0.287083 -0.033484 -0.037908 -0.22647 0.1055 -0.044899 -0.112453 0.037239 0.098218
-0.087255 -0.05591 0.054305 -0.024922 0.12279 0.041971 0.011628 -0.098172 0.13061 0.088978 0.139548 0.154385 0.10967 -0.074364 0.077608 0.342633 -0.019875 0.008986 0.121981 0.055307 -0.003396 0.250389 -0.003606 -0.027202 -0.077535 -1.16E-4 -0.00206 0.156913 0.196292 -0.041947 -0.256602 -0.075561 -0.331833 -0.028169 -0.227118 -0.023069 -0.031505 -0.123196 0.067817 0.109003 -0.150311 -0.176863 -0.003222 0.297853 0.06886 0.054723 0.197442 -0.009663 0.124548 -0.115984 -0.107457 -0.134223 -0.057877 0.014351 -0.020055 -0.038021 0.086742 0.251573 0.36257 0.003758 0.053095 -0.086013 -0.02227 -0.136233 -0.017961 0.053643 0.053971 -0.264445 0.141244 -0.001727 0.102822 -0.045402 0.072919 -0.05572 -0.011331 -0.015733 -0.123198 -0.088768 0.042072 -0.014455 -0.084923 -0.030051 0.101633 -0.145179 0.084003 0.006179 0.137993 -0.044962 0.159725 0.029218 -0.030525 -0.103093 -0.1477 -0.002794 0.039423 -0.078334 0.05768 0.210979 -0.090714 -0.257268
-0.156132 -0.087009 0.184057 -0.064291 0.025926 -0.140273 0.153118 0.011303 -0.120193 -0.051684 -0.148623 0.32417 0.008043 -0.0575 0.098355 0.172891 -0.213084 0.217379 -0.092906 -0.032151 -0.129642 -0.155223 0.29281 -0.02845 -0.281571 -0.053774 0.133214 -0.273369 -0.051298 0.091218 -0.066916 0.178554 -0.064064 -0.004631 0.051336 -0.106444 0.182168 0.006947 0.079249 -0.161683 -0.273434 -0.019243 0.119573 -0.054022 0.021513 -0.022141 -0.044654 -0.006673 0.021181 0.006375 -0.118817 0.051245 -0.095237 -0.058976 0.00512 -0.273265 0.036794 -0.106845 -0.010845 -0.008263 -0.067046 -0.210741 -0.286682 -0.167816 0.112543 -0.067089 0.027545 -0.019236 0.178136 -0.045337 -0.137948 0.227984 0.082 -0.194051 -0.116966 -0.061753 0.033496 -0.205845 0.062885 -0.122352 -4.59E-4 -0.090407 0.065653 -0.066077 -0.228103 -0.26281 0.136919 0.197287 0.10598 -0.055988 0.084248 -0.199512 0.042654 -0.216336 -0.05094 -0.048441 0.111954 -0.05957 -0.144613 0.068956
-0.062574 -0.108973 -0.145495 0.055877 -0.155858 0.08921 -0.013244 -0.044042 -0.043853 -0.179456 -0.149593 -0.276282 -0.001934 -0.07495 -0.301756 -0.008448 0.137368 0.074711 0.090139 -0.032402 -0.00457 0.257405 -0.018398 0.144576 -0.11541 0.112658 -0.026886 -0.052581 0.080135 -0.007777 0.103466 0.154032 -0.018474 0.099379 -0.132567 -0.066842 -0.028204 -0.023463 0.334049 0.074622 -0.076538 -0.165406 -0.050037 -0.037745 -0.066966 0.004024 -0.091949 -0.059625 0.018915 -0.112114 -0.255192 0.030431 -0.04758 -0.082147 -0.075611 -0.148433 0.043028 -0.108469 0.148797 0.185136 0.151357 -0.002854 0.089053 0.074919 -0.207584 0.113768 -0.108715 -0.026869 0.080747 -0.186707 -0.025322 -0.006177 -0.084312 0.049932 0.029048 0.016667 0.036115 -0.158789 -0.011694 0.216654 -0.055802 -0.163875 0.180262 0.061505 -0.101957 0.063434 -0.019946 0.114447 -0.027701 0.144657 -0.051446 0.095036 -0.004411 -0.187423 0.273024 -0.171534 -0.137943 -0.043453 -0.056878 0.123849
0.0 0.0 0.0 0.0 0.0 0.0 0.0 0.0 0.0 0.0 0.0 0.0 0.0 0.0 0.0 0.0 0.0 0.0 0.0 0.0 0.0 0.0 0.0 0.0 0.0 0.0 0.0 0.0 0.0 0.0 0.0 0.0 0.0 0.0 0.0 0.0 0.0 0.0 0.0 0.0 0.0 0.0 0.0 0.0 0.0 0.0 0.0 0.0 0.0 0.0 0.0 0.0 0.0 0.0 0.0 0.0 0.0 0.0 0.0 0.0 0.0 0.0 0.0 0.0 0.0 0.0 0.0 0.0 0.0 0.0 0.0 0.0 0.0 0.0 0.0 0.0 0.0 0.0 0.0 0.0 0.0 0.0 0.0 0.0 0.0 0.0 0.0 0.0 0.0 0.0 0.0 0.0 0.0 0.0 0.0 0.0 0.0 0.0 0.0 0.0
0.035966 0.059726 0.16113 0.096734 0.076901 -0.048727 -0.188688 0.040275 0.089017 -0.068251 0.173451 -0.01532 0.093247 -0.106317 -0.098058 0.281994 0.028556 0.15375 -0.056499 -0.08584 -4.33E-4 0.1129 0.086849 0.088363 -0.094839 0.025609 -0.030659 0.167831 0.062464 0.011012 -0.073005 -0.100597 0.022633 0.025072 0.106483 -0.191203 0.048552 -0.051826 0.054102 0.140608 -0.021573 -0.170379 -0.074722 0.096048 -0.092999 -0.012451 0.104271 -0.054649 -0.188437 0.012969 0.035339 -0.165947 -0.042061 -0.063336 -0.07318 -0.117476 0.067641 0.013106 0.229655 0.075955 0.028306 0.12859 0.05983 -0.021983 -0.015925 0.132943 0.20306 -0.00722 0.022706 -0.186402 -0.110321 -0.044895 -0.062726 0.052815 0.113721 -0.038287 -0.117098 -0.110293 -0.013027 -0.1216 0.027494 -0.016455 0.114656 -0.031277 0.134582 -0.012311 -0.021502 -0.00612 0.068689 -0.034418 0.023452 0.043207 0.144792 0.167827 -0.077931 -0.203549 0.21474 -0.069833 0.046708 0.120559
-0.068454 -0.122863 0.134262 0.083716 -0.146457 -0.05854 -0.046249 0.145899 -0.070309 0.010732 0.090118 0.029646 -0.134044 0.011502 0.13797 0.056779 -0.07073 0.176961 0.006425 -0.153893 -0.009753 0.0856 0.130737 0.060926 -0.08509 -0.0078 0.032945 0.025603 0.032755 -0.111281 4.93E-4 -0.017962 0.032708 0.128146 -0.085697 0.05081 0.0276 0.03696 0.01402 0.060028 -0.124086 0.028109 -0.015197 0.122354 0.089105 -0.142934 -0.046646 -0.03136 -0.088624 -0.018623 0.176395 0.059223 -0.037748 0.092775 0.211408 -0.085361 -0.007459 -0.099707 -0.09085 0.010112 0.047779 -0.174533 -0.067544 -0.18185 0.006312 -0.081968 0.046034 -0.073605 -0.048238 -0.084453 0.091696 0.038272 0.057807 0.027356 0.14928 -0.024513 -0.009631 -0.031003 -0.064339 0.046794 -0.17687 0.056175 -0.018763 -0.084626 0.021903 -0.031887 -0.026426 -0.017246 0.052909 -0.04163 -0.017914 -0.010917 -0.015599 0.164133 -0.056038 -0.053381 0.088108 0.022985 -0.007861 -0.03771
-0.109163 -0.191478 0.176938 0.158747 -0.094603 0.014841 -0.097218 0.023553 -0.118593 0.29949 0.062688 0.138529 0.020623 0.106482 0.050719 0.08577 0.066896 0.274331 0.045083 0.035189 -0.17428 0.162765 0.114625 0.100983 -0.212349 0.005975 -0.044796 -0.0677 0.13026 -0.162669 -0.063661 -0.080109 -0.010793 0.127913 -0.205086 0.034233 0.016162 -0.138748 -0.03618 0.060254 -0.004051 0.254393 -0.064235 -0.256121 0.010128 -0.088343 0.124967 -0.071961 -0.124844 0.025526 0.107904 -0.098654 2.27E-4 0.06325 0.167935 0.066961 -0.050435 -0.029641 0.157162 -0.015336 0.072403 0.002033 -0.05103 0.012141 -0.007908 0.027512 0.104649 0.051594 0.084238 0.010704 -0.124188 -0.04354 0.016384 -0.051366 -0.095012 0.002764 -0.100361 -0.193219 0.091158 0.018723 0.004189 0.090707 0.054073 -0.281747 0.119344 0.007114 -0.050421 0.145364 0.172627 -0.030182 -0.154156 -0.020021 0.013087 0.026662 0.130919 -0.147982 0.047687 -0.05669 -0.013603 0.0402
-0.122247 -0.018276 -0.099628 0.027071 -0.001445 0.015171 -0.016251 -0.160902 -0.006234 -0.01795 0.182528 0.125731 0.127319 0.189076 -0.054803 0.074121 0.054069 -0.019191 -0.029783 -0.076321 -0.119661 -0.009513 -0.006156 0.012669 -0.106817 0.105532 -0.087229 0.053013 0.09055 -0.087609 -0.006776 -0.125822 -0.104105 0.077263 0.078144 -0.138192 0.087302 -0.106029 0.070743 0.004259 -0.140686 -0.06964 0.116389 0.204214 -0.081042 -0.114202 0.062367 0.051679 -0.155008 -0.025024 0.00632 0.024899 -0.01163 0.098813 -0.030746 -0.146319 0.070112 -0.050388 0.161857 -0.102025 -0.0015 0.074622 -0.057569 0.002225 -0.073504 -0.023547 0.011315 -0.058355 0.09245 -0.256943 -0.106973 -0.078092 -0.058933 -0.154668 0.008188 -0.1273 -0.209491 -0.129433 -0.154055 0.007675 -0.084449 0.09358 -0.024157 0.078921 0.165023 0.190969 0.109867 -0.037535 -0.111881 -0.066166 -0.050134 0.036668 -0.159862 0.04728 0.099228 -0.010071 0.073275 -0.121529 -0.044125 -0.002968
-0.055291 -0.024343 0.094659 -0.02158 0.095057 0.001864 0.200114 0.041676 -0.194735 -0.115976 0.148534 0.109335 -0.028317 -0.045936 -0.167663 -0.012475 0.125049 -2.13E-4 0.229299 0.034108 0.059566 0.017847 0.156868 -0.152827 0.153631 -0.088943 -0.006769 0.083103 0.138575 -0.003935 -0.038365 -0.121439 -0.131408 0.213476 -0.11013 -0.1731 0.187175 -0.04954 0.123709 0.051395 -0.035445 0.020625 0.03521 -0.046607 -0.028448 -0.278977 -0.033276 0.020249 -0.143517 -0.053966 0.168461 0.052908 -0.183075 -0.066504 -0.076058 -0.161491 0.328275 -0.222897 -0.097064 -0.133215 0.043084 -0.128629 -0.195914 -0.120966 -0.002606 -0.001504 0.030256 0.019238 0.05544 -0.107136 0.056551 0.016351 -0.055348 0.024374 -0.12008 -0.132559 -0.17702 0.012875 -0.233197 0.023686 -0.133772 0.172444 -0.006821 -0.136181 0.082965 0.279323 -0.008131 -0.065526 0.026701 -0.050013 0.150121 -0.095939 -0.126496 -0.049446 0.032315 -0.179075 0.09436 0.013932 -0.074516 -0.035286
-0.046453 -0.114089 0.048378 0.039697 0.205342 -0.134425 0.195579 -0.187425 0.012362 -0.056148 -0.131226 -0.036605 -0.166618 -0.005606 0.011423 -0.035289 0.073024 0.049955 -0.03056 -0.116564 -4.0E-4 0.248965 0.168589 -0.016666 -0.127127 -3.18E-4 0.127741 -0.107854 0.05539 -0.111124 -0.041902 -0.11626 0.086201 0.191946 -0.031307 -0.026238 0.135582 -0.138117 -0.118683 -0.205278 -0.118941 0.075416 -0.021621 -0.074612 0.105553 0.141257 -0.097239 0.031083 -0.191864 0.157126 0.157338 0.018714 -0.190255 -0.078835 0.160698 0.051121 -0.022634 0.282011 -0.210636 0.065967 0.011387 -0.10215 -0.014587 8.06E-4 -0.126806 0.10146 -0.051249 -0.166886 0.138311 -0.092453 -0.203714 0.163209 0.126385 -0.163049 0.060969 -0.136489 -0.119169 0.143901 -0.166778 -0.074124 -0.205023 0.138254 -0.069697 -0.023512 0.056226 -0.151985 0.057434 -0.163405 0.084998 0.19969 0.169875 -0.038445 0.015784 -0.127481 -0.113888 -0.245198 0.065981 0.165014 0.001608 -0.042748
-0.039219 0.020941 0.051099 -0.048421 -0.052027 -0.001656 -0.105323 -0.139544 -0.057652 0.153286 0.045328 0.091684 0.064892 -0.01662 0.097431 0.175185 -0.040214 0.163119 0.022716 0.039398 -0.069049 0.157301 0.073172 0.127466 -0.031511 -0.118113 0.249539 -0.023249 -0.048311 0.068782 -0.090283 -0.017976 -0.039514 0.106286 -0.201802 0.066743 0.13956 -0.066251 -0.030669 -0.058793 0.050346 0.027746 -0.001217 0.063958 0.054144 -0.136908 -0.013202 0.040889 -0.028007 0.084271 0.149608 -0.157467 0.035859 -0.11098 0.120335 -0.090298 -0.094936 -0.145517 -0.058636 -0.047808 -0.045777 -0.160917 0.083426 -0.012802 0.129609 -0.029958 0.033201 0.036172 0.081644 -0.109409 0.033491 -0.0631 0.141647 0.018554 0.090207 -0.071094 -0.057941 -0.037624 -0.13928 0.114107 -0.024279 0.119473 0.121722 -0.118195 9.96E-4 0.102999 0.104186 -0.040947 0.127018 0.114101 -0.264248 -0.105888 0.037645 0.055877 0.133085 -0.065208 0.036928 0.068895 -0.003131 -0.103892
-0.899582 0.278759 -1.397548 1.491662 1.825767 3.54427 0.813839 0.216248 -0.071062 -0.923735 2.096137 0.930341 -2.218214 1.294109 0.60812 1.042217 -1.355595 -1.787451 -0.912753 0.760704 -0.386757 0.817374 2.293705 -0.107495 0.828917 0.559163 0.330452 4.345891 1.38276 -0.944983 -0.010029 0.417782 1.341131 -0.295469 -1.216697 -2.12053 0.998889 -1.307578 2.600242 1.250616 -2.206389 -5.080364 -1.357901 1.226797 -0.480558 0.247652 -0.639794 -1.774684 0.830488 -0.304707 3.255342 -0.658129 -0.585648 -0.4143 -1.195745 1.190241 -0.990382 0.051566 0.071182 -3.436773 -1.489372 0.942948 -0.173824 -2.390457 -0.616553 -0.837162 -1.420026 -1.60595 -0.847132 3.244424 2.52045 -0.914153 -0.549895 0.865447 -0.497344 -0.72579 -0.318336 -0.716928 -0.726839 -1.855848 0.65411 0.02103 -0.178235 0.788043 1.188035 -0.201562 -0.310805 0.452318 0.350509 1.922976 0.979691 1.048842 -4.644139 -2.631005 0.686554 -0.691031 -0.317252 0.139882 -0.96841 2.406314
-0.055291 -0.024343 0.094659 -0.02158 0.095057 0.001864 0.200114 0.041676 -0.194735 -0.115976 0.148534 0.109335 -0.028317 -0.045936 -0.167663 -0.012475 0.125049 -2.13E-4 0.229299 0.034108 0.059566 0.017847 0.156868 -0.152827 0.153631 -0.088943 -0.006769 0.083103 0.138575 -0.003935 -0.038365 -0.121439 -0.131408 0.213476 -0.11013 -0.1731 0.187175 -0.04954 0.123709 0.051395 -0.035445 0.020625 0.03521 -0.046607 -0.028448 -0.278977 -0.033276 0.020249 -0.143517 -0.053966 0.168461 0.052908 -0.183075 -0.066504 -0.076058 -0.161491 0.328275 -0.222897 -0.097064 -0.133215 0.043084 -0.128629 -0.195914 -0.120966 -0.002606 -0.001504 0.030256 0.019238 0.05544 -0.107136 0.056551 0.016351 -0.055348 0.024374 -0.12008 -0.132559 -0.17702 0.012875 -0.233197 0.023686 -0.133772 0.172444 -0.006821 -0.136181 0.082965 0.279323 -0.008131 -0.065526 0.026701 -0.050013 0.150121 -0.095939 -0.126496 -0.049446 0.032315 -0.179075 0.09436 0.013932 -0.074516 -0.035286
-0.033573 -0.099656 0.123657 0.237024 -0.153228 -0.045831 -0.157588 -0.075323 -0.213242 0.022947 0.059842 0.092107 -0.137325 0.171962 0.010151 0.232423 0.097703 0.007086 0.039441 0.119949 -0.052167 0.043155 0.165404 0.070354 0.050579 -0.059565 -0.173452 -0.125807 0.186163 -0.148084 -0.077861 0.129304 -0.036435 -0.027204 -0.050933 -0.204435 -0.05057 -0.029476 0.002144 -0.033554 -0.060886 -0.011479 -0.036114 -0.058018 0.135517 0.009228 -0.012351 0.07398 -0.016085 -0.070132 -0.096427 -0.256771 -0.258077 -0.03208 0.120933 0.035751 -0.110916 0.040772 0.040696 -0.100295 0.154547 -0.038445 -0.042241 -0.001156 4.64E-4 -0.226428 -0.01379 -0.019913 0.145759 0.070492 -0.094 0.014056 -0.114175 -0.017202 0.003819 -0.121477 -0.051842 0.104986 0.019173 0.124382 -0.053519 0.11953 0.223227 -0.119327 0.209039 0.036508 0.053192 0.011303 0.02082 0.102008 -0.127059 0.095182 -0.06709 -0.046965 0.051931 0.065757 0.0118 -0.01536 0.025153 0.082823
2.591633 1.608701 -2.087245 2.00752 3.012652 4.995656 0.847355 -1.594905 -0.365708 -1.629805 -1.650237 3.712017 -0.231463 -0.537534 -2.036098 2.002639 -0.696666 -4.310136 -1.477319 -1.356504 -0.581823 -1.830239 -0.272773 -1.648095 0.090509 0.008711 0.330842 0.396714 2.341035 -0.526067 1.155793 -1.730906 -1.010387 -1.342646 -1.939355 0.734869 0.727366 0.700702 1.516974 -2.133831 -0.280653 -3.051674 0.017123 0.532043 1.478449 0.375441 0.920129 1.548929 1.087478 0.668327 0.707416 3.249232 -0.362503 1.273221 -2.929682 -0.245389 1.633444 -0.119836 0.103459 -3.445175 0.513245 0.427807 0.738792 1.448203 0.501908 0.362882 -0.731533 -0.391201 0.037778 3.053553 4.030229 1.793904 1.24136 0.081706 -1.401954 -0.638804 -0.487445 -0.267924 0.012844 0.538179 -0.241935 -0.068756 1.351665 -0.112558 0.001814 0.447262 0.833441 -0.023876 1.212707 1.514635 -0.568611 0.376173 -3.663739 -4.345135 -0.444319 2.139788 -2.53093 0.92131 -1.399435 1.763954
-0.019336 -0.150326 0.159576 0.1273 -0.061948 0.031625 -0.075878 -0.016428 -0.145103 0.110592 0.162826 0.214122 -0.029508 0.06424 0.031816 0.175855 -0.020201 0.205243 0.007204 0.083926 0.008934 0.221016 0.074773 0.007025 -0.136893 0.03404 -0.040005 0.004573 0.120683 -0.159623 -0.155933 -0.070607 0.097299 0.141212 -0.058392 -0.053892 -0.077271 -0.076827 -0.045209 0.019059 -0.101729 0.230353 0.028115 -0.115236 0.103881 -0.112848 0.050546 -0.038407 -0.134137 -0.064296 0.007198 0.061135 -0.078842 0.067126 0.202724 -0.074806 -0.039993 0.048174 0.116033 -0.023893 0.037216 -0.089577 -0.069623 -0.055219 0.036195 -0.1051 0.102577 0.031726 0.104028 -0.044463 -0.045248 -0.210697 0.063832 -0.127986 -0.079013 5.41E-4 -0.072962 -0.092247 0.077137 0.13565 -0.052723 0.071705 0.025596 -0.178919 0.152271 0.158127 -0.00286 -0.004201 0.226441 0.054076 -0.08535 -0.077031 0.053423 0.094197 0.090979 -0.067923 0.092815 -0.015222 0.017483 -0.088621
-0.06302 -0.152009 0.275411 0.17777 -0.001871 -0.059707 -0.166029 -0.12287 -0.060277 0.030052 0.023436 0.142641 -0.002569 0.101569 0.105459 0.153965 -0.044383 0.172614 0.146829 0.009084 -0.130416 0.21207 0.043144 -0.0822 -0.184854 -0.190981 -0.056765 -0.137035 0.185884 0.044722 -0.199689 -0.156702 -0.061075 0.130773 -0.09084 -0.209773 -0.059749 -0.083598 0.083996 0.021238 0.011203 0.289189 -0.078906 0.003201 0.082624 -0.152361 0.064333 0.059794 -0.055301 0.045637 -0.040049 -0.05679 -0.073445 0.077359 -0.004152 -0.06862 0.061543 0.03169 0.020473 -0.014971 0.08488 -0.255411 0.010016 -0.178567 0.021488 0.043566 0.106286 0.023651 0.254846 -0.123738 -0.04786 0.04025 -0.039901 -0.077139 -0.021968 0.018057 -0.101277 0.052426 -0.089837 -0.078773 0.075959 0.153494 0.022509 -0.27042 0.076782 -0.015081 0.019306 -0.251098 0.118902 0.002501 0.040935 -0.0581 -0.019349 0.101849 -0.076787 -0.050659 0.110967 -0.047919 -0.058948 -0.169335
0.070623 -0.181893 0.08148 -0.112307 0.142029 -0.005357 0.180574 0.112714 -0.043683 -0.04012 0.135792 0.009888 -0.329206 -0.105619 0.213699 0.062248 -0.258328 0.01453 0.05454 -0.035785 -0.016262 -0.185246 0.014605 0.03376 -0.170353 -0.115802 0.050326 -0.293375 0.342886 0.087635 -0.192931 0.209467 -0.182736 0.012541 -0.091284 -0.126377 0.17902 -0.3402 -0.209276 0.080521 -0.050383 -0.248358 0.004599 0.01299 0.091863 0.271363 0.020333 0.028223 -0.24255 0.023463 0.287805 -0.027849 -0.12732 0.071434 0.107394 -0.001746 -0.214275 0.079901 -0.234238 0.03647 -0.147062 -0.280831 0.162707 -0.205487 -0.092752 0.023537 -0.282417 0.138332 0.195642 0.013446 -0.044834 0.176051 0.058695 0.107906 -0.00452 0.201345 -0.11484 0.177342 -0.009293 -0.104315 -0.135204 -0.18622 0.127896 0.06926 -0.188345 -0.027479 -0.144677 -0.046576 -0.091952 -0.048595 -0.043132 -0.072628 -0.170907 -0.117374 0.104696 -0.208056 0.091507 -0.088701 -0.297151 -0.040737
-0.036354 -0.2314 0.139261 0.171503 0.00969 -0.055219 0.010845 0.025453 -0.188561 -0.051043 -0.027593 0.042124 0.061047 0.045283 -0.008444 -0.10472 -0.005549 -0.197913 0.087681 0.015117 0.128866 0.011138 -0.065395 0.017448 -0.009152 0.146684 -0.064572 -0.030626 0.167743 0.080132 -0.285256 0.063059 0.026 0.077997 0.123246 0.011607 0.009279 0.023404 0.039092 -0.071853 -0.066485 0.010319 0.033002 0.138291 -0.024265 -0.015691 -0.32818 0.127366 -0.249395 0.002506 0.100671 -0.05716 0.018772 -0.027175 0.088858 0.020147 -0.214973 -0.105731 0.02277 -0.145516 0.096453 -0.255132 0.071265 -0.056886 0.068763 -0.077471 0.010863 -0.163673 0.063639 -0.094003 -0.163001 -0.034103 0.17058 -0.054081 -0.150133 0.098557 -0.011767 0.179839 -0.077668 -7.03E-4 -0.106239 0.198627 -0.248183 -0.066535 0.085655 0.005912 0.049307 -0.068995 0.127386 0.053752 -0.079986 -0.049048 0.192487 0.083218 -0.048668 -0.030338 0.038179 -0.077619 0.02694 -0.017839
0.142855 2.096782 -0.44488 -0.186519 4.581101 0.368552 1.025096 -0.312802 -2.617651 -0.157005 2.963322 2.120705 -1.775955 -0.565663 0.972057 2.924774 -3.483148 -0.388176 -2.731071 -0.326463 1.005034 -0.173592 0.985748 -2.472826 -0.247049 -1.602126 -2.48254 -0.015307 0.921201 -0.634243 -0.734395 -4.469334 -2.338912 -3.86095 -2.404253 -1.170435 3.191081 0.66076 0.725646 -0.864367 -2.371157 -0.851367 -3.29822 -1.074393 -2.64488 2.784424 -0.996674 2.506345 2.15789 -2.159862 -0.441733 -0.926918 -0.098512 0.757891 -1.999629 -4.007104 0.387073 -3.003765 1.204233 -2.431844 -2.281004 -0.27222 1.915759 2.567541 -2.305997 0.668549 -1.469449 -4.443738 -0.244681 3.958085 3.663286 2.390184 0.145926 -1.914193 1.202993 0.085106 1.119028 1.764289 0.413107 1.270882 2.30135 -2.063297 -0.209725 -0.837978 1.54811 -1.075222 1.662849 3.024555 -0.817108 2.02425 0.827332 0.999754 -2.964958 -4.68355 2.112919 1.12159 -1.379614 1.011169 -1.034187 2.880255
-0.070971 -0.064854 0.004986 0.061964 -0.103726 0.208108 -0.045402 0.013717 -0.072056 -0.096217 0.147479 0.08622 0.026679 0.006955 0.050267 0.113365 -0.087714 -0.032501 0.012783 -0.035611 -0.166181 0.153913 0.026235 0.137809 -0.181254 -0.096843 -0.020289 0.077251 0.208079 -0.001088 -0.025673 -0.009426 -0.074272 -0.017198 -0.026982 -0.240008 -0.020063 -0.05605 0.171424 0.020122 0.065468 0.015502 0.040366 0.092929 0.011346 -0.051348 0.066473 -0.082357 -0.06156 -0.08698 0.043746 -0.087755 -0.031002 0.114776 -0.256847 -0.026437 -0.155105 -0.029106 0.095888 -0.058717 -0.102588 -0.12305 -0.050077 -0.17907 -0.04543 0.150673 0.163283 -0.022418 0.104048 -0.050214 0.178961 0.100213 -0.031743 -0.00891 0.02628 -0.180775 -0.141311 0.100586 0.057878 -0.12643 0.030562 0.134144 0.179218 -0.040294 0.055233 0.024144 0.026894 -0.047326 0.196354 0.014809 -0.137309 -0.033345 -0.158903 0.130053 -0.097632 0.07278 -0.134722 0.065336 -0.035322 0.008441
1.258477 -1.321742 -0.819813 1.201456 -0.059051 1.013985 -0.799305 0.693577 -0.534321 -1.527387 1.438433 2.262936 -1.751334 1.364397 0.001642 1.552982 0.168373 -1.224383 -0.701131 -0.535124 0.070637 0.504379 1.401156 0.932146 -0.236353 -2.363082 0.47428 0.937664 0.567507 -2.077255 -1.102618 -1.271787 -0.197194 1.052197 -0.211323 -0.401647 0.07859 -0.444399 -0.295732 -0.362094 -1.115781 -3.257434 1.338269 -0.031784 1.383747 1.670359 -1.303487 -1.769357 1.161814 -1.51592 -0.301949 -1.702235 0.331082 -1.855367 0.221333 -0.628106 -0.030185 -0.259802 -0.854428 -0.956923 -1.728366 0.303191 -0.167269 -2.129731 0.40236 -0.221955 -0.151814 -1.019828 -0.512073 2.117887 0.625562 -1.11852 -0.356062 -0.533603 0.739105 -0.601399 0.414426 -0.640473 -0.263643 -1.453367 1.270808 -0.429616 -0.009422 -2.37857 -0.467783 -1.371452 -0.366186 2.404164 0.021173 0.6223 -0.193137 -0.795887 -1.5761 0.36791 1.61637 1.769472 -2.689863 -0.802055 1.119441 0.803726
0.0494 -0.042147 -0.056799 0.087185 0.009886 0.121711 -0.123375 0.082944 -0.13619 -0.066809 0.20203 0.136643 0.120577 -0.051527 -0.04476 0.087982 0.070425 0.019236 0.214903 0.098222 -0.109351 -0.016995 0.070147 0.016443 -0.050256 -0.144689 -0.100644 0.026101 0.088238 -0.037235 -0.169908 -0.132037 -0.188515 0.097847 -0.006723 -0.227223 0.130439 -0.038384 0.038469 -0.088247 0.078914 0.043762 0.022186 0.028192 0.044051 0.035338 -0.035278 8.52E-4 -0.044013 -0.051279 0.065662 0.074867 -0.02154 0.103305 0.062228 0.087023 0.206045 0.082181 0.138038 -0.072875 -0.002542 -0.065705 -0.032958 0.036259 -0.010681 -0.009341 0.114267 0.127941 -0.015093 -0.192457 -0.093119 -0.068162 0.015419 -0.05673 0.083916 -0.094451 0.072472 -0.004552 -0.055857 -0.047403 -0.013438 0.067831 0.139664 0.06475 -0.085056 0.08706 -0.002517 0.002799 0.005772 0.179697 -0.032208 0.10027 -0.014223 0.155319 -0.18714 0.10537 0.095172 -0.123841 -0.08851 0.021291
0.352905 0.550922 -1.128945 -0.511125 0.774489 1.405335 -0.371647 0.106012 -0.779785 -0.640302 -0.68578 1.570717 -0.712288 -0.706705 -0.789609 -0.045278 -1.599722 -2.840112 -0.089543 -1.158838 -1.862605 -0.62748 -0.063542 -0.468696 0.750564 0.033551 -0.772222 -0.188991 -0.163115 0.455978 0.038455 -0.779588 0.172303 -1.114448 -0.548246 -0.008155 1.66721 -0.744821 -0.15746 -2.668482 -0.304702 -0.905716 0.479063 0.151803 -0.94063 -0.044338 -0.906122 -0.456182 0.281891 0.268287 0.47007 0.628019 0.328428 1.471286 -2.345457 0.072073 -0.345477 -0.998199 -1.496897 -0.053061 0.351206 -0.934426 0.295591 0.07336 0.24092 0.486976 0.390085 -0.621556 0.375246 -0.02625 1.957847 1.014101 0.004675 0.08874 -0.900479 -0.462149 0.922254 1.355385 -1.048724 0.105897 1.254466 0.410718 0.321258 1.066395 -0.171761 -0.128774 0.315556 0.697301 -0.180925 0.555334 1.005586 -0.891677 -1.232923 -1.994189 -0.567812 0.204184 -0.947385 -0.051526 -0.987029 0.725141
0.081104 -0.078741 -0.071479 0.144282 0.085348 -0.055812 -0.133308 -0.123598 -0.062646 -0.063116 0.225419 0.168918 0.092072 -0.021744 -0.024099 0.296216 -0.161347 0.244024 0.190028 -0.011963 -0.214457 0.060921 0.112461 0.128279 -0.218217 -0.239137 -0.114801 0.037371 0.115855 -0.174781 -0.064358 0.010645 -0.223371 0.05662 -0.164958 -0.273794 0.01962 0.040289 0.147913 0.097098 -0.14874 0.08901 0.126602 0.099799 -0.021957 -0.224278 0.028218 0.13803 -0.30015 0.14974 0.143343 -0.085383 -0.210346 0.137521 0.120889 -0.143036 0.023445 -0.026208 0.029266 -0.082758 0.056946 -4.02E-4 0.13178 -0.123846 -0.123072 -0.142043 0.150369 -0.020764 0.048563 -0.015663 0.158775 0.045719 0.028246 0.037594 0.013385 0.048928 -0.103092 -0.034863 -0.129518 -0.079212 0.12852 0.073781 -0.034257 -0.044662 0.007231 0.246709 -0.071167 0.053704 0.081789 0.030983 -0.104473 -0.145513 -0.135064 0.047824 -0.112887 -0.243543 0.035432 0.073855 -0.054451 0.101571
2.591633 1.608701 -2.087245 2.00752 3.012652 4.995656 0.847355 -1.594905 -0.365708 -1.629805 -1.650237 3.712017 -0.231463 -0.537534 -2.036098 2.002639 -0.696666 -4.310136 -1.477319 -1.356504 -0.581823 -1.830239 -0.272773 -1.648095 0.090509 0.008711 0.330842 0.396714 2.341035 -0.526067 1.155793 -1.730906 -1.010387 -1.342646 -1.939355 0.734869 0.727366 0.700702 1.516974 -2.133831 -0.280653 -3.051674 0.017123 0.532043 1.478449 0.375441 0.920129 1.548929 1.087478 0.668327 0.707416 3.249232 -0.362503 1.273221 -2.929682 -0.245389 1.633444 -0.119836 0.103459 -3.445175 0.513245 0.427807 0.738792 1.448203 0.501908 0.362882 -0.731533 -0.391201 0.037778 3.053553 4.030229 1.793904 1.24136 0.081706 -1.401954 -0.638804 -0.487445 -0.267924 0.012844 0.538179 -0.241935 -0.068756 1.351665 -0.112558 0.001814 0.447262 0.833441 -0.023876 1.212707 1.514635 -0.568611 0.376173 -3.663739 -4.345135 -0.444319 2.139788 -2.53093 0.92131 -1.399435 1.763954
-0.044168 -0.117803 0.268406 0.010394 -0.149524 -0.089151 -0.06082 -0.197596 0.008691 0.156768 0.181038 0.129038 0.016221 -0.036438 0.194856 -0.04805 0.086882 0.14071 -0.021328 0.144548 -0.099619 -0.027536 0.077552 -0.019067 -0.056166 -0.122477 0.067205 -0.063809 0.187353 -0.209682 0.11108 -0.107491 0.084212 -0.087898 0.010019 -0.056394 -0.044743 0.025779 0.023802 0.038703 -0.179303 0.15181 0.12928 -0.192353 0.002072 0.008051 0.024824 -0.054588 -0.226083 0.028261 0.088953 -0.086445 -0.123716 -0.111986 -0.012371 -0.125387 0.024884 -0.062936 -0.040219 -0.03747 -0.025231 -0.013628 -0.059983 0.0825 -0.06748 -0.038068 -0.013155 0.017313 -0.01329 0.044503 -0.040359 -0.077016 -0.036321 0.045117 -0.028982 0.049528 -0.052906 0.034939 -0.175837 -0.0236 -0.138658 -0.086626 0.101315 -0.13255 -0.104777 0.066496 -0.031145 0.053452 0.179524 -0.073092 -0.135615 0.088795 0.116699 0.049621 -0.055746 -0.032017 0.133126 0.150626 0.036434 -0.185126
0.157053 -0.067413 0.055229 -0.016567 -0.078936 0.05071 -0.081734 -0.055001 0.022147 -0.066786 0.069469 0.043383 -0.095042 0.03961 -0.002768 0.105894 0.073243 0.274146 -0.007123 0.239817 -0.116758 0.295484 0.110189 0.282289 -0.117276 -0.255477 -0.071575 0.145646 0.140659 -0.277556 -0.032026 0.083228 -0.147085 0.151927 0.153483 -0.025834 -0.035349 -0.017643 0.075778 0.009343 -0.031045 -0.050361 0.136153 -0.014655 -0.044728 -0.113582 0.129641 -0.020521 -0.120483 -0.018913 0.163477 -0.143283 -0.24406 -0.161407 0.052316 0.040485 -0.126641 0.118191 -0.040983 -0.244403 0.079843 -0.18436 -0.022602 -0.248262 -0.057554 -0.056411 -0.055325 0.014533 0.092634 0.026364 0.02868 0.085182 -0.004866 -0.100727 0.054351 -0.028974 0.102074 0.069635 -0.041136 -0.089798 0.051776 0.083275 0.234354 -0.123983 0.051701 -0.008897 0.05132 0.05555 0.19595 0.128802 -0.114157 -0.083353 -0.123031 -0.037938 0.004331 -0.043416 0.102892 6.96E-4 0.16218 0.085795
-2.648351 -0.794316 -2.108887 0.20446 0.883061 0.242784 1.848653 1.149137 -4.975573 0.237654 -1.499665 2.924494 0.344217 -1.640431 0.763777 0.138944 -3.029439 -2.813434 -0.761102 -1.057557 -1.373735 -0.870599 1.234095 0.127805 -1.372618 1.35802 -1.501738 0.80945 0.172993 -0.484995 1.783363 -0.047587 0.483285 -1.526831 2.103549 2.116639 4.583491 -4.022388 -0.843817 0.361243 -0.546655 -2.301259 -2.000973 2.64631 -1.604053 -1.914206 -1.581895 -0.464185 1.757769 1.056301 0.263866 -0.904419 -0.422466 0.007824 -1.651553 0.7499 1.638666 -0.336108 -3.288466 -2.953238 -1.135414 1.165223 -1.047256 -0.821696 -0.135806 0.434207 -2.389307 -3.56953 -0.656773 0.578325 3.337902 0.782195 -1.250815 2.925509 -1.981492 0.121786 0.836257 1.710923 -2.640405 -0.628995 0.247469 0.863847 1.749171 -0.214156 -0.274807 2.192709 -0.892334 -1.614644 -1.225919 -0.042182 2.51632 3.464583 -3.591523 -2.506587 0.990426 1.8843 -2.460629 0.953462 0.359605 2.267383
-1.66091 2.095639 -1.46621 3.309005 0.61312 1.256683 2.017934 -0.87743 -1.546743 1.786159 1.25968 2.733098 -3.278479 0.967564 -0.190451 -0.552144 -0.109189 -0.944379 -0.110468 -0.112484 -0.281945 -0.7181 0.794946 0.244085 -1.825048 -0.285692 -0.07723 1.649511 0.543842 -1.836495 -0.91742 1.445495 -0.097605 -0.696748 -2.611886 -0.711086 0.771625 -1.299309 2.327596 -1.188444 -2.235524 -5.137472 3.250959 0.813141 -0.770182 1.230391 -3.273619 1.68843 2.471855 -0.230997 3.226366 -1.521484 1.04289 -0.560341 -0.102752 -0.802465 -0.439704 0.680094 -1.633372 -3.278212 -0.655021 2.573425 2.203724 0.393343 -0.643198 -0.480508 -2.065379 0.179951 -0.357508 4.32759 1.741732 0.967685 -0.111901 1.41527 2.469918 -1.413432 -0.903816 -0.791662 1.243461 0.410591 1.201544 0.542635 0.761763 -1.30929 -2.473404 0.417914 -0.723028 1.293002 0.116347 0.827325 -1.090184 -0.925006 -1.769734 -1.51027 1.29583 0.650074 -0.472872 1.573852 -2.093164 1.419335
2.591633 1.608701 -2.087245 2.00752 3.012652 4.995656 0.847355 -1.594905 -0.365708 -1.629805 -1.650237 3.712017 -0.231463 -0.537534 -2.036098 2.002639 -0.696666 -4.310136 -1.477319 -1.356504 -0.581823 -1.830239 -0.272773 -1.648095 0.090509 0.008711 0.330842 0.396714 2.341035 -0.526067 1.155793 -1.730906 -1.010387 -1.342646 -1.939355 0.734869 0.727366 0.700702 1.516974 -2.133831 -0.280653 -3.051674 0.017123 0.532043 1.478449 0.375441 0.920129 1.548929 1.087478 0.668327 0.707416 3.249232 -0.362503 1.273221 -2.929682 -0.245389 1.633444 -0.119836 0.103459 -3.445175 0.513245 0.427807 0.738792 1.448203 0.501908 0.362882 -0.731533 -0.391201 0.037778 3.053553 4.030229 1.793904 1.24136 0.081706 -1.401954 -0.638804 -0.487445 -0.267924 0.012844 0.538179 -0.241935 -0.068756 1.351665 -0.112558 0.001814 0.447262 0.833441 -0.023876 1.212707 1.514635 -0.568611 0.376173 -3.663739 -4.345135 -0.444319 2.139788 -2.53093 0.92131 -1.399435 1.763954
-2.023317 -0.288661 3.343719 0.745857 0.330722 0.494487 -0.403348 1.237553 -2.113159 1.343897 0.331921 -0.918266 1.242954 1.344865 -1.704226 1.07399 2.31593 -0.269512 -1.10991 0.865428 -1.333634 2.806799 1.279828 0.795786 -0.670757 -0.30799 0.258655 2.370992 -0.901832 1.637475 0.28803 0.520532 -0.700248 -1.157682 -1.272981 -2.543933 -1.167453 -1.157282 0.924984 -1.048366 0.605973 -0.724995 -1.302283 -1.081224 -1.025383 0.720412 0.135103 -2.051202 -0.108934 1.715762 0.692534 -1.74886 0.581339 -0.177159 -0.297489 -1.437658 1.564703 -0.572871 1.171495 1.181525 -0.423067 -0.472042 -0.721115 2.368121 -0.321874 -3.160666 1.416594 0.029188 1.080243 -0.448513 1.826288 1.79762 -1.49526 0.816294 -1.544187 1.122639 1.235169 -0.373091 -1.110419 0.91262 -0.157622 0.722452 -1.164384 -1.520291 0.049422 0.312274 0.074228 1.928464 0.895854 -1.771081 -0.804529 -1.342057 -2.469247 -0.510615 1.242284 -0.21295 -1.450711 -1.1566 -0.336574 0.39662
-0.671963 -1.356401 3.602218 0.823366 -0.502176 -0.026847 2.688116 0.953721 0.412325 -0.074957 -2.563688 0.379861 -0.279054 0.512633 -0.426346 -0.669122 -2.193019 -1.985633 1.195718 -0.843091 -3.07709 -2.336138 0.676971 -1.157188 0.84245 -0.067074 1.662677 -0.902702 0.573933 0.762577 1.605777 -0.494156 -0.764054 -4.857189 1.199538 0.081996 1.582965 -1.800896 1.133021 -2.874443 -0.067305 0.527258 -0.963475 2.056148 -0.810059 -2.590427 0.192699 -0.925293 0.533123 0.50128 0.198265 1.047486 -1.15476 -0.133629 -3.660616 2.9145 0.67414 -1.747608 -1.472014 0.506851 -0.089567 -1.009712 -0.989767 -0.231732 -1.20197 -0.899847 -0.180586 -0.280434 1.214359 0.601947 3.002038 1.452004 1.898121 0.64863 -0.773459 -0.546508 1.482508 0.349815 -0.022055 1.977613 1.349274 -0.187718 2.026595 2.419264 -2.256871 -0.764584 -0.110956 2.609596 -0.511332 0.497735 1.205947 -0.553892 0.146347 -2.201324 -0.117853 -0.193777 0.312823 3.388883 -4.036498 2.412019
1.458453 0.461621 -0.565007 2.153983 1.51962 1.489104 1.12339 -0.248968 1.192089 0.7237 -0.648262 3.44491 -1.066014 0.026964 0.446642 0.456607 1.349734 -3.452647 -4.421166 -0.763816 -2.213671 0.705645 0.393467 -0.181625 0.229686 0.207294 0.320559 0.019115 0.444893 -1.975344 -0.528647 1.327188 0.780856 0.31256 -1.117735 -1.383431 1.000022 -0.017067 2.980781 1.12181 0.989779 -2.912537 1.385431 -0.457764 -1.05709 -0.654492 -1.555168 2.653252 1.273307 -1.535628 2.192677 1.010449 0.526815 -0.587353 -1.194146 0.011337 0.313473 1.081607 -0.682398 0.040844 -1.530213 -0.538433 -0.398161 -0.074265 -0.122616 1.621629 -1.335092 -1.93905 -1.359527 -0.752871 2.206322 0.579388 0.817437 -0.307137 2.518895 -1.285975 1.722628 -2.015369 -1.763765 2.312843 -1.772004 -1.339821 -0.815019 0.351869 0.673671 1.040771 1.45817 0.388091 1.099494 1.640597 1.818861 0.214964 -3.369435 -0.480493 0.702955 -0.023233 0.409945 -0.795231 -1.670928 4.596399
0.135717 -0.065497 0.02281 0.048052 -0.011836 -0.09375 0.0016 -0.035631 -0.026011 -0.016446 0.147576 0.093555 -0.033806 0.001119 0.136647 0.086354 -0.119676 0.293363 0.140583 -0.140273 0.092999 0.105554 0.007309 -0.047042 -0.138044 -0.144529 -0.090671 0.023305 0.042831 -0.089424 -0.009516 -0.050607 -0.11973 0.043476 -0.110033 -0.070775 0.210602 -0.044688 0.047415 0.07877 -0.058849 0.123783 -0.083304 0.146343 -0.016713 -0.014302 -0.083131 -0.029171 -0.052871 0.027786 -0.056479 -0.019677 -0.067362 0.060823 0.051262 -0.094924 0.099503 0.030649 0.106531 -0.086298 0.023543 -0.100214 0.036796 -0.033757 -0.018593 0.054249 -0.041703 -0.048402 0.151764 -0.052203 -0.028287 0.059596 0.03622 0.059919 0.042116 -0.083798 0.077838 -0.039275 -0.10326 -0.058138 -0.047792 -0.041267 0.071076 -0.034964 0.077873 0.115244 -0.016893 -0.059243 0.145701 -0.018047 -0.084552 -0.05323 0.136246 0.034465 0.051731 -0.033088 0.142559 -0.100828 -0.127029 -0.153227
-0.122247 -0.018276 -0.099628 0.027071 -0.001445 0.015171 -0.016251 -0.160902 -0.006234 -0.01795 0.182528 0.125731 0.127319 0.189076 -0.054803 0.074121 0.054069 -0.019191 -0.029783 -0.076321 -0.119661 -0.009513 -0.006156 0.012669 -0.106817 0.105532 -0.087229 0.053013 0.09055 -0.087609 -0.006776 -0.125822 -0.104105 0.077263 0.078144 -0.138192 0.087302 -0.106029 0.070743 0.004259 -0.140686 -0.06964 0.116389 0.204214 -0.081042 -0.114202 0.062367 0.051679 -0.155008 -0.025024 0.00632 0.024899 -0.01163 0.098813 -0.030746 -0.146319 0.070112 -0.050388 0.161857 -0.102025 -0.0015 0.074622 -0.057569 0.002225 -0.073504 -0.023547 0.011315 -0.058355 0.09245 -0.256943 -0.106973 -0.078092 -0.058933 -0.154668 0.008188 -0.1273 -0.209491 -0.129433 -0.154055 0.007675 -0.084449 0.09358 -0.024157 0.078921 0.165023 0.190969 0.109867 -0.037535 -0.111881 -0.066166 -0.050134 0.036668 -0.159862 0.04728 0.099228 -0.010071 0.073275 -0.121529 -0.044125 -0.002968
-0.138592 -0.271833 0.118814 -0.02021 -0.266493 0.161467 -0.265617 0.099836 -0.190334 -0.12667 -0.029054 0.221119 -0.033505 0.007077 0.069918 0.063172 -0.14928 0.075313 -0.078727 0.11767 0.040559 -0.062533 0.107711 -0.013662 -0.194602 -0.027123 0.02078 0.017081 0.202102 -0.175173 -0.177316 0.045238 -0.107053 -0.077784 -0.048914 -0.065415 -0.056133 -0.004421 -0.231409 0.146404 0.088599 -0.169967 0.130374 0.144953 0.227703 0.013735 0.014891 0.196793 0.203234 -0.115706 0.040348 -0.277525 -0.258434 -0.039265 0.049736 -0.159048 -0.261463 -0.061389 -0.116186 -0.065953 -0.020217 -0.015362 -0.005119 -0.077227 -0.193008 0.087169 0.104908 0.108972 -0.024335 0.003069 -0.0114 -0.07505 0.146028 0.092169 0.009984 0.009441 -0.089921 -0.076484 0.149382 -0.129716 -0.030101 0.241964 0.221506 0.163706 0.116518 0.157613 -0.029026 0.013605 -0.156119 0.108773 0.016597 -0.048682 -0.181749 0.07382 0.002511 -0.142316 -0.145874 -0.013444 -0.094413 -0.047403
