0.0 0.0 0.0 0.0 0.0 0.0 0.0 0.0 0.0 0.0 0.0 0.0 0.0 0.0 0.0 0.0 0.0 0.0 0.0 0.0 0.0 0.0 0.0 0.0 0.0 0.0 0.0 0.0 0.0 0.0 0.0 0.0 0.0 0.0 0.0 0.0 0.0 0.0 0.0 0.0 0.0 0.0 0.0 0.0 0.0 0.0 0.0 0.0 0.0 0.0 0.0 0.0 0.0 0.0 0.0 0.0 0.0 0.0 0.0 0.0 0.0 0.0 0.0 0.0 0.0 0.0 0.0 0.0 0.0 0.0 0.0 0.0 0.0 0.0 0.0 0.0 0.0 0.0 0.0 0.0 0.0 0.0 0.0 0.0 0.0 0.0 0.0 0.0 0.0 0.0 0.0 0.0 0.0 0.0 0.0 0.0 0.0 0.0 0.0 0.0
0.0 0.0 0.0 0.0 0.0 0.0 0.0 0.0 0.0 0.0 0.0 0.0 0.0 0.0 0.0 0.0 0.0 0.0 0.0 0.0 0.0 0.0 0.0 0.0 0.0 0.0 0.0 0.0 0.0 0.0 0.0 0.0 0.0 0.0 0.0 0.0 0.0 0.0 0.0 0.0 0.0 0.0 0.0 0.0 0.0 0.0 0.0 0.0 0.0 0.0 0.0 0.0 0.0 0.0 0.0 0.0 0.0 0.0 0.0 0.0 0.0 0.0 0.0 0.0 0.0 0.0 0.0 0.0 0.0 0.0 0.0 0.0 0.0 0.0 0.0 0.0 0.0 0.0 0.0 0.0 0.0 0.0 0.0 0.0 0.0 0.0 0.0 0.0 0.0 0.0 0.0 0.0 0.0 0.0 0.0 0.0 0.0 0.0 0.0 0.0
0.033262 -0.16117 0.13467 0.091658 0.014891 0.016016 -0.088266 -0.146224 -0.224295 0.217601 0.180065 0.173341 -0.015515 -0.052919 0.128803 0.139891 -0.200362 0.264009 -0.103705 0.227047 -0.069723 0.106533 0.136001 -0.036137 -0.171306 -0.114902 0.118407 -0.047848 0.091394 -0.164243 -0.168452 -0.031829 -0.002365 0.157613 -0.21191 -0.19934 0.164451 0.151938 -0.146305 0.158728 -0.158495 0.038506 0.068969 -0.215115 0.073586 0.083185 0.018759 -0.061452 0.007867 0.173125 -0.019944 -0.2539 -0.192013 -0.22608 0.108917 -0.018202 0.017686 0.030978 -0.023917 -0.030772 0.101985 -0.137671 0.094896 0.100242 -0.167077 -0.197783 0.106094 0.054417 0.15954 0.239923 0.217228 0.009842 0.150518 -0.070917 -0.094265 -0.058233 -0.103534 -0.063296 -0.032325 -0.035789 0.006244 0.089003 -0.012472 -0.067128 0.079206 -0.258852 -0.202082 -0.069712 0.221969 0.118046 -0.120068 -0.070993 -0.010733 0.010785 0.0241 -0.142613 0.257608 -0.021744 -0.111589 0.066257
-1.755359 -0.07591 -1.593009 -0.425061 0.44069 0.107067 -0.371059 -0.069703 0.400584 -0.503028 -0.037329 0.050354 0.834284 0.902048 1.321288 0.019724 0.953061 2.048096 1.137299 -0.080193 -1.143829 -0.410075 0.461381 1.13632 -0.636492 -0.582725 -1.293348 -0.394383 1.577079 1.016596 1.973266 0.003915 1.048791 -0.659147 0.695323 -0.475951 0.263563 1.082426 -1.774197 -0.822503 0.091545 -0.696758 -1.178203 -0.798643 -1.161977 1.443486 -0.099852 -0.664883 -7.4E-4 1.345621 -0.461627 1.385808 -0.605838 1.08716 -0.610844 -0.277862 -0.509252 -0.298897 0.52016 0.325951 -0.442958 0.979123 -0.448243 0.558447 -1.148107 -0.470025 -0.887277 -0.354332 1.390851 -1.541109 0.769431 1.140166 -1.068383 -1.726699 0.169505 0.370956 -0.46896 -2.04307 1.492193 0.315718 -0.108716 0.423287 -0.820683 -0.206732 -0.744844 0.119646 0.589837 0.434065 0.438217 0.51311 0.051947 -0.274532 0.89477 1.639429 0.787081 0.598983 0.956626 0.890332 0.782824 -0.843892
-0.074421 0.063847 -0.044037 -0.146646 0.099875 -0.043919 0.014655 -0.106747 -0.00979 -0.138736 0.008141 0.192097 -0.074971 0.086105 -0.023337 0.112039 -0.22732 0.066462 0.128509 -0.100465 -0.012509 -0.232036 -0.19631 0.326688 -0.040497 -0.152873 -0.121296 -0.091672 0.016193 -0.132619 -0.04406 -0.064274 -0.216711 0.05049 0.074412 0.136477 0.109942 0.082967 -0.004696 -0.019662 -0.058979 0.090248 0.038265 0.041558 -0.087881 0.042592 -0.219013 -0.062675 -0.096931 -0.026366 -0.07788 -0.007334 -0.041026 -0.059957 -0.117275 0.060738 -0.166885 -0.077923 -0.115195 -0.119556 -0.002539 0.076612 0.039998 -0.068412 0.249418 0.062724 -0.09385 -0.012739 -0.011949 0.08456 0.037482 0.114306 0.174735 -0.08961 0.018154 0.079578 -0.014684 -0.130821 -0.082368 -0.099736 0.045928 0.002098 -0.004378 0.124767 -0.038977 0.066756 0.108732 -0.121572 -0.063035 0.049049 0.048821 -0.049075 -0.080235 -0.0997 -0.048978 0.028219 -0.153002 -0.008252 0.292787 0.115853
0.0 0.0 0.0 0.0 0.0 0.0 0.0 0.0 0.0 0.0 0.0 0.0 0.0 0.0 0.0 0.0 0.0 0.0 0.0 0.0 0.0 0.0 0.0 0.0 0.0 0.0 0.0 0.0 0.0 0.0 0.0 0.0 0.0 0.0 0.0 0.0 0.0 0.0 0.0 0.0 0.0 0.0 0.0 0.0 0.0 0.0 0.0 0.0 0.0 0.0 0.0 0.0 0.0 0.0 0.0 0.0 0.0 0.0 0.0 0.0 0.0 0.0 0.0 0.0 0.0 0.0 0.0 0.0 0.0 0.0 0.0 0.0 0.0 0.0 0.0 0.0 0.0 0.0 0.0 0.0 0.0 0.0 0.0 0.0 0.0 0.0 0.0 0.0 0.0 0.0 0.0 0.0 0.0 0.0 0.0 0.0 0.0 0.0 0.0 0.0
-3.058052 -0.101974 -2.395693 0.662007 -0.794665 0.175706 0.734978 -0.556536 2.493414 -0.635728 1.237568 1.811113 0.990907 0.801009 1.983657 -0.005137 0.437205 1.28489 0.678821 -0.353893 -1.48687 0.631356 0.304942 -0.02405 -0.804355 -0.116109 -1.215135 -0.499167 0.941454 1.449237 2.730778 0.846666 2.621114 -1.933413 1.103636 -0.700347 0.932487 0.857622 -4.312546 -3.51169 0.447424 -2.422955 -0.900095 -1.312408 -0.532785 1.225136 -0.115185 1.553498 -0.305108 1.691595 -0.011532 1.820878 -1.008859 2.224394 -1.464451 -0.299696 -0.777864 -0.671639 -0.619407 0.204966 -0.002642 2.045711 -2.527683 -0.897285 1.98E-4 -0.542339 0.105433 2.621662 3.007877 -0.906714 1.706685 2.824775 -2.330121 -3.425765 -0.150438 0.355009 -0.523631 -1.619664 3.021393 1.757366 -1.561288 -0.681306 -0.66744 -1.19444 0.118017 0.015301 1.304066 -0.543009 0.31076 -0.852266 0.624411 -0.35296 -0.136202 1.994028 2.382278 -2.44484 0.485053 1.911836 1.835474 0.626144
0.352905 0.550922 -1.128945 -0.511125 0.774489 1.405335 -0.371647 0.106012 -0.779785 -0.640302 -0.68578 1.570717 -0.712288 -0.706705 -0.789609 -0.045278 -1.599722 -2.840112 -0.089543 -1.158838 -1.862605 -0.62748 -0.063542 -0.468696 0.750564 0.033551 -0.772222 -0.188991 -0.163115 0.455978 0.038455 -0.779588 0.172303 -1.114448 -0.548246 -0.008155 1.66721 -0.744821 -0.15746 -2.668482 -0.304702 -0.905716 0.479063 0.151803 -0.94063 -0.044338 -0.906122 -0.456182 0.281891 0.268287 0.47007 0.628019 0.328428 1.471286 -2.345457 0.072073 -0.345477 -0.998199 -1.496897 -0.053061 0.351206 -0.934426 0.295591 0.07336 0.24092 0.486976 0.390085 -0.621556 0.375246 -0.02625 1.957847 1.014101 0.004675 0.08874 -0.900479 -0.462149 0.922254 1.355385 -1.048724 0.105897 1.254466 0.410718 0.321258 1.066395 -0.171761 -0.128774 0.315556 0.697301 -0.180925 0.555334 1.005586 -0.891677 -1.232923 -1.994189 -0.567812 0.204184 -0.947385 -0.051526 -0.987029 0.725141
0.0 0.0 0.0 0.0 0.0 0.0 0.0 0.0 0.0 0.0 0.0 0.0 0.0 0.0 0.0 0.0 0.0 0.0 0.0 0.0 0.0 0.0 0.0 0.0 0.0 0.0 0.0 0.0 0.0 0.0 0.0 0.0 0.0 0.0 0.0 0.0 0.0 0.0 0.0 0.0 0.0 0.0 0.0 0.0 0.0 0.0 0.0 0.0 0.0 0.0 0.0 0.0 0.0 0.0 0.0 0.0 0.0 0.0 0.0 0.0 0.0 0.0 0.0 0.0 0.0 0.0 0.0 0.0 0.0 0.0 0.0 0.0 0.0 0.0 0.0 0.0 0.0 0.0 0.0 0.0 0.0 0.0 0.0 0.0 0.0 0.0 0.0 0.0 0.0 0.0 0.0 0.0 0.0 0.0 0.0 0.0 0.0 0.0 0.0 0.0
1.09E-4 0.397698 -0.01212 0.11016 -0.039403 0.275803 -0.096353 -0.032461 -0.013388 0.095615 -0.104351 0.018538 0.016031 0.133756 -0.090127 0.055416 -0.003537 -0.125136 -0.131425 -0.134459 0.014198 0.073121 -0.146927 0.004029 0.060538 0.043738 0.078495 0.041791 0.047922 0.146157 -0.099017 0.092807 0.004849 -0.201871 -0.023141 -0.068147 0.127304 0.143314 -0.099681 -0.082436 -0.032629 -0.142282 -0.003817 0.156985 0.030089 0.083962 0.044569 0.006103 0.181276 -0.09916 0.008515 -0.092319 -0.002511 0.054832 -0.136304 -0.175129 -0.047986 0.031669 0.132885 0.034345 0.068344 0.091818 -5.61E-4 0.249669 -0.049361 0.091257 -0.093974 0.090309 0.055685 -0.004618 0.072364 0.10877 0.124341 -0.110871 -0.034293 -0.085106 -0.344965 0.02472 -0.021381 0.095171 0.063866 -0.002562 0.048378 0.11102 -0.105186 -0.139366 0.048634 -0.052032 0.136682 -0.1041 -0.083925 -0.138318 -0.151089 0.168239 0.01183 -0.210839 -0.145975 0.008797 0.123701 0.035309
-0.027751 -0.236417 0.035329 -0.015178 0.085594 0.115009 -0.256773 -0.207905 -0.036317 0.205622 0.307445 0.068497 0.1779 0.00518 0.225303 0.282446 -0.094408 0.034572 0.063258 0.03769 -0.133753 0.069426 0.338632 0.045353 -0.072922 -0.216289 0.042021 -0.220968 -0.025668 0.009022 0.093263 -0.104672 0.082561 0.155492 -0.03495 -0.085293 -0.0462 -0.07143 0.077188 0.062255 0.005506 0.084593 0.044633 0.016101 -0.060731 -0.014676 0.10661 -0.033706 -0.199983 0.299911 0.054336 -0.057527 -0.116818 0.097577 0.186033 -0.054987 0.077285 0.071407 0.200615 -0.057269 -0.008148 0.063125 -0.017685 -0.160977 -0.085853 -0.129897 0.239829 -0.137082 0.035124 -0.04857 0.042273 -0.219691 0.086647 -0.076075 0.260529 0.02115 -0.013517 0.124725 -0.046989 0.020679 0.013599 0.084107 0.021875 -0.22103 -0.140909 0.028579 -0.132448 -0.260188 -0.107119 0.099412 -0.217944 0.142839 -0.171686 -0.089725 -0.078693 -0.113678 0.308513 -0.040371 -0.024131 -0.151473
-0.03565 -0.100696 -0.018209 0.141486 0.060372 0.092909 -0.015626 -0.002745 0.062568 0.036885 0.047103 0.182831 -0.129336 0.018142 0.103925 0.295781 -0.101293 0.02999 -0.077677 -0.058336 -0.055092 0.10057 0.13739 0.108688 -0.229841 0.003722 -0.051399 0.10737 0.081878 -0.100141 0.029502 -0.067911 -0.024437 0.031179 -0.046274 -0.124512 0.044924 -0.136048 -0.088552 0.155695 0.063187 0.009627 0.121183 0.132173 0.047165 -0.165771 -0.119729 0.020826 -0.002601 -0.036886 -0.042914 0.102129 -0.009303 0.125766 0.111736 0.094584 0.065628 -0.036816 0.144994 -0.085161 0.134878 -0.24026 -0.068417 0.019558 0.015414 0.135673 0.100891 0.02093 0.023804 -0.100704 -0.064668 0.022182 0.076249 0.027237 0.011886 -0.06533 -0.136987 -0.080291 -0.037063 -0.076144 0.066069 0.189403 0.122077 0.1833 -0.014154 -0.015402 0.134964 0.086471 0.096793 0.053529 -0.024095 -0.137494 0.084718 0.016831 -0.063593 -0.064013 0.124948 -0.102721 -0.027417 0.04525
-0.004562 -0.100348 0.094524 0.10012 -0.179871 -0.02016 -0.094235 -0.099573 0.011027 0.146971 0.147102 0.184213 -0.023834 2.75E-4 0.159158 0.213021 -0.153684 0.022512 0.027653 -0.150245 -0.132715 0.062684 0.095396 0.212613 -0.078541 -0.119074 -0.119052 -0.002268 0.291432 -0.079183 0.113242 -0.022937 -0.09814 -0.072434 0.018712 -0.105305 -0.053185 -0.149216 0.066468 0.042147 -0.149929 0.075761 -0.005677 0.095925 -0.031254 -0.056541 0.014701 -0.086535 -0.06623 0.03481 0.140603 -0.129709 -0.03764 0.116281 -0.143616 -0.145789 -0.030832 0.04494 0.136655 -0.178783 -0.02784 -0.164396 0.036297 -0.024126 0.038356 -0.140794 0.03202 0.005423 0.078636 -0.176906 -0.021546 0.030375 2.51E-4 -0.046509 -0.076436 -0.151566 -0.055567 0.064979 -0.165415 -0.06608 -0.004399 0.063759 0.135374 -0.047418 0.036585 -0.009274 0.048325 -0.036684 0.219826 -0.031229 -0.14786 -0.089685 -0.092397 0.2125 -0.14363 -0.182505 0.097153 -0.147751 0.047014 -0.17146
0.0 0.0 0.0 0.0 0.0 0.0 0.0 0.0 0.0 0.0 0.0 0.0 0.0 0.0 0.0 0.0 0.0 0.0 0.0 0.0 0.0 0.0 0.0 0.0 0.0 0.0 0.0 0.0 0.0 0.0 0.0 0.0 0.0 0.0 0.0 0.0 0.0 0.0 0.0 0.0 0.0 0.0 0.0 0.0 0.0 0.0 0.0 0.0 0.0 0.0 0.0 0.0 0.0 0.0 0.0 0.0 0.0 0.0 0.0 0.0 0.0 0.0 0.0 0.0 0.0 0.0 0.0 0.0 0.0 0.0 0.0 0.0 0.0 0.0 0.0 0.0 0.0 0.0 0.0 0.0 0.0 0.0 0.0 0.0 0.0 0.0 0.0 0.0 0.0 0.0 0.0 0.0 0.0 0.0 0.0 0.0 0.0 0.0 0.0 0.0
0.033262 -0.16117 0.13467 0.091658 0.014891 0.016016 -0.088266 -0.146224 -0.224295 0.217601 0.180065 0.173341 -0.015515 -0.052919 0.128803 0.139891 -0.200362 0.264009 -0.103705 0.227047 -0.069723 0.106533 0.136001 -0.036137 -0.171306 -0.114902 0.118407 -0.047848 0.091394 -0.164243 -0.168452 -0.031829 -0.002365 0.157613 -0.21191 -0.19934 0.164451 0.151938 -0.146305 0.158728 -0.158495 0.038506 0.068969 -0.215115 0.073586 0.083185 0.018759 -0.061452 0.007867 0.173125 -0.019944 -0.2539 -0.192013 -0.22608 0.108917 -0.018202 0.017686 0.030978 -0.023917 -0.030772 0.101985 -0.137671 0.094896 0.100242 -0.167077 -0.197783 0.106094 0.054417 0.15954 0.239923 0.217228 0.009842 0.150518 -0.070917 -0.094265 -0.058233 -0.103534 -0.063296 -0.032325 -0.035789 0.006244 0.089003 -0.012472 -0.067128 0.079206 -0.258852 -0.202082 -0.069712 0.221969 0.118046 -0.120068 -0.070993 -0.010733 0.010785 0.0241 -0.142613 0.257608 -0.021744 -0.111589 0.066257
-0.026796 -0.042673 0.238879 0.086629 -0.138012 0.10396 -0.253822 -0.095431 0.040919 0.170772 0.041344 0.124978 0.020786 -0.119389 0.148704 -0.031682 -0.323068 0.136518 0.046353 0.11936 0.107688 0.061635 0.15761 0.055757 -0.271554 -0.161478 0.170483 -0.146057 0.185458 -0.185069 -0.255931 -0.199377 -0.09627 0.043844 -0.107663 -0.207045 0.217879 -0.004055 -0.228915 0.107414 0.026985 -0.049877 -0.096715 -0.065689 0.101159 0.176814 -0.014127 0.138586 -0.025157 -0.105818 0.147084 -0.026367 -0.129457 0.048116 0.154455 -0.0517 -0.130753 0.250435 0.113382 -0.104177 -0.120084 -0.038847 0.12467 0.019337 -0.213328 0.078201 -0.170862 0.103183 -0.006453 0.056958 -0.088844 -0.002764 -0.076232 0.015034 -0.032965 0.02451 -0.221616 -0.098836 -0.137238 -0.10204 -0.242392 0.131154 0.154015 0.101464 0.124106 0.03736 -0.162921 0.012638 -0.039242 0.190272 -0.033751 -0.011746 -0.158403 0.026714 0.075489 -0.128742 0.087661 -0.057824 0.012037 0.018141
-0.047421 -0.15849 0.107499 0.089927 0.167776 0.08617 -0.300314 -0.309623 0.108092 0.189928 0.056687 0.033222 -0.077897 -0.080874 0.159018 0.266839 -0.245001 0.016831 -0.085825 0.058383 -0.059198 -0.055262 0.240707 -0.12969 -0.22039 0.060318 -0.047124 -0.139865 0.089529 -0.172326 0.039714 -0.133083 -0.093917 0.050088 -0.217563 -0.099461 0.041898 -0.126919 0.020688 0.317283 0.16597 0.022872 0.046324 -0.073254 -0.180954 0.079862 0.019486 0.185367 0.118476 0.006355 -0.032953 -0.037425 0.063885 0.11699 0.184923 0.052025 0.128145 -0.13686 0.190992 -0.211976 0.013083 -0.015876 -0.029147 0.01214 -0.021098 0.071397 0.239282 -0.021331 -0.132596 -0.213218 -0.047197 -0.061747 0.108005 0.06585 0.170104 0.21 0.017802 0.149472 0.139998 -0.100998 0.016478 -0.071088 -0.215638 -0.123884 -0.172349 0.055991 -0.115719 -0.021301 0.071983 0.092645 -0.139537 0.078519 -0.099633 0.035876 -0.078405 -0.346964 0.042416 0.013565 -0.105723 -0.0419
0.0 0.0 0.0 0.0 0.0 0.0 0.0 0.0 0.0 0.0 0.0 0.0 0.0 0.0 0.0 0.0 0.0 0.0 0.0 0.0 0.0 0.0 0.0 0.0 0.0 0.0 0.0 0.0 0.0 0.0 0.0 0.0 0.0 0.0 0.0 0.0 0.0 0.0 0.0 0.0 0.0 0.0 0.0 0.0 0.0 0.0 0.0 0.0 0.0 0.0 0.0 0.0 0.0 0.0 0.0 0.0 0.0 0.0 0.0 0.0 0.0 0.0 0.0 0.0 0.0 0.0 0.0 0.0 0.0 0.0 0.0 0.0 0.0 0.0 0.0 0.0 0.0 0.0 0.0 0.0 0.0 0.0 0.0 0.0 0.0 0.0 0.0 0.0 0.0 0.0 0.0 0.0 0.0 0.0 0.0 0.0 0.0 0.0 0.0 0.0
0.042965 0.091457 0.026244 -0.004545 -0.032671 0.011228 -0.027083 0.033221 0.053481 0.032875 -0.068344 0.046212 0.06243 -0.08466 0.041345 0.046895 -0.026535 0.150355 -0.04174 0.039699 -0.042765 0.003815 0.015208 -0.067987 -0.117689 -0.052636 -0.035928 0.056232 0.054946 -0.078945 -0.028883 -0.135246 0.121287 -0.013887 -0.104361 -0.052259 -0.049109 0.125782 0.080225 0.084947 -0.00491 -0.11172 8.82E-4 0.033622 0.131892 -0.06292 0.133915 0.041215 0.015206 0.115024 0.009945 -0.006799 -0.048487 -0.007956 0.114867 -0.086547 -0.018898 -0.005203 0.037294 -0.012925 0.117138 -0.016922 -2.05E-4 0.105855 -0.046617 -0.035222 -0.062591 -0.165809 -0.044917 -0.034163 0.015143 -0.060246 -0.120136 0.127429 -0.103166 -0.005485 -0.08819 0.009681 0.103155 0.05756 0.003185 0.193501 -0.07984 -0.039861 0.011136 0.092119 -0.070637 0.11431 -0.018449 -0.044468 -0.033716 0.028779 0.00968 -0.031002 0.144899 -0.048444 0.065353 -0.011243 -0.053199 -0.029479
-1.755359 -0.07591 -1.593009 -0.425061 0.44069 0.107067 -0.371059 -0.069703 0.400584 -0.503028 -0.037329 0.050354 0.834284 0.902048 1.321288 0.019724 0.953061 2.048096 1.137299 -0.080193 -1.143829 -0.410075 0.461381 1.13632 -0.636492 -0.582725 -1.293348 -0.394383 1.577079 1.016596 1.973266 0.003915 1.048791 -0.659147 0.695323 -0.475951 0.263563 1.082426 -1.774197 -0.822503 0.091545 -0.696758 -1.178203 -0.798643 -1.161977 1.443486 -0.099852 -0.664883 -7.4E-4 1.345621 -0.461627 1.385808 -0.605838 1.08716 -0.610844 -0.277862 -0.509252 -0.298897 0.52016 0.325951 -0.442958 0.979123 -0.448243 0.558447 -1.148107 -0.470025 -0.887277 -0.354332 1.390851 -1.541109 0.769431 1.140166 -1.068383 -1.726699 0.169505 0.370956 -0.46896 -2.04307 1.492193 0.315718 -0.108716 0.423287 -0.820683 -0.206732 -0.744844 0.119646 0.589837 0.434065 0.438217 0.51311 0.051947 -0.274532 0.89477 1.639429 0.787081 0.598983 0.956626 0.890332 0.782824 -0.843892
-0.064357 -0.033406 -0.006591 0.181457 0.041885 0.1408 -0.109843 0.016376 0.068228 -0.045519 0.005233 0.012036 0.05064 -0.052642 0.185426 0.139427 -0.155023 0.12963 0.063368 -0.055016 -0.054854 -0.018229 0.216037 -0.004417 -0.285826 -0.095238 -0.069825 -0.021777 0.187402 -0.130867 -0.00675 -0.075803 -0.044586 0.061098 0.044502 -0.138919 0.031721 -0.005549 0.063477 5.3E-5 0.101342 0.067759 0.180205 0.110423 -0.107152 0.014466 -0.095647 -0.001514 -0.13148 0.090497 0.038783 -0.236052 -0.139813 -0.061498 0.050517 -0.013343 -0.001507 0.083055 0.065801 -0.03321 0.124938 -0.104659 -0.042903 -0.049201 -0.088403 -0.030678 0.055664 0.085579 0.303591 -0.024133 0.025756 -0.085778 0.02809 -0.058313 0.028445 -0.065808 -0.182156 -0.019053 0.014958 -0.002839 -0.024485 0.159415 0.06125 -0.100844 0.111327 0.042033 0.023134 -0.078359 0.169092 -0.074151 -0.058673 0.083338 0.03916 0.23854 -0.125673 0.017002 0.129169 0.039082 0.127676 0.034378
-0.125002 -0.066817 -0.180766 -0.059979 -0.092662 0.094897 -0.157281 0.149876 -0.054601 0.166557 -0.072196 0.088903 -0.020504 0.030954 0.011593 0.059236 -0.015654 0.027102 -0.072601 -6.44E-4 -0.078562 0.006416 0.115282 0.100459 -0.12915 0.113299 0.140987 -0.12095 -0.008716 -0.12589 0.203538 0.027711 -0.108113 0.027425 -0.207183 0.041097 0.067443 0.016476 0.109709 -0.043383 0.097247 0.087611 0.04971 0.11518 -0.029272 0.019313 0.044622 0.126768 0.085755 -0.041414 -0.035159 -0.020206 0.044492 -0.04271 0.164299 -0.173956 0.054438 -0.129314 0.01258 -0.154185 0.057271 -0.092325 0.08629 -0.193376 -0.149163 0.081389 0.135752 0.015912 3.93E-4 -0.028525 -0.160906 0.162119 0.114114 -0.051617 0.16827 -0.17756 -0.052901 0.055456 0.057253 -0.128881 0.052534 0.293794 0.215936 -0.042191 0.051492 -0.083139 -0.037911 0.10892 0.014079 0.182417 -0.069847 0.044903 -0.082355 0.156042 -0.11172 -0.100245 -0.050986 0.080645 -0.011823 0.110605
0.0 0.0 0.0 0.0 0.0 0.0 0.0 0.0 0.0 0.0 0.0 0.0 0.0 0.0 0.0 0.0 0.0 0.0 0.0 0.0 0.0 0.0 0.0 0.0 0.0 0.0 0.0 0.0 0.0 0.0 0.0 0.0 0.0 0.0 0.0 0.0 0.0 0.0 0.0 0.0 0.0 0.0 0.0 0.0 0.0 0.0 0.0 0.0 0.0 0.0 0.0 0.0 0.0 0.0 0.0 0.0 0.0 0.0 0.0 0.0 0.0 0.0 0.0 0.0 0.0 0.0 0.0 0.0 0.0 0.0 0.0 0.0 0.0 0.0 0.0 0.0 0.0 0.0 0.0 0.0 0.0 0.0 0.0 0.0 0.0 0.0 0.0 0.0 0.0 0.0 0.0 0.0 0.0 0.0 0.0 0.0 0.0 0.0 0.0 0.0
0.0 0.0 0.0 0.0 0.0 0.0 0.0 0.0 0.0 0.0 0.0 0.0 0.0 0.0 0.0 0.0 0.0 0.0 0.0 0.0 0.0 0.0 0.0 0.0 0.0 0.0 0.0 0.0 0.0 0.0 0.0 0.0 0.0 0.0 0.0 0.0 0.0 0.0 0.0 0.0 0.0 0.0 0.0 0.0 0.0 0.0 0.0 0.0 0.0 0.0 0.0 0.0 0.0 0.0 0.0 0.0 0.0 0.0 0.0 0.0 0.0 0.0 0.0 0.0 0.0 0.0 0.0 0.0 0.0 0.0 0.0 0.0 0.0 0.0 0.0 0.0 0.0 0.0 0.0 0.0 0.0 0.0 0.0 0.0 0.0 0.0 0.0 0.0 0.0 0.0 0.0 0.0 0.0 0.0 0.0 0.0 0.0 0.0 0.0 0.0
-2.590461 -1.363571 -3.551905 1.262525 -0.20404 3.657286 2.163005 -0.995523 1.449586 -2.676139 1.449205 2.185814 1.247913 3.305064 1.816121 -3.606905 -0.427832 1.628666 0.488523 3.773363 -2.55498 0.589128 -0.5045 1.710642 -0.890439 0.820438 -3.963883 1.963541 3.871272 3.272226 6.76463 -0.2767 1.234087 -3.594585 -0.03245 -0.209717 4.204452 1.319317 -2.966343 -5.71676 -0.438629 -3.408398 0.45919 -4.562086 -1.522003 1.816777 1.529503 2.851916 3.005733 0.730761 2.724544 0.865629 0.938201 4.942586 -1.486718 -0.640368 0.547195 -0.496291 -1.998072 -2.18854 -2.431521 2.02847 -2.730572 1.615944 -0.346024 0.393776 -0.671505 1.244148 5.014171 -1.231573 0.343451 1.561042 -2.669986 -3.668469 2.303175 1.419396 0.430303 -1.175452 2.901574 1.442083 0.774391 -4.581294 0.116793 -3.205407 2.927779 -0.470443 3.728664 0.166258 -1.975539 -0.443983 2.423063 -1.634942 -1.146174 2.690563 2.267749 -4.336769 1.895843 2.192933 1.467334 -2.423983
0.352905 0.550922 -1.128945 -0.511125 0.774489 1.405335 -0.371647 0.106012 -0.779785 -0.640302 -0.68578 1.570717 -0.712288 -0.706705 -0.789609 -0.045278 -1.599722 -2.840112 -0.089543 -1.158838 -1.862605 -0.62748 -0.063542 -0.468696 0.750564 0.033551 -0.772222 -0.188991 -0.163115 0.455978 0.038455 -0.779588 0.172303 -1.114448 -0.548246 -0.008155 1.66721 -0.744821 -0.15746 -2.668482 -0.304702 -0.905716 0.479063 0.151803 -0.94063 -0.044338 -0.906122 -0.456182 0.281891 0.268287 0.47007 0.628019 0.328428 1.471286 -2.345457 0.072073 -0.345477 -0.998199 -1.496897 -0.053061 0.351206 -0.934426 0.295591 0.07336 0.24092 0.486976 0.390085 -0.621556 0.375246 -0.02625 1.957847 1.014101 0.004675 0.08874 -0.900479 -0.462149 0.922254 1.355385 -1.048724 0.105897 1.254466 0.410718 0.321258 1.066395 -0.171761 -0.128774 0.315556 0.697301 -0.180925 0.555334 1.005586 -0.891677 -1.232923 -1.994189 -0.567812 0.204184 -0.947385 -0.051526 -0.987029 0.725141
0.0 0.0 0.0 0.0 0.0 0.0 0.0 0.0 0.0 0.0 0.0 0.0 0.0 0.0 0.0 0.0 0.0 0.0 0.0 0.0 0.0 0.0 0.0 0.0 0.0 0.0 0.0 0.0 0.0 0.0 0.0 0.0 0.0 0.0 0.0 0.0 0.0 0.0 0.0 0.0 0.0 0.0 0.0 0.0 0.0 0.0 0.0 0.0 0.0 0.0 0.0 0.0 0.0 0.0 0.0 0.0 0.0 0.0 0.0 0.0 0.0 0.0 0.0 0.0 0.0 0.0 0.0 0.0 0.0 0.0 0.0 0.0 0.0 0.0 0.0 0.0 0.0 0.0 0.0 0.0 0.0 0.0 0.0 0.0 0.0 0.0 0.0 0.0 0.0 0.0 0.0 0.0 0.0 0.0 0.0 0.0 0.0 0.0 0.0 0.0
1.09E-4 0.397698 -0.01212 0.11016 -0.039403 0.275803 -0.096353 -0.032461 -0.013388 0.095615 -0.104351 0.018538 0.016031 0.133756 -0.090127 0.055416 -0.003537 -0.125136 -0.131425 -0.134459 0.014198 0.073121 -0.146927 0.004029 0.060538 0.043738 0.078495 0.041791 0.047922 0.146157 -0.099017 0.092807 0.004849 -0.201871 -0.023141 -0.068147 0.127304 0.143314 -0.099681 -0.082436 -0.032629 -0.142282 -0.003817 0.156985 0.030089 0.083962 0.044569 0.006103 0.181276 -0.09916 0.008515 -0.092319 -0.002511 0.054832 -0.136304 -0.175129 -0.047986 0.031669 0.132885 0.034345 0.068344 0.091818 -5.61E-4 0.249669 -0.049361 0.091257 -0.093974 0.090309 0.055685 -0.004618 0.072364 0.10877 0.124341 -0.110871 -0.034293 -0.085106 -0.344965 0.02472 -0.021381 0.095171 0.063866 -0.002562 0.048378 0.11102 -0.105186 -0.139366 0.048634 -0.052032 0.136682 -0.1041 -0.083925 -0.138318 -0.151089 0.168239 0.01183 -0.210839 -0.145975 0.008797 0.123701 0.035309
-0.044168 -0.117803 0.268406 0.010394 -0.149524 -0.089151 -0.06082 -0.197596 0.008691 0.156768 0.181038 0.129038 0.016221 -0.036438 0.194856 -0.04805 0.086882 0.14071 -0.021328 0.144548 -0.099619 -0.027536 0.077552 -0.019067 -0.056166 -0.122477 0.067205 -0.063809 0.187353 -0.209682 0.11108 -0.107491 0.084212 -0.087898 0.010019 -0.056394 -0.044743 0.025779 0.023802 0.038703 -0.179303 0.15181 0.12928 -0.192353 0.002072 0.008051 0.024824 -0.054588 -0.226083 0.028261 0.088953 -0.086445 -0.123716 -0.111986 -0.012371 -0.125387 0.024884 -0.062936 -0.040219 -0.03747 -0.025231 -0.013628 -0.059983 0.0825 -0.06748 -0.038068 -0.013155 0.017313 -0.01329 0.044503 -0.040359 -0.077016 -0.036321 0.045117 -0.028982 0.049528 -0.052906 0.034939 -0.175837 -0.0236 -0.138658 -0.086626 0.101315 -0.13255 -0.104777 0.066496 -0.031145 0.053452 0.179524 -0.073092 -0.135615 0.088795 0.116699 0.049621 -0.055746 -0.032017 0.133126 0.150626 0.036434 -0.185126
-0.027751 -0.236417 0.035329 -0.015178 0.085594 0.115009 -0.256773 -0.207905 -0.036317 0.205622 0.307445 0.068497 0.1779 0.00518 0.225303 0.282446 -0.094408 0.034572 0.063258 0.03769 -0.133753 0.069426 0.338632 0.045353 -0.072922 -0.216289 0.042021 -0.220968 -0.025668 0.009022 0.093263 -0.104672 0.082561 0.155492 -0.03495 -0.085293 -0.0462 -0.07143 0.077188 0.062255 0.005506 0.084593 0.044633 0.016101 -0.060731 -0.014676 0.10661 -0.033706 -0.199983 0.299911 0.054336 -0.057527 -0.116818 0.097577 0.186033 -0.054987 0.077285 0.071407 0.200615 -0.057269 -0.008148 0.063125 -0.017685 -0.160977 -0.085853 -0.129897 0.239829 -0.137082 0.035124 -0.04857 0.042273 -0.219691 0.086647 -0.076075 0.260529 0.02115 -0.013517 0.124725 -0.046989 0.020679 0.013599 0.084107 0.021875 -0.22103 -0.140909 0.028579 -0.132448 -0.260188 -0.107119 0.099412 -0.217944 0.142839 -0.171686 -0.089725 -0.078693 -0.113678 0.308513 -0.040371 -0.024131 -0.151473
0.0 0.0 0.0 0.0 0.0 0.0 0.0 0.0 0.0 0.0 0.0 0.0 0.0 0.0 0.0 0.0 0.0 0.0 0.0 0.0 0.0 0.0 0.0 0.0 0.0 0.0 0.0 0.0 0.0 0.0 0.0 0.0 0.0 0.0 0.0 0.0 0.0 0.0 0.0 0.0 0.0 0.0 0.0 0.0 0.0 0.0 0.0 0.0 0.0 0.0 0.0 0.0 0.0 0.0 0.0 0.0 0.0 0.0 0.0 0.0 0.0 0.0 0.0 0.0 0.0 0.0 0.0 0.0 0.0 0.0 0.0 0.0 0.0 0.0 0.0 0.0 0.0 0.0 0.0 0.0 0.0 0.0 0.0 0.0 0.0 0.0 0.0 0.0 0.0 0.0 0.0 0.0 0.0 0.0 0.0 0.0 0.0 0.0 0.0 0.0
0.033262 -0.16117 0.13467 0.091658 0.014891 0.016016 -0.088266 -0.146224 -0.224295 0.217601 0.180065 0.173341 -0.015515 -0.052919 0.128803 0.139891 -0.200362 0.264009 -0.103705 0.227047 -0.069723 0.106533 0.136001 -0.036137 -0.171306 -0.114902 0.118407 -0.047848 0.091394 -0.164243 -0.168452 -0.031829 -0.002365 0.157613 -0.21191 -0.19934 0.164451 0.151938 -0.146305 0.158728 -0.158495 0.038506 0.068969 -0.215115 0.073586 0.083185 0.018759 -0.061452 0.007867 0.173125 -0.019944 -0.2539 -0.192013 -0.22608 0.108917 -0.018202 0.017686 0.030978 -0.023917 -0.030772 0.101985 -0.137671 0.094896 0.100242 -0.167077 -0.197783 0.106094 0.054417 0.15954 0.239923 0.217228 0.009842 0.150518 -0.070917 -0.094265 -0.058233 -0.103534 -0.063296 -0.032325 -0.035789 0.006244 0.089003 -0.012472 -0.067128 0.079206 -0.258852 -0.202082 -0.069712 0.221969 0.118046 -0.120068 -0.070993 -0.010733 0.010785 0.0241 -0.142613 0.257608 -0.021744 -0.111589 0.066257
-0.309744 -0.23788 0.221223 0.035258 -0.031348 0.259589 -0.249475 0.073892 0.076251 0.095365 0.024037 0.03054 -0.024222 -0.109233 -0.026341 -0.20514 -0.109754 -0.003442 -0.081343 0.036571 -0.204218 0.023716 -0.065091 -0.105334 -0.223545 0.037655 -0.171112 -0.121351 0.121382 0.192911 -0.18496 -0.207567 -0.180525 0.222564 -0.202596 -0.026556 -0.030106 -0.049588 0.108851 0.158742 0.15793 0.118188 0.033227 -0.042376 0.019918 0.067694 0.112606 -0.05858 -0.322922 0.108194 -0.081196 -0.080386 0.030468 -0.091201 0.216984 0.032335 -0.147811 0.042845 0.058471 -0.07327 -0.2817 -0.019265 0.068997 -0.009123 -0.157255 0.273275 -0.06813 -0.073044 0.174008 0.093099 -0.080168 -0.030719 -0.007683 -0.079005 -0.237147 -0.240912 -0.131504 0.037961 -0.241002 0.136594 -0.195395 0.505685 0.250409 0.084241 0.122323 0.041168 -0.312287 -0.07245 -0.075842 0.209664 0.043018 -0.057069 0.221081 0.102778 0.066015 -0.031617 -0.041468 -0.065685 -0.105651 0.074308
-0.047421 -0.15849 0.107499 0.089927 0.167776 0.08617 -0.300314 -0.309623 0.108092 0.189928 0.056687 0.033222 -0.077897 -0.080874 0.159018 0.266839 -0.245001 0.016831 -0.085825 0.058383 -0.059198 -0.055262 0.240707 -0.12969 -0.22039 0.060318 -0.047124 -0.139865 0.089529 -0.172326 0.039714 -0.133083 -0.093917 0.050088 -0.217563 -0.099461 0.041898 -0.126919 0.020688 0.317283 0.16597 0.022872 0.046324 -0.073254 -0.180954 0.079862 0.019486 0.185367 0.118476 0.006355 -0.032953 -0.037425 0.063885 0.11699 0.184923 0.052025 0.128145 -0.13686 0.190992 -0.211976 0.013083 -0.015876 -0.029147 0.01214 -0.021098 0.071397 0.239282 -0.021331 -0.132596 -0.213218 -0.047197 -0.061747 0.108005 0.06585 0.170104 0.21 0.017802 0.149472 0.139998 -0.100998 0.016478 -0.071088 -0.215638 -0.123884 -0.172349 0.055991 -0.115719 -0.021301 0.071983 0.092645 -0.139537 0.078519 -0.099633 0.035876 -0.078405 -0.346964 0.042416 0.013565 -0.105723 -0.0419
0.0 0.0 0.0 0.0 0.0 0.0 0.0 0.0 0.0 0.0 0.0 0.0 0.0 0.0 0.0 0.0 0.0 0.0 0.0 0.0 0.0 0.0 0.0 0.0 0.0 0.0 0.0 0.0 0.0 0.0 0.0 0.0 0.0 0.0 0.0 0.0 0.0 0.0 0.0 0.0 0.0 0.0 0.0 0.0 0.0 0.0 0.0 0.0 0.0 0.0 0.0 0.0 0.0 0.0 0.0 0.0 0.0 0.0 0.0 0.0 0.0 0.0 0.0 0.0 0.0 0.0 0.0 0.0 0.0 0.0 0.0 0.0 0.0 0.0 0.0 0.0 0.0 0.0 0.0 0.0 0.0 0.0 0.0 0.0 0.0 0.0 0.0 0.0 0.0 0.0 0.0 0.0 0.0 0.0 0.0 0.0 0.0 0.0 0.0 0.0
3.322062 -0.265634 -0.735154 2.489034 -1.549194 -0.370133 -2.85541 0.499724 -0.172708 -3.397511 0.143702 0.456534 -1.93133 1.644423 -0.23368 -0.12296 0.093273 -1.427844 -0.169109 -0.509316 -0.580429 0.786699 0.175151 -1.03489 0.337075 0.36145 -0.211685 0.21299 2.950213 -1.105234 -0.113019 -0.031153 -0.080691 0.990142 -0.445701 0.665022 0.019549 -1.90728 -0.505327 0.482388 -0.184872 -4.355522 0.03715 -1.044724 2.722995 0.318193 -0.279438 -2.660588 1.186675 -0.192276 1.613599 1.060277 -0.104392 -1.269176 0.756831 2.352934 0.202164 -0.616742 -2.141583 -1.126701 -1.132055 0.456225 -0.316684 1.434659 0.315292 -3.012048 0.10395 0.289529 2.018274 -1.852321 1.148049 -0.519265 -1.203755 1.144202 1.552803 1.064291 -0.586655 -0.588132 1.197221 0.825025 -0.481297 -0.345366 -1.794823 -2.117278 -0.459074 0.815676 0.137778 1.134037 -1.061045 1.852647 -2.738344 0.285432 -1.804952 1.025348 1.028271 1.79492 -2.875999 1.219375 -2.91363 -1.359497
0.0 0.0 0.0 0.0 0.0 0.0 0.0 0.0 0.0 0.0 0.0 0.0 0.0 0.0 0.0 0.0 0.0 0.0 0.0 0.0 0.0 0.0 0.0 0.0 0.0 0.0 0.0 0.0 0.0 0.0 0.0 0.0 0.0 0.0 0.0 0.0 0.0 0.0 0.0 0.0 0.0 0.0 0.0 0.0 0.0 0.0 0.0 0.0 0.0 0.0 0.0 0.0 0.0 0.0 0.0 0.0 0.0 0.0 0.0 0.0 0.0 0.0 0.0 0.0 0.0 0.0 0.0 0.0 0.0 0.0 0.0 0.0 0.0 0.0 0.0 0.0 0.0 0.0 0.0 0.0 0.0 0.0 0.0 0.0 0.0 0.0 0.0 0.0 0.0 0.0 0.0 0.0 0.0 0.0 0.0 0.0 0.0 0.0 0.0 0.0
-0.03565 -0.100696 -0.018209 0.141486 0.060372 0.092909 -0.015626 -0.002745 0.062568 0.036885 0.047103 0.182831 -0.129336 0.018142 0.103925 0.295781 -0.101293 0.02999 -0.077677 -0.058336 -0.055092 0.10057 0.13739 0.108688 -0.229841 0.003722 -0.051399 0.10737 0.081878 -0.100141 0.029502 -0.067911 -0.024437 0.031179 -0.046274 -0.124512 0.044924 -0.136048 -0.088552 0.155695 0.063187 0.009627 0.121183 0.132173 0.047165 -0.165771 -0.119729 0.020826 -0.002601 -0.036886 -0.042914 0.102129 -0.009303 0.125766 0.111736 0.094584 0.065628 -0.036816 0.144994 -0.085161 0.134878 -0.24026 -0.068417 0.019558 0.015414 0.135673 0.100891 0.02093 0.023804 -0.100704 -0.064668 0.022182 0.076249 0.027237 0.011886 -0.06533 -0.136987 -0.080291 -0.037063 -0.076144 0.066069 0.189403 0.122077 0.1833 -0.014154 -0.015402 0.134964 0.086471 0.096793 0.053529 -0.024095 -0.137494 0.084718 0.016831 -0.063593 -0.064013 0.124948 -0.102721 -0.027417 0.04525
-0.004562 -0.100348 0.094524 0.10012 -0.179871 -0.02016 -0.094235 -0.099573 0.011027 0.146971 0.147102 0.184213 -0.023834 2.75E-4 0.159158 0.213021 -0.153684 0.022512 0.027653 -0.150245 -0.132715 0.062684 0.095396 0.212613 -0.078541 -0.119074 -0.119052 -0.002268 0.291432 -0.079183 0.113242 -0.022937 -0.09814 -0.072434 0.018712 -0.105305 -0.053185 -0.149216 0.066468 0.042147 -0.149929 0.075761 -0.005677 0.095925 -0.031254 -0.056541 0.014701 -0.086535 -0.06623 0.03481 0.140603 -0.129709 -0.03764 0.116281 -0.143616 -0.145789 -0.030832 0.04494 0.136655 -0.178783 -0.02784 -0.164396 0.036297 -0.024126 0.038356 -0.140794 0.03202 0.005423 0.078636 -0.176906 -0.021546 0.030375 2.51E-4 -0.046509 -0.076436 -0.151566 -0.055567 0.064979 -0.165415 -0.06608 -0.004399 0.063759 0.135374 -0.047418 0.036585 -0.009274 0.048325 -0.036684 0.219826 -0.031229 -0.14786 -0.089685 -0.092397 0.2125 -0.14363 -0.182505 0.097153 -0.147751 0.047014 -0.17146
-0.125002 -0.066817 -0.180766 -0.059979 -0.092662 0.094897 -0.157281 0.149876 -0.054601 0.166557 -0.072196 0.088903 -0.020504 0.030954 0.011593 0.059236 -0.015654 0.027102 -0.072601 -6.44E-4 -0.078562 0.006416 0.115282 0.100459 -0.12915 0.113299 0.140987 -0.12095 -0.008716 -0.12589 0.203538 0.027711 -0.108113 0.027425 -0.207183 0.041097 0.067443 0.016476 0.109709 -0.043383 0.097247 0.087611 0.04971 0.11518 -0.029272 0.019313 0.044622 0.126768 0.085755 -0.041414 -0.035159 -0.020206 0.044492 -0.04271 0.164299 -0.173956 0.054438 -0.129314 0.01258 -0.154185 0.057271 -0.092325 0.08629 -0.193376 -0.149163 0.081389 0.135752 0.015912 3.93E-4 -0.028525 -0.160906 0.162119 0.114114 -0.051617 0.16827 -0.17756 -0.052901 0.055456 0.057253 -0.128881 0.052534 0.293794 0.215936 -0.042191 0.051492 -0.083139 -0.037911 0.10892 0.014079 0.182417 -0.069847 0.044903 -0.082355 0.156042 -0.11172 -0.100245 -0.050986 0.080645 -0.011823 0.110605
-0.035466 -0.168742 0.063992 0.159481 -0.072368 0.030862 0.021048 -0.041455 -0.117189 -0.031693 -0.14914 -0.014285 0.045686 0.250004 -0.016038 0.111272 -0.028229 0.159609 0.154445 0.030577 0.011112 0.073253 0.105418 0.226217 -0.106746 0.063204 -0.016482 -0.069015 0.015276 -0.278364 0.102821 -0.032002 -0.197888 -0.034174 -0.091688 -0.045146 0.066821 0.056117 -0.056803 -0.12193 -0.228078 0.021157 0.038955 0.08679 0.0251 -0.15838 -0.001306 -0.070605 -0.051334 0.25986 -0.050973 -0.080254 0.035749 -0.085319 -0.08897 0.117535 -0.081241 -0.05859 -0.019345 0.044384 0.088048 -0.099807 0.00687 -0.195085 -0.065468 -0.02443 -0.115158 0.161567 0.094088 -0.111764 -0.019835 -0.021452 0.110536 -0.107212 0.057049 0.034814 -0.226181 -0.043192 0.026092 -0.199009 0.087439 0.225419 0.048823 0.001614 -0.02615 0.021687 0.197052 0.062541 -3.25E-4 0.093812 -0.125456 0.103811 -0.002702 0.132297 -0.026445 -0.134926 0.006555 -0.101128 -0.038245 -0.026592
-0.157571 -0.19338 0.025561 0.22317 -0.014151 0.120376 -3.18E-4 -0.086124 0.153466 0.138266 -0.048221 0.078126 0.06248 -0.127265 0.113665 0.230232 -0.259635 -0.062818 0.098991 0.006387 -0.170207 -0.012517 0.145659 -0.075768 -0.087076 -0.027262 0.003889 -0.131552 0.2985 -0.011822 -0.060056 -0.019251 -0.16565 0.003984 -0.066853 -0.115492 0.003366 -0.109062 0.135118 0.224786 -0.055564 0.206663 0.03263 0.078138 -8.04E-4 -0.229893 -0.128297 -0.034014 0.032554 0.095322 0.014305 0.011352 -0.037325 0.056287 -0.015761 -0.006153 -0.025986 0.049752 0.102688 -0.011329 0.097021 -0.197999 -0.014293 0.003749 0.01121 0.038063 0.221303 0.043763 0.200558 0.130972 -0.179769 -0.037508 0.083913 -0.097108 -0.098485 0.1551 -0.177251 -0.165075 0.124008 -0.062886 0.089818 -0.01342 0.124852 0.025826 -0.052244 0.048681 0.083837 0.046515 -0.053818 -0.01535 -0.129656 -0.0108 0.078186 -0.034215 0.014216 -0.084745 -0.092287 -0.128671 -0.157267 2.98E-4
-0.141763 -0.042503 0.152234 0.138583 -0.11888 0.085086 -0.13185 -0.010573 -0.0094 0.145209 0.01465 0.100066 0.010112 0.110727 0.11109 0.135484 0.026876 0.18143 0.121369 -0.0023 -0.04916 0.118529 0.066383 0.126363 0.023508 0.044708 -0.07836 -0.106584 0.167739 -0.111002 0.01977 0.072486 0.150593 0.189848 -0.057415 2.87E-4 -0.105914 -0.034375 -0.200509 -0.039415 -0.113021 0.109641 -0.036127 -0.144581 -0.142274 0.051053 -0.006925 -0.01354 -0.125005 -0.053798 0.082032 0.056537 0.018155 -0.023157 0.326791 0.062807 -0.146929 0.099361 0.050376 -0.11351 0.206705 -0.082472 0.055478 0.052831 -0.105887 -0.003703 -0.028718 0.014421 0.206032 -0.264429 -0.130012 -0.056781 -0.056478 -0.17764 -0.102236 0.104146 -0.148408 -0.133742 0.063337 -0.083894 -0.095541 0.151556 0.038609 -0.138526 -7.8E-5 -0.059232 0.0021 0.126434 0.111218 0.059325 -0.140768 -0.087829 0.145648 0.016649 -0.014186 -0.06174 -0.005991 -0.013335 0.124709 0.087495
-0.174026 -0.060474 0.067841 -0.107078 -0.194521 0.22722 0.248455 0.215237 0.153783 0.096573 0.124261 -0.106511 0.170621 0.208301 -0.04599 -0.393056 0.269498 0.101021 -0.010937 0.156707 -0.18551 -0.061326 -0.131783 -0.126821 0.287765 0.288226 0.092468 0.025986 -0.116656 0.004014 0.082752 -0.08655 0.30353 -0.135952 -0.180897 0.074578 -0.157224 -0.092598 0.036592 -0.211698 -0.095479 -0.085042 -0.026059 -0.248719 -0.100794 -0.029167 -0.284304 0.040489 0.328407 -0.034055 -0.184957 0.292047 0.033343 0.104486 0.176101 -0.021009 -0.266376 -0.202692 -3.57E-4 0.03047 -0.160416 0.210631 0.079481 0.11837 0.196131 -0.038458 -0.016958 -0.15002 -0.050653 -0.065815 -0.014589 0.397917 -0.100605 0.268554 -0.075384 0.204547 0.189891 -0.042099 -0.016905 -0.098565 0.142005 -0.002233 0.221352 0.13228 0.124037 -0.157821 0.057998 -0.039729 -0.243209 0.253522 -0.16991 -0.146829 0.144693 0.059363 0.022974 0.213292 -0.016538 0.006714 0.116358 0.147815
-0.012683 0.127902 -0.124641 -0.142734 -0.024095 0.099038 -0.154157 -0.040035 -0.176223 0.071298 0.106111 0.09183 -0.077713 -0.030315 0.044314 0.177385 5.19E-4 0.308422 -0.062428 0.047581 -0.08567 0.105532 0.182221 0.011012 -0.126774 -0.0821 0.008487 0.195786 0.18747 0.022831 0.005751 -0.002476 -0.267944 0.135727 -0.030776 -0.037924 0.112185 -0.133358 -0.037555 0.034642 0.116223 0.018911 0.104795 0.119776 -4.97E-4 -0.055028 0.054481 -0.010994 -0.026698 -0.011973 0.096777 -0.071652 -0.037439 0.06456 0.173527 -0.171525 -0.026431 0.001409 0.034247 -0.025106 0.007001 -0.074577 -0.103096 -0.149736 -0.030636 0.062231 0.103592 -0.052537 0.055556 -0.129013 0.045424 -0.009556 -0.071696 -0.113066 -0.021663 -0.017693 0.01129 0.002326 0.07706 -0.13136 0.108565 0.060182 0.10359 -0.238421 0.047896 0.159335 0.011991 0.041359 0.181111 0.085639 -0.158514 -0.140183 0.052232 0.120771 -0.213506 -0.031931 -0.029931 -0.032429 -0.003078 -0.050342
0.059642 -0.098205 0.05705 -0.187303 -0.020004 0.066218 -0.001554 -0.174536 -0.089627 -0.140622 -0.003348 0.096249 -0.016829 -0.025332 0.049079 0.011544 0.03483 0.04261 0.117896 -0.016701 0.118019 0.057462 -0.003204 -0.118805 0.047787 -0.197111 -0.093869 -0.128306 0.135058 -0.054057 0.1082 -0.037916 -0.205031 0.27186 0.036751 -0.068962 0.158837 0.009602 0.189106 -0.094134 -0.024768 0.017932 -0.139526 -0.132306 0.237481 -0.038005 -0.050349 -0.051768 -0.203307 0.047295 -0.048521 -0.008599 0.065315 -0.05531 0.101948 -0.043559 0.341025 -0.171161 0.301776 -0.088128 -0.131122 -0.147279 0.010676 0.027056 -0.071908 0.059097 -0.175023 0.032338 -0.076129 -0.069222 0.032989 -0.080312 -0.096638 -0.094806 0.115143 -0.164643 0.148233 -0.205948 0.034501 -0.009421 -0.219821 -0.062107 -0.154851 -0.058672 0.038778 -0.027841 -0.101166 -0.165932 0.056717 -0.025651 0.048808 -0.200585 0.127011 0.069029 0.049246 -0.037351 0.019605 0.024606 0.02733 0.136669
0.009816 -0.132646 0.013536 -0.024913 0.035848 0.013727 -0.040311 -1.36E-4 -0.253025 -0.113211 -0.087631 0.14568 -0.070049 0.029166 0.08329 0.027195 0.028184 -0.211162 -0.013038 -0.255323 -0.082684 -0.045024 0.292372 -0.036804 0.076119 0.042333 -0.030612 0.048033 -0.144552 -0.020039 0.008163 -0.083534 0.048918 0.047618 -0.255837 -0.09809 0.101674 0.004616 -0.033611 -0.175604 0.013272 0.013751 0.046259 -0.017001 -0.185697 0.146025 -0.013555 0.148442 -0.186016 -0.123888 -0.064524 -0.05257 -0.158445 0.033206 -0.022589 0.272285 0.011967 0.051035 0.077399 0.090494 -0.275395 0.068975 -0.051044 -0.008113 -0.083374 -0.216459 -0.013515 -0.087691 0.171381 0.26922 0.223781 0.066544 -0.114183 -0.061955 0.198409 -0.036221 0.048551 0.109301 -0.022812 -0.07223 0.074231 -0.080034 0.128893 -0.108953 -0.302115 -5.43E-4 -0.039967 0.100236 0.043373 -0.129987 0.097655 0.031988 -0.11098 -0.016587 -0.167472 0.12664 0.101004 -0.096938 0.009529 0.039394
-0.120936 -0.135299 0.733977 0.674907 0.416903 0.59137 -0.413037 -0.220126 -0.069 0.592454 0.443852 0.026823 0.075656 -0.143188 0.055256 1.619568 -0.139591 0.165764 -0.335308 0.619364 0.356222 0.67076 -0.388467 0.291427 -0.92258 -0.946003 0.23649 -0.269693 0.014488 -0.169883 0.346226 -0.075697 -0.408735 -0.126452 0.501878 -0.575254 -0.722611 0.581307 0.084253 1.420064 0.479223 0.650128 0.076218 -0.377721 -0.320066 -0.68904 -0.050476 -0.612055 -1.054057 0.780963 0.962134 -0.039554 -0.224566 -0.83477 0.134702 -0.30819 -0.139783 0.659682 0.971738 0.316319 0.394379 -0.558633 0.072816 -1.169645 -0.151981 -0.030701 0.797168 0.074629 0.04835 -0.185356 -0.432385 -3.85E-4 -0.13989 -0.125855 -0.775882 -0.365058 -1.09026 -0.08025 0.070454 0.066989 -0.891347 1.094185 0.07986 -0.616911 0.457295 -0.082726 -0.83884 -0.327275 0.900866 0.207961 0.095496 0.459438 0.637507 -0.617663 0.269556 -0.968924 -0.007092 -0.618511 0.133425 0.638156
-0.016672 -0.137914 0.081114 -0.028074 0.036595 0.081272 -0.152732 0.125571 -0.270483 0.137667 0.137165 -0.030972 0.02822 -0.05111 0.023443 0.246441 -0.031816 0.033096 0.021416 -0.070674 0.060012 0.052728 0.21245 -0.087068 -0.104256 -0.313336 0.06521 -0.050585 0.072473 -0.068441 -0.07617 -0.032219 0.217185 0.081607 -0.061857 -0.126666 0.265734 -0.052143 -0.103999 -0.114218 0.045942 0.118175 0.118942 0.108693 -0.04971 0.056366 0.070248 -0.127804 -0.131569 0.021773 -0.005549 -0.088095 0.004141 -0.007387 0.012503 0.080274 -0.068202 -0.010454 -0.251333 0.119371 -0.016998 -0.081337 0.010725 -0.174513 -0.102339 0.050037 -0.045232 -0.063232 0.058359 0.10512 -0.075165 -0.029417 0.095034 0.032147 -0.067948 0.029551 -0.111013 -0.083959 -0.253517 -0.247842 -0.013886 0.029356 0.024077 -0.070031 0.066264 0.028394 -0.056185 -0.062806 0.110498 0.055892 -0.101187 -0.009016 -0.044409 0.203581 -0.071003 -0.050335 -0.02921 0.028152 -0.155379 -0.110703
-0.137448 -0.165271 0.130333 -8.0E-6 0.050107 -0.043931 -0.171677 0.007721 0.007373 0.067054 0.148393 0.137749 0.003854 -0.074689 0.190885 0.206584 -0.06847 0.211763 0.104202 0.069106 -0.183194 0.157317 0.223718 0.072586 -0.222323 -0.06536 -0.116532 -0.05973 0.221449 -0.106996 -0.055916 0.001211 -0.118776 0.119528 -0.113563 -0.05341 -0.032128 -0.025061 0.007817 0.10942 0.0215 0.238177 -0.039143 0.010739 0.196476 0.042437 -0.095493 -0.02479 -0.193776 0.062079 0.183557 -0.080987 -0.050593 -0.021337 0.072036 -0.113533 -0.049801 0.001729 0.061789 -0.022361 0.167741 -0.147962 -0.057488 -0.106108 -0.12927 -0.015228 0.102432 0.131209 0.156765 -0.188598 -0.14315 -0.07012 -0.019995 0.004737 -0.03048 -0.033991 -0.211077 0.029496 -0.078768 -0.175085 -0.070657 0.10409 0.13433 -0.24066 -0.005294 0.139621 0.011315 -0.042964 0.232204 0.126593 -0.162153 -0.016772 0.01595 0.220821 -0.003108 -0.082105 0.143102 -0.084966 -0.08918 -0.066876
0.037311 0.069098 0.146051 0.245319 -0.220586 0.149353 -0.154392 -0.046366 -0.177821 -0.134713 -0.0835 0.215419 -0.020545 0.155818 5.45E-4 0.045456 -0.192701 0.089427 -0.017666 -0.104382 0.086163 0.049242 0.153222 0.098115 0.079776 0.066198 -0.020967 0.201605 0.125661 -0.055015 -0.200601 -0.188661 0.051858 0.114433 0.066955 0.07807 0.096275 -0.029986 -0.083555 0.03171 -0.089357 0.008298 0.138861 0.005332 -0.036957 0.070235 0.024555 -0.277248 -0.115429 -0.046333 -0.080208 -0.004651 0.013615 -0.198257 0.170783 -0.05279 0.070781 -0.1826 -0.11547 -0.076415 -0.049058 -0.092461 -0.098914 -0.14922 0.136904 -0.256722 -0.052938 0.130647 0.009491 -0.021192 -0.175015 0.067034 -0.001401 0.111063 -0.026165 0.065045 4.48E-4 0.027764 -0.054708 -0.049767 -0.011957 0.137961 0.08663 -0.068711 -0.090447 -0.068702 -0.007911 -0.035437 0.051932 -0.034323 0.050828 -0.073514 -0.125312 0.153466 0.124654 0.089508 -0.015814 -0.066212 -0.060318 0.022966
-0.004562 -0.100348 0.094524 0.10012 -0.179871 -0.02016 -0.094235 -0.099573 0.011027 0.146971 0.147102 0.184213 -0.023834 2.75E-4 0.159158 0.213021 -0.153684 0.022512 0.027653 -0.150245 -0.132715 0.062684 0.095396 0.212613 -0.078541 -0.119074 -0.119052 -0.002268 0.291432 -0.079183 0.113242 -0.022937 -0.09814 -0.072434 0.018712 -0.105305 -0.053185 -0.149216 0.066468 0.042147 -0.149929 0.075761 -0.005677 0.095925 -0.031254 -0.056541 0.014701 -0.086535 -0.06623 0.03481 0.140603 -0.129709 -0.03764 0.116281 -0.143616 -0.145789 -0.030832 0.04494 0.136655 -0.178783 -0.02784 -0.164396 0.036297 -0.024126 0.038356 -0.140794 0.03202 0.005423 0.078636 -0.176906 -0.021546 0.030375 2.51E-4 -0.046509 -0.076436 -0.151566 -0.055567 0.064979 -0.165415 -0.06608 -0.004399 0.063759 0.135374 -0.047418 0.036585 -0.009274 0.048325 -0.036684 0.219826 -0.031229 -0.14786 -0.089685 -0.092397 0.2125 -0.14363 -0.182505 0.097153 -0.147751 0.047014 -0.17146
-0.125002 -0.066817 -0.180766 -0.059979 -0.092662 0.094897 -0.157281 0.149876 -0.054601 0.166557 -0.072196 0.088903 -0.020504 0.030954 0.011593 0.059236 -0.015654 0.027102 -0.072601 -6.44E-4 -0.078562 0.006416 0.115282 0.100459 -0.12915 0.113299 0.140987 -0.12095 -0.008716 -0.12589 0.203538 0.027711 -0.108113 0.027425 -0.207183 0.041097 0.067443 0.016476 0.109709 -0.043383 0.097247 0.087611 0.04971 0.11518 -0.029272 0.019313 0.044622 0.126768 0.085755 -0.041414 -0.035159 -0.020206 0.044492 -0.04271 0.164299 -0.173956 0.054438 -0.129314 0.01258 -0.154185 0.057271 -0.092325 0.08629 -0.193376 -0.149163 0.081389 0.135752 0.015912 3.93E-4 -0.028525 -0.160906 0.162119 0.114114 -0.051617 0.16827 -0.17756 -0.052901 0.055456 0.057253 -0.128881 0.052534 0.293794 0.215936 -0.042191 0.051492 -0.083139 -0.037911 0.10892 0.014079 0.182417 -0.069847 0.044903 -0.082355 0.156042 -0.11172 -0.100245 -0.050986 0.080645 -0.011823 0.110605
-2.648351 -0.794316 -2.108887 0.20446 0.883061 0.242784 1.848653 1.149137 -4.975573 0.237654 -1.499665 2.924494 0.344217 -1.640431 0.763777 0.138944 -3.029439 -2.813434 -0.761102 -1.057557 -1.373735 -0.870599 1.234095 0.127805 -1.372618 1.35802 -1.501738 0.80945 0.172993 -0.484995 1.783363 -0.047587 0.483285 -1.526831 2.103549 2.116639 4.583491 -4.022388 -0.843817 0.361243 -0.546655 -2.301259 -2.000973 2.64631 -1.604053 -1.914206 -1.581895 -0.464185 1.757769 1.056301 0.263866 -0.904419 -0.422466 0.007824 -1.651553 0.7499 1.638666 -0.336108 -3.288466 -2.953238 -1.135414 1.165223 -1.047256 -0.821696 -0.135806 0.434207 -2.389307 -3.56953 -0.656773 0.578325 3.337902 0.782195 -1.250815 2.925509 -1.981492 0.121786 0.836257 1.710923 -2.640405 -0.628995 0.247469 0.863847 1.749171 -0.214156 -0.274807 2.192709 -0.892334 -1.614644 -1.225919 -0.042182 2.51632 3.464583 -3.591523 -2.506587 0.990426 1.8843 -2.460629 0.953462 0.359605 2.267383
-0.314571 -0.999272 -3.990205 0.222862 0.591993 -0.567394 3.607749 1.793629 -2.437259 2.029385 1.425122 -3.418342 -0.243038 1.309105 1.944095 0.802327 1.406267 2.414431 -0.183574 -1.33994 4.654692 -0.469448 -0.817325 0.869371 -1.940037 -0.533509 -0.301563 0.124804 0.790413 -2.683516 2.042922 1.951906 -2.276061 -5.04628 -0.188924 -0.418229 -1.843644 5.09933 -1.996711 -0.177183 -1.052309 -9.034371 -1.400432 3.440064 0.881874 1.076837 0.386575 -0.796884 -2.075431 -0.523468 0.26647 -0.264643 1.094276 2.742805 -1.523351 -2.183534 1.277513 0.51584 -0.151675 -3.740705 0.542869 0.498734 -0.216235 -3.928533 0.076396 -2.522952 1.192612 2.177227 0.053784 0.817225 0.568549 -0.869813 -2.316079 -0.507885 -0.901934 2.324036 -0.76877 -4.138218 1.406144 0.872265 -0.356579 -0.553549 0.786191 -2.516716 -0.267942 0.118238 3.280462 2.974079 -2.359933 -2.759007 -0.243623 -1.373061 0.729164 4.216286 0.079241 2.843559 4.735668 -0.452359 -0.448118 3.742199
-0.13982 -0.070825 0.118315 -0.188916 -0.048283 -0.132856 -0.029281 0.019655 0.085709 0.086609 -1.09E-4 -0.165678 -0.168657 0.064968 0.117705 -0.089967 0.060461 0.154044 0.159206 -0.216385 -0.034292 0.002616 0.114454 0.012079 -0.101054 -0.066247 -0.019818 0.041505 0.08108 -0.193241 0.068194 0.076214 0.125376 -0.052328 0.091661 0.081679 -0.014446 0.060696 -0.224715 0.121678 0.111638 0.099933 -0.210582 -0.010916 -0.042724 -0.052161 0.059768 0.005555 -0.012583 0.011093 0.255467 -0.151262 0.143106 0.058177 -0.061392 0.09274 0.044614 -0.077992 0.039983 0.041117 0.050478 -0.036416 -0.244948 -0.113915 0.055078 0.070349 -0.061488 0.015295 -0.138233 0.021685 -0.017643 -0.02245 0.109452 0.020738 0.047203 -0.046728 0.127734 -0.069984 -0.010974 -0.151913 -0.108325 -0.106444 0.117066 0.045376 0.06448 0.087222 -0.020649 0.009947 0.146502 -0.081502 -0.023772 -0.027065 0.059738 0.169912 -0.134561 -0.043472 -0.114556 -0.049832 0.014935 -0.004474
-0.001889 -0.015376 0.011577 -0.079922 0.019615 0.005975 0.018085 -0.133459 0.07886 -0.019014 -0.010821 0.041669 -0.011128 0.097962 -0.060935 0.042309 0.015014 8.49E-4 -0.002449 0.038756 0.0685 -0.030124 0.021652 -0.079703 0.075875 -0.122727 0.144977 0.073106 0.120718 -0.115022 0.047765 0.225363 -0.061747 -0.035103 0.080005 0.064342 -0.011293 0.032618 0.076202 0.118833 0.299047 0.176216 0.148892 -0.105455 -0.022399 0.118571 -0.05437 -0.136016 -0.04767 0.112361 0.012505 0.001737 0.056998 -0.132972 0.205737 0.014869 0.130993 0.242588 0.100312 0.073252 -0.019374 -0.073147 -0.042245 -0.05193 0.119558 0.067972 -0.198268 0.013905 0.103121 -0.09962 -0.010563 -0.219254 -0.117595 0.0375 -0.028297 0.03039 -0.116152 0.021365 0.041774 -0.247365 -0.187561 -0.063496 -0.088808 -0.029223 0.057963 0.069802 -0.07258 -0.052825 0.064478 0.040761 0.149345 0.085248 0.239559 0.137326 -0.140966 0.005439 0.083517 -0.02486 -0.028184 0.111642
0.0 0.0 0.0 0.0 0.0 0.0 0.0 0.0 0.0 0.0 0.0 0.0 0.0 0.0 0.0 0.0 0.0 0.0 0.0 0.0 0.0 0.0 0.0 0.0 0.0 0.0 0.0 0.0 0.0 0.0 0.0 0.0 0.0 0.0 0.0 0.0 0.0 0.0 0.0 0.0 0.0 0.0 0.0 0.0 0.0 0.0 0.0 0.0 0.0 0.0 0.0 0.0 0.0 0.0 0.0 0.0 0.0 0.0 0.0 0.0 0.0 0.0 0.0 0.0 0.0 0.0 0.0 0.0 0.0 0.0 0.0 0.0 0.0 0.0 0.0 0.0 0.0 0.0 0.0 0.0 0.0 0.0 0.0 0.0 0.0 0.0 0.0 0.0 0.0 0.0 0.0 0.0 0.0 0.0 0.0 0.0 0.0 0.0 0.0 0.0
0.0 0.0 0.0 0.0 0.0 0.0 0.0 0.0 0.0 0.0 0.0 0.0 0.0 0.0 0.0 0.0 0.0 0.0 0.0 0.0 0.0 0.0 0.0 0.0 0.0 0.0 0.0 0.0 0.0 0.0 0.0 0.0 0.0 0.0 0.0 0.0 0.0 0.0 0.0 0.0 0.0 0.0 0.0 0.0 0.0 0.0 0.0 0.0 0.0 0.0 0.0 0.0 0.0 0.0 0.0 0.0 0.0 0.0 0.0 0.0 0.0 0.0 0.0 0.0 0.0 0.0 0.0 0.0 0.0 0.0 0.0 0.0 0.0 0.0 0.0 0.0 0.0 0.0 0.0 0.0 0.0 0.0 0.0 0.0 0.0 0.0 0.0 0.0 0.0 0.0 0.0 0.0 0.0 0.0 0.0 0.0 0.0 0.0 0.0 0.0
-0.03565 -0.100696 -0.018209 0.141486 0.060372 0.092909 -0.015626 -0.002745 0.062568 0.036885 0.047103 0.182831 -0.129336 0.018142 0.103925 0.295781 -0.101293 0.02999 -0.077677 -0.058336 -0.055092 0.10057 0.13739 0.108688 -0.229841 0.003722 -0.051399 0.10737 0.081878 -0.100141 0.029502 -0.067911 -0.024437 0.031179 -0.046274 -0.124512 0.044924 -0.136048 -0.088552 0.155695 0.063187 0.009627 0.121183 0.132173 0.047165 -0.165771 -0.119729 0.020826 -0.002601 -0.036886 -0.042914 0.102129 -0.009303 0.125766 0.111736 0.094584 0.065628 -0.036816 0.144994 -0.085161 0.134878 -0.24026 -0.068417 0.019558 0.015414 0.135673 0.100891 0.02093 0.023804 -0.100704 -0.064668 0.022182 0.076249 0.027237 0.011886 -0.06533 -0.136987 -0.080291 -0.037063 -0.076144 0.066069 0.189403 0.122077 0.1833 -0.014154 -0.015402 0.134964 0.086471 0.096793 0.053529 -0.024095 -0.137494 0.084718 0.016831 -0.063593 -0.064013 0.124948 -0.102721 -0.027417 0.04525
-2.648351 -0.794316 -2.108887 0.20446 0.883061 0.242784 1.848653 1.149137 -4.975573 0.237654 -1.499665 2.924494 0.344217 -1.640431 0.763777 0.138944 -3.029439 -2.813434 -0.761102 -1.057557 -1.373735 -0.870599 1.234095 0.127805 -1.372618 1.35802 -1.501738 0.80945 0.172993 -0.484995 1.783363 -0.047587 0.483285 -1.526831 2.103549 2.116639 4.583491 -4.022388 -0.843817 0.361243 -0.546655 -2.301259 -2.000973 2.64631 -1.604053 -1.914206 -1.581895 -0.464185 1.757769 1.056301 0.263866 -0.904419 -0.422466 0.007824 -1.651553 0.7499 1.638666 -0.336108 -3.288466 -2.953238 -1.135414 1.165223 -1.047256 -0.821696 -0.135806 0.434207 -2.389307 -3.56953 -0.656773 0.578325 3.337902 0.782195 -1.250815 2.925509 -1.981492 0.121786 0.836257 1.710923 -2.640405 -0.628995 0.247469 0.863847 1.749171 -0.214156 -0.274807 2.192709 -0.892334 -1.614644 -1.225919 -0.042182 2.51632 3.464583 -3.591523 -2.506587 0.990426 1.8843 -2.460629 0.953462 0.359605 2.267383
1.155368 3.302179 -0.818617 0.201583 -0.372035 -0.220049 -2.421694 1.24088 1.022918 0.281963 -0.56672 0.218504 -2.654141 0.687099 1.426786 -2.744465 -2.044989 -0.49789 -1.769702 -2.328375 -1.105508 0.104665 -0.061522 -2.669585 1.369504 1.778184 -0.869744 -1.441309 0.051265 1.116249 1.903031 -0.163683 1.731475 -0.652558 -1.459245 -0.212579 0.382415 1.861636 -0.394668 -0.423196 -0.983827 -1.176007 1.844253 0.853456 0.976233 -0.076248 -1.490589 -0.553926 0.506191 0.326236 0.251095 1.038919 -0.803142 0.658979 -3.236482 -1.07965 1.27678 -0.350029 -1.778651 0.292774 0.002745 0.267431 1.072933 -0.321661 -1.19536 -1.465055 -2.523761 -3.574044 -0.123843 -0.515256 3.2036 -0.08683 1.099575 -0.639959 -1.310584 0.629968 -0.142079 0.66081 -1.289981 -0.152693 -0.105374 0.388507 -1.068849 2.207516 -1.516502 0.618648 0.057959 1.61471 0.888036 -0.337188 -0.73306 -0.809614 -1.409634 -0.094797 -0.938314 1.210802 1.47048 2.210952 -1.933366 0.819087
-0.314571 -0.999272 -3.990205 0.222862 0.591993 -0.567394 3.607749 1.793629 -2.437259 2.029385 1.425122 -3.418342 -0.243038 1.309105 1.944095 0.802327 1.406267 2.414431 -0.183574 -1.33994 4.654692 -0.469448 -0.817325 0.869371 -1.940037 -0.533509 -0.301563 0.124804 0.790413 -2.683516 2.042922 1.951906 -2.276061 -5.04628 -0.188924 -0.418229 -1.843644 5.09933 -1.996711 -0.177183 -1.052309 -9.034371 -1.400432 3.440064 0.881874 1.076837 0.386575 -0.796884 -2.075431 -0.523468 0.26647 -0.264643 1.094276 2.742805 -1.523351 -2.183534 1.277513 0.51584 -0.151675 -3.740705 0.542869 0.498734 -0.216235 -3.928533 0.076396 -2.522952 1.192612 2.177227 0.053784 0.817225 0.568549 -0.869813 -2.316079 -0.507885 -0.901934 2.324036 -0.76877 -4.138218 1.406144 0.872265 -0.356579 -0.553549 0.786191 -2.516716 -0.267942 0.118238 3.280462 2.974079 -2.359933 -2.759007 -0.243623 -1.373061 0.729164 4.216286 0.079241 2.843559 4.735668 -0.452359 -0.448118 3.742199
0.132615 -0.067738 0.144921 -0.070652 0.285714 0.009219 -0.149162 -0.011606 -0.279423 -0.076516 -0.049189 0.125755 0.012283 0.14469 0.10283 0.080149 -0.220533 0.163791 0.085609 0.080021 0.116158 0.195278 0.0559 -0.091269 -0.209908 -0.140602 0.044022 0.004846 -0.053479 -0.086002 -0.061676 -0.119705 -0.054719 -0.094517 -0.07982 -0.177671 0.07156 0.149193 0.079411 0.099143 -0.131442 0.044631 0.001847 0.078508 -0.120107 -0.012578 -0.074565 0.035564 -0.059714 -0.047986 -0.063732 0.03986 -0.122845 -0.135855 -0.074361 -0.166091 0.33802 -0.172756 0.019881 0.09711 -0.033975 -0.088392 0.006303 0.085869 -0.124851 -0.005417 -0.177558 0.05514 0.036664 0.147545 0.101387 0.003954 0.120145 -0.074756 -0.038315 0.124689 0.052326 0.152487 -0.177587 0.076794 0.087322 0.072746 -0.151492 -0.118139 -0.041269 -0.16844 0.096218 0.145533 0.062196 0.102882 -0.127923 0.003111 -0.064313 0.141061 0.063924 0.055305 -0.013763 0.055272 -0.068272 0.038454
-0.049467 -0.21716 0.090937 0.090442 0.039471 -0.158319 -0.11269 -0.069629 -0.152616 -0.168774 0.174922 -0.001446 -0.103807 0.051497 0.194559 0.131969 0.040381 0.032635 -0.067156 -0.025622 -0.010711 -0.020901 0.119984 0.244719 -0.109187 0.082315 -0.135338 -0.023344 0.21433 -0.064577 -0.064485 0.074849 0.149247 -0.027656 0.004969 0.03268 0.06585 -0.057646 0.153199 -0.005728 -0.022326 -0.274079 0.004042 0.014306 0.05418 -0.043258 -0.168469 -0.040621 -0.157761 -0.0691 0.094353 0.072912 -0.075834 -0.197271 0.168871 0.117121 -0.136197 -0.055852 -0.009409 -0.089041 -0.057739 -0.071827 -0.092378 -0.079523 -0.113948 -0.038776 0.031106 -0.010216 0.104807 -0.099296 -0.017116 -0.076253 -0.094261 0.043236 -0.070148 -0.074738 -0.099196 -0.105257 -0.096505 -0.240964 -0.008615 -0.07672 0.040914 0.071479 -0.071285 0.055601 0.005485 -0.102117 0.010954 0.072108 0.050477 0.154822 -0.090926 0.117414 0.012584 0.026602 -0.071613 -0.136944 0.106969 0.012461
1.334478 0.56436 -1.603635 0.912445 2.221672 1.56943 -0.303465 0.589375 -2.69323 0.384322 0.358918 2.406595 -1.985486 -0.183182 -0.911629 1.571568 -2.16796 -3.121176 -0.899193 -1.979021 -1.959272 0.912333 1.273762 -0.198062 0.971122 1.52374 -0.309081 2.448326 1.601577 -1.552868 -1.420075 -0.261505 1.438153 -0.124586 -1.495065 -0.600136 1.40277 0.058802 -0.268475 -2.225384 -2.291475 -4.441744 1.14801 -0.569455 -0.371657 1.176302 -1.368912 -1.196988 2.185863 -0.313704 1.717073 -0.666015 -1.077057 2.551148 -1.932776 0.054327 -0.102726 -0.17058 -0.912058 -2.256425 -0.309558 -0.671292 0.420601 -1.439195 -1.892122 0.337137 -2.300364 -2.79083 -0.266267 2.864827 3.634638 -0.322773 0.841829 0.469717 1.547861 -0.552432 1.61195 0.508984 -0.264752 0.467316 1.386163 -1.4431 -0.15667 -0.07713 -2.121193 0.621864 0.635885 -0.738586 0.259944 2.962727 0.005839 -0.444849 -3.654301 -3.130575 1.11358 2.289078 0.244818 0.175707 -1.252141 1.653986
0.132615 -0.067738 0.144921 -0.070652 0.285714 0.009219 -0.149162 -0.011606 -0.279423 -0.076516 -0.049189 0.125755 0.012283 0.14469 0.10283 0.080149 -0.220533 0.163791 0.085609 0.080021 0.116158 0.195278 0.0559 -0.091269 -0.209908 -0.140602 0.044022 0.004846 -0.053479 -0.086002 -0.061676 -0.119705 -0.054719 -0.094517 -0.07982 -0.177671 0.07156 0.149193 0.079411 0.099143 -0.131442 0.044631 0.001847 0.078508 -0.120107 -0.012578 -0.074565 0.035564 -0.059714 -0.047986 -0.063732 0.03986 -0.122845 -0.135855 -0.074361 -0.166091 0.33802 -0.172756 0.019881 0.09711 -0.033975 -0.088392 0.006303 0.085869 -0.124851 -0.005417 -0.177558 0.05514 0.036664 0.147545 0.101387 0.003954 0.120145 -0.074756 -0.038315 0.124689 0.052326 0.152487 -0.177587 0.076794 0.087322 0.072746 -0.151492 -0.118139 -0.041269 -0.16844 0.096218 0.145533 0.062196 0.102882 -0.127923 0.003111 -0.064313 0.141061 0.063924 0.055305 -0.013763 0.055272 -0.068272 0.038454
-0.124276 -2.054402 -0.343635 1.81865 -2.16991 1.782205 0.82505 0.982572 -2.067194 -1.156199 0.298204 0.610046 -4.440783 -0.456446 1.442584 1.853605 -0.146562 2.077692 0.195573 -0.915147 0.599326 0.594442 1.900077 -1.11832 -0.711089 1.802311 -0.934321 4.923428 0.778654 -0.69484 -0.912197 0.151877 -0.031909 -0.121674 -3.551828 0.057548 0.447763 -0.623346 2.678004 -1.345078 -3.955954 -4.075293 -1.036935 -1.334541 -0.166985 -0.129224 -1.031956 -2.988586 3.17002 0.328676 1.405671 0.778493 -1.163548 2.145235 -1.779305 1.663516 1.887483 0.848116 -1.423908 -2.594846 -0.535155 -0.166339 0.121853 -0.577388 -1.832659 -2.926389 -3.361567 0.159506 -0.752505 4.326194 2.90284 -1.469079 -0.616227 0.788738 -0.806913 2.13246 1.096647 1.237584 -0.288162 0.179698 1.570163 0.091941 -1.524701 -1.102449 -1.615839 -0.364109 -2.101004 -0.663784 -0.318699 0.051272 0.686067 -1.094801 1.568548 -3.03993 1.893188 -1.377119 -2.094228 3.564402 -2.235058 -0.581437
-0.063002 -0.234083 0.048008 -0.021485 0.118425 -0.069097 -0.089614 0.015575 -0.088887 0.008327 0.207637 0.145627 0.039454 -0.145483 0.089805 0.196481 -0.026693 0.037297 0.038377 -0.023252 -0.091593 0.155254 0.091762 0.050857 -0.144125 -0.075574 0.049194 -0.032084 0.088898 -0.067973 -0.157209 -0.065605 -0.063939 0.138195 -0.158256 -0.04692 0.110173 -0.083955 0.114583 -0.018865 -0.089491 -0.035668 -0.039526 -0.115205 0.064068 0.002368 -0.123687 -0.024408 -0.086747 -0.035676 0.106402 -0.137065 -0.237056 -0.05544 0.044405 -0.024529 -0.050672 -0.058347 0.091211 -0.044203 0.049511 -0.047131 -0.007296 -0.041396 -0.197592 0.039256 0.094077 0.002507 0.045318 -0.030448 -0.002259 0.129894 0.004666 -0.055742 0.17851 -0.088069 -0.097555 -0.041865 -0.069832 -0.013662 0.134387 0.047405 0.029899 -0.225063 -0.109655 -0.168055 0.098443 0.06128 0.226794 0.174187 -0.15428 5.93E-4 -0.052234 -0.024077 0.128116 -0.13384 -0.03913 0.070803 -0.065908 0.038777
1.519526 1.445578 -1.609499 2.582747 2.460795 3.529971 0.431498 -0.524736 0.238502 0.565084 -2.150664 2.607871 -3.578636 0.22885 1.205379 0.400126 -2.365878 -2.228676 -0.500047 -1.958516 -2.734259 -2.028213 -0.339577 -2.726884 0.003785 -1.85554 -0.90189 1.042933 0.930181 0.561229 0.956561 0.220468 -1.219533 -0.188243 -0.649085 -0.117874 2.101841 -0.317004 1.300647 -1.49228 0.533457 -2.976113 -0.635474 -1.431524 -0.943268 0.543614 -2.072507 -1.004219 4.072807 -1.496014 2.612373 2.458477 -0.120651 0.418572 -2.53177 0.646754 2.04053 2.0667 -2.403623 -3.037353 -1.289071 1.269349 0.447478 0.512568 0.464348 -0.142416 -1.155552 0.32258 -0.986119 3.909852 3.839548 0.865499 -1.089316 -1.400134 0.517204 -3.398406 -0.576028 -0.612853 -0.573641 -1.979957 1.278503 1.159562 0.583915 -0.210028 0.851463 1.075476 2.276915 0.114312 2.2836 1.968815 1.899569 0.001135 -2.286771 -2.666814 -1.408445 1.975128 -0.085175 1.44887 -1.994305 2.796178
-0.079705 -0.00982 0.048693 -0.031077 0.102375 0.014261 -0.166017 -0.050237 -0.142458 0.216548 0.052275 0.183186 0.074702 0.07403 0.187212 -0.002286 0.148544 0.284238 0.204104 0.131839 0.102347 0.10251 0.132246 0.006668 0.039868 -0.191978 0.007489 -0.22714 -0.076693 0.053087 -0.225312 0.092043 -0.072434 0.025744 -0.060089 0.053958 -0.064263 0.116749 -0.00591 -0.001093 0.049946 0.192275 0.124727 0.120368 0.055669 0.050612 0.100146 0.054321 -0.093042 0.098358 -0.004394 -0.025176 0.003648 0.056023 0.273264 -0.069858 0.168579 0.040079 0.092591 -0.01619 -0.036516 -0.049934 0.041822 -0.136447 -0.118666 -0.069571 0.078213 0.095838 -0.068948 0.048359 -0.080978 -0.225815 -0.053206 0.034585 0.152497 -0.218659 -0.026619 0.044708 0.071186 -0.108052 -0.136472 0.057954 -0.001526 -0.134722 -0.017998 -7.9E-4 0.044567 -0.069105 -0.085579 -0.029555 -0.181781 -0.104784 0.00824 0.009907 -0.066423 -0.12315 0.21492 -0.069621 -0.041674 -0.088963
0.0 0.0 0.0 0.0 0.0 0.0 0.0 0.0 0.0 0.0 0.0 0.0 0.0 0.0 0.0 0.0 0.0 0.0 0.0 0.0 0.0 0.0 0.0 0.0 0.0 0.0 0.0 0.0 0.0 0.0 0.0 0.0 0.0 0.0 0.0 0.0 0.0 0.0 0.0 0.0 0.0 0.0 0.0 0.0 0.0 0.0 0.0 0.0 0.0 0.0 0.0 0.0 0.0 0.0 0.0 0.0 0.0 0.0 0.0 0.0 0.0 0.0 0.0 0.0 0.0 0.0 0.0 0.0 0.0 0.0 0.0 0.0 0.0 0.0 0.0 0.0 0.0 0.0 0.0 0.0 0.0 0.0 0.0 0.0 0.0 0.0 0.0 0.0 0.0 0.0 0.0 0.0 0.0 0.0 0.0 0.0 0.0 0.0 0.0 0.0
-0.064357 -0.033406 -0.006591 0.181457 0.041885 0.1408 -0.109843 0.016376 0.068228 -0.045519 0.005233 0.012036 0.05064 -0.052642 0.185426 0.139427 -0.155023 0.12963 0.063368 -0.055016 -0.054854 -0.018229 0.216037 -0.004417 -0.285826 -0.095238 -0.069825 -0.021777 0.187402 -0.130867 -0.00675 -0.075803 -0.044586 0.061098 0.044502 -0.138919 0.031721 -0.005549 0.063477 5.3E-5 0.101342 0.067759 0.180205 0.110423 -0.107152 0.014466 -0.095647 -0.001514 -0.13148 0.090497 0.038783 -0.236052 -0.139813 -0.061498 0.050517 -0.013343 -0.001507 0.083055 0.065801 -0.03321 0.124938 -0.104659 -0.042903 -0.049201 -0.088403 -0.030678 0.055664 0.085579 0.303591 -0.024133 0.025756 -0.085778 0.02809 -0.058313 0.028445 -0.065808 -0.182156 -0.019053 0.014958 -0.002839 -0.024485 0.159415 0.06125 -0.100844 0.111327 0.042033 0.023134 -0.078359 0.169092 -0.074151 -0.058673 0.083338 0.03916 0.23854 -0.125673 0.017002 0.129169 0.039082 0.127676 0.034378
-0.125002 -0.066817 -0.180766 -0.059979 -0.092662 0.094897 -0.157281 0.149876 -0.054601 0.166557 -0.072196 0.088903 -0.020504 0.030954 0.011593 0.059236 -0.015654 0.027102 -0.072601 -6.44E-4 -0.078562 0.006416 0.115282 0.100459 -0.12915 0.113299 0.140987 -0.12095 -0.008716 -0.12589 0.203538 0.027711 -0.108113 0.027425 -0.207183 0.041097 0.067443 0.016476 0.109709 -0.043383 0.097247 0.087611 0.04971 0.11518 -0.029272 0.019313 0.044622 0.126768 0.085755 -0.041414 -0.035159 -0.020206 0.044492 -0.04271 0.164299 -0.173956 0.054438 -0.129314 0.01258 -0.154185 0.057271 -0.092325 0.08629 -0.193376 -0.149163 0.081389 0.135752 0.015912 3.93E-4 -0.028525 -0.160906 0.162119 0.114114 -0.051617 0.16827 -0.17756 -0.052901 0.055456 0.057253 -0.128881 0.052534 0.293794 0.215936 -0.042191 0.051492 -0.083139 -0.037911 0.10892 0.014079 0.182417 -0.069847 0.044903 -0.082355 0.156042 -0.11172 -0.100245 -0.050986 0.080645 -0.011823 0.110605
-0.140785 -0.14728 -0.027616 0.08445 -0.152002 0.023071 0.025384 -0.125483 -0.174535 0.123511 0.183223 0.057582 -0.114695 -0.126659 0.312273 0.107716 0.076027 -0.022061 -0.033984 -0.035121 -0.196234 0.084876 0.242653 0.041485 -0.033119 0.006834 0.068452 0.09493 -0.009738 -0.022149 0.04009 0.025885 -0.102782 0.076223 -0.119503 -0.163882 0.006091 -0.143649 0.042611 0.081483 -0.033372 0.179769 0.068813 -0.090208 0.071727 -0.153766 0.05288 0.091442 0.004049 0.058936 0.088653 -0.241223 0.034444 0.149167 -0.015737 -0.019929 0.114689 0.067139 -0.021938 -0.176811 0.159565 -0.13655 -0.091767 -0.318583 -0.315485 -0.007252 0.060879 0.042017 0.030844 -0.125873 0.016578 0.08261 -0.159142 0.013366 -0.060969 -0.012505 -0.13003 0.010829 -0.002904 -0.100702 -0.084819 0.117446 0.074885 -0.146817 0.13477 -0.058325 0.044237 -0.04391 0.144159 -0.039606 0.042236 -0.111675 -0.092263 0.084575 -0.225227 -0.206438 0.308123 -0.030676 -0.100911 0.028808
-2.360114 -0.224028 -1.814182 0.300662 -0.770944 2.310683 0.792635 1.875771 2.56722 0.067446 -0.31588 -1.295838 0.862887 0.299662 1.900108 -1.534535 1.584576 2.366326 1.522806 1.741865 -3.882131 0.49035 0.646717 -0.908836 -1.662271 1.018459 -0.450387 0.370437 1.909817 2.860318 0.757039 -1.811517 0.78153 1.233099 -1.783187 1.51748 -0.309707 -0.681036 -0.159516 1.169262 -0.569537 0.359623 0.595464 -1.252454 0.284657 -0.221389 -1.285238 1.969432 -0.045674 -0.032819 -0.274363 1.192375 -0.27816 1.425224 0.446866 1.872777 -3.06477 -1.251634 -0.304965 0.989546 0.837222 -2.239883 0.469277 1.37343 0.742939 -2.138243 -0.093787 1.245117 0.90386 -1.179177 -0.580306 1.33535 -3.984637 1.735773 -0.947421 1.987199 -0.809233 0.140829 1.164695 -0.328315 -0.957619 -0.33945 -0.178151 -0.330665 1.050101 -1.024385 2.746784 1.333056 -0.164763 2.576395 -0.665491 1.291575 -0.86669 1.679034 1.027093 1.443752 -1.835986 -0.616733 1.166563 -0.094505
-0.066743 -0.158511 -0.094185 -0.060766 -3.13E-4 0.10698 -0.216503 -0.080303 -0.041213 -0.099205 0.020075 0.125778 -0.072162 0.29378 0.138899 0.073789 0.020868 0.021558 -0.095237 0.097779 -0.12902 -0.014165 0.056779 0.005398 -0.093913 0.022661 0.060253 0.053018 0.065388 0.011893 0.029077 0.093401 -0.005449 -0.029419 -0.128643 -0.097839 -0.058626 0.117812 0.108277 0.102824 0.039623 0.122609 -0.094519 0.102805 -0.096424 -0.009858 0.074499 0.025556 -0.127659 0.033085 -0.038327 -0.102003 -0.058394 0.19717 -0.075633 -0.178696 0.085399 -0.122559 -0.096397 0.070099 0.022217 -0.111497 -0.035865 -0.142847 0.131892 -0.062661 0.072852 0.066934 0.002019 0.053216 0.237977 0.259321 -0.15031 -0.014783 0.042024 0.04429 -0.111367 0.010518 0.114275 0.183632 0.161688 -0.061709 0.183329 0.002887 -0.005495 -0.010554 -0.189131 -0.069704 0.008067 -0.084094 -0.133072 0.010605 -0.009085 0.12936 -0.168184 0.096447 -0.050633 -0.042147 -0.019904 -0.138991
-0.17218 -0.287522 0.102249 0.23381 -0.134149 -0.099215 -0.202121 -0.306775 -0.163086 0.165787 0.046674 0.341168 0.054328 -0.123592 0.128106 0.168494 -0.111052 -0.027973 0.08862 0.159589 0.027944 -0.003929 0.297055 -0.115313 -0.250078 -0.058322 -0.183463 -0.028782 0.154996 -0.083267 0.005065 0.087882 -0.09981 0.056847 0.097739 -0.129054 -0.107682 0.190617 -0.002524 0.097251 0.067317 0.336861 -0.042664 0.092232 -0.00507 -0.041854 -0.07288 0.117845 -0.301445 0.254436 0.267412 -0.313155 -0.181221 -0.038814 0.047422 -0.198655 -0.081596 -0.108007 -0.062035 -0.024116 0.072154 -0.089649 0.140168 -0.155749 -0.018731 0.017808 -0.160653 0.087194 0.070002 -0.236756 -0.263469 0.017871 -0.053097 -0.107812 -0.035384 0.070097 -0.106913 -0.114146 0.122942 -0.040793 0.040153 0.047022 -0.196955 -0.078023 0.13109 -0.072288 0.042156 -0.038011 0.091064 -0.076227 -0.177702 -0.182506 0.378705 -0.068935 -0.013426 -0.206656 -0.004779 -0.101127 -0.001646 0.025605
-0.113146 -0.117547 0.061665 -0.085304 -0.136893 -0.097721 -0.072904 0.003446 -0.109916 0.071062 0.268059 0.093359 0.11999 -0.01886 -0.109472 0.019232 -0.02185 0.159122 -0.001706 0.078915 -0.108194 0.12327 0.049678 -0.036 -0.08301 -0.0598 -0.219685 0.068877 0.030498 -0.226858 0.024704 -0.07855 -0.127007 -8.22E-4 0.114303 0.049521 -0.056957 -0.119619 -0.044854 0.228512 -0.096898 -0.018864 -0.061194 0.154871 -0.031474 -0.032946 -0.048262 -0.14001 -0.130054 0.018467 -0.022673 -0.041417 -0.152567 0.054507 0.095407 0.064052 -0.068736 0.020637 -0.033593 0.076806 -0.131088 -0.084465 -0.003058 -0.249282 0.008923 -0.057582 0.126005 0.108405 0.053214 -0.217501 -0.185958 0.182605 -0.217935 -0.157172 0.094489 -0.072229 -0.282014 -0.097648 0.001894 -0.12622 0.021964 -0.056976 0.300304 -0.253607 0.042858 -0.120403 -0.07228 -0.268736 0.007188 -0.18277 -0.108851 0.053028 0.003483 0.20577 -0.049967 -0.358349 0.082748 -0.017297 -0.153077 0.052274
-0.087323 -0.203796 0.173805 0.024737 -0.035205 0.073274 -0.137768 0.036439 -0.152124 0.132581 0.105789 0.132055 0.029627 -0.034392 0.127427 0.214244 0.049695 0.290208 0.062719 0.059336 -0.140329 0.101387 0.200937 0.132508 -0.19155 -0.024987 -0.175546 -0.097125 0.188416 -0.080222 0.00629 0.00237 -0.106947 0.073194 -0.172807 -0.040484 -0.079119 0.010507 -0.009228 0.030314 -0.11581 0.171034 -0.074118 0.044576 0.115353 -0.176161 0.029042 -0.01219 -0.211933 0.138472 0.164058 -0.102662 -0.013068 0.086444 -0.002266 -0.152945 -0.037877 -0.050164 0.012446 -0.135175 0.039387 -0.108502 -0.031684 -0.211472 -0.08627 0.036564 0.093485 0.058549 0.146074 -0.126168 -0.078596 -0.031646 -0.042983 -0.100275 0.057208 0.037885 -0.218377 -0.062115 -0.069864 -0.015924 -0.066974 0.119901 0.042105 -0.143539 0.022912 0.081101 0.135746 0.105535 0.2396 0.185103 -0.188455 -0.013954 0.038955 0.10415 -0.053561 -0.039811 0.024291 -0.016648 -0.069467 -0.056162
-0.027287 -0.175484 0.099534 0.02843 -0.176104 -0.053893 -0.153132 -0.20471 0.014579 0.079206 0.089011 0.055223 0.008489 -0.080728 0.057252 0.258215 -0.043403 0.246326 -0.002404 0.118554 -0.184307 0.111076 0.210856 0.107662 -0.161643 -0.071595 -0.035077 -0.030755 0.148513 -0.106564 0.031213 0.065609 -0.033329 0.034178 -0.046344 -0.064192 -0.078738 -0.005771 0.018619 0.030099 -0.038788 0.219127 -0.075079 0.021615 0.015637 -0.147661 0.021304 -0.025818 -0.226385 0.094803 0.144788 -0.172162 0.002338 0.034831 0.002196 -0.155983 -0.111126 0.094733 -0.068747 -0.130219 0.175697 -0.176771 0.017363 -0.237953 -9.54E-4 -0.036771 0.07117 0.018792 0.019394 -0.093892 -0.04458 -0.0503 -0.033152 -0.111498 0.078413 -0.094493 -0.05869 0.051447 -0.159514 -0.166209 -0.115282 0.07477 0.070695 -0.307783 0.077494 0.085313 0.04905 0.015973 0.256097 0.044467 -0.2064 -0.025831 0.007569 0.149876 -0.056814 -0.156877 0.115466 0.01512 0.066636 -0.067074
-0.671963 -1.356401 3.602218 0.823366 -0.502176 -0.026847 2.688116 0.953721 0.412325 -0.074957 -2.563688 0.379861 -0.279054 0.512633 -0.426346 -0.669122 -2.193019 -1.985633 1.195718 -0.843091 -3.07709 -2.336138 0.676971 -1.157188 0.84245 -0.067074 1.662677 -0.902702 0.573933 0.762577 1.605777 -0.494156 -0.764054 -4.857189 1.199538 0.081996 1.582965 -1.800896 1.133021 -2.874443 -0.067305 0.527258 -0.963475 2.056148 -0.810059 -2.590427 0.192699 -0.925293 0.533123 0.50128 0.198265 1.047486 -1.15476 -0.133629 -3.660616 2.9145 0.67414 -1.747608 -1.472014 0.506851 -0.089567 -1.009712 -0.989767 -0.231732 -1.20197 -0.899847 -0.180586 -0.280434 1.214359 0.601947 3.002038 1.452004 1.898121 0.64863 -0.773459 -0.546508 1.482508 0.349815 -0.022055 1.977613 1.349274 -0.187718 2.026595 2.419264 -2.256871 -0.764584 -0.110956 2.609596 -0.511332 0.497735 1.205947 -0.553892 0.146347 -2.201324 -0.117853 -0.193777 0.312823 3.388883 -4.036498 2.412019
-0.064357 -0.033406 -0.006591 0.181457 0.041885 0.1408 -0.109843 0.016376 0.068228 -0.045519 0.005233 0.012036 0.05064 -0.052642 0.185426 0.139427 -0.155023 0.12963 0.063368 -0.055016 -0.054854 -0.018229 0.216037 -0.004417 -0.285826 -0.095238 -0.069825 -0.021777 0.187402 -0.130867 -0.00675 -0.075803 -0.044586 0.061098 0.044502 -0.138919 0.031721 -0.005549 0.063477 5.3E-5 0.101342 0.067759 0.180205 0.110423 -0.107152 0.014466 -0.095647 -0.001514 -0.13148 0.090497 0.038783 -0.236052 -0.139813 -0.061498 0.050517 -0.013343 -0.001507 0.083055 0.065801 -0.03321 0.124938 -0.104659 -0.042903 -0.049201 -0.088403 -0.030678 0.055664 0.085579 0.303591 -0.024133 0.025756 -0.085778 0.02809 -0.058313 0.028445 -0.065808 -0.182156 -0.019053 0.014958 -0.002839 -0.024485 0.159415 0.06125 -0.100844 0.111327 0.042033 0.023134 -0.078359 0.169092 -0.074151 -0.058673 0.083338 0.03916 0.23854 -0.125673 0.017002 0.129169 0.039082 0.127676 0.034378
0.002411 -0.061283 0.005403 0.31729 0.179115 0.077126 -0.126887 0.006237 -0.067546 0.096637 0.07544 0.132583 0.078708 -0.127422 -0.056132 0.059535 -0.080775 0.00544 0.08912 -0.05563 -0.174329 -0.06444 0.34682 0.007596 -0.206504 -0.032025 -0.014461 -0.091159 0.142572 -0.120876 0.081308 -0.012104 -0.002247 -0.004518 -0.132744 -0.029726 0.106592 0.005405 0.101004 0.039592 0.126098 -0.018725 0.122934 0.034863 -0.160926 -0.018821 -0.07645 -0.042698 0.022997 0.042284 0.209963 -0.05057 0.054768 0.119852 0.099358 -0.059253 -0.150289 -0.103834 0.022634 -0.045237 -0.002249 -0.060648 -0.01276 -0.206348 -0.077311 -0.002844 0.221262 -0.082753 0.064258 -0.117771 0.025033 -0.018819 0.079151 -0.064007 -0.051045 0.02566 -0.054688 0.180235 -0.014729 -0.191279 -0.003972 -0.027202 0.007259 -0.149416 -0.081278 5.47E-4 0.013531 0.022958 0.109237 0.022164 -0.124684 0.018473 -0.055419 0.045488 -0.133132 -0.050212 0.020749 -0.017885 0.034884 0.218133
-0.140785 -0.14728 -0.027616 0.08445 -0.152002 0.023071 0.025384 -0.125483 -0.174535 0.123511 0.183223 0.057582 -0.114695 -0.126659 0.312273 0.107716 0.076027 -0.022061 -0.033984 -0.035121 -0.196234 0.084876 0.242653 0.041485 -0.033119 0.006834 0.068452 0.09493 -0.009738 -0.022149 0.04009 0.025885 -0.102782 0.076223 -0.119503 -0.163882 0.006091 -0.143649 0.042611 0.081483 -0.033372 0.179769 0.068813 -0.090208 0.071727 -0.153766 0.05288 0.091442 0.004049 0.058936 0.088653 -0.241223 0.034444 0.149167 -0.015737 -0.019929 0.114689 0.067139 -0.021938 -0.176811 0.159565 -0.13655 -0.091767 -0.318583 -0.315485 -0.007252 0.060879 0.042017 0.030844 -0.125873 0.016578 0.08261 -0.159142 0.013366 -0.060969 -0.012505 -0.13003 0.010829 -0.002904 -0.100702 -0.084819 0.117446 0.074885 -0.146817 0.13477 -0.058325 0.044237 -0.04391 0.144159 -0.039606 0.042236 -0.111675 -0.092263 0.084575 -0.225227 -0.206438 0.308123 -0.030676 -0.100911 0.028808
-0.035066 -0.063099 0.16009 0.036247 0.108319 0.14529 -0.240095 -0.035381 -0.062766 0.086581 0.123925 -0.045129 0.051089 1.19E-4 -0.045617 0.214198 -0.036824 0.159797 -0.059677 0.005609 -0.120204 -0.095926 0.187217 -0.013574 0.133339 0.112093 -0.135793 0.168673 0.250149 0.065014 -0.153685 0.174691 -0.093586 0.028679 -0.222487 0.017585 -0.10586 -0.271025 0.157839 -0.063158 0.072272 -0.001327 0.011398 0.056167 -0.047283 -0.005086 -0.022563 -0.056418 -0.058214 0.064296 -0.012581 -0.083667 0.059293 -0.031231 0.124512 -0.026971 0.026202 0.132596 -0.089832 -0.132927 -0.052066 -0.300012 -0.030505 -0.012849 0.042904 0.207246 0.068187 -0.150236 0.248268 -0.084415 -0.118364 -0.173467 -0.171241 0.177101 -0.06001 -0.085483 0.110679 0.143017 -0.050059 0.044159 -0.170363 0.249167 0.18084 -0.154507 0.089581 -0.013904 0.094483 -0.07637 0.17777 0.25089 -0.061805 0.264651 0.068482 0.004309 -0.045113 0.026108 -0.205779 0.076291 -0.048002 -0.078814
-0.156246 -0.084681 0.079221 0.067576 0.003607 7.02E-4 0.190641 0.066208 -0.148284 0.084297 -0.061821 0.034104 -3.76E-4 -0.119425 -0.022093 0.248561 0.331149 -0.007077 0.029413 0.059182 -0.080479 0.085093 0.142746 0.152438 -0.171685 -0.141998 -0.036129 0.03723 0.055407 -0.091287 -0.150354 -0.072073 -0.031081 0.167084 -0.103182 -0.094397 -0.209305 0.018069 0.06192 0.041212 0.064884 -0.184949 0.170798 -0.135541 0.030026 0.075481 -0.131211 0.011751 -0.054961 0.040075 -0.06374 -0.127416 0.071416 -0.281377 0.116715 0.192276 -0.161526 -0.053974 0.101311 -0.154925 -0.139164 -0.151899 -0.064244 -0.088093 0.037451 0.006015 -0.122532 -0.005774 0.019743 0.129035 -0.126544 -0.016776 0.022722 0.156379 0.029343 -0.244083 -0.043356 -0.048282 -0.019246 -0.127551 0.024992 0.16123 0.087228 -0.0617 0.047938 0.182833 -0.030643 -0.18524 0.24164 0.058313 -0.21173 -0.135009 -0.123933 0.136048 0.041238 0.082431 0.030858 0.166238 0.16799 -0.061296
0.352905 0.550922 -1.128945 -0.511125 0.774489 1.405335 -0.371647 0.106012 -0.779785 -0.640302 -0.68578 1.570717 -0.712288 -0.706705 -0.789609 -0.045278 -1.599722 -2.840112 -0.089543 -1.158838 -1.862605 -0.62748 -0.063542 -0.468696 0.750564 0.033551 -0.772222 -0.188991 -0.163115 0.455978 0.038455 -0.779588 0.172303 -1.114448 -0.548246 -0.008155 1.66721 -0.744821 -0.15746 -2.668482 -0.304702 -0.905716 0.479063 0.151803 -0.94063 -0.044338 -0.906122 -0.456182 0.281891 0.268287 0.47007 0.628019 0.328428 1.471286 -2.345457 0.072073 -0.345477 -0.998199 -1.496897 -0.053061 0.351206 -0.934426 0.295591 0.07336 0.24092 0.486976 0.390085 -0.621556 0.375246 -0.02625 1.957847 1.014101 0.004675 0.08874 -0.900479 -0.462149 0.922254 1.355385 -1.048724 0.105897 1.254466 0.410718 0.321258 1.066395 -0.171761 -0.128774 0.315556 0.697301 -0.180925 0.555334 1.005586 -0.891677 -1.232923 -1.994189 -0.567812 0.204184 -0.947385 -0.051526 -0.987029 0.725141
0.009865 -0.108776 -0.005598 0.166527 -0.143641 0.090742 0.02741 -0.091958 -0.066164 0.044462 0.25598 0.224979 -0.039704 -0.191177 -0.060361 0.247843 -0.019377 0.118596 -0.022838 -0.144554 -0.102057 0.008502 0.057193 -0.051435 -0.234767 0.187017 0.012984 -0.157159 0.16887 -0.060629 -0.004587 -0.028762 -0.087689 0.255722 0.018986 -0.036885 -0.046209 0.001935 0.018177 0.128328 -0.203005 0.054583 -0.10605 0.047986 0.025944 -0.278394 -0.021704 0.042485 -0.137665 -0.103103 -0.017306 0.071985 0.065712 0.078072 -0.033046 0.094063 0.013427 0.08383 0.184665 -0.107849 0.160272 -0.174836 0.205316 0.008432 -0.00562 0.035308 0.113703 0.020887 0.164345 -0.108534 -0.089833 0.023907 0.182925 0.073619 -0.171143 -0.019821 0.023257 -0.056931 0.110183 0.006365 0.066331 -0.053359 -0.038477 -0.171175 0.313067 -0.021539 0.175138 0.051694 0.211802 -0.078038 -0.050046 -0.073879 0.061652 0.28324 -0.121307 -0.100654 0.123129 0.038072 0.056398 -0.34247
-0.119015 -0.08624 0.077322 0.018552 -0.034977 0.083147 -0.071904 -0.017376 0.026041 0.06057 -0.051092 0.055884 0.077847 0.201186 0.091139 0.011028 0.085319 0.180608 0.027826 0.0154 0.043216 0.106115 0.029704 0.087925 -0.049018 0.012895 -0.018439 -0.026539 0.040799 -0.048855 -0.067208 -0.078778 0.022108 0.055617 -0.148346 0.091281 -0.073344 -0.128266 -0.127638 0.080836 -0.037062 0.127067 -0.010501 -0.147527 0.035403 0.023881 -0.081976 0.009854 -0.101819 -0.140845 -0.052459 -0.047289 0.05754 0.097248 0.250288 0.137077 -0.045738 0.042555 0.061793 0.018885 0.038975 0.026703 -0.03734 0.125114 -0.057239 -0.085789 0.046193 0.072014 0.075186 -0.125039 -0.037541 -0.120665 -0.115382 -0.074005 -0.14299 0.08497 -0.153924 -0.048068 -0.085794 0.040611 -0.064364 -0.069072 -0.024689 -0.146723 2.97E-4 0.131309 0.048572 0.08481 0.109691 0.133396 -0.095438 -0.059139 0.147678 -0.031318 0.065154 0.010702 0.033363 0.081071 -0.004684 -0.023288
-0.062308 0.256757 -0.219415 -0.059373 0.166875 0.348008 -0.237378 0.394189 -0.034944 -0.143677 0.046787 0.219377 -0.003583 0.324581 -0.031983 0.147303 0.078829 0.112023 0.063347 0.330141 -0.122818 0.170917 -0.066836 -0.094403 -0.115459 0.043862 0.024915 0.110355 0.062071 0.188941 0.016489 0.130012 -0.093625 0.009228 0.076167 0.068106 0.13151 -0.02036 -0.029345 -0.076882 0.217858 -0.213737 -0.027797 -0.091089 0.125085 0.118336 -0.175191 0.193775 -0.087936 -0.044532 0.163102 0.057974 -0.101695 0.227959 0.123633 -0.101309 -0.210553 -0.05627 0.047136 0.056252 -0.090151 -0.180085 0.107455 0.012498 0.406756 -0.26908 0.198906 0.038379 -0.083164 0.068198 0.028533 -0.040103 -0.180579 -0.415251 -0.057174 0.172004 -0.108597 -0.00256 -0.036173 0.096207 0.026981 0.133095 0.052771 -0.029147 -0.104475 -0.276954 -0.034963 0.1717 -0.040137 0.153643 -0.08775 0.033768 0.126937 0.061386 0.090932 0.154057 -0.078325 0.052035 0.013614 0.143899
0.009816 -0.132646 0.013536 -0.024913 0.035848 0.013727 -0.040311 -1.36E-4 -0.253025 -0.113211 -0.087631 0.14568 -0.070049 0.029166 0.08329 0.027195 0.028184 -0.211162 -0.013038 -0.255323 -0.082684 -0.045024 0.292372 -0.036804 0.076119 0.042333 -0.030612 0.048033 -0.144552 -0.020039 0.008163 -0.083534 0.048918 0.047618 -0.255837 -0.09809 0.101674 0.004616 -0.033611 -0.175604 0.013272 0.013751 0.046259 -0.017001 -0.185697 0.146025 -0.013555 0.148442 -0.186016 -0.123888 -0.064524 -0.05257 -0.158445 0.033206 -0.022589 0.272285 0.011967 0.051035 0.077399 0.090494 -0.275395 0.068975 -0.051044 -0.008113 -0.083374 -0.216459 -0.013515 -0.087691 0.171381 0.26922 0.223781 0.066544 -0.114183 -0.061955 0.198409 -0.036221 0.048551 0.109301 -0.022812 -0.07223 0.074231 -0.080034 0.128893 -0.108953 -0.302115 -5.43E-4 -0.039967 0.100236 0.043373 -0.129987 0.097655 0.031988 -0.11098 -0.016587 -0.167472 0.12664 0.101004 -0.096938 0.009529 0.039394
0.020384 -0.052527 0.019922 -0.014866 -0.065346 -0.003369 0.039043 -0.024804 -0.026734 0.139375 0.075955 0.210518 0.138804 -0.069293 -0.039967 0.214539 -0.01651 0.106904 -0.152091 0.052466 -0.097076 0.012544 0.113352 0.096542 0.034003 -0.120766 -0.27144 0.01011 -0.15037 -0.033711 -0.12105 -0.036771 -0.03268 0.01936 -0.045393 -0.278888 0.031975 0.039334 0.122136 -0.024198 -0.009518 0.062616 0.123224 -0.0508 -0.139676 -0.008305 -0.016802 -0.139154 -0.227231 -0.093035 0.174529 -0.13181 -0.126564 -0.150879 -0.01003 -0.065253 -0.061056 -0.048407 0.068234 0.021077 -0.042112 -0.17028 -0.073332 -0.162616 0.044765 0.094427 0.019029 0.023327 0.070485 -0.048326 0.152672 0.036238 0.001747 -0.001051 -0.019773 0.026995 0.023048 -0.033271 0.049251 -0.013036 -0.020779 0.112209 -0.108407 -0.075866 -0.009562 0.067449 -0.062084 0.02937 0.046388 0.062264 -0.104379 0.003592 -0.085163 0.058256 -0.018717 -0.036453 -0.102332 0.061579 0.122884 0.112934
0.0 0.0 0.0 0.0 0.0 0.0 0.0 0.0 0.0 0.0 0.0 0.0 0.0 0.0 0.0 0.0 0.0 0.0 0.0 0.0 0.0 0.0 0.0 0.0 0.0 0.0 0.0 0.0 0.0 0.0 0.0 0.0 0.0 0.0 0.0 0.0 0.0 0.0 0.0 0.0 0.0 0.0 0.0 0.0 0.0 0.0 0.0 0.0 0.0 0.0 0.0 0.0 0.0 0.0 0.0 0.0 0.0 0.0 0.0 0.0 0.0 0.0 0.0 0.0 0.0 0.0 0.0 0.0 0.0 0.0 0.0 0.0 0.0 0.0 0.0 0.0 0.0 0.0 0.0 0.0 0.0 0.0 0.0 0.0 0.0 0.0 0.0 0.0 0.0 0.0 0.0 0.0 0.0 0.0 0.0 0.0 0.0 0.0 0.0 0.0
