0.115602 0.096779 0.016907 0.111192 -0.051491 0.06151 -0.128572 -9.5E-5 -0.141416 -0.003125 -0.092357 0.069523 0.05468 0.262075 -0.048256 0.201338 0.241937 -0.080638 -0.0202 0.072235 -0.152137 -0.03986 0.130398 -0.039092 -0.079405 0.05198 -0.140422 -0.012372 0.142491 -0.071804 -0.025884 -0.11227 -0.242786 -0.056585 -0.296169 -0.059938 0.081346 -0.091468 0.007269 -0.044767 -0.05328 0.055133 0.048792 -0.012048 0.185015 0.061477 -0.01946 0.107268 -0.084338 0.06677 -0.114044 0.053507 0.015382 0.013206 0.029198 -0.19189 0.130833 -0.015648 0.208956 -0.167741 -0.068107 0.035103 0.0371 -0.023387 -0.014111 -0.204707 0.194596 -0.078535 0.184484 -0.142179 0.121773 -0.093635 -0.04301 0.115617 0.065081 -0.156976 -0.067829 0.14431 -0.077319 0.164271 0.117495 0.139875 -0.015512 -0.101739 0.041248 0.018936 0.094909 -0.117901 0.098883 0.24775 0.004005 0.05423 -0.113581 0.20231 0.023064 0.008941 -0.035812 -0.005211 -0.117305 0.0922
-0.17718 0.225379 0.143375 0.197674 -0.082246 0.004633 -0.101559 0.087466 -0.006708 0.285452 0.115048 -0.11272 -0.242553 -0.042197 0.210545 0.072487 -0.158855 0.124971 -0.052275 0.050477 -0.049418 -0.246311 0.081575 0.357948 0.326123 -0.173668 -0.158106 0.087066 0.208871 0.050565 -0.09275 0.218387 -0.122926 -0.169068 0.13024 0.126512 -0.047529 -0.086158 0.177 0.374404 0.043154 -0.070612 -0.042369 -0.083998 -0.176745 0.11009 0.15445 -0.123097 -0.07273 -0.063369 -0.036444 -0.003309 -0.030126 -0.002449 -0.076983 0.27607 -0.085223 0.055102 -0.373246 0.012202 -0.017814 0.076854 -0.110547 0.083115 -0.02233 -0.053826 -0.160484 -0.091657 0.022977 0.167222 0.037299 0.086858 0.227801 0.217639 -0.264849 -0.095029 -0.207336 0.01174 -0.307787 -0.010302 0.172107 0.161222 0.608555 0.199907 0.132945 0.06803 0.115549 -0.02457 0.009831 -0.013772 0.06541 0.276965 0.326091 0.035846 0.108176 -0.033018 -0.224161 -0.003174 0.009984 0.186576
0.021531 -0.074526 0.043585 0.12114 -0.045013 -0.019669 -0.087846 -0.045172 -0.108909 0.101779 0.223045 0.036826 0.052419 -0.046849 0.159281 0.184605 0.058829 0.189906 0.07152 -0.02493 -0.022252 0.113716 0.239655 -0.002548 -0.055868 -0.151311 -0.089874 0.060997 0.145759 -0.023521 -0.037769 -0.017354 -0.032138 0.145943 -0.008115 -0.079305 0.038469 0.051854 -0.008961 0.107672 0.002871 -0.038749 -0.025173 -0.089439 0.081142 -0.156351 -0.107625 0.008252 -0.226215 0.045427 0.167954 -0.138024 -0.008838 -0.039299 0.236738 0.07782 0.019077 0.131405 0.031622 0.035805 0.090289 -0.003294 -0.051465 -0.200856 -0.110361 -0.172183 -0.0036 -0.051709 0.089498 -0.259477 0.01815 0.014916 0.056283 -0.03496 0.012814 -0.015171 -0.123233 -0.054497 0.026537 0.002083 0.001775 0.097081 0.082789 -0.034461 -0.115327 0.01493 -0.036341 0.039479 0.049214 0.045934 -0.095249 -0.027148 0.143002 0.090608 -0.023541 -0.174892 -0.062523 -0.056752 -0.001615 6.07E-4
-0.070096 -0.188116 0.100637 0.116856 0.028894 0.081517 -0.120674 -0.014513 -0.140709 0.106331 0.1272 0.11058 -0.024534 -0.049801 0.091265 0.111859 -0.003419 0.178061 0.114952 0.043989 -0.143157 0.096656 0.144528 0.050564 -0.159996 -0.117687 0.048281 -0.065743 0.118163 -0.166404 -0.111859 -0.025572 -0.149637 0.064198 -0.11541 -0.117369 -0.011168 -0.088295 0.040578 0.104254 -0.104254 0.061462 0.070825 -0.051931 0.122914 -0.10969 0.052285 -0.088994 -0.140001 -0.0278 0.154707 -0.02808 -0.025996 0.047324 0.126152 -0.084241 -0.035775 -0.04266 0.007152 -0.096347 0.069892 -0.112295 -0.034087 -0.075596 -0.153241 -0.016511 0.138457 0.009156 0.049291 -0.185332 -0.032276 -0.051843 -0.041052 -0.142268 -0.014244 -0.059648 -0.102986 0.006221 0.008333 0.060564 0.052902 0.083563 0.071973 -0.123555 0.100759 0.033242 -0.002911 -0.079702 0.201038 0.044136 -0.164823 -0.055742 -0.024416 0.108736 -0.039878 -0.107704 0.115633 0.129502 -0.044457 0.004968
-0.831197 0.068228 -2.860734 -1.156283 -0.210673 2.473063 2.228379 -0.491698 2.396309 -0.950158 0.521924 1.015186 4.792673 2.293189 0.078278 -0.067671 -1.219643 0.690112 0.603922 0.115386 -4.587698 0.401088 1.830024 -1.100868 -0.429106 2.317698 -0.594904 0.254217 1.140432 1.920946 0.588374 -0.551557 1.75398 0.019439 -1.045544 1.686667 -1.139836 -0.970971 -2.093574 -1.768715 1.016084 -0.958118 -1.463265 -2.171407 -0.789603 2.0773 0.330063 0.133606 -0.227869 0.058362 0.500038 2.104357 0.145445 1.924706 1.996135 0.695869 -1.30213 -0.507197 0.076349 0.332754 1.594448 -2.912092 -0.007456 -1.032257 0.645753 -3.447385 -0.176671 -2.053293 0.726265 -0.095853 1.208184 1.880984 -2.109036 -3.585352 -0.878896 0.806775 -0.659705 2.650707 -2.63219 0.902351 -0.478926 -0.98127 0.280028 1.906008 -0.258102 0.444399 -0.414731 1.722254 -2.454655 0.961001 -5.40306 1.094812 0.505024 1.228537 2.045945 0.27087 -0.327017 2.549346 1.183664 -0.810762
-0.100133 -0.018721 0.150788 0.131871 0.039209 0.057469 -0.058106 -0.258276 -0.231883 -0.033416 -0.056259 0.138301 -0.080998 0.052573 -0.075445 0.08206 0.138751 0.099005 0.249492 -0.078597 -0.166822 0.104537 -0.026414 0.10664 0.031511 -0.280444 0.240981 0.301891 0.047671 -0.015335 -0.084256 0.053098 0.089601 -0.003919 -0.041373 -0.083202 -0.072845 -0.108428 -0.042017 -0.058802 0.050503 -0.093913 -0.011163 0.029987 -0.045403 0.117222 -0.2096 -0.136065 0.298736 -2.09E-4 -0.071819 -0.080487 -0.115669 0.023869 0.016208 0.064703 -0.066812 -0.198765 -0.105181 -0.157881 -0.034413 0.023369 -0.254218 -0.143768 0.134683 0.192538 -0.154382 0.104494 0.053773 0.033765 -0.052737 0.04243 0.048062 0.006648 -0.191789 -0.102051 -0.167681 0.207952 -0.342842 -0.360473 0.067198 0.393911 0.189006 -0.006236 -0.006803 0.182679 0.011719 0.076542 0.357941 0.073986 -0.11181 0.09627 -0.313676 -0.042072 0.184793 -0.277844 -0.217434 -0.109051 0.197047 -0.141449
-1.230496 -1.784998 -2.701176 0.758382 1.022601 0.134257 -0.985047 1.562518 0.310835 -0.272668 -2.093218 0.576908 2.040189 3.9509 0.774258 -3.034902 0.015918 3.094607 -0.955282 -0.161599 1.346793 -0.427151 2.407651 2.929724 -1.837484 3.452367 0.53745 -0.982041 -0.926567 -0.170227 1.02313 -0.319885 0.057295 -0.759491 -3.167264 0.215212 0.199355 2.17803 -2.880665 -3.126606 1.987815 -0.672563 -1.358064 -0.033815 -0.248648 -1.018406 0.174184 0.367458 2.183337 2.743262 -1.304921 3.026151 -0.376082 1.947597 -1.255474 -1.064786 1.087376 -2.089309 0.970619 0.252176 5.222122 -0.33553 0.351429 0.429232 -0.472527 -0.662081 -0.365277 -1.304831 1.49886 -2.889978 0.333237 -0.579763 2.984992 1.952844 2.048453 -0.167153 0.122451 0.366104 2.33386 4.508055 2.013939 1.926481 3.227053 4.010036 0.598998 -2.80402 1.407855 2.476772 -2.103011 3.048537 -0.582139 -2.261293 -0.407356 -1.748715 -0.955609 0.330801 0.787854 1.235672 2.16538 0.751083
-0.237291 -0.137065 -0.357643 2.6E-4 -0.146497 -0.202114 -0.092896 0.176985 -0.039687 -0.10292 0.203226 -0.098781 -0.035781 -0.081891 -0.023581 -0.161146 0.140201 0.224983 4.18E-4 -0.051991 0.070811 0.208508 0.141691 0.118585 -0.178622 -0.067405 -0.168525 -0.02121 -0.006495 0.247939 -0.209536 0.177498 0.204916 -0.124184 -0.053458 -0.024843 -0.423004 0.08541 0.041096 0.163446 -0.0783 0.171264 -0.06702 0.241125 -0.140359 -0.023998 0.187507 0.136385 -0.07145 0.511847 0.181276 -0.180332 0.059788 -0.146213 0.209045 -0.21497 -0.022061 -0.142155 0.26729 0.122784 0.005089 -0.129556 0.134087 -0.081682 -0.001128 0.056622 0.398142 0.274287 0.213868 -0.06233 -0.07144 0.002274 0.003721 0.018872 0.18867 -0.076326 0.093102 0.01747 -0.002666 -0.162647 -0.115683 0.101173 0.228255 0.236425 0.254142 0.220921 -0.088154 0.27219 -0.281519 0.171886 -0.401138 -0.237922 -0.015133 0.182817 -0.014052 0.012069 0.036826 -0.061548 -0.462102 0.385469
-0.100133 -0.018721 0.150788 0.131871 0.039209 0.057469 -0.058106 -0.258276 -0.231883 -0.033416 -0.056259 0.138301 -0.080998 0.052573 -0.075445 0.08206 0.138751 0.099005 0.249492 -0.078597 -0.166822 0.104537 -0.026414 0.10664 0.031511 -0.280444 0.240981 0.301891 0.047671 -0.015335 -0.084256 0.053098 0.089601 -0.003919 -0.041373 -0.083202 -0.072845 -0.108428 -0.042017 -0.058802 0.050503 -0.093913 -0.011163 0.029987 -0.045403 0.117222 -0.2096 -0.136065 0.298736 -2.09E-4 -0.071819 -0.080487 -0.115669 0.023869 0.016208 0.064703 -0.066812 -0.198765 -0.105181 -0.157881 -0.034413 0.023369 -0.254218 -0.143768 0.134683 0.192538 -0.154382 0.104494 0.053773 0.033765 -0.052737 0.04243 0.048062 0.006648 -0.191789 -0.102051 -0.167681 0.207952 -0.342842 -0.360473 0.067198 0.393911 0.189006 -0.006236 -0.006803 0.182679 0.011719 0.076542 0.357941 0.073986 -0.11181 0.09627 -0.313676 -0.042072 0.184793 -0.277844 -0.217434 -0.109051 0.197047 -0.141449
-0.671963 -1.356401 3.602218 0.823366 -0.502176 -0.026847 2.688116 0.953721 0.412325 -0.074957 -2.563688 0.379861 -0.279054 0.512633 -0.426346 -0.669122 -2.193019 -1.985633 1.195718 -0.843091 -3.07709 -2.336138 0.676971 -1.157188 0.84245 -0.067074 1.662677 -0.902702 0.573933 0.762577 1.605777 -0.494156 -0.764054 -4.857189 1.199538 0.081996 1.582965 -1.800896 1.133021 -2.874443 -0.067305 0.527258 -0.963475 2.056148 -0.810059 -2.590427 0.192699 -0.925293 0.533123 0.50128 0.198265 1.047486 -1.15476 -0.133629 -3.660616 2.9145 0.67414 -1.747608 -1.472014 0.506851 -0.089567 -1.009712 -0.989767 -0.231732 -1.20197 -0.899847 -0.180586 -0.280434 1.214359 0.601947 3.002038 1.452004 1.898121 0.64863 -0.773459 -0.546508 1.482508 0.349815 -0.022055 1.977613 1.349274 -0.187718 2.026595 2.419264 -2.256871 -0.764584 -0.110956 2.609596 -0.511332 0.497735 1.205947 -0.553892 0.146347 -2.201324 -0.117853 -0.193777 0.312823 3.388883 -4.036498 2.412019
-0.132812 0.139556 0.048597 -0.018647 0.118408 0.00247 -0.067271 0.095907 -0.081878 -0.091832 -0.001812 0.057942 -0.014087 -0.00986 -0.069185 0.188377 -0.021068 0.076926 0.254723 -0.248385 -0.080721 -0.117294 -0.027162 0.065033 -0.143138 0.09449 -0.062873 0.012455 -0.115085 -0.011352 0.037397 0.054183 0.069252 0.06757 -0.067839 0.049231 -0.00707 0.081329 0.143743 0.05676 0.004699 0.191203 -0.07709 -0.013433 -0.090536 -0.038912 -0.08486 -0.164565 -0.080733 -0.096047 -0.094106 0.077144 0.063995 0.070608 -0.063214 -0.219161 -0.013689 0.092466 -0.155988 0.032974 -0.019331 -0.044742 -0.109981 -0.082229 0.089341 0.060836 -0.060764 0.00179 -0.039211 -0.069223 -0.037374 0.018909 -0.059089 -0.066894 0.039494 0.021798 -0.084994 -2.04E-4 -0.14342 0.063634 -0.048142 0.00607 0.012367 0.200435 -0.023967 0.015599 0.077542 -0.039174 -0.128248 -0.083469 0.005174 -0.008694 -0.008888 0.03434 -0.011309 0.126286 -0.1118 9.13E-4 0.052469 -0.078198
0.065534 0.046807 0.004718 0.006575 -0.17262 -0.016133 -0.11694 -0.032674 -0.1723 0.091591 0.164441 0.235029 0.073674 -0.050289 0.150403 0.255221 -0.067563 0.110551 0.224734 -0.068787 -0.050185 0.019506 0.18163 0.085757 -0.246375 -0.033742 -0.208608 -0.07845 0.272441 -0.121661 -0.005783 -0.060672 -0.057296 0.070972 -0.102097 -0.018693 0.086189 0.035527 0.096308 0.097408 -0.061945 0.103081 0.012428 0.032582 0.035541 -0.041302 0.106648 0.071616 -0.209286 0.077511 0.098745 -0.176626 -0.110845 0.031777 -0.010964 0.012253 -0.101204 0.006664 0.058171 -0.153363 -4.46E-4 -0.053622 0.05937 -0.126747 -0.069682 0.024579 -0.008299 -0.041523 0.166291 -0.048394 0.065666 0.031498 0.132851 0.003023 0.031751 0.089179 -0.141352 -0.032376 0.005045 0.011135 -0.002929 0.011544 0.109307 -0.151454 0.082171 0.0597 0.02255 0.021266 0.117846 0.012241 -0.125507 0.041449 -0.05501 -0.017835 -0.037996 -0.073288 0.147908 -0.026482 0.189208 0.044703
0.170746 -0.172022 -0.538179 -0.067925 0.172985 0.030057 0.245797 -0.095937 -0.161099 0.034808 0.09379 -0.105088 0.0727 0.050054 0.069859 -0.246943 0.005049 0.177189 0.229795 -0.172687 -0.212554 -0.190864 6.9E-4 -0.176168 -0.031311 0.054185 0.066514 0.146911 -0.194209 0.075545 -0.060206 0.07805 0.104878 0.077723 -0.305923 0.053847 0.223457 -0.125256 0.00128 0.125221 -0.066225 0.189058 0.030299 -0.054188 0.018158 -0.253769 -0.131039 -0.008649 -0.07863 0.200577 0.04373 -0.188238 0.129284 -0.056696 -0.009382 0.097627 -0.268672 -0.012055 -0.158322 0.130224 -0.084898 -0.169143 -0.175735 -0.038339 0.05328 -0.013461 0.135916 -0.183076 0.07351 -0.039438 0.326488 -0.135284 -0.195884 0.017057 -0.094017 0.098302 -0.161554 -0.060254 0.067937 -0.05409 -0.167802 -0.184133 0.00266 0.050808 0.34845 0.238628 0.215182 0.181068 -0.221291 -0.151106 0.095088 -0.010846 0.044111 0.176221 -0.266092 -0.044958 0.162689 0.23619 0.095681 0.026971
0.135717 -0.065497 0.02281 0.048052 -0.011836 -0.09375 0.0016 -0.035631 -0.026011 -0.016446 0.147576 0.093555 -0.033806 0.001119 0.136647 0.086354 -0.119676 0.293363 0.140583 -0.140273 0.092999 0.105554 0.007309 -0.047042 -0.138044 -0.144529 -0.090671 0.023305 0.042831 -0.089424 -0.009516 -0.050607 -0.11973 0.043476 -0.110033 -0.070775 0.210602 -0.044688 0.047415 0.07877 -0.058849 0.123783 -0.083304 0.146343 -0.016713 -0.014302 -0.083131 -0.029171 -0.052871 0.027786 -0.056479 -0.019677 -0.067362 0.060823 0.051262 -0.094924 0.099503 0.030649 0.106531 -0.086298 0.023543 -0.100214 0.036796 -0.033757 -0.018593 0.054249 -0.041703 -0.048402 0.151764 -0.052203 -0.028287 0.059596 0.03622 0.059919 0.042116 -0.083798 0.077838 -0.039275 -0.10326 -0.058138 -0.047792 -0.041267 0.071076 -0.034964 0.077873 0.115244 -0.016893 -0.059243 0.145701 -0.018047 -0.084552 -0.05323 0.136246 0.034465 0.051731 -0.033088 0.142559 -0.100828 -0.127029 -0.153227
-0.027751 -0.236417 0.035329 -0.015178 0.085594 0.115009 -0.256773 -0.207905 -0.036317 0.205622 0.307445 0.068497 0.1779 0.00518 0.225303 0.282446 -0.094408 0.034572 0.063258 0.03769 -0.133753 0.069426 0.338632 0.045353 -0.072922 -0.216289 0.042021 -0.220968 -0.025668 0.009022 0.093263 -0.104672 0.082561 0.155492 -0.03495 -0.085293 -0.0462 -0.07143 0.077188 0.062255 0.005506 0.084593 0.044633 0.016101 -0.060731 -0.014676 0.10661 -0.033706 -0.199983 0.299911 0.054336 -0.057527 -0.116818 0.097577 0.186033 -0.054987 0.077285 0.071407 0.200615 -0.057269 -0.008148 0.063125 -0.017685 -0.160977 -0.085853 -0.129897 0.239829 -0.137082 0.035124 -0.04857 0.042273 -0.219691 0.086647 -0.076075 0.260529 0.02115 -0.013517 0.124725 -0.046989 0.020679 0.013599 0.084107 0.021875 -0.22103 -0.140909 0.028579 -0.132448 -0.260188 -0.107119 0.099412 -0.217944 0.142839 -0.171686 -0.089725 -0.078693 -0.113678 0.308513 -0.040371 -0.024131 -0.151473
-0.101423 -0.111223 0.204943 0.132795 0.05788 0.002316 -0.036371 0.128742 -0.099987 -0.203751 -0.005747 -0.076661 0.061493 0.129923 0.03874 0.055627 -0.263836 -0.184604 0.011424 -0.007279 0.055684 -0.07375 0.014547 0.147661 -0.137906 -0.053606 -0.109156 0.116562 0.167124 -0.150614 0.060862 0.022001 -0.10916 0.25015 -0.078021 -0.006786 -0.141903 0.141898 -0.160938 -0.126208 0.099444 0.188346 -0.14893 0.061422 -0.089297 -0.141281 -0.053777 0.056071 -0.033157 -0.040216 0.128842 -0.039396 0.153451 -0.099596 0.009729 -0.066533 -0.087515 -0.014641 -0.090516 0.13632 -0.012204 -0.13469 0.080049 0.037476 -0.028325 0.033903 0.019994 0.045848 0.02642 0.068674 -0.091896 0.015101 0.058041 -0.015662 0.014985 0.073895 0.155834 -0.167799 -0.15315 0.063915 0.007151 -0.100262 0.020611 0.155 -0.277609 0.145833 0.11182 0.07878 -0.028091 -0.019437 0.04089 -0.021383 0.025695 0.057773 -0.115688 0.142605 -0.064814 -0.090623 0.132294 -0.086139
-0.095286 0.022525 0.176919 0.182978 0.06499 -0.033585 -0.229255 0.012213 0.085287 -0.002561 0.159276 -0.159626 0.056875 0.083827 -0.019712 0.197543 0.114113 0.204147 -0.157364 0.124994 -0.139442 0.139918 -0.084783 0.01837 -0.16095 0.124527 -0.002025 0.060949 0.0964 -0.327596 0.007627 -0.159818 -0.059213 0.013792 0.089725 -0.149073 0.09148 -0.104795 0.115041 0.217731 0.012314 0.019811 -0.107231 -0.273709 0.007768 -0.068397 0.021454 0.004089 -0.133864 -0.023199 0.020749 -0.093966 -0.010578 0.195501 -0.032485 -0.184511 -0.069694 -0.079109 -0.023344 0.15674 0.038549 0.00503 -0.01759 0.096885 -0.077321 0.064234 0.033766 -0.01942 -0.028315 -0.15884 -0.101653 -0.091748 0.054863 -0.058011 0.038415 -0.181393 -0.061269 0.025629 0.104078 0.012459 0.024718 0.140378 0.09883 -0.064919 0.102605 0.020624 -0.088869 -0.050415 -0.028931 0.071248 -0.141662 0.018469 0.008371 0.053175 -0.317407 -0.251721 -0.060661 -0.195183 -0.227535 0.01175
0.0 0.0 0.0 0.0 0.0 0.0 0.0 0.0 0.0 0.0 0.0 0.0 0.0 0.0 0.0 0.0 0.0 0.0 0.0 0.0 0.0 0.0 0.0 0.0 0.0 0.0 0.0 0.0 0.0 0.0 0.0 0.0 0.0 0.0 0.0 0.0 0.0 0.0 0.0 0.0 0.0 0.0 0.0 0.0 0.0 0.0 0.0 0.0 0.0 0.0 0.0 0.0 0.0 0.0 0.0 0.0 0.0 0.0 0.0 0.0 0.0 0.0 0.0 0.0 0.0 0.0 0.0 0.0 0.0 0.0 0.0 0.0 0.0 0.0 0.0 0.0 0.0 0.0 0.0 0.0 0.0 0.0 0.0 0.0 0.0 0.0 0.0 0.0 0.0 0.0 0.0 0.0 0.0 0.0 0.0 0.0 0.0 0.0 0.0 0.0
-0.009445 0.134819 0.154035 0.050707 0.138016 -0.027874 -0.056225 0.07674 0.010514 0.172767 0.367448 0.144126 0.126732 -0.111525 0.078616 0.147224 0.042141 0.18795 0.163163 0.133557 -0.230765 0.082497 -0.072106 0.082615 0.026903 -0.117646 -0.007361 -0.070123 0.263427 0.018794 -0.094391 0.009336 0.008404 0.140571 0.013887 -0.037484 0.012536 0.104396 0.016079 0.022791 0.049072 0.035025 0.031778 0.07443 -0.003927 -0.053905 0.048647 0.108166 -0.100674 0.027257 0.062546 -0.073345 0.08504 0.062692 0.099454 -0.067245 0.050047 -0.074413 -0.030828 0.042308 -0.028731 -0.053595 0.006215 -0.071685 -0.022788 0.1488 0.037358 0.12865 0.119596 -0.126655 -0.049667 -0.059898 -0.053769 -0.040225 -0.073736 -0.120039 -0.060227 0.026326 0.020938 -0.052989 -0.055154 0.207458 0.233045 -0.106506 0.155909 0.046545 0.069411 -0.098847 0.134728 -0.001553 -0.113748 0.074292 0.074117 0.101851 -0.149187 -0.157997 0.209823 0.058397 0.151993 -0.119469
0.021531 -0.074526 0.043585 0.12114 -0.045013 -0.019669 -0.087846 -0.045172 -0.108909 0.101779 0.223045 0.036826 0.052419 -0.046849 0.159281 0.184605 0.058829 0.189906 0.07152 -0.02493 -0.022252 0.113716 0.239655 -0.002548 -0.055868 -0.151311 -0.089874 0.060997 0.145759 -0.023521 -0.037769 -0.017354 -0.032138 0.145943 -0.008115 -0.079305 0.038469 0.051854 -0.008961 0.107672 0.002871 -0.038749 -0.025173 -0.089439 0.081142 -0.156351 -0.107625 0.008252 -0.226215 0.045427 0.167954 -0.138024 -0.008838 -0.039299 0.236738 0.07782 0.019077 0.131405 0.031622 0.035805 0.090289 -0.003294 -0.051465 -0.200856 -0.110361 -0.172183 -0.0036 -0.051709 0.089498 -0.259477 0.01815 0.014916 0.056283 -0.03496 0.012814 -0.015171 -0.123233 -0.054497 0.026537 0.002083 0.001775 0.097081 0.082789 -0.034461 -0.115327 0.01493 -0.036341 0.039479 0.049214 0.045934 -0.095249 -0.027148 0.143002 0.090608 -0.023541 -0.174892 -0.062523 -0.056752 -0.001615 6.07E-4
-0.127228 -0.063834 0.082166 -0.095573 -0.033969 -0.107331 -0.332531 0.082864 0.008235 0.066996 0.001087 0.028023 0.090167 -0.014589 -0.208548 0.23205 0.028179 0.14916 -0.035074 0.018744 -0.145632 -0.152632 0.067001 0.193401 -0.190247 0.060525 0.006769 -0.1126 0.236133 -0.316026 -0.052547 0.21315 -0.101638 0.121786 -0.078348 0.04885 -0.096923 -0.030413 0.002688 0.24816 0.068878 0.040065 -0.028789 -0.12351 0.068758 -0.115067 0.148121 -0.079984 -0.222243 0.049713 0.077025 -0.106456 0.130985 0.101609 0.061482 0.021551 -0.049606 -0.024447 0.203826 -0.148598 0.026976 -0.195926 0.084861 -0.035269 -0.128237 -0.053623 0.023842 -0.060995 0.005168 -0.111717 -0.15374 -0.135322 -0.069243 0.05507 -0.007527 -0.152497 -0.012634 0.032784 -0.182104 0.106352 0.016167 0.210372 0.082274 -0.161558 0.089258 0.122186 -0.146376 -0.009098 0.171173 -0.088766 -0.116013 -0.130531 0.14832 0.071612 -0.170593 -0.17216 -0.072926 -0.107385 -0.036834 -6.63E-4
-0.178251 -0.070625 0.257515 0.209736 -0.116279 -0.272492 -0.157709 0.165861 0.096833 0.222843 0.057231 0.113848 0.379135 -0.058469 -0.070359 0.149907 -0.089977 0.460849 -0.020659 0.071874 -0.10177 0.125343 0.055997 0.093202 -0.001739 0.072263 -0.108529 -0.089786 0.229076 -0.375386 0.002148 0.070745 -0.198877 0.177831 -0.145774 0.234312 0.099815 -0.075978 0.004864 0.396549 -0.016707 0.150206 -0.055763 -0.135911 0.017014 -0.094918 0.208237 0.007509 -0.1917 0.009382 0.224043 -0.144236 -0.201113 0.187034 0.14 -0.045989 -0.13427 -0.189217 0.133978 0.009251 0.117621 -0.0885 -0.053753 -0.065092 -0.149229 -0.030019 0.068335 0.024816 0.010103 -0.010372 -0.407023 0.066053 -0.014789 0.11318 -0.032388 -0.086434 -0.220671 -0.088925 -0.052083 0.055797 0.184115 0.10897 0.132321 -0.314691 -0.115895 -0.022593 -0.020929 4.41E-4 0.031364 0.100246 -0.450008 -0.219899 -0.157217 0.110764 -0.202834 -0.172584 0.04292 -0.185642 -0.114379 -0.018397
0.352905 0.550922 -1.128945 -0.511125 0.774489 1.405335 -0.371647 0.106012 -0.779785 -0.640302 -0.68578 1.570717 -0.712288 -0.706705 -0.789609 -0.045278 -1.599722 -2.840112 -0.089543 -1.158838 -1.862605 -0.62748 -0.063542 -0.468696 0.750564 0.033551 -0.772222 -0.188991 -0.163115 0.455978 0.038455 -0.779588 0.172303 -1.114448 -0.548246 -0.008155 1.66721 -0.744821 -0.15746 -2.668482 -0.304702 -0.905716 0.479063 0.151803 -0.94063 -0.044338 -0.906122 -0.456182 0.281891 0.268287 0.47007 0.628019 0.328428 1.471286 -2.345457 0.072073 -0.345477 -0.998199 -1.496897 -0.053061 0.351206 -0.934426 0.295591 0.07336 0.24092 0.486976 0.390085 -0.621556 0.375246 -0.02625 1.957847 1.014101 0.004675 0.08874 -0.900479 -0.462149 0.922254 1.355385 -1.048724 0.105897 1.254466 0.410718 0.321258 1.066395 -0.171761 -0.128774 0.315556 0.697301 -0.180925 0.555334 1.005586 -0.891677 -1.232923 -1.994189 -0.567812 0.204184 -0.947385 -0.051526 -0.987029 0.725141
-1.230496 -1.784998 -2.701176 0.758382 1.022601 0.134257 -0.985047 1.562518 0.310835 -0.272668 -2.093218 0.576908 2.040189 3.9509 0.774258 -3.034902 0.015918 3.094607 -0.955282 -0.161599 1.346793 -0.427151 2.407651 2.929724 -1.837484 3.452367 0.53745 -0.982041 -0.926567 -0.170227 1.02313 -0.319885 0.057295 -0.759491 -3.167264 0.215212 0.199355 2.17803 -2.880665 -3.126606 1.987815 -0.672563 -1.358064 -0.033815 -0.248648 -1.018406 0.174184 0.367458 2.183337 2.743262 -1.304921 3.026151 -0.376082 1.947597 -1.255474 -1.064786 1.087376 -2.089309 0.970619 0.252176 5.222122 -0.33553 0.351429 0.429232 -0.472527 -0.662081 -0.365277 -1.304831 1.49886 -2.889978 0.333237 -0.579763 2.984992 1.952844 2.048453 -0.167153 0.122451 0.366104 2.33386 4.508055 2.013939 1.926481 3.227053 4.010036 0.598998 -2.80402 1.407855 2.476772 -2.103011 3.048537 -0.582139 -2.261293 -0.407356 -1.748715 -0.955609 0.330801 0.787854 1.235672 2.16538 0.751083
0.0 0.0 0.0 0.0 0.0 0.0 0.0 0.0 0.0 0.0 0.0 0.0 0.0 0.0 0.0 0.0 0.0 0.0 0.0 0.0 0.0 0.0 0.0 0.0 0.0 0.0 0.0 0.0 0.0 0.0 0.0 0.0 0.0 0.0 0.0 0.0 0.0 0.0 0.0 0.0 0.0 0.0 0.0 0.0 0.0 0.0 0.0 0.0 0.0 0.0 0.0 0.0 0.0 0.0 0.0 0.0 0.0 0.0 0.0 0.0 0.0 0.0 0.0 0.0 0.0 0.0 0.0 0.0 0.0 0.0 0.0 0.0 0.0 0.0 0.0 0.0 0.0 0.0 0.0 0.0 0.0 0.0 0.0 0.0 0.0 0.0 0.0 0.0 0.0 0.0 0.0 0.0 0.0 0.0 0.0 0.0 0.0 0.0 0.0 0.0
-0.178251 -0.070625 0.257515 0.209736 -0.116279 -0.272492 -0.157709 0.165861 0.096833 0.222843 0.057231 0.113848 0.379135 -0.058469 -0.070359 0.149907 -0.089977 0.460849 -0.020659 0.071874 -0.10177 0.125343 0.055997 0.093202 -0.001739 0.072263 -0.108529 -0.089786 0.229076 -0.375386 0.002148 0.070745 -0.198877 0.177831 -0.145774 0.234312 0.099815 -0.075978 0.004864 0.396549 -0.016707 0.150206 -0.055763 -0.135911 0.017014 -0.094918 0.208237 0.007509 -0.1917 0.009382 0.224043 -0.144236 -0.201113 0.187034 0.14 -0.045989 -0.13427 -0.189217 0.133978 0.009251 0.117621 -0.0885 -0.053753 -0.065092 -0.149229 -0.030019 0.068335 0.024816 0.010103 -0.010372 -0.407023 0.066053 -0.014789 0.11318 -0.032388 -0.086434 -0.220671 -0.088925 -0.052083 0.055797 0.184115 0.10897 0.132321 -0.314691 -0.115895 -0.022593 -0.020929 4.41E-4 0.031364 0.100246 -0.450008 -0.219899 -0.157217 0.110764 -0.202834 -0.172584 0.04292 -0.185642 -0.114379 -0.018397
0.037004 -0.177652 0.108871 0.035156 0.038639 0.004428 -0.126892 0.002972 0.003112 0.014391 0.275296 0.089774 0.014362 -0.104326 0.15173 0.130333 -0.089549 0.238039 0.022378 -0.097441 -0.001099 0.029382 0.278397 0.139672 -0.210822 -0.119588 -0.00172 0.040639 0.209701 -0.166101 -7.81E-4 -0.046738 -0.045775 0.031401 -0.105212 -0.087326 0.07434 0.053677 0.122309 0.216531 -0.060772 -0.024361 0.015533 0.069656 -0.0147 -0.131678 0.032026 0.033161 -0.116895 -0.015218 0.095602 -0.240387 -0.225998 0.018875 0.017016 -0.04909 -0.012035 -0.030439 -0.012939 -0.074439 0.031959 -0.134346 -0.001821 -0.121866 -0.079325 -0.022889 -0.009407 0.023577 0.012213 -0.119241 -0.007138 -0.01023 -0.038827 -0.099574 0.173486 -0.047216 -0.071585 -0.002143 -0.164244 0.018279 0.037444 0.080045 0.085865 -0.133929 0.006721 -0.045279 -0.089988 -0.076896 0.236209 0.117246 -0.213778 -0.067483 -0.018712 0.176614 -0.084414 -0.264496 0.024565 0.050736 0.033362 0.012306
-0.192517 -0.129725 0.07434 0.00456 -0.201663 -0.138458 -0.006451 0.065733 -0.017077 0.099665 0.034543 0.020795 0.076837 -0.044728 -0.025895 0.132226 0.044352 0.250414 0.114746 0.16722 -0.175135 -0.067676 0.06413 -0.130524 0.002482 -0.007159 -0.014463 -0.034363 0.05775 0.19203 -0.026349 0.010955 0.090193 0.012208 -0.080538 -0.006911 -0.037118 0.037843 0.025059 0.035257 -0.132857 0.110457 -0.086305 -0.095723 -0.040507 0.055103 0.014858 -0.021134 -0.001685 0.148793 0.082452 0.007971 -0.029782 -0.104647 0.053607 0.059992 -0.246515 0.053504 0.074154 0.13607 6.68E-4 -0.187701 0.075495 4.07E-4 0.129359 0.083896 0.189988 -0.027661 0.167718 -0.138309 -0.149173 0.233644 -0.079666 -0.016386 -0.089997 0.121136 -0.134555 -0.088917 -0.02972 -0.005203 0.021569 0.059313 0.046827 -0.187374 0.004143 -0.00284 0.116692 0.02446 -0.065958 0.043851 -0.143667 0.051544 0.01382 0.132183 0.092567 0.066011 -0.120548 -0.008288 0.129382 0.066021
0.064113 -0.036447 0.002567 0.016198 9.46E-4 0.061965 -0.103429 -0.046021 -0.072592 0.07252 0.04251 0.064689 0.189873 0.253754 0.064914 -0.099375 -0.128137 -0.054852 0.241138 0.033203 -0.163913 -0.297123 -0.050327 0.079975 -0.003936 -0.040185 -0.20069 -0.031957 0.165086 -0.042778 0.096137 -0.009849 -0.211426 0.083129 -0.082868 -0.054241 -0.062812 -0.213468 -0.009883 -0.03078 0.103685 0.088798 0.048152 -0.044189 -0.07161 -0.085681 0.099507 -0.114437 -0.016905 0.160565 -0.094201 -0.039651 0.077706 -0.026304 0.271261 -0.028398 0.090042 -0.123009 -0.069519 -0.124751 -0.296957 -0.131752 0.078503 -0.126412 0.021449 0.020073 -0.090924 -0.02873 0.075886 -0.121547 0.039454 -0.11065 -0.078299 0.095368 -0.04209 -0.086344 0.099238 0.06237 -0.39627 -0.01196 -0.014526 0.056227 -0.068537 0.096945 0.271423 -0.023582 -0.090462 -0.101713 0.163218 0.007321 0.019036 -0.091736 0.058042 -0.034328 -0.09508 0.085172 0.034303 -0.084601 -0.007231 -0.075808
0.143827 -0.109827 0.034065 0.227088 -0.055472 0.197211 -0.263184 -0.105788 0.075174 0.037992 -0.02462 0.234734 -0.026546 -0.058231 0.124374 -0.05098 -0.044082 -0.076087 0.095286 -0.104294 -0.117871 0.037764 -0.128611 0.130376 -0.042743 -0.102692 0.001838 -0.001977 0.176824 -0.065073 0.146438 0.062689 -0.137862 -0.03456 -0.107469 0.048835 -0.033829 0.05883 -0.077667 -0.149738 -0.129411 -0.004244 0.096813 0.032204 0.019195 0.045283 -0.028667 -0.045173 0.146696 0.073569 0.077296 -0.035214 -0.06627 -0.173317 0.139935 -0.063089 -0.135907 0.058288 -0.023565 -0.189732 -0.026764 -0.060015 0.05455 -0.024232 -0.04955 -0.0857 -0.055489 -0.148741 -0.038161 0.081191 0.120172 0.098276 0.142734 -0.018801 -4.69E-4 -0.112375 -0.072463 0.107795 0.062915 -0.170122 0.094813 0.132555 -0.086554 -0.053139 -0.038224 0.136973 -0.133582 0.007514 0.140238 -0.028718 -0.112625 -0.020174 0.069623 0.179129 -0.123251 -0.323619 -0.004731 -0.144719 0.055472 -0.005833
0.122603 -0.049749 -0.120838 0.025242 -0.169246 -0.152032 -0.080883 -0.138451 -0.210493 -0.204235 -0.221741 0.041355 -0.084333 -0.005224 -0.028214 -0.0373 -0.01107 0.00438 0.154164 0.201031 -0.088751 -0.159722 0.141871 0.020557 0.105232 -0.072252 0.077318 -0.073422 0.233617 -0.08812 -0.167192 -0.106787 -0.136723 0.081163 -0.260207 0.140478 -0.020997 -0.089879 -0.166097 0.047972 -0.232392 0.036765 0.133582 -0.145104 0.183391 0.119554 0.056282 -0.052855 0.213672 0.200286 -0.217064 -0.151725 0.016573 -0.119033 -0.058994 0.050515 -0.218805 -0.279312 -0.121893 0.070262 -0.088783 -0.088545 -0.096914 0.037788 -2.49E-4 -0.152855 -0.036009 -0.099329 -0.157491 -0.131969 0.132683 -0.017596 -0.013394 0.212684 -0.052828 0.080772 -0.051029 0.109447 -0.007415 -0.004242 -0.004395 0.071331 0.005836 0.014665 0.20921 0.112703 0.006153 0.06305 0.074455 0.063989 -0.156384 -0.001332 -0.037988 0.256878 0.203646 -0.18338 -0.301415 -0.066918 -0.053962 -0.131443
0.028566 0.135166 0.096699 0.105631 0.036535 -0.143409 0.086774 0.050924 0.108259 0.038707 0.117569 0.277209 0.088768 0.147454 0.049805 0.209769 -0.140023 -0.044747 -0.020261 -0.095157 -0.074908 0.102905 -0.115126 -0.068426 -0.035475 -0.030235 0.033792 0.211817 0.155358 -0.029238 -0.010171 0.055346 0.068868 0.040866 0.062192 -0.061423 0.004606 -0.055839 -0.122253 0.018865 -0.086782 0.075329 -0.011442 0.05577 -0.021768 0.044243 0.281932 -0.256007 -0.140494 0.150427 0.058319 -0.089054 0.082799 -0.168304 0.13356 -0.027805 -0.071835 -0.091562 -0.174502 6.17E-4 0.007892 -0.017618 -0.104252 0.034519 0.092304 -0.251686 -0.163454 -0.087788 -0.003563 -0.032691 -0.144932 0.063617 -0.009836 -0.079796 0.008017 0.176916 -0.038438 -6.72E-4 -0.038006 -0.181938 0.179608 0.090493 -0.040085 0.056412 0.111268 -0.150258 -0.01833 0.036197 0.285553 0.145815 0.031913 0.030398 0.078263 0.123398 -7.05E-4 -0.102937 0.152214 0.03334 0.09407 -0.022901
0.122603 -0.049749 -0.120838 0.025242 -0.169246 -0.152032 -0.080883 -0.138451 -0.210493 -0.204235 -0.221741 0.041355 -0.084333 -0.005224 -0.028214 -0.0373 -0.01107 0.00438 0.154164 0.201031 -0.088751 -0.159722 0.141871 0.020557 0.105232 -0.072252 0.077318 -0.073422 0.233617 -0.08812 -0.167192 -0.106787 -0.136723 0.081163 -0.260207 0.140478 -0.020997 -0.089879 -0.166097 0.047972 -0.232392 0.036765 0.133582 -0.145104 0.183391 0.119554 0.056282 -0.052855 0.213672 0.200286 -0.217064 -0.151725 0.016573 -0.119033 -0.058994 0.050515 -0.218805 -0.279312 -0.121893 0.070262 -0.088783 -0.088545 -0.096914 0.037788 -2.49E-4 -0.152855 -0.036009 -0.099329 -0.157491 -0.131969 0.132683 -0.017596 -0.013394 0.212684 -0.052828 0.080772 -0.051029 0.109447 -0.007415 -0.004242 -0.004395 0.071331 0.005836 0.014665 0.20921 0.112703 0.006153 0.06305 0.074455 0.063989 -0.156384 -0.001332 -0.037988 0.256878 0.203646 -0.18338 -0.301415 -0.066918 -0.053962 -0.131443
2.01044 1.232296 -2.549912 -2.032197 2.108218 0.350754 3.984176 -0.781111 1.754388 -2.314295 2.355634 -1.525834 1.226472 -1.541329 -3.304575 2.991044 -1.391115 -2.323146 -2.15385 -2.980392 2.344315 -2.676041 1.909837 -5.523956 -1.061176 -1.804773 -0.560027 -2.255916 -1.094577 -1.063408 0.662731 -2.102897 -3.864523 -7.571391 -1.344896 0.094571 0.367136 1.570184 0.648031 -0.688728 -0.946578 -0.092235 -2.489474 -1.986418 -1.624544 2.498297 1.250083 -1.068359 1.883808 -2.927913 -1.745434 -2.058515 -0.512999 0.410537 1.644372 -2.957222 1.082306 2.233394 3.431873 -2.073999 1.844186 -1.494935 0.390434 1.564615 -2.929395 -0.086005 -1.048035 -6.680551 1.315066 2.524979 4.404657 4.649625 1.632009 -3.155071 -4.040797 -1.548602 1.77773 -0.139533 -0.426028 0.428942 0.053434 -1.593569 3.168037 1.766949 4.17124 2.646524 2.776018 3.211581 -0.17617 -0.149054 -1.677979 1.48727 -4.970527 -4.785122 -2.199308 0.014736 -3.178869 1.436958 -1.954018 -3.116458
-0.02951 -0.10093 -0.123216 -0.302362 -0.196236 0.042165 0.023508 -0.062289 -0.026636 0.183156 -0.044319 0.004399 0.064647 0.022353 -0.003475 0.050996 0.2705 0.205611 0.095731 -0.37856 -0.179047 0.182624 0.442037 -0.243417 -0.054766 -0.045367 -0.140801 0.204169 0.001776 -0.076517 0.062785 -0.407356 -0.039894 0.150269 -0.20229 -0.012589 0.108882 0.149502 -0.252643 0.266153 -0.143237 -0.020207 -0.108961 -0.148081 0.129883 0.029499 -0.014086 0.030034 -0.085399 0.052508 -0.122438 -0.025368 0.22147 0.092128 0.04232 0.079684 0.044989 0.070017 -0.020584 0.021227 -0.063883 2.3E-5 -0.260353 -0.227989 0.107689 -0.037163 -0.084378 0.08145 -0.077468 -0.122167 0.02928 0.214847 -0.033681 -0.028073 -0.012968 -0.073196 0.005089 0.004007 -0.048568 0.022159 -0.262071 -0.146007 0.031569 0.022726 0.113089 -0.349088 -0.021024 0.071374 0.094832 0.31796 -0.01226 -0.048493 0.019739 0.156768 -0.022196 -0.149034 0.152394 -0.136985 -0.191006 -0.039245
-0.31901 -0.757808 -2.730269 3.331896 -1.112709 0.800774 -2.006042 0.455312 -0.37288 -0.579963 0.439534 -0.9506 -3.039109 -0.743154 -0.634171 -0.738004 -1.025722 2.004424 -0.77403 -3.528441 -0.340826 -0.770077 -0.687043 0.597789 1.783895 5.87549 0.636337 1.403717 0.026074 -1.847873 1.486847 -1.7977 -1.767235 1.503509 -2.735879 1.658042 0.194283 1.856858 0.933612 2.232488 0.859019 -1.152195 -0.589066 -1.652992 -3.665062 0.547223 -0.307542 -0.663461 1.488023 -0.071754 -3.12239 2.740214 -0.420081 0.023571 1.494885 -1.746612 6.700562 -1.572403 3.588501 -1.617046 0.589475 -2.136914 1.255691 -0.0099 -3.680043 -0.012381 -0.470176 2.704036 -1.343466 -1.386526 5.038486 -2.554589 3.073289 -1.847739 -0.125034 1.952252 -1.189934 -1.938827 1.915817 1.959786 -0.648268 0.964746 1.168909 -1.736491 1.713354 -0.037756 -1.526947 0.151513 -1.515931 2.111929 0.146654 -0.2145 2.31825 -0.89297 0.054213 0.06202 0.549017 1.126383 -0.548959 -0.795429
-2.174135 1.471481 1.238385 -0.011531 -3.05085 -0.746782 -1.834368 -0.766232 5.078796 -0.243676 -3.840608 1.538866 2.463693 -0.952303 -4.34096 2.328682 -2.482769 1.696435 0.160378 1.428928 -5.9E-5 -0.350081 -0.299366 1.525692 1.061872 1.821061 2.920892 2.27706 0.555427 -0.680604 1.878401 0.565039 -0.018045 0.769596 0.159645 2.662876 5.009836 -0.377533 -1.923945 0.546815 -0.428565 -0.64571 -0.84597 -2.417968 2.022005 0.081261 0.235932 -0.906519 -0.465329 0.81438 1.92584 0.924513 2.572214 2.28641 -3.6899 -0.078489 0.358106 -0.401682 1.535626 -0.832768 2.00269 -0.430345 2.423688 1.989635 1.004728 0.336893 -0.608184 -2.08353 0.619112 2.285825 -0.691655 1.311165 -0.701051 -0.745105 -0.482525 -0.387431 1.060041 0.474755 -2.934181 2.139798 3.857452 -0.790083 -2.064899 -0.42428 1.788076 -1.056756 -2.795288 2.31374 -1.395225 -1.840536 -1.221817 -1.235163 -3.702082 -0.089265 -4.190139 0.077323 -0.367353 0.446905 -0.266334 3.367859
0.186996 0.050127 0.065445 -0.200767 -0.295474 -0.057542 -0.100034 -0.017453 -0.044621 0.200836 0.063269 -0.127513 0.068877 -0.07126 0.001364 0.254519 0.033299 -0.002489 0.194665 -0.017943 0.14253 -0.12965 0.241886 0.144265 0.064612 -0.01227 0.018448 -0.084549 -0.017485 -0.124304 0.035598 0.030448 0.163684 0.254119 0.15271 -0.225053 0.139936 -0.230483 -0.05 0.160131 0.013051 -0.19641 0.17856 -0.129161 0.208141 -0.152099 -0.17563 -0.069723 0.055618 0.054453 0.173865 0.018788 0.008516 -0.033928 0.11036 0.101038 0.192815 0.169206 0.073414 0.058512 0.096471 -0.350321 0.008837 -0.183993 -0.244331 -0.022394 0.175901 0.248824 0.04239 -0.20877 -0.086784 0.07221 -0.016672 0.05735 0.212906 -0.149388 -0.126685 0.079668 -0.133098 0.013052 0.255407 0.064588 -0.081667 -0.045311 0.09657 -0.072943 -0.024448 0.029153 0.213764 -0.422983 0.052663 -0.130668 -0.005603 0.273434 0.163199 0.032003 0.010792 -0.117177 -0.132131 -0.400531
-0.024006 -0.227921 0.093186 0.016066 -0.054086 0.003642 0.012629 -0.156849 -0.255907 -0.066188 -0.10913 0.060612 0.119499 0.153974 -0.234008 0.070815 -0.01502 -0.129131 -0.043265 0.169107 0.112647 -0.116519 0.124729 -0.014714 0.011909 -0.059854 0.020713 0.07548 0.00157 -0.124109 -0.008706 -0.059218 -0.141574 0.184767 -0.054489 -0.042576 0.022516 0.013875 0.075171 -0.10834 0.104808 -0.022823 0.151476 -0.034705 -0.025437 -0.104987 -0.01187 -0.042031 -0.020762 -0.087127 0.098407 0.002384 -0.062346 -0.063083 0.161389 -0.07245 0.038685 0.040243 0.032734 0.085778 -0.109882 0.087155 -0.180681 0.052349 0.051413 0.14659 0.12366 -0.134207 -0.005891 0.063517 0.085943 -0.119316 0.083412 0.021703 -0.076723 -0.018483 -0.113246 0.075557 0.022258 0.213793 -0.137975 0.083674 -0.046758 -0.030992 0.163688 -0.012147 0.138829 0.243357 0.062619 -0.026173 -0.0595 0.091402 0.044543 0.092717 -0.020875 -0.13115 0.030317 -0.052899 -0.012661 0.10814
0.0 0.0 0.0 0.0 0.0 0.0 0.0 0.0 0.0 0.0 0.0 0.0 0.0 0.0 0.0 0.0 0.0 0.0 0.0 0.0 0.0 0.0 0.0 0.0 0.0 0.0 0.0 0.0 0.0 0.0 0.0 0.0 0.0 0.0 0.0 0.0 0.0 0.0 0.0 0.0 0.0 0.0 0.0 0.0 0.0 0.0 0.0 0.0 0.0 0.0 0.0 0.0 0.0 0.0 0.0 0.0 0.0 0.0 0.0 0.0 0.0 0.0 0.0 0.0 0.0 0.0 0.0 0.0 0.0 0.0 0.0 0.0 0.0 0.0 0.0 0.0 0.0 0.0 0.0 0.0 0.0 0.0 0.0 0.0 0.0 0.0 0.0 0.0 0.0 0.0 0.0 0.0 0.0 0.0 0.0 0.0 0.0 0.0 0.0 0.0
0.0 0.0 0.0 0.0 0.0 0.0 0.0 0.0 0.0 0.0 0.0 0.0 0.0 0.0 0.0 0.0 0.0 0.0 0.0 0.0 0.0 0.0 0.0 0.0 0.0 0.0 0.0 0.0 0.0 0.0 0.0 0.0 0.0 0.0 0.0 0.0 0.0 0.0 0.0 0.0 0.0 0.0 0.0 0.0 0.0 0.0 0.0 0.0 0.0 0.0 0.0 0.0 0.0 0.0 0.0 0.0 0.0 0.0 0.0 0.0 0.0 0.0 0.0 0.0 0.0 0.0 0.0 0.0 0.0 0.0 0.0 0.0 0.0 0.0 0.0 0.0 0.0 0.0 0.0 0.0 0.0 0.0 0.0 0.0 0.0 0.0 0.0 0.0 0.0 0.0 0.0 0.0 0.0 0.0 0.0 0.0 0.0 0.0 0.0 0.0
-0.178251 -0.070625 0.257515 0.209736 -0.116279 -0.272492 -0.157709 0.165861 0.096833 0.222843 0.057231 0.113848 0.379135 -0.058469 -0.070359 0.149907 -0.089977 0.460849 -0.020659 0.071874 -0.10177 0.125343 0.055997 0.093202 -0.001739 0.072263 -0.108529 -0.089786 0.229076 -0.375386 0.002148 0.070745 -0.198877 0.177831 -0.145774 0.234312 0.099815 -0.075978 0.004864 0.396549 -0.016707 0.150206 -0.055763 -0.135911 0.017014 -0.094918 0.208237 0.007509 -0.1917 0.009382 0.224043 -0.144236 -0.201113 0.187034 0.14 -0.045989 -0.13427 -0.189217 0.133978 0.009251 0.117621 -0.0885 -0.053753 -0.065092 -0.149229 -0.030019 0.068335 0.024816 0.010103 -0.010372 -0.407023 0.066053 -0.014789 0.11318 -0.032388 -0.086434 -0.220671 -0.088925 -0.052083 0.055797 0.184115 0.10897 0.132321 -0.314691 -0.115895 -0.022593 -0.020929 4.41E-4 0.031364 0.100246 -0.450008 -0.219899 -0.157217 0.110764 -0.202834 -0.172584 0.04292 -0.185642 -0.114379 -0.018397
-0.05727 -0.151904 0.283249 -0.043135 -0.119961 -0.049064 -0.074402 -0.008468 0.155719 0.096171 0.207711 0.130525 0.194443 -0.070709 0.050309 -0.017527 0.112133 0.25997 -0.118792 0.30263 -0.278479 0.222111 0.16 0.072607 -0.073625 -0.022961 0.048454 0.136197 0.033205 -0.056528 -0.098683 -0.053268 -0.04974 0.052222 -0.190061 0.012455 -0.181756 -0.108737 -0.060612 0.06149 -0.015753 0.008356 -0.024038 -0.262915 0.10392 -0.162846 -0.017168 -0.005213 -0.13634 0.198024 0.060763 0.003289 -0.095047 0.125513 0.062963 -0.052223 -0.022314 -0.023577 -0.037646 -0.006188 0.096628 0.042468 0.181731 -0.027307 -0.023317 -0.120794 0.080806 -0.015967 0.004784 -0.170595 -0.237377 -0.15008 0.007482 -0.165846 -0.082983 -0.004864 -0.143863 -0.111962 0.223246 0.073142 -0.1316 0.20283 0.128481 -0.218433 0.028073 -0.027889 0.094099 -0.041542 0.002389 0.293992 -0.295528 -0.134442 0.073102 0.019346 0.031067 -0.145372 0.050136 0.034594 -0.090321 0.1461
0.033048 -0.060659 -0.057216 -0.122983 -0.10131 -0.024898 -0.185938 0.079685 -0.096927 0.147754 0.035885 0.095572 -0.117632 -0.03697 -0.265852 0.048711 -0.003626 0.145044 -0.061516 0.065262 -0.25651 0.132908 0.009272 -0.093765 0.219271 -0.042566 -0.136539 0.057713 0.219909 -0.03495 0.070794 -0.062541 -0.116619 -0.113071 -0.202854 0.048936 0.164059 0.05825 0.077234 -0.081339 -0.1559 -0.014174 0.0541 0.09268 -0.070128 0.034571 -0.064239 0.006302 0.038445 -0.04369 -0.093521 -0.208803 -0.197069 0.225246 -0.128267 -0.040034 0.127201 -0.128786 0.057841 0.088532 -0.083857 -0.068716 -0.110512 -0.112345 -0.104763 -5.6E-4 0.048471 0.123728 -0.063995 -0.12523 -0.029727 -0.208054 0.109357 0.033799 0.139495 -0.028864 0.123595 0.05606 -0.023947 0.077198 -0.034785 0.052307 -0.018839 0.098418 0.006047 -0.032565 0.050792 -0.133454 0.129428 0.070985 0.026544 0.108742 -0.050638 -0.016774 0.025156 0.059229 0.0754 0.03754 0.033703 -0.19065
-1.241071 2.123613 1.782034 1.526965 1.2399 2.204708 -0.551631 -4.738068 -2.509465 -0.764638 0.767099 0.119619 -2.317517 -1.856966 -0.508704 2.708776 -0.663715 -2.123691 -0.065534 6.232085 -3.933901 0.090497 1.624419 -3.695719 0.017606 0.063624 0.862915 1.244387 -3.615831 0.86212 -1.448528 0.124664 0.155781 -0.855507 -0.839886 3.319027 2.300214 0.257576 1.038191 -1.272774 3.098733 -1.607787 -1.971935 -0.889309 -3.310281 0.43759 -2.364846 0.349855 1.6568 3.828919 -2.404547 1.533605 3.302799 1.233164 -2.433029 2.573958 -0.8106 -1.586304 -0.299354 -4.473712 -1.537729 -1.05681 -0.920783 -2.229896 -2.857122 2.753571 0.541863 0.271081 1.680408 0.678581 1.451061 -2.971693 0.954927 -2.847448 -1.393208 1.05214 -1.369905 1.496402 -0.53173 -0.159143 -1.778394 1.968487 1.204879 2.24457 -0.796451 2.24079 -3.042529 0.418062 3.565224 3.357745 5.134247 -1.636628 -3.478421 -1.854104 -1.163991 0.237091 -0.80195 0.742059 -2.383291 -0.423188
-0.128598 -0.178386 0.142729 0.035203 -0.053885 -0.098686 -0.043341 -0.142458 -0.146214 0.253173 -0.180448 0.083188 0.018254 -0.0081 -0.031851 0.065062 0.036673 0.228751 0.028852 0.200445 -0.211417 -0.049138 0.161217 0.023983 -0.050544 -0.05298 -0.067576 -0.044989 0.198674 -0.039322 -0.146483 0.183249 -0.18736 0.113828 -0.340199 0.139443 0.045597 -0.167974 0.070456 -0.071949 -0.082582 0.050142 0.063271 -0.02876 -0.018243 -0.128599 -0.281061 0.070796 -0.022308 0.290569 0.055724 -0.051443 -0.170709 -0.045772 0.101767 0.122117 -0.04098 -0.082647 0.013673 -0.035325 0.099 0.064418 -0.052139 -0.203313 0.193986 0.162 0.036469 -0.069778 0.041003 -0.022746 -0.122565 0.075264 0.03909 0.043657 0.08068 -0.011418 -0.277766 0.018464 -0.129836 -0.028421 -3.67E-4 0.252604 0.020143 0.068328 -0.124495 0.201151 0.227121 -0.018719 0.049985 0.125575 0.023502 0.049263 0.045627 -0.037786 0.129332 -0.344953 0.073045 -0.175856 0.040039 0.08858
-0.119648 -0.158878 0.251364 -0.133769 0.144375 -0.023847 4.1E-4 0.28412 0.009282 -0.061189 -0.02487 -0.061046 -0.02916 0.008193 0.060313 0.054865 0.044773 0.025611 0.110938 0.051202 -0.04799 -0.043792 -0.170742 -0.074529 -0.023267 -0.088578 0.085532 0.152886 0.020495 -0.007543 0.096708 0.10349 -0.103944 0.104094 -1.05E-4 -0.175837 -0.31373 -0.111035 -0.062471 -0.145636 -0.110646 0.005502 0.066711 0.121172 0.043757 -0.227897 -0.060014 -0.057093 -0.149349 0.145355 -0.163158 -0.138551 -0.076674 -0.179463 0.093215 -0.027673 -0.095617 0.065809 0.133178 -0.034643 0.15137 0.067864 -0.003757 0.044283 -0.047359 0.048638 -0.018344 0.028151 0.053262 -0.186711 0.071391 0.125626 -0.262506 -0.07172 0.187525 0.12073 -0.164761 0.104343 -0.051056 0.104791 -0.064192 0.105304 -0.128228 0.021259 -0.119906 -0.014825 -0.075071 -0.146457 0.141479 -0.013938 0.07922 0.060079 -0.037049 -0.067445 0.00716 -0.202322 0.123031 -0.156706 0.010411 -0.045013
0.0 0.0 0.0 0.0 0.0 0.0 0.0 0.0 0.0 0.0 0.0 0.0 0.0 0.0 0.0 0.0 0.0 0.0 0.0 0.0 0.0 0.0 0.0 0.0 0.0 0.0 0.0 0.0 0.0 0.0 0.0 0.0 0.0 0.0 0.0 0.0 0.0 0.0 0.0 0.0 0.0 0.0 0.0 0.0 0.0 0.0 0.0 0.0 0.0 0.0 0.0 0.0 0.0 0.0 0.0 0.0 0.0 0.0 0.0 0.0 0.0 0.0 0.0 0.0 0.0 0.0 0.0 0.0 0.0 0.0 0.0 0.0 0.0 0.0 0.0 0.0 0.0 0.0 0.0 0.0 0.0 0.0 0.0 0.0 0.0 0.0 0.0 0.0 0.0 0.0 0.0 0.0 0.0 0.0 0.0 0.0 0.0 0.0 0.0 0.0
0.051165 -0.165567 0.057387 -0.047117 -0.055985 -0.089265 -0.161667 0.027546 -0.193722 0.074437 0.032065 0.151745 -0.124054 -0.026066 0.011416 0.150188 0.001488 -0.051853 0.157387 0.222313 -0.010918 0.018108 0.154399 -0.072291 -0.104732 -0.033217 -0.143429 -0.099798 0.254464 -0.088514 -0.102527 0.087279 0.01474 0.156084 -0.069026 -0.154502 0.115485 -0.247551 -0.076085 0.165472 -0.002171 -0.179689 0.169712 0.09509 0.137689 -0.071428 -0.051784 -0.131872 -0.022114 0.0997 0.179132 -0.133992 -0.054962 -0.064365 0.04262 -0.05019 0.036852 -0.017944 0.016026 -0.002934 -0.091133 -0.166799 -0.009752 -0.16941 -0.072423 0.041147 -0.062812 0.148223 0.050873 -0.040301 -0.100109 -0.044623 -0.002945 0.149274 0.109497 0.047123 -0.048675 -0.245103 0.012633 -0.02212 0.06102 0.009143 0.073899 -0.200987 -0.017948 -0.036457 9.33E-4 0.056704 0.095663 0.085862 -0.222083 -0.027442 0.16887 -0.013047 0.038085 0.055135 0.061535 0.007615 -0.062965 -0.133145
-0.165196 -0.187699 0.145836 0.082668 0.040064 -0.045251 0.004174 0.029527 -0.024558 -0.026131 0.023913 0.320158 -0.090711 0.044991 0.150156 0.174163 -0.0519 0.042628 -0.026399 0.047388 -0.165743 0.010284 0.204239 0.071984 -0.107495 -0.102199 -0.149213 0.068356 0.231175 -0.06892 -0.057282 -0.002082 0.029661 0.06453 -0.178023 -0.165563 0.02343 0.099836 -0.034307 0.12499 -0.09186 -0.149883 0.10307 0.135714 0.048112 0.220214 -0.127854 -0.08647 0.050639 -0.102859 0.183301 -0.005277 0.064837 -0.182468 0.027936 -0.1064 -0.039704 -0.131126 -0.109041 0.017793 0.036649 -0.078217 0.042461 0.001268 0.003871 -0.083882 0.01323 -0.082705 0.006515 0.022732 -0.10605 0.050127 -0.099351 -0.009821 0.15021 -0.028078 0.003612 0.071222 0.125964 -0.120994 0.118497 -0.092383 0.012254 -0.277435 -0.184025 0.007325 0.069125 0.057009 0.012555 0.020677 -0.209572 -0.006419 -0.084359 0.043591 -0.061368 -0.08374 -0.07863 0.048275 5.73E-4 0.043937
0.16475 0.005165 0.044029 0.334368 -0.204468 0.107 0.024311 -0.183908 0.100245 0.206766 0.109302 0.054589 0.013548 0.019675 0.019309 0.189321 0.032818 0.272432 -0.10987 0.016886 -0.433897 0.012191 -0.041802 -0.061196 0.043972 0.092901 -0.085993 -0.036727 0.038931 -0.126447 0.008292 0.076665 0.097715 0.191747 -0.08552 -0.1506 0.173316 0.078945 -0.058802 -0.146411 -0.185176 0.027477 0.059426 -0.208739 0.008851 -0.22495 0.033972 0.032393 0.213532 0.05961 -0.120454 -0.034846 -0.049957 0.12936 0.096976 -0.056923 0.198887 -0.224495 8.42E-4 -0.211725 0.146563 0.048087 0.060565 -0.082936 -0.199797 -0.117215 0.204814 0.003792 -0.1669 -0.049879 0.09896 0.121781 0.10151 -0.031375 -0.037774 -0.356898 -0.018634 0.250892 0.132376 0.150584 0.148773 -0.031047 0.176201 -0.199042 0.309876 0.026238 -0.166857 0.027317 0.049177 0.131762 0.044142 0.061998 0.013149 -0.039868 -0.044111 -0.077359 0.134442 -0.137561 0.149039 0.066507
-0.100832 -0.167433 -0.119031 0.147797 -0.060857 0.140499 0.026217 -0.015529 0.097914 0.072034 -0.010395 0.141089 0.03838 0.288693 -0.026145 -0.015905 0.262325 0.421521 0.159128 -0.039899 -0.256428 0.037927 0.12642 -0.04462 0.109923 0.108894 0.036471 -0.024048 -0.024169 0.236302 -0.094764 -0.200841 0.170941 0.003365 -0.196706 0.109674 -0.147498 -0.063847 -0.015159 -0.029111 -0.059665 0.147561 -0.093747 -0.181297 -0.012656 0.044699 -0.201995 0.015078 0.025077 -0.121767 -0.035209 -0.011586 -0.14075 0.085552 0.238001 0.221622 -0.078504 -0.066647 -0.007938 0.032074 -0.098062 -0.083487 -0.077202 0.116878 0.022714 0.102248 -0.006895 0.145679 -0.071001 -0.086913 -0.052738 0.245814 -0.199754 -0.147096 -0.059824 0.230914 0.01784 -0.021653 -0.083645 -0.014564 -0.314664 0.053471 0.086973 -0.005627 0.058735 0.012083 0.043044 0.149242 0.040369 0.066221 -0.188978 0.059495 0.07716 0.057047 0.193879 -0.014052 -0.125065 0.017725 0.07135 0.074717
-0.105296 -0.007183 0.064899 0.166489 -0.133355 -0.095549 -0.07463 0.289981 -0.047742 0.0133 0.249951 0.035616 -0.239536 -0.135138 -0.071614 -0.008035 0.014201 0.248911 0.12124 0.023735 -0.106211 0.128368 0.135592 -0.157028 -0.342266 -0.122862 0.10016 -0.059681 0.146843 -0.126048 0.057567 0.124984 0.042963 -0.005797 0.049704 -0.166772 -0.232372 0.230657 -0.119802 -0.051398 0.087628 0.229131 0.051532 -0.119173 0.123806 -0.217822 0.40315 -0.123501 -0.045692 0.068758 0.380448 0.023351 0.031704 0.019689 0.122965 -0.099367 0.055348 0.075167 0.26401 -0.098046 0.101772 -0.0356 0.207472 0.045987 -0.110685 0.027135 0.156061 -0.003181 0.121049 -0.24908 -0.100676 -0.008646 0.026818 0.186017 0.091903 -0.050674 0.032361 -0.255525 0.190137 0.20663 0.045332 0.169483 0.023635 -0.017628 -0.022788 0.032529 -0.150189 0.063252 0.261656 -0.260213 0.079098 0.225566 0.025029 0.264325 0.038639 -0.239627 -0.106946 -0.317061 -0.104717 -0.002278
-0.016095 -0.221284 0.154147 0.093093 -0.120192 0.173908 -0.009705 -0.062873 -0.097971 0.137386 0.059271 0.045163 -0.065457 0.01889 -0.037035 0.045368 0.1175 0.198912 0.027443 0.049138 -0.042477 0.075536 0.202853 0.161862 -0.146452 -0.063646 -0.104058 -0.063138 0.129651 -0.168296 -0.002577 -0.201428 -0.111876 0.014249 -0.123669 0.114499 0.087389 0.002974 0.04855 0.008512 -0.042541 0.277842 -0.001672 -0.050937 -0.046334 -0.066218 0.042947 -0.042938 -0.186846 0.030015 -0.10853 -0.017529 0.039545 -0.011386 0.134336 0.017813 -0.024028 -0.223112 -0.028306 -0.146831 0.074678 -0.10251 0.053908 -0.090249 0.05946 0.029108 0.159652 0.239093 0.131553 -0.085899 -0.158752 0.111013 -0.005195 -0.102156 0.082513 0.012178 0.041918 -0.038406 0.020171 -0.023594 -0.186237 -0.048326 -0.017435 -0.139643 0.051259 -0.004046 0.168775 0.021147 0.119302 0.125884 -0.196788 -0.0487 0.121817 0.079223 0.066627 -0.023851 -0.042194 0.036156 0.066127 -0.313196
1.035361 1.319725 0.388011 1.220811 -0.236045 1.447081 -1.78193 3.520004 0.063077 -1.681862 0.545208 0.767849 -1.479444 -1.152839 0.669301 0.685509 -2.946755 -2.239533 -1.187422 -1.793336 0.607402 0.130687 0.296681 -1.569517 1.825066 1.715849 -1.639836 0.849724 -1.742086 0.427502 3.84844 -1.377145 0.671096 -1.312902 -1.152387 0.705431 2.180344 2.97496 1.402098 -0.909545 -1.649212 -0.253421 1.186817 1.193823 3.167747 -0.387379 -0.12198 0.872223 0.13285 0.490844 0.029473 1.345032 0.297008 2.724698 -1.656047 -0.109585 1.500583 -1.148555 -3.658389 1.022988 -1.211381 0.342059 -0.023586 1.22536 -1.874871 -1.957746 -0.188066 -0.235303 -0.067175 1.107354 1.448404 0.838301 1.67396 -0.238039 -0.504146 -1.334739 0.688005 0.37731 -2.953094 0.650433 0.307563 -0.457962 -1.694326 2.40152 -0.816994 0.208705 1.853393 0.15935 -0.989952 1.089235 1.087388 -2.786835 -2.248864 -0.788939 0.405791 0.907533 -1.516669 1.970717 -0.345554 -0.134731
1.939635 1.52901 1.289587 3.251535 -1.724015 -0.88548 -1.305419 2.302571 -1.417341 -1.68966 -0.63789 2.076267 -3.058223 1.539613 1.180597 0.029053 -0.321402 -2.23572 -2.38652 1.658533 -1.245721 -0.526509 -3.599429 0.754249 -0.80274 0.507379 -2.39552 1.105986 -0.056637 -0.438303 1.940801 -2.557426 0.985315 3.029874 0.213126 0.861485 3.121805 0.640059 -0.820139 -2.40745 -0.196076 -4.070904 0.803788 0.627065 2.287266 2.341116 0.489852 -1.57276 1.345608 0.42161 3.228641 4.822541 2.307207 0.997003 -2.753309 0.364194 3.286885 -0.854741 -0.545387 -4.263543 -0.321177 2.708668 -5.839749 -0.190246 1.192365 1.834868 0.85099 3.023894 0.019983 -0.356687 2.290085 -1.712409 1.283075 5.053623 2.119578 0.310527 -1.882558 -2.366862 0.130671 -0.478639 1.414622 1.526558 0.318589 2.752702 0.046978 -1.332104 0.951956 1.81757 -0.872666 2.804518 -1.758129 0.070445 -0.158419 -4.010314 -0.794193 0.288862 -0.172084 0.635215 -0.313457 -0.581935
-0.064357 -0.033406 -0.006591 0.181457 0.041885 0.1408 -0.109843 0.016376 0.068228 -0.045519 0.005233 0.012036 0.05064 -0.052642 0.185426 0.139427 -0.155023 0.12963 0.063368 -0.055016 -0.054854 -0.018229 0.216037 -0.004417 -0.285826 -0.095238 -0.069825 -0.021777 0.187402 -0.130867 -0.00675 -0.075803 -0.044586 0.061098 0.044502 -0.138919 0.031721 -0.005549 0.063477 5.3E-5 0.101342 0.067759 0.180205 0.110423 -0.107152 0.014466 -0.095647 -0.001514 -0.13148 0.090497 0.038783 -0.236052 -0.139813 -0.061498 0.050517 -0.013343 -0.001507 0.083055 0.065801 -0.03321 0.124938 -0.104659 -0.042903 -0.049201 -0.088403 -0.030678 0.055664 0.085579 0.303591 -0.024133 0.025756 -0.085778 0.02809 -0.058313 0.028445 -0.065808 -0.182156 -0.019053 0.014958 -0.002839 -0.024485 0.159415 0.06125 -0.100844 0.111327 0.042033 0.023134 -0.078359 0.169092 -0.074151 -0.058673 0.083338 0.03916 0.23854 -0.125673 0.017002 0.129169 0.039082 0.127676 0.034378
-0.125002 -0.066817 -0.180766 -0.059979 -0.092662 0.094897 -0.157281 0.149876 -0.054601 0.166557 -0.072196 0.088903 -0.020504 0.030954 0.011593 0.059236 -0.015654 0.027102 -0.072601 -6.44E-4 -0.078562 0.006416 0.115282 0.100459 -0.12915 0.113299 0.140987 -0.12095 -0.008716 -0.12589 0.203538 0.027711 -0.108113 0.027425 -0.207183 0.041097 0.067443 0.016476 0.109709 -0.043383 0.097247 0.087611 0.04971 0.11518 -0.029272 0.019313 0.044622 0.126768 0.085755 -0.041414 -0.035159 -0.020206 0.044492 -0.04271 0.164299 -0.173956 0.054438 -0.129314 0.01258 -0.154185 0.057271 -0.092325 0.08629 -0.193376 -0.149163 0.081389 0.135752 0.015912 3.93E-4 -0.028525 -0.160906 0.162119 0.114114 -0.051617 0.16827 -0.17756 -0.052901 0.055456 0.057253 -0.128881 0.052534 0.293794 0.215936 -0.042191 0.051492 -0.083139 -0.037911 0.10892 0.014079 0.182417 -0.069847 0.044903 -0.082355 0.156042 -0.11172 -0.100245 -0.050986 0.080645 -0.011823 0.110605
-0.225971 -0.093226 0.024498 -0.041255 -0.253349 -0.048874 0.035117 -0.064101 0.085223 -0.061664 -0.037177 0.253882 0.123886 0.062899 0.160724 0.088128 -0.183707 0.181485 -0.05228 -0.06083 -0.306234 0.035895 0.147534 0.013709 -0.161096 0.155728 -0.215977 0.059602 0.383258 -0.011734 0.11418 -0.037969 -0.087498 0.076027 -0.212892 -0.110706 0.069035 0.048116 -0.261502 0.102296 -0.00457 0.224269 -0.068893 0.03179 0.085315 -0.01958 -0.07169 0.133588 -0.203559 0.14436 0.277041 -0.111137 -0.160099 -0.006198 0.004585 0.009573 -0.183509 0.033234 -1.21E-4 -0.10342 0.172364 -0.224029 0.093795 -0.198339 -0.13119 -0.027151 0.010616 -0.014266 -0.01996 -0.077667 -0.145706 0.165548 -0.055096 -0.013026 0.09876 0.151508 -0.23877 -0.144697 -0.163407 -0.15452 -0.093736 0.30267 -0.018685 -0.043871 -0.045954 -0.090983 0.182406 -0.015861 0.160325 0.157646 -0.240725 -0.168964 0.110738 0.291051 -0.031557 -0.340941 0.036182 0.049815 0.022612 -0.006809
-0.249491 0.100691 0.126398 0.106542 -0.070587 0.064453 -0.100507 0.063873 0.036408 -9.47E-4 0.052288 0.057656 0.060977 -0.058266 -0.098207 -0.08075 0.096065 0.169303 -0.068714 -0.046146 0.013338 0.006242 -0.079038 -0.09404 -0.032814 -0.042961 -0.084937 -0.027579 0.074678 -0.115619 -0.311045 -0.013914 -0.016651 0.057271 -0.194471 -0.044346 0.084031 0.122788 -0.047041 0.012446 -0.00774 0.109794 -0.161293 0.132221 0.158009 -0.058888 0.007492 0.012529 -0.049027 0.069157 0.206782 -0.235223 -0.027899 -0.166078 -0.106038 -0.135612 6.6E-4 -0.045838 0.108696 -0.200315 0.071926 -0.347214 -0.067185 -0.097111 -0.019062 0.001254 -0.054269 -0.076078 0.092913 -0.14963 -0.185835 -0.089982 0.054936 -0.00982 -0.023026 0.011004 0.033591 -0.055046 -0.020879 -0.14557 -0.101375 0.182465 0.022152 -0.261146 -0.038731 -0.030331 0.111278 0.054601 0.080185 -0.007907 -0.219153 -0.06966 -0.033392 0.191767 -0.026184 -0.145379 -0.041439 -0.123476 0.308904 -0.150128
-0.979326 -0.532478 -0.722635 -0.537678 -0.433266 0.15715 0.61812 -0.025389 -0.512369 0.045079 0.021284 -0.411296 0.750037 1.130286 0.533783 -0.933571 -0.575233 0.585372 0.150589 -1.773296 -2.018346 0.096105 0.201026 -0.887164 -0.86278 0.511174 0.561754 1.351669 0.949906 1.050706 0.318248 0.38065 0.458255 0.258755 -1.864179 0.861614 0.012213 -0.820292 -1.898851 0.942138 -0.184507 0.711601 -0.690365 -0.988037 0.021185 -0.084233 -1.175233 1.123095 0.008033 0.159522 0.253086 0.718511 -0.478857 0.926602 0.987479 1.157266 -0.944142 -0.369082 0.137772 1.105608 0.100409 0.079666 -0.142808 0.355306 0.012164 -1.74832 0.307762 0.857468 0.403868 -0.605171 -0.774321 0.970579 -1.794019 -0.666636 0.292607 1.895113 0.196948 -0.406359 -0.919238 0.659354 -0.133199 0.087962 1.072571 -0.319112 0.149593 0.047263 0.446833 2.540409 -1.2333 1.718455 -1.892147 -0.930259 1.016134 1.063102 1.805016 0.081198 -0.98667 0.043404 0.756143 -0.423385
-1.230496 -1.784998 -2.701176 0.758382 1.022601 0.134257 -0.985047 1.562518 0.310835 -0.272668 -2.093218 0.576908 2.040189 3.9509 0.774258 -3.034902 0.015918 3.094607 -0.955282 -0.161599 1.346793 -0.427151 2.407651 2.929724 -1.837484 3.452367 0.53745 -0.982041 -0.926567 -0.170227 1.02313 -0.319885 0.057295 -0.759491 -3.167264 0.215212 0.199355 2.17803 -2.880665 -3.126606 1.987815 -0.672563 -1.358064 -0.033815 -0.248648 -1.018406 0.174184 0.367458 2.183337 2.743262 -1.304921 3.026151 -0.376082 1.947597 -1.255474 -1.064786 1.087376 -2.089309 0.970619 0.252176 5.222122 -0.33553 0.351429 0.429232 -0.472527 -0.662081 -0.365277 -1.304831 1.49886 -2.889978 0.333237 -0.579763 2.984992 1.952844 2.048453 -0.167153 0.122451 0.366104 2.33386 4.508055 2.013939 1.926481 3.227053 4.010036 0.598998 -2.80402 1.407855 2.476772 -2.103011 3.048537 -0.582139 -2.261293 -0.407356 -1.748715 -0.955609 0.330801 0.787854 1.235672 2.16538 0.751083
-0.243648 -0.330419 -0.674471 -0.270553 -0.328843 0.611801 -0.121608 0.308704 -0.290867 0.61202 0.348801 0.324805 0.268836 0.044553 0.28918 -0.502554 0.485146 1.077842 0.483484 0.316426 -0.629243 0.347051 0.738266 -0.40456 -0.006456 0.082451 0.525187 -0.085426 0.37143 0.128697 -0.227893 -0.595717 0.027557 0.242541 -0.134251 0.708454 -1.121407 -0.403056 0.0413 -0.256539 -0.246367 0.764633 0.342862 -0.007395 -0.423553 -0.072147 -0.331909 0.273741 -0.542931 0.339433 0.021085 0.57805 -0.379665 0.281565 0.957876 0.747344 -0.416111 0.219959 -0.22509 0.313787 0.437895 -0.362173 -0.137299 0.051946 0.383919 0.269794 0.386792 0.217949 -0.144582 -0.504087 -0.200515 0.640535 -0.515512 0.208294 -0.146617 0.754145 -0.481968 -0.303877 -0.165572 -0.672088 -0.110519 0.213403 -0.090458 -0.00925 0.060658 0.249649 0.1405 0.845834 -0.168188 1.18651 -0.722252 -0.217979 0.291262 0.174892 0.687864 0.264897 -0.466321 0.268737 0.401349 0.179681
-0.979326 -0.532478 -0.722635 -0.537678 -0.433266 0.15715 0.61812 -0.025389 -0.512369 0.045079 0.021284 -0.411296 0.750037 1.130286 0.533783 -0.933571 -0.575233 0.585372 0.150589 -1.773296 -2.018346 0.096105 0.201026 -0.887164 -0.86278 0.511174 0.561754 1.351669 0.949906 1.050706 0.318248 0.38065 0.458255 0.258755 -1.864179 0.861614 0.012213 -0.820292 -1.898851 0.942138 -0.184507 0.711601 -0.690365 -0.988037 0.021185 -0.084233 -1.175233 1.123095 0.008033 0.159522 0.253086 0.718511 -0.478857 0.926602 0.987479 1.157266 -0.944142 -0.369082 0.137772 1.105608 0.100409 0.079666 -0.142808 0.355306 0.012164 -1.74832 0.307762 0.857468 0.403868 -0.605171 -0.774321 0.970579 -1.794019 -0.666636 0.292607 1.895113 0.196948 -0.406359 -0.919238 0.659354 -0.133199 0.087962 1.072571 -0.319112 0.149593 0.047263 0.446833 2.540409 -1.2333 1.718455 -1.892147 -0.930259 1.016134 1.063102 1.805016 0.081198 -0.98667 0.043404 0.756143 -0.423385
0.041182 -0.071701 -0.007566 -0.111173 0.078129 -0.015794 0.102992 0.084804 -0.294614 0.062785 -0.224475 0.044822 -0.054604 0.018822 -0.254624 0.187632 0.057536 -0.04948 0.077868 0.052887 -0.065284 -0.04327 -0.015092 0.035227 -0.120777 -0.01384 0.019468 0.133926 -0.002242 0.025286 0.056421 -0.140413 -0.062551 0.118069 0.067541 0.127629 -0.190311 0.209374 0.192921 0.054712 -0.148947 0.032204 -0.170128 -0.03032 -0.002925 0.169345 0.085453 -0.024603 -0.011659 -0.145112 -0.290293 -0.065943 -0.09053 -0.275955 0.113964 -0.118032 -0.172779 -0.215132 0.00824 0.127013 -0.169866 0.062208 0.042766 -0.087616 -0.10884 0.286924 0.050741 0.130539 0.292731 0.017204 -0.096873 -0.187146 0.25168 0.10377 0.08209 -0.05794 0.019952 -0.023549 -0.204179 -0.090327 0.135311 0.171028 -0.109687 0.012397 -0.001672 0.281126 0.051025 0.031007 0.309401 0.149164 -0.249441 -0.005679 -0.012549 0.20681 0.267068 -0.060891 -0.256129 0.182048 0.03837 0.01928
1.035361 1.319725 0.388011 1.220811 -0.236045 1.447081 -1.78193 3.520004 0.063077 -1.681862 0.545208 0.767849 -1.479444 -1.152839 0.669301 0.685509 -2.946755 -2.239533 -1.187422 -1.793336 0.607402 0.130687 0.296681 -1.569517 1.825066 1.715849 -1.639836 0.849724 -1.742086 0.427502 3.84844 -1.377145 0.671096 -1.312902 -1.152387 0.705431 2.180344 2.97496 1.402098 -0.909545 -1.649212 -0.253421 1.186817 1.193823 3.167747 -0.387379 -0.12198 0.872223 0.13285 0.490844 0.029473 1.345032 0.297008 2.724698 -1.656047 -0.109585 1.500583 -1.148555 -3.658389 1.022988 -1.211381 0.342059 -0.023586 1.22536 -1.874871 -1.957746 -0.188066 -0.235303 -0.067175 1.107354 1.448404 0.838301 1.67396 -0.238039 -0.504146 -1.334739 0.688005 0.37731 -2.953094 0.650433 0.307563 -0.457962 -1.694326 2.40152 -0.816994 0.208705 1.853393 0.15935 -0.989952 1.089235 1.087388 -2.786835 -2.248864 -0.788939 0.405791 0.907533 -1.516669 1.970717 -0.345554 -0.134731
-0.237291 -0.137065 -0.357643 2.6E-4 -0.146497 -0.202114 -0.092896 0.176985 -0.039687 -0.10292 0.203226 -0.098781 -0.035781 -0.081891 -0.023581 -0.161146 0.140201 0.224983 4.18E-4 -0.051991 0.070811 0.208508 0.141691 0.118585 -0.178622 -0.067405 -0.168525 -0.02121 -0.006495 0.247939 -0.209536 0.177498 0.204916 -0.124184 -0.053458 -0.024843 -0.423004 0.08541 0.041096 0.163446 -0.0783 0.171264 -0.06702 0.241125 -0.140359 -0.023998 0.187507 0.136385 -0.07145 0.511847 0.181276 -0.180332 0.059788 -0.146213 0.209045 -0.21497 -0.022061 -0.142155 0.26729 0.122784 0.005089 -0.129556 0.134087 -0.081682 -0.001128 0.056622 0.398142 0.274287 0.213868 -0.06233 -0.07144 0.002274 0.003721 0.018872 0.18867 -0.076326 0.093102 0.01747 -0.002666 -0.162647 -0.115683 0.101173 0.228255 0.236425 0.254142 0.220921 -0.088154 0.27219 -0.281519 0.171886 -0.401138 -0.237922 -0.015133 0.182817 -0.014052 0.012069 0.036826 -0.061548 -0.462102 0.385469
-0.100133 -0.018721 0.150788 0.131871 0.039209 0.057469 -0.058106 -0.258276 -0.231883 -0.033416 -0.056259 0.138301 -0.080998 0.052573 -0.075445 0.08206 0.138751 0.099005 0.249492 -0.078597 -0.166822 0.104537 -0.026414 0.10664 0.031511 -0.280444 0.240981 0.301891 0.047671 -0.015335 -0.084256 0.053098 0.089601 -0.003919 -0.041373 -0.083202 -0.072845 -0.108428 -0.042017 -0.058802 0.050503 -0.093913 -0.011163 0.029987 -0.045403 0.117222 -0.2096 -0.136065 0.298736 -2.09E-4 -0.071819 -0.080487 -0.115669 0.023869 0.016208 0.064703 -0.066812 -0.198765 -0.105181 -0.157881 -0.034413 0.023369 -0.254218 -0.143768 0.134683 0.192538 -0.154382 0.104494 0.053773 0.033765 -0.052737 0.04243 0.048062 0.006648 -0.191789 -0.102051 -0.167681 0.207952 -0.342842 -0.360473 0.067198 0.393911 0.189006 -0.006236 -0.006803 0.182679 0.011719 0.076542 0.357941 0.073986 -0.11181 0.09627 -0.313676 -0.042072 0.184793 -0.277844 -0.217434 -0.109051 0.197047 -0.141449
-0.054469 -0.126226 0.042169 0.104356 -0.076435 -0.051557 -0.067276 -0.102776 -0.073133 0.08281 -0.018318 0.285734 -0.062488 -0.008302 0.24041 0.244154 0.076297 0.149032 0.022712 0.102574 -0.079691 0.18248 0.120109 0.123027 -0.17282 -0.077829 -0.084594 -0.046619 0.249774 -0.112625 -0.107423 0.163118 -4.09E-4 0.13396 -0.189067 -0.172252 -0.051014 -0.06006 0.107861 -0.020529 -0.04022 -0.05561 0.050141 -0.00537 0.080773 -0.036531 0.033939 -0.019647 0.070869 0.116292 -0.065195 -0.139297 0.013121 -0.08484 0.17782 0.046009 0.020766 -0.016809 0.004751 -0.139562 0.172821 -0.21516 0.015536 0.051398 0.029315 0.017937 0.024919 -0.197275 -0.005297 0.109824 -0.078113 0.065852 0.244616 -0.088196 0.007399 -0.046277 -0.05879 -0.083227 -0.018272 0.0309 0.120903 0.012769 0.130378 -0.132682 -0.045642 0.048053 0.069261 0.0645 0.005042 0.05128 -0.251491 -0.01922 -0.077905 -0.155391 -0.134359 -0.026064 -0.088582 -0.108965 -0.117353 0.041375
0.0 0.0 0.0 0.0 0.0 0.0 0.0 0.0 0.0 0.0 0.0 0.0 0.0 0.0 0.0 0.0 0.0 0.0 0.0 0.0 0.0 0.0 0.0 0.0 0.0 0.0 0.0 0.0 0.0 0.0 0.0 0.0 0.0 0.0 0.0 0.0 0.0 0.0 0.0 0.0 0.0 0.0 0.0 0.0 0.0 0.0 0.0 0.0 0.0 0.0 0.0 0.0 0.0 0.0 0.0 0.0 0.0 0.0 0.0 0.0 0.0 0.0 0.0 0.0 0.0 0.0 0.0 0.0 0.0 0.0 0.0 0.0 0.0 0.0 0.0 0.0 0.0 0.0 0.0 0.0 0.0 0.0 0.0 0.0 0.0 0.0 0.0 0.0 0.0 0.0 0.0 0.0 0.0 0.0 0.0 0.0 0.0 0.0 0.0 0.0
-0.016095 -0.221284 0.154147 0.093093 -0.120192 0.173908 -0.009705 -0.062873 -0.097971 0.137386 0.059271 0.045163 -0.065457 0.01889 -0.037035 0.045368 0.1175 0.198912 0.027443 0.049138 -0.042477 0.075536 0.202853 0.161862 -0.146452 -0.063646 -0.104058 -0.063138 0.129651 -0.168296 -0.002577 -0.201428 -0.111876 0.014249 -0.123669 0.114499 0.087389 0.002974 0.04855 0.008512 -0.042541 0.277842 -0.001672 -0.050937 -0.046334 -0.066218 0.042947 -0.042938 -0.186846 0.030015 -0.10853 -0.017529 0.039545 -0.011386 0.134336 0.017813 -0.024028 -0.223112 -0.028306 -0.146831 0.074678 -0.10251 0.053908 -0.090249 0.05946 0.029108 0.159652 0.239093 0.131553 -0.085899 -0.158752 0.111013 -0.005195 -0.102156 0.082513 0.012178 0.041918 -0.038406 0.020171 -0.023594 -0.186237 -0.048326 -0.017435 -0.139643 0.051259 -0.004046 0.168775 0.021147 0.119302 0.125884 -0.196788 -0.0487 0.121817 0.079223 0.066627 -0.023851 -0.042194 0.036156 0.066127 -0.313196
-0.237291 -0.137065 -0.357643 2.6E-4 -0.146497 -0.202114 -0.092896 0.176985 -0.039687 -0.10292 0.203226 -0.098781 -0.035781 -0.081891 -0.023581 -0.161146 0.140201 0.224983 4.18E-4 -0.051991 0.070811 0.208508 0.141691 0.118585 -0.178622 -0.067405 -0.168525 -0.02121 -0.006495 0.247939 -0.209536 0.177498 0.204916 -0.124184 -0.053458 -0.024843 -0.423004 0.08541 0.041096 0.163446 -0.0783 0.171264 -0.06702 0.241125 -0.140359 -0.023998 0.187507 0.136385 -0.07145 0.511847 0.181276 -0.180332 0.059788 -0.146213 0.209045 -0.21497 -0.022061 -0.142155 0.26729 0.122784 0.005089 -0.129556 0.134087 -0.081682 -0.001128 0.056622 0.398142 0.274287 0.213868 -0.06233 -0.07144 0.002274 0.003721 0.018872 0.18867 -0.076326 0.093102 0.01747 -0.002666 -0.162647 -0.115683 0.101173 0.228255 0.236425 0.254142 0.220921 -0.088154 0.27219 -0.281519 0.171886 -0.401138 -0.237922 -0.015133 0.182817 -0.014052 0.012069 0.036826 -0.061548 -0.462102 0.385469
-0.100133 -0.018721 0.150788 0.131871 0.039209 0.057469 -0.058106 -0.258276 -0.231883 -0.033416 -0.056259 0.138301 -0.080998 0.052573 -0.075445 0.08206 0.138751 0.099005 0.249492 -0.078597 -0.166822 0.104537 -0.026414 0.10664 0.031511 -0.280444 0.240981 0.301891 0.047671 -0.015335 -0.084256 0.053098 0.089601 -0.003919 -0.041373 -0.083202 -0.072845 -0.108428 -0.042017 -0.058802 0.050503 -0.093913 -0.011163 0.029987 -0.045403 0.117222 -0.2096 -0.136065 0.298736 -2.09E-4 -0.071819 -0.080487 -0.115669 0.023869 0.016208 0.064703 -0.066812 -0.198765 -0.105181 -0.157881 -0.034413 0.023369 -0.254218 -0.143768 0.134683 0.192538 -0.154382 0.104494 0.053773 0.033765 -0.052737 0.04243 0.048062 0.006648 -0.191789 -0.102051 -0.167681 0.207952 -0.342842 -0.360473 0.067198 0.393911 0.189006 -0.006236 -0.006803 0.182679 0.011719 0.076542 0.357941 0.073986 -0.11181 0.09627 -0.313676 -0.042072 0.184793 -0.277844 -0.217434 -0.109051 0.197047 -0.141449
0.115602 0.096779 0.016907 0.111192 -0.051491 0.06151 -0.128572 -9.5E-5 -0.141416 -0.003125 -0.092357 0.069523 0.05468 0.262075 -0.048256 0.201338 0.241937 -0.080638 -0.0202 0.072235 -0.152137 -0.03986 0.130398 -0.039092 -0.079405 0.05198 -0.140422 -0.012372 0.142491 -0.071804 -0.025884 -0.11227 -0.242786 -0.056585 -0.296169 -0.059938 0.081346 -0.091468 0.007269 -0.044767 -0.05328 0.055133 0.048792 -0.012048 0.185015 0.061477 -0.01946 0.107268 -0.084338 0.06677 -0.114044 0.053507 0.015382 0.013206 0.029198 -0.19189 0.130833 -0.015648 0.208956 -0.167741 -0.068107 0.035103 0.0371 -0.023387 -0.014111 -0.204707 0.194596 -0.078535 0.184484 -0.142179 0.121773 -0.093635 -0.04301 0.115617 0.065081 -0.156976 -0.067829 0.14431 -0.077319 0.164271 0.117495 0.139875 -0.015512 -0.101739 0.041248 0.018936 0.094909 -0.117901 0.098883 0.24775 0.004005 0.05423 -0.113581 0.20231 0.023064 0.008941 -0.035812 -0.005211 -0.117305 0.0922
-0.17718 0.225379 0.143375 0.197674 -0.082246 0.004633 -0.101559 0.087466 -0.006708 0.285452 0.115048 -0.11272 -0.242553 -0.042197 0.210545 0.072487 -0.158855 0.124971 -0.052275 0.050477 -0.049418 -0.246311 0.081575 0.357948 0.326123 -0.173668 -0.158106 0.087066 0.208871 0.050565 -0.09275 0.218387 -0.122926 -0.169068 0.13024 0.126512 -0.047529 -0.086158 0.177 0.374404 0.043154 -0.070612 -0.042369 -0.083998 -0.176745 0.11009 0.15445 -0.123097 -0.07273 -0.063369 -0.036444 -0.003309 -0.030126 -0.002449 -0.076983 0.27607 -0.085223 0.055102 -0.373246 0.012202 -0.017814 0.076854 -0.110547 0.083115 -0.02233 -0.053826 -0.160484 -0.091657 0.022977 0.167222 0.037299 0.086858 0.227801 0.217639 -0.264849 -0.095029 -0.207336 0.01174 -0.307787 -0.010302 0.172107 0.161222 0.608555 0.199907 0.132945 0.06803 0.115549 -0.02457 0.009831 -0.013772 0.06541 0.276965 0.326091 0.035846 0.108176 -0.033018 -0.224161 -0.003174 0.009984 0.186576
