0.013104 0.215088 0.127886 0.195177 0.017256 0.010563 -0.092847 -0.182557 -0.058175 0.04189 0.16348 0.169071 -0.192252 0.059215 0.030871 0.136924 -0.116261 0.271556 -0.084723 0.042782 -0.035627 0.139354 0.233056 0.098886 -0.143042 0.156618 -0.127473 0.003147 0.226155 -0.05308 -0.070105 -0.097427 -0.049879 0.003239 -0.006504 -0.112521 0.167646 0.019534 -0.131504 -0.002482 -9.76E-4 0.176837 -0.034738 -0.223842 -0.057271 0.054664 0.089237 -0.197434 -0.054976 0.074022 0.198639 0.062005 -0.047394 -0.129977 0.123282 -0.013552 -0.044546 -0.120167 0.095468 -0.082128 0.026481 -0.188227 -0.115915 0.034017 -0.068951 0.016493 0.029783 0.077555 0.108092 -0.07294 -0.062161 0.05667 -0.0899 0.021594 0.041161 -0.074411 -0.068989 -0.047261 -0.0015 0.032092 -0.062054 -0.067116 0.102487 -0.198819 -0.022249 -9.28E-4 0.159757 -0.058053 0.183201 0.136398 -0.013416 -0.150709 0.178346 0.141851 -0.182482 -0.048634 -0.015486 0.076256 0.033025 -0.042311
-4.740221 -0.522495 -4.28328 0.926081 3.993691 -2.705847 2.24685 0.385592 -2.453784 1.962966 5.165664 0.717108 -1.356995 2.287418 2.779367 2.24491 -1.938698 3.749818 -1.766152 0.683327 -0.40077 -0.384153 2.024879 1.85941 1.168151 3.290904 -1.238375 -1.841172 1.383556 -0.08409 4.030587 2.032915 0.428308 -0.631989 -2.330976 0.254498 1.350507 1.357784 1.32673 -3.430924 2.567183 -8.49239 0.301534 -2.043604 0.942964 4.220578 -0.893418 2.586231 4.580652 5.488108 5.049563 -3.807947 0.161495 0.950973 1.287658 -1.812366 -0.121425 4.333736 2.429854 -1.131145 0.802812 2.622117 -5.275915 2.412119 -0.843986 -4.244541 -0.935567 1.847196 1.344996 2.623908 2.240743 -1.705973 1.963111 -3.104982 0.155417 1.140809 -3.195071 -2.032076 2.845105 0.376427 -0.574738 -2.309179 -1.981843 -2.898188 1.428723 0.227716 1.910809 -0.354942 -0.150973 -1.342934 3.330079 -1.857606 -2.483493 2.539076 -1.420217 -0.554603 -0.640009 0.991692 3.122858 0.029398
0.07796 -0.115253 0.350952 0.075231 -0.167769 -0.204316 0.00129 -0.009205 -0.098634 0.370785 0.243485 -0.118866 0.192216 0.220973 0.326435 -0.00406 -0.077746 0.279278 0.004331 0.336641 -0.329361 -0.074307 0.183893 -0.005839 0.228635 -0.224436 -0.068998 -0.316455 0.164058 -0.063364 0.069152 -0.046496 -0.052715 0.302965 -0.052182 0.060866 -0.102593 0.157641 -0.06507 0.213838 0.023183 -0.091767 -0.016263 -0.230978 0.160498 -0.241718 0.288685 -0.143025 -0.133755 -0.037895 0.284032 -0.379418 -0.070258 -0.004926 0.264546 0.027449 -0.142619 0.091593 0.098171 -0.068442 0.020128 -0.238867 0.143563 -0.304478 0.128379 -0.084768 0.071104 0.091349 0.222355 -0.18539 0.184888 0.031301 -0.13302 0.092188 0.053126 -0.168202 -0.036496 0.139962 0.034868 0.169088 0.049192 0.3654 0.045675 -0.415646 0.072853 0.198206 0.072498 -0.189146 0.175718 -0.083178 -0.201322 -0.211942 -0.02991 0.250397 -0.021828 -0.241362 0.03661 -0.068539 0.079961 0.141576
0.032396 -0.153017 0.013261 0.047099 -0.16096 -0.002847 -0.14501 0.068005 -0.149359 0.076423 0.087914 0.08774 -0.052729 0.078781 0.117473 0.074295 0.151985 0.072683 0.119518 0.122415 -0.135198 0.247231 0.180758 0.015866 -0.113795 -0.127057 -0.071395 0.168229 0.095199 -0.336627 -0.153192 -0.143154 -0.026817 0.033279 -0.138762 -0.11222 0.10966 -0.08999 0.082217 0.118244 -0.209306 -0.145128 0.075727 0.090038 -0.029107 0.029357 -0.046449 0.077719 -0.03284 -0.077257 -0.012984 -0.045672 -0.116 -0.276832 0.093682 -0.058702 0.12833 -0.142148 0.008875 0.083015 -0.016207 -0.124211 -0.089497 -0.070414 -0.053119 -0.049462 -0.046969 0.093573 -0.213675 0.119268 -0.018275 3.93E-4 0.116123 -0.134844 0.078802 -0.103423 -0.118698 -0.023437 0.037259 0.011934 0.026229 -0.010741 0.123861 -0.243128 -0.03501 -0.001409 -0.172359 -0.035735 0.189753 0.012574 -0.164292 0.135864 0.031712 0.210915 -0.032895 0.034045 -0.017284 -0.092774 0.076027 0.134429
-0.187681 -0.003682 0.082133 0.091676 -0.156055 -0.005682 -0.202797 0.017405 -0.119329 0.05335 -0.032705 0.137982 -0.119078 0.015713 0.044407 0.184858 -0.015809 0.115197 0.112483 -0.001684 -0.090065 0.084188 0.182507 0.012554 -0.109862 -0.042676 -0.101332 0.046402 0.132833 -0.190541 0.034922 -0.067839 -0.110151 0.161527 -0.112128 -0.08762 0.096644 -0.080436 0.017426 0.078187 -0.021864 0.108539 0.140981 0.144886 0.054694 -0.124315 -0.174418 0.014414 0.025802 0.096024 0.011914 -0.064756 -0.021357 -0.159558 0.013893 -0.078627 0.136656 -0.121937 -0.094629 -0.142929 -0.028796 -0.107532 -0.004169 -0.02134 -0.26918 -0.031507 0.022361 -0.016489 -0.001662 0.033487 -0.001526 0.126793 -0.076524 -0.100008 0.06726 -0.027872 0.237197 -0.094426 -0.124676 -0.154781 0.143422 -0.162683 0.10528 0.072269 0.006704 0.068475 0.13943 0.061841 0.230048 0.073781 -0.07744 -0.169359 -0.077956 0.053981 -0.075899 -0.089453 -0.092011 -0.060006 -0.024997 -0.087637
-2.188447 -0.745402 1.427891 0.252849 -0.964802 1.466352 -0.767894 -0.487218 0.344978 -0.168747 -0.216472 0.770953 1.626373 0.591564 0.79447 -0.982471 1.062988 1.497039 1.03909 -1.189524 -1.270207 0.8371 0.365361 -0.052559 -1.480624 0.815688 0.05076 0.130752 1.925592 1.430189 -1.949372 1.229748 1.846889 0.592459 0.468586 0.508535 0.336206 0.279893 -1.226248 -1.035387 -1.33198 1.00332 0.370845 -2.339557 0.391072 -0.538019 -0.304044 1.074646 0.151577 -0.364212 -0.024926 1.061859 1.299607 1.045094 1.716676 1.374952 -0.643729 0.506206 1.283193 -0.41073 -0.359472 -0.906251 -0.422736 0.743447 0.905279 -0.876009 0.819153 1.44102 -0.930934 -0.779042 -0.699975 0.386021 -0.167983 -1.404155 -0.879193 2.338863 -0.975297 0.264396 1.462748 0.427118 -1.121031 0.332932 -0.382852 0.632224 0.805034 0.343845 0.110736 2.092695 1.278497 0.980102 -0.911264 -0.593109 0.952104 0.171466 -0.132626 -0.3915 -0.589071 0.513815 0.931218 0.148883
-0.076974 0.049627 0.086622 0.194252 0.023435 0.018333 0.009458 0.002266 0.251784 -0.253765 0.180343 -0.024806 -0.102761 -0.154436 -0.253735 0.093332 0.243333 -0.013963 -0.026174 -0.127571 -0.044793 0.218329 0.048464 0.07284 0.102648 -0.102988 0.150021 -0.018784 0.015787 -0.050798 -0.016326 -0.045455 0.3372 -0.338095 0.062806 -0.538486 -0.076729 -0.149364 -0.162712 0.161479 -0.083354 -0.003414 -0.161743 -0.408798 0.009087 -0.127571 -0.005449 0.099502 0.030028 0.364988 0.199712 -0.344316 -0.127499 0.217266 -0.094766 -0.154613 0.104807 -0.026491 0.092833 -0.052159 -0.161205 0.142127 0.007983 0.040662 -0.221428 -0.117448 -0.118103 -0.310425 -0.300138 -0.189237 -0.197557 0.033388 0.133728 -0.178665 0.005213 -0.30982 -0.196153 0.132749 -0.358796 -0.03855 -0.07009 0.044259 0.196341 -0.084437 0.092791 -0.086856 -0.277472 0.135055 -0.06704 -0.091516 0.194582 0.077348 0.096552 -0.011112 -0.017996 -0.040827 -0.156387 -0.170886 -0.187989 -0.282815
-2.149711 -0.276322 -0.511906 0.115992 0.360298 1.186739 1.172858 1.212799 0.382486 0.427036 0.559557 1.05958 0.216304 -0.068648 0.896238 -1.047206 2.186562 1.970268 0.956207 0.152093 -2.825206 0.460455 0.423358 -1.590449 0.7284 1.934109 0.924428 -0.378335 1.145289 1.682576 -1.226362 -0.503333 0.855336 0.075694 -0.78942 0.834058 -0.801985 -1.48447 -0.295781 -1.329654 -0.608884 0.098197 -0.500084 -0.503274 1.620112 1.334595 0.110809 0.417506 0.459665 -1.05093 -1.648182 1.131013 -0.686113 2.330955 1.520037 -0.608914 -1.678101 -0.542505 -0.13799 -0.345332 0.855653 -1.789006 -0.088728 -0.517327 0.165811 -1.865427 1.288194 -0.530066 1.430793 0.56549 0.414695 1.485094 -2.158173 0.514577 -1.130455 1.305462 -0.597013 1.01763 -0.346868 -1.814638 -1.601199 -0.552307 0.717071 0.522958 0.53382 -1.073987 0.979817 -0.477891 1.048553 2.150384 -2.806317 0.267404 0.030859 0.871917 -0.00352 0.757262 -0.951215 0.379113 -0.552842 -0.722169
-0.177517 -0.096813 0.01505 0.098927 -0.160649 -0.022118 -0.307522 -0.100745 -0.036659 0.056528 0.308085 0.196197 0.223124 -0.195521 -0.035953 0.186029 -0.071194 0.204028 0.162253 0.031056 -0.079085 0.137999 0.376123 0.078199 -0.218032 -0.034572 -0.028466 -0.087957 0.124262 -0.19743 -0.032488 0.089167 -0.200006 0.050267 -0.086457 0.004427 -0.181056 -0.014792 0.097423 0.062426 -0.095459 0.164332 0.013389 -0.145185 0.054883 0.114104 0.084426 -0.183579 -0.132297 0.023238 0.130485 -0.262781 0.004679 0.042652 0.122117 -0.052599 0.165739 -0.008882 0.209842 -0.120725 0.046144 -0.225845 -0.059812 -0.11981 -0.102594 0.004283 -0.134529 0.079473 0.125883 -0.365018 -0.041876 -0.004482 -0.025929 0.057079 0.081138 -0.071556 -0.061468 -0.028486 -0.076175 -0.224315 -0.106917 0.039766 0.269764 -0.235918 -0.155035 0.032365 0.077487 -0.00491 0.263489 0.033121 -0.118254 -0.044626 -0.120672 -0.0464 -0.129648 -0.209484 0.011552 0.066923 0.096689 -0.073492
0.01895 0.031848 0.041246 0.191043 -0.117318 -0.192857 -0.04328 0.04855 -0.030985 0.324837 0.131997 0.065301 0.120538 -0.067123 0.103137 0.166223 -0.034315 0.129367 -0.011591 0.108641 -0.02491 0.199814 0.005528 0.002082 -0.146191 0.040029 -0.090209 -0.195274 0.058109 -0.106244 -0.123586 -0.054539 -0.079447 0.013173 -0.033381 0.05204 -0.061157 0.064331 0.072564 0.12543 -0.034516 0.172002 -0.0151 -0.091106 0.158166 0.042624 0.030658 -0.020895 -0.205268 -0.041297 0.165939 0.047317 0.013291 0.122105 -0.055627 -0.062411 0.066704 -0.007233 0.044283 -0.051767 -0.032466 -0.001287 -0.042604 -0.033018 -0.109923 -0.040027 0.039697 0.034124 0.140641 -0.009906 -0.211513 -0.021286 0.0354 0.018052 -0.056685 -0.128009 0.022519 -0.014069 0.011804 0.080946 -0.07229 0.13957 0.071223 -0.188532 0.105449 0.035411 0.070469 -0.192473 0.016901 -0.072293 0.010722 0.028264 0.100162 0.096671 -0.030674 -0.05579 0.170458 -0.110998 0.012633 -0.072983
-0.026799 -0.103797 0.112651 -0.259641 -0.103915 0.088316 -0.053088 -0.022809 0.009437 -0.09753 0.060073 0.126938 -0.120166 -0.201027 -0.031192 0.114149 -0.054812 0.193163 0.102408 0.014485 -0.142804 0.004168 0.106051 0.11444 -0.218755 -0.190187 0.08501 -0.064668 -0.128386 0.029669 -0.065954 0.042625 -0.391147 -0.09788 -0.127327 0.028785 0.023364 -0.057131 -0.029977 -0.052351 -0.109947 0.189529 -0.137615 0.126845 -0.031891 -0.070696 -0.021912 0.047885 0.00687 0.096735 0.088226 -0.067865 -0.012925 0.020968 -0.00858 0.059358 0.11823 -0.176081 -0.213955 -0.175354 0.240854 -0.072666 0.023853 -0.029982 0.089821 0.130766 0.016941 0.178835 -0.00797 -0.080021 -0.044534 0.049337 -0.037857 -0.1511 0.060476 -0.006618 0.145705 0.04376 -0.128786 -0.038244 0.01883 -0.008851 0.060935 -0.194196 0.098924 0.049666 0.05715 0.08558 0.098442 0.050731 -0.160965 -0.078077 -0.002686 -0.001068 -0.122167 -0.028315 -0.037337 -0.071233 -0.050617 -0.095917
0.0 0.0 0.0 0.0 0.0 0.0 0.0 0.0 0.0 0.0 0.0 0.0 0.0 0.0 0.0 0.0 0.0 0.0 0.0 0.0 0.0 0.0 0.0 0.0 0.0 0.0 0.0 0.0 0.0 0.0 0.0 0.0 0.0 0.0 0.0 0.0 0.0 0.0 0.0 0.0 0.0 0.0 0.0 0.0 0.0 0.0 0.0 0.0 0.0 0.0 0.0 0.0 0.0 0.0 0.0 0.0 0.0 0.0 0.0 0.0 0.0 0.0 0.0 0.0 0.0 0.0 0.0 0.0 0.0 0.0 0.0 0.0 0.0 0.0 0.0 0.0 0.0 0.0 0.0 0.0 0.0 0.0 0.0 0.0 0.0 0.0 0.0 0.0 0.0 0.0 0.0 0.0 0.0 0.0 0.0 0.0 0.0 0.0 0.0 0.0
0.008023 0.029909 0.051455 -0.018895 0.008732 0.152341 0.004276 -0.010448 0.07213 -0.017418 -0.102969 0.080689 0.024109 -0.118795 0.016201 0.085712 -0.036083 -0.081356 -0.087749 -0.092457 0.169811 0.052757 0.115441 0.298346 0.110633 -0.014202 0.161042 0.079542 -0.020537 0.062003 -0.037412 0.091327 0.038248 0.031902 0.04971 -0.139295 -0.069212 0.028137 0.138425 -0.127954 -0.09441 -0.071698 -0.054101 -0.104543 0.107011 -0.121943 0.031545 -0.228759 -0.017368 -0.013332 0.115098 -0.119888 0.020545 -0.21032 -0.013816 -0.075039 -0.167433 0.009216 -0.155662 -0.192904 -0.04302 0.014067 -0.039122 -0.053682 0.093389 -0.159658 -0.018687 -0.128485 -0.128773 -0.034731 0.015705 0.033157 0.164649 0.051248 0.044279 0.138014 -0.007978 -0.105265 -0.062544 -0.045414 -0.036537 -0.041319 0.139672 -0.009892 -0.021567 0.122122 0.204615 -0.091636 0.00842 -0.105042 0.088511 0.121014 0.041941 -0.003631 0.087311 -0.248994 -0.171292 -0.079387 -0.063866 -0.113757
0.066568 -0.081278 0.100981 0.102564 -0.043418 0.075462 -0.110616 -0.143716 -0.072345 0.077418 0.100447 0.02813 0.012041 0.02642 -0.15283 0.044612 0.039562 -8.95E-4 -0.102143 -0.015735 -0.129298 0.016516 0.080142 0.117255 -0.056658 -0.088458 -0.151237 -0.129861 0.008654 -0.045055 0.033387 0.012222 -0.105032 0.037223 0.005555 -0.01168 -0.059403 -0.025774 -0.012711 0.009034 0.050269 0.13825 -0.04327 -0.079777 0.109222 -0.065204 -0.02253 0.097792 -0.195638 0.04776 -0.040266 0.002242 -0.01774 -0.105279 0.040907 0.074103 0.024719 -0.075222 0.071306 -0.142471 0.099755 -0.220127 0.015882 -0.024512 0.110202 -0.015355 0.052413 0.113298 0.126016 -0.056241 0.091406 -0.028486 0.176686 0.007125 -0.116761 -0.050868 0.037076 0.071667 -0.05843 -0.05608 0.170759 0.174251 -0.035713 -0.099577 0.124791 -0.007266 0.08273 -0.097223 0.143051 0.104299 0.035004 0.015354 -0.038987 0.118385 0.029603 0.01406 -0.202007 0.060657 -0.018117 -0.015999
0.0 0.0 0.0 0.0 0.0 0.0 0.0 0.0 0.0 0.0 0.0 0.0 0.0 0.0 0.0 0.0 0.0 0.0 0.0 0.0 0.0 0.0 0.0 0.0 0.0 0.0 0.0 0.0 0.0 0.0 0.0 0.0 0.0 0.0 0.0 0.0 0.0 0.0 0.0 0.0 0.0 0.0 0.0 0.0 0.0 0.0 0.0 0.0 0.0 0.0 0.0 0.0 0.0 0.0 0.0 0.0 0.0 0.0 0.0 0.0 0.0 0.0 0.0 0.0 0.0 0.0 0.0 0.0 0.0 0.0 0.0 0.0 0.0 0.0 0.0 0.0 0.0 0.0 0.0 0.0 0.0 0.0 0.0 0.0 0.0 0.0 0.0 0.0 0.0 0.0 0.0 0.0 0.0 0.0 0.0 0.0 0.0 0.0 0.0 0.0
0.0 0.0 0.0 0.0 0.0 0.0 0.0 0.0 0.0 0.0 0.0 0.0 0.0 0.0 0.0 0.0 0.0 0.0 0.0 0.0 0.0 0.0 0.0 0.0 0.0 0.0 0.0 0.0 0.0 0.0 0.0 0.0 0.0 0.0 0.0 0.0 0.0 0.0 0.0 0.0 0.0 0.0 0.0 0.0 0.0 0.0 0.0 0.0 0.0 0.0 0.0 0.0 0.0 0.0 0.0 0.0 0.0 0.0 0.0 0.0 0.0 0.0 0.0 0.0 0.0 0.0 0.0 0.0 0.0 0.0 0.0 0.0 0.0 0.0 0.0 0.0 0.0 0.0 0.0 0.0 0.0 0.0 0.0 0.0 0.0 0.0 0.0 0.0 0.0 0.0 0.0 0.0 0.0 0.0 0.0 0.0 0.0 0.0 0.0 0.0
2.591633 1.608701 -2.087245 2.00752 3.012652 4.995656 0.847355 -1.594905 -0.365708 -1.629805 -1.650237 3.712017 -0.231463 -0.537534 -2.036098 2.002639 -0.696666 -4.310136 -1.477319 -1.356504 -0.581823 -1.830239 -0.272773 -1.648095 0.090509 0.008711 0.330842 0.396714 2.341035 -0.526067 1.155793 -1.730906 -1.010387 -1.342646 -1.939355 0.734869 0.727366 0.700702 1.516974 -2.133831 -0.280653 -3.051674 0.017123 0.532043 1.478449 0.375441 0.920129 1.548929 1.087478 0.668327 0.707416 3.249232 -0.362503 1.273221 -2.929682 -0.245389 1.633444 -0.119836 0.103459 -3.445175 0.513245 0.427807 0.738792 1.448203 0.501908 0.362882 -0.731533 -0.391201 0.037778 3.053553 4.030229 1.793904 1.24136 0.081706 -1.401954 -0.638804 -0.487445 -0.267924 0.012844 0.538179 -0.241935 -0.068756 1.351665 -0.112558 0.001814 0.447262 0.833441 -0.023876 1.212707 1.514635 -0.568611 0.376173 -3.663739 -4.345135 -0.444319 2.139788 -2.53093 0.92131 -1.399435 1.763954
0.0 0.0 0.0 0.0 0.0 0.0 0.0 0.0 0.0 0.0 0.0 0.0 0.0 0.0 0.0 0.0 0.0 0.0 0.0 0.0 0.0 0.0 0.0 0.0 0.0 0.0 0.0 0.0 0.0 0.0 0.0 0.0 0.0 0.0 0.0 0.0 0.0 0.0 0.0 0.0 0.0 0.0 0.0 0.0 0.0 0.0 0.0 0.0 0.0 0.0 0.0 0.0 0.0 0.0 0.0 0.0 0.0 0.0 0.0 0.0 0.0 0.0 0.0 0.0 0.0 0.0 0.0 0.0 0.0 0.0 0.0 0.0 0.0 0.0 0.0 0.0 0.0 0.0 0.0 0.0 0.0 0.0 0.0 0.0 0.0 0.0 0.0 0.0 0.0 0.0 0.0 0.0 0.0 0.0 0.0 0.0 0.0 0.0 0.0 0.0
-4.740221 -0.522495 -4.28328 0.926081 3.993691 -2.705847 2.24685 0.385592 -2.453784 1.962966 5.165664 0.717108 -1.356995 2.287418 2.779367 2.24491 -1.938698 3.749818 -1.766152 0.683327 -0.40077 -0.384153 2.024879 1.85941 1.168151 3.290904 -1.238375 -1.841172 1.383556 -0.08409 4.030587 2.032915 0.428308 -0.631989 -2.330976 0.254498 1.350507 1.357784 1.32673 -3.430924 2.567183 -8.49239 0.301534 -2.043604 0.942964 4.220578 -0.893418 2.586231 4.580652 5.488108 5.049563 -3.807947 0.161495 0.950973 1.287658 -1.812366 -0.121425 4.333736 2.429854 -1.131145 0.802812 2.622117 -5.275915 2.412119 -0.843986 -4.244541 -0.935567 1.847196 1.344996 2.623908 2.240743 -1.705973 1.963111 -3.104982 0.155417 1.140809 -3.195071 -2.032076 2.845105 0.376427 -0.574738 -2.309179 -1.981843 -2.898188 1.428723 0.227716 1.910809 -0.354942 -0.150973 -1.342934 3.330079 -1.857606 -2.483493 2.539076 -1.420217 -0.554603 -0.640009 0.991692 3.122858 0.029398
-0.259035 -0.03544 0.068662 0.233622 0.044005 -0.059957 -0.096752 0.009094 -0.07691 -0.001971 0.093255 0.009386 -0.032454 -0.126627 0.113945 0.314729 -0.03801 0.090597 -0.0126 0.009467 0.042303 0.080073 -0.035165 0.014249 -0.04233 0.009341 -0.096693 0.097912 0.095635 -0.104512 -0.173536 -0.098517 -0.040519 0.121149 -0.074563 -0.260754 0.132754 -0.305702 0.048906 7.24E-4 -0.004688 -0.062211 -0.157643 0.163787 -0.051187 -0.033076 -0.076364 -0.032618 -0.072498 0.128717 0.134201 -0.076602 -0.123722 0.083496 -0.028438 -0.183214 0.040369 0.0031 -0.033715 0.034729 -0.077765 -0.048612 -0.0688 -0.17546 -0.161476 0.108912 0.2117 -0.045156 0.084458 -0.266194 0.033087 0.178347 -0.02546 0.220646 0.003983 -0.205559 -0.152822 -0.086942 -0.068308 -0.084219 0.088495 0.168408 0.036985 -0.064849 0.133697 0.187529 0.036237 -0.085146 0.187172 0.188673 -0.158358 0.076023 -0.139607 -0.106972 0.089002 -0.125668 0.078949 0.10434 0.003305 0.044417
0.11752 0.081551 0.0936 0.08641 0.60707 -0.011842 -0.073599 -0.251984 0.248365 0.653659 -0.003695 0.275106 -0.33423 -0.459989 0.141284 0.276046 -0.662139 -0.26481 -0.171247 0.022711 -0.104172 -0.244387 0.316483 -0.077394 0.200551 0.064381 -0.255965 -0.055724 0.137597 0.095021 0.300985 0.087278 0.083496 -0.099994 0.047376 -6.58E-4 0.231717 -0.144593 0.054355 0.098774 0.285151 0.195694 -0.239271 -0.102359 0.024488 0.037606 -0.083783 -0.024512 0.162409 0.139432 0.054816 0.120929 -0.096705 0.215098 -0.069708 0.332749 0.196493 -0.068991 0.212432 -0.126032 0.375845 -0.065417 0.419379 -0.001067 0.224906 0.134951 0.204443 -0.094004 -0.009093 -0.06843 0.056679 0.060346 -0.492317 0.281791 -0.068231 0.099062 -0.236304 0.029767 0.217691 -0.043024 0.162971 0.09031 -0.388005 0.059224 -0.187857 0.231207 0.059115 -0.303454 -0.341425 0.123083 0.237167 0.244613 -0.216184 -0.237312 -0.198601 0.158972 -0.014881 -0.125342 -0.395068 -0.115908
0.047213 -0.030065 0.203601 0.094789 0.132834 -0.1064 -0.273771 0.087419 0.007304 0.088789 0.206708 0.168388 -0.166047 -0.130687 0.096741 0.270688 0.038581 0.154195 0.033023 0.122206 -0.061663 -0.090288 0.316111 -0.035057 -0.075263 -0.056418 -0.030043 -0.146318 0.037675 -0.056663 -0.019851 0.10268 -0.008383 0.125316 0.018121 -0.05201 -0.018746 -0.087076 0.173701 0.063032 -0.204921 0.092546 0.123867 0.014361 0.050763 -0.053136 -0.134089 0.023986 -0.045467 0.030046 0.303608 0.028775 -0.109957 0.147825 0.197629 -0.004499 -0.029317 0.025525 -0.163998 -0.13929 0.106566 -0.097259 0.079681 -0.190383 -0.07198 0.015968 0.070898 -0.058272 0.102211 -0.054546 -0.150162 -0.089751 0.037296 0.003127 0.003497 0.072563 0.006278 0.124644 -0.031512 -0.054477 -0.089887 0.117017 -0.147027 -0.340039 0.030445 0.114081 0.131954 0.055276 -0.128562 0.079771 -0.184998 0.066853 -0.144812 -0.002883 -0.0309 -0.172329 0.090201 -0.035835 0.024066 0.125605
-0.133171 0.07267 0.150127 0.017286 0.007353 0.163232 0.133741 -0.195195 -0.188102 0.003456 -0.2784 0.091006 -0.258535 -0.056465 0.392257 0.198061 -0.127876 -0.194359 -0.131834 0.07383 0.049799 0.034818 0.374566 0.162013 -0.04243 -0.121716 -0.155289 0.207693 0.163184 -0.18169 0.069944 -0.198635 0.006388 0.099751 -0.053914 -0.083748 0.214197 0.121498 -0.010874 -0.052318 0.043991 -0.08516 0.070206 0.087895 0.074792 0.027296 0.034846 -0.216629 0.010482 -0.103523 0.148766 -0.06199 0.036962 0.056296 0.001824 -0.002639 -0.095132 0.027857 -0.025811 -0.226189 0.066145 0.066684 0.013032 -0.038828 -0.107837 -0.053667 -0.074134 0.081482 -0.087255 0.308307 0.07753 0.05896 0.138613 0.003397 -0.067919 0.042912 0.280948 8.88E-4 -0.120076 0.06493 -0.108621 -0.165791 0.055443 -0.077234 0.022961 -0.060494 -0.002728 0.040448 -0.055311 0.050302 0.111676 0.085724 -0.137658 0.188317 0.120659 0.041778 -0.069715 -0.029423 -0.124513 0.053864
-3.409231 0.455378 0.783566 2.4319 -3.887154 -1.575289 -2.334301 -1.995982 1.02876 3.445182 -3.400841 2.420574 0.169287 2.667914 -2.347579 1.838119 -1.361601 0.751769 -1.477945 -0.309074 0.991622 0.285115 -0.277255 0.2829 -0.821042 2.123334 2.712844 -0.066324 2.864994 -0.047857 0.988406 -2.665179 1.236336 0.872808 0.232516 -0.463697 1.556175 -0.4046 -2.277687 -0.502794 -0.75249 -0.935891 -0.746487 -2.293745 0.726239 0.685161 -0.336719 -0.945396 -1.695233 0.171014 1.304392 1.129754 2.352722 1.231348 0.651921 -0.362943 0.361547 1.227173 -0.956922 -3.430249 0.218206 -1.15649 0.714806 3.861133 1.500555 -0.462407 0.556368 0.057942 -1.057434 0.830703 1.824196 -0.677021 1.395281 -1.516891 -1.745842 0.438199 0.460842 2.24378 -1.762654 1.859074 -0.627382 -2.545322 -0.432571 0.084142 0.075195 -0.397788 -0.310222 0.512887 -0.378309 -2.384345 2.133306 -1.657938 0.64402 -0.266867 -4.183236 -0.191932 -0.323301 1.327878 0.969813 0.977082
-0.019303 -0.002529 -0.008422 0.115266 0.028528 0.037318 -0.171611 -0.119728 0.08063 0.123641 0.205162 0.12071 0.033668 -0.050189 0.029205 0.160692 0.102192 0.160543 0.019279 -0.006701 -0.046097 0.22825 0.183039 -0.002247 -0.195626 -0.026982 -0.115158 0.044293 0.015434 -0.147153 -0.05616 -0.040167 -0.025384 0.009314 -0.123721 -0.240182 0.052266 0.018256 0.061974 0.057055 0.214691 0.236485 0.001764 -0.022228 0.117568 0.037046 0.018025 -0.122168 -0.073133 -0.028363 0.068127 0.029865 0.107291 0.044675 0.143504 -0.03141 0.003965 0.039915 -0.03263 -0.097703 0.064074 -0.166368 -0.173704 -0.022724 -0.099146 -0.117954 0.187166 0.031134 -0.034354 -0.038352 -0.109104 -0.274885 0.059596 -0.048928 0.006633 -0.076135 0.007098 -0.031185 -0.109211 0.02168 0.12185 0.082277 0.034144 0.007481 -0.037421 0.062545 -0.068271 -0.06697 0.030207 0.002634 -0.10734 -0.058583 -0.021734 0.131197 0.062131 -0.189168 0.135714 -0.272799 -0.004568 0.012972
-0.021809 0.027874 -0.1183 -0.014798 -0.04027 0.036087 -0.026677 -0.11823 0.018636 0.059099 0.021554 0.111144 -0.127783 0.035696 0.008757 0.041177 -0.115758 0.092313 -0.017021 -0.005947 -0.142381 -0.119443 0.176836 0.238909 0.071724 -0.023996 0.034427 -0.053442 -0.015806 -0.245017 0.093464 0.1984 8.95E-4 -0.007571 -0.188739 0.064052 -0.040487 -0.084491 0.076731 -0.005023 -0.113765 0.008146 0.080496 0.064331 -0.008054 -0.036437 0.02266 0.028235 -0.093358 0.079873 0.077239 -0.148998 -0.101359 0.047654 -0.246306 -0.11849 0.106899 0.143151 -0.115638 -0.094289 0.133745 -0.065863 0.172708 0.187109 0.093154 -0.057844 0.028105 -0.027515 0.032107 -0.024108 0.065288 -0.043379 0.04258 -0.059404 0.080375 -0.069887 0.058943 -0.037901 0.035446 -0.075564 -0.034222 0.102886 0.024289 0.167547 -0.175277 0.129022 0.093667 -0.174273 -0.093221 0.122252 0.06737 0.092314 0.013605 -0.129282 -0.01963 -0.021677 0.111655 0.025519 -0.016685 0.089855
0.133658 0.009986 0.138952 -0.095045 -0.150601 0.033429 -0.157539 0.119307 -0.14746 -0.174664 0.05436 -0.064403 -0.251236 -0.01319 0.231859 0.256623 0.059431 0.043622 0.189471 0.107568 -9.43E-4 0.118534 0.178217 0.134863 -0.240821 -0.108322 -0.030546 -0.031988 0.28019 -0.204743 -0.015384 -0.023617 0.100566 0.067937 -0.017835 -0.045019 -0.015679 -0.052514 0.076652 0.140144 -0.013811 -0.128432 -0.008102 0.128145 0.067734 0.098241 -0.04858 -0.03594 -0.15693 -0.083071 -0.066534 -0.344305 -0.14579 0.128798 0.113175 0.11337 -0.069072 0.012222 -0.017767 -0.111976 -0.136179 -0.160598 -0.252375 -0.269066 -0.112411 -0.104676 -0.125442 -0.202172 -0.031036 0.060726 -0.154076 0.055114 -0.110781 -0.067322 0.019866 -0.053324 0.138083 -0.006563 -0.125187 -0.004538 0.005156 -0.049674 0.065453 -0.297967 -0.067816 0.207561 -0.017369 -0.090657 -4.77E-4 0.201038 -0.180319 -0.095071 -0.090069 0.025703 0.007828 -0.027208 -0.029666 -0.24264 0.016459 0.091212
0.352905 0.550922 -1.128945 -0.511125 0.774489 1.405335 -0.371647 0.106012 -0.779785 -0.640302 -0.68578 1.570717 -0.712288 -0.706705 -0.789609 -0.045278 -1.599722 -2.840112 -0.089543 -1.158838 -1.862605 -0.62748 -0.063542 -0.468696 0.750564 0.033551 -0.772222 -0.188991 -0.163115 0.455978 0.038455 -0.779588 0.172303 -1.114448 -0.548246 -0.008155 1.66721 -0.744821 -0.15746 -2.668482 -0.304702 -0.905716 0.479063 0.151803 -0.94063 -0.044338 -0.906122 -0.456182 0.281891 0.268287 0.47007 0.628019 0.328428 1.471286 -2.345457 0.072073 -0.345477 -0.998199 -1.496897 -0.053061 0.351206 -0.934426 0.295591 0.07336 0.24092 0.486976 0.390085 -0.621556 0.375246 -0.02625 1.957847 1.014101 0.004675 0.08874 -0.900479 -0.462149 0.922254 1.355385 -1.048724 0.105897 1.254466 0.410718 0.321258 1.066395 -0.171761 -0.128774 0.315556 0.697301 -0.180925 0.555334 1.005586 -0.891677 -1.232923 -1.994189 -0.567812 0.204184 -0.947385 -0.051526 -0.987029 0.725141
0.02536 -0.03097 -0.063102 -0.012616 0.091013 0.071659 -0.227871 -0.141648 0.053234 0.007721 0.008969 0.213081 0.114243 -0.064579 0.061344 0.1013 -0.199857 0.114213 0.18963 -0.051795 -0.040513 -0.11677 0.08833 0.041194 -0.057715 -0.12947 -0.165399 -0.005911 -0.004467 0.021036 -0.11776 0.019572 -0.016369 0.18705 0.02364 -0.042921 0.022242 0.065808 0.019158 -0.020227 0.03512 0.123667 0.070379 0.049283 -0.035404 0.079019 0.083158 0.091408 -0.046621 0.076872 0.179808 -0.163073 -0.038181 0.053312 0.010034 -0.157507 -0.169777 -0.050223 0.056453 -0.147903 -0.071424 -0.249547 0.007383 0.014361 0.021629 0.135427 0.060288 -0.04591 -0.073145 -0.010157 -0.061781 -0.016706 5.18E-4 -0.030453 0.008525 -0.040721 -0.199128 -0.155585 -0.093754 -0.041783 0.014664 0.053307 -0.045095 -0.050319 -0.139628 0.015045 0.018077 -0.007117 0.101633 -0.100132 0.139164 -0.137734 -0.086626 -0.043937 -0.164377 0.093657 0.051439 -0.12262 0.033618 0.033538
0.11752 0.081551 0.0936 0.08641 0.60707 -0.011842 -0.073599 -0.251984 0.248365 0.653659 -0.003695 0.275106 -0.33423 -0.459989 0.141284 0.276046 -0.662139 -0.26481 -0.171247 0.022711 -0.104172 -0.244387 0.316483 -0.077394 0.200551 0.064381 -0.255965 -0.055724 0.137597 0.095021 0.300985 0.087278 0.083496 -0.099994 0.047376 -6.58E-4 0.231717 -0.144593 0.054355 0.098774 0.285151 0.195694 -0.239271 -0.102359 0.024488 0.037606 -0.083783 -0.024512 0.162409 0.139432 0.054816 0.120929 -0.096705 0.215098 -0.069708 0.332749 0.196493 -0.068991 0.212432 -0.126032 0.375845 -0.065417 0.419379 -0.001067 0.224906 0.134951 0.204443 -0.094004 -0.009093 -0.06843 0.056679 0.060346 -0.492317 0.281791 -0.068231 0.099062 -0.236304 0.029767 0.217691 -0.043024 0.162971 0.09031 -0.388005 0.059224 -0.187857 0.231207 0.059115 -0.303454 -0.341425 0.123083 0.237167 0.244613 -0.216184 -0.237312 -0.198601 0.158972 -0.014881 -0.125342 -0.395068 -0.115908
0.047213 -0.030065 0.203601 0.094789 0.132834 -0.1064 -0.273771 0.087419 0.007304 0.088789 0.206708 0.168388 -0.166047 -0.130687 0.096741 0.270688 0.038581 0.154195 0.033023 0.122206 -0.061663 -0.090288 0.316111 -0.035057 -0.075263 -0.056418 -0.030043 -0.146318 0.037675 -0.056663 -0.019851 0.10268 -0.008383 0.125316 0.018121 -0.05201 -0.018746 -0.087076 0.173701 0.063032 -0.204921 0.092546 0.123867 0.014361 0.050763 -0.053136 -0.134089 0.023986 -0.045467 0.030046 0.303608 0.028775 -0.109957 0.147825 0.197629 -0.004499 -0.029317 0.025525 -0.163998 -0.13929 0.106566 -0.097259 0.079681 -0.190383 -0.07198 0.015968 0.070898 -0.058272 0.102211 -0.054546 -0.150162 -0.089751 0.037296 0.003127 0.003497 0.072563 0.006278 0.124644 -0.031512 -0.054477 -0.089887 0.117017 -0.147027 -0.340039 0.030445 0.114081 0.131954 0.055276 -0.128562 0.079771 -0.184998 0.066853 -0.144812 -0.002883 -0.0309 -0.172329 0.090201 -0.035835 0.024066 0.125605
-0.113023 -0.00864 0.122443 0.056791 0.018256 0.100094 -0.120363 -0.047846 -0.120236 -0.103931 -0.041407 0.138289 -0.171162 0.013689 0.056486 0.29111 0.007768 0.241396 0.003722 0.175831 -0.130067 0.122204 0.15089 0.142622 -0.156795 -0.121281 -0.042881 0.008875 0.268709 -0.19041 -0.037407 0.034577 -0.004701 -0.013484 -0.072183 -0.027648 0.007189 -0.146499 -0.133558 0.008178 0.013198 -0.111945 -0.047691 0.091826 0.102986 -0.077044 -0.083862 0.14911 0.082434 0.150372 -0.010644 -0.115766 -0.025193 0.055259 0.129109 0.012761 -0.104792 0.084517 0.061192 -0.261266 0.169442 -0.064109 -0.031175 -0.076815 -0.090383 0.084545 -0.194437 -0.010958 0.132357 0.0688 -0.05412 -0.033178 -0.00418 0.063921 -0.083542 0.235343 -0.144588 0.045422 -0.067334 -0.174397 0.034403 0.121953 0.120295 -0.132013 -0.099466 -0.080443 0.0399 0.137414 0.075769 0.243253 -0.253213 -0.100604 -0.091222 0.124527 -0.015163 -0.245182 0.006418 -0.100704 -0.054868 0.125875
0.069355 -0.039597 -0.005989 -0.062185 0.022728 -0.165311 0.035234 -0.120425 0.132455 -0.128698 0.083455 0.01307 -0.224119 0.017696 0.110708 0.178055 -0.047257 0.143673 0.176347 0.049199 -0.101734 0.055208 0.102758 -0.040931 -0.159739 0.006094 -0.021728 0.087741 0.131223 -0.1361 -0.093542 -0.040734 -0.07027 0.14508 -0.057161 0.039198 0.070968 -0.045177 0.071631 0.020347 -0.001218 -0.027881 0.014169 -0.147398 0.002425 0.095469 -0.076174 0.005815 0.150788 0.003418 0.074724 -0.110043 -0.166538 -0.043396 -0.032079 0.103605 -0.152401 0.005723 -0.137949 -0.066454 -0.038214 -0.033129 0.084629 -0.108333 -0.013591 -0.01227 -0.097467 -0.192776 -0.040405 0.135597 0.004788 -0.067766 0.017649 0.025558 0.119741 -0.07408 0.068083 -0.066217 -0.098091 -0.324407 0.052583 -0.038355 -0.063136 -0.060229 -0.228332 -0.085798 0.014013 -0.1166 0.007 0.018169 -0.066404 0.030598 -0.015261 -0.13397 0.088973 0.049941 -0.032936 0.053388 0.0688 -0.063472
0.0 0.0 0.0 0.0 0.0 0.0 0.0 0.0 0.0 0.0 0.0 0.0 0.0 0.0 0.0 0.0 0.0 0.0 0.0 0.0 0.0 0.0 0.0 0.0 0.0 0.0 0.0 0.0 0.0 0.0 0.0 0.0 0.0 0.0 0.0 0.0 0.0 0.0 0.0 0.0 0.0 0.0 0.0 0.0 0.0 0.0 0.0 0.0 0.0 0.0 0.0 0.0 0.0 0.0 0.0 0.0 0.0 0.0 0.0 0.0 0.0 0.0 0.0 0.0 0.0 0.0 0.0 0.0 0.0 0.0 0.0 0.0 0.0 0.0 0.0 0.0 0.0 0.0 0.0 0.0 0.0 0.0 0.0 0.0 0.0 0.0 0.0 0.0 0.0 0.0 0.0 0.0 0.0 0.0 0.0 0.0 0.0 0.0 0.0 0.0
-2.246239 -3.342824 -1.551126 1.554407 -1.107162 0.418574 -0.760653 2.407401 0.988772 2.09549 -2.81652 2.054421 1.174136 3.286447 -0.375405 -1.495214 2.610921 3.306348 -2.354726 -0.78455 0.081982 0.188942 1.541562 -0.934418 0.392983 -0.252319 1.531387 -3.290363 0.841508 -0.189776 0.068038 1.350514 0.451591 -0.431192 0.35635 1.634673 -0.543643 -0.58436 -2.831524 1.670407 -0.706368 -0.600939 0.231471 -0.567145 -0.801383 0.93025 -0.645362 -1.752501 0.656909 2.145214 0.179768 1.342376 2.980975 1.489524 0.853942 1.368378 -0.360664 -0.005198 0.313664 1.114748 -1.461181 0.136825 0.19653 1.448169 -2.842129 -3.204191 1.983244 1.137049 0.20296 -1.997822 1.489303 -1.204854 2.387647 -0.531319 0.96486 -0.668274 2.512485 1.127192 -3.481768 -0.833552 0.768425 0.724822 -0.365612 -0.799073 1.167653 0.446596 0.106644 3.425451 -1.960255 1.600169 -0.147354 -2.182863 2.241475 -0.124152 -2.194555 -2.120423 -3.204686 1.259301 -1.135324 2.285435
2.763139 -1.500145 -1.054949 0.108129 -2.441239 2.409272 -0.628655 2.54715 0.077627 -0.447567 0.838375 -0.585443 -4.814465 -0.839256 -0.044537 0.14507 1.902158 -0.088702 1.068148 -1.829617 0.774778 1.827085 -1.33367 -1.018203 -2.298032 0.806193 4.646079 0.435196 -0.767047 2.630828 3.288036 1.184743 -2.818143 -1.28687 -1.55878 1.998231 -2.645496 -1.070538 -0.272486 -0.592495 2.340952 2.298635 -2.254341 0.835384 0.76466 -0.233515 -0.589683 0.660476 -0.292724 0.196121 -1.743456 0.467143 -0.293524 -1.36158 -1.286497 -0.345213 1.68089 -2.735131 0.150425 -1.745792 0.999559 -1.352985 1.809873 0.524243 -0.542897 -0.451405 -0.850107 -0.394458 -1.819923 -1.793292 5.570456 0.433684 0.71208 0.305952 -0.312276 -0.536647 -0.100762 1.983368 1.605956 1.458349 1.519876 3.813322 -1.471682 -0.197783 -0.983431 1.355965 -2.265172 1.588993 -0.126059 0.738662 -0.823898 2.627036 3.975982 -0.745065 -1.519473 0.033927 -2.716809 -1.402747 -0.110809 0.28648
2.591633 1.608701 -2.087245 2.00752 3.012652 4.995656 0.847355 -1.594905 -0.365708 -1.629805 -1.650237 3.712017 -0.231463 -0.537534 -2.036098 2.002639 -0.696666 -4.310136 -1.477319 -1.356504 -0.581823 -1.830239 -0.272773 -1.648095 0.090509 0.008711 0.330842 0.396714 2.341035 -0.526067 1.155793 -1.730906 -1.010387 -1.342646 -1.939355 0.734869 0.727366 0.700702 1.516974 -2.133831 -0.280653 -3.051674 0.017123 0.532043 1.478449 0.375441 0.920129 1.548929 1.087478 0.668327 0.707416 3.249232 -0.362503 1.273221 -2.929682 -0.245389 1.633444 -0.119836 0.103459 -3.445175 0.513245 0.427807 0.738792 1.448203 0.501908 0.362882 -0.731533 -0.391201 0.037778 3.053553 4.030229 1.793904 1.24136 0.081706 -1.401954 -0.638804 -0.487445 -0.267924 0.012844 0.538179 -0.241935 -0.068756 1.351665 -0.112558 0.001814 0.447262 0.833441 -0.023876 1.212707 1.514635 -0.568611 0.376173 -3.663739 -4.345135 -0.444319 2.139788 -2.53093 0.92131 -1.399435 1.763954
0.201445 0.01992 0.030074 -0.128278 -0.081734 0.113903 -0.074572 -0.013898 0.076619 -0.185431 -0.098833 0.137044 0.010949 0.043736 -0.069387 0.071704 0.097369 -0.058612 0.07534 0.032832 -0.152911 -0.128084 0.002352 0.235632 -0.08023 -0.124534 0.202715 -0.120704 0.036624 0.079637 0.091483 0.131069 -0.299954 -0.03389 -0.136303 -0.172337 0.143712 0.169217 -0.070849 -0.279866 -0.092568 0.123043 -0.066993 0.165988 -0.05902 0.132458 0.012289 -0.108128 -0.01156 -0.106902 0.207723 0.200217 -0.04357 0.17931 -0.193039 0.070824 -0.162749 -0.001372 -0.008587 -0.140913 -0.034833 -0.048693 -0.052323 -0.043984 0.202465 -0.098557 0.193922 -0.060116 -0.012153 -0.141083 0.065386 0.061096 0.229353 -0.02922 0.114926 0.105134 0.117547 -0.076113 0.143376 0.024343 0.008981 -0.130118 -0.038187 -0.197469 -0.086705 0.07533 0.008948 0.173233 0.070282 -0.134316 0.121623 -0.030735 -0.062042 0.244761 -0.123634 0.046448 -0.08267 -0.006169 0.109082 -0.04913
0.0 0.0 0.0 0.0 0.0 0.0 0.0 0.0 0.0 0.0 0.0 0.0 0.0 0.0 0.0 0.0 0.0 0.0 0.0 0.0 0.0 0.0 0.0 0.0 0.0 0.0 0.0 0.0 0.0 0.0 0.0 0.0 0.0 0.0 0.0 0.0 0.0 0.0 0.0 0.0 0.0 0.0 0.0 0.0 0.0 0.0 0.0 0.0 0.0 0.0 0.0 0.0 0.0 0.0 0.0 0.0 0.0 0.0 0.0 0.0 0.0 0.0 0.0 0.0 0.0 0.0 0.0 0.0 0.0 0.0 0.0 0.0 0.0 0.0 0.0 0.0 0.0 0.0 0.0 0.0 0.0 0.0 0.0 0.0 0.0 0.0 0.0 0.0 0.0 0.0 0.0 0.0 0.0 0.0 0.0 0.0 0.0 0.0 0.0 0.0
0.0 0.0 0.0 0.0 0.0 0.0 0.0 0.0 0.0 0.0 0.0 0.0 0.0 0.0 0.0 0.0 0.0 0.0 0.0 0.0 0.0 0.0 0.0 0.0 0.0 0.0 0.0 0.0 0.0 0.0 0.0 0.0 0.0 0.0 0.0 0.0 0.0 0.0 0.0 0.0 0.0 0.0 0.0 0.0 0.0 0.0 0.0 0.0 0.0 0.0 0.0 0.0 0.0 0.0 0.0 0.0 0.0 0.0 0.0 0.0 0.0 0.0 0.0 0.0 0.0 0.0 0.0 0.0 0.0 0.0 0.0 0.0 0.0 0.0 0.0 0.0 0.0 0.0 0.0 0.0 0.0 0.0 0.0 0.0 0.0 0.0 0.0 0.0 0.0 0.0 0.0 0.0 0.0 0.0 0.0 0.0 0.0 0.0 0.0 0.0
-0.075138 -0.114767 0.129646 0.070167 -0.07396 -0.013865 -0.115319 -0.046365 -0.061541 0.101712 0.141584 0.110896 0.048996 -0.031127 0.087308 0.154179 0.009367 0.167195 0.088685 0.004029 -0.144732 0.068908 0.200047 0.116098 -0.116548 -0.104587 -0.123352 0.014012 0.099512 -0.154894 0.001527 -0.089702 -0.210021 0.060465 -0.061138 -0.057201 -0.022288 3.66E-4 0.016612 0.131987 -0.08515 0.015274 0.082771 0.017383 0.008517 -0.077565 -0.033856 0.051557 -0.153587 0.020789 0.093491 -0.081138 -0.076696 0.112574 0.104429 -0.036084 -0.052131 0.023872 0.046265 -0.070325 0.12429 -0.160954 -0.029477 -0.208802 -0.107368 -0.068658 0.093702 0.009288 0.017221 -0.077046 -0.096595 0.019892 -0.054245 -0.066319 0.046999 -0.080308 -0.120846 0.002199 -0.029593 -0.150493 -0.052544 0.127066 0.122215 -0.167507 0.015492 0.059554 0.032982 0.015838 0.121315 0.064966 -0.225844 -0.007801 -0.029213 0.193596 -0.08166 -0.179803 0.013584 0.01922 0.016334 -0.050899
0.0 0.0 0.0 0.0 0.0 0.0 0.0 0.0 0.0 0.0 0.0 0.0 0.0 0.0 0.0 0.0 0.0 0.0 0.0 0.0 0.0 0.0 0.0 0.0 0.0 0.0 0.0 0.0 0.0 0.0 0.0 0.0 0.0 0.0 0.0 0.0 0.0 0.0 0.0 0.0 0.0 0.0 0.0 0.0 0.0 0.0 0.0 0.0 0.0 0.0 0.0 0.0 0.0 0.0 0.0 0.0 0.0 0.0 0.0 0.0 0.0 0.0 0.0 0.0 0.0 0.0 0.0 0.0 0.0 0.0 0.0 0.0 0.0 0.0 0.0 0.0 0.0 0.0 0.0 0.0 0.0 0.0 0.0 0.0 0.0 0.0 0.0 0.0 0.0 0.0 0.0 0.0 0.0 0.0 0.0 0.0 0.0 0.0 0.0 0.0
0.057851 -0.112333 0.152677 0.015354 -0.072163 0.067285 -0.147876 -0.074365 -0.153253 -0.110171 0.07493 0.063483 0.134801 0.083522 0.220312 0.013096 0.024994 0.10394 0.141498 -0.066545 0.042082 0.149376 0.210837 0.07758 -0.252652 0.020069 -0.068306 0.034 0.17204 -0.161005 -0.014845 -0.111505 0.168575 0.181876 -0.106426 0.071549 -7.12E-4 -0.06867 -0.096267 -0.021019 -0.044712 0.09787 0.049583 -0.169518 0.045439 -0.116576 -0.027082 -0.064112 -0.08411 0.032248 0.075853 -0.121975 -0.009974 0.018067 0.126962 0.235211 -0.085549 -0.143186 0.204696 -0.210897 -0.028384 -0.067682 -0.157452 -0.173626 0.008413 -0.185294 0.058415 -0.07428 0.067995 0.110689 0.035446 0.008946 -0.16012 0.010064 -0.030497 0.00692 -0.073523 -0.101156 0.069196 0.072953 0.030827 0.033325 -0.111168 -0.19431 0.088331 0.078878 -0.02618 0.253541 0.213063 0.143922 0.072956 0.155627 0.020277 0.091011 0.042992 -0.010879 -0.188462 0.022014 -0.070273 0.010734
0.011574 0.002056 0.034006 0.046008 -0.142716 -0.054551 0.032914 -0.157257 -0.084006 -0.048708 -0.058549 0.021741 0.011385 -0.023197 -0.042559 -0.002272 0.08692 0.077196 0.069858 -0.121647 0.198609 -0.042479 0.084111 0.106169 0.026573 0.044408 -0.024163 0.027519 -0.105872 0.031869 -0.072823 -0.150981 -0.177815 -0.070569 -0.121573 -0.005136 -0.191643 0.088517 -0.098598 0.060095 -0.004925 0.113446 -0.165472 -0.036904 0.264984 -0.013472 -0.014328 -0.025825 0.046456 -0.050314 -0.038344 0.125573 -0.090221 -0.030059 -0.074447 0.170599 0.062066 -0.024591 -0.165543 0.110546 0.112663 0.037497 0.036712 -0.164967 -0.067828 -0.046786 0.125065 0.12137 0.002291 -0.056658 0.261186 0.099038 -0.087184 0.181251 0.036362 0.126073 0.118945 0.013047 -0.01446 0.125212 -0.079839 -0.073398 0.070769 0.060189 -0.025028 -0.128463 0.032912 0.217103 -0.037707 0.081652 -0.100572 0.013147 -0.010843 0.050171 0.111973 -0.074515 0.01456 0.013936 -0.209272 -0.019251
0.02536 -0.03097 -0.063102 -0.012616 0.091013 0.071659 -0.227871 -0.141648 0.053234 0.007721 0.008969 0.213081 0.114243 -0.064579 0.061344 0.1013 -0.199857 0.114213 0.18963 -0.051795 -0.040513 -0.11677 0.08833 0.041194 -0.057715 -0.12947 -0.165399 -0.005911 -0.004467 0.021036 -0.11776 0.019572 -0.016369 0.18705 0.02364 -0.042921 0.022242 0.065808 0.019158 -0.020227 0.03512 0.123667 0.070379 0.049283 -0.035404 0.079019 0.083158 0.091408 -0.046621 0.076872 0.179808 -0.163073 -0.038181 0.053312 0.010034 -0.157507 -0.169777 -0.050223 0.056453 -0.147903 -0.071424 -0.249547 0.007383 0.014361 0.021629 0.135427 0.060288 -0.04591 -0.073145 -0.010157 -0.061781 -0.016706 5.18E-4 -0.030453 0.008525 -0.040721 -0.199128 -0.155585 -0.093754 -0.041783 0.014664 0.053307 -0.045095 -0.050319 -0.139628 0.015045 0.018077 -0.007117 0.101633 -0.100132 0.139164 -0.137734 -0.086626 -0.043937 -0.164377 0.093657 0.051439 -0.12262 0.033618 0.033538
-4.740221 -0.522495 -4.28328 0.926081 3.993691 -2.705847 2.24685 0.385592 -2.453784 1.962966 5.165664 0.717108 -1.356995 2.287418 2.779367 2.24491 -1.938698 3.749818 -1.766152 0.683327 -0.40077 -0.384153 2.024879 1.85941 1.168151 3.290904 -1.238375 -1.841172 1.383556 -0.08409 4.030587 2.032915 0.428308 -0.631989 -2.330976 0.254498 1.350507 1.357784 1.32673 -3.430924 2.567183 -8.49239 0.301534 -2.043604 0.942964 4.220578 -0.893418 2.586231 4.580652 5.488108 5.049563 -3.807947 0.161495 0.950973 1.287658 -1.812366 -0.121425 4.333736 2.429854 -1.131145 0.802812 2.622117 -5.275915 2.412119 -0.843986 -4.244541 -0.935567 1.847196 1.344996 2.623908 2.240743 -1.705973 1.963111 -3.104982 0.155417 1.140809 -3.195071 -2.032076 2.845105 0.376427 -0.574738 -2.309179 -1.981843 -2.898188 1.428723 0.227716 1.910809 -0.354942 -0.150973 -1.342934 3.330079 -1.857606 -2.483493 2.539076 -1.420217 -0.554603 -0.640009 0.991692 3.122858 0.029398
-0.259035 -0.03544 0.068662 0.233622 0.044005 -0.059957 -0.096752 0.009094 -0.07691 -0.001971 0.093255 0.009386 -0.032454 -0.126627 0.113945 0.314729 -0.03801 0.090597 -0.0126 0.009467 0.042303 0.080073 -0.035165 0.014249 -0.04233 0.009341 -0.096693 0.097912 0.095635 -0.104512 -0.173536 -0.098517 -0.040519 0.121149 -0.074563 -0.260754 0.132754 -0.305702 0.048906 7.24E-4 -0.004688 -0.062211 -0.157643 0.163787 -0.051187 -0.033076 -0.076364 -0.032618 -0.072498 0.128717 0.134201 -0.076602 -0.123722 0.083496 -0.028438 -0.183214 0.040369 0.0031 -0.033715 0.034729 -0.077765 -0.048612 -0.0688 -0.17546 -0.161476 0.108912 0.2117 -0.045156 0.084458 -0.266194 0.033087 0.178347 -0.02546 0.220646 0.003983 -0.205559 -0.152822 -0.086942 -0.068308 -0.084219 0.088495 0.168408 0.036985 -0.064849 0.133697 0.187529 0.036237 -0.085146 0.187172 0.188673 -0.158358 0.076023 -0.139607 -0.106972 0.089002 -0.125668 0.078949 0.10434 0.003305 0.044417
-2.648351 -0.794316 -2.108887 0.20446 0.883061 0.242784 1.848653 1.149137 -4.975573 0.237654 -1.499665 2.924494 0.344217 -1.640431 0.763777 0.138944 -3.029439 -2.813434 -0.761102 -1.057557 -1.373735 -0.870599 1.234095 0.127805 -1.372618 1.35802 -1.501738 0.80945 0.172993 -0.484995 1.783363 -0.047587 0.483285 -1.526831 2.103549 2.116639 4.583491 -4.022388 -0.843817 0.361243 -0.546655 -2.301259 -2.000973 2.64631 -1.604053 -1.914206 -1.581895 -0.464185 1.757769 1.056301 0.263866 -0.904419 -0.422466 0.007824 -1.651553 0.7499 1.638666 -0.336108 -3.288466 -2.953238 -1.135414 1.165223 -1.047256 -0.821696 -0.135806 0.434207 -2.389307 -3.56953 -0.656773 0.578325 3.337902 0.782195 -1.250815 2.925509 -1.981492 0.121786 0.836257 1.710923 -2.640405 -0.628995 0.247469 0.863847 1.749171 -0.214156 -0.274807 2.192709 -0.892334 -1.614644 -1.225919 -0.042182 2.51632 3.464583 -3.591523 -2.506587 0.990426 1.8843 -2.460629 0.953462 0.359605 2.267383
-3.409231 0.455378 0.783566 2.4319 -3.887154 -1.575289 -2.334301 -1.995982 1.02876 3.445182 -3.400841 2.420574 0.169287 2.667914 -2.347579 1.838119 -1.361601 0.751769 -1.477945 -0.309074 0.991622 0.285115 -0.277255 0.2829 -0.821042 2.123334 2.712844 -0.066324 2.864994 -0.047857 0.988406 -2.665179 1.236336 0.872808 0.232516 -0.463697 1.556175 -0.4046 -2.277687 -0.502794 -0.75249 -0.935891 -0.746487 -2.293745 0.726239 0.685161 -0.336719 -0.945396 -1.695233 0.171014 1.304392 1.129754 2.352722 1.231348 0.651921 -0.362943 0.361547 1.227173 -0.956922 -3.430249 0.218206 -1.15649 0.714806 3.861133 1.500555 -0.462407 0.556368 0.057942 -1.057434 0.830703 1.824196 -0.677021 1.395281 -1.516891 -1.745842 0.438199 0.460842 2.24378 -1.762654 1.859074 -0.627382 -2.545322 -0.432571 0.084142 0.075195 -0.397788 -0.310222 0.512887 -0.378309 -2.384345 2.133306 -1.657938 0.64402 -0.266867 -4.183236 -0.191932 -0.323301 1.327878 0.969813 0.977082
-0.019303 -0.002529 -0.008422 0.115266 0.028528 0.037318 -0.171611 -0.119728 0.08063 0.123641 0.205162 0.12071 0.033668 -0.050189 0.029205 0.160692 0.102192 0.160543 0.019279 -0.006701 -0.046097 0.22825 0.183039 -0.002247 -0.195626 -0.026982 -0.115158 0.044293 0.015434 -0.147153 -0.05616 -0.040167 -0.025384 0.009314 -0.123721 -0.240182 0.052266 0.018256 0.061974 0.057055 0.214691 0.236485 0.001764 -0.022228 0.117568 0.037046 0.018025 -0.122168 -0.073133 -0.028363 0.068127 0.029865 0.107291 0.044675 0.143504 -0.03141 0.003965 0.039915 -0.03263 -0.097703 0.064074 -0.166368 -0.173704 -0.022724 -0.099146 -0.117954 0.187166 0.031134 -0.034354 -0.038352 -0.109104 -0.274885 0.059596 -0.048928 0.006633 -0.076135 0.007098 -0.031185 -0.109211 0.02168 0.12185 0.082277 0.034144 0.007481 -0.037421 0.062545 -0.068271 -0.06697 0.030207 0.002634 -0.10734 -0.058583 -0.021734 0.131197 0.062131 -0.189168 0.135714 -0.272799 -0.004568 0.012972
-0.034536 -0.125175 0.158552 0.03538 -0.072327 0.074902 0.055407 -0.024795 0.109899 -0.086138 -0.017064 0.081035 -0.152029 0.111313 0.094328 0.077553 -0.162004 0.138997 -0.123636 -0.01103 -0.014632 0.0674 0.089752 0.178229 -0.129657 -0.063272 -0.096769 0.019107 0.183826 -0.041714 -0.081645 -0.028951 -0.067856 0.208968 -0.076727 6.09E-4 0.095791 0.02998 0.131442 0.036719 0.043734 -0.030592 0.103599 0.039026 0.043346 0.009936 -0.093974 -1.4E-4 -0.079495 0.005356 0.08583 -0.036641 0.071825 -0.084164 0.01254 0.00449 -0.140188 0.080139 -0.07155 -0.044186 0.036816 -0.040001 0.060494 -0.061669 -0.197225 -0.056286 -0.104004 0.136182 0.025578 0.096599 -0.041605 -0.059427 -0.069678 0.037221 0.048166 -0.039409 -0.093071 -0.090468 -0.071333 -0.189162 0.198133 0.060829 0.013135 -0.221713 -0.043 -0.018496 0.023718 0.023411 0.022828 -0.005489 -0.212424 -0.066486 0.09013 0.176747 0.038348 -0.239805 -0.175462 -0.051011 0.065693 0.079449
0.014401 0.056522 -0.067027 0.003451 -0.029767 0.073351 -0.024849 0.036841 0.040807 0.005458 0.13335 -0.120096 -0.117021 -0.119265 0.024171 -0.015156 0.05961 -0.1094 -0.023646 -0.066864 -0.026603 0.054721 0.037844 -0.047458 0.049247 0.214332 -0.031197 -0.081032 0.0982 -0.06176 -0.187928 0.07447 0.140843 0.089594 0.127182 -0.106684 -0.115247 0.047985 0.017104 -0.188258 0.201881 0.035723 0.17568 -0.081601 0.023983 0.109685 -0.107213 -0.203239 -0.014228 0.042078 0.128434 -0.15446 -0.162105 -0.057687 -0.123467 0.099686 -0.003883 0.05067 0.065316 -0.21982 0.00112 -0.059011 -0.046757 0.11549 0.023983 -0.006561 -0.066449 -0.189888 -0.017994 0.220568 0.052927 -0.029092 0.221103 -0.013212 3.38E-4 -0.022332 0.015746 0.1407 0.033685 0.174891 -0.062061 -0.068634 0.002461 -0.013492 0.017944 0.018135 0.023988 -0.324442 0.001304 0.173735 -0.02299 0.007869 0.154087 -0.09733 0.080793 0.236875 -0.030117 0.131032 0.157627 -0.019791
1.519526 1.445578 -1.609499 2.582747 2.460795 3.529971 0.431498 -0.524736 0.238502 0.565084 -2.150664 2.607871 -3.578636 0.22885 1.205379 0.400126 -2.365878 -2.228676 -0.500047 -1.958516 -2.734259 -2.028213 -0.339577 -2.726884 0.003785 -1.85554 -0.90189 1.042933 0.930181 0.561229 0.956561 0.220468 -1.219533 -0.188243 -0.649085 -0.117874 2.101841 -0.317004 1.300647 -1.49228 0.533457 -2.976113 -0.635474 -1.431524 -0.943268 0.543614 -2.072507 -1.004219 4.072807 -1.496014 2.612373 2.458477 -0.120651 0.418572 -2.53177 0.646754 2.04053 2.0667 -2.403623 -3.037353 -1.289071 1.269349 0.447478 0.512568 0.464348 -0.142416 -1.155552 0.32258 -0.986119 3.909852 3.839548 0.865499 -1.089316 -1.400134 0.517204 -3.398406 -0.576028 -0.612853 -0.573641 -1.979957 1.278503 1.159562 0.583915 -0.210028 0.851463 1.075476 2.276915 0.114312 2.2836 1.968815 1.899569 0.001135 -2.286771 -2.666814 -1.408445 1.975128 -0.085175 1.44887 -1.994305 2.796178
-0.034536 -0.125175 0.158552 0.03538 -0.072327 0.074902 0.055407 -0.024795 0.109899 -0.086138 -0.017064 0.081035 -0.152029 0.111313 0.094328 0.077553 -0.162004 0.138997 -0.123636 -0.01103 -0.014632 0.0674 0.089752 0.178229 -0.129657 -0.063272 -0.096769 0.019107 0.183826 -0.041714 -0.081645 -0.028951 -0.067856 0.208968 -0.076727 6.09E-4 0.095791 0.02998 0.131442 0.036719 0.043734 -0.030592 0.103599 0.039026 0.043346 0.009936 -0.093974 -1.4E-4 -0.079495 0.005356 0.08583 -0.036641 0.071825 -0.084164 0.01254 0.00449 -0.140188 0.080139 -0.07155 -0.044186 0.036816 -0.040001 0.060494 -0.061669 -0.197225 -0.056286 -0.104004 0.136182 0.025578 0.096599 -0.041605 -0.059427 -0.069678 0.037221 0.048166 -0.039409 -0.093071 -0.090468 -0.071333 -0.189162 0.198133 0.060829 0.013135 -0.221713 -0.043 -0.018496 0.023718 0.023411 0.022828 -0.005489 -0.212424 -0.066486 0.09013 0.176747 0.038348 -0.239805 -0.175462 -0.051011 0.065693 0.079449
-3.409231 0.455378 0.783566 2.4319 -3.887154 -1.575289 -2.334301 -1.995982 1.02876 3.445182 -3.400841 2.420574 0.169287 2.667914 -2.347579 1.838119 -1.361601 0.751769 -1.477945 -0.309074 0.991622 0.285115 -0.277255 0.2829 -0.821042 2.123334 2.712844 -0.066324 2.864994 -0.047857 0.988406 -2.665179 1.236336 0.872808 0.232516 -0.463697 1.556175 -0.4046 -2.277687 -0.502794 -0.75249 -0.935891 -0.746487 -2.293745 0.726239 0.685161 -0.336719 -0.945396 -1.695233 0.171014 1.304392 1.129754 2.352722 1.231348 0.651921 -0.362943 0.361547 1.227173 -0.956922 -3.430249 0.218206 -1.15649 0.714806 3.861133 1.500555 -0.462407 0.556368 0.057942 -1.057434 0.830703 1.824196 -0.677021 1.395281 -1.516891 -1.745842 0.438199 0.460842 2.24378 -1.762654 1.859074 -0.627382 -2.545322 -0.432571 0.084142 0.075195 -0.397788 -0.310222 0.512887 -0.378309 -2.384345 2.133306 -1.657938 0.64402 -0.266867 -4.183236 -0.191932 -0.323301 1.327878 0.969813 0.977082
-0.019303 -0.002529 -0.008422 0.115266 0.028528 0.037318 -0.171611 -0.119728 0.08063 0.123641 0.205162 0.12071 0.033668 -0.050189 0.029205 0.160692 0.102192 0.160543 0.019279 -0.006701 -0.046097 0.22825 0.183039 -0.002247 -0.195626 -0.026982 -0.115158 0.044293 0.015434 -0.147153 -0.05616 -0.040167 -0.025384 0.009314 -0.123721 -0.240182 0.052266 0.018256 0.061974 0.057055 0.214691 0.236485 0.001764 -0.022228 0.117568 0.037046 0.018025 -0.122168 -0.073133 -0.028363 0.068127 0.029865 0.107291 0.044675 0.143504 -0.03141 0.003965 0.039915 -0.03263 -0.097703 0.064074 -0.166368 -0.173704 -0.022724 -0.099146 -0.117954 0.187166 0.031134 -0.034354 -0.038352 -0.109104 -0.274885 0.059596 -0.048928 0.006633 -0.076135 0.007098 -0.031185 -0.109211 0.02168 0.12185 0.082277 0.034144 0.007481 -0.037421 0.062545 -0.068271 -0.06697 0.030207 0.002634 -0.10734 -0.058583 -0.021734 0.131197 0.062131 -0.189168 0.135714 -0.272799 -0.004568 0.012972
-0.023725 -0.265581 -0.041655 0.122232 0.026794 -0.088378 -0.095963 -0.07173 -0.107796 -0.053451 0.244892 0.188711 -0.170801 0.022715 -8.47E-4 0.204389 -0.068086 0.024141 0.111102 0.050266 -0.042829 -0.104548 0.056634 0.106866 -0.035671 -0.111641 0.164909 0.066612 0.15263 -0.04625 0.072838 0.047495 -0.171938 0.101539 -0.079368 -0.007698 0.092885 -0.147097 0.195496 -0.035855 -0.218068 -0.098775 0.231561 0.129023 -0.111343 -0.171763 -0.061107 -0.054208 0.042218 0.022472 0.07198 -0.214236 -0.161899 -0.018452 0.010509 -0.022686 0.086178 0.078149 -0.072518 -0.183167 0.119658 -0.068118 0.051934 -0.01767 -0.158406 -0.063514 -0.107352 0.120173 0.133667 0.053117 0.01506 -0.054873 0.029177 -0.089398 -0.004805 -0.012248 0.112717 -0.080168 -0.105325 -0.109812 -0.087183 -0.176569 0.227813 -0.2492 -0.148258 -0.003471 0.100996 0.024248 0.093904 0.123002 -0.140595 0.053374 -0.09475 -0.046893 -0.002508 -0.046196 0.066997 0.183339 -0.060206 -0.072608
0.003772 0.059917 -0.005339 -0.122639 -0.064394 0.020403 0.082146 0.085133 0.194471 -0.067586 0.075385 -0.009933 0.041241 0.042617 0.154404 0.00977 -0.044104 -0.112267 0.029421 0.049845 0.02723 0.017649 0.082491 0.160788 -0.001029 -0.011256 -0.121976 -0.108063 0.049015 0.006047 0.109804 0.116279 -0.045357 0.107098 0.167844 0.01025 0.157226 0.166732 -0.189593 0.064612 -0.074583 -0.117035 -0.06943 -0.032357 -0.053915 4.77E-4 -0.127866 -0.034624 0.020842 -0.081807 -0.024191 0.079707 -0.070059 0.046102 -0.137059 0.082153 -0.081451 -0.008189 0.038967 -0.089436 0.034118 0.037167 -0.059729 0.050838 -0.045312 0.14582 0.0542 0.070652 0.075883 0.071451 0.024234 -0.064983 -0.135816 -0.004871 0.097168 9.6E-5 0.023537 0.049276 -0.096959 -0.113435 0.199257 0.128414 0.086377 -0.151764 -0.119737 -0.189061 0.099777 -0.046698 0.025487 -0.110833 -0.060514 0.093381 -0.107849 0.121369 -0.006654 -0.097659 0.06927 -0.016069 0.131439 0.051263
1.519526 1.445578 -1.609499 2.582747 2.460795 3.529971 0.431498 -0.524736 0.238502 0.565084 -2.150664 2.607871 -3.578636 0.22885 1.205379 0.400126 -2.365878 -2.228676 -0.500047 -1.958516 -2.734259 -2.028213 -0.339577 -2.726884 0.003785 -1.85554 -0.90189 1.042933 0.930181 0.561229 0.956561 0.220468 -1.219533 -0.188243 -0.649085 -0.117874 2.101841 -0.317004 1.300647 -1.49228 0.533457 -2.976113 -0.635474 -1.431524 -0.943268 0.543614 -2.072507 -1.004219 4.072807 -1.496014 2.612373 2.458477 -0.120651 0.418572 -2.53177 0.646754 2.04053 2.0667 -2.403623 -3.037353 -1.289071 1.269349 0.447478 0.512568 0.464348 -0.142416 -1.155552 0.32258 -0.986119 3.909852 3.839548 0.865499 -1.089316 -1.400134 0.517204 -3.398406 -0.576028 -0.612853 -0.573641 -1.979957 1.278503 1.159562 0.583915 -0.210028 0.851463 1.075476 2.276915 0.114312 2.2836 1.968815 1.899569 0.001135 -2.286771 -2.666814 -1.408445 1.975128 -0.085175 1.44887 -1.994305 2.796178
-0.087255 -0.05591 0.054305 -0.024922 0.12279 0.041971 0.011628 -0.098172 0.13061 0.088978 0.139548 0.154385 0.10967 -0.074364 0.077608 0.342633 -0.019875 0.008986 0.121981 0.055307 -0.003396 0.250389 -0.003606 -0.027202 -0.077535 -1.16E-4 -0.00206 0.156913 0.196292 -0.041947 -0.256602 -0.075561 -0.331833 -0.028169 -0.227118 -0.023069 -0.031505 -0.123196 0.067817 0.109003 -0.150311 -0.176863 -0.003222 0.297853 0.06886 0.054723 0.197442 -0.009663 0.124548 -0.115984 -0.107457 -0.134223 -0.057877 0.014351 -0.020055 -0.038021 0.086742 0.251573 0.36257 0.003758 0.053095 -0.086013 -0.02227 -0.136233 -0.017961 0.053643 0.053971 -0.264445 0.141244 -0.001727 0.102822 -0.045402 0.072919 -0.05572 -0.011331 -0.015733 -0.123198 -0.088768 0.042072 -0.014455 -0.084923 -0.030051 0.101633 -0.145179 0.084003 0.006179 0.137993 -0.044962 0.159725 0.029218 -0.030525 -0.103093 -0.1477 -0.002794 0.039423 -0.078334 0.05768 0.210979 -0.090714 -0.257268
-0.046453 -0.114089 0.048378 0.039697 0.205342 -0.134425 0.195579 -0.187425 0.012362 -0.056148 -0.131226 -0.036605 -0.166618 -0.005606 0.011423 -0.035289 0.073024 0.049955 -0.03056 -0.116564 -4.0E-4 0.248965 0.168589 -0.016666 -0.127127 -3.18E-4 0.127741 -0.107854 0.05539 -0.111124 -0.041902 -0.11626 0.086201 0.191946 -0.031307 -0.026238 0.135582 -0.138117 -0.118683 -0.205278 -0.118941 0.075416 -0.021621 -0.074612 0.105553 0.141257 -0.097239 0.031083 -0.191864 0.157126 0.157338 0.018714 -0.190255 -0.078835 0.160698 0.051121 -0.022634 0.282011 -0.210636 0.065967 0.011387 -0.10215 -0.014587 8.06E-4 -0.126806 0.10146 -0.051249 -0.166886 0.138311 -0.092453 -0.203714 0.163209 0.126385 -0.163049 0.060969 -0.136489 -0.119169 0.143901 -0.166778 -0.074124 -0.205023 0.138254 -0.069697 -0.023512 0.056226 -0.151985 0.057434 -0.163405 0.084998 0.19969 0.169875 -0.038445 0.015784 -0.127481 -0.113888 -0.245198 0.065981 0.165014 0.001608 -0.042748
-2.246239 -3.342824 -1.551126 1.554407 -1.107162 0.418574 -0.760653 2.407401 0.988772 2.09549 -2.81652 2.054421 1.174136 3.286447 -0.375405 -1.495214 2.610921 3.306348 -2.354726 -0.78455 0.081982 0.188942 1.541562 -0.934418 0.392983 -0.252319 1.531387 -3.290363 0.841508 -0.189776 0.068038 1.350514 0.451591 -0.431192 0.35635 1.634673 -0.543643 -0.58436 -2.831524 1.670407 -0.706368 -0.600939 0.231471 -0.567145 -0.801383 0.93025 -0.645362 -1.752501 0.656909 2.145214 0.179768 1.342376 2.980975 1.489524 0.853942 1.368378 -0.360664 -0.005198 0.313664 1.114748 -1.461181 0.136825 0.19653 1.448169 -2.842129 -3.204191 1.983244 1.137049 0.20296 -1.997822 1.489303 -1.204854 2.387647 -0.531319 0.96486 -0.668274 2.512485 1.127192 -3.481768 -0.833552 0.768425 0.724822 -0.365612 -0.799073 1.167653 0.446596 0.106644 3.425451 -1.960255 1.600169 -0.147354 -2.182863 2.241475 -0.124152 -2.194555 -2.120423 -3.204686 1.259301 -1.135324 2.285435
-0.727026 -0.243374 0.42329 0.611633 -0.349525 0.511176 0.541932 -0.143953 -0.022034 -0.150815 -0.194068 0.738844 0.362591 0.264111 0.004736 0.049403 -0.294788 -0.135093 -0.130532 -0.134271 -0.389611 -0.369563 0.100979 0.034537 1.01436 0.174144 0.555414 -0.253593 0.359038 0.532272 0.009616 -0.137229 -0.002916 -0.433301 0.967024 0.236325 0.102311 -0.218743 0.323454 -0.587902 -0.663467 0.099239 0.051394 0.225735 0.135577 -0.108825 0.182737 -0.231704 -0.330815 0.025011 0.727785 -0.35406 -0.809248 0.282784 -0.423389 0.877461 -0.322211 -0.725292 0.066334 -0.467185 -0.807226 0.06301 -0.148459 -0.816525 -0.925857 0.211441 -0.485778 0.452974 1.137866 0.002413 0.971774 -0.2989 0.52549 -0.236231 0.06677 0.933763 -0.346806 -0.642728 -0.295482 0.809798 0.069974 -0.443577 -0.099631 0.237795 -0.811335 -0.626439 0.271294 0.231757 -0.138587 0.151634 -0.490879 -0.250363 -0.101381 0.155073 0.376867 -0.740925 0.196776 0.196293 0.043291 0.653773
0.0 0.0 0.0 0.0 0.0 0.0 0.0 0.0 0.0 0.0 0.0 0.0 0.0 0.0 0.0 0.0 0.0 0.0 0.0 0.0 0.0 0.0 0.0 0.0 0.0 0.0 0.0 0.0 0.0 0.0 0.0 0.0 0.0 0.0 0.0 0.0 0.0 0.0 0.0 0.0 0.0 0.0 0.0 0.0 0.0 0.0 0.0 0.0 0.0 0.0 0.0 0.0 0.0 0.0 0.0 0.0 0.0 0.0 0.0 0.0 0.0 0.0 0.0 0.0 0.0 0.0 0.0 0.0 0.0 0.0 0.0 0.0 0.0 0.0 0.0 0.0 0.0 0.0 0.0 0.0 0.0 0.0 0.0 0.0 0.0 0.0 0.0 0.0 0.0 0.0 0.0 0.0 0.0 0.0 0.0 0.0 0.0 0.0 0.0 0.0
-0.001318 -0.05875 -0.061915 0.099695 0.117901 -0.124576 0.119736 -0.193451 -0.087787 -0.189128 -0.064642 -0.050581 -0.101652 -0.022876 0.029231 0.11772 0.19566 -0.042056 -0.021224 0.005471 0.034069 0.185991 0.020125 -0.0433 0.092301 5.84E-4 0.077322 0.142715 0.062939 -0.147953 0.016347 0.169534 -0.031773 -0.001402 -0.073868 0.046445 -0.096469 -0.014874 -0.019373 0.009348 -0.092718 -0.150949 -0.044432 -0.065564 0.022509 -0.05091 -0.123035 -0.158409 0.089834 0.050496 0.001397 -0.095121 -0.048779 0.136087 0.109807 0.140662 -0.070356 0.093927 -0.081143 -0.114105 0.099816 -0.090324 -0.048417 -0.165587 -0.051446 -0.069064 -0.05704 -0.099343 -0.050005 -0.085566 -0.051046 7.38E-4 0.054649 0.016025 -0.082421 0.123276 -0.020673 0.115595 0.002861 0.023878 -0.028024 -0.031031 0.118558 -0.135953 -0.037737 0.129037 0.185698 0.036523 -0.107345 0.177924 -0.035487 -0.070799 -0.060343 -0.043525 0.119678 0.039079 -0.026843 -0.073081 -0.051001 0.062969
0.066568 -0.081278 0.100981 0.102564 -0.043418 0.075462 -0.110616 -0.143716 -0.072345 0.077418 0.100447 0.02813 0.012041 0.02642 -0.15283 0.044612 0.039562 -8.95E-4 -0.102143 -0.015735 -0.129298 0.016516 0.080142 0.117255 -0.056658 -0.088458 -0.151237 -0.129861 0.008654 -0.045055 0.033387 0.012222 -0.105032 0.037223 0.005555 -0.01168 -0.059403 -0.025774 -0.012711 0.009034 0.050269 0.13825 -0.04327 -0.079777 0.109222 -0.065204 -0.02253 0.097792 -0.195638 0.04776 -0.040266 0.002242 -0.01774 -0.105279 0.040907 0.074103 0.024719 -0.075222 0.071306 -0.142471 0.099755 -0.220127 0.015882 -0.024512 0.110202 -0.015355 0.052413 0.113298 0.126016 -0.056241 0.091406 -0.028486 0.176686 0.007125 -0.116761 -0.050868 0.037076 0.071667 -0.05843 -0.05608 0.170759 0.174251 -0.035713 -0.099577 0.124791 -0.007266 0.08273 -0.097223 0.143051 0.104299 0.035004 0.015354 -0.038987 0.118385 0.029603 0.01406 -0.202007 0.060657 -0.018117 -0.015999
0.0 0.0 0.0 0.0 0.0 0.0 0.0 0.0 0.0 0.0 0.0 0.0 0.0 0.0 0.0 0.0 0.0 0.0 0.0 0.0 0.0 0.0 0.0 0.0 0.0 0.0 0.0 0.0 0.0 0.0 0.0 0.0 0.0 0.0 0.0 0.0 0.0 0.0 0.0 0.0 0.0 0.0 0.0 0.0 0.0 0.0 0.0 0.0 0.0 0.0 0.0 0.0 0.0 0.0 0.0 0.0 0.0 0.0 0.0 0.0 0.0 0.0 0.0 0.0 0.0 0.0 0.0 0.0 0.0 0.0 0.0 0.0 0.0 0.0 0.0 0.0 0.0 0.0 0.0 0.0 0.0 0.0 0.0 0.0 0.0 0.0 0.0 0.0 0.0 0.0 0.0 0.0 0.0 0.0 0.0 0.0 0.0 0.0 0.0 0.0
0.0 0.0 0.0 0.0 0.0 0.0 0.0 0.0 0.0 0.0 0.0 0.0 0.0 0.0 0.0 0.0 0.0 0.0 0.0 0.0 0.0 0.0 0.0 0.0 0.0 0.0 0.0 0.0 0.0 0.0 0.0 0.0 0.0 0.0 0.0 0.0 0.0 0.0 0.0 0.0 0.0 0.0 0.0 0.0 0.0 0.0 0.0 0.0 0.0 0.0 0.0 0.0 0.0 0.0 0.0 0.0 0.0 0.0 0.0 0.0 0.0 0.0 0.0 0.0 0.0 0.0 0.0 0.0 0.0 0.0 0.0 0.0 0.0 0.0 0.0 0.0 0.0 0.0 0.0 0.0 0.0 0.0 0.0 0.0 0.0 0.0 0.0 0.0 0.0 0.0 0.0 0.0 0.0 0.0 0.0 0.0 0.0 0.0 0.0 0.0
0.0 0.0 0.0 0.0 0.0 0.0 0.0 0.0 0.0 0.0 0.0 0.0 0.0 0.0 0.0 0.0 0.0 0.0 0.0 0.0 0.0 0.0 0.0 0.0 0.0 0.0 0.0 0.0 0.0 0.0 0.0 0.0 0.0 0.0 0.0 0.0 0.0 0.0 0.0 0.0 0.0 0.0 0.0 0.0 0.0 0.0 0.0 0.0 0.0 0.0 0.0 0.0 0.0 0.0 0.0 0.0 0.0 0.0 0.0 0.0 0.0 0.0 0.0 0.0 0.0 0.0 0.0 0.0 0.0 0.0 0.0 0.0 0.0 0.0 0.0 0.0 0.0 0.0 0.0 0.0 0.0 0.0 0.0 0.0 0.0 0.0 0.0 0.0 0.0 0.0 0.0 0.0 0.0 0.0 0.0 0.0 0.0 0.0 0.0 0.0
-0.019201 0.028111 0.019217 0.052324 -0.012545 0.076041 0.041859 0.132425 -0.042682 -0.25324 0.153679 -0.052639 -0.234426 0.154245 0.001178 0.07083 0.073083 0.160228 0.024133 -0.054811 0.001969 0.005439 0.181016 0.099355 -0.126409 -0.051701 0.037309 -0.123638 0.247936 -0.162055 0.114555 0.125901 0.087982 0.08593 -0.090916 0.032607 0.058566 -0.084423 -0.083684 -0.120125 -0.142636 -0.134573 0.099572 -0.067549 0.144656 -0.140025 -0.119758 0.069446 0.087216 -0.032862 -0.006618 -0.111395 0.032981 -0.031112 -0.118341 0.110071 -0.111936 0.153878 0.041608 0.007703 0.064796 -0.130385 0.030277 0.045725 -0.1256 0.149386 -0.11782 -0.166733 0.122695 0.114102 -0.065025 -0.01284 -0.004014 -0.036946 -0.052576 0.183617 0.039352 -0.109896 0.002856 -0.049741 0.098582 -0.079185 0.058208 -0.092538 -0.020486 -0.024785 0.136707 0.03449 -0.090652 0.201497 -0.097455 0.025029 -0.120762 -0.013839 -0.051103 -0.067125 -0.00444 -0.252706 0.02388 -0.108891
-2.648351 -0.794316 -2.108887 0.20446 0.883061 0.242784 1.848653 1.149137 -4.975573 0.237654 -1.499665 2.924494 0.344217 -1.640431 0.763777 0.138944 -3.029439 -2.813434 -0.761102 -1.057557 -1.373735 -0.870599 1.234095 0.127805 -1.372618 1.35802 -1.501738 0.80945 0.172993 -0.484995 1.783363 -0.047587 0.483285 -1.526831 2.103549 2.116639 4.583491 -4.022388 -0.843817 0.361243 -0.546655 -2.301259 -2.000973 2.64631 -1.604053 -1.914206 -1.581895 -0.464185 1.757769 1.056301 0.263866 -0.904419 -0.422466 0.007824 -1.651553 0.7499 1.638666 -0.336108 -3.288466 -2.953238 -1.135414 1.165223 -1.047256 -0.821696 -0.135806 0.434207 -2.389307 -3.56953 -0.656773 0.578325 3.337902 0.782195 -1.250815 2.925509 -1.981492 0.121786 0.836257 1.710923 -2.640405 -0.628995 0.247469 0.863847 1.749171 -0.214156 -0.274807 2.192709 -0.892334 -1.614644 -1.225919 -0.042182 2.51632 3.464583 -3.591523 -2.506587 0.990426 1.8843 -2.460629 0.953462 0.359605 2.267383
-0.021809 0.027874 -0.1183 -0.014798 -0.04027 0.036087 -0.026677 -0.11823 0.018636 0.059099 0.021554 0.111144 -0.127783 0.035696 0.008757 0.041177 -0.115758 0.092313 -0.017021 -0.005947 -0.142381 -0.119443 0.176836 0.238909 0.071724 -0.023996 0.034427 -0.053442 -0.015806 -0.245017 0.093464 0.1984 8.95E-4 -0.007571 -0.188739 0.064052 -0.040487 -0.084491 0.076731 -0.005023 -0.113765 0.008146 0.080496 0.064331 -0.008054 -0.036437 0.02266 0.028235 -0.093358 0.079873 0.077239 -0.148998 -0.101359 0.047654 -0.246306 -0.11849 0.106899 0.143151 -0.115638 -0.094289 0.133745 -0.065863 0.172708 0.187109 0.093154 -0.057844 0.028105 -0.027515 0.032107 -0.024108 0.065288 -0.043379 0.04258 -0.059404 0.080375 -0.069887 0.058943 -0.037901 0.035446 -0.075564 -0.034222 0.102886 0.024289 0.167547 -0.175277 0.129022 0.093667 -0.174273 -0.093221 0.122252 0.06737 0.092314 0.013605 -0.129282 -0.01963 -0.021677 0.111655 0.025519 -0.016685 0.089855
0.04236 0.027317 0.096787 -0.003273 0.363426 0.020653 0.128489 0.010289 -0.015891 0.013677 0.089249 0.095906 0.025335 0.03605 -0.071707 0.206592 -0.288938 -0.075102 0.006917 -0.187469 -0.009548 0.073867 -0.0375 -0.207659 0.240762 -0.209603 -0.0243 0.105699 -0.029159 0.058607 0.103752 -0.070071 -0.028241 -0.114498 -0.145351 -0.260223 0.160206 -0.254464 0.135762 -0.036422 -0.001636 -0.091617 0.109245 0.228398 -0.013185 0.005608 0.07342 0.052507 0.032209 -0.088938 -0.020317 0.23168 -0.100572 -0.04145 -0.265263 -0.01527 -0.137783 0.012225 0.077193 -0.017946 -0.143133 0.028437 -0.137414 0.017327 -0.011994 -0.016957 0.067215 0.024918 -0.088842 -0.002175 0.099762 0.072224 0.002254 0.184327 -0.068796 0.142422 -0.084859 0.01019 -0.132051 0.001379 0.047188 0.251475 -0.004778 -0.03872 0.2241 0.109994 0.054307 -0.042031 -0.01285 0.116187 0.024475 -0.045611 -0.338832 -0.039359 0.080552 -0.09988 0.058742 0.130271 -0.083054 0.098385
2.13E-4 -0.049307 0.072899 0.006129 0.050615 0.012467 -0.097711 -0.035589 -0.162331 -0.140429 0.01302 0.084477 -0.060589 0.117149 -0.009214 0.06867 -0.092715 0.010699 -0.032614 -0.059592 0.03963 0.027581 0.02697 0.142012 -0.011719 -0.005771 0.020724 0.025448 0.197659 -0.084795 0.041242 -0.165967 -0.001382 0.137198 0.03344 -0.028928 0.093898 0.010328 0.149239 -0.003898 -0.009222 -0.160735 -2.63E-4 0.110294 -0.121119 0.0268 0.00304 -0.031128 -0.091666 -0.016481 0.046048 -0.0154 -0.232481 -0.085101 0.020624 -0.035974 -0.109907 -0.0055 -0.027902 -0.109031 -0.089104 -0.059246 -0.295593 -0.156424 0.026911 0.134819 -0.113929 0.001699 0.165319 0.079719 0.044356 0.022627 0.093824 -0.04391 0.133565 -0.129784 -0.059288 -0.109577 -0.071097 -0.034371 -0.020688 0.041542 0.074053 -0.074511 -0.04548 0.023734 0.014272 -0.034788 0.061586 -0.016588 -0.130291 0.073905 -0.061896 0.076689 -0.015738 -0.028718 0.026226 0.142794 0.038859 0.095937
-0.044168 -0.117803 0.268406 0.010394 -0.149524 -0.089151 -0.06082 -0.197596 0.008691 0.156768 0.181038 0.129038 0.016221 -0.036438 0.194856 -0.04805 0.086882 0.14071 -0.021328 0.144548 -0.099619 -0.027536 0.077552 -0.019067 -0.056166 -0.122477 0.067205 -0.063809 0.187353 -0.209682 0.11108 -0.107491 0.084212 -0.087898 0.010019 -0.056394 -0.044743 0.025779 0.023802 0.038703 -0.179303 0.15181 0.12928 -0.192353 0.002072 0.008051 0.024824 -0.054588 -0.226083 0.028261 0.088953 -0.086445 -0.123716 -0.111986 -0.012371 -0.125387 0.024884 -0.062936 -0.040219 -0.03747 -0.025231 -0.013628 -0.059983 0.0825 -0.06748 -0.038068 -0.013155 0.017313 -0.01329 0.044503 -0.040359 -0.077016 -0.036321 0.045117 -0.028982 0.049528 -0.052906 0.034939 -0.175837 -0.0236 -0.138658 -0.086626 0.101315 -0.13255 -0.104777 0.066496 -0.031145 0.053452 0.179524 -0.073092 -0.135615 0.088795 0.116699 0.049621 -0.055746 -0.032017 0.133126 0.150626 0.036434 -0.185126
0.060589 0.011417 0.044043 0.003035 -0.031687 -0.093862 -0.02546 -0.001299 0.045352 0.079939 0.220729 0.17079 -0.13606 0.09828 0.151429 0.102683 -0.043894 0.171398 -0.061698 0.004764 -0.020539 0.059526 0.13831 0.155409 -0.034684 -0.084537 0.063673 0.045146 0.247284 -0.292189 0.034692 -0.025793 0.094335 0.172263 0.045233 -0.02372 0.070817 -0.029726 -0.086155 0.025896 -0.074822 -0.037976 0.00952 0.020839 0.053407 -0.097107 -0.021214 0.017771 -0.001698 -0.124655 0.136661 -0.139381 -0.113528 -0.033204 0.149994 0.014432 -0.051002 -0.103533 0.039247 -0.159025 0.032098 -0.078212 -0.027019 -0.12256 -0.005065 -0.071103 -0.052674 0.125948 -0.034649 0.161429 -0.153411 -0.011595 -0.039618 -0.045692 -0.051084 -0.015296 0.028964 -0.019612 -0.002999 -0.083688 0.070337 0.074292 0.109922 -0.268538 0.074152 -0.086813 0.140775 0.06524 0.067809 0.037349 0.062841 -0.163058 -0.125298 0.040573 0.019118 0.082663 0.14099 -0.039204 0.131427 0.125448
0.0 0.0 0.0 0.0 0.0 0.0 0.0 0.0 0.0 0.0 0.0 0.0 0.0 0.0 0.0 0.0 0.0 0.0 0.0 0.0 0.0 0.0 0.0 0.0 0.0 0.0 0.0 0.0 0.0 0.0 0.0 0.0 0.0 0.0 0.0 0.0 0.0 0.0 0.0 0.0 0.0 0.0 0.0 0.0 0.0 0.0 0.0 0.0 0.0 0.0 0.0 0.0 0.0 0.0 0.0 0.0 0.0 0.0 0.0 0.0 0.0 0.0 0.0 0.0 0.0 0.0 0.0 0.0 0.0 0.0 0.0 0.0 0.0 0.0 0.0 0.0 0.0 0.0 0.0 0.0 0.0 0.0 0.0 0.0 0.0 0.0 0.0 0.0 0.0 0.0 0.0 0.0 0.0 0.0 0.0 0.0 0.0 0.0 0.0 0.0
1.519526 1.445578 -1.609499 2.582747 2.460795 3.529971 0.431498 -0.524736 0.238502 0.565084 -2.150664 2.607871 -3.578636 0.22885 1.205379 0.400126 -2.365878 -2.228676 -0.500047 -1.958516 -2.734259 -2.028213 -0.339577 -2.726884 0.003785 -1.85554 -0.90189 1.042933 0.930181 0.561229 0.956561 0.220468 -1.219533 -0.188243 -0.649085 -0.117874 2.101841 -0.317004 1.300647 -1.49228 0.533457 -2.976113 -0.635474 -1.431524 -0.943268 0.543614 -2.072507 -1.004219 4.072807 -1.496014 2.612373 2.458477 -0.120651 0.418572 -2.53177 0.646754 2.04053 2.0667 -2.403623 -3.037353 -1.289071 1.269349 0.447478 0.512568 0.464348 -0.142416 -1.155552 0.32258 -0.986119 3.909852 3.839548 0.865499 -1.089316 -1.400134 0.517204 -3.398406 -0.576028 -0.612853 -0.573641 -1.979957 1.278503 1.159562 0.583915 -0.210028 0.851463 1.075476 2.276915 0.114312 2.2836 1.968815 1.899569 0.001135 -2.286771 -2.666814 -1.408445 1.975128 -0.085175 1.44887 -1.994305 2.796178
-0.044698 -0.030866 0.067208 -0.023362 0.001588 -0.143258 -0.150608 0.031793 0.017507 -0.039211 0.116793 0.079085 -0.166813 0.109683 0.175545 0.158837 -0.00951 0.108005 0.025992 0.015567 -0.041601 0.173529 0.159149 0.09701 -0.136182 -0.103074 0.025796 -0.002071 0.179919 -0.113845 -0.101847 -0.044937 -0.076045 0.090954 -0.096416 -0.075836 0.023543 -0.044876 -0.024673 0.012696 0.102552 -0.053078 0.125659 0.060564 0.058775 -0.01482 -0.030471 -0.082313 -0.083804 0.064776 0.067582 -0.305645 0.074006 -0.008561 0.069958 0.138558 -0.025583 -0.029433 -0.030034 -0.008052 0.072695 -0.094653 -0.046802 -0.161979 -0.145393 -0.02186 -0.13489 -0.02689 0.130605 0.042335 -0.074996 -0.085804 -0.043747 -0.064319 0.103825 -0.033447 -0.064304 -0.03183 0.006656 -0.069848 0.026266 0.029747 -0.025321 -0.220697 -0.136514 0.043146 -0.044146 -0.020478 0.116375 -0.009825 -0.209126 -0.100329 -0.147475 0.263184 -0.012499 -0.058959 0.039589 -0.025855 -0.045559 -0.116405
-3.409231 0.455378 0.783566 2.4319 -3.887154 -1.575289 -2.334301 -1.995982 1.02876 3.445182 -3.400841 2.420574 0.169287 2.667914 -2.347579 1.838119 -1.361601 0.751769 -1.477945 -0.309074 0.991622 0.285115 -0.277255 0.2829 -0.821042 2.123334 2.712844 -0.066324 2.864994 -0.047857 0.988406 -2.665179 1.236336 0.872808 0.232516 -0.463697 1.556175 -0.4046 -2.277687 -0.502794 -0.75249 -0.935891 -0.746487 -2.293745 0.726239 0.685161 -0.336719 -0.945396 -1.695233 0.171014 1.304392 1.129754 2.352722 1.231348 0.651921 -0.362943 0.361547 1.227173 -0.956922 -3.430249 0.218206 -1.15649 0.714806 3.861133 1.500555 -0.462407 0.556368 0.057942 -1.057434 0.830703 1.824196 -0.677021 1.395281 -1.516891 -1.745842 0.438199 0.460842 2.24378 -1.762654 1.859074 -0.627382 -2.545322 -0.432571 0.084142 0.075195 -0.397788 -0.310222 0.512887 -0.378309 -2.384345 2.133306 -1.657938 0.64402 -0.266867 -4.183236 -0.191932 -0.323301 1.327878 0.969813 0.977082
-0.019303 -0.002529 -0.008422 0.115266 0.028528 0.037318 -0.171611 -0.119728 0.08063 0.123641 0.205162 0.12071 0.033668 -0.050189 0.029205 0.160692 0.102192 0.160543 0.019279 -0.006701 -0.046097 0.22825 0.183039 -0.002247 -0.195626 -0.026982 -0.115158 0.044293 0.015434 -0.147153 -0.05616 -0.040167 -0.025384 0.009314 -0.123721 -0.240182 0.052266 0.018256 0.061974 0.057055 0.214691 0.236485 0.001764 -0.022228 0.117568 0.037046 0.018025 -0.122168 -0.073133 -0.028363 0.068127 0.029865 0.107291 0.044675 0.143504 -0.03141 0.003965 0.039915 -0.03263 -0.097703 0.064074 -0.166368 -0.173704 -0.022724 -0.099146 -0.117954 0.187166 0.031134 -0.034354 -0.038352 -0.109104 -0.274885 0.059596 -0.048928 0.006633 -0.076135 0.007098 -0.031185 -0.109211 0.02168 0.12185 0.082277 0.034144 0.007481 -0.037421 0.062545 -0.068271 -0.06697 0.030207 0.002634 -0.10734 -0.058583 -0.021734 0.131197 0.062131 -0.189168 0.135714 -0.272799 -0.004568 0.012972
0.0 0.0 0.0 0.0 0.0 0.0 0.0 0.0 0.0 0.0 0.0 0.0 0.0 0.0 0.0 0.0 0.0 0.0 0.0 0.0 0.0 0.0 0.0 0.0 0.0 0.0 0.0 0.0 0.0 0.0 0.0 0.0 0.0 0.0 0.0 0.0 0.0 0.0 0.0 0.0 0.0 0.0 0.0 0.0 0.0 0.0 0.0 0.0 0.0 0.0 0.0 0.0 0.0 0.0 0.0 0.0 0.0 0.0 0.0 0.0 0.0 0.0 0.0 0.0 0.0 0.0 0.0 0.0 0.0 0.0 0.0 0.0 0.0 0.0 0.0 0.0 0.0 0.0 0.0 0.0 0.0 0.0 0.0 0.0 0.0 0.0 0.0 0.0 0.0 0.0 0.0 0.0 0.0 0.0 0.0 0.0 0.0 0.0 0.0 0.0
0.0 0.0 0.0 0.0 0.0 0.0 0.0 0.0 0.0 0.0 0.0 0.0 0.0 0.0 0.0 0.0 0.0 0.0 0.0 0.0 0.0 0.0 0.0 0.0 0.0 0.0 0.0 0.0 0.0 0.0 0.0 0.0 0.0 0.0 0.0 0.0 0.0 0.0 0.0 0.0 0.0 0.0 0.0 0.0 0.0 0.0 0.0 0.0 0.0 0.0 0.0 0.0 0.0 0.0 0.0 0.0 0.0 0.0 0.0 0.0 0.0 0.0 0.0 0.0 0.0 0.0 0.0 0.0 0.0 0.0 0.0 0.0 0.0 0.0 0.0 0.0 0.0 0.0 0.0 0.0 0.0 0.0 0.0 0.0 0.0 0.0 0.0 0.0 0.0 0.0 0.0 0.0 0.0 0.0 0.0 0.0 0.0 0.0 0.0 0.0
-0.23678 1.033874 2.228066 3.176897 0.584204 -0.854819 1.473061 -0.571373 3.457449 0.414708 1.709069 -2.293944 0.940995 -0.603305 0.923832 1.28038 -1.995408 1.917336 -0.140967 -2.339575 -1.761346 0.618438 -1.899691 0.162212 1.377124 2.678505 0.995308 1.325463 -2.464541 0.44884 4.409874 -0.234356 -1.513671 -2.145196 1.506207 -1.414359 1.29556 -0.86995 -0.785569 3.110985 -0.194971 0.019161 0.579698 -1.689589 4.072904 0.31727 0.917453 1.669608 -0.922573 0.835034 -0.449917 -1.860502 0.118345 0.512606 -4.128139 -3.289437 3.044378 3.417445 0.188661 -0.410384 0.428361 2.195748 -1.49348 0.734764 -1.277975 1.467498 0.972185 -0.272831 0.817888 0.424416 0.939135 0.94219 -0.405989 2.300405 -0.086063 -2.945442 0.727482 -0.302588 0.343105 -0.619833 -1.461622 -1.913849 1.695507 1.40887 -0.564466 0.576334 -0.283839 0.367199 -3.877107 -1.307594 0.84063 1.335198 -0.582967 1.455607 -2.468655 -0.362579 -1.981246 -0.102988 1.634987 -0.071659
0.066568 -0.081278 0.100981 0.102564 -0.043418 0.075462 -0.110616 -0.143716 -0.072345 0.077418 0.100447 0.02813 0.012041 0.02642 -0.15283 0.044612 0.039562 -8.95E-4 -0.102143 -0.015735 -0.129298 0.016516 0.080142 0.117255 -0.056658 -0.088458 -0.151237 -0.129861 0.008654 -0.045055 0.033387 0.012222 -0.105032 0.037223 0.005555 -0.01168 -0.059403 -0.025774 -0.012711 0.009034 0.050269 0.13825 -0.04327 -0.079777 0.109222 -0.065204 -0.02253 0.097792 -0.195638 0.04776 -0.040266 0.002242 -0.01774 -0.105279 0.040907 0.074103 0.024719 -0.075222 0.071306 -0.142471 0.099755 -0.220127 0.015882 -0.024512 0.110202 -0.015355 0.052413 0.113298 0.126016 -0.056241 0.091406 -0.028486 0.176686 0.007125 -0.116761 -0.050868 0.037076 0.071667 -0.05843 -0.05608 0.170759 0.174251 -0.035713 -0.099577 0.124791 -0.007266 0.08273 -0.097223 0.143051 0.104299 0.035004 0.015354 -0.038987 0.118385 0.029603 0.01406 -0.202007 0.060657 -0.018117 -0.015999
-0.003465 -0.085925 0.309348 0.012957 0.044396 -0.042277 0.013396 -0.071787 -0.040222 0.212581 0.17221 0.142445 -0.147818 -0.130582 0.01288 -0.01223 -0.148616 0.021981 0.091887 0.038833 -0.133816 -0.19815 -0.0889 0.08632 0.132227 -0.042381 -0.009611 0.17978 0.061906 -0.037539 -0.034656 0.041142 -0.01597 0.146403 -0.04125 0.054317 0.010996 -0.025074 0.054296 0.11926 -0.160051 0.022857 0.034271 0.029967 -0.070275 0.212581 0.040451 0.020928 -0.109185 0.179178 -0.150577 -0.008287 0.120096 -0.209999 -0.140033 0.213416 -0.043304 0.186578 -0.112812 -0.091623 0.153084 -0.225488 0.155408 -0.1132 0.138309 0.096647 0.042278 -0.054437 0.12398 -0.017856 -0.132228 0.006294 0.109144 0.091906 0.025365 -0.082891 -0.024962 0.162845 0.002552 -0.216668 -0.023021 0.107203 0.032077 -0.13676 0.096828 0.006281 0.094631 0.001516 0.089011 0.035318 0.002971 0.124499 0.050338 -0.126276 -0.087852 -0.109949 -0.006443 0.00213 0.151085 -0.052029
-0.081243 0.014288 0.141832 0.169835 -0.07063 0.050423 0.007212 0.023369 0.028444 0.065155 0.029187 0.144009 0.017439 0.058671 0.179832 0.294625 -0.077976 0.072793 -0.083347 -0.052646 -0.139295 -0.174095 0.05428 0.096476 -0.146998 -0.137157 -0.091675 0.110618 0.039667 -0.003738 0.001405 0.046183 -0.165569 0.071849 0.026565 -0.040881 0.022336 -0.076486 -0.233142 -0.086342 0.116275 0.050207 -0.061 -0.004084 -0.063425 0.080617 0.010602 0.021403 -0.027368 0.093415 0.20316 -0.078762 0.113226 0.082109 0.027331 -0.190902 -0.160979 0.007501 -0.010056 -0.044335 0.019743 -0.033257 -0.155777 -0.038802 -0.016117 0.087647 0.140413 0.013305 0.093126 0.003327 0.028678 0.019731 0.195813 0.003292 -0.037918 -0.044588 -0.063843 0.189522 -0.122383 -0.139708 0.00695 0.029982 0.073643 -0.076897 -0.036372 -0.112628 0.124654 0.048208 0.049204 -0.042779 -0.071155 -0.050936 -0.0422 0.147996 -0.183973 -0.145161 0.074129 -0.074563 0.065068 -0.012333
0.047836 -0.260219 0.14638 0.007779 -0.104955 -0.050724 -0.319432 -0.027407 -0.104778 0.124311 0.14477 0.148278 -0.013076 -0.069917 0.254554 0.25292 0.091697 0.206138 0.168034 0.12307 -0.258927 -0.00695 0.102032 0.075771 -0.201948 -0.129118 -0.138297 -0.097396 0.264104 -0.141635 -0.00303 -0.004618 -0.171331 0.006413 -0.129962 -0.058793 -0.107657 -0.040955 0.117533 0.181708 -0.064138 0.225566 -0.062915 -0.035464 0.269723 -0.089994 -0.005719 -0.078063 -0.215832 0.079343 0.266575 -0.25419 -0.128297 0.038341 0.119308 -0.207662 -0.029523 0.019236 0.024436 -0.109361 0.007955 -0.078744 0.071111 -0.325345 -0.091151 0.006054 0.103893 0.156867 0.20827 -0.195221 -0.011492 -0.084134 -0.077224 -0.110934 0.098004 -0.068865 -0.108344 -0.153112 -0.094614 -0.187216 -0.01459 0.218526 0.241999 -0.141711 0.084584 0.252269 0.155438 -0.088298 0.260633 0.198838 -0.176457 -0.052125 -0.045839 0.131111 -0.115358 -0.197565 0.088973 -0.089591 0.060949 -0.086675
