0.0 0.0 0.0 0.0 0.0 0.0 0.0 0.0 0.0 0.0 0.0 0.0 0.0 0.0 0.0 0.0 0.0 0.0 0.0 0.0 0.0 0.0 0.0 0.0 0.0 0.0 0.0 0.0 0.0 0.0 0.0 0.0 0.0 0.0 0.0 0.0 0.0 0.0 0.0 0.0 0.0 0.0 0.0 0.0 0.0 0.0 0.0 0.0 0.0 0.0 0.0 0.0 0.0 0.0 0.0 0.0 0.0 0.0 0.0 0.0 0.0 0.0 0.0 0.0 0.0 0.0 0.0 0.0 0.0 0.0 0.0 0.0 0.0 0.0 0.0 0.0 0.0 0.0 0.0 0.0 0.0 0.0 0.0 0.0 0.0 0.0 0.0 0.0 0.0 0.0 0.0 0.0 0.0 0.0 0.0 0.0 0.0 0.0 0.0 0.0
-0.109347 0.123508 0.083346 0.111547 -0.166188 0.02015 -0.042947 -0.197937 -0.023433 -0.089967 -0.039518 0.149492 0.006962 -0.07513 0.154663 0.096287 -0.115469 0.140077 -0.05781 0.083524 -0.054744 0.076179 0.096762 0.097932 -0.087052 0.053567 -0.145496 0.041947 0.116022 -0.27431 0.181244 -0.01337 -0.059163 0.079999 0.068131 0.016707 0.221404 0.04039 -0.107379 -0.217243 0.179313 -0.037872 -0.224225 0.001913 -0.058138 -0.047708 -0.112982 0.110664 0.17942 0.150539 -0.043809 -0.002113 0.01779 -0.166794 0.053337 0.068357 -0.138706 0.024912 -0.069963 -0.270942 0.011497 0.112424 -0.108962 -0.134457 -0.131609 0.054849 -0.170615 0.097895 -0.045438 0.060327 -0.103618 -0.002258 0.197238 0.096072 0.001996 0.0854 -0.065276 -0.096871 0.009313 -0.023235 -0.075477 0.059339 0.037477 0.106301 -0.29167 0.029407 0.060953 -0.004085 0.042639 0.005675 -0.068779 0.013799 -0.117205 0.086553 -0.114042 -0.170835 0.046114 -0.031228 0.072254 0.037032
-0.006993 -0.025835 -0.127843 0.17901 -0.136427 0.070449 0.061855 0.104498 0.02731 0.073511 -0.211566 0.136074 0.170456 -0.030842 -0.027289 -0.090656 -0.067216 -0.048426 0.096063 -0.141393 -0.049789 -0.20631 -0.028467 0.046578 0.117045 -0.250651 -0.266789 -0.104364 0.010602 -0.016813 -0.032825 0.136897 -0.083129 0.004436 -0.188623 4.9E-5 -0.092451 0.103031 0.057918 -0.113618 0.083994 0.092945 0.033383 -0.051681 0.012467 0.03443 -0.27294 -0.13256 0.013147 -0.05595 0.136553 0.139732 -0.002168 0.147918 0.036717 0.002897 -0.122157 -0.018829 0.033312 -0.107268 0.112977 -0.069713 -0.038755 0.153413 0.080324 -0.175465 0.044688 -0.144879 -0.100857 0.175959 0.194846 0.003166 0.086877 0.086657 0.04348 -0.211217 0.001385 0.073216 -0.114863 0.084934 0.023398 0.14967 -0.154784 0.162754 0.059008 0.090088 0.081417 0.018109 -0.076714 0.12431 0.119636 -0.065971 0.045677 -0.070169 0.022138 0.054626 0.155322 0.012951 0.114496 0.143989
-0.05814 -0.062277 0.091184 -0.080975 0.144662 0.148161 -0.041767 -0.119678 0.109622 0.071139 -0.199972 0.102128 -0.159858 -0.115942 0.134345 0.00651 -0.11432 0.07425 -0.078253 -0.078827 0.037085 -0.027536 0.186737 -0.139724 0.0829 -0.0475 0.023973 -0.102927 0.176881 -0.157865 0.14822 0.15949 0.10708 0.0089 -0.105193 0.015571 -0.014076 0.019537 -0.037472 0.063981 -0.077142 -0.153103 -0.18119 0.018924 0.206887 -0.021668 -0.185453 0.046066 0.133803 -0.080372 -0.112137 -0.051348 -0.192664 -0.179056 0.042807 0.229413 -0.160986 0.10713 -0.150806 -0.133955 -0.01159 0.01072 0.045888 -0.071638 -0.113676 -0.020209 -0.080992 0.113846 -0.044839 0.220387 0.051287 0.07076 0.082176 0.108409 -0.024652 0.075212 -0.064234 -0.105619 -0.110633 0.001542 0.081624 0.041049 -0.036275 0.062964 -0.04951 -0.130326 0.112317 0.04157 -0.044447 -0.045847 -0.039373 -0.052743 -0.165545 -0.065632 0.253525 -0.234858 0.110225 -0.133297 -0.06964 0.227271
-0.430826 -0.880047 -0.520115 0.162638 -0.928455 0.090947 -0.208959 0.204842 0.074801 -0.334001 0.060179 0.298521 0.387054 0.364234 0.407994 -0.891857 0.363147 0.765344 0.339847 0.304973 -0.966917 0.169213 1.101462 -0.713649 0.004441 -0.122901 0.703775 0.250961 -0.178031 -0.089696 -0.126926 -0.104187 0.590165 -0.307502 -0.660964 1.278865 -0.451219 0.145959 -0.568248 -0.327204 0.574255 0.443886 -0.685765 -0.510451 0.025135 -0.244457 -0.073016 0.665145 -0.228434 0.18769 0.220331 0.056178 0.734204 0.662039 0.248642 -0.333233 -0.293138 -0.307286 -0.137423 0.528365 0.498778 -0.904311 0.57356 -0.163555 -0.210318 -0.177 0.393316 -0.068984 0.135294 0.626368 -0.391308 -0.123889 -0.099593 0.041508 -0.342211 0.199866 -0.140446 0.152624 -0.109076 -0.379548 -0.504862 -0.322752 0.171686 -0.592038 0.775457 0.288657 -0.063577 0.778027 0.228874 0.688665 -1.509923 0.38091 0.321577 0.295825 0.44438 0.014294 -0.356388 0.438261 0.564111 0.238054
0.08333 -0.037893 0.281329 0.238427 0.067439 0.084643 -0.077387 0.11055 -0.052081 -0.097032 -0.16393 0.085859 -0.02912 -0.056296 0.224549 0.170484 0.242889 -0.078758 0.138833 0.11098 -0.220212 -0.054574 0.410354 -0.145246 -0.144643 -0.068328 0.116717 0.032101 0.217689 -0.293266 -0.106049 0.031485 -0.094824 0.065011 -0.182392 0.065604 -0.106198 -0.093948 -0.036305 0.03314 -0.079333 -0.265343 -0.093003 -0.160387 0.105655 0.057086 0.086249 -0.149259 -0.058267 0.010682 -0.22518 0.017714 -0.009262 -0.190635 0.05512 0.265024 0.212149 -0.059444 -0.210648 0.037414 0.024199 -0.132298 -0.248532 -0.052782 -0.03287 -0.156737 -0.023506 0.027967 -0.168219 -0.229661 0.175978 0.048195 -0.150565 0.112856 -0.077871 0.219903 0.063112 0.073335 -0.007614 3.83E-4 -0.168623 -0.050102 -0.043801 -0.210639 0.139778 -0.052271 8.11E-4 -0.14837 0.128303 0.370421 -0.072907 0.029266 0.064003 -0.03025 0.099528 -0.151627 -0.077718 0.031778 -0.042349 0.133831
0.017885 -0.123408 -0.504537 0.788475 0.326856 0.42651 -0.359456 0.29359 -0.123632 0.181069 0.898997 0.141579 -0.561764 0.152794 0.088499 0.461028 0.211361 -0.326019 -0.079641 0.362359 0.127542 0.614683 0.206348 -0.750828 0.435352 -0.978969 0.011695 0.669185 -0.458348 0.413499 -0.681479 -0.616754 -0.271382 -0.01288 -0.063509 -0.588472 0.749395 -0.516377 0.770907 0.009178 -0.400888 -0.329947 0.112798 0.246116 0.54259 0.423855 0.017549 1.074395 -0.256892 -0.41848 -0.474485 -0.06633 -1.441792 0.453126 -1.232847 0.100859 0.800269 0.019221 0.412405 -0.027208 -0.40131 0.267598 0.192402 0.483539 -0.823318 -0.689752 -0.175907 -1.10585 0.321154 -1.072135 -0.915951 -0.270084 -0.706483 -0.172365 -0.816456 -0.474673 -1.455693 0.155438 -0.469033 1.225765 0.807964 -0.19098 0.48237 -0.882162 0.355519 -0.00542 0.656418 -0.264874 0.370615 0.091405 0.279324 0.009635 -0.777042 -0.047847 0.063913 -0.826277 -0.371543 -0.137762 -0.436053 -0.178945
-4.194042 -0.233536 -1.551393 -1.436002 0.963072 0.212121 -1.299033 -0.54119 1.254842 -1.145815 1.621999 1.588187 2.359652 4.148014 3.837279 0.149244 -0.80387 0.728564 -0.054286 -0.080086 -1.068105 0.963121 0.637301 2.284282 -0.48055 -0.518287 -2.697062 -1.30798 2.85232 1.481156 3.037962 0.922852 1.993337 -1.193202 0.160974 -0.03343 1.197721 0.888317 -1.996224 -4.279015 -0.50306 -2.703065 -2.402777 -4.127532 -1.689975 0.880217 -1.509903 0.74782 1.195876 1.915012 1.120881 0.813027 1.404913 3.901928 -1.387876 -0.45704 -1.063307 0.948002 -0.215314 -1.022764 -2.09713 3.651276 -0.15371 0.068765 1.290807 -2.00256 -0.175595 2.141203 4.600657 1.707044 -2.45791 -1.401391 -1.058517 -2.406354 -1.730021 1.824032 -1.721315 -2.492026 1.392719 2.744462 -2.305818 -1.961275 -0.803386 -3.294678 3.113909 -0.34678 4.058556 -0.512112 0.531645 1.236622 2.251031 -0.260383 -0.541571 3.38599 2.767859 -2.483203 -1.60493 1.92894 1.281544 0.11827
-0.064357 -0.033406 -0.006591 0.181457 0.041885 0.1408 -0.109843 0.016376 0.068228 -0.045519 0.005233 0.012036 0.05064 -0.052642 0.185426 0.139427 -0.155023 0.12963 0.063368 -0.055016 -0.054854 -0.018229 0.216037 -0.004417 -0.285826 -0.095238 -0.069825 -0.021777 0.187402 -0.130867 -0.00675 -0.075803 -0.044586 0.061098 0.044502 -0.138919 0.031721 -0.005549 0.063477 5.3E-5 0.101342 0.067759 0.180205 0.110423 -0.107152 0.014466 -0.095647 -0.001514 -0.13148 0.090497 0.038783 -0.236052 -0.139813 -0.061498 0.050517 -0.013343 -0.001507 0.083055 0.065801 -0.03321 0.124938 -0.104659 -0.042903 -0.049201 -0.088403 -0.030678 0.055664 0.085579 0.303591 -0.024133 0.025756 -0.085778 0.02809 -0.058313 0.028445 -0.065808 -0.182156 -0.019053 0.014958 -0.002839 -0.024485 0.159415 0.06125 -0.100844 0.111327 0.042033 0.023134 -0.078359 0.169092 -0.074151 -0.058673 0.083338 0.03916 0.23854 -0.125673 0.017002 0.129169 0.039082 0.127676 0.034378
-0.125002 -0.066817 -0.180766 -0.059979 -0.092662 0.094897 -0.157281 0.149876 -0.054601 0.166557 -0.072196 0.088903 -0.020504 0.030954 0.011593 0.059236 -0.015654 0.027102 -0.072601 -6.44E-4 -0.078562 0.006416 0.115282 0.100459 -0.12915 0.113299 0.140987 -0.12095 -0.008716 -0.12589 0.203538 0.027711 -0.108113 0.027425 -0.207183 0.041097 0.067443 0.016476 0.109709 -0.043383 0.097247 0.087611 0.04971 0.11518 -0.029272 0.019313 0.044622 0.126768 0.085755 -0.041414 -0.035159 -0.020206 0.044492 -0.04271 0.164299 -0.173956 0.054438 -0.129314 0.01258 -0.154185 0.057271 -0.092325 0.08629 -0.193376 -0.149163 0.081389 0.135752 0.015912 3.93E-4 -0.028525 -0.160906 0.162119 0.114114 -0.051617 0.16827 -0.17756 -0.052901 0.055456 0.057253 -0.128881 0.052534 0.293794 0.215936 -0.042191 0.051492 -0.083139 -0.037911 0.10892 0.014079 0.182417 -0.069847 0.044903 -0.082355 0.156042 -0.11172 -0.100245 -0.050986 0.080645 -0.011823 0.110605
-0.140785 -0.14728 -0.027616 0.08445 -0.152002 0.023071 0.025384 -0.125483 -0.174535 0.123511 0.183223 0.057582 -0.114695 -0.126659 0.312273 0.107716 0.076027 -0.022061 -0.033984 -0.035121 -0.196234 0.084876 0.242653 0.041485 -0.033119 0.006834 0.068452 0.09493 -0.009738 -0.022149 0.04009 0.025885 -0.102782 0.076223 -0.119503 -0.163882 0.006091 -0.143649 0.042611 0.081483 -0.033372 0.179769 0.068813 -0.090208 0.071727 -0.153766 0.05288 0.091442 0.004049 0.058936 0.088653 -0.241223 0.034444 0.149167 -0.015737 -0.019929 0.114689 0.067139 -0.021938 -0.176811 0.159565 -0.13655 -0.091767 -0.318583 -0.315485 -0.007252 0.060879 0.042017 0.030844 -0.125873 0.016578 0.08261 -0.159142 0.013366 -0.060969 -0.012505 -0.13003 0.010829 -0.002904 -0.100702 -0.084819 0.117446 0.074885 -0.146817 0.13477 -0.058325 0.044237 -0.04391 0.144159 -0.039606 0.042236 -0.111675 -0.092263 0.084575 -0.225227 -0.206438 0.308123 -0.030676 -0.100911 0.028808
-0.098095 -0.097137 0.112136 0.240288 0.034961 -0.028646 -0.200884 0.05424 -0.029672 0.007573 0.080475 0.246109 -0.074069 0.083568 0.164215 0.222538 0.141394 0.355749 0.025982 0.123026 0.032204 0.057908 0.361491 0.012133 -0.01407 -0.056198 0.181583 -9.8E-5 0.059033 -0.321517 -0.079585 -0.068723 -0.011614 -0.063753 -0.291512 -0.025015 -0.186909 0.09091 0.152846 0.017435 -0.028828 0.027074 0.112669 -0.165615 0.2042 -0.099052 0.037987 -0.039369 -0.157184 0.224326 -0.037582 -0.068701 0.02752 0.01876 0.183188 0.024017 -0.089291 0.043088 -0.006623 0.053894 -0.107612 -0.167798 -0.031819 -0.057491 -0.167172 0.002221 -0.04486 0.035962 0.06439 -0.125794 -0.08144 0.092016 -0.117372 0.069664 -0.174083 0.085012 -0.060156 0.071477 -0.106664 -0.00513 -0.046258 0.03784 0.1207 -0.205016 0.059781 0.238406 0.035541 -0.12544 -0.095742 0.08401 -0.249301 0.072036 -0.068497 0.170222 -0.043612 -0.076191 0.014673 -0.029708 -0.155226 -0.128958
0.237634 0.109306 -0.041507 -0.201799 -0.149374 0.089779 -0.158518 -0.160494 -0.10045 0.139645 -0.078359 -0.155787 0.095709 0.083922 3.7E-4 0.109712 0.110221 -0.135581 0.234728 -0.052115 0.041085 -0.103376 0.237218 0.1233 -0.012453 -0.048067 0.138511 -0.135972 -0.036411 -0.107397 0.071741 0.157296 0.078333 0.032471 0.097229 -0.083432 0.037941 -0.071868 -0.073983 -0.062846 0.002712 -0.02559 -0.132649 0.048527 0.143802 -0.145214 -0.124616 0.044458 0.230509 0.081613 0.043638 0.28979 6.87E-4 -0.128232 0.105152 -0.075264 0.258126 0.025548 0.092303 -0.081444 0.053322 -0.407514 0.213285 -0.036615 -0.132724 0.099077 -0.017887 0.139513 0.092207 -0.253351 -0.224958 0.063673 0.08363 0.119876 0.188093 0.006222 -0.108333 0.106555 -0.254995 0.071608 0.201145 0.095737 0.012383 -0.016244 0.127919 0.013806 -0.029543 0.161299 0.071132 -0.180434 -0.017303 -0.118944 0.078936 0.328372 0.100792 0.139749 0.016598 -0.03948 -0.041089 -0.302976
0.009816 -0.132646 0.013536 -0.024913 0.035848 0.013727 -0.040311 -1.36E-4 -0.253025 -0.113211 -0.087631 0.14568 -0.070049 0.029166 0.08329 0.027195 0.028184 -0.211162 -0.013038 -0.255323 -0.082684 -0.045024 0.292372 -0.036804 0.076119 0.042333 -0.030612 0.048033 -0.144552 -0.020039 0.008163 -0.083534 0.048918 0.047618 -0.255837 -0.09809 0.101674 0.004616 -0.033611 -0.175604 0.013272 0.013751 0.046259 -0.017001 -0.185697 0.146025 -0.013555 0.148442 -0.186016 -0.123888 -0.064524 -0.05257 -0.158445 0.033206 -0.022589 0.272285 0.011967 0.051035 0.077399 0.090494 -0.275395 0.068975 -0.051044 -0.008113 -0.083374 -0.216459 -0.013515 -0.087691 0.171381 0.26922 0.223781 0.066544 -0.114183 -0.061955 0.198409 -0.036221 0.048551 0.109301 -0.022812 -0.07223 0.074231 -0.080034 0.128893 -0.108953 -0.302115 -5.43E-4 -0.039967 0.100236 0.043373 -0.129987 0.097655 0.031988 -0.11098 -0.016587 -0.167472 0.12664 0.101004 -0.096938 0.009529 0.039394
-0.109347 0.123508 0.083346 0.111547 -0.166188 0.02015 -0.042947 -0.197937 -0.023433 -0.089967 -0.039518 0.149492 0.006962 -0.07513 0.154663 0.096287 -0.115469 0.140077 -0.05781 0.083524 -0.054744 0.076179 0.096762 0.097932 -0.087052 0.053567 -0.145496 0.041947 0.116022 -0.27431 0.181244 -0.01337 -0.059163 0.079999 0.068131 0.016707 0.221404 0.04039 -0.107379 -0.217243 0.179313 -0.037872 -0.224225 0.001913 -0.058138 -0.047708 -0.112982 0.110664 0.17942 0.150539 -0.043809 -0.002113 0.01779 -0.166794 0.053337 0.068357 -0.138706 0.024912 -0.069963 -0.270942 0.011497 0.112424 -0.108962 -0.134457 -0.131609 0.054849 -0.170615 0.097895 -0.045438 0.060327 -0.103618 -0.002258 0.197238 0.096072 0.001996 0.0854 -0.065276 -0.096871 0.009313 -0.023235 -0.075477 0.059339 0.037477 0.106301 -0.29167 0.029407 0.060953 -0.004085 0.042639 0.005675 -0.068779 0.013799 -0.117205 0.086553 -0.114042 -0.170835 0.046114 -0.031228 0.072254 0.037032
0.12265 0.064346 -0.035767 -0.131981 -0.254046 -0.018383 -0.055587 -0.10433 -0.307608 0.188876 0.123128 0.155073 -0.054565 -0.170629 -0.153042 0.178613 0.158998 -0.129746 -0.09361 0.172725 -0.011243 0.021076 0.307526 0.087993 0.13198 0.020834 -0.070384 -0.016974 -0.15108 -0.129062 0.165461 -0.074792 -0.063073 0.024104 -0.25137 -0.19461 0.055187 -0.095484 -0.287886 0.044909 0.084435 -0.087824 -0.154994 -0.067809 0.062962 -0.293022 0.031904 0.069307 0.093386 -0.106389 0.016863 -0.132685 -0.3338 -0.274269 0.173391 -0.053247 0.055566 -0.177 0.148825 -0.13082 0.152513 -0.182134 -0.125633 -0.197569 0.043728 0.069283 -0.105015 -0.022049 0.140295 0.115797 -0.021467 0.128753 0.265591 0.019313 0.195826 0.226134 0.247457 -0.04134 -0.062141 -0.075173 -0.343441 0.060816 0.159822 -0.115261 -0.130165 -0.158183 0.102378 0.209814 -0.055852 -0.031654 0.244155 -0.039841 -0.093471 0.131378 0.047032 0.003137 0.109691 -0.044997 0.039501 0.334904
0.092021 0.022898 0.080178 0.100247 -0.020306 -0.144148 -0.174425 -0.07162 -0.181535 0.094194 0.085043 0.111849 0.192981 -0.139394 0.085676 0.16949 0.100008 0.082307 -0.030609 0.01573 -0.115622 0.070086 0.037191 0.161827 -0.148617 -0.028949 -0.189993 -0.054307 0.177889 -0.043568 -0.145472 0.202189 -0.023918 0.01638 0.030545 -0.178358 0.037762 0.070135 0.073459 0.324025 0.036015 -0.125126 -0.075413 -0.074415 0.121619 -0.253672 -0.172183 0.044948 -0.244306 0.092127 0.026639 -0.162097 -0.116903 0.064643 -0.092524 -0.099682 0.079807 -0.038732 0.103465 0.011288 -0.007911 0.021001 0.147171 -0.067382 0.054022 -0.175457 -0.068372 0.078282 0.060053 -0.131352 -0.239398 0.035837 0.065677 -0.001407 -0.02143 -0.060182 0.025294 0.092369 -0.020789 0.110383 0.084929 0.097218 0.22024 -0.059992 -0.015059 0.054243 -0.060302 -0.072828 -0.04358 -0.029218 -0.199729 -0.028162 0.066626 -0.008205 -0.101491 -0.057283 0.128781 -0.050444 -0.069978 -0.232747
-0.17663 -0.076451 -0.094902 0.029781 0.090595 0.034274 0.065665 0.027437 0.105523 0.005354 0.09117 0.136016 -0.13468 -0.058374 -0.039835 0.106135 -0.017638 0.124945 0.117147 0.037478 -0.192594 -0.048811 0.077917 0.094032 -0.109224 -0.020572 -0.151081 -0.110223 0.037757 -0.067752 0.072281 0.020379 0.027036 0.212467 0.033119 0.071329 0.064081 0.068298 0.033715 -0.108277 0.070114 -0.012085 0.005112 -0.067253 -0.03946 -0.005222 -0.142354 0.155106 -0.034799 0.115345 -0.012082 0.058835 0.058421 -0.005498 -0.168711 0.130684 -0.044135 0.07728 0.168209 -0.126118 0.096822 -0.135433 0.176751 0.024453 -0.073028 0.06944 0.002342 -0.053483 -0.009706 0.109181 -0.038518 0.047753 0.033687 -0.066307 -0.034226 -0.245823 -0.074347 0.013579 -0.072697 -0.139013 -0.022643 0.104258 0.12324 -0.057776 0.019206 0.05997 0.008548 -0.171493 0.07689 -0.061972 0.003265 -0.001716 0.021432 0.135634 0.050357 -0.100673 0.040187 0.024561 -0.047961 -0.01101
-0.001889 -0.015376 0.011577 -0.079922 0.019615 0.005975 0.018085 -0.133459 0.07886 -0.019014 -0.010821 0.041669 -0.011128 0.097962 -0.060935 0.042309 0.015014 8.49E-4 -0.002449 0.038756 0.0685 -0.030124 0.021652 -0.079703 0.075875 -0.122727 0.144977 0.073106 0.120718 -0.115022 0.047765 0.225363 -0.061747 -0.035103 0.080005 0.064342 -0.011293 0.032618 0.076202 0.118833 0.299047 0.176216 0.148892 -0.105455 -0.022399 0.118571 -0.05437 -0.136016 -0.04767 0.112361 0.012505 0.001737 0.056998 -0.132972 0.205737 0.014869 0.130993 0.242588 0.100312 0.073252 -0.019374 -0.073147 -0.042245 -0.05193 0.119558 0.067972 -0.198268 0.013905 0.103121 -0.09962 -0.010563 -0.219254 -0.117595 0.0375 -0.028297 0.03039 -0.116152 0.021365 0.041774 -0.247365 -0.187561 -0.063496 -0.088808 -0.029223 0.057963 0.069802 -0.07258 -0.052825 0.064478 0.040761 0.149345 0.085248 0.239559 0.137326 -0.140966 0.005439 0.083517 -0.02486 -0.028184 0.111642
0.0 0.0 0.0 0.0 0.0 0.0 0.0 0.0 0.0 0.0 0.0 0.0 0.0 0.0 0.0 0.0 0.0 0.0 0.0 0.0 0.0 0.0 0.0 0.0 0.0 0.0 0.0 0.0 0.0 0.0 0.0 0.0 0.0 0.0 0.0 0.0 0.0 0.0 0.0 0.0 0.0 0.0 0.0 0.0 0.0 0.0 0.0 0.0 0.0 0.0 0.0 0.0 0.0 0.0 0.0 0.0 0.0 0.0 0.0 0.0 0.0 0.0 0.0 0.0 0.0 0.0 0.0 0.0 0.0 0.0 0.0 0.0 0.0 0.0 0.0 0.0 0.0 0.0 0.0 0.0 0.0 0.0 0.0 0.0 0.0 0.0 0.0 0.0 0.0 0.0 0.0 0.0 0.0 0.0 0.0 0.0 0.0 0.0 0.0 0.0
-0.073859 0.072837 -0.12514 0.002232 0.038411 0.155593 -0.156133 -0.145735 0.1381 0.148106 0.085348 0.191753 0.158508 0.010347 0.067269 0.087823 -7.23E-4 0.189437 0.001419 0.193756 0.110625 -0.075298 0.219104 0.051524 -0.106531 -0.236222 -0.074413 0.097779 0.104756 -0.056857 0.155516 -0.241397 -0.193068 0.115553 -0.261028 -0.085226 0.093928 0.179258 0.134613 -0.2339 0.056793 0.26309 0.145207 0.392586 -0.09376 -0.112146 0.104897 -0.031059 0.019942 0.189718 -0.073913 -0.022208 0.064293 0.106264 0.087942 -0.129675 -0.03457 0.112103 0.009159 -0.026934 0.021831 -0.091381 0.012494 -0.020025 -0.13411 0.16342 -0.019868 0.057727 0.130819 -0.145761 -0.16516 -0.028395 0.036366 0.00195 0.019365 0.032244 -0.015 -0.121987 -0.093391 0.054082 0.049401 0.17059 0.023151 -0.253656 -0.006655 0.197425 -0.02692 -0.038143 0.034445 -0.222926 -0.05037 -0.208866 -0.162233 0.029272 -0.159392 -0.013435 -0.038025 0.268089 0.016529 -0.017679
-0.019746 -0.012961 0.147992 -0.140019 0.034402 -0.192861 0.081553 0.01133 0.032511 -0.132681 0.056427 0.102583 -0.0083 -0.003731 0.0345 0.226931 -0.193607 -0.047697 -0.035281 -0.215178 -0.057759 0.094633 0.051398 0.070479 -0.13496 -0.135945 -0.042021 0.037695 0.1597 -0.00139 -0.007647 -0.091093 0.119478 0.16011 0.034066 0.049639 0.163614 -0.215439 -0.076097 -0.005081 0.058494 -0.248892 -0.055876 -0.093836 -0.070603 -0.050568 0.001613 -0.042336 0.080545 -0.052429 0.012204 -0.025183 -0.066905 -0.007698 0.18121 0.062382 -0.015877 -0.072574 -0.068817 -0.072514 -0.029765 -0.217365 -0.014163 -0.031127 -0.188783 0.170637 0.152475 -0.00415 0.047736 -0.049677 0.061045 0.004984 -0.043613 -0.05589 0.116332 0.214723 0.162304 -0.010198 0.0738 -0.054894 -0.123597 -0.097009 0.311521 -0.113286 0.048997 -0.079457 0.040556 -0.044363 -0.005459 0.012692 0.097532 -0.084058 -0.156728 -0.05531 0.053665 -0.086991 0.025832 0.023237 0.107442 0.117047
-0.109347 0.123508 0.083346 0.111547 -0.166188 0.02015 -0.042947 -0.197937 -0.023433 -0.089967 -0.039518 0.149492 0.006962 -0.07513 0.154663 0.096287 -0.115469 0.140077 -0.05781 0.083524 -0.054744 0.076179 0.096762 0.097932 -0.087052 0.053567 -0.145496 0.041947 0.116022 -0.27431 0.181244 -0.01337 -0.059163 0.079999 0.068131 0.016707 0.221404 0.04039 -0.107379 -0.217243 0.179313 -0.037872 -0.224225 0.001913 -0.058138 -0.047708 -0.112982 0.110664 0.17942 0.150539 -0.043809 -0.002113 0.01779 -0.166794 0.053337 0.068357 -0.138706 0.024912 -0.069963 -0.270942 0.011497 0.112424 -0.108962 -0.134457 -0.131609 0.054849 -0.170615 0.097895 -0.045438 0.060327 -0.103618 -0.002258 0.197238 0.096072 0.001996 0.0854 -0.065276 -0.096871 0.009313 -0.023235 -0.075477 0.059339 0.037477 0.106301 -0.29167 0.029407 0.060953 -0.004085 0.042639 0.005675 -0.068779 0.013799 -0.117205 0.086553 -0.114042 -0.170835 0.046114 -0.031228 0.072254 0.037032
0.009216 0.123617 -0.005131 0.008459 -0.075842 -0.155601 -0.177275 -0.034042 0.149116 -0.07578 0.042621 -0.020233 0.060116 0.021543 -0.181189 0.044914 -0.119036 -0.051393 0.161761 0.053449 -0.092036 0.004058 0.08864 0.047289 -0.175956 -0.089848 0.008105 0.144498 0.138692 -0.115678 -0.190844 -0.061818 -0.116234 -0.001722 -0.166794 -0.097541 -0.004639 -0.060152 -0.136221 -0.099622 0.00156 0.145244 0.157584 -0.059597 -0.023838 -0.046726 0.017923 0.171603 -0.097483 -0.081237 -0.077719 0.09485 -0.055753 0.069416 0.123643 -0.009933 0.047319 0.080662 0.031677 -0.152001 0.148679 0.183525 0.131979 -0.145915 -0.204221 0.03259 0.005926 -0.107172 0.042416 0.127792 -0.074865 0.164976 0.050128 -0.06038 -0.05878 0.059895 0.155878 -0.16858 -0.09848 -0.128678 0.205447 -0.283872 0.076141 -0.150472 -0.077406 -0.038742 -0.160895 0.019061 -0.036135 0.062469 -0.159063 -0.092938 -0.037942 -0.011114 -0.016505 -0.160246 0.126277 -0.141391 -0.016152 -0.051215
0.068783 -0.051109 0.12047 0.151769 -0.10093 0.032228 -0.18177 0.026757 -0.136558 -0.009073 0.182929 0.079952 -0.022558 -0.087212 0.165452 0.170675 -0.064477 0.197118 0.058373 0.033051 -0.162767 0.180454 0.273004 0.09276 -0.207747 -0.038578 0.013583 0.056333 0.201628 -0.21846 -0.00483 0.0194 -0.133517 0.09188 -0.142254 -0.130916 0.027624 0.001999 0.095709 0.119701 -0.200169 0.060676 0.021118 -0.037351 0.056089 -0.13908 -0.065711 -0.039089 -0.160314 0.136912 0.186597 -0.15639 -0.039381 0.229579 0.083872 -0.160049 0.031128 0.067878 0.055557 -0.20798 0.175038 -0.225593 -0.043971 -0.211667 -0.146663 -0.14072 0.039219 0.040343 0.049411 -0.141789 0.064697 -0.063321 0.039591 -0.002182 0.105817 -0.20819 -0.167437 -0.057873 -0.055878 0.093954 -0.085066 0.17156 0.123217 -0.184305 0.028868 0.068711 0.192845 -0.072341 0.173928 0.170505 -0.154967 -0.091408 -0.032052 -0.009686 -0.130564 -0.108567 0.112011 0.096336 0.04487 0.001951
0.100892 0.069758 -0.045706 0.005325 -0.009284 0.024987 -0.06192 0.081023 -0.110454 -0.022013 0.074154 0.038598 -0.025971 0.019365 0.085507 0.182853 -0.056898 -0.152304 0.068812 0.11977 -0.130969 0.010164 -0.006869 -0.022437 -0.198101 0.004055 -0.076267 0.113133 0.198828 0.102079 -0.1163 -0.004474 -0.092582 0.124824 -0.032621 0.035273 0.064972 -0.113557 0.078488 0.084584 -0.139151 -0.137612 6.81E-4 0.207316 0.103374 -0.027898 0.007225 0.030867 -0.006121 0.006376 -0.036011 -0.162539 -0.027519 0.049533 -0.043815 -0.009021 -0.006836 0.024768 0.063209 -0.137123 0.013365 -0.100891 0.129056 -0.012889 0.009068 0.141101 -0.101172 -0.064212 0.104017 0.001272 0.089185 -0.136206 0.047174 0.079834 0.098637 -0.022293 -0.041421 -0.249466 -3.6E-5 -0.192601 0.08904 -0.264119 -0.103851 0.232488 -0.09434 -0.005066 0.10402 0.123632 0.082523 0.0582 -0.112025 -0.107755 0.041091 0.045253 0.106854 -0.002457 -0.165235 0.097317 0.038536 -0.026308
-0.118592 0.009687 -0.009069 -0.146149 -0.026713 -0.02669 -0.167291 0.059376 -0.232752 -0.082618 0.001793 0.247505 0.166447 -0.079691 0.157181 0.26182 -0.106497 0.246518 0.213455 -0.146745 -0.101366 -0.033982 0.243224 -0.104549 -0.185533 -0.199591 9.63E-4 -0.083629 0.050593 0.075392 -0.180207 -0.116761 0.101358 0.281449 -0.166374 -0.10959 0.104286 -0.027019 0.044953 -0.022013 -0.131948 0.075621 0.00544 -0.12134 -0.133369 -0.099819 -0.038244 -0.010732 -0.003226 0.091548 0.140965 -0.086701 -0.088884 -0.036806 1.38E-4 -0.162291 -0.05997 0.017753 -0.056424 -0.010171 0.181741 -0.201058 0.200611 -0.014179 -0.024641 0.024057 0.179216 -0.023333 0.128329 -0.024315 -0.29185 0.080784 0.111351 -0.140657 0.052565 0.081701 -0.128761 -0.131799 -0.153369 -0.172699 0.193407 -0.025195 0.045241 -0.127555 -0.041703 0.146777 0.001695 -0.014514 0.102204 0.241166 -0.061511 -0.114902 -0.122876 0.126415 0.064878 -0.14481 -0.085743 -0.017957 -0.03895 -0.019264
0.100892 0.069758 -0.045706 0.005325 -0.009284 0.024987 -0.06192 0.081023 -0.110454 -0.022013 0.074154 0.038598 -0.025971 0.019365 0.085507 0.182853 -0.056898 -0.152304 0.068812 0.11977 -0.130969 0.010164 -0.006869 -0.022437 -0.198101 0.004055 -0.076267 0.113133 0.198828 0.102079 -0.1163 -0.004474 -0.092582 0.124824 -0.032621 0.035273 0.064972 -0.113557 0.078488 0.084584 -0.139151 -0.137612 6.81E-4 0.207316 0.103374 -0.027898 0.007225 0.030867 -0.006121 0.006376 -0.036011 -0.162539 -0.027519 0.049533 -0.043815 -0.009021 -0.006836 0.024768 0.063209 -0.137123 0.013365 -0.100891 0.129056 -0.012889 0.009068 0.141101 -0.101172 -0.064212 0.104017 0.001272 0.089185 -0.136206 0.047174 0.079834 0.098637 -0.022293 -0.041421 -0.249466 -3.6E-5 -0.192601 0.08904 -0.264119 -0.103851 0.232488 -0.09434 -0.005066 0.10402 0.123632 0.082523 0.0582 -0.112025 -0.107755 0.041091 0.045253 0.106854 -0.002457 -0.165235 0.097317 0.038536 -0.026308
-0.064195 -0.117086 -0.039943 0.169783 -0.049972 -0.131549 0.028375 0.128883 -0.276888 0.043386 -0.031909 0.175556 -0.100628 -0.197332 0.049809 0.087903 0.078242 0.170539 -0.136416 0.104461 0.078807 0.07651 0.171874 0.1068 -0.131497 -0.105907 -0.072115 -0.029739 0.091957 -0.223834 0.106718 0.023237 -0.054262 -0.130882 0.033409 -0.029223 0.119043 -0.091811 -0.121317 0.029602 -0.106251 0.142973 0.020019 0.090746 0.06177 -0.247453 -0.128954 0.162439 -0.04877 0.1303 0.007417 -0.041617 0.007381 -0.059681 0.258224 0.038548 -0.00134 0.040674 -0.101333 -0.037116 0.139645 0.07904 0.067312 -0.243378 -0.012248 -0.024835 -0.073562 -0.077112 -0.135011 -0.026165 -0.013964 -0.027847 -0.173528 0.246164 -0.05887 -0.051838 -0.180275 0.119143 -0.033255 -0.064342 -0.092832 0.070973 0.105014 -0.073728 0.004946 0.186448 0.0736 -0.009804 0.035064 0.123994 -0.006252 0.014451 -0.032777 -0.006731 -0.06405 0.029499 0.090927 -0.08189 0.024738 -0.051373
0.0 0.0 0.0 0.0 0.0 0.0 0.0 0.0 0.0 0.0 0.0 0.0 0.0 0.0 0.0 0.0 0.0 0.0 0.0 0.0 0.0 0.0 0.0 0.0 0.0 0.0 0.0 0.0 0.0 0.0 0.0 0.0 0.0 0.0 0.0 0.0 0.0 0.0 0.0 0.0 0.0 0.0 0.0 0.0 0.0 0.0 0.0 0.0 0.0 0.0 0.0 0.0 0.0 0.0 0.0 0.0 0.0 0.0 0.0 0.0 0.0 0.0 0.0 0.0 0.0 0.0 0.0 0.0 0.0 0.0 0.0 0.0 0.0 0.0 0.0 0.0 0.0 0.0 0.0 0.0 0.0 0.0 0.0 0.0 0.0 0.0 0.0 0.0 0.0 0.0 0.0 0.0 0.0 0.0 0.0 0.0 0.0 0.0 0.0 0.0
-0.029451 0.032346 0.059456 0.047309 -0.008076 0.034459 -0.030555 0.034019 0.040671 0.076326 -0.023084 -0.003993 0.169804 0.049603 0.050626 0.006868 0.010351 0.009469 -0.107153 0.060283 0.106353 0.075176 -0.002303 -0.026524 -0.001399 0.05001 -0.107912 0.118871 0.057343 -0.015513 -0.066353 0.037879 0.039795 0.079506 0.048215 0.086766 0.042642 -0.225022 0.009855 -0.193996 -0.02593 0.098823 -0.080058 -0.042506 -0.014151 0.118582 0.053806 0.014461 -0.179376 1.03E-4 -0.129447 -0.180783 -0.045733 0.081347 0.103384 0.042015 -0.098174 0.018428 0.052635 0.131225 -0.040867 -0.058713 -0.054093 0.102617 0.039152 -0.037879 0.029414 0.025011 0.143999 8.07E-4 -0.143321 -0.096641 0.096872 -0.163818 -0.030814 0.121274 -0.172479 0.005692 0.132361 -0.004737 -0.021278 0.069361 -0.009045 -0.054709 0.054826 -0.167134 0.093349 -0.004865 0.185201 0.133968 0.065089 0.005172 0.116072 0.058792 0.172868 0.180571 -0.040006 0.01575 0.179847 -0.055087
-0.164925 -0.073298 -0.085104 0.16037 -0.178332 0.044586 -0.099797 0.143561 -0.262595 0.068344 -0.052018 0.001818 -0.21004 0.105782 0.036675 -0.002025 -0.038878 0.088596 0.008646 0.197516 -0.022859 0.210414 0.176217 -0.159379 -0.04425 -0.011781 0.209795 -0.074906 0.099158 -0.082852 -0.162694 -0.00449 0.046251 -0.077517 -0.168743 -0.147153 -0.069916 0.092425 0.09507 -0.185819 -0.035191 0.065231 0.030196 0.136621 0.127762 -0.075562 -0.039231 -0.041219 0.263041 0.159696 -0.084689 -0.225501 -0.019027 -0.032316 0.104374 -0.172625 0.105315 -0.103923 -0.173611 -0.134254 0.261325 -0.164143 -0.095304 -0.131498 -0.020118 0.012218 0.195325 0.049791 -0.122752 -0.080977 -0.064854 -0.014133 0.176136 0.103818 -0.136357 -0.239134 -0.067147 -0.159982 0.125037 0.029545 0.053314 -0.035097 0.203887 0.042178 0.191497 -0.108443 -0.05185 0.13824 -0.012527 0.040329 -0.02341 0.161209 -0.063319 0.15452 0.018123 -0.067181 0.03705 -0.035437 0.049828 -0.040605
-0.130109 -0.365989 0.406489 0.192043 0.055703 -0.152756 0.184373 -0.033715 0.094597 0.13634 -0.071792 0.102014 0.037298 0.022293 0.280315 0.158164 -0.072072 0.231079 0.184903 0.099537 -0.246752 -0.072994 0.16442 0.002078 0.103919 -0.24128 0.309 -0.074345 -0.102114 0.089968 -0.21171 0.044019 -0.053455 -0.103869 -0.04079 -0.278519 0.132072 -0.055874 -0.021957 -0.127238 -0.192003 0.162634 -0.087233 -0.123044 0.224714 -0.257167 0.096652 -0.129725 0.092486 -0.014162 -0.090684 -0.122298 -0.131274 -0.130552 -0.169788 0.231139 0.161599 -0.082892 -0.133469 -0.050518 0.144082 -0.124108 -0.057474 -0.22189 -0.120621 -0.137704 0.11526 0.292295 0.288669 -0.308818 -0.14774 -0.090611 0.100388 0.027589 0.075168 -0.294086 -0.069152 -0.109632 0.040051 0.290894 -0.03528 -0.09684 0.366393 -0.056103 -0.044602 0.041136 -0.112615 0.311939 0.140264 0.063348 0.003894 -0.00374 0.082699 0.169807 0.124977 -0.319881 0.353825 -0.166081 -0.208166 0.059992
0.154123 0.047563 0.040411 -0.025842 -0.179896 -0.010435 -0.050621 0.00237 -0.049744 0.07091 -0.041747 -0.012541 -0.048257 -0.090657 0.055859 0.186725 -0.004751 0.171183 0.001236 0.158634 -0.21469 -0.010507 0.102164 0.110818 -0.098456 -0.085806 0.017572 -0.096755 -0.147182 -0.186661 -0.039628 0.028152 -0.195531 0.01169 -0.167175 -0.030783 0.02964 -0.087287 -0.087261 -0.023518 0.047187 0.164952 0.016142 0.082714 0.017606 -0.118475 -0.053953 0.042236 -0.041302 -0.037061 0.072247 0.097291 -0.159811 -0.004034 0.05793 -0.045614 0.022116 -0.091234 -0.01504 3.98E-4 0.150496 -0.218684 -0.064446 -0.051485 0.07339 0.113821 0.042366 0.042209 0.178948 -0.005155 0.136168 -0.048544 -0.11089 -0.004225 -0.01148 -0.061701 -0.025146 0.12647 -0.124816 0.092732 -0.026414 0.003393 0.08225 -0.049433 0.086746 0.143483 -0.01664 -0.02826 0.209263 -0.049219 -0.221231 -0.093525 -0.091385 0.050663 -0.107876 -0.042471 -0.063453 0.067362 0.064494 -0.007492
0.11284 -0.021822 -0.078916 -0.103252 0.071421 -0.042267 -0.050188 -0.2016 -0.063284 -0.125075 0.01788 0.117134 -0.063871 -0.050795 -0.025306 -0.007813 -0.00631 -0.212087 -0.093703 -0.231645 0.104166 -0.052317 0.003349 -0.053684 0.092731 0.012658 0.010167 -0.141367 0.102344 0.037381 0.057588 0.079846 0.061596 0.291885 0.101676 0.104325 -0.142335 -0.150543 0.051712 0.088663 -0.164574 -0.123981 -0.189566 0.021223 0.076333 -0.064965 -0.058152 0.076613 0.240278 -0.065928 0.164948 0.028821 0.089766 -0.305615 -0.148726 0.13673 0.020466 -0.086179 0.06787 -0.051364 -0.09862 0.174642 0.021474 -0.100326 0.151093 -0.037065 0.004433 -0.139216 0.101849 0.162099 0.102598 -0.175352 0.048094 -0.001435 0.058243 -0.001274 -0.168678 0.097623 0.025496 -0.324263 -0.14288 0.082524 -0.039934 -0.06582 -0.114238 -0.036147 -0.095456 -0.02085 -0.142457 0.089158 0.191871 0.103649 -0.051398 -0.038891 -0.120474 0.096215 0.1479 0.080984 0.023994 -0.196087
-0.072674 -7.172178 3.243542 -3.416216 -3.078808 6.196021 -4.841667 1.097196 -0.069161 1.281094 -1.867299 2.00664 -3.509578 -1.91784 -3.71946 -1.31319 -2.045076 0.300286 -1.171953 -1.055153 0.413733 -4.900678 -1.569404 0.87886 -2.045129 -1.808549 3.916455 -0.208298 2.321721 -2.340044 -1.758158 0.426659 -1.302078 -0.956855 -1.534045 -0.5092 3.699516 -1.615464 -4.803689 1.209575 2.470521 -1.772277 -1.289194 0.075271 2.969475 5.294761 1.165935 1.551812 -2.864125 -2.655352 5.174971 1.730763 -3.638956 -1.622863 -1.08695 -1.558467 -3.220565 0.142856 -2.906218 2.40766 -2.416126 -0.276478 1.480663 0.762824 -0.901475 0.444124 -2.828977 2.000263 -3.260752 0.442676 2.227862 0.843619 -0.517631 -1.033588 -2.178106 1.253474 -1.086825 1.923508 1.341381 -3.757782 1.47075 1.992821 3.822498 6.974607 4.826773 0.101915 1.476335 -1.446077 -2.964966 2.275137 5.51195 -1.78916 -2.196929 -0.36233 1.699235 -0.269662 -2.034092 -1.169337 -1.898828 -0.46444
0.237634 0.109306 -0.041507 -0.201799 -0.149374 0.089779 -0.158518 -0.160494 -0.10045 0.139645 -0.078359 -0.155787 0.095709 0.083922 3.7E-4 0.109712 0.110221 -0.135581 0.234728 -0.052115 0.041085 -0.103376 0.237218 0.1233 -0.012453 -0.048067 0.138511 -0.135972 -0.036411 -0.107397 0.071741 0.157296 0.078333 0.032471 0.097229 -0.083432 0.037941 -0.071868 -0.073983 -0.062846 0.002712 -0.02559 -0.132649 0.048527 0.143802 -0.145214 -0.124616 0.044458 0.230509 0.081613 0.043638 0.28979 6.87E-4 -0.128232 0.105152 -0.075264 0.258126 0.025548 0.092303 -0.081444 0.053322 -0.407514 0.213285 -0.036615 -0.132724 0.099077 -0.017887 0.139513 0.092207 -0.253351 -0.224958 0.063673 0.08363 0.119876 0.188093 0.006222 -0.108333 0.106555 -0.254995 0.071608 0.201145 0.095737 0.012383 -0.016244 0.127919 0.013806 -0.029543 0.161299 0.071132 -0.180434 -0.017303 -0.118944 0.078936 0.328372 0.100792 0.139749 0.016598 -0.03948 -0.041089 -0.302976
0.0 0.0 0.0 0.0 0.0 0.0 0.0 0.0 0.0 0.0 0.0 0.0 0.0 0.0 0.0 0.0 0.0 0.0 0.0 0.0 0.0 0.0 0.0 0.0 0.0 0.0 0.0 0.0 0.0 0.0 0.0 0.0 0.0 0.0 0.0 0.0 0.0 0.0 0.0 0.0 0.0 0.0 0.0 0.0 0.0 0.0 0.0 0.0 0.0 0.0 0.0 0.0 0.0 0.0 0.0 0.0 0.0 0.0 0.0 0.0 0.0 0.0 0.0 0.0 0.0 0.0 0.0 0.0 0.0 0.0 0.0 0.0 0.0 0.0 0.0 0.0 0.0 0.0 0.0 0.0 0.0 0.0 0.0 0.0 0.0 0.0 0.0 0.0 0.0 0.0 0.0 0.0 0.0 0.0 0.0 0.0 0.0 0.0 0.0 0.0
-0.174586 0.016389 -0.231431 -0.069278 -0.148995 0.060905 0.027772 -0.011003 0.024527 0.089256 -0.187816 0.146555 -0.00242 0.1853 0.012877 0.064191 0.074885 0.18759 -0.095918 0.174834 -0.013497 -0.308968 0.158607 0.031929 -0.263004 0.0328 -0.050513 0.035457 -0.068291 0.004262 0.080757 0.027918 0.099235 0.084686 0.00343 0.100802 0.020033 0.037843 -0.057116 0.099914 0.068772 -0.067083 -0.133138 0.141386 -0.018374 -0.034083 -0.08542 -0.072939 -0.071194 0.188788 -0.012294 0.146064 -0.054882 0.055246 0.052996 -0.036559 0.075944 0.142713 -0.005996 0.050002 0.167573 0.034567 0.226531 0.221906 0.393059 0.093208 0.046727 -0.086873 -0.07044 -0.054181 -0.146645 -0.054021 0.028241 -0.09821 -0.039038 0.133326 -0.092055 0.128052 0.118692 -0.183133 0.051917 -0.002142 0.002268 -0.051482 0.046959 0.094251 0.046249 0.151879 -0.127045 0.066252 -0.005604 -0.073798 -0.019333 -0.076504 0.051069 0.095555 0.024634 -0.026799 0.025377 -0.04243
-0.063002 -0.234083 0.048008 -0.021485 0.118425 -0.069097 -0.089614 0.015575 -0.088887 0.008327 0.207637 0.145627 0.039454 -0.145483 0.089805 0.196481 -0.026693 0.037297 0.038377 -0.023252 -0.091593 0.155254 0.091762 0.050857 -0.144125 -0.075574 0.049194 -0.032084 0.088898 -0.067973 -0.157209 -0.065605 -0.063939 0.138195 -0.158256 -0.04692 0.110173 -0.083955 0.114583 -0.018865 -0.089491 -0.035668 -0.039526 -0.115205 0.064068 0.002368 -0.123687 -0.024408 -0.086747 -0.035676 0.106402 -0.137065 -0.237056 -0.05544 0.044405 -0.024529 -0.050672 -0.058347 0.091211 -0.044203 0.049511 -0.047131 -0.007296 -0.041396 -0.197592 0.039256 0.094077 0.002507 0.045318 -0.030448 -0.002259 0.129894 0.004666 -0.055742 0.17851 -0.088069 -0.097555 -0.041865 -0.069832 -0.013662 0.134387 0.047405 0.029899 -0.225063 -0.109655 -0.168055 0.098443 0.06128 0.226794 0.174187 -0.15428 5.93E-4 -0.052234 -0.024077 0.128116 -0.13384 -0.03913 0.070803 -0.065908 0.038777
-2.648351 -0.794316 -2.108887 0.20446 0.883061 0.242784 1.848653 1.149137 -4.975573 0.237654 -1.499665 2.924494 0.344217 -1.640431 0.763777 0.138944 -3.029439 -2.813434 -0.761102 -1.057557 -1.373735 -0.870599 1.234095 0.127805 -1.372618 1.35802 -1.501738 0.80945 0.172993 -0.484995 1.783363 -0.047587 0.483285 -1.526831 2.103549 2.116639 4.583491 -4.022388 -0.843817 0.361243 -0.546655 -2.301259 -2.000973 2.64631 -1.604053 -1.914206 -1.581895 -0.464185 1.757769 1.056301 0.263866 -0.904419 -0.422466 0.007824 -1.651553 0.7499 1.638666 -0.336108 -3.288466 -2.953238 -1.135414 1.165223 -1.047256 -0.821696 -0.135806 0.434207 -2.389307 -3.56953 -0.656773 0.578325 3.337902 0.782195 -1.250815 2.925509 -1.981492 0.121786 0.836257 1.710923 -2.640405 -0.628995 0.247469 0.863847 1.749171 -0.214156 -0.274807 2.192709 -0.892334 -1.614644 -1.225919 -0.042182 2.51632 3.464583 -3.591523 -2.506587 0.990426 1.8843 -2.460629 0.953462 0.359605 2.267383
-0.065821 -0.075029 -0.001179 0.103749 0.02031 0.069541 0.07931 -0.019484 -0.060647 0.157349 0.052479 0.040628 -0.127609 -0.040488 0.092954 0.018605 0.062974 -0.029669 0.017526 0.065771 -0.099616 -0.074804 0.09941 0.086602 -0.152878 -0.0332 -0.039551 -0.006967 0.122872 -0.018942 0.106828 -0.034611 0.071354 0.152978 -0.002943 -0.081106 0.169729 -0.015112 0.078311 0.051449 -0.114892 0.10766 -0.023538 0.023547 -0.068828 0.057798 0.036262 -0.067328 0.029765 -0.040481 -0.008831 0.171915 0.057122 -0.097311 0.255714 0.105871 -0.164068 -0.087238 -0.0566 0.131884 0.031995 0.055317 -0.174932 -0.13511 0.094417 -0.01854 -0.003426 -0.009494 0.025747 -0.057379 0.110392 0.115754 -0.071254 -0.082663 0.075065 0.023381 0.029825 0.020654 0.07831 -0.005695 -0.135125 -0.181523 0.146356 -0.049519 -0.065986 -0.068004 -0.011573 -0.203176 -0.041569 0.148889 -0.119531 0.126719 -0.020356 0.041072 0.036526 -0.200758 -0.029901 -0.004478 -0.047598 -0.120045
-0.109347 0.123508 0.083346 0.111547 -0.166188 0.02015 -0.042947 -0.197937 -0.023433 -0.089967 -0.039518 0.149492 0.006962 -0.07513 0.154663 0.096287 -0.115469 0.140077 -0.05781 0.083524 -0.054744 0.076179 0.096762 0.097932 -0.087052 0.053567 -0.145496 0.041947 0.116022 -0.27431 0.181244 -0.01337 -0.059163 0.079999 0.068131 0.016707 0.221404 0.04039 -0.107379 -0.217243 0.179313 -0.037872 -0.224225 0.001913 -0.058138 -0.047708 -0.112982 0.110664 0.17942 0.150539 -0.043809 -0.002113 0.01779 -0.166794 0.053337 0.068357 -0.138706 0.024912 -0.069963 -0.270942 0.011497 0.112424 -0.108962 -0.134457 -0.131609 0.054849 -0.170615 0.097895 -0.045438 0.060327 -0.103618 -0.002258 0.197238 0.096072 0.001996 0.0854 -0.065276 -0.096871 0.009313 -0.023235 -0.075477 0.059339 0.037477 0.106301 -0.29167 0.029407 0.060953 -0.004085 0.042639 0.005675 -0.068779 0.013799 -0.117205 0.086553 -0.114042 -0.170835 0.046114 -0.031228 0.072254 0.037032
-0.055182 -0.113933 -0.041054 -0.144595 -0.076988 0.018579 -0.004165 0.014353 0.149031 -0.01804 -0.088261 -0.028618 0.073713 0.192581 0.011817 -0.126449 0.078411 0.172203 -0.133825 0.135675 0.109416 -0.029376 0.139706 0.176677 -0.134436 -0.009979 -0.023635 0.002074 -0.055848 -0.160605 0.085098 0.035574 -0.054834 -0.085474 -0.151709 0.154984 -0.121737 -0.119638 -0.098449 -0.011214 0.191398 -0.053013 -0.077297 -0.083451 0.069529 0.094514 -0.089918 -0.048614 -0.008279 0.041153 -0.033429 -0.022723 -0.028512 0.022509 0.037952 0.143131 0.103326 -0.119309 0.059107 0.20411 0.264246 -0.076063 0.046846 0.151621 0.150705 -0.10214 0.102383 -0.011947 -0.055927 0.004847 -0.081787 0.193433 0.092257 0.075701 -0.173483 -0.066245 0.059018 0.144682 0.050753 0.119739 -0.019511 -0.062503 0.146655 0.007161 0.002463 -0.16341 -0.012567 0.219065 -0.039632 0.115271 0.065651 -0.005017 0.129819 -0.10564 -0.04556 -0.006676 0.128515 0.215974 0.021569 0.100055
0.032093 0.10565 0.07194 -0.10506 0.067235 -0.19423 -0.171559 -0.024872 -0.200596 -0.024021 0.081589 -0.134327 -0.133221 0.086563 0.035137 0.09023 -0.100221 -0.106837 0.216842 0.169637 -0.003546 -0.192428 0.026566 0.124055 -0.105236 -0.07848 -0.126731 0.139525 0.222664 -0.090607 -0.124343 0.162578 -0.11797 -0.040378 0.05487 -0.079472 0.01701 -0.189311 0.227341 0.071021 -0.038819 -0.184046 0.147 -0.091764 0.07601 -0.241426 -0.387516 -0.147508 -0.220456 -0.088583 0.035056 -0.086038 -0.204524 0.092743 -0.119635 -0.095464 -0.283729 -0.021 -0.056357 -0.143968 0.055836 -0.324437 0.105987 0.008046 -0.200878 0.013677 -0.124932 0.120835 0.008738 -0.22946 -0.008223 -0.04135 0.001859 -0.035757 0.290135 -0.016454 -0.251527 -0.091879 0.014693 -0.111384 0.234011 0.080886 0.195417 0.014571 -0.071411 0.018417 0.100924 0.06824 0.118381 0.038258 -0.140745 -0.154291 0.008683 0.183866 0.02895 0.005598 -0.0178 -0.029178 0.110665 -0.011781
0.030314 -0.266002 0.267053 0.042665 -0.05776 -0.052156 -0.193202 -0.022096 -0.081127 0.083599 0.0643 0.097716 0.045248 -0.102585 0.212471 0.357778 0.007454 0.269023 0.064881 -0.011333 -0.18249 0.253761 0.136797 0.161067 -0.093454 -0.044624 -0.041584 0.226163 0.092843 -0.072365 -0.191371 0.028895 -0.044431 0.121632 0.009474 -0.066927 -0.076171 0.023601 0.09479 0.159145 0.05448 -0.026491 -0.04977 0.14934 0.130487 0.057823 -0.040843 -0.046246 -0.049903 -0.090916 0.006222 -0.077285 0.193614 -0.081384 0.190982 -7.79E-4 0.014974 -0.033881 -0.032857 -0.201532 0.125835 -0.032788 0.017147 -0.282294 -0.171141 -0.169224 0.025273 -0.028397 -0.114722 -0.047014 0.042417 -0.038027 0.166932 0.047536 0.149743 -0.155482 -0.009919 -0.028088 -0.071314 -0.116479 0.006613 0.057351 0.08008 -0.264041 0.14102 0.02246 -0.089951 -0.030699 0.062839 -0.009335 -0.050098 -0.027073 0.011925 0.117155 0.007855 -0.085227 0.100415 -0.254602 0.045801 0.062245
0.009816 -0.132646 0.013536 -0.024913 0.035848 0.013727 -0.040311 -1.36E-4 -0.253025 -0.113211 -0.087631 0.14568 -0.070049 0.029166 0.08329 0.027195 0.028184 -0.211162 -0.013038 -0.255323 -0.082684 -0.045024 0.292372 -0.036804 0.076119 0.042333 -0.030612 0.048033 -0.144552 -0.020039 0.008163 -0.083534 0.048918 0.047618 -0.255837 -0.09809 0.101674 0.004616 -0.033611 -0.175604 0.013272 0.013751 0.046259 -0.017001 -0.185697 0.146025 -0.013555 0.148442 -0.186016 -0.123888 -0.064524 -0.05257 -0.158445 0.033206 -0.022589 0.272285 0.011967 0.051035 0.077399 0.090494 -0.275395 0.068975 -0.051044 -0.008113 -0.083374 -0.216459 -0.013515 -0.087691 0.171381 0.26922 0.223781 0.066544 -0.114183 -0.061955 0.198409 -0.036221 0.048551 0.109301 -0.022812 -0.07223 0.074231 -0.080034 0.128893 -0.108953 -0.302115 -5.43E-4 -0.039967 0.100236 0.043373 -0.129987 0.097655 0.031988 -0.11098 -0.016587 -0.167472 0.12664 0.101004 -0.096938 0.009529 0.039394
0.081104 -0.078741 -0.071479 0.144282 0.085348 -0.055812 -0.133308 -0.123598 -0.062646 -0.063116 0.225419 0.168918 0.092072 -0.021744 -0.024099 0.296216 -0.161347 0.244024 0.190028 -0.011963 -0.214457 0.060921 0.112461 0.128279 -0.218217 -0.239137 -0.114801 0.037371 0.115855 -0.174781 -0.064358 0.010645 -0.223371 0.05662 -0.164958 -0.273794 0.01962 0.040289 0.147913 0.097098 -0.14874 0.08901 0.126602 0.099799 -0.021957 -0.224278 0.028218 0.13803 -0.30015 0.14974 0.143343 -0.085383 -0.210346 0.137521 0.120889 -0.143036 0.023445 -0.026208 0.029266 -0.082758 0.056946 -4.02E-4 0.13178 -0.123846 -0.123072 -0.142043 0.150369 -0.020764 0.048563 -0.015663 0.158775 0.045719 0.028246 0.037594 0.013385 0.048928 -0.103092 -0.034863 -0.129518 -0.079212 0.12852 0.073781 -0.034257 -0.044662 0.007231 0.246709 -0.071167 0.053704 0.081789 0.030983 -0.104473 -0.145513 -0.135064 0.047824 -0.112887 -0.243543 0.035432 0.073855 -0.054451 0.101571
0.047836 -0.260219 0.14638 0.007779 -0.104955 -0.050724 -0.319432 -0.027407 -0.104778 0.124311 0.14477 0.148278 -0.013076 -0.069917 0.254554 0.25292 0.091697 0.206138 0.168034 0.12307 -0.258927 -0.00695 0.102032 0.075771 -0.201948 -0.129118 -0.138297 -0.097396 0.264104 -0.141635 -0.00303 -0.004618 -0.171331 0.006413 -0.129962 -0.058793 -0.107657 -0.040955 0.117533 0.181708 -0.064138 0.225566 -0.062915 -0.035464 0.269723 -0.089994 -0.005719 -0.078063 -0.215832 0.079343 0.266575 -0.25419 -0.128297 0.038341 0.119308 -0.207662 -0.029523 0.019236 0.024436 -0.109361 0.007955 -0.078744 0.071111 -0.325345 -0.091151 0.006054 0.103893 0.156867 0.20827 -0.195221 -0.011492 -0.084134 -0.077224 -0.110934 0.098004 -0.068865 -0.108344 -0.153112 -0.094614 -0.187216 -0.01459 0.218526 0.241999 -0.141711 0.084584 0.252269 0.155438 -0.088298 0.260633 0.198838 -0.176457 -0.052125 -0.045839 0.131111 -0.115358 -0.197565 0.088973 -0.089591 0.060949 -0.086675
0.0 0.0 0.0 0.0 0.0 0.0 0.0 0.0 0.0 0.0 0.0 0.0 0.0 0.0 0.0 0.0 0.0 0.0 0.0 0.0 0.0 0.0 0.0 0.0 0.0 0.0 0.0 0.0 0.0 0.0 0.0 0.0 0.0 0.0 0.0 0.0 0.0 0.0 0.0 0.0 0.0 0.0 0.0 0.0 0.0 0.0 0.0 0.0 0.0 0.0 0.0 0.0 0.0 0.0 0.0 0.0 0.0 0.0 0.0 0.0 0.0 0.0 0.0 0.0 0.0 0.0 0.0 0.0 0.0 0.0 0.0 0.0 0.0 0.0 0.0 0.0 0.0 0.0 0.0 0.0 0.0 0.0 0.0 0.0 0.0 0.0 0.0 0.0 0.0 0.0 0.0 0.0 0.0 0.0 0.0 0.0 0.0 0.0 0.0 0.0
0.142855 2.096782 -0.44488 -0.186519 4.581101 0.368552 1.025096 -0.312802 -2.617651 -0.157005 2.963322 2.120705 -1.775955 -0.565663 0.972057 2.924774 -3.483148 -0.388176 -2.731071 -0.326463 1.005034 -0.173592 0.985748 -2.472826 -0.247049 -1.602126 -2.48254 -0.015307 0.921201 -0.634243 -0.734395 -4.469334 -2.338912 -3.86095 -2.404253 -1.170435 3.191081 0.66076 0.725646 -0.864367 -2.371157 -0.851367 -3.29822 -1.074393 -2.64488 2.784424 -0.996674 2.506345 2.15789 -2.159862 -0.441733 -0.926918 -0.098512 0.757891 -1.999629 -4.007104 0.387073 -3.003765 1.204233 -2.431844 -2.281004 -0.27222 1.915759 2.567541 -2.305997 0.668549 -1.469449 -4.443738 -0.244681 3.958085 3.663286 2.390184 0.145926 -1.914193 1.202993 0.085106 1.119028 1.764289 0.413107 1.270882 2.30135 -2.063297 -0.209725 -0.837978 1.54811 -1.075222 1.662849 3.024555 -0.817108 2.02425 0.827332 0.999754 -2.964958 -4.68355 2.112919 1.12159 -1.379614 1.011169 -1.034187 2.880255
1.939635 1.52901 1.289587 3.251535 -1.724015 -0.88548 -1.305419 2.302571 -1.417341 -1.68966 -0.63789 2.076267 -3.058223 1.539613 1.180597 0.029053 -0.321402 -2.23572 -2.38652 1.658533 -1.245721 -0.526509 -3.599429 0.754249 -0.80274 0.507379 -2.39552 1.105986 -0.056637 -0.438303 1.940801 -2.557426 0.985315 3.029874 0.213126 0.861485 3.121805 0.640059 -0.820139 -2.40745 -0.196076 -4.070904 0.803788 0.627065 2.287266 2.341116 0.489852 -1.57276 1.345608 0.42161 3.228641 4.822541 2.307207 0.997003 -2.753309 0.364194 3.286885 -0.854741 -0.545387 -4.263543 -0.321177 2.708668 -5.839749 -0.190246 1.192365 1.834868 0.85099 3.023894 0.019983 -0.356687 2.290085 -1.712409 1.283075 5.053623 2.119578 0.310527 -1.882558 -2.366862 0.130671 -0.478639 1.414622 1.526558 0.318589 2.752702 0.046978 -1.332104 0.951956 1.81757 -0.872666 2.804518 -1.758129 0.070445 -0.158419 -4.010314 -0.794193 0.288862 -0.172084 0.635215 -0.313457 -0.581935
-0.053507 -0.12588 0.074091 -0.003046 -0.095394 0.11221 -0.139117 -0.096058 -0.031561 -0.010207 0.194273 0.127364 -0.059286 0.017054 0.180206 0.262463 -0.034218 0.080675 0.17265 -0.025705 -0.240575 0.092485 0.28264 0.171413 -0.032536 -0.153883 -0.107594 0.059943 0.083052 -0.078978 -0.009533 0.150645 -0.207363 0.013917 -0.173968 -0.121626 0.073119 -0.071719 0.146561 0.144355 -0.018759 0.054059 -0.047999 -0.031014 0.017953 -0.184339 -0.073755 -0.019348 -0.079015 -0.111503 0.261418 -0.123191 -0.06357 -0.033273 -0.012769 -0.138614 -0.017216 -0.079851 0.04609 -0.220697 -0.017082 -0.165936 -0.099635 -0.147674 -0.186055 0.094724 0.060152 0.046163 0.090073 -0.112482 -0.067452 -0.015619 -0.019946 -0.050605 0.112505 -0.073886 0.046279 -0.134739 -0.029913 0.015801 0.024435 0.11893 0.251376 -0.191329 -0.126903 -0.004482 0.08996 0.076182 0.18289 0.122843 -0.338077 -0.110709 -0.273808 0.176921 -0.08076 -0.008268 0.07675 -0.001818 0.06847 -0.036455
-0.073859 0.072837 -0.12514 0.002232 0.038411 0.155593 -0.156133 -0.145735 0.1381 0.148106 0.085348 0.191753 0.158508 0.010347 0.067269 0.087823 -7.23E-4 0.189437 0.001419 0.193756 0.110625 -0.075298 0.219104 0.051524 -0.106531 -0.236222 -0.074413 0.097779 0.104756 -0.056857 0.155516 -0.241397 -0.193068 0.115553 -0.261028 -0.085226 0.093928 0.179258 0.134613 -0.2339 0.056793 0.26309 0.145207 0.392586 -0.09376 -0.112146 0.104897 -0.031059 0.019942 0.189718 -0.073913 -0.022208 0.064293 0.106264 0.087942 -0.129675 -0.03457 0.112103 0.009159 -0.026934 0.021831 -0.091381 0.012494 -0.020025 -0.13411 0.16342 -0.019868 0.057727 0.130819 -0.145761 -0.16516 -0.028395 0.036366 0.00195 0.019365 0.032244 -0.015 -0.121987 -0.093391 0.054082 0.049401 0.17059 0.023151 -0.253656 -0.006655 0.197425 -0.02692 -0.038143 0.034445 -0.222926 -0.05037 -0.208866 -0.162233 0.029272 -0.159392 -0.013435 -0.038025 0.268089 0.016529 -0.017679
-0.019746 -0.012961 0.147992 -0.140019 0.034402 -0.192861 0.081553 0.01133 0.032511 -0.132681 0.056427 0.102583 -0.0083 -0.003731 0.0345 0.226931 -0.193607 -0.047697 -0.035281 -0.215178 -0.057759 0.094633 0.051398 0.070479 -0.13496 -0.135945 -0.042021 0.037695 0.1597 -0.00139 -0.007647 -0.091093 0.119478 0.16011 0.034066 0.049639 0.163614 -0.215439 -0.076097 -0.005081 0.058494 -0.248892 -0.055876 -0.093836 -0.070603 -0.050568 0.001613 -0.042336 0.080545 -0.052429 0.012204 -0.025183 -0.066905 -0.007698 0.18121 0.062382 -0.015877 -0.072574 -0.068817 -0.072514 -0.029765 -0.217365 -0.014163 -0.031127 -0.188783 0.170637 0.152475 -0.00415 0.047736 -0.049677 0.061045 0.004984 -0.043613 -0.05589 0.116332 0.214723 0.162304 -0.010198 0.0738 -0.054894 -0.123597 -0.097009 0.311521 -0.113286 0.048997 -0.079457 0.040556 -0.044363 -0.005459 0.012692 0.097532 -0.084058 -0.156728 -0.05531 0.053665 -0.086991 0.025832 0.023237 0.107442 0.117047
-0.109347 0.123508 0.083346 0.111547 -0.166188 0.02015 -0.042947 -0.197937 -0.023433 -0.089967 -0.039518 0.149492 0.006962 -0.07513 0.154663 0.096287 -0.115469 0.140077 -0.05781 0.083524 -0.054744 0.076179 0.096762 0.097932 -0.087052 0.053567 -0.145496 0.041947 0.116022 -0.27431 0.181244 -0.01337 -0.059163 0.079999 0.068131 0.016707 0.221404 0.04039 -0.107379 -0.217243 0.179313 -0.037872 -0.224225 0.001913 -0.058138 -0.047708 -0.112982 0.110664 0.17942 0.150539 -0.043809 -0.002113 0.01779 -0.166794 0.053337 0.068357 -0.138706 0.024912 -0.069963 -0.270942 0.011497 0.112424 -0.108962 -0.134457 -0.131609 0.054849 -0.170615 0.097895 -0.045438 0.060327 -0.103618 -0.002258 0.197238 0.096072 0.001996 0.0854 -0.065276 -0.096871 0.009313 -0.023235 -0.075477 0.059339 0.037477 0.106301 -0.29167 0.029407 0.060953 -0.004085 0.042639 0.005675 -0.068779 0.013799 -0.117205 0.086553 -0.114042 -0.170835 0.046114 -0.031228 0.072254 0.037032
0.009216 0.123617 -0.005131 0.008459 -0.075842 -0.155601 -0.177275 -0.034042 0.149116 -0.07578 0.042621 -0.020233 0.060116 0.021543 -0.181189 0.044914 -0.119036 -0.051393 0.161761 0.053449 -0.092036 0.004058 0.08864 0.047289 -0.175956 -0.089848 0.008105 0.144498 0.138692 -0.115678 -0.190844 -0.061818 -0.116234 -0.001722 -0.166794 -0.097541 -0.004639 -0.060152 -0.136221 -0.099622 0.00156 0.145244 0.157584 -0.059597 -0.023838 -0.046726 0.017923 0.171603 -0.097483 -0.081237 -0.077719 0.09485 -0.055753 0.069416 0.123643 -0.009933 0.047319 0.080662 0.031677 -0.152001 0.148679 0.183525 0.131979 -0.145915 -0.204221 0.03259 0.005926 -0.107172 0.042416 0.127792 -0.074865 0.164976 0.050128 -0.06038 -0.05878 0.059895 0.155878 -0.16858 -0.09848 -0.128678 0.205447 -0.283872 0.076141 -0.150472 -0.077406 -0.038742 -0.160895 0.019061 -0.036135 0.062469 -0.159063 -0.092938 -0.037942 -0.011114 -0.016505 -0.160246 0.126277 -0.141391 -0.016152 -0.051215
0.068783 -0.051109 0.12047 0.151769 -0.10093 0.032228 -0.18177 0.026757 -0.136558 -0.009073 0.182929 0.079952 -0.022558 -0.087212 0.165452 0.170675 -0.064477 0.197118 0.058373 0.033051 -0.162767 0.180454 0.273004 0.09276 -0.207747 -0.038578 0.013583 0.056333 0.201628 -0.21846 -0.00483 0.0194 -0.133517 0.09188 -0.142254 -0.130916 0.027624 0.001999 0.095709 0.119701 -0.200169 0.060676 0.021118 -0.037351 0.056089 -0.13908 -0.065711 -0.039089 -0.160314 0.136912 0.186597 -0.15639 -0.039381 0.229579 0.083872 -0.160049 0.031128 0.067878 0.055557 -0.20798 0.175038 -0.225593 -0.043971 -0.211667 -0.146663 -0.14072 0.039219 0.040343 0.049411 -0.141789 0.064697 -0.063321 0.039591 -0.002182 0.105817 -0.20819 -0.167437 -0.057873 -0.055878 0.093954 -0.085066 0.17156 0.123217 -0.184305 0.028868 0.068711 0.192845 -0.072341 0.173928 0.170505 -0.154967 -0.091408 -0.032052 -0.009686 -0.130564 -0.108567 0.112011 0.096336 0.04487 0.001951
0.100892 0.069758 -0.045706 0.005325 -0.009284 0.024987 -0.06192 0.081023 -0.110454 -0.022013 0.074154 0.038598 -0.025971 0.019365 0.085507 0.182853 -0.056898 -0.152304 0.068812 0.11977 -0.130969 0.010164 -0.006869 -0.022437 -0.198101 0.004055 -0.076267 0.113133 0.198828 0.102079 -0.1163 -0.004474 -0.092582 0.124824 -0.032621 0.035273 0.064972 -0.113557 0.078488 0.084584 -0.139151 -0.137612 6.81E-4 0.207316 0.103374 -0.027898 0.007225 0.030867 -0.006121 0.006376 -0.036011 -0.162539 -0.027519 0.049533 -0.043815 -0.009021 -0.006836 0.024768 0.063209 -0.137123 0.013365 -0.100891 0.129056 -0.012889 0.009068 0.141101 -0.101172 -0.064212 0.104017 0.001272 0.089185 -0.136206 0.047174 0.079834 0.098637 -0.022293 -0.041421 -0.249466 -3.6E-5 -0.192601 0.08904 -0.264119 -0.103851 0.232488 -0.09434 -0.005066 0.10402 0.123632 0.082523 0.0582 -0.112025 -0.107755 0.041091 0.045253 0.106854 -0.002457 -0.165235 0.097317 0.038536 -0.026308
-0.118592 0.009687 -0.009069 -0.146149 -0.026713 -0.02669 -0.167291 0.059376 -0.232752 -0.082618 0.001793 0.247505 0.166447 -0.079691 0.157181 0.26182 -0.106497 0.246518 0.213455 -0.146745 -0.101366 -0.033982 0.243224 -0.104549 -0.185533 -0.199591 9.63E-4 -0.083629 0.050593 0.075392 -0.180207 -0.116761 0.101358 0.281449 -0.166374 -0.10959 0.104286 -0.027019 0.044953 -0.022013 -0.131948 0.075621 0.00544 -0.12134 -0.133369 -0.099819 -0.038244 -0.010732 -0.003226 0.091548 0.140965 -0.086701 -0.088884 -0.036806 1.38E-4 -0.162291 -0.05997 0.017753 -0.056424 -0.010171 0.181741 -0.201058 0.200611 -0.014179 -0.024641 0.024057 0.179216 -0.023333 0.128329 -0.024315 -0.29185 0.080784 0.111351 -0.140657 0.052565 0.081701 -0.128761 -0.131799 -0.153369 -0.172699 0.193407 -0.025195 0.045241 -0.127555 -0.041703 0.146777 0.001695 -0.014514 0.102204 0.241166 -0.061511 -0.114902 -0.122876 0.126415 0.064878 -0.14481 -0.085743 -0.017957 -0.03895 -0.019264
0.100892 0.069758 -0.045706 0.005325 -0.009284 0.024987 -0.06192 0.081023 -0.110454 -0.022013 0.074154 0.038598 -0.025971 0.019365 0.085507 0.182853 -0.056898 -0.152304 0.068812 0.11977 -0.130969 0.010164 -0.006869 -0.022437 -0.198101 0.004055 -0.076267 0.113133 0.198828 0.102079 -0.1163 -0.004474 -0.092582 0.124824 -0.032621 0.035273 0.064972 -0.113557 0.078488 0.084584 -0.139151 -0.137612 6.81E-4 0.207316 0.103374 -0.027898 0.007225 0.030867 -0.006121 0.006376 -0.036011 -0.162539 -0.027519 0.049533 -0.043815 -0.009021 -0.006836 0.024768 0.063209 -0.137123 0.013365 -0.100891 0.129056 -0.012889 0.009068 0.141101 -0.101172 -0.064212 0.104017 0.001272 0.089185 -0.136206 0.047174 0.079834 0.098637 -0.022293 -0.041421 -0.249466 -3.6E-5 -0.192601 0.08904 -0.264119 -0.103851 0.232488 -0.09434 -0.005066 0.10402 0.123632 0.082523 0.0582 -0.112025 -0.107755 0.041091 0.045253 0.106854 -0.002457 -0.165235 0.097317 0.038536 -0.026308
-0.064195 -0.117086 -0.039943 0.169783 -0.049972 -0.131549 0.028375 0.128883 -0.276888 0.043386 -0.031909 0.175556 -0.100628 -0.197332 0.049809 0.087903 0.078242 0.170539 -0.136416 0.104461 0.078807 0.07651 0.171874 0.1068 -0.131497 -0.105907 -0.072115 -0.029739 0.091957 -0.223834 0.106718 0.023237 -0.054262 -0.130882 0.033409 -0.029223 0.119043 -0.091811 -0.121317 0.029602 -0.106251 0.142973 0.020019 0.090746 0.06177 -0.247453 -0.128954 0.162439 -0.04877 0.1303 0.007417 -0.041617 0.007381 -0.059681 0.258224 0.038548 -0.00134 0.040674 -0.101333 -0.037116 0.139645 0.07904 0.067312 -0.243378 -0.012248 -0.024835 -0.073562 -0.077112 -0.135011 -0.026165 -0.013964 -0.027847 -0.173528 0.246164 -0.05887 -0.051838 -0.180275 0.119143 -0.033255 -0.064342 -0.092832 0.070973 0.105014 -0.073728 0.004946 0.186448 0.0736 -0.009804 0.035064 0.123994 -0.006252 0.014451 -0.032777 -0.006731 -0.06405 0.029499 0.090927 -0.08189 0.024738 -0.051373
0.009816 -0.132646 0.013536 -0.024913 0.035848 0.013727 -0.040311 -1.36E-4 -0.253025 -0.113211 -0.087631 0.14568 -0.070049 0.029166 0.08329 0.027195 0.028184 -0.211162 -0.013038 -0.255323 -0.082684 -0.045024 0.292372 -0.036804 0.076119 0.042333 -0.030612 0.048033 -0.144552 -0.020039 0.008163 -0.083534 0.048918 0.047618 -0.255837 -0.09809 0.101674 0.004616 -0.033611 -0.175604 0.013272 0.013751 0.046259 -0.017001 -0.185697 0.146025 -0.013555 0.148442 -0.186016 -0.123888 -0.064524 -0.05257 -0.158445 0.033206 -0.022589 0.272285 0.011967 0.051035 0.077399 0.090494 -0.275395 0.068975 -0.051044 -0.008113 -0.083374 -0.216459 -0.013515 -0.087691 0.171381 0.26922 0.223781 0.066544 -0.114183 -0.061955 0.198409 -0.036221 0.048551 0.109301 -0.022812 -0.07223 0.074231 -0.080034 0.128893 -0.108953 -0.302115 -5.43E-4 -0.039967 0.100236 0.043373 -0.129987 0.097655 0.031988 -0.11098 -0.016587 -0.167472 0.12664 0.101004 -0.096938 0.009529 0.039394
-0.109347 0.123508 0.083346 0.111547 -0.166188 0.02015 -0.042947 -0.197937 -0.023433 -0.089967 -0.039518 0.149492 0.006962 -0.07513 0.154663 0.096287 -0.115469 0.140077 -0.05781 0.083524 -0.054744 0.076179 0.096762 0.097932 -0.087052 0.053567 -0.145496 0.041947 0.116022 -0.27431 0.181244 -0.01337 -0.059163 0.079999 0.068131 0.016707 0.221404 0.04039 -0.107379 -0.217243 0.179313 -0.037872 -0.224225 0.001913 -0.058138 -0.047708 -0.112982 0.110664 0.17942 0.150539 -0.043809 -0.002113 0.01779 -0.166794 0.053337 0.068357 -0.138706 0.024912 -0.069963 -0.270942 0.011497 0.112424 -0.108962 -0.134457 -0.131609 0.054849 -0.170615 0.097895 -0.045438 0.060327 -0.103618 -0.002258 0.197238 0.096072 0.001996 0.0854 -0.065276 -0.096871 0.009313 -0.023235 -0.075477 0.059339 0.037477 0.106301 -0.29167 0.029407 0.060953 -0.004085 0.042639 0.005675 -0.068779 0.013799 -0.117205 0.086553 -0.114042 -0.170835 0.046114 -0.031228 0.072254 0.037032
0.12265 0.064346 -0.035767 -0.131981 -0.254046 -0.018383 -0.055587 -0.10433 -0.307608 0.188876 0.123128 0.155073 -0.054565 -0.170629 -0.153042 0.178613 0.158998 -0.129746 -0.09361 0.172725 -0.011243 0.021076 0.307526 0.087993 0.13198 0.020834 -0.070384 -0.016974 -0.15108 -0.129062 0.165461 -0.074792 -0.063073 0.024104 -0.25137 -0.19461 0.055187 -0.095484 -0.287886 0.044909 0.084435 -0.087824 -0.154994 -0.067809 0.062962 -0.293022 0.031904 0.069307 0.093386 -0.106389 0.016863 -0.132685 -0.3338 -0.274269 0.173391 -0.053247 0.055566 -0.177 0.148825 -0.13082 0.152513 -0.182134 -0.125633 -0.197569 0.043728 0.069283 -0.105015 -0.022049 0.140295 0.115797 -0.021467 0.128753 0.265591 0.019313 0.195826 0.226134 0.247457 -0.04134 -0.062141 -0.075173 -0.343441 0.060816 0.159822 -0.115261 -0.130165 -0.158183 0.102378 0.209814 -0.055852 -0.031654 0.244155 -0.039841 -0.093471 0.131378 0.047032 0.003137 0.109691 -0.044997 0.039501 0.334904
0.092021 0.022898 0.080178 0.100247 -0.020306 -0.144148 -0.174425 -0.07162 -0.181535 0.094194 0.085043 0.111849 0.192981 -0.139394 0.085676 0.16949 0.100008 0.082307 -0.030609 0.01573 -0.115622 0.070086 0.037191 0.161827 -0.148617 -0.028949 -0.189993 -0.054307 0.177889 -0.043568 -0.145472 0.202189 -0.023918 0.01638 0.030545 -0.178358 0.037762 0.070135 0.073459 0.324025 0.036015 -0.125126 -0.075413 -0.074415 0.121619 -0.253672 -0.172183 0.044948 -0.244306 0.092127 0.026639 -0.162097 -0.116903 0.064643 -0.092524 -0.099682 0.079807 -0.038732 0.103465 0.011288 -0.007911 0.021001 0.147171 -0.067382 0.054022 -0.175457 -0.068372 0.078282 0.060053 -0.131352 -0.239398 0.035837 0.065677 -0.001407 -0.02143 -0.060182 0.025294 0.092369 -0.020789 0.110383 0.084929 0.097218 0.22024 -0.059992 -0.015059 0.054243 -0.060302 -0.072828 -0.04358 -0.029218 -0.199729 -0.028162 0.066626 -0.008205 -0.101491 -0.057283 0.128781 -0.050444 -0.069978 -0.232747
-0.17663 -0.076451 -0.094902 0.029781 0.090595 0.034274 0.065665 0.027437 0.105523 0.005354 0.09117 0.136016 -0.13468 -0.058374 -0.039835 0.106135 -0.017638 0.124945 0.117147 0.037478 -0.192594 -0.048811 0.077917 0.094032 -0.109224 -0.020572 -0.151081 -0.110223 0.037757 -0.067752 0.072281 0.020379 0.027036 0.212467 0.033119 0.071329 0.064081 0.068298 0.033715 -0.108277 0.070114 -0.012085 0.005112 -0.067253 -0.03946 -0.005222 -0.142354 0.155106 -0.034799 0.115345 -0.012082 0.058835 0.058421 -0.005498 -0.168711 0.130684 -0.044135 0.07728 0.168209 -0.126118 0.096822 -0.135433 0.176751 0.024453 -0.073028 0.06944 0.002342 -0.053483 -0.009706 0.109181 -0.038518 0.047753 0.033687 -0.066307 -0.034226 -0.245823 -0.074347 0.013579 -0.072697 -0.139013 -0.022643 0.104258 0.12324 -0.057776 0.019206 0.05997 0.008548 -0.171493 0.07689 -0.061972 0.003265 -0.001716 0.021432 0.135634 0.050357 -0.100673 0.040187 0.024561 -0.047961 -0.01101
-0.124276 -2.054402 -0.343635 1.81865 -2.16991 1.782205 0.82505 0.982572 -2.067194 -1.156199 0.298204 0.610046 -4.440783 -0.456446 1.442584 1.853605 -0.146562 2.077692 0.195573 -0.915147 0.599326 0.594442 1.900077 -1.11832 -0.711089 1.802311 -0.934321 4.923428 0.778654 -0.69484 -0.912197 0.151877 -0.031909 -0.121674 -3.551828 0.057548 0.447763 -0.623346 2.678004 -1.345078 -3.955954 -4.075293 -1.036935 -1.334541 -0.166985 -0.129224 -1.031956 -2.988586 3.17002 0.328676 1.405671 0.778493 -1.163548 2.145235 -1.779305 1.663516 1.887483 0.848116 -1.423908 -2.594846 -0.535155 -0.166339 0.121853 -0.577388 -1.832659 -2.926389 -3.361567 0.159506 -0.752505 4.326194 2.90284 -1.469079 -0.616227 0.788738 -0.806913 2.13246 1.096647 1.237584 -0.288162 0.179698 1.570163 0.091941 -1.524701 -1.102449 -1.615839 -0.364109 -2.101004 -0.663784 -0.318699 0.051272 0.686067 -1.094801 1.568548 -3.03993 1.893188 -1.377119 -2.094228 3.564402 -2.235058 -0.581437
-0.063002 -0.234083 0.048008 -0.021485 0.118425 -0.069097 -0.089614 0.015575 -0.088887 0.008327 0.207637 0.145627 0.039454 -0.145483 0.089805 0.196481 -0.026693 0.037297 0.038377 -0.023252 -0.091593 0.155254 0.091762 0.050857 -0.144125 -0.075574 0.049194 -0.032084 0.088898 -0.067973 -0.157209 -0.065605 -0.063939 0.138195 -0.158256 -0.04692 0.110173 -0.083955 0.114583 -0.018865 -0.089491 -0.035668 -0.039526 -0.115205 0.064068 0.002368 -0.123687 -0.024408 -0.086747 -0.035676 0.106402 -0.137065 -0.237056 -0.05544 0.044405 -0.024529 -0.050672 -0.058347 0.091211 -0.044203 0.049511 -0.047131 -0.007296 -0.041396 -0.197592 0.039256 0.094077 0.002507 0.045318 -0.030448 -0.002259 0.129894 0.004666 -0.055742 0.17851 -0.088069 -0.097555 -0.041865 -0.069832 -0.013662 0.134387 0.047405 0.029899 -0.225063 -0.109655 -0.168055 0.098443 0.06128 0.226794 0.174187 -0.15428 5.93E-4 -0.052234 -0.024077 0.128116 -0.13384 -0.03913 0.070803 -0.065908 0.038777
