0.015966 0.082275 0.244086 0.135131 0.086661 -0.07108 0.117129 -0.022949 -0.070629 0.031525 0.121659 0.198453 -0.170391 -0.124908 0.074014 0.072207 -0.144941 0.069315 -0.11522 -0.015639 0.027575 0.164075 0.093154 -0.131532 0.126245 -0.018947 -0.072033 0.116535 0.081726 -0.047775 0.194369 -0.111704 -0.106896 -0.196335 0.199859 -0.122022 -0.025765 -0.12183 0.018287 0.005338 -0.18789 -0.109117 0.097156 -0.063075 -0.097232 0.098315 0.159224 0.093327 0.007199 0.012181 -0.089253 -0.156689 -0.197619 0.014638 -0.221813 -0.065132 0.020436 -0.018855 -0.095447 0.010743 -0.219649 0.264757 -0.12541 0.026982 0.004244 -0.060287 0.021534 -0.069757 0.121664 0.009352 0.023015 0.01808 -0.025824 -0.031825 0.015246 -0.052323 0.005172 -0.162099 -0.046568 0.167871 -0.100889 0.145419 0.010225 -0.025632 0.074895 0.19243 0.152564 -0.028017 0.230726 0.120613 -0.006271 0.052373 -0.156822 0.12854 -0.049107 -0.239344 0.05321 0.096895 0.028022 0.089884
-0.046402 -0.091706 0.061221 0.133444 -0.008668 -0.16598 -0.07187 -0.087157 -0.052572 0.073168 0.095557 0.257013 0.142319 -0.081129 -0.066367 0.308917 0.028502 0.04387 0.083795 -0.016291 -0.082195 0.077681 0.230168 -0.005251 -0.04611 -0.08803 -0.157456 -0.023775 0.073221 0.062342 0.047893 -0.048412 -0.087557 -0.012438 -0.024717 -0.229277 0.183815 -0.090387 -0.017625 0.119046 -0.048995 0.155954 0.076712 -0.047176 -0.03431 -0.12912 0.198561 0.110542 -0.147049 0.033725 0.097346 -0.24984 -0.142597 -0.076786 0.134535 -0.136149 0.008805 0.126594 0.279123 -0.015593 0.230276 -0.168691 -0.002176 -0.161187 -0.101854 0.064825 -0.015816 -0.080153 0.098999 -0.150849 -0.02364 -0.029365 -0.100959 -0.006385 0.109394 -0.131104 0.018252 -0.186174 -0.086431 0.089744 -0.182748 0.154491 0.086368 -0.118594 0.304352 -0.019286 0.065491 0.018946 0.098769 0.25693 -0.159979 0.036608 -0.144006 0.07858 -0.158615 -0.15784 0.242939 -0.040458 -0.081704 -0.082728
0.0 0.0 0.0 0.0 0.0 0.0 0.0 0.0 0.0 0.0 0.0 0.0 0.0 0.0 0.0 0.0 0.0 0.0 0.0 0.0 0.0 0.0 0.0 0.0 0.0 0.0 0.0 0.0 0.0 0.0 0.0 0.0 0.0 0.0 0.0 0.0 0.0 0.0 0.0 0.0 0.0 0.0 0.0 0.0 0.0 0.0 0.0 0.0 0.0 0.0 0.0 0.0 0.0 0.0 0.0 0.0 0.0 0.0 0.0 0.0 0.0 0.0 0.0 0.0 0.0 0.0 0.0 0.0 0.0 0.0 0.0 0.0 0.0 0.0 0.0 0.0 0.0 0.0 0.0 0.0 0.0 0.0 0.0 0.0 0.0 0.0 0.0 0.0 0.0 0.0 0.0 0.0 0.0 0.0 0.0 0.0 0.0 0.0 0.0 0.0
-0.341569 0.312588 0.815719 3.710827 0.572954 -1.344685 -1.246494 0.286492 -0.612698 0.247304 1.523335 2.043624 -1.069825 0.404141 -0.118869 0.242394 -0.527242 0.834954 0.464331 -2.559981 -3.051991 -0.451655 -1.672496 -0.794235 1.638653 0.110461 -1.390064 -0.235147 1.411034 0.728492 1.346296 1.055683 -0.784898 -1.664071 1.349911 -1.07349 -0.032111 0.731532 -1.810549 -2.052864 -2.181275 -2.468585 0.077652 -1.458478 0.303232 1.380494 -0.172392 -0.171621 -0.12784 0.665634 0.0338 -2.611889 -0.347535 0.433047 -0.25299 -0.706869 -0.512109 1.22931 -0.539265 1.133154 0.712009 2.061954 -0.955311 0.885614 -1.570771 -1.978332 -1.158137 -0.938321 -0.076198 -1.318784 -1.748882 0.366848 0.773085 0.134716 -1.62225 -0.847365 -2.124812 0.261342 0.614196 1.013141 0.138982 0.700245 0.995707 1.699363 0.083463 -1.864233 0.607098 -0.524773 -0.423014 -1.36331 -0.543255 0.455639 0.331763 0.922252 0.648772 -2.669806 -1.080637 -1.273156 -0.256551 1.321806
0.015966 0.082275 0.244086 0.135131 0.086661 -0.07108 0.117129 -0.022949 -0.070629 0.031525 0.121659 0.198453 -0.170391 -0.124908 0.074014 0.072207 -0.144941 0.069315 -0.11522 -0.015639 0.027575 0.164075 0.093154 -0.131532 0.126245 -0.018947 -0.072033 0.116535 0.081726 -0.047775 0.194369 -0.111704 -0.106896 -0.196335 0.199859 -0.122022 -0.025765 -0.12183 0.018287 0.005338 -0.18789 -0.109117 0.097156 -0.063075 -0.097232 0.098315 0.159224 0.093327 0.007199 0.012181 -0.089253 -0.156689 -0.197619 0.014638 -0.221813 -0.065132 0.020436 -0.018855 -0.095447 0.010743 -0.219649 0.264757 -0.12541 0.026982 0.004244 -0.060287 0.021534 -0.069757 0.121664 0.009352 0.023015 0.01808 -0.025824 -0.031825 0.015246 -0.052323 0.005172 -0.162099 -0.046568 0.167871 -0.100889 0.145419 0.010225 -0.025632 0.074895 0.19243 0.152564 -0.028017 0.230726 0.120613 -0.006271 0.052373 -0.156822 0.12854 -0.049107 -0.239344 0.05321 0.096895 0.028022 0.089884
0.081136 -0.136923 0.070417 0.20508 -0.022939 -0.059967 -0.312815 -0.141054 -0.096877 0.178968 0.164506 -0.047259 -0.054307 -0.071616 0.17262 0.304261 -0.003812 0.057163 -0.023592 -0.083519 -0.214665 -0.03219 0.075441 0.021646 -0.180604 -0.089558 -0.084739 -0.031649 0.243774 -0.279346 0.130584 -0.068305 -0.30723 -0.085302 -0.194516 1.73E-4 0.028814 -0.04522 0.032331 0.064634 -0.300218 0.035444 0.107679 0.034083 0.044666 -0.096232 -0.001438 0.037183 -0.073123 0.136581 -0.070902 -0.01961 -0.196579 0.198403 0.11681 -0.296456 -0.042441 0.140602 0.167704 -0.092967 0.006746 -0.182827 0.106805 0.029922 -0.149056 0.034431 0.234385 0.020857 0.237826 -0.164406 -0.260021 -0.077359 -0.057429 -0.073959 0.049306 -0.206054 -0.191122 -0.090317 0.010752 0.033561 -0.031283 -0.039874 0.305987 -0.039613 0.090988 0.243328 0.058233 0.137311 0.093671 -0.184745 -0.109444 0.175813 -0.031512 0.210213 -0.045824 -0.140244 0.028579 -0.120376 -0.00594 0.099595
-0.011401 -0.148384 0.198507 0.014281 -0.112075 -0.043296 -0.0896 -0.172698 -0.112186 0.088068 0.143385 0.190086 0.016383 -0.059187 0.177615 0.164917 -0.076105 0.157518 0.080312 0.038369 -0.126254 0.157889 0.189299 0.1266 -0.218361 -0.030584 -0.167432 0.012597 0.231352 -0.133925 -0.024844 1.58E-4 -0.026968 0.053663 -0.099208 -0.073596 -0.003551 -0.053953 0.005108 0.103921 -0.072911 0.202477 -0.013601 -0.043473 -0.004453 -0.032077 -0.050562 0.005374 -0.247736 0.142506 0.086329 -0.161261 -0.061927 9.68E-4 0.13499 -0.093917 -0.08376 -0.159776 0.062987 -0.051299 0.111697 -0.172846 -0.048841 -0.13167 -0.088857 -0.022418 0.075589 0.064087 0.169376 -0.103409 -0.112249 0.021501 -0.045088 -0.101752 0.065418 0.011421 -0.173935 -4.36E-4 0.009245 -0.088695 -0.060097 0.180829 0.087706 -0.212514 -0.008053 0.035302 0.176063 0.065895 0.265278 0.092446 -0.15587 -0.146044 0.118119 0.175072 -0.075941 -0.042854 0.090929 0.066769 0.032815 -0.099912
-0.046402 -0.091706 0.061221 0.133444 -0.008668 -0.16598 -0.07187 -0.087157 -0.052572 0.073168 0.095557 0.257013 0.142319 -0.081129 -0.066367 0.308917 0.028502 0.04387 0.083795 -0.016291 -0.082195 0.077681 0.230168 -0.005251 -0.04611 -0.08803 -0.157456 -0.023775 0.073221 0.062342 0.047893 -0.048412 -0.087557 -0.012438 -0.024717 -0.229277 0.183815 -0.090387 -0.017625 0.119046 -0.048995 0.155954 0.076712 -0.047176 -0.03431 -0.12912 0.198561 0.110542 -0.147049 0.033725 0.097346 -0.24984 -0.142597 -0.076786 0.134535 -0.136149 0.008805 0.126594 0.279123 -0.015593 0.230276 -0.168691 -0.002176 -0.161187 -0.101854 0.064825 -0.015816 -0.080153 0.098999 -0.150849 -0.02364 -0.029365 -0.100959 -0.006385 0.109394 -0.131104 0.018252 -0.186174 -0.086431 0.089744 -0.182748 0.154491 0.086368 -0.118594 0.304352 -0.019286 0.065491 0.018946 0.098769 0.25693 -0.159979 0.036608 -0.144006 0.07858 -0.158615 -0.15784 0.242939 -0.040458 -0.081704 -0.082728
0.0 0.0 0.0 0.0 0.0 0.0 0.0 0.0 0.0 0.0 0.0 0.0 0.0 0.0 0.0 0.0 0.0 0.0 0.0 0.0 0.0 0.0 0.0 0.0 0.0 0.0 0.0 0.0 0.0 0.0 0.0 0.0 0.0 0.0 0.0 0.0 0.0 0.0 0.0 0.0 0.0 0.0 0.0 0.0 0.0 0.0 0.0 0.0 0.0 0.0 0.0 0.0 0.0 0.0 0.0 0.0 0.0 0.0 0.0 0.0 0.0 0.0 0.0 0.0 0.0 0.0 0.0 0.0 0.0 0.0 0.0 0.0 0.0 0.0 0.0 0.0 0.0 0.0 0.0 0.0 0.0 0.0 0.0 0.0 0.0 0.0 0.0 0.0 0.0 0.0 0.0 0.0 0.0 0.0 0.0 0.0 0.0 0.0 0.0 0.0
-0.341569 0.312588 0.815719 3.710827 0.572954 -1.344685 -1.246494 0.286492 -0.612698 0.247304 1.523335 2.043624 -1.069825 0.404141 -0.118869 0.242394 -0.527242 0.834954 0.464331 -2.559981 -3.051991 -0.451655 -1.672496 -0.794235 1.638653 0.110461 -1.390064 -0.235147 1.411034 0.728492 1.346296 1.055683 -0.784898 -1.664071 1.349911 -1.07349 -0.032111 0.731532 -1.810549 -2.052864 -2.181275 -2.468585 0.077652 -1.458478 0.303232 1.380494 -0.172392 -0.171621 -0.12784 0.665634 0.0338 -2.611889 -0.347535 0.433047 -0.25299 -0.706869 -0.512109 1.22931 -0.539265 1.133154 0.712009 2.061954 -0.955311 0.885614 -1.570771 -1.978332 -1.158137 -0.938321 -0.076198 -1.318784 -1.748882 0.366848 0.773085 0.134716 -1.62225 -0.847365 -2.124812 0.261342 0.614196 1.013141 0.138982 0.700245 0.995707 1.699363 0.083463 -1.864233 0.607098 -0.524773 -0.423014 -1.36331 -0.543255 0.455639 0.331763 0.922252 0.648772 -2.669806 -1.080637 -1.273156 -0.256551 1.321806
0.040639 0.081814 0.04287 0.062167 0.092794 0.114908 -5.3E-4 -0.061893 -0.128806 0.029658 -0.102642 0.050736 0.021353 0.278962 0.156361 -0.045776 -0.059025 0.007615 0.069272 0.03742 0.044666 -0.205296 -0.009373 0.060588 0.130976 -0.007905 -0.098053 0.083234 0.088487 0.073668 -0.063313 0.05638 -0.149995 0.040243 0.139103 0.120814 0.186168 0.077513 0.035539 -0.137722 0.149343 -0.011946 0.157701 0.051791 -0.073664 0.096946 -0.283681 0.058369 -0.065895 0.126711 -0.040991 -0.045914 -0.057224 -0.17697 0.066608 0.102407 -0.15335 -0.00258 -0.222251 -0.069709 -9.96E-4 0.033302 -0.223593 -0.01348 0.109527 0.085455 -0.086426 0.046289 0.047765 0.150103 -0.094972 -0.019492 -0.08396 0.061637 0.042416 0.083935 -0.175169 -0.031524 -0.150901 -0.072843 -0.056665 0.199748 0.160562 -0.070466 0.072887 0.025233 0.011767 0.031496 0.08045 -0.027642 0.037393 0.123465 -0.042501 0.013419 0.046506 -0.08898 -0.024989 -0.132646 0.135167 0.194549
-2.120847 2.749144 0.620953 0.448727 4.645135 2.560189 -0.62711 -3.199059 0.06569 3.481896 0.009702 0.324668 -2.907677 0.444894 1.399152 3.198224 -3.29334 -1.072626 -0.301005 -1.522442 -1.459817 0.034404 1.508929 -4.41458 -0.5999 2.348293 0.005751 0.757117 -0.297867 -0.91362 -0.764523 1.011673 0.697412 -3.060911 -2.409397 -1.17756 0.083965 -1.779228 1.920408 -0.113308 0.434802 -0.384948 0.381268 -0.58926 -1.087416 0.689473 -2.225714 3.254371 3.73998 -0.823669 2.933674 2.185937 -1.622748 3.377758 1.044186 3.815302 1.067205 1.30464 -0.784387 -4.70747 -2.088846 0.466766 -0.653828 -0.308432 0.60762 -0.115073 0.778797 -1.358876 -1.483209 1.12585 2.575259 1.145022 1.725113 2.669754 2.114418 1.468883 -2.866826 2.62544 -0.76222 -0.310068 1.668538 -1.244435 -3.668862 0.78977 -1.746979 2.597904 -0.196177 -3.037062 0.999192 1.503946 2.350767 -1.435414 -2.951469 -4.051059 -0.716532 -3.474195 0.202724 3.327394 -1.681497 1.965648
0.0 0.0 0.0 0.0 0.0 0.0 0.0 0.0 0.0 0.0 0.0 0.0 0.0 0.0 0.0 0.0 0.0 0.0 0.0 0.0 0.0 0.0 0.0 0.0 0.0 0.0 0.0 0.0 0.0 0.0 0.0 0.0 0.0 0.0 0.0 0.0 0.0 0.0 0.0 0.0 0.0 0.0 0.0 0.0 0.0 0.0 0.0 0.0 0.0 0.0 0.0 0.0 0.0 0.0 0.0 0.0 0.0 0.0 0.0 0.0 0.0 0.0 0.0 0.0 0.0 0.0 0.0 0.0 0.0 0.0 0.0 0.0 0.0 0.0 0.0 0.0 0.0 0.0 0.0 0.0 0.0 0.0 0.0 0.0 0.0 0.0 0.0 0.0 0.0 0.0 0.0 0.0 0.0 0.0 0.0 0.0 0.0 0.0 0.0 0.0
-0.002237 0.068675 -0.046287 -0.031886 -0.137919 0.013661 -0.031519 0.181064 0.020382 0.087791 -0.063359 -0.215116 0.035582 -0.03427 0.11849 -0.122356 0.136002 0.052442 0.125394 0.098851 -0.019775 0.239399 0.11961 -0.062103 0.084164 0.038598 0.133902 -0.142957 0.016318 0.171035 -0.065419 0.065747 0.102706 -0.196078 -0.024411 0.129514 -0.10998 -0.009823 -0.090532 0.027363 -0.044151 0.056098 -0.063484 -0.059632 0.044203 -0.033025 0.13901 0.064248 -0.104433 -0.06356 0.003656 0.094117 0.011135 -0.074083 0.154524 -0.077153 -0.005097 -0.026065 0.160962 0.048547 0.066881 0.02394 -0.018035 0.127532 -4.3E-4 0.044966 0.081409 -0.06808 0.157435 0.081565 -0.121249 0.018908 0.028423 0.027461 0.130568 0.033633 -0.031653 0.031799 0.130089 0.148517 0.104493 0.045419 0.002147 0.086544 0.060944 0.174382 -0.062334 -0.177867 0.023145 0.048495 -0.135988 -0.077762 -0.025428 0.055864 0.08813 0.062387 -0.009352 -0.095337 -0.191885 0.052572
0.007805 -0.07345 0.123907 -0.030984 -0.08743 -0.158221 -0.137941 0.050421 -0.15177 -0.100449 0.185262 0.093983 -0.161407 0.101125 0.132469 0.312988 0.102233 0.098705 0.004686 -0.014793 -0.052009 0.246594 0.248026 0.053264 -0.15586 -0.235297 -0.091581 0.047259 0.24065 -0.177291 -0.082049 0.016832 -0.045281 -0.051034 -0.136733 0.033168 0.059209 0.054036 -0.037703 0.078729 -0.151667 -0.030878 -0.054603 0.137904 0.249018 0.014901 0.008011 -0.033434 -0.013562 0.022647 -0.063224 -0.154448 0.018578 -0.142023 0.018423 0.013588 -0.011329 -0.005371 0.02952 -0.077316 0.03151 -0.157499 -0.148248 -0.04936 -0.130979 -0.09605 -0.156359 -0.12793 -0.012071 0.110429 -0.082423 0.076904 -0.034369 0.076884 0.029806 -0.158475 0.090376 0.009428 0.122907 -0.13707 0.140081 -0.037685 0.052466 -0.123026 -0.02588 -0.113552 0.018825 0.012818 -0.130858 0.245935 -0.216858 -0.002008 -0.076466 0.154324 0.035529 0.024073 -0.106034 -0.10467 0.083582 -0.176818
-0.046402 -0.091706 0.061221 0.133444 -0.008668 -0.16598 -0.07187 -0.087157 -0.052572 0.073168 0.095557 0.257013 0.142319 -0.081129 -0.066367 0.308917 0.028502 0.04387 0.083795 -0.016291 -0.082195 0.077681 0.230168 -0.005251 -0.04611 -0.08803 -0.157456 -0.023775 0.073221 0.062342 0.047893 -0.048412 -0.087557 -0.012438 -0.024717 -0.229277 0.183815 -0.090387 -0.017625 0.119046 -0.048995 0.155954 0.076712 -0.047176 -0.03431 -0.12912 0.198561 0.110542 -0.147049 0.033725 0.097346 -0.24984 -0.142597 -0.076786 0.134535 -0.136149 0.008805 0.126594 0.279123 -0.015593 0.230276 -0.168691 -0.002176 -0.161187 -0.101854 0.064825 -0.015816 -0.080153 0.098999 -0.150849 -0.02364 -0.029365 -0.100959 -0.006385 0.109394 -0.131104 0.018252 -0.186174 -0.086431 0.089744 -0.182748 0.154491 0.086368 -0.118594 0.304352 -0.019286 0.065491 0.018946 0.098769 0.25693 -0.159979 0.036608 -0.144006 0.07858 -0.158615 -0.15784 0.242939 -0.040458 -0.081704 -0.082728
0.0 0.0 0.0 0.0 0.0 0.0 0.0 0.0 0.0 0.0 0.0 0.0 0.0 0.0 0.0 0.0 0.0 0.0 0.0 0.0 0.0 0.0 0.0 0.0 0.0 0.0 0.0 0.0 0.0 0.0 0.0 0.0 0.0 0.0 0.0 0.0 0.0 0.0 0.0 0.0 0.0 0.0 0.0 0.0 0.0 0.0 0.0 0.0 0.0 0.0 0.0 0.0 0.0 0.0 0.0 0.0 0.0 0.0 0.0 0.0 0.0 0.0 0.0 0.0 0.0 0.0 0.0 0.0 0.0 0.0 0.0 0.0 0.0 0.0 0.0 0.0 0.0 0.0 0.0 0.0 0.0 0.0 0.0 0.0 0.0 0.0 0.0 0.0 0.0 0.0 0.0 0.0 0.0 0.0 0.0 0.0 0.0 0.0 0.0 0.0
0.118318 -0.212384 0.072924 0.180623 -0.188298 0.16538 -0.149727 0.054785 0.074055 0.244426 0.145818 0.132898 -0.237371 -0.161465 0.145746 0.091843 -0.276183 0.516733 -0.016958 -0.207653 -0.152877 -0.286966 0.138585 -0.04998 -0.011045 -0.061552 -0.036144 -0.072754 0.221982 -0.116737 0.211784 0.143872 0.055025 0.072226 -0.190245 0.260964 -0.112212 -0.055496 -0.145065 0.148451 -0.197856 -0.167197 0.043556 -0.098361 0.145541 0.033014 0.100108 0.069526 -0.069641 0.117831 0.229266 -0.207913 -0.20863 0.013006 0.065052 -0.151731 -0.108072 -0.017124 -0.009081 -0.024689 -0.178116 -0.049028 -0.119868 -0.139305 -0.004983 0.035943 -0.002332 9.8E-4 0.131146 0.048601 0.176254 0.100827 0.0408 0.191492 -0.203851 0.089084 -0.037476 -0.08041 0.026063 -0.079721 0.083779 0.188498 0.480265 -0.142826 0.092122 0.154868 0.144369 0.235595 -0.018865 -0.00396 -0.009883 -0.107157 -0.088617 0.029723 0.191586 -0.037367 -0.01842 0.120309 0.159968 0.024446
0.0 0.0 0.0 0.0 0.0 0.0 0.0 0.0 0.0 0.0 0.0 0.0 0.0 0.0 0.0 0.0 0.0 0.0 0.0 0.0 0.0 0.0 0.0 0.0 0.0 0.0 0.0 0.0 0.0 0.0 0.0 0.0 0.0 0.0 0.0 0.0 0.0 0.0 0.0 0.0 0.0 0.0 0.0 0.0 0.0 0.0 0.0 0.0 0.0 0.0 0.0 0.0 0.0 0.0 0.0 0.0 0.0 0.0 0.0 0.0 0.0 0.0 0.0 0.0 0.0 0.0 0.0 0.0 0.0 0.0 0.0 0.0 0.0 0.0 0.0 0.0 0.0 0.0 0.0 0.0 0.0 0.0 0.0 0.0 0.0 0.0 0.0 0.0 0.0 0.0 0.0 0.0 0.0 0.0 0.0 0.0 0.0 0.0 0.0 0.0
-0.096904 -0.049504 -0.082471 -0.050801 -0.175429 0.021206 0.034848 0.045176 -0.193814 0.016602 0.164478 0.025249 -0.024159 -0.110062 -0.136905 0.065549 0.103004 0.160755 -0.009444 -0.125299 -0.114883 0.040214 0.191318 -0.081817 0.066316 -0.065548 -0.067374 -0.085891 0.113077 -0.121134 -0.10236 0.003337 -0.18259 -0.194313 -0.039843 -0.331344 -0.047765 -0.082314 -0.072703 0.049634 -0.144728 0.101607 -0.160328 0.150916 -0.001313 -0.182803 0.231857 0.098347 -0.006359 0.071247 -0.106722 -0.262918 0.005404 0.108825 0.097083 -0.109244 0.053893 -0.128451 0.190794 -0.069653 0.238598 -0.146518 0.037883 -0.085972 0.02993 0.106087 0.336965 -0.160098 0.129957 0.065108 -0.147377 0.095608 0.178532 -0.033717 -0.023657 0.038147 -0.146698 -0.014592 0.163545 -0.012975 0.050209 0.038704 0.231172 -0.015421 -0.038847 0.011368 -0.004337 0.04574 0.057537 0.210886 -0.060135 0.090964 0.080115 -0.014874 -0.066099 0.035194 -0.020067 -0.273852 0.060846 -0.102303
0.0 0.0 0.0 0.0 0.0 0.0 0.0 0.0 0.0 0.0 0.0 0.0 0.0 0.0 0.0 0.0 0.0 0.0 0.0 0.0 0.0 0.0 0.0 0.0 0.0 0.0 0.0 0.0 0.0 0.0 0.0 0.0 0.0 0.0 0.0 0.0 0.0 0.0 0.0 0.0 0.0 0.0 0.0 0.0 0.0 0.0 0.0 0.0 0.0 0.0 0.0 0.0 0.0 0.0 0.0 0.0 0.0 0.0 0.0 0.0 0.0 0.0 0.0 0.0 0.0 0.0 0.0 0.0 0.0 0.0 0.0 0.0 0.0 0.0 0.0 0.0 0.0 0.0 0.0 0.0 0.0 0.0 0.0 0.0 0.0 0.0 0.0 0.0 0.0 0.0 0.0 0.0 0.0 0.0 0.0 0.0 0.0 0.0 0.0 0.0
0.0 0.0 0.0 0.0 0.0 0.0 0.0 0.0 0.0 0.0 0.0 0.0 0.0 0.0 0.0 0.0 0.0 0.0 0.0 0.0 0.0 0.0 0.0 0.0 0.0 0.0 0.0 0.0 0.0 0.0 0.0 0.0 0.0 0.0 0.0 0.0 0.0 0.0 0.0 0.0 0.0 0.0 0.0 0.0 0.0 0.0 0.0 0.0 0.0 0.0 0.0 0.0 0.0 0.0 0.0 0.0 0.0 0.0 0.0 0.0 0.0 0.0 0.0 0.0 0.0 0.0 0.0 0.0 0.0 0.0 0.0 0.0 0.0 0.0 0.0 0.0 0.0 0.0 0.0 0.0 0.0 0.0 0.0 0.0 0.0 0.0 0.0 0.0 0.0 0.0 0.0 0.0 0.0 0.0 0.0 0.0 0.0 0.0 0.0 0.0
-0.032343 -0.090495 0.116196 0.109467 -0.105508 0.07639 0.006315 -0.09827 -0.061328 0.043131 0.004713 -0.087505 0.030902 -0.276993 -0.276149 0.07313 -0.116243 -0.020937 -0.008798 -0.263795 -0.035519 0.117392 0.085048 0.164685 0.012376 -0.112902 -0.123586 -0.11131 0.274305 0.052654 -0.14195 -0.100923 -0.174816 -0.087876 -0.086186 -0.178495 -0.056514 7.8E-4 -0.110101 0.122521 0.160546 0.08158 -0.143743 0.324887 -0.003884 -0.173489 0.182934 -0.076327 -0.135303 0.291227 0.089771 0.030549 0.029191 0.038665 0.019767 -0.088898 0.003707 -0.11127 0.094425 -0.10367 0.086015 0.165059 -0.117461 0.149898 -0.180768 0.266746 0.049208 -0.014816 0.029419 -0.235981 -0.038327 -0.058814 -0.096377 0.066232 0.118314 -0.400703 0.032143 0.025484 0.028107 0.024545 0.017318 0.153427 0.003615 -0.125353 0.223192 0.087379 0.103091 -0.035203 0.150171 0.086079 -0.17531 0.233349 0.150602 0.037622 0.042641 0.035504 -0.053038 0.022578 0.088273 0.019157
-0.046402 -0.091706 0.061221 0.133444 -0.008668 -0.16598 -0.07187 -0.087157 -0.052572 0.073168 0.095557 0.257013 0.142319 -0.081129 -0.066367 0.308917 0.028502 0.04387 0.083795 -0.016291 -0.082195 0.077681 0.230168 -0.005251 -0.04611 -0.08803 -0.157456 -0.023775 0.073221 0.062342 0.047893 -0.048412 -0.087557 -0.012438 -0.024717 -0.229277 0.183815 -0.090387 -0.017625 0.119046 -0.048995 0.155954 0.076712 -0.047176 -0.03431 -0.12912 0.198561 0.110542 -0.147049 0.033725 0.097346 -0.24984 -0.142597 -0.076786 0.134535 -0.136149 0.008805 0.126594 0.279123 -0.015593 0.230276 -0.168691 -0.002176 -0.161187 -0.101854 0.064825 -0.015816 -0.080153 0.098999 -0.150849 -0.02364 -0.029365 -0.100959 -0.006385 0.109394 -0.131104 0.018252 -0.186174 -0.086431 0.089744 -0.182748 0.154491 0.086368 -0.118594 0.304352 -0.019286 0.065491 0.018946 0.098769 0.25693 -0.159979 0.036608 -0.144006 0.07858 -0.158615 -0.15784 0.242939 -0.040458 -0.081704 -0.082728
0.0 0.0 0.0 0.0 0.0 0.0 0.0 0.0 0.0 0.0 0.0 0.0 0.0 0.0 0.0 0.0 0.0 0.0 0.0 0.0 0.0 0.0 0.0 0.0 0.0 0.0 0.0 0.0 0.0 0.0 0.0 0.0 0.0 0.0 0.0 0.0 0.0 0.0 0.0 0.0 0.0 0.0 0.0 0.0 0.0 0.0 0.0 0.0 0.0 0.0 0.0 0.0 0.0 0.0 0.0 0.0 0.0 0.0 0.0 0.0 0.0 0.0 0.0 0.0 0.0 0.0 0.0 0.0 0.0 0.0 0.0 0.0 0.0 0.0 0.0 0.0 0.0 0.0 0.0 0.0 0.0 0.0 0.0 0.0 0.0 0.0 0.0 0.0 0.0 0.0 0.0 0.0 0.0 0.0 0.0 0.0 0.0 0.0 0.0 0.0
0.0 0.0 0.0 0.0 0.0 0.0 0.0 0.0 0.0 0.0 0.0 0.0 0.0 0.0 0.0 0.0 0.0 0.0 0.0 0.0 0.0 0.0 0.0 0.0 0.0 0.0 0.0 0.0 0.0 0.0 0.0 0.0 0.0 0.0 0.0 0.0 0.0 0.0 0.0 0.0 0.0 0.0 0.0 0.0 0.0 0.0 0.0 0.0 0.0 0.0 0.0 0.0 0.0 0.0 0.0 0.0 0.0 0.0 0.0 0.0 0.0 0.0 0.0 0.0 0.0 0.0 0.0 0.0 0.0 0.0 0.0 0.0 0.0 0.0 0.0 0.0 0.0 0.0 0.0 0.0 0.0 0.0 0.0 0.0 0.0 0.0 0.0 0.0 0.0 0.0 0.0 0.0 0.0 0.0 0.0 0.0 0.0 0.0 0.0 0.0
-0.096904 -0.049504 -0.082471 -0.050801 -0.175429 0.021206 0.034848 0.045176 -0.193814 0.016602 0.164478 0.025249 -0.024159 -0.110062 -0.136905 0.065549 0.103004 0.160755 -0.009444 -0.125299 -0.114883 0.040214 0.191318 -0.081817 0.066316 -0.065548 -0.067374 -0.085891 0.113077 -0.121134 -0.10236 0.003337 -0.18259 -0.194313 -0.039843 -0.331344 -0.047765 -0.082314 -0.072703 0.049634 -0.144728 0.101607 -0.160328 0.150916 -0.001313 -0.182803 0.231857 0.098347 -0.006359 0.071247 -0.106722 -0.262918 0.005404 0.108825 0.097083 -0.109244 0.053893 -0.128451 0.190794 -0.069653 0.238598 -0.146518 0.037883 -0.085972 0.02993 0.106087 0.336965 -0.160098 0.129957 0.065108 -0.147377 0.095608 0.178532 -0.033717 -0.023657 0.038147 -0.146698 -0.014592 0.163545 -0.012975 0.050209 0.038704 0.231172 -0.015421 -0.038847 0.011368 -0.004337 0.04574 0.057537 0.210886 -0.060135 0.090964 0.080115 -0.014874 -0.066099 0.035194 -0.020067 -0.273852 0.060846 -0.102303
0.0 0.0 0.0 0.0 0.0 0.0 0.0 0.0 0.0 0.0 0.0 0.0 0.0 0.0 0.0 0.0 0.0 0.0 0.0 0.0 0.0 0.0 0.0 0.0 0.0 0.0 0.0 0.0 0.0 0.0 0.0 0.0 0.0 0.0 0.0 0.0 0.0 0.0 0.0 0.0 0.0 0.0 0.0 0.0 0.0 0.0 0.0 0.0 0.0 0.0 0.0 0.0 0.0 0.0 0.0 0.0 0.0 0.0 0.0 0.0 0.0 0.0 0.0 0.0 0.0 0.0 0.0 0.0 0.0 0.0 0.0 0.0 0.0 0.0 0.0 0.0 0.0 0.0 0.0 0.0 0.0 0.0 0.0 0.0 0.0 0.0 0.0 0.0 0.0 0.0 0.0 0.0 0.0 0.0 0.0 0.0 0.0 0.0 0.0 0.0
0.0 0.0 0.0 0.0 0.0 0.0 0.0 0.0 0.0 0.0 0.0 0.0 0.0 0.0 0.0 0.0 0.0 0.0 0.0 0.0 0.0 0.0 0.0 0.0 0.0 0.0 0.0 0.0 0.0 0.0 0.0 0.0 0.0 0.0 0.0 0.0 0.0 0.0 0.0 0.0 0.0 0.0 0.0 0.0 0.0 0.0 0.0 0.0 0.0 0.0 0.0 0.0 0.0 0.0 0.0 0.0 0.0 0.0 0.0 0.0 0.0 0.0 0.0 0.0 0.0 0.0 0.0 0.0 0.0 0.0 0.0 0.0 0.0 0.0 0.0 0.0 0.0 0.0 0.0 0.0 0.0 0.0 0.0 0.0 0.0 0.0 0.0 0.0 0.0 0.0 0.0 0.0 0.0 0.0 0.0 0.0 0.0 0.0 0.0 0.0
0.0 0.0 0.0 0.0 0.0 0.0 0.0 0.0 0.0 0.0 0.0 0.0 0.0 0.0 0.0 0.0 0.0 0.0 0.0 0.0 0.0 0.0 0.0 0.0 0.0 0.0 0.0 0.0 0.0 0.0 0.0 0.0 0.0 0.0 0.0 0.0 0.0 0.0 0.0 0.0 0.0 0.0 0.0 0.0 0.0 0.0 0.0 0.0 0.0 0.0 0.0 0.0 0.0 0.0 0.0 0.0 0.0 0.0 0.0 0.0 0.0 0.0 0.0 0.0 0.0 0.0 0.0 0.0 0.0 0.0 0.0 0.0 0.0 0.0 0.0 0.0 0.0 0.0 0.0 0.0 0.0 0.0 0.0 0.0 0.0 0.0 0.0 0.0 0.0 0.0 0.0 0.0 0.0 0.0 0.0 0.0 0.0 0.0 0.0 0.0
-0.010774 -0.033134 -0.092079 -0.022364 0.070468 -0.051793 0.102633 0.266703 -0.062781 0.099789 0.123664 0.026912 -0.165372 0.11948 -0.328145 0.048882 0.078136 0.011479 -0.07447 -0.074387 -0.141076 0.042278 -0.219656 -0.160505 -0.265541 -0.021866 -0.039461 -0.262221 0.021745 0.132229 -0.154839 -0.203913 -0.012701 0.048355 -0.11274 -0.200906 -0.035066 -0.123635 0.100699 0.303855 -0.024014 0.06193 -0.039312 0.067618 -0.136155 -0.05384 0.162091 0.201083 -0.191847 0.210256 0.089751 -0.154073 -0.208164 0.079009 0.057983 -0.094492 0.008079 0.063581 -0.02947 0.008802 0.041409 0.099375 -0.098957 -0.156461 -0.257461 0.053939 0.076741 0.11038 -0.137929 0.029056 -0.212421 0.035556 -0.043355 -0.091646 -0.24895 -0.079377 -0.244309 0.117191 -0.0873 0.04896 0.250974 0.011211 -0.016731 -0.22385 0.047171 0.168611 -0.034927 0.002122 0.079207 -0.004502 -0.19123 -0.032749 -0.022175 0.00781 -6.24E-4 -0.135235 0.031638 0.072371 -0.046427 -0.11829
0.023087 -0.128138 0.038624 0.042823 -0.244949 0.007019 -0.205232 0.010251 -0.105275 0.12292 0.171948 0.013454 -0.048628 0.121422 0.149909 0.210578 0.228256 0.202926 -0.012907 0.172878 -0.14097 0.135513 0.216879 0.033688 0.007439 -0.046414 0.103265 -0.114914 0.055414 -0.158408 0.116796 -0.198813 -0.07996 -0.005179 -0.113756 -0.005558 -0.166638 0.002464 -0.105122 -0.007065 -0.079192 -0.034279 0.052462 -0.088486 0.34402 -0.014297 -0.015488 -0.26154 0.002756 0.032838 0.047958 -0.22038 -0.118413 -0.294791 0.097974 -0.091 -0.164076 -0.122161 -0.023935 0.007874 0.030678 -0.052986 -0.139357 -0.037609 0.077066 -0.117015 0.020528 -0.120452 0.0523 0.128401 0.100792 0.046592 -0.008624 0.137451 -0.240046 0.210655 0.103345 0.074557 -0.071773 -0.002401 -0.15787 -0.016576 -0.029358 -0.101699 -0.009107 0.057665 0.036227 -0.051319 0.136444 0.363149 -0.283919 0.074987 0.088254 -0.025756 0.005177 0.115742 -0.011477 0.137459 0.077853 -0.046445
0.007805 -0.07345 0.123907 -0.030984 -0.08743 -0.158221 -0.137941 0.050421 -0.15177 -0.100449 0.185262 0.093983 -0.161407 0.101125 0.132469 0.312988 0.102233 0.098705 0.004686 -0.014793 -0.052009 0.246594 0.248026 0.053264 -0.15586 -0.235297 -0.091581 0.047259 0.24065 -0.177291 -0.082049 0.016832 -0.045281 -0.051034 -0.136733 0.033168 0.059209 0.054036 -0.037703 0.078729 -0.151667 -0.030878 -0.054603 0.137904 0.249018 0.014901 0.008011 -0.033434 -0.013562 0.022647 -0.063224 -0.154448 0.018578 -0.142023 0.018423 0.013588 -0.011329 -0.005371 0.02952 -0.077316 0.03151 -0.157499 -0.148248 -0.04936 -0.130979 -0.09605 -0.156359 -0.12793 -0.012071 0.110429 -0.082423 0.076904 -0.034369 0.076884 0.029806 -0.158475 0.090376 0.009428 0.122907 -0.13707 0.140081 -0.037685 0.052466 -0.123026 -0.02588 -0.113552 0.018825 0.012818 -0.130858 0.245935 -0.216858 -0.002008 -0.076466 0.154324 0.035529 0.024073 -0.106034 -0.10467 0.083582 -0.176818
0.0 0.0 0.0 0.0 0.0 0.0 0.0 0.0 0.0 0.0 0.0 0.0 0.0 0.0 0.0 0.0 0.0 0.0 0.0 0.0 0.0 0.0 0.0 0.0 0.0 0.0 0.0 0.0 0.0 0.0 0.0 0.0 0.0 0.0 0.0 0.0 0.0 0.0 0.0 0.0 0.0 0.0 0.0 0.0 0.0 0.0 0.0 0.0 0.0 0.0 0.0 0.0 0.0 0.0 0.0 0.0 0.0 0.0 0.0 0.0 0.0 0.0 0.0 0.0 0.0 0.0 0.0 0.0 0.0 0.0 0.0 0.0 0.0 0.0 0.0 0.0 0.0 0.0 0.0 0.0 0.0 0.0 0.0 0.0 0.0 0.0 0.0 0.0 0.0 0.0 0.0 0.0 0.0 0.0 0.0 0.0 0.0 0.0 0.0 0.0
-0.096904 -0.049504 -0.082471 -0.050801 -0.175429 0.021206 0.034848 0.045176 -0.193814 0.016602 0.164478 0.025249 -0.024159 -0.110062 -0.136905 0.065549 0.103004 0.160755 -0.009444 -0.125299 -0.114883 0.040214 0.191318 -0.081817 0.066316 -0.065548 -0.067374 -0.085891 0.113077 -0.121134 -0.10236 0.003337 -0.18259 -0.194313 -0.039843 -0.331344 -0.047765 -0.082314 -0.072703 0.049634 -0.144728 0.101607 -0.160328 0.150916 -0.001313 -0.182803 0.231857 0.098347 -0.006359 0.071247 -0.106722 -0.262918 0.005404 0.108825 0.097083 -0.109244 0.053893 -0.128451 0.190794 -0.069653 0.238598 -0.146518 0.037883 -0.085972 0.02993 0.106087 0.336965 -0.160098 0.129957 0.065108 -0.147377 0.095608 0.178532 -0.033717 -0.023657 0.038147 -0.146698 -0.014592 0.163545 -0.012975 0.050209 0.038704 0.231172 -0.015421 -0.038847 0.011368 -0.004337 0.04574 0.057537 0.210886 -0.060135 0.090964 0.080115 -0.014874 -0.066099 0.035194 -0.020067 -0.273852 0.060846 -0.102303
0.0 0.0 0.0 0.0 0.0 0.0 0.0 0.0 0.0 0.0 0.0 0.0 0.0 0.0 0.0 0.0 0.0 0.0 0.0 0.0 0.0 0.0 0.0 0.0 0.0 0.0 0.0 0.0 0.0 0.0 0.0 0.0 0.0 0.0 0.0 0.0 0.0 0.0 0.0 0.0 0.0 0.0 0.0 0.0 0.0 0.0 0.0 0.0 0.0 0.0 0.0 0.0 0.0 0.0 0.0 0.0 0.0 0.0 0.0 0.0 0.0 0.0 0.0 0.0 0.0 0.0 0.0 0.0 0.0 0.0 0.0 0.0 0.0 0.0 0.0 0.0 0.0 0.0 0.0 0.0 0.0 0.0 0.0 0.0 0.0 0.0 0.0 0.0 0.0 0.0 0.0 0.0 0.0 0.0 0.0 0.0 0.0 0.0 0.0 0.0
0.0 0.0 0.0 0.0 0.0 0.0 0.0 0.0 0.0 0.0 0.0 0.0 0.0 0.0 0.0 0.0 0.0 0.0 0.0 0.0 0.0 0.0 0.0 0.0 0.0 0.0 0.0 0.0 0.0 0.0 0.0 0.0 0.0 0.0 0.0 0.0 0.0 0.0 0.0 0.0 0.0 0.0 0.0 0.0 0.0 0.0 0.0 0.0 0.0 0.0 0.0 0.0 0.0 0.0 0.0 0.0 0.0 0.0 0.0 0.0 0.0 0.0 0.0 0.0 0.0 0.0 0.0 0.0 0.0 0.0 0.0 0.0 0.0 0.0 0.0 0.0 0.0 0.0 0.0 0.0 0.0 0.0 0.0 0.0 0.0 0.0 0.0 0.0 0.0 0.0 0.0 0.0 0.0 0.0 0.0 0.0 0.0 0.0 0.0 0.0
0.0 0.0 0.0 0.0 0.0 0.0 0.0 0.0 0.0 0.0 0.0 0.0 0.0 0.0 0.0 0.0 0.0 0.0 0.0 0.0 0.0 0.0 0.0 0.0 0.0 0.0 0.0 0.0 0.0 0.0 0.0 0.0 0.0 0.0 0.0 0.0 0.0 0.0 0.0 0.0 0.0 0.0 0.0 0.0 0.0 0.0 0.0 0.0 0.0 0.0 0.0 0.0 0.0 0.0 0.0 0.0 0.0 0.0 0.0 0.0 0.0 0.0 0.0 0.0 0.0 0.0 0.0 0.0 0.0 0.0 0.0 0.0 0.0 0.0 0.0 0.0 0.0 0.0 0.0 0.0 0.0 0.0 0.0 0.0 0.0 0.0 0.0 0.0 0.0 0.0 0.0 0.0 0.0 0.0 0.0 0.0 0.0 0.0 0.0 0.0
-0.010774 -0.033134 -0.092079 -0.022364 0.070468 -0.051793 0.102633 0.266703 -0.062781 0.099789 0.123664 0.026912 -0.165372 0.11948 -0.328145 0.048882 0.078136 0.011479 -0.07447 -0.074387 -0.141076 0.042278 -0.219656 -0.160505 -0.265541 -0.021866 -0.039461 -0.262221 0.021745 0.132229 -0.154839 -0.203913 -0.012701 0.048355 -0.11274 -0.200906 -0.035066 -0.123635 0.100699 0.303855 -0.024014 0.06193 -0.039312 0.067618 -0.136155 -0.05384 0.162091 0.201083 -0.191847 0.210256 0.089751 -0.154073 -0.208164 0.079009 0.057983 -0.094492 0.008079 0.063581 -0.02947 0.008802 0.041409 0.099375 -0.098957 -0.156461 -0.257461 0.053939 0.076741 0.11038 -0.137929 0.029056 -0.212421 0.035556 -0.043355 -0.091646 -0.24895 -0.079377 -0.244309 0.117191 -0.0873 0.04896 0.250974 0.011211 -0.016731 -0.22385 0.047171 0.168611 -0.034927 0.002122 0.079207 -0.004502 -0.19123 -0.032749 -0.022175 0.00781 -6.24E-4 -0.135235 0.031638 0.072371 -0.046427 -0.11829
0.023087 -0.128138 0.038624 0.042823 -0.244949 0.007019 -0.205232 0.010251 -0.105275 0.12292 0.171948 0.013454 -0.048628 0.121422 0.149909 0.210578 0.228256 0.202926 -0.012907 0.172878 -0.14097 0.135513 0.216879 0.033688 0.007439 -0.046414 0.103265 -0.114914 0.055414 -0.158408 0.116796 -0.198813 -0.07996 -0.005179 -0.113756 -0.005558 -0.166638 0.002464 -0.105122 -0.007065 -0.079192 -0.034279 0.052462 -0.088486 0.34402 -0.014297 -0.015488 -0.26154 0.002756 0.032838 0.047958 -0.22038 -0.118413 -0.294791 0.097974 -0.091 -0.164076 -0.122161 -0.023935 0.007874 0.030678 -0.052986 -0.139357 -0.037609 0.077066 -0.117015 0.020528 -0.120452 0.0523 0.128401 0.100792 0.046592 -0.008624 0.137451 -0.240046 0.210655 0.103345 0.074557 -0.071773 -0.002401 -0.15787 -0.016576 -0.029358 -0.101699 -0.009107 0.057665 0.036227 -0.051319 0.136444 0.363149 -0.283919 0.074987 0.088254 -0.025756 0.005177 0.115742 -0.011477 0.137459 0.077853 -0.046445
0.007805 -0.07345 0.123907 -0.030984 -0.08743 -0.158221 -0.137941 0.050421 -0.15177 -0.100449 0.185262 0.093983 -0.161407 0.101125 0.132469 0.312988 0.102233 0.098705 0.004686 -0.014793 -0.052009 0.246594 0.248026 0.053264 -0.15586 -0.235297 -0.091581 0.047259 0.24065 -0.177291 -0.082049 0.016832 -0.045281 -0.051034 -0.136733 0.033168 0.059209 0.054036 -0.037703 0.078729 -0.151667 -0.030878 -0.054603 0.137904 0.249018 0.014901 0.008011 -0.033434 -0.013562 0.022647 -0.063224 -0.154448 0.018578 -0.142023 0.018423 0.013588 -0.011329 -0.005371 0.02952 -0.077316 0.03151 -0.157499 -0.148248 -0.04936 -0.130979 -0.09605 -0.156359 -0.12793 -0.012071 0.110429 -0.082423 0.076904 -0.034369 0.076884 0.029806 -0.158475 0.090376 0.009428 0.122907 -0.13707 0.140081 -0.037685 0.052466 -0.123026 -0.02588 -0.113552 0.018825 0.012818 -0.130858 0.245935 -0.216858 -0.002008 -0.076466 0.154324 0.035529 0.024073 -0.106034 -0.10467 0.083582 -0.176818
1.560996 0.842868 -0.966121 0.794535 0.732082 2.167424 0.982662 0.057444 0.504819 0.07841 0.055279 1.416647 -0.670558 0.122239 -1.875473 -0.339444 -1.661959 -1.985793 -0.005729 -2.592115 -2.183448 0.044516 0.671895 -0.589479 0.827514 1.432932 1.133599 0.800224 0.356391 -1.617423 1.243533 -0.771712 1.46062 -1.283942 -0.283672 -0.793244 2.250382 0.636489 -0.035825 -2.112469 -0.960024 -2.532577 1.013875 -0.496549 -0.535743 1.359858 0.125133 -0.377994 0.914883 0.328853 0.713591 1.260942 -0.948324 1.504832 -1.93683 0.311228 0.965607 -1.013595 0.329382 -0.198887 0.96078 -0.013681 0.350227 0.828392 -1.894402 -0.039104 0.283785 -0.554694 -1.197001 0.540337 2.851685 1.269162 -1.080219 0.093043 0.787903 -0.091276 2.31099 1.354835 -1.181959 0.872145 0.826596 0.712391 -0.103207 1.442596 -0.009761 -0.491948 1.238818 0.369032 -0.415171 1.980595 2.066964 0.180408 -0.553874 -1.180511 -2.075199 0.329212 -1.398948 0.834816 -1.169907 1.291362
0.0 0.0 0.0 0.0 0.0 0.0 0.0 0.0 0.0 0.0 0.0 0.0 0.0 0.0 0.0 0.0 0.0 0.0 0.0 0.0 0.0 0.0 0.0 0.0 0.0 0.0 0.0 0.0 0.0 0.0 0.0 0.0 0.0 0.0 0.0 0.0 0.0 0.0 0.0 0.0 0.0 0.0 0.0 0.0 0.0 0.0 0.0 0.0 0.0 0.0 0.0 0.0 0.0 0.0 0.0 0.0 0.0 0.0 0.0 0.0 0.0 0.0 0.0 0.0 0.0 0.0 0.0 0.0 0.0 0.0 0.0 0.0 0.0 0.0 0.0 0.0 0.0 0.0 0.0 0.0 0.0 0.0 0.0 0.0 0.0 0.0 0.0 0.0 0.0 0.0 0.0 0.0 0.0 0.0 0.0 0.0 0.0 0.0 0.0 0.0
-0.096904 -0.049504 -0.082471 -0.050801 -0.175429 0.021206 0.034848 0.045176 -0.193814 0.016602 0.164478 0.025249 -0.024159 -0.110062 -0.136905 0.065549 0.103004 0.160755 -0.009444 -0.125299 -0.114883 0.040214 0.191318 -0.081817 0.066316 -0.065548 -0.067374 -0.085891 0.113077 -0.121134 -0.10236 0.003337 -0.18259 -0.194313 -0.039843 -0.331344 -0.047765 -0.082314 -0.072703 0.049634 -0.144728 0.101607 -0.160328 0.150916 -0.001313 -0.182803 0.231857 0.098347 -0.006359 0.071247 -0.106722 -0.262918 0.005404 0.108825 0.097083 -0.109244 0.053893 -0.128451 0.190794 -0.069653 0.238598 -0.146518 0.037883 -0.085972 0.02993 0.106087 0.336965 -0.160098 0.129957 0.065108 -0.147377 0.095608 0.178532 -0.033717 -0.023657 0.038147 -0.146698 -0.014592 0.163545 -0.012975 0.050209 0.038704 0.231172 -0.015421 -0.038847 0.011368 -0.004337 0.04574 0.057537 0.210886 -0.060135 0.090964 0.080115 -0.014874 -0.066099 0.035194 -0.020067 -0.273852 0.060846 -0.102303
0.0 0.0 0.0 0.0 0.0 0.0 0.0 0.0 0.0 0.0 0.0 0.0 0.0 0.0 0.0 0.0 0.0 0.0 0.0 0.0 0.0 0.0 0.0 0.0 0.0 0.0 0.0 0.0 0.0 0.0 0.0 0.0 0.0 0.0 0.0 0.0 0.0 0.0 0.0 0.0 0.0 0.0 0.0 0.0 0.0 0.0 0.0 0.0 0.0 0.0 0.0 0.0 0.0 0.0 0.0 0.0 0.0 0.0 0.0 0.0 0.0 0.0 0.0 0.0 0.0 0.0 0.0 0.0 0.0 0.0 0.0 0.0 0.0 0.0 0.0 0.0 0.0 0.0 0.0 0.0 0.0 0.0 0.0 0.0 0.0 0.0 0.0 0.0 0.0 0.0 0.0 0.0 0.0 0.0 0.0 0.0 0.0 0.0 0.0 0.0
1.979182 1.475284 1.616709 3.670848 1.493383 1.565553 0.713709 0.821536 -0.198276 1.095257 1.13035 3.013426 -0.31575 0.272355 -1.140889 3.059924 -0.481724 -0.114922 -4.136081 -3.168525 0.468706 0.468211 -1.450609 1.536269 1.463073 0.091064 0.456867 -0.772584 1.94826 0.637724 3.384043 1.31124 -0.547482 -2.46209 -1.172514 0.108789 -0.436092 -0.542017 -2.899063 -1.238649 0.992894 -1.25533 1.441906 -2.837638 -0.37597 0.84588 0.567863 1.067483 3.045772 2.851722 1.127934 2.750989 2.037369 -0.330697 -3.137371 -0.277042 1.105257 3.888075 -0.863423 -0.157175 -2.285182 -0.166755 0.331731 -0.01245 0.62688 0.367884 -0.075369 -0.159061 -0.417307 -2.027856 0.1471 0.649553 -2.645108 0.793309 -1.226665 0.217122 -0.469072 -0.459028 -1.403266 -0.635382 -0.504689 1.214626 1.214261 1.363001 0.553679 -3.299866 -1.882137 1.302355 -0.459088 -0.175485 1.192438 -0.480862 1.435369 0.431146 -1.119326 -1.423348 -1.759886 0.376096 -1.342863 3.008839
-0.035529 0.064367 0.196607 0.314868 -0.155155 -0.032916 -0.295419 -0.106146 0.079277 0.009447 0.138502 -0.146515 -0.372444 -0.030532 0.142385 0.378892 -0.046584 0.161388 -0.243613 -0.226731 -0.161539 0.145527 -0.003954 0.515058 0.298844 -0.01153 -0.100451 -0.158018 0.067764 0.03709 0.309794 0.052081 -0.268168 0.063925 0.132032 0.068631 -0.10605 -0.083211 0.012342 0.195007 -0.083015 -0.297756 -0.048283 -0.232341 -0.154398 0.079675 -0.115174 0.281622 -0.170591 0.309433 -0.212217 -0.118576 -0.061726 -0.205495 -0.210624 -0.091027 0.007614 0.250844 0.225164 -0.280498 -0.136809 -0.15612 -0.044246 -0.139169 -0.009972 0.320236 -0.026774 -0.106228 0.094283 -0.294162 -0.278935 0.048695 0.058663 0.180659 0.034097 -0.382343 -0.041662 0.064583 -0.042724 0.015198 -0.493026 -0.165388 0.294548 0.08858 0.258634 -0.367276 -0.042161 -0.047473 0.153735 0.201867 -0.004834 0.35931 0.154509 0.074259 -0.145739 -0.07703 -0.17063 0.14891 0.141663 0.04684
0.023642 -0.033418 -0.065368 -0.077237 -0.023131 -0.01666 0.109329 -0.071902 0.062801 0.039845 0.148795 0.022279 -0.033313 0.021808 0.239187 -0.08721 -0.175498 0.029081 -0.040827 -0.029276 -0.086098 -0.15902 -0.033398 0.042278 0.124981 -0.030765 0.028417 0.073894 0.00855 0.035667 0.163449 0.099048 0.038305 0.314216 -0.005392 0.066826 0.260304 -0.189638 0.116148 -0.02674 -0.202298 -0.147073 0.073175 0.053558 0.012863 -0.065298 -0.053548 0.046997 0.014493 -0.044561 0.024142 -0.019223 -0.004661 0.10688 -0.154323 -0.118686 -0.028957 0.035459 0.064979 -0.101714 -0.025905 0.022247 0.012568 -0.044777 0.097248 0.19805 0.003512 0.018858 -0.090285 -0.060881 0.118181 -0.047211 0.105442 -0.116777 0.073733 -0.093917 -0.004179 -0.060928 -0.124383 -0.099921 -0.177899 -0.120009 -0.020528 -0.038147 0.030294 -0.114024 0.168003 -0.110367 0.103009 0.112822 0.19629 -0.164199 -0.072139 0.020273 -0.021859 0.072884 0.002728 0.055319 0.086852 0.084518
0.015966 0.082275 0.244086 0.135131 0.086661 -0.07108 0.117129 -0.022949 -0.070629 0.031525 0.121659 0.198453 -0.170391 -0.124908 0.074014 0.072207 -0.144941 0.069315 -0.11522 -0.015639 0.027575 0.164075 0.093154 -0.131532 0.126245 -0.018947 -0.072033 0.116535 0.081726 -0.047775 0.194369 -0.111704 -0.106896 -0.196335 0.199859 -0.122022 -0.025765 -0.12183 0.018287 0.005338 -0.18789 -0.109117 0.097156 -0.063075 -0.097232 0.098315 0.159224 0.093327 0.007199 0.012181 -0.089253 -0.156689 -0.197619 0.014638 -0.221813 -0.065132 0.020436 -0.018855 -0.095447 0.010743 -0.219649 0.264757 -0.12541 0.026982 0.004244 -0.060287 0.021534 -0.069757 0.121664 0.009352 0.023015 0.01808 -0.025824 -0.031825 0.015246 -0.052323 0.005172 -0.162099 -0.046568 0.167871 -0.100889 0.145419 0.010225 -0.025632 0.074895 0.19243 0.152564 -0.028017 0.230726 0.120613 -0.006271 0.052373 -0.156822 0.12854 -0.049107 -0.239344 0.05321 0.096895 0.028022 0.089884
0.081136 -0.136923 0.070417 0.20508 -0.022939 -0.059967 -0.312815 -0.141054 -0.096877 0.178968 0.164506 -0.047259 -0.054307 -0.071616 0.17262 0.304261 -0.003812 0.057163 -0.023592 -0.083519 -0.214665 -0.03219 0.075441 0.021646 -0.180604 -0.089558 -0.084739 -0.031649 0.243774 -0.279346 0.130584 -0.068305 -0.30723 -0.085302 -0.194516 1.73E-4 0.028814 -0.04522 0.032331 0.064634 -0.300218 0.035444 0.107679 0.034083 0.044666 -0.096232 -0.001438 0.037183 -0.073123 0.136581 -0.070902 -0.01961 -0.196579 0.198403 0.11681 -0.296456 -0.042441 0.140602 0.167704 -0.092967 0.006746 -0.182827 0.106805 0.029922 -0.149056 0.034431 0.234385 0.020857 0.237826 -0.164406 -0.260021 -0.077359 -0.057429 -0.073959 0.049306 -0.206054 -0.191122 -0.090317 0.010752 0.033561 -0.031283 -0.039874 0.305987 -0.039613 0.090988 0.243328 0.058233 0.137311 0.093671 -0.184745 -0.109444 0.175813 -0.031512 0.210213 -0.045824 -0.140244 0.028579 -0.120376 -0.00594 0.099595
-0.046402 -0.091706 0.061221 0.133444 -0.008668 -0.16598 -0.07187 -0.087157 -0.052572 0.073168 0.095557 0.257013 0.142319 -0.081129 -0.066367 0.308917 0.028502 0.04387 0.083795 -0.016291 -0.082195 0.077681 0.230168 -0.005251 -0.04611 -0.08803 -0.157456 -0.023775 0.073221 0.062342 0.047893 -0.048412 -0.087557 -0.012438 -0.024717 -0.229277 0.183815 -0.090387 -0.017625 0.119046 -0.048995 0.155954 0.076712 -0.047176 -0.03431 -0.12912 0.198561 0.110542 -0.147049 0.033725 0.097346 -0.24984 -0.142597 -0.076786 0.134535 -0.136149 0.008805 0.126594 0.279123 -0.015593 0.230276 -0.168691 -0.002176 -0.161187 -0.101854 0.064825 -0.015816 -0.080153 0.098999 -0.150849 -0.02364 -0.029365 -0.100959 -0.006385 0.109394 -0.131104 0.018252 -0.186174 -0.086431 0.089744 -0.182748 0.154491 0.086368 -0.118594 0.304352 -0.019286 0.065491 0.018946 0.098769 0.25693 -0.159979 0.036608 -0.144006 0.07858 -0.158615 -0.15784 0.242939 -0.040458 -0.081704 -0.082728
0.0 0.0 0.0 0.0 0.0 0.0 0.0 0.0 0.0 0.0 0.0 0.0 0.0 0.0 0.0 0.0 0.0 0.0 0.0 0.0 0.0 0.0 0.0 0.0 0.0 0.0 0.0 0.0 0.0 0.0 0.0 0.0 0.0 0.0 0.0 0.0 0.0 0.0 0.0 0.0 0.0 0.0 0.0 0.0 0.0 0.0 0.0 0.0 0.0 0.0 0.0 0.0 0.0 0.0 0.0 0.0 0.0 0.0 0.0 0.0 0.0 0.0 0.0 0.0 0.0 0.0 0.0 0.0 0.0 0.0 0.0 0.0 0.0 0.0 0.0 0.0 0.0 0.0 0.0 0.0 0.0 0.0 0.0 0.0 0.0 0.0 0.0 0.0 0.0 0.0 0.0 0.0 0.0 0.0 0.0 0.0 0.0 0.0 0.0 0.0
-0.341569 0.312588 0.815719 3.710827 0.572954 -1.344685 -1.246494 0.286492 -0.612698 0.247304 1.523335 2.043624 -1.069825 0.404141 -0.118869 0.242394 -0.527242 0.834954 0.464331 -2.559981 -3.051991 -0.451655 -1.672496 -0.794235 1.638653 0.110461 -1.390064 -0.235147 1.411034 0.728492 1.346296 1.055683 -0.784898 -1.664071 1.349911 -1.07349 -0.032111 0.731532 -1.810549 -2.052864 -2.181275 -2.468585 0.077652 -1.458478 0.303232 1.380494 -0.172392 -0.171621 -0.12784 0.665634 0.0338 -2.611889 -0.347535 0.433047 -0.25299 -0.706869 -0.512109 1.22931 -0.539265 1.133154 0.712009 2.061954 -0.955311 0.885614 -1.570771 -1.978332 -1.158137 -0.938321 -0.076198 -1.318784 -1.748882 0.366848 0.773085 0.134716 -1.62225 -0.847365 -2.124812 0.261342 0.614196 1.013141 0.138982 0.700245 0.995707 1.699363 0.083463 -1.864233 0.607098 -0.524773 -0.423014 -1.36331 -0.543255 0.455639 0.331763 0.922252 0.648772 -2.669806 -1.080637 -1.273156 -0.256551 1.321806
0.053284 -0.02831 0.073534 0.043655 -0.071761 0.023829 -0.089469 -0.149685 -0.02029 0.002805 -0.115475 0.10861 -0.187293 0.173159 0.10573 -0.027871 -0.046233 -0.019196 -0.123889 0.145442 -0.244349 -0.141501 0.058057 0.183622 -0.171211 -0.100848 -0.030764 -0.006491 0.033087 -0.010223 -0.099035 0.046627 -0.06875 0.271824 -0.227026 -0.065529 -0.022397 -0.104088 -0.155273 -0.113572 -0.201725 -0.123283 0.001715 -0.078569 0.141362 -0.079199 -0.092461 -0.16356 0.008255 0.01264 0.032743 -0.040167 -0.141769 -0.092711 0.13236 0.061398 -0.21891 0.014964 -0.088068 -0.097294 -0.04269 -0.23188 -0.022815 -0.018621 0.004086 0.036345 -0.005373 -0.048773 -0.07733 0.005778 0.17246 -0.043684 0.107732 0.1208 -0.018265 0.170388 0.011399 -0.032943 0.033442 0.026036 0.01454 0.053651 0.169479 -0.031658 -0.080207 0.056691 -0.007069 0.013756 0.031409 0.087834 0.008524 -0.098607 0.024264 0.189625 0.019321 -0.036829 -0.182828 0.059476 -0.001309 -0.070991
-0.017506 0.175219 -0.08536 0.148463 0.053622 -0.20429 0.024457 -0.11627 -0.043758 -0.251075 -0.045513 -0.005635 0.065346 -4.22E-4 0.012784 0.061523 0.107056 -0.072886 -0.039395 0.018659 0.164999 0.049284 0.073951 0.148439 0.293583 0.098942 -0.003542 0.063634 0.341431 -7.3E-4 -0.034089 0.005075 0.12961 -0.033349 0.114954 -0.149031 -0.137549 0.042465 -0.17371 -0.04378 0.013484 -0.187958 -0.060494 -0.084031 0.065407 0.131727 -0.06361 -0.02283 -0.156557 0.003208 0.009618 -0.337278 -0.105021 -0.142693 0.028201 -0.024323 0.125055 0.066017 0.188011 -0.058625 -0.079707 0.11234 -0.05402 -0.138356 -0.145841 0.207827 -0.138568 0.079636 -0.078341 -0.056103 -0.133549 0.06672 -0.160767 -0.022307 0.00198 -0.021988 -0.087759 -0.111999 0.025812 0.015493 0.097079 0.027007 0.096256 -0.068451 0.141625 0.013688 0.053581 -0.102948 -0.104502 0.059144 0.208001 -0.13132 -0.116135 0.104741 0.067088 0.045278 0.112929 -0.200818 -0.028328 0.105759
-0.172548 -0.062878 -0.124399 -0.093973 -0.183866 0.048401 -0.209566 -0.072076 0.003105 0.036898 0.082727 0.162109 0.083049 -0.063052 0.074213 -0.006607 0.165388 0.542405 0.142048 -0.014984 -0.375135 0.055954 0.140169 0.025628 -0.105836 -0.003248 -0.00176 0.016951 0.097132 0.205053 0.143783 0.053648 0.196222 -0.08059 -0.106143 0.023412 -0.114717 -0.156776 0.051526 -0.117829 -0.064694 0.147481 -0.082074 -0.15985 -0.134431 0.122143 -0.054443 0.023784 -0.129068 0.156706 -0.023218 -0.042634 -0.110049 0.048801 0.157597 -0.052175 -0.174857 -0.013969 0.097266 0.043081 -0.025341 -0.136337 -0.118899 -0.002976 0.005571 -0.101696 0.182418 -0.001163 0.054891 -0.382327 -0.175325 0.145587 -0.185901 -0.165169 -0.006726 0.261865 -0.206199 -0.07439 -0.030852 -0.105226 -0.191445 -0.038557 0.130708 -0.278824 -0.049889 0.012127 0.273812 0.144716 0.108294 0.187123 -0.249759 -0.17982 0.176983 0.122968 0.285688 0.006875 0.020137 -0.010134 0.061798 -0.094922
0.171061 0.110068 0.111172 0.137973 -0.064367 0.203514 8.3E-4 -0.026794 0.185212 -0.081869 0.070278 0.056231 0.003144 -0.048509 -0.044132 0.024165 -0.072967 -0.096946 0.102045 0.021014 0.078829 0.083111 -0.030962 0.234 0.039312 -0.119463 -0.018174 -0.117065 -0.011517 0.050756 0.01244 -0.061179 0.134999 -0.029484 0.002558 0.078109 0.011466 -0.15874 -0.0833 -0.00238 -0.087334 0.102862 -0.039086 0.156556 0.079788 -0.085359 0.026261 0.02633 0.098523 -0.175086 -0.017985 0.081274 0.148016 -0.059826 0.024649 0.033273 -0.049956 -0.047987 0.071144 0.002898 -0.038109 -0.127703 0.131439 -0.032181 -0.100413 0.039852 -0.08117 0.00451 -0.04436 0.126124 1.7E-4 0.084173 0.183954 0.085583 0.099494 -0.068806 -0.033388 -0.024293 0.110067 -0.010119 -0.004875 0.124218 0.047267 -0.004055 -0.141362 0.061917 0.208229 0.065637 -0.054122 -0.135276 0.021061 -0.102733 0.026057 0.024518 -0.071959 -0.072903 0.041144 0.160919 0.227007 -0.078715
0.295743 0.177472 -0.119128 0.005556 0.073491 0.126463 -0.068491 0.040956 0.012892 0.010677 0.103698 -0.178339 0.020261 0.006936 -0.070935 0.081626 -0.108648 0.050181 0.087656 0.068466 -0.133293 -0.091202 -0.029839 0.191182 0.16862 -0.083538 -0.080773 0.117052 -0.030354 0.020229 -0.020066 -0.224047 0.009335 0.098728 0.067525 -0.005488 -0.196199 -0.008695 0.025212 0.154709 -0.056867 0.016022 0.001043 -0.133777 -0.3074 0.006754 0.080055 0.159784 -0.188421 0.121369 0.005876 0.016255 -0.002088 0.03774 -0.024821 0.108358 0.059549 0.091882 0.144825 0.055663 0.185403 -0.065581 0.02879 -0.101229 0.071991 -0.002497 -0.006529 -0.10915 0.062274 -0.002956 0.058456 0.004113 0.103328 0.173394 -0.090338 -0.046764 -0.109366 0.052346 0.015598 -0.174578 -0.247551 0.163059 0.183228 -0.050795 0.199708 0.03885 -0.129288 -0.066408 0.026688 0.020572 0.021433 0.010893 0.213161 0.052695 -0.092201 -0.174208 -0.308368 -0.048491 0.048371 0.141119
-0.01875 -0.285329 -0.002424 0.108049 -0.121485 0.011509 -0.309429 0.071278 0.030139 -0.09504 0.026686 -0.113073 0.095932 -0.179022 0.042966 0.129678 0.08961 0.196302 0.063608 0.023636 0.017566 0.282635 0.203737 -0.001727 -0.166336 0.016611 0.066798 0.070245 -0.044842 -0.010532 0.02894 0.068283 0.222737 -0.011348 -0.061199 -0.009894 -0.096135 0.074612 0.011411 0.061689 -0.114957 0.107116 0.054659 -0.135911 0.206663 -0.107839 -0.106604 0.14633 0.055843 0.071442 0.032643 -0.128132 0.097352 -0.140302 -0.003045 -0.183681 0.160041 -0.078107 0.0398 -0.116372 -0.065673 -0.00229 -0.127849 0.022587 0.141333 -0.050803 0.054219 -0.019527 0.040823 -0.187221 -0.087694 0.011191 -0.043953 -0.204306 0.081344 -0.016947 -0.105763 -0.100188 -0.004993 0.025402 0.12403 0.063183 0.003483 0.031502 -0.006452 0.015156 -0.143862 -0.149512 -0.053303 0.05853 -0.072347 -0.161299 0.009473 0.162584 0.023232 0.039946 -0.041596 -0.076351 -0.12545 -0.034996
1.155368 3.302179 -0.818617 0.201583 -0.372035 -0.220049 -2.421694 1.24088 1.022918 0.281963 -0.56672 0.218504 -2.654141 0.687099 1.426786 -2.744465 -2.044989 -0.49789 -1.769702 -2.328375 -1.105508 0.104665 -0.061522 -2.669585 1.369504 1.778184 -0.869744 -1.441309 0.051265 1.116249 1.903031 -0.163683 1.731475 -0.652558 -1.459245 -0.212579 0.382415 1.861636 -0.394668 -0.423196 -0.983827 -1.176007 1.844253 0.853456 0.976233 -0.076248 -1.490589 -0.553926 0.506191 0.326236 0.251095 1.038919 -0.803142 0.658979 -3.236482 -1.07965 1.27678 -0.350029 -1.778651 0.292774 0.002745 0.267431 1.072933 -0.321661 -1.19536 -1.465055 -2.523761 -3.574044 -0.123843 -0.515256 3.2036 -0.08683 1.099575 -0.639959 -1.310584 0.629968 -0.142079 0.66081 -1.289981 -0.152693 -0.105374 0.388507 -1.068849 2.207516 -1.516502 0.618648 0.057959 1.61471 0.888036 -0.337188 -0.73306 -0.809614 -1.409634 -0.094797 -0.938314 1.210802 1.47048 2.210952 -1.933366 0.819087
0.015966 0.082275 0.244086 0.135131 0.086661 -0.07108 0.117129 -0.022949 -0.070629 0.031525 0.121659 0.198453 -0.170391 -0.124908 0.074014 0.072207 -0.144941 0.069315 -0.11522 -0.015639 0.027575 0.164075 0.093154 -0.131532 0.126245 -0.018947 -0.072033 0.116535 0.081726 -0.047775 0.194369 -0.111704 -0.106896 -0.196335 0.199859 -0.122022 -0.025765 -0.12183 0.018287 0.005338 -0.18789 -0.109117 0.097156 -0.063075 -0.097232 0.098315 0.159224 0.093327 0.007199 0.012181 -0.089253 -0.156689 -0.197619 0.014638 -0.221813 -0.065132 0.020436 -0.018855 -0.095447 0.010743 -0.219649 0.264757 -0.12541 0.026982 0.004244 -0.060287 0.021534 -0.069757 0.121664 0.009352 0.023015 0.01808 -0.025824 -0.031825 0.015246 -0.052323 0.005172 -0.162099 -0.046568 0.167871 -0.100889 0.145419 0.010225 -0.025632 0.074895 0.19243 0.152564 -0.028017 0.230726 0.120613 -0.006271 0.052373 -0.156822 0.12854 -0.049107 -0.239344 0.05321 0.096895 0.028022 0.089884
0.081136 -0.136923 0.070417 0.20508 -0.022939 -0.059967 -0.312815 -0.141054 -0.096877 0.178968 0.164506 -0.047259 -0.054307 -0.071616 0.17262 0.304261 -0.003812 0.057163 -0.023592 -0.083519 -0.214665 -0.03219 0.075441 0.021646 -0.180604 -0.089558 -0.084739 -0.031649 0.243774 -0.279346 0.130584 -0.068305 -0.30723 -0.085302 -0.194516 1.73E-4 0.028814 -0.04522 0.032331 0.064634 -0.300218 0.035444 0.107679 0.034083 0.044666 -0.096232 -0.001438 0.037183 -0.073123 0.136581 -0.070902 -0.01961 -0.196579 0.198403 0.11681 -0.296456 -0.042441 0.140602 0.167704 -0.092967 0.006746 -0.182827 0.106805 0.029922 -0.149056 0.034431 0.234385 0.020857 0.237826 -0.164406 -0.260021 -0.077359 -0.057429 -0.073959 0.049306 -0.206054 -0.191122 -0.090317 0.010752 0.033561 -0.031283 -0.039874 0.305987 -0.039613 0.090988 0.243328 0.058233 0.137311 0.093671 -0.184745 -0.109444 0.175813 -0.031512 0.210213 -0.045824 -0.140244 0.028579 -0.120376 -0.00594 0.099595
-0.341569 0.312588 0.815719 3.710827 0.572954 -1.344685 -1.246494 0.286492 -0.612698 0.247304 1.523335 2.043624 -1.069825 0.404141 -0.118869 0.242394 -0.527242 0.834954 0.464331 -2.559981 -3.051991 -0.451655 -1.672496 -0.794235 1.638653 0.110461 -1.390064 -0.235147 1.411034 0.728492 1.346296 1.055683 -0.784898 -1.664071 1.349911 -1.07349 -0.032111 0.731532 -1.810549 -2.052864 -2.181275 -2.468585 0.077652 -1.458478 0.303232 1.380494 -0.172392 -0.171621 -0.12784 0.665634 0.0338 -2.611889 -0.347535 0.433047 -0.25299 -0.706869 -0.512109 1.22931 -0.539265 1.133154 0.712009 2.061954 -0.955311 0.885614 -1.570771 -1.978332 -1.158137 -0.938321 -0.076198 -1.318784 -1.748882 0.366848 0.773085 0.134716 -1.62225 -0.847365 -2.124812 0.261342 0.614196 1.013141 0.138982 0.700245 0.995707 1.699363 0.083463 -1.864233 0.607098 -0.524773 -0.423014 -1.36331 -0.543255 0.455639 0.331763 0.922252 0.648772 -2.669806 -1.080637 -1.273156 -0.256551 1.321806
0.135717 -0.065497 0.02281 0.048052 -0.011836 -0.09375 0.0016 -0.035631 -0.026011 -0.016446 0.147576 0.093555 -0.033806 0.001119 0.136647 0.086354 -0.119676 0.293363 0.140583 -0.140273 0.092999 0.105554 0.007309 -0.047042 -0.138044 -0.144529 -0.090671 0.023305 0.042831 -0.089424 -0.009516 -0.050607 -0.11973 0.043476 -0.110033 -0.070775 0.210602 -0.044688 0.047415 0.07877 -0.058849 0.123783 -0.083304 0.146343 -0.016713 -0.014302 -0.083131 -0.029171 -0.052871 0.027786 -0.056479 -0.019677 -0.067362 0.060823 0.051262 -0.094924 0.099503 0.030649 0.106531 -0.086298 0.023543 -0.100214 0.036796 -0.033757 -0.018593 0.054249 -0.041703 -0.048402 0.151764 -0.052203 -0.028287 0.059596 0.03622 0.059919 0.042116 -0.083798 0.077838 -0.039275 -0.10326 -0.058138 -0.047792 -0.041267 0.071076 -0.034964 0.077873 0.115244 -0.016893 -0.059243 0.145701 -0.018047 -0.084552 -0.05323 0.136246 0.034465 0.051731 -0.033088 0.142559 -0.100828 -0.127029 -0.153227
-0.114306 -0.113471 -0.113896 -0.056054 0.113421 0.159791 -0.105965 -0.032417 0.031196 0.025244 0.1283 0.006887 -0.201319 -0.233588 0.067023 0.113228 0.102594 0.015683 0.108933 6.67E-4 -0.163526 0.055464 0.049113 -0.151681 -0.265613 -0.273568 -0.148008 0.02704 0.163291 -0.011242 0.195019 -0.050743 -0.249207 0.086674 0.067724 -0.015554 0.055544 0.007168 0.141044 -0.097972 -0.013707 0.005919 -0.122564 -0.154621 -0.079867 -0.108037 0.013809 0.127708 0.084622 -0.054274 -0.036363 -0.123085 -0.091707 -0.037235 -0.063938 0.161105 0.121706 -0.143783 -0.033817 -0.033837 0.037008 0.008842 -0.145063 -0.075745 0.080042 0.058432 0.021218 0.044324 -0.00168 -0.083279 0.013993 -0.149026 0.02431 0.062877 -0.049614 0.066518 0.049237 0.076018 -0.036321 0.020019 0.008454 -0.105874 0.121179 -0.056834 0.00305 0.025164 0.121894 0.034784 0.056166 0.033622 -0.035849 -0.048633 -0.081468 0.061925 -0.050478 0.00964 0.007771 0.232608 0.011845 0.076983
3.322062 -0.265634 -0.735154 2.489034 -1.549194 -0.370133 -2.85541 0.499724 -0.172708 -3.397511 0.143702 0.456534 -1.93133 1.644423 -0.23368 -0.12296 0.093273 -1.427844 -0.169109 -0.509316 -0.580429 0.786699 0.175151 -1.03489 0.337075 0.36145 -0.211685 0.21299 2.950213 -1.105234 -0.113019 -0.031153 -0.080691 0.990142 -0.445701 0.665022 0.019549 -1.90728 -0.505327 0.482388 -0.184872 -4.355522 0.03715 -1.044724 2.722995 0.318193 -0.279438 -2.660588 1.186675 -0.192276 1.613599 1.060277 -0.104392 -1.269176 0.756831 2.352934 0.202164 -0.616742 -2.141583 -1.126701 -1.132055 0.456225 -0.316684 1.434659 0.315292 -3.012048 0.10395 0.289529 2.018274 -1.852321 1.148049 -0.519265 -1.203755 1.144202 1.552803 1.064291 -0.586655 -0.588132 1.197221 0.825025 -0.481297 -0.345366 -1.794823 -2.117278 -0.459074 0.815676 0.137778 1.134037 -1.061045 1.852647 -2.738344 0.285432 -1.804952 1.025348 1.028271 1.79492 -2.875999 1.219375 -2.91363 -1.359497
2.082039 0.336366 -0.935759 1.511715 -3.560424 -1.928395 -0.911915 -1.085328 -1.256373 0.828435 -1.449189 0.830347 3.442916 1.790874 -0.795908 0.249226 -1.530745 -0.635556 -1.441355 0.696001 -1.140813 2.05411 0.814944 0.836391 -1.047091 -0.889873 3.043443 -1.069069 -0.899694 0.721261 2.050779 -3.380024 0.1115 -1.253804 -2.627244 -0.738129 -1.483601 -2.160747 -3.339145 -0.071523 -1.30318 -1.329457 1.06052 0.453372 1.154068 0.100435 -2.694531 1.675936 0.774536 -0.092699 -0.812041 -0.280022 0.540321 -1.072 0.076079 2.162178 -1.843101 -3.528751 -0.2769 -0.121911 -2.462143 -1.574445 0.452342 -0.434565 0.591436 -2.196673 1.253671 -3.489306 0.254867 0.607124 4.850824 -2.454176 -1.448066 3.273839 1.188581 0.926558 2.282821 1.441728 1.200107 2.581533 1.824633 0.458611 -2.129844 0.248367 1.412666 0.895334 -0.173264 1.487316 -0.204748 2.015196 0.763463 1.086268 -4.820467 0.906443 -0.025663 1.331479 -0.281809 1.843237 -1.288186 0.45067
-0.175328 -0.049269 0.182621 0.092527 -0.13626 -0.234234 -0.095359 -0.014424 0.019652 0.097325 0.018858 0.036683 -0.019102 -0.202394 -0.118578 0.13395 -0.025143 0.04412 0.063792 0.119437 -0.06228 0.144523 0.033319 -0.059996 0.140662 -0.0534 0.084258 0.062466 -0.019665 -0.141776 0.070586 -0.139087 -0.02688 0.187799 -0.068526 0.024505 0.007854 0.143015 -0.146562 0.101909 0.129675 0.181776 0.23316 -0.133348 -0.110777 0.028866 0.029227 -0.199745 0.044108 -0.013139 0.101899 -0.023458 0.054814 -0.116986 0.064844 -0.047431 -0.108874 0.007642 -0.122495 -0.215627 0.03898 -0.028985 -0.061847 -0.242858 -0.079407 0.12066 0.018312 0.135039 0.021902 -0.067896 -0.122618 0.109771 -0.078429 0.031701 0.127918 -0.123027 -0.102267 0.006632 0.006597 0.091273 -0.151938 0.039314 -0.015198 -0.096233 0.042084 -0.069582 0.195578 0.052564 0.214438 0.04108 -0.141349 0.003577 -0.023046 -0.009939 0.093336 -0.038911 0.007006 0.059789 -0.0061 -0.160141
-0.05739 0.083862 -0.059129 0.104623 -0.034739 -0.110533 -0.008177 -0.09861 0.031824 -0.003593 -0.035665 0.118391 -0.097722 -0.12287 0.049304 0.213995 -0.098618 0.158292 -0.012209 0.048933 0.075178 0.132461 0.062628 -0.041708 0.031766 0.022115 -0.047516 0.052626 -0.103886 0.164863 0.011226 0.055899 -0.013633 0.184695 -0.05411 -0.056877 0.093954 0.040765 -0.11576 0.069928 -0.200197 -0.101876 -0.012222 -0.133743 -0.0394 0.016092 -0.064518 0.127605 -0.070978 0.120005 0.242616 0.001093 -0.059743 0.009455 -0.06102 -0.144939 -0.004075 0.065205 -0.123068 -0.088128 0.053845 -0.015431 0.050303 -0.098023 -0.153158 0.066349 0.092201 0.022474 0.034728 0.072464 0.1451 0.088503 0.164743 0.083971 -0.002862 -0.012729 0.010108 0.076165 -0.068666 -0.065846 0.094272 0.179615 0.090158 -0.140031 -0.309548 -0.071145 0.197202 0.104468 -0.048893 0.092496 0.054391 -0.061848 -0.013662 0.043592 -0.031029 -0.113577 0.151853 -0.090575 -0.021193 0.051677
-0.094406 -0.139216 0.085681 -0.062096 -0.094878 0.044201 -0.031581 -0.067712 0.076215 0.064504 0.114394 0.02458 0.105273 -0.07048 0.179159 0.149745 -0.040016 0.22155 0.156452 -0.006628 -0.017371 0.099903 0.198594 -0.052623 -0.074707 -0.065496 0.008111 -0.076206 0.131563 -0.139569 -0.049208 0.132898 -0.245712 0.076377 0.012358 -0.071079 -0.243379 0.004088 0.122749 0.190931 -0.044773 0.117755 -0.063711 -0.003411 0.018732 0.099042 -0.021431 0.06732 -0.04953 0.085499 0.120677 -0.147969 0.017857 -0.066396 0.12845 -0.136186 -0.122181 0.066881 -0.03371 -0.038167 0.032677 -0.199192 -0.154716 -0.24415 0.042089 0.018584 0.103344 0.08675 0.14335 -0.177821 -0.19928 -0.104486 -0.002838 0.148692 0.094253 -0.178816 -0.241778 -0.04838 -0.039702 -0.083254 -0.1525 0.132332 0.100286 -0.201796 0.016349 -0.036088 0.04249 0.016579 0.206146 -0.017167 -0.289566 0.075422 -0.034309 0.08303 -0.043005 -0.218297 0.036802 -0.130314 0.244719 -0.007823
0.035921 0.044006 -0.041087 0.045923 0.11486 0.091657 -0.134703 0.067704 -0.179971 9.43E-4 0.115089 0.086446 -0.195778 -0.041377 0.144411 0.070663 0.050673 -0.068756 -0.170502 0.074419 -0.041609 -0.012886 0.194753 0.080801 -0.100149 0.052385 -0.123323 0.09808 0.168779 -0.054431 -0.077236 0.146937 0.098696 0.1154 -0.099998 -0.097791 -0.100788 -0.301166 0.073453 0.074044 -0.208999 -0.043171 0.013785 0.073091 -0.053111 -0.092939 -0.127185 0.070022 0.080147 -0.007156 -0.025386 -0.013825 0.006077 0.148636 -0.005753 -0.023443 -0.047861 -0.060011 -0.035341 0.108214 0.099431 -0.170558 -0.027039 -0.206107 -0.040687 0.009126 0.141363 0.0169 -0.173301 0.225059 0.142689 0.164679 0.025707 -0.013744 0.066723 0.076411 -0.060868 -0.060411 0.144979 0.071495 -0.017427 -0.091595 -0.003676 -0.002334 0.019185 -0.004108 0.16325 -0.157031 -0.111803 0.031695 -0.11572 0.036403 -0.044024 -0.175905 -0.048256 -0.071706 0.065096 -0.141065 0.034124 -0.148347
-0.120275 -0.076624 0.060001 0.16806 -0.099074 -0.179 -0.138545 -0.046315 -0.153346 -0.013029 0.06142 0.100548 -0.052307 -0.083166 0.098766 0.303514 0.078996 0.09986 -0.114068 -0.063848 -0.002261 0.297448 0.251458 0.137863 -0.068201 -0.015344 -0.004984 -0.065486 0.205865 -0.073548 0.131509 0.089437 -0.064868 -0.074377 -0.033386 -0.048961 0.13246 0.014515 -0.140166 0.058029 -0.057859 0.061261 -0.025467 -0.037082 0.041226 -0.122018 -0.082621 -0.012521 0.038862 0.110036 0.17262 -0.110084 0.001906 -0.259051 0.146055 -0.013699 0.034776 0.073848 -0.020211 -0.078644 0.032437 -0.212562 -0.079578 -0.174384 -0.06224 -5.31E-4 -0.125005 -0.085579 0.122879 -0.004955 -0.219484 -0.163308 -0.336882 0.086699 -0.014117 -0.105441 -0.110134 -0.021006 -0.038278 -0.097487 -0.135202 0.045969 0.166956 -0.171197 -0.14435 0.013855 -0.032949 -0.034161 -0.050665 0.034896 -0.09674 0.05297 -0.165976 0.174622 -0.149682 -0.092368 0.033895 0.02091 -0.035898 -0.080623
0.007805 -0.07345 0.123907 -0.030984 -0.08743 -0.158221 -0.137941 0.050421 -0.15177 -0.100449 0.185262 0.093983 -0.161407 0.101125 0.132469 0.312988 0.102233 0.098705 0.004686 -0.014793 -0.052009 0.246594 0.248026 0.053264 -0.15586 -0.235297 -0.091581 0.047259 0.24065 -0.177291 -0.082049 0.016832 -0.045281 -0.051034 -0.136733 0.033168 0.059209 0.054036 -0.037703 0.078729 -0.151667 -0.030878 -0.054603 0.137904 0.249018 0.014901 0.008011 -0.033434 -0.013562 0.022647 -0.063224 -0.154448 0.018578 -0.142023 0.018423 0.013588 -0.011329 -0.005371 0.02952 -0.077316 0.03151 -0.157499 -0.148248 -0.04936 -0.130979 -0.09605 -0.156359 -0.12793 -0.012071 0.110429 -0.082423 0.076904 -0.034369 0.076884 0.029806 -0.158475 0.090376 0.009428 0.122907 -0.13707 0.140081 -0.037685 0.052466 -0.123026 -0.02588 -0.113552 0.018825 0.012818 -0.130858 0.245935 -0.216858 -0.002008 -0.076466 0.154324 0.035529 0.024073 -0.106034 -0.10467 0.083582 -0.176818
0.352905 0.550922 -1.128945 -0.511125 0.774489 1.405335 -0.371647 0.106012 -0.779785 -0.640302 -0.68578 1.570717 -0.712288 -0.706705 -0.789609 -0.045278 -1.599722 -2.840112 -0.089543 -1.158838 -1.862605 -0.62748 -0.063542 -0.468696 0.750564 0.033551 -0.772222 -0.188991 -0.163115 0.455978 0.038455 -0.779588 0.172303 -1.114448 -0.548246 -0.008155 1.66721 -0.744821 -0.15746 -2.668482 -0.304702 -0.905716 0.479063 0.151803 -0.94063 -0.044338 -0.906122 -0.456182 0.281891 0.268287 0.47007 0.628019 0.328428 1.471286 -2.345457 0.072073 -0.345477 -0.998199 -1.496897 -0.053061 0.351206 -0.934426 0.295591 0.07336 0.24092 0.486976 0.390085 -0.621556 0.375246 -0.02625 1.957847 1.014101 0.004675 0.08874 -0.900479 -0.462149 0.922254 1.355385 -1.048724 0.105897 1.254466 0.410718 0.321258 1.066395 -0.171761 -0.128774 0.315556 0.697301 -0.180925 0.555334 1.005586 -0.891677 -1.232923 -1.994189 -0.567812 0.204184 -0.947385 -0.051526 -0.987029 0.725141
-0.032343 -0.090495 0.116196 0.109467 -0.105508 0.07639 0.006315 -0.09827 -0.061328 0.043131 0.004713 -0.087505 0.030902 -0.276993 -0.276149 0.07313 -0.116243 -0.020937 -0.008798 -0.263795 -0.035519 0.117392 0.085048 0.164685 0.012376 -0.112902 -0.123586 -0.11131 0.274305 0.052654 -0.14195 -0.100923 -0.174816 -0.087876 -0.086186 -0.178495 -0.056514 7.8E-4 -0.110101 0.122521 0.160546 0.08158 -0.143743 0.324887 -0.003884 -0.173489 0.182934 -0.076327 -0.135303 0.291227 0.089771 0.030549 0.029191 0.038665 0.019767 -0.088898 0.003707 -0.11127 0.094425 -0.10367 0.086015 0.165059 -0.117461 0.149898 -0.180768 0.266746 0.049208 -0.014816 0.029419 -0.235981 -0.038327 -0.058814 -0.096377 0.066232 0.118314 -0.400703 0.032143 0.025484 0.028107 0.024545 0.017318 0.153427 0.003615 -0.125353 0.223192 0.087379 0.103091 -0.035203 0.150171 0.086079 -0.17531 0.233349 0.150602 0.037622 0.042641 0.035504 -0.053038 0.022578 0.088273 0.019157
-0.011401 -0.148384 0.198507 0.014281 -0.112075 -0.043296 -0.0896 -0.172698 -0.112186 0.088068 0.143385 0.190086 0.016383 -0.059187 0.177615 0.164917 -0.076105 0.157518 0.080312 0.038369 -0.126254 0.157889 0.189299 0.1266 -0.218361 -0.030584 -0.167432 0.012597 0.231352 -0.133925 -0.024844 1.58E-4 -0.026968 0.053663 -0.099208 -0.073596 -0.003551 -0.053953 0.005108 0.103921 -0.072911 0.202477 -0.013601 -0.043473 -0.004453 -0.032077 -0.050562 0.005374 -0.247736 0.142506 0.086329 -0.161261 -0.061927 9.68E-4 0.13499 -0.093917 -0.08376 -0.159776 0.062987 -0.051299 0.111697 -0.172846 -0.048841 -0.13167 -0.088857 -0.022418 0.075589 0.064087 0.169376 -0.103409 -0.112249 0.021501 -0.045088 -0.101752 0.065418 0.011421 -0.173935 -4.36E-4 0.009245 -0.088695 -0.060097 0.180829 0.087706 -0.212514 -0.008053 0.035302 0.176063 0.065895 0.265278 0.092446 -0.15587 -0.146044 0.118119 0.175072 -0.075941 -0.042854 0.090929 0.066769 0.032815 -0.099912
-0.046402 -0.091706 0.061221 0.133444 -0.008668 -0.16598 -0.07187 -0.087157 -0.052572 0.073168 0.095557 0.257013 0.142319 -0.081129 -0.066367 0.308917 0.028502 0.04387 0.083795 -0.016291 -0.082195 0.077681 0.230168 -0.005251 -0.04611 -0.08803 -0.157456 -0.023775 0.073221 0.062342 0.047893 -0.048412 -0.087557 -0.012438 -0.024717 -0.229277 0.183815 -0.090387 -0.017625 0.119046 -0.048995 0.155954 0.076712 -0.047176 -0.03431 -0.12912 0.198561 0.110542 -0.147049 0.033725 0.097346 -0.24984 -0.142597 -0.076786 0.134535 -0.136149 0.008805 0.126594 0.279123 -0.015593 0.230276 -0.168691 -0.002176 -0.161187 -0.101854 0.064825 -0.015816 -0.080153 0.098999 -0.150849 -0.02364 -0.029365 -0.100959 -0.006385 0.109394 -0.131104 0.018252 -0.186174 -0.086431 0.089744 -0.182748 0.154491 0.086368 -0.118594 0.304352 -0.019286 0.065491 0.018946 0.098769 0.25693 -0.159979 0.036608 -0.144006 0.07858 -0.158615 -0.15784 0.242939 -0.040458 -0.081704 -0.082728
0.0 0.0 0.0 0.0 0.0 0.0 0.0 0.0 0.0 0.0 0.0 0.0 0.0 0.0 0.0 0.0 0.0 0.0 0.0 0.0 0.0 0.0 0.0 0.0 0.0 0.0 0.0 0.0 0.0 0.0 0.0 0.0 0.0 0.0 0.0 0.0 0.0 0.0 0.0 0.0 0.0 0.0 0.0 0.0 0.0 0.0 0.0 0.0 0.0 0.0 0.0 0.0 0.0 0.0 0.0 0.0 0.0 0.0 0.0 0.0 0.0 0.0 0.0 0.0 0.0 0.0 0.0 0.0 0.0 0.0 0.0 0.0 0.0 0.0 0.0 0.0 0.0 0.0 0.0 0.0 0.0 0.0 0.0 0.0 0.0 0.0 0.0 0.0 0.0 0.0 0.0 0.0 0.0 0.0 0.0 0.0 0.0 0.0 0.0 0.0
-0.341569 0.312588 0.815719 3.710827 0.572954 -1.344685 -1.246494 0.286492 -0.612698 0.247304 1.523335 2.043624 -1.069825 0.404141 -0.118869 0.242394 -0.527242 0.834954 0.464331 -2.559981 -3.051991 -0.451655 -1.672496 -0.794235 1.638653 0.110461 -1.390064 -0.235147 1.411034 0.728492 1.346296 1.055683 -0.784898 -1.664071 1.349911 -1.07349 -0.032111 0.731532 -1.810549 -2.052864 -2.181275 -2.468585 0.077652 -1.458478 0.303232 1.380494 -0.172392 -0.171621 -0.12784 0.665634 0.0338 -2.611889 -0.347535 0.433047 -0.25299 -0.706869 -0.512109 1.22931 -0.539265 1.133154 0.712009 2.061954 -0.955311 0.885614 -1.570771 -1.978332 -1.158137 -0.938321 -0.076198 -1.318784 -1.748882 0.366848 0.773085 0.134716 -1.62225 -0.847365 -2.124812 0.261342 0.614196 1.013141 0.138982 0.700245 0.995707 1.699363 0.083463 -1.864233 0.607098 -0.524773 -0.423014 -1.36331 -0.543255 0.455639 0.331763 0.922252 0.648772 -2.669806 -1.080637 -1.273156 -0.256551 1.321806
0.040639 0.081814 0.04287 0.062167 0.092794 0.114908 -5.3E-4 -0.061893 -0.128806 0.029658 -0.102642 0.050736 0.021353 0.278962 0.156361 -0.045776 -0.059025 0.007615 0.069272 0.03742 0.044666 -0.205296 -0.009373 0.060588 0.130976 -0.007905 -0.098053 0.083234 0.088487 0.073668 -0.063313 0.05638 -0.149995 0.040243 0.139103 0.120814 0.186168 0.077513 0.035539 -0.137722 0.149343 -0.011946 0.157701 0.051791 -0.073664 0.096946 -0.283681 0.058369 -0.065895 0.126711 -0.040991 -0.045914 -0.057224 -0.17697 0.066608 0.102407 -0.15335 -0.00258 -0.222251 -0.069709 -9.96E-4 0.033302 -0.223593 -0.01348 0.109527 0.085455 -0.086426 0.046289 0.047765 0.150103 -0.094972 -0.019492 -0.08396 0.061637 0.042416 0.083935 -0.175169 -0.031524 -0.150901 -0.072843 -0.056665 0.199748 0.160562 -0.070466 0.072887 0.025233 0.011767 0.031496 0.08045 -0.027642 0.037393 0.123465 -0.042501 0.013419 0.046506 -0.08898 -0.024989 -0.132646 0.135167 0.194549
0.015966 0.082275 0.244086 0.135131 0.086661 -0.07108 0.117129 -0.022949 -0.070629 0.031525 0.121659 0.198453 -0.170391 -0.124908 0.074014 0.072207 -0.144941 0.069315 -0.11522 -0.015639 0.027575 0.164075 0.093154 -0.131532 0.126245 -0.018947 -0.072033 0.116535 0.081726 -0.047775 0.194369 -0.111704 -0.106896 -0.196335 0.199859 -0.122022 -0.025765 -0.12183 0.018287 0.005338 -0.18789 -0.109117 0.097156 -0.063075 -0.097232 0.098315 0.159224 0.093327 0.007199 0.012181 -0.089253 -0.156689 -0.197619 0.014638 -0.221813 -0.065132 0.020436 -0.018855 -0.095447 0.010743 -0.219649 0.264757 -0.12541 0.026982 0.004244 -0.060287 0.021534 -0.069757 0.121664 0.009352 0.023015 0.01808 -0.025824 -0.031825 0.015246 -0.052323 0.005172 -0.162099 -0.046568 0.167871 -0.100889 0.145419 0.010225 -0.025632 0.074895 0.19243 0.152564 -0.028017 0.230726 0.120613 -0.006271 0.052373 -0.156822 0.12854 -0.049107 -0.239344 0.05321 0.096895 0.028022 0.089884
-0.123003 0.048877 0.167269 0.043056 -0.174355 -0.096088 -0.015841 0.01292 -0.00128 -0.032734 -0.184162 0.084751 -0.016075 0.045375 0.22618 0.013093 -0.035138 0.084895 0.216687 0.001716 -0.202042 0.036077 0.019105 0.146157 -0.318496 0.029659 -0.062804 -0.015508 0.025033 -0.118191 -0.019245 0.096331 -0.01936 -0.030562 -0.181901 -0.120176 -0.076021 0.123398 -0.034268 0.12959 0.054107 0.084186 -0.068067 0.068599 0.165065 5.86E-4 0.021577 -0.050722 -0.222388 -0.027727 -0.084295 -0.184349 -0.105578 0.07748 0.038976 0.020515 -0.00968 0.069199 -0.076885 -0.068497 0.085983 0.001266 0.101366 -0.014672 0.099535 -0.040616 -0.133307 0.169141 0.028426 0.070318 0.025154 0.214597 -0.144201 0.007955 0.126527 -0.062705 -0.106092 -0.158868 0.068011 0.066079 0.152811 0.131155 0.041157 -0.199647 0.011749 0.021478 -0.083598 -0.072412 0.066457 -0.038614 -0.033023 0.109223 0.008377 0.090457 -0.012824 -0.103629 0.07397 -0.043913 -0.070082 -0.11677
0.041914 0.015666 0.034089 0.086475 -0.198244 0.11711 -0.095562 0.005625 -0.037743 0.074663 -0.010026 0.123455 -0.172915 -0.200515 0.146939 -0.022816 -0.059053 0.173007 -0.09541 -0.07803 0.107323 -0.031707 0.032494 -0.031415 -0.254576 -0.123597 0.029584 -0.083543 0.121239 -0.163311 -0.110883 -0.047849 -0.12802 -0.026148 -0.09016 0.062535 0.116041 -0.14623 -0.056409 0.04609 -0.016108 0.151776 0.018965 -0.168225 0.019202 0.085449 0.030922 0.196504 -0.243203 -0.072012 0.086859 -0.064052 0.033494 -0.038665 0.131657 -0.003455 -0.122942 -0.043358 -0.067827 0.019242 0.064563 -0.081684 -0.060639 -0.079411 -0.026062 0.108212 0.103058 -0.023696 0.168501 -0.018638 0.047675 -0.002522 0.053836 -0.12835 0.105485 0.209799 0.216668 5.92E-4 0.017312 -0.011005 -0.214374 0.079343 0.266877 -0.146892 -0.161814 -0.02575 -0.060134 -0.047845 -0.070124 -0.11873 0.079915 0.049253 -0.036472 0.164869 -0.035579 -0.087513 0.132625 0.020347 -0.028076 -0.117863
-0.023725 -0.265581 -0.041655 0.122232 0.026794 -0.088378 -0.095963 -0.07173 -0.107796 -0.053451 0.244892 0.188711 -0.170801 0.022715 -8.47E-4 0.204389 -0.068086 0.024141 0.111102 0.050266 -0.042829 -0.104548 0.056634 0.106866 -0.035671 -0.111641 0.164909 0.066612 0.15263 -0.04625 0.072838 0.047495 -0.171938 0.101539 -0.079368 -0.007698 0.092885 -0.147097 0.195496 -0.035855 -0.218068 -0.098775 0.231561 0.129023 -0.111343 -0.171763 -0.061107 -0.054208 0.042218 0.022472 0.07198 -0.214236 -0.161899 -0.018452 0.010509 -0.022686 0.086178 0.078149 -0.072518 -0.183167 0.119658 -0.068118 0.051934 -0.01767 -0.158406 -0.063514 -0.107352 0.120173 0.133667 0.053117 0.01506 -0.054873 0.029177 -0.089398 -0.004805 -0.012248 0.112717 -0.080168 -0.105325 -0.109812 -0.087183 -0.176569 0.227813 -0.2492 -0.148258 -0.003471 0.100996 0.024248 0.093904 0.123002 -0.140595 0.053374 -0.09475 -0.046893 -0.002508 -0.046196 0.066997 0.183339 -0.060206 -0.072608
0.040639 0.081814 0.04287 0.062167 0.092794 0.114908 -5.3E-4 -0.061893 -0.128806 0.029658 -0.102642 0.050736 0.021353 0.278962 0.156361 -0.045776 -0.059025 0.007615 0.069272 0.03742 0.044666 -0.205296 -0.009373 0.060588 0.130976 -0.007905 -0.098053 0.083234 0.088487 0.073668 -0.063313 0.05638 -0.149995 0.040243 0.139103 0.120814 0.186168 0.077513 0.035539 -0.137722 0.149343 -0.011946 0.157701 0.051791 -0.073664 0.096946 -0.283681 0.058369 -0.065895 0.126711 -0.040991 -0.045914 -0.057224 -0.17697 0.066608 0.102407 -0.15335 -0.00258 -0.222251 -0.069709 -9.96E-4 0.033302 -0.223593 -0.01348 0.109527 0.085455 -0.086426 0.046289 0.047765 0.150103 -0.094972 -0.019492 -0.08396 0.061637 0.042416 0.083935 -0.175169 -0.031524 -0.150901 -0.072843 -0.056665 0.199748 0.160562 -0.070466 0.072887 0.025233 0.011767 0.031496 0.08045 -0.027642 0.037393 0.123465 -0.042501 0.013419 0.046506 -0.08898 -0.024989 -0.132646 0.135167 0.194549
-0.062574 -0.108973 -0.145495 0.055877 -0.155858 0.08921 -0.013244 -0.044042 -0.043853 -0.179456 -0.149593 -0.276282 -0.001934 -0.07495 -0.301756 -0.008448 0.137368 0.074711 0.090139 -0.032402 -0.00457 0.257405 -0.018398 0.144576 -0.11541 0.112658 -0.026886 -0.052581 0.080135 -0.007777 0.103466 0.154032 -0.018474 0.099379 -0.132567 -0.066842 -0.028204 -0.023463 0.334049 0.074622 -0.076538 -0.165406 -0.050037 -0.037745 -0.066966 0.004024 -0.091949 -0.059625 0.018915 -0.112114 -0.255192 0.030431 -0.04758 -0.082147 -0.075611 -0.148433 0.043028 -0.108469 0.148797 0.185136 0.151357 -0.002854 0.089053 0.074919 -0.207584 0.113768 -0.108715 -0.026869 0.080747 -0.186707 -0.025322 -0.006177 -0.084312 0.049932 0.029048 0.016667 0.036115 -0.158789 -0.011694 0.216654 -0.055802 -0.163875 0.180262 0.061505 -0.101957 0.063434 -0.019946 0.114447 -0.027701 0.144657 -0.051446 0.095036 -0.004411 -0.187423 0.273024 -0.171534 -0.137943 -0.043453 -0.056878 0.123849
0.166865 -0.033351 -0.013364 -0.059014 -0.095169 -0.021507 -0.126788 0.103728 -0.200711 -0.063152 0.044354 0.134222 0.002393 0.071524 0.209815 0.100187 0.025401 0.083631 0.120448 0.173878 -0.091184 0.033918 0.054121 0.121356 -0.168415 -0.048991 -0.209931 -0.016042 0.202225 -0.007166 -0.110802 -0.028926 -0.11468 0.016808 -0.064513 -0.05835 -0.015135 0.093734 0.167046 -0.014056 0.02555 -0.101082 -0.016676 -0.00246 -0.017495 0.184926 -0.038011 -0.106257 0.001132 0.03659 0.080797 -0.16487 -0.164051 -0.024617 0.144233 0.037146 0.064814 -0.135114 0.218106 -0.087954 0.024218 -0.008723 0.020657 -0.10933 -0.0401 -0.009808 -0.283523 0.179888 -0.016468 0.100665 -0.045627 0.125868 0.040189 0.113707 0.238166 -0.079786 0.009467 -0.061173 -0.064632 -0.277119 0.084403 -0.091058 0.212317 -0.16461 -0.095926 -0.049768 -0.09268 0.023356 0.096515 0.010373 -0.174271 -0.082788 -0.155016 0.104184 0.044246 0.051147 0.02525 -0.044468 -0.064392 -0.011243
0.0 0.0 0.0 0.0 0.0 0.0 0.0 0.0 0.0 0.0 0.0 0.0 0.0 0.0 0.0 0.0 0.0 0.0 0.0 0.0 0.0 0.0 0.0 0.0 0.0 0.0 0.0 0.0 0.0 0.0 0.0 0.0 0.0 0.0 0.0 0.0 0.0 0.0 0.0 0.0 0.0 0.0 0.0 0.0 0.0 0.0 0.0 0.0 0.0 0.0 0.0 0.0 0.0 0.0 0.0 0.0 0.0 0.0 0.0 0.0 0.0 0.0 0.0 0.0 0.0 0.0 0.0 0.0 0.0 0.0 0.0 0.0 0.0 0.0 0.0 0.0 0.0 0.0 0.0 0.0 0.0 0.0 0.0 0.0 0.0 0.0 0.0 0.0 0.0 0.0 0.0 0.0 0.0 0.0 0.0 0.0 0.0 0.0 0.0 0.0
0.015966 0.082275 0.244086 0.135131 0.086661 -0.07108 0.117129 -0.022949 -0.070629 0.031525 0.121659 0.198453 -0.170391 -0.124908 0.074014 0.072207 -0.144941 0.069315 -0.11522 -0.015639 0.027575 0.164075 0.093154 -0.131532 0.126245 -0.018947 -0.072033 0.116535 0.081726 -0.047775 0.194369 -0.111704 -0.106896 -0.196335 0.199859 -0.122022 -0.025765 -0.12183 0.018287 0.005338 -0.18789 -0.109117 0.097156 -0.063075 -0.097232 0.098315 0.159224 0.093327 0.007199 0.012181 -0.089253 -0.156689 -0.197619 0.014638 -0.221813 -0.065132 0.020436 -0.018855 -0.095447 0.010743 -0.219649 0.264757 -0.12541 0.026982 0.004244 -0.060287 0.021534 -0.069757 0.121664 0.009352 0.023015 0.01808 -0.025824 -0.031825 0.015246 -0.052323 0.005172 -0.162099 -0.046568 0.167871 -0.100889 0.145419 0.010225 -0.025632 0.074895 0.19243 0.152564 -0.028017 0.230726 0.120613 -0.006271 0.052373 -0.156822 0.12854 -0.049107 -0.239344 0.05321 0.096895 0.028022 0.089884
0.081136 -0.136923 0.070417 0.20508 -0.022939 -0.059967 -0.312815 -0.141054 -0.096877 0.178968 0.164506 -0.047259 -0.054307 -0.071616 0.17262 0.304261 -0.003812 0.057163 -0.023592 -0.083519 -0.214665 -0.03219 0.075441 0.021646 -0.180604 -0.089558 -0.084739 -0.031649 0.243774 -0.279346 0.130584 -0.068305 -0.30723 -0.085302 -0.194516 1.73E-4 0.028814 -0.04522 0.032331 0.064634 -0.300218 0.035444 0.107679 0.034083 0.044666 -0.096232 -0.001438 0.037183 -0.073123 0.136581 -0.070902 -0.01961 -0.196579 0.198403 0.11681 -0.296456 -0.042441 0.140602 0.167704 -0.092967 0.006746 -0.182827 0.106805 0.029922 -0.149056 0.034431 0.234385 0.020857 0.237826 -0.164406 -0.260021 -0.077359 -0.057429 -0.073959 0.049306 -0.206054 -0.191122 -0.090317 0.010752 0.033561 -0.031283 -0.039874 0.305987 -0.039613 0.090988 0.243328 0.058233 0.137311 0.093671 -0.184745 -0.109444 0.175813 -0.031512 0.210213 -0.045824 -0.140244 0.028579 -0.120376 -0.00594 0.099595
0.0 0.0 0.0 0.0 0.0 0.0 0.0 0.0 0.0 0.0 0.0 0.0 0.0 0.0 0.0 0.0 0.0 0.0 0.0 0.0 0.0 0.0 0.0 0.0 0.0 0.0 0.0 0.0 0.0 0.0 0.0 0.0 0.0 0.0 0.0 0.0 0.0 0.0 0.0 0.0 0.0 0.0 0.0 0.0 0.0 0.0 0.0 0.0 0.0 0.0 0.0 0.0 0.0 0.0 0.0 0.0 0.0 0.0 0.0 0.0 0.0 0.0 0.0 0.0 0.0 0.0 0.0 0.0 0.0 0.0 0.0 0.0 0.0 0.0 0.0 0.0 0.0 0.0 0.0 0.0 0.0 0.0 0.0 0.0 0.0 0.0 0.0 0.0 0.0 0.0 0.0 0.0 0.0 0.0 0.0 0.0 0.0 0.0 0.0 0.0
-0.026799 -0.103797 0.112651 -0.259641 -0.103915 0.088316 -0.053088 -0.022809 0.009437 -0.09753 0.060073 0.126938 -0.120166 -0.201027 -0.031192 0.114149 -0.054812 0.193163 0.102408 0.014485 -0.142804 0.004168 0.106051 0.11444 -0.218755 -0.190187 0.08501 -0.064668 -0.128386 0.029669 -0.065954 0.042625 -0.391147 -0.09788 -0.127327 0.028785 0.023364 -0.057131 -0.029977 -0.052351 -0.109947 0.189529 -0.137615 0.126845 -0.031891 -0.070696 -0.021912 0.047885 0.00687 0.096735 0.088226 -0.067865 -0.012925 0.020968 -0.00858 0.059358 0.11823 -0.176081 -0.213955 -0.175354 0.240854 -0.072666 0.023853 -0.029982 0.089821 0.130766 0.016941 0.178835 -0.00797 -0.080021 -0.044534 0.049337 -0.037857 -0.1511 0.060476 -0.006618 0.145705 0.04376 -0.128786 -0.038244 0.01883 -0.008851 0.060935 -0.194196 0.098924 0.049666 0.05715 0.08558 0.098442 0.050731 -0.160965 -0.078077 -0.002686 -0.001068 -0.122167 -0.028315 -0.037337 -0.071233 -0.050617 -0.095917
-0.149685 -0.120505 0.105557 0.109039 0.112306 -0.133256 0.023815 -0.007123 0.006583 0.025246 -0.009863 0.017492 -0.017406 -0.04117 0.035031 0.035368 -0.014264 0.084839 0.197125 0.223451 0.112399 0.02709 0.174485 -0.111268 -0.101425 -0.14357 -0.098971 0.08839 -0.03408 -0.10892 -0.051329 -0.209853 0.016846 0.079035 -0.089175 -0.244313 -0.124485 -0.18503 0.081454 0.016426 -0.119857 0.285123 0.01328 -0.197776 0.152565 0.013721 -0.192897 0.048751 -0.152711 0.002785 -0.126821 -0.039982 0.179294 0.106193 0.105845 -0.042968 0.101949 0.020342 -0.038769 0.202503 0.239428 -0.250828 -0.155216 -0.029774 -0.071501 0.033141 -0.083383 0.239626 0.12726 0.010875 -0.045707 -0.084413 -0.040798 -0.098189 -0.042346 0.013006 -0.114527 0.010468 -0.062945 -0.170442 -0.022355 0.060956 0.107394 0.061567 0.06402 0.163726 -0.098445 -9.68E-4 0.119614 0.049555 -0.042218 -0.112237 0.036486 -0.042238 -0.066028 0.020468 -0.115309 0.090711 -0.066787 -0.147947
-0.718438 -0.830038 -0.584242 2.1215 -0.644012 1.416116 -0.587713 -0.321771 0.15449 -1.337212 0.646351 2.943981 -2.520119 -0.053393 1.892255 -0.247068 0.153723 -1.774544 -1.713547 1.03615 -2.316809 -1.758234 0.596352 -1.216816 0.651834 0.378166 -0.461749 -1.113127 -1.262089 1.808952 2.079526 -0.645053 -1.036425 -0.051591 0.752853 1.877822 1.149022 -1.563167 0.088195 1.179668 0.264795 -0.643595 -1.254162 2.294433 -0.67558 -0.480528 -1.903531 -1.404449 3.451226 0.215378 -0.348073 3.059608 -0.201534 3.176656 -2.660815 -0.397857 0.658943 0.204092 -2.861443 -2.700162 -0.267356 1.597524 -0.058446 0.400235 0.112722 2.04443 -0.418444 -0.708333 -0.409393 0.970238 4.077705 1.113589 0.123738 0.071757 1.385313 -2.550826 0.377188 -1.266978 -0.033552 1.268038 1.334944 -1.192168 -2.617046 1.325431 1.537295 0.868143 0.029881 0.136091 0.48518 -1.968409 0.753802 -0.972635 0.324233 1.386425 1.801178 1.298403 -2.240443 1.965765 -0.567086 2.183566
0.024469 -0.151349 0.092569 0.046973 -0.102688 -0.127163 -0.235171 -0.169317 -0.151063 0.057502 0.196739 -0.005606 -0.084769 -0.02455 0.106752 0.112927 0.05373 0.042122 0.135128 -0.093466 -0.011657 -0.123484 0.155433 0.036849 -0.008493 -0.023318 -0.156789 0.017396 0.061681 -0.077511 -0.02916 -0.008563 -0.173251 0.047168 -0.127008 -0.013438 0.078686 -0.046773 0.110099 0.090545 -0.050878 0.04002 -0.012747 0.139102 8.73E-4 0.04416 0.03245 0.084944 -0.018924 0.035803 -0.169714 -0.065043 0.025828 0.016771 -0.116017 0.133578 -0.052353 -0.054714 -0.041381 -0.085617 -0.038674 -0.049584 -0.103786 -0.001023 0.203375 0.181756 0.189315 -0.145704 0.210694 -0.177538 -0.236504 0.143905 -0.080205 0.189806 -0.160509 -0.111574 -0.085493 0.114802 0.002953 -0.049283 -0.117009 0.160385 -0.119224 0.001865 0.079555 0.047012 0.125001 0.015508 0.277829 0.045856 -0.116416 0.032505 0.034571 0.093834 0.053 -0.077939 0.068649 -0.076199 -0.062399 -0.227613
-0.049418 -0.036399 0.047087 0.035521 -0.04426 -0.07204 -0.057305 -0.01961 -0.050576 0.008957 0.069274 -0.056356 -0.087336 0.079403 0.091801 0.044752 -0.062672 0.096308 0.004329 -0.057825 0.011089 -0.10588 0.043849 0.053918 -0.089942 -0.217775 -0.03278 -0.046642 0.021616 0.022529 2.28E-4 0.073149 -0.096805 0.097561 -0.018957 0.004865 0.051744 -0.118616 0.015623 0.052852 -0.0062 -0.008272 0.021985 0.043405 0.014403 0.0084 -0.031356 0.238753 0.006306 0.119369 0.192711 -0.105924 -0.171451 -0.105112 -0.04012 -0.008332 0.007063 0.056833 -0.195563 -0.057609 -0.057991 -0.003439 -0.017028 -0.078926 -0.070455 -0.066509 0.003854 -0.046651 0.173206 0.097305 -0.046108 0.042303 0.107519 -0.064719 0.043666 0.057978 0.004657 0.057185 -0.070903 0.047588 -0.021279 0.08271 0.069409 -0.034849 0.013943 0.099619 -0.031629 -0.101472 0.060454 0.084281 0.073155 0.102968 -0.083518 0.043023 0.031514 -0.014303 0.049097 -0.061045 0.050428 0.067779
0.295743 0.177472 -0.119128 0.005556 0.073491 0.126463 -0.068491 0.040956 0.012892 0.010677 0.103698 -0.178339 0.020261 0.006936 -0.070935 0.081626 -0.108648 0.050181 0.087656 0.068466 -0.133293 -0.091202 -0.029839 0.191182 0.16862 -0.083538 -0.080773 0.117052 -0.030354 0.020229 -0.020066 -0.224047 0.009335 0.098728 0.067525 -0.005488 -0.196199 -0.008695 0.025212 0.154709 -0.056867 0.016022 0.001043 -0.133777 -0.3074 0.006754 0.080055 0.159784 -0.188421 0.121369 0.005876 0.016255 -0.002088 0.03774 -0.024821 0.108358 0.059549 0.091882 0.144825 0.055663 0.185403 -0.065581 0.02879 -0.101229 0.071991 -0.002497 -0.006529 -0.10915 0.062274 -0.002956 0.058456 0.004113 0.103328 0.173394 -0.090338 -0.046764 -0.109366 0.052346 0.015598 -0.174578 -0.247551 0.163059 0.183228 -0.050795 0.199708 0.03885 -0.129288 -0.066408 0.026688 0.020572 0.021433 0.010893 0.213161 0.052695 -0.092201 -0.174208 -0.308368 -0.048491 0.048371 0.141119
-0.017778 0.04394 0.331789 0.044137 -0.352585 0.17696 0.016883 0.38505 0.108688 0.351249 -0.045884 -0.0479 -0.134633 -0.245138 0.103556 -0.234552 -0.397844 0.383658 0.097942 0.021694 0.378207 -0.135543 0.117768 0.085405 -0.073884 -0.354607 -0.234299 -0.184294 -0.080522 -0.305384 -0.448981 0.045034 0.497602 0.128421 0.153649 0.323376 0.130972 -0.09253 0.598767 -0.167524 -0.474329 0.300835 -0.306542 -0.584458 -0.150785 0.226305 0.011899 -0.131317 -0.119752 0.067943 0.253093 -0.094987 -0.023182 0.264406 -0.046394 0.181594 -0.110024 0.06869 0.048268 -0.276617 -0.093439 -0.191499 0.251861 -0.227366 0.011226 -0.324707 0.20706 -0.045221 0.309427 0.016756 0.311775 -0.147676 -0.22509 -0.042041 -0.17502 -0.041768 -0.065343 0.308664 0.057575 -0.045919 -0.114647 0.041968 -0.206619 0.029565 0.321817 0.007286 0.026161 -0.289641 0.336966 -0.076023 0.039804 -0.246434 0.1961 -0.473958 -0.27535 -0.266241 -0.057591 0.176686 -0.01988 0.117066
0.023087 -0.128138 0.038624 0.042823 -0.244949 0.007019 -0.205232 0.010251 -0.105275 0.12292 0.171948 0.013454 -0.048628 0.121422 0.149909 0.210578 0.228256 0.202926 -0.012907 0.172878 -0.14097 0.135513 0.216879 0.033688 0.007439 -0.046414 0.103265 -0.114914 0.055414 -0.158408 0.116796 -0.198813 -0.07996 -0.005179 -0.113756 -0.005558 -0.166638 0.002464 -0.105122 -0.007065 -0.079192 -0.034279 0.052462 -0.088486 0.34402 -0.014297 -0.015488 -0.26154 0.002756 0.032838 0.047958 -0.22038 -0.118413 -0.294791 0.097974 -0.091 -0.164076 -0.122161 -0.023935 0.007874 0.030678 -0.052986 -0.139357 -0.037609 0.077066 -0.117015 0.020528 -0.120452 0.0523 0.128401 0.100792 0.046592 -0.008624 0.137451 -0.240046 0.210655 0.103345 0.074557 -0.071773 -0.002401 -0.15787 -0.016576 -0.029358 -0.101699 -0.009107 0.057665 0.036227 -0.051319 0.136444 0.363149 -0.283919 0.074987 0.088254 -0.025756 0.005177 0.115742 -0.011477 0.137459 0.077853 -0.046445
0.007805 -0.07345 0.123907 -0.030984 -0.08743 -0.158221 -0.137941 0.050421 -0.15177 -0.100449 0.185262 0.093983 -0.161407 0.101125 0.132469 0.312988 0.102233 0.098705 0.004686 -0.014793 -0.052009 0.246594 0.248026 0.053264 -0.15586 -0.235297 -0.091581 0.047259 0.24065 -0.177291 -0.082049 0.016832 -0.045281 -0.051034 -0.136733 0.033168 0.059209 0.054036 -0.037703 0.078729 -0.151667 -0.030878 -0.054603 0.137904 0.249018 0.014901 0.008011 -0.033434 -0.013562 0.022647 -0.063224 -0.154448 0.018578 -0.142023 0.018423 0.013588 -0.011329 -0.005371 0.02952 -0.077316 0.03151 -0.157499 -0.148248 -0.04936 -0.130979 -0.09605 -0.156359 -0.12793 -0.012071 0.110429 -0.082423 0.076904 -0.034369 0.076884 0.029806 -0.158475 0.090376 0.009428 0.122907 -0.13707 0.140081 -0.037685 0.052466 -0.123026 -0.02588 -0.113552 0.018825 0.012818 -0.130858 0.245935 -0.216858 -0.002008 -0.076466 0.154324 0.035529 0.024073 -0.106034 -0.10467 0.083582 -0.176818
0.0 0.0 0.0 0.0 0.0 0.0 0.0 0.0 0.0 0.0 0.0 0.0 0.0 0.0 0.0 0.0 0.0 0.0 0.0 0.0 0.0 0.0 0.0 0.0 0.0 0.0 0.0 0.0 0.0 0.0 0.0 0.0 0.0 0.0 0.0 0.0 0.0 0.0 0.0 0.0 0.0 0.0 0.0 0.0 0.0 0.0 0.0 0.0 0.0 0.0 0.0 0.0 0.0 0.0 0.0 0.0 0.0 0.0 0.0 0.0 0.0 0.0 0.0 0.0 0.0 0.0 0.0 0.0 0.0 0.0 0.0 0.0 0.0 0.0 0.0 0.0 0.0 0.0 0.0 0.0 0.0 0.0 0.0 0.0 0.0 0.0 0.0 0.0 0.0 0.0 0.0 0.0 0.0 0.0 0.0 0.0 0.0 0.0 0.0 0.0
0.0 0.0 0.0 0.0 0.0 0.0 0.0 0.0 0.0 0.0 0.0 0.0 0.0 0.0 0.0 0.0 0.0 0.0 0.0 0.0 0.0 0.0 0.0 0.0 0.0 0.0 0.0 0.0 0.0 0.0 0.0 0.0 0.0 0.0 0.0 0.0 0.0 0.0 0.0 0.0 0.0 0.0 0.0 0.0 0.0 0.0 0.0 0.0 0.0 0.0 0.0 0.0 0.0 0.0 0.0 0.0 0.0 0.0 0.0 0.0 0.0 0.0 0.0 0.0 0.0 0.0 0.0 0.0 0.0 0.0 0.0 0.0 0.0 0.0 0.0 0.0 0.0 0.0 0.0 0.0 0.0 0.0 0.0 0.0 0.0 0.0 0.0 0.0 0.0 0.0 0.0 0.0 0.0 0.0 0.0 0.0 0.0 0.0 0.0 0.0
0.023087 -0.128138 0.038624 0.042823 -0.244949 0.007019 -0.205232 0.010251 -0.105275 0.12292 0.171948 0.013454 -0.048628 0.121422 0.149909 0.210578 0.228256 0.202926 -0.012907 0.172878 -0.14097 0.135513 0.216879 0.033688 0.007439 -0.046414 0.103265 -0.114914 0.055414 -0.158408 0.116796 -0.198813 -0.07996 -0.005179 -0.113756 -0.005558 -0.166638 0.002464 -0.105122 -0.007065 -0.079192 -0.034279 0.052462 -0.088486 0.34402 -0.014297 -0.015488 -0.26154 0.002756 0.032838 0.047958 -0.22038 -0.118413 -0.294791 0.097974 -0.091 -0.164076 -0.122161 -0.023935 0.007874 0.030678 -0.052986 -0.139357 -0.037609 0.077066 -0.117015 0.020528 -0.120452 0.0523 0.128401 0.100792 0.046592 -0.008624 0.137451 -0.240046 0.210655 0.103345 0.074557 -0.071773 -0.002401 -0.15787 -0.016576 -0.029358 -0.101699 -0.009107 0.057665 0.036227 -0.051319 0.136444 0.363149 -0.283919 0.074987 0.088254 -0.025756 0.005177 0.115742 -0.011477 0.137459 0.077853 -0.046445
0.007805 -0.07345 0.123907 -0.030984 -0.08743 -0.158221 -0.137941 0.050421 -0.15177 -0.100449 0.185262 0.093983 -0.161407 0.101125 0.132469 0.312988 0.102233 0.098705 0.004686 -0.014793 -0.052009 0.246594 0.248026 0.053264 -0.15586 -0.235297 -0.091581 0.047259 0.24065 -0.177291 -0.082049 0.016832 -0.045281 -0.051034 -0.136733 0.033168 0.059209 0.054036 -0.037703 0.078729 -0.151667 -0.030878 -0.054603 0.137904 0.249018 0.014901 0.008011 -0.033434 -0.013562 0.022647 -0.063224 -0.154448 0.018578 -0.142023 0.018423 0.013588 -0.011329 -0.005371 0.02952 -0.077316 0.03151 -0.157499 -0.148248 -0.04936 -0.130979 -0.09605 -0.156359 -0.12793 -0.012071 0.110429 -0.082423 0.076904 -0.034369 0.076884 0.029806 -0.158475 0.090376 0.009428 0.122907 -0.13707 0.140081 -0.037685 0.052466 -0.123026 -0.02588 -0.113552 0.018825 0.012818 -0.130858 0.245935 -0.216858 -0.002008 -0.076466 0.154324 0.035529 0.024073 -0.106034 -0.10467 0.083582 -0.176818
0.0 0.0 0.0 0.0 0.0 0.0 0.0 0.0 0.0 0.0 0.0 0.0 0.0 0.0 0.0 0.0 0.0 0.0 0.0 0.0 0.0 0.0 0.0 0.0 0.0 0.0 0.0 0.0 0.0 0.0 0.0 0.0 0.0 0.0 0.0 0.0 0.0 0.0 0.0 0.0 0.0 0.0 0.0 0.0 0.0 0.0 0.0 0.0 0.0 0.0 0.0 0.0 0.0 0.0 0.0 0.0 0.0 0.0 0.0 0.0 0.0 0.0 0.0 0.0 0.0 0.0 0.0 0.0 0.0 0.0 0.0 0.0 0.0 0.0 0.0 0.0 0.0 0.0 0.0 0.0 0.0 0.0 0.0 0.0 0.0 0.0 0.0 0.0 0.0 0.0 0.0 0.0 0.0 0.0 0.0 0.0 0.0 0.0 0.0 0.0
0.0 0.0 0.0 0.0 0.0 0.0 0.0 0.0 0.0 0.0 0.0 0.0 0.0 0.0 0.0 0.0 0.0 0.0 0.0 0.0 0.0 0.0 0.0 0.0 0.0 0.0 0.0 0.0 0.0 0.0 0.0 0.0 0.0 0.0 0.0 0.0 0.0 0.0 0.0 0.0 0.0 0.0 0.0 0.0 0.0 0.0 0.0 0.0 0.0 0.0 0.0 0.0 0.0 0.0 0.0 0.0 0.0 0.0 0.0 0.0 0.0 0.0 0.0 0.0 0.0 0.0 0.0 0.0 0.0 0.0 0.0 0.0 0.0 0.0 0.0 0.0 0.0 0.0 0.0 0.0 0.0 0.0 0.0 0.0 0.0 0.0 0.0 0.0 0.0 0.0 0.0 0.0 0.0 0.0 0.0 0.0 0.0 0.0 0.0 0.0
-0.002237 0.068675 -0.046287 -0.031886 -0.137919 0.013661 -0.031519 0.181064 0.020382 0.087791 -0.063359 -0.215116 0.035582 -0.03427 0.11849 -0.122356 0.136002 0.052442 0.125394 0.098851 -0.019775 0.239399 0.11961 -0.062103 0.084164 0.038598 0.133902 -0.142957 0.016318 0.171035 -0.065419 0.065747 0.102706 -0.196078 -0.024411 0.129514 -0.10998 -0.009823 -0.090532 0.027363 -0.044151 0.056098 -0.063484 -0.059632 0.044203 -0.033025 0.13901 0.064248 -0.104433 -0.06356 0.003656 0.094117 0.011135 -0.074083 0.154524 -0.077153 -0.005097 -0.026065 0.160962 0.048547 0.066881 0.02394 -0.018035 0.127532 -4.3E-4 0.044966 0.081409 -0.06808 0.157435 0.081565 -0.121249 0.018908 0.028423 0.027461 0.130568 0.033633 -0.031653 0.031799 0.130089 0.148517 0.104493 0.045419 0.002147 0.086544 0.060944 0.174382 -0.062334 -0.177867 0.023145 0.048495 -0.135988 -0.077762 -0.025428 0.055864 0.08813 0.062387 -0.009352 -0.095337 -0.191885 0.052572
0.007805 -0.07345 0.123907 -0.030984 -0.08743 -0.158221 -0.137941 0.050421 -0.15177 -0.100449 0.185262 0.093983 -0.161407 0.101125 0.132469 0.312988 0.102233 0.098705 0.004686 -0.014793 -0.052009 0.246594 0.248026 0.053264 -0.15586 -0.235297 -0.091581 0.047259 0.24065 -0.177291 -0.082049 0.016832 -0.045281 -0.051034 -0.136733 0.033168 0.059209 0.054036 -0.037703 0.078729 -0.151667 -0.030878 -0.054603 0.137904 0.249018 0.014901 0.008011 -0.033434 -0.013562 0.022647 -0.063224 -0.154448 0.018578 -0.142023 0.018423 0.013588 -0.011329 -0.005371 0.02952 -0.077316 0.03151 -0.157499 -0.148248 -0.04936 -0.130979 -0.09605 -0.156359 -0.12793 -0.012071 0.110429 -0.082423 0.076904 -0.034369 0.076884 0.029806 -0.158475 0.090376 0.009428 0.122907 -0.13707 0.140081 -0.037685 0.052466 -0.123026 -0.02588 -0.113552 0.018825 0.012818 -0.130858 0.245935 -0.216858 -0.002008 -0.076466 0.154324 0.035529 0.024073 -0.106034 -0.10467 0.083582 -0.176818
0.0 0.0 0.0 0.0 0.0 0.0 0.0 0.0 0.0 0.0 0.0 0.0 0.0 0.0 0.0 0.0 0.0 0.0 0.0 0.0 0.0 0.0 0.0 0.0 0.0 0.0 0.0 0.0 0.0 0.0 0.0 0.0 0.0 0.0 0.0 0.0 0.0 0.0 0.0 0.0 0.0 0.0 0.0 0.0 0.0 0.0 0.0 0.0 0.0 0.0 0.0 0.0 0.0 0.0 0.0 0.0 0.0 0.0 0.0 0.0 0.0 0.0 0.0 0.0 0.0 0.0 0.0 0.0 0.0 0.0 0.0 0.0 0.0 0.0 0.0 0.0 0.0 0.0 0.0 0.0 0.0 0.0 0.0 0.0 0.0 0.0 0.0 0.0 0.0 0.0 0.0 0.0 0.0 0.0 0.0 0.0 0.0 0.0 0.0 0.0
-0.52309 0.169461 0.023031 0.724354 -0.555878 0.082245 -0.748016 -0.199076 -0.161254 0.215184 0.193398 0.280012 -0.249887 0.00148 0.135807 0.502411 0.140439 -0.337843 -0.003294 0.039745 -0.15825 0.119318 0.149904 -0.391808 -0.001061 0.259986 -0.35252 0.316957 0.733548 0.468633 -0.504894 -0.296057 -0.097296 -0.10908 -0.495397 -0.635371 0.669548 -0.310888 0.057418 -0.10763 -0.021734 -0.089613 0.207876 0.376598 -0.166866 0.309155 0.34626 0.234871 -0.601669 -0.131894 -0.204119 0.007683 -0.290463 -0.007271 -0.365862 -0.004856 0.095981 0.294189 0.013423 0.179044 -0.593571 -0.110443 -0.235087 0.041843 -0.210277 0.089877 0.09201 0.079783 0.343265 -0.591801 -0.296621 -0.088954 -0.241979 0.039789 -0.431399 -0.381817 -0.302004 0.386658 -0.156364 0.365849 0.245182 0.449735 0.125863 -0.296021 0.472686 -0.143951 0.216176 -0.350526 0.277081 -0.236495 -0.046575 0.148147 -0.118946 -0.029561 -0.157538 -0.166465 -0.19334 0.014161 -0.444242 0.064213
0.0 0.0 0.0 0.0 0.0 0.0 0.0 0.0 0.0 0.0 0.0 0.0 0.0 0.0 0.0 0.0 0.0 0.0 0.0 0.0 0.0 0.0 0.0 0.0 0.0 0.0 0.0 0.0 0.0 0.0 0.0 0.0 0.0 0.0 0.0 0.0 0.0 0.0 0.0 0.0 0.0 0.0 0.0 0.0 0.0 0.0 0.0 0.0 0.0 0.0 0.0 0.0 0.0 0.0 0.0 0.0 0.0 0.0 0.0 0.0 0.0 0.0 0.0 0.0 0.0 0.0 0.0 0.0 0.0 0.0 0.0 0.0 0.0 0.0 0.0 0.0 0.0 0.0 0.0 0.0 0.0 0.0 0.0 0.0 0.0 0.0 0.0 0.0 0.0 0.0 0.0 0.0 0.0 0.0 0.0 0.0 0.0 0.0 0.0 0.0
-0.032343 -0.090495 0.116196 0.109467 -0.105508 0.07639 0.006315 -0.09827 -0.061328 0.043131 0.004713 -0.087505 0.030902 -0.276993 -0.276149 0.07313 -0.116243 -0.020937 -0.008798 -0.263795 -0.035519 0.117392 0.085048 0.164685 0.012376 -0.112902 -0.123586 -0.11131 0.274305 0.052654 -0.14195 -0.100923 -0.174816 -0.087876 -0.086186 -0.178495 -0.056514 7.8E-4 -0.110101 0.122521 0.160546 0.08158 -0.143743 0.324887 -0.003884 -0.173489 0.182934 -0.076327 -0.135303 0.291227 0.089771 0.030549 0.029191 0.038665 0.019767 -0.088898 0.003707 -0.11127 0.094425 -0.10367 0.086015 0.165059 -0.117461 0.149898 -0.180768 0.266746 0.049208 -0.014816 0.029419 -0.235981 -0.038327 -0.058814 -0.096377 0.066232 0.118314 -0.400703 0.032143 0.025484 0.028107 0.024545 0.017318 0.153427 0.003615 -0.125353 0.223192 0.087379 0.103091 -0.035203 0.150171 0.086079 -0.17531 0.233349 0.150602 0.037622 0.042641 0.035504 -0.053038 0.022578 0.088273 0.019157
0.0 0.0 0.0 0.0 0.0 0.0 0.0 0.0 0.0 0.0 0.0 0.0 0.0 0.0 0.0 0.0 0.0 0.0 0.0 0.0 0.0 0.0 0.0 0.0 0.0 0.0 0.0 0.0 0.0 0.0 0.0 0.0 0.0 0.0 0.0 0.0 0.0 0.0 0.0 0.0 0.0 0.0 0.0 0.0 0.0 0.0 0.0 0.0 0.0 0.0 0.0 0.0 0.0 0.0 0.0 0.0 0.0 0.0 0.0 0.0 0.0 0.0 0.0 0.0 0.0 0.0 0.0 0.0 0.0 0.0 0.0 0.0 0.0 0.0 0.0 0.0 0.0 0.0 0.0 0.0 0.0 0.0 0.0 0.0 0.0 0.0 0.0 0.0 0.0 0.0 0.0 0.0 0.0 0.0 0.0 0.0 0.0 0.0 0.0 0.0
-0.158275 -0.027569 -0.023574 -0.148315 0.191141 0.019154 0.010679 -0.06875 0.012842 0.068535 0.100361 0.207274 -0.101641 0.114893 0.112192 0.091518 -0.023927 0.230373 0.115685 0.01815 -0.193495 0.15251 0.106554 -0.025731 -0.161858 -0.227011 0.086584 0.143295 0.100217 -0.102219 -0.245055 -0.059342 -0.039697 0.189318 -0.011297 -0.053149 -0.066299 -0.141097 0.175866 0.121561 -0.135725 0.038007 -0.1173 0.053785 0.028884 0.012685 0.058386 -0.033514 -0.215516 0.0868 0.067163 -0.215645 -0.055466 -0.10419 0.08501 0.127848 -0.070348 0.074192 0.05907 -0.006435 -0.033252 -0.013257 -0.0752 -0.155493 -0.019048 -0.128977 -0.011378 -0.144028 0.148918 -0.020594 -0.117086 0.019219 0.03993 0.060771 -0.12886 0.031421 0.009937 0.043507 -0.198597 -0.252187 -0.206939 0.091249 -0.031302 -0.27499 0.243501 0.052745 -0.024014 -0.058092 0.26246 0.23231 -0.188351 0.030497 -0.073871 0.117119 -0.017382 -0.228016 -0.02546 -0.122021 -0.130071 -0.138249
-5.7E-4 0.004888 0.060398 0.049161 -0.083994 -0.151718 0.021747 -0.018325 -0.135891 0.01612 0.094572 0.062187 0.129041 0.057048 0.006649 0.248006 0.06086 -0.009173 0.027637 -0.085432 -0.015847 0.113676 0.026723 -0.009401 -0.078538 0.053975 -0.086516 0.124201 0.146276 0.049817 -0.19668 -0.049309 -0.190237 0.114493 -0.17961 0.053317 0.030503 -0.116086 0.092931 0.066346 -0.040195 0.105561 -0.073626 0.223484 -0.052307 0.092586 0.130491 0.050918 -0.189055 0.116865 0.168479 -0.00409 -0.127412 -0.055878 -0.121261 0.006422 -0.011096 -0.096694 -0.031351 0.001223 0.060644 0.061374 0.012674 -0.036473 -0.125569 0.01687 -0.058619 -0.049176 0.122357 -0.076285 -0.145214 0.01378 -0.045968 0.119249 -0.197662 -0.039192 -0.11109 -0.065409 -0.045703 -0.050076 -0.175335 0.237957 -0.007171 -0.146771 0.010791 -0.060269 0.031837 -0.056976 0.140183 0.181043 -0.037732 0.057167 -0.005994 0.01295 -0.059376 -0.121296 0.007437 0.059623 -0.13163 -0.214042
0.0 0.0 0.0 0.0 0.0 0.0 0.0 0.0 0.0 0.0 0.0 0.0 0.0 0.0 0.0 0.0 0.0 0.0 0.0 0.0 0.0 0.0 0.0 0.0 0.0 0.0 0.0 0.0 0.0 0.0 0.0 0.0 0.0 0.0 0.0 0.0 0.0 0.0 0.0 0.0 0.0 0.0 0.0 0.0 0.0 0.0 0.0 0.0 0.0 0.0 0.0 0.0 0.0 0.0 0.0 0.0 0.0 0.0 0.0 0.0 0.0 0.0 0.0 0.0 0.0 0.0 0.0 0.0 0.0 0.0 0.0 0.0 0.0 0.0 0.0 0.0 0.0 0.0 0.0 0.0 0.0 0.0 0.0 0.0 0.0 0.0 0.0 0.0 0.0 0.0 0.0 0.0 0.0 0.0 0.0 0.0 0.0 0.0 0.0 0.0
-0.328522 0.520977 2.878011 1.188724 0.669814 -2.318495 -0.858108 0.875841 0.830043 0.281126 2.488646 -1.557882 -0.830542 -0.799394 0.748911 1.616552 -0.277882 -0.11503 -0.086408 -0.437477 -1.049763 0.691857 -1.958088 0.01272 0.509799 -0.334286 -0.087012 -0.380944 1.804582 2.554074 -0.081231 -0.785292 -0.076966 0.571913 0.029203 -2.959991 -0.592413 0.012459 -0.147512 0.506648 -0.518795 1.327009 0.609109 2.012314 -1.111126 -0.382248 2.86526 0.681431 -2.414196 1.2557 0.279186 -0.436874 -0.774299 -3.174796 -1.650297 -0.75115 0.252441 0.67134 2.211769 -0.407953 -0.573088 1.628718 -0.929813 0.644944 -1.721264 3.09271 2.37148 -0.752591 2.215613 -2.168109 -2.145324 0.902207 -1.075185 -0.361918 -0.490953 -0.775391 -3.142442 0.779851 0.568523 2.736896 -0.697612 0.672483 -1.061049 0.054028 0.76972 0.853495 0.653721 -0.69402 2.374571 -1.324748 0.368309 2.292338 -0.587344 0.183094 1.271884 -0.645504 -0.035329 -1.592869 -0.53848 -0.161913
0.0 0.0 0.0 0.0 0.0 0.0 0.0 0.0 0.0 0.0 0.0 0.0 0.0 0.0 0.0 0.0 0.0 0.0 0.0 0.0 0.0 0.0 0.0 0.0 0.0 0.0 0.0 0.0 0.0 0.0 0.0 0.0 0.0 0.0 0.0 0.0 0.0 0.0 0.0 0.0 0.0 0.0 0.0 0.0 0.0 0.0 0.0 0.0 0.0 0.0 0.0 0.0 0.0 0.0 0.0 0.0 0.0 0.0 0.0 0.0 0.0 0.0 0.0 0.0 0.0 0.0 0.0 0.0 0.0 0.0 0.0 0.0 0.0 0.0 0.0 0.0 0.0 0.0 0.0 0.0 0.0 0.0 0.0 0.0 0.0 0.0 0.0 0.0 0.0 0.0 0.0 0.0 0.0 0.0 0.0 0.0 0.0 0.0 0.0 0.0
0.0 0.0 0.0 0.0 0.0 0.0 0.0 0.0 0.0 0.0 0.0 0.0 0.0 0.0 0.0 0.0 0.0 0.0 0.0 0.0 0.0 0.0 0.0 0.0 0.0 0.0 0.0 0.0 0.0 0.0 0.0 0.0 0.0 0.0 0.0 0.0 0.0 0.0 0.0 0.0 0.0 0.0 0.0 0.0 0.0 0.0 0.0 0.0 0.0 0.0 0.0 0.0 0.0 0.0 0.0 0.0 0.0 0.0 0.0 0.0 0.0 0.0 0.0 0.0 0.0 0.0 0.0 0.0 0.0 0.0 0.0 0.0 0.0 0.0 0.0 0.0 0.0 0.0 0.0 0.0 0.0 0.0 0.0 0.0 0.0 0.0 0.0 0.0 0.0 0.0 0.0 0.0 0.0 0.0 0.0 0.0 0.0 0.0 0.0 0.0
