-0.043145 0.012281 -0.217595 -0.071285 0.052157 0.181162 -0.119804 -0.09611 -0.144841 0.097308 0.072652 0.001757 -0.108284 -0.079961 -0.104155 0.082348 -0.135383 -0.004891 0.059983 0.02744 -0.217138 0.051376 0.059437 0.057671 -0.050694 -0.102972 -0.058591 -0.023347 -0.116415 -0.040561 0.071366 0.223981 -0.106379 0.082729 0.034726 -0.11401 0.05488 0.042338 0.182901 0.015861 -0.058425 0.138361 0.005666 0.037873 -0.10221 -0.101146 -0.016762 0.009323 -0.073328 -0.052671 -0.070033 0.106216 -0.076261 0.066904 -0.103414 -0.176306 -0.077643 -0.009903 -0.014741 0.009753 -0.035484 0.015834 -0.020714 -0.047203 0.124383 0.042884 -0.053498 -0.008386 0.021344 -0.067561 0.065113 0.056041 0.015761 -0.216312 0.030804 0.115766 0.042202 0.040089 -0.04552 0.037696 -0.035265 -0.061292 0.089332 -0.073238 0.059697 0.059535 -0.110628 -0.009766 -0.06961 -0.097859 0.113874 -0.112083 0.054601 0.019945 -0.02968 0.029021 -0.070732 0.021012 -0.030158 -0.007574
0.0 0.0 0.0 0.0 0.0 0.0 0.0 0.0 0.0 0.0 0.0 0.0 0.0 0.0 0.0 0.0 0.0 0.0 0.0 0.0 0.0 0.0 0.0 0.0 0.0 0.0 0.0 0.0 0.0 0.0 0.0 0.0 0.0 0.0 0.0 0.0 0.0 0.0 0.0 0.0 0.0 0.0 0.0 0.0 0.0 0.0 0.0 0.0 0.0 0.0 0.0 0.0 0.0 0.0 0.0 0.0 0.0 0.0 0.0 0.0 0.0 0.0 0.0 0.0 0.0 0.0 0.0 0.0 0.0 0.0 0.0 0.0 0.0 0.0 0.0 0.0 0.0 0.0 0.0 0.0 0.0 0.0 0.0 0.0 0.0 0.0 0.0 0.0 0.0 0.0 0.0 0.0 0.0 0.0 0.0 0.0 0.0 0.0 0.0 0.0
-0.096904 -0.049504 -0.082471 -0.050801 -0.175429 0.021206 0.034848 0.045176 -0.193814 0.016602 0.164478 0.025249 -0.024159 -0.110062 -0.136905 0.065549 0.103004 0.160755 -0.009444 -0.125299 -0.114883 0.040214 0.191318 -0.081817 0.066316 -0.065548 -0.067374 -0.085891 0.113077 -0.121134 -0.10236 0.003337 -0.18259 -0.194313 -0.039843 -0.331344 -0.047765 -0.082314 -0.072703 0.049634 -0.144728 0.101607 -0.160328 0.150916 -0.001313 -0.182803 0.231857 0.098347 -0.006359 0.071247 -0.106722 -0.262918 0.005404 0.108825 0.097083 -0.109244 0.053893 -0.128451 0.190794 -0.069653 0.238598 -0.146518 0.037883 -0.085972 0.02993 0.106087 0.336965 -0.160098 0.129957 0.065108 -0.147377 0.095608 0.178532 -0.033717 -0.023657 0.038147 -0.146698 -0.014592 0.163545 -0.012975 0.050209 0.038704 0.231172 -0.015421 -0.038847 0.011368 -0.004337 0.04574 0.057537 0.210886 -0.060135 0.090964 0.080115 -0.014874 -0.066099 0.035194 -0.020067 -0.273852 0.060846 -0.102303
-0.216608 -0.135263 0.271362 0.064631 -0.058472 0.007236 -0.105295 -0.067634 -0.178555 -0.063222 0.176318 0.001652 -0.070044 0.037822 0.172801 0.12771 0.058199 0.16586 -0.077341 0.120071 -0.154733 0.161664 0.291504 0.113562 -0.051629 -0.227728 -0.120683 -0.018789 0.021112 -0.156981 -0.055216 -0.150219 0.028774 0.006067 0.008834 0.083017 0.087725 0.10309 0.144559 0.230401 -0.145693 -0.003684 0.046353 0.177527 0.089936 -0.188201 -0.014907 -0.080068 -0.009225 0.080584 0.247199 0.027727 -0.023643 -0.333408 0.080675 -0.009407 0.001642 -0.139457 0.103284 -0.065379 -0.067105 -0.208892 -0.147464 -0.189518 0.068986 -0.133539 -0.101328 -0.17995 -0.04107 -0.066256 0.014339 0.094617 -0.039733 -0.009701 0.132607 -0.0652 -0.233482 -0.146858 -0.004052 -0.222281 -0.051324 -0.077138 0.144242 -0.164035 -0.018531 -0.175091 0.132275 -0.148507 0.099047 0.175248 0.122157 0.03334 0.073291 0.004423 -0.025155 -0.054521 0.05249 -0.01786 0.107547 -0.007077
-1.065606 0.533753 0.910539 3.543059 0.368569 1.597649 -0.519771 -0.247222 1.578391 2.909145 1.185637 -0.247268 -0.716281 1.35386 -0.251681 0.227917 -3.435648 -1.468091 0.138548 -3.573357 -0.833259 -3.115163 -0.859579 1.596989 1.633077 -0.638709 -0.799514 1.716393 1.942845 2.681403 1.324192 -1.461442 1.262433 0.77695 0.116056 0.428042 1.625365 -1.252677 0.254399 -0.323462 -4.566795 -3.203862 -0.946261 1.024219 -2.07884 2.824191 -0.847312 4.380866 0.595449 -0.11373 0.316467 -0.699965 -0.436177 -1.257761 -1.321721 0.680097 -2.302612 2.250984 0.584371 -0.26538 0.787436 0.633428 -1.681146 0.424241 1.463038 -0.916837 0.658149 -2.729938 2.542377 1.454206 -0.159867 1.713575 0.56282 2.668697 -0.658566 -1.738439 -0.044845 -0.014771 -0.900467 1.515695 -0.438715 0.974892 1.901643 0.302059 2.063125 0.261282 4.331543 -1.527047 0.524464 -1.24293 1.971736 1.099806 2.648463 0.620221 -2.160666 -1.800198 -0.50196 -0.109514 1.107482 -0.316954
-0.11719 0.157112 -0.014117 -0.088458 -0.080283 0.118121 -0.031509 -0.018573 -0.083695 0.070928 0.089856 0.085562 0.01686 -0.109276 0.14001 0.040275 -0.128641 0.025602 -0.042511 -0.070822 -0.095003 0.099692 0.143652 0.141249 -0.040176 0.080077 -0.08681 0.030607 -0.020226 0.142357 0.07923 0.088488 -0.322635 0.060545 0.157514 -0.083109 0.042134 0.069799 0.002264 -0.247601 -0.0496 -0.088127 -0.00728 0.14979 -0.12509 -0.133064 -0.160255 0.02237 -0.08645 0.070527 0.143149 0.137326 -0.054762 0.137942 -0.195493 -0.06551 -0.154348 0.135263 -0.161696 -0.042704 -0.006986 0.099685 0.061137 -0.044457 -0.059555 0.216352 0.054275 -0.015218 0.045034 -0.014972 -0.007714 -0.012673 0.066129 0.02302 -0.013105 0.013703 -0.197739 0.021511 0.056039 -0.097501 -0.128551 0.359602 0.084534 -0.132362 -0.049248 0.040423 -0.009948 0.066171 0.073117 -0.121229 -0.056422 0.103031 -0.047446 -0.131591 -0.061782 0.034015 -0.026256 0.001815 -0.010916 0.008569
0.0 0.0 0.0 0.0 0.0 0.0 0.0 0.0 0.0 0.0 0.0 0.0 0.0 0.0 0.0 0.0 0.0 0.0 0.0 0.0 0.0 0.0 0.0 0.0 0.0 0.0 0.0 0.0 0.0 0.0 0.0 0.0 0.0 0.0 0.0 0.0 0.0 0.0 0.0 0.0 0.0 0.0 0.0 0.0 0.0 0.0 0.0 0.0 0.0 0.0 0.0 0.0 0.0 0.0 0.0 0.0 0.0 0.0 0.0 0.0 0.0 0.0 0.0 0.0 0.0 0.0 0.0 0.0 0.0 0.0 0.0 0.0 0.0 0.0 0.0 0.0 0.0 0.0 0.0 0.0 0.0 0.0 0.0 0.0 0.0 0.0 0.0 0.0 0.0 0.0 0.0 0.0 0.0 0.0 0.0 0.0 0.0 0.0 0.0 0.0
-0.118469 0.055767 -1.441386 2.921546 1.384257 0.108986 -1.19849 -0.688387 3.039844 1.793166 2.602509 0.397512 -1.084339 0.91862 -0.136948 -0.528082 -3.477026 0.109601 -1.498751 -2.34759 -1.7797 -4.226119 0.164826 -0.506037 -1.780389 -1.515813 -0.445197 3.120693 -2.941966 -0.008661 1.740665 -0.675544 0.681978 0.879145 3.261827 -1.693424 -1.005529 -0.395011 2.480714 0.655137 -0.60222 -2.216349 -2.611139 -1.002174 -0.825753 -0.117593 0.322385 3.384501 -3.289306 2.589144 0.498935 -0.744474 0.915581 0.126215 -0.091375 2.114705 -1.695124 1.421631 0.517475 -1.389805 -0.849545 1.623046 0.685493 1.260134 1.184933 0.825307 0.416142 -0.79986 0.699574 -0.918396 -0.771915 0.9543 4.076622 0.714199 -0.662953 -0.085964 -0.310108 1.049424 -2.467392 0.697984 -0.261288 -1.31907 2.503235 1.425146 1.645857 -0.766931 2.736647 -0.341438 -0.94765 -0.677815 0.949896 0.738389 0.736057 0.972265 -0.608761 -1.083818 -0.990534 -0.609481 0.680969 -1.562657
-0.073004 -0.024423 0.134185 0.118306 0.057323 -0.080937 -0.027395 0.134196 -0.072798 0.13772 0.127895 0.151536 0.011765 0.001997 0.126471 0.066967 -0.100531 0.019088 0.146077 0.023982 -0.067531 0.079426 0.127915 0.005703 -0.133893 -0.109191 0.031254 0.005008 0.072672 -0.054619 -0.014325 0.057041 -0.07746 0.037119 0.096433 -0.072746 -0.015756 -0.095692 0.214178 -0.006073 -0.231215 -0.083983 -0.024458 0.015619 -0.072389 -0.080709 -0.032269 -0.003512 -0.024197 0.097947 0.182398 -0.127063 -0.125714 -0.047754 -0.082457 0.023092 -0.117598 0.074533 0.005609 -0.184345 0.045263 -0.099215 -0.028212 -0.213199 -0.076485 0.127506 -0.019392 -0.007974 0.055559 -0.025707 0.1001 0.008351 0.009445 0.007419 0.022107 -0.136429 -0.171236 0.072751 -0.087034 -0.03343 0.053909 0.132323 0.160605 -0.083601 0.09718 0.063493 0.022487 -0.043645 0.196769 0.032497 0.071388 0.034544 -0.101517 -0.02745 0.128267 -0.232833 0.149553 0.071046 -0.002177 0.027047
0.118327 0.014474 0.149739 -0.039141 -0.07914 0.026932 -0.109939 -0.030743 0.002002 0.089153 -0.058982 0.062824 -0.040879 -0.001064 0.160586 -0.003866 -0.125038 -0.01759 0.118496 -0.070626 1.44E-4 -0.053527 0.128674 0.0746 -0.029798 -0.112342 -0.099783 0.09229 0.196258 0.026405 -0.01809 0.022477 -0.019445 0.1122 0.227063 -0.084974 -0.001596 0.045513 -0.031294 0.158781 -0.090571 -0.076524 -0.021161 0.017926 -0.022938 0.057419 0.076583 0.143054 -0.113411 0.186942 0.013826 -0.144024 -0.009165 -0.128103 -0.096353 0.131657 -0.20171 -0.030404 -0.097591 0.052025 -0.135836 -0.06554 -0.070635 -0.17299 0.044611 0.032768 -0.152752 -0.118459 0.159326 -0.004322 0.061533 0.027988 0.058729 0.07215 0.099833 -0.076622 -0.029982 0.096282 -0.075295 -0.089822 0.036607 0.197156 0.156232 0.005819 0.058219 -0.154788 0.179998 -0.100202 0.15288 0.091115 0.110708 -0.129478 -0.028741 0.159316 0.033274 -0.104111 -0.121452 -0.050306 -2.73E-4 -0.034225
0.0 0.0 0.0 0.0 0.0 0.0 0.0 0.0 0.0 0.0 0.0 0.0 0.0 0.0 0.0 0.0 0.0 0.0 0.0 0.0 0.0 0.0 0.0 0.0 0.0 0.0 0.0 0.0 0.0 0.0 0.0 0.0 0.0 0.0 0.0 0.0 0.0 0.0 0.0 0.0 0.0 0.0 0.0 0.0 0.0 0.0 0.0 0.0 0.0 0.0 0.0 0.0 0.0 0.0 0.0 0.0 0.0 0.0 0.0 0.0 0.0 0.0 0.0 0.0 0.0 0.0 0.0 0.0 0.0 0.0 0.0 0.0 0.0 0.0 0.0 0.0 0.0 0.0 0.0 0.0 0.0 0.0 0.0 0.0 0.0 0.0 0.0 0.0 0.0 0.0 0.0 0.0 0.0 0.0 0.0 0.0 0.0 0.0 0.0 0.0
0.021729 -0.02659 -0.015814 0.119836 0.029314 0.04266 -0.111628 -0.013048 -0.097476 0.217212 0.086647 0.266391 0.148667 -0.140934 0.095823 0.153351 -0.118364 0.11438 0.258262 0.168241 -0.132076 0.037443 0.159598 0.031667 -0.184514 -0.150664 0.007469 -0.147886 0.032885 -0.228783 -0.224945 0.025113 -0.118644 -0.005321 -0.133768 -0.236078 0.159066 -0.068626 0.165506 -0.042581 -0.221088 0.1026 0.094939 -0.014805 0.049328 0.087593 -0.137744 0.049322 0.007243 0.017277 0.062134 -0.289002 -0.061298 0.105559 0.152689 -0.103198 -0.032615 -0.002898 0.061834 -0.193698 0.263749 -0.098842 0.100257 -0.070458 -0.021015 0.010049 0.097698 -0.117239 0.101021 -0.034319 0.150577 -0.083667 0.05843 -0.088922 0.133717 0.095555 0.055378 0.012357 -0.171295 0.030857 0.098049 0.126129 0.124822 -0.143732 -0.152461 0.099942 0.027821 -0.02446 0.066582 0.119519 -0.150068 -0.01078 -0.020699 -0.056926 -0.020748 -0.010111 0.109298 -0.16158 -0.025148 0.014841
-0.106341 -0.025289 0.157226 0.106303 -0.064191 -0.015422 0.02183 -0.201887 -0.20022 0.174283 0.013857 0.151936 -0.009764 -0.223386 0.215892 0.2408 -0.262426 0.13532 -0.002108 0.034819 -0.240437 -0.054872 0.330481 0.148716 -0.094321 -0.177818 -0.037123 0.07564 0.122848 -0.107913 0.271694 -0.071245 0.104644 9.81E-4 0.06236 -0.164833 -0.054743 0.111512 0.048259 0.143544 0.072079 0.171577 -0.185646 -0.01255 -0.094527 0.090179 0.103905 -0.036786 -0.113203 0.101057 0.038785 -0.166722 -0.128686 -0.001722 -0.008042 0.093033 -0.098051 0.137199 0.057306 -0.108044 -0.096114 -0.052395 0.109156 -0.151131 -0.019481 0.023731 0.211998 0.071898 0.059129 -0.017931 -0.039928 0.093964 0.074493 -0.03889 -0.061817 0.016564 -0.067137 -0.057543 -0.065775 0.044227 -0.040103 0.004787 0.208697 -0.010734 0.114186 -0.076814 -6.95E-4 0.025397 0.079562 0.040976 -0.18823 -0.029984 0.117031 0.046316 0.016547 -0.078767 0.128991 -0.188737 -0.184088 0.050991
-0.184807 -0.250413 0.108367 0.103633 -0.11112 0.009547 -0.268821 -0.1136 0.001591 0.194507 0.214826 0.091249 0.124781 -0.063135 0.135559 0.090225 0.239979 0.251478 0.209633 0.044773 -0.177639 0.167322 0.155816 0.238392 -0.108849 -0.286048 -0.154333 -0.163908 0.186506 -0.268813 -0.018272 -0.237862 -0.220587 0.0996 0.030698 -0.225058 -0.063798 -0.007136 0.048061 0.231466 0.033978 0.271249 -0.031543 0.099894 0.114934 -0.035948 0.017605 0.078096 -0.15737 0.132564 0.224507 -0.185707 -0.220423 -0.14237 0.317317 -0.063606 0.222488 0.130014 0.159881 0.001606 0.12589 -0.060497 -0.031465 -0.016293 -0.145989 -0.01276 0.129902 -0.133187 0.055576 -0.340599 -0.167141 0.126453 -0.152907 -0.170684 0.301332 -0.234863 -0.257627 -0.132453 -0.172277 0.019696 -0.035691 0.107791 -0.08384 -0.229386 -0.034635 0.091784 -0.167291 -0.188273 0.27018 0.041775 -0.119326 0.210658 0.066701 0.015816 0.087745 -0.080048 0.174699 -0.136123 -0.129018 -0.042891
-0.043145 0.012281 -0.217595 -0.071285 0.052157 0.181162 -0.119804 -0.09611 -0.144841 0.097308 0.072652 0.001757 -0.108284 -0.079961 -0.104155 0.082348 -0.135383 -0.004891 0.059983 0.02744 -0.217138 0.051376 0.059437 0.057671 -0.050694 -0.102972 -0.058591 -0.023347 -0.116415 -0.040561 0.071366 0.223981 -0.106379 0.082729 0.034726 -0.11401 0.05488 0.042338 0.182901 0.015861 -0.058425 0.138361 0.005666 0.037873 -0.10221 -0.101146 -0.016762 0.009323 -0.073328 -0.052671 -0.070033 0.106216 -0.076261 0.066904 -0.103414 -0.176306 -0.077643 -0.009903 -0.014741 0.009753 -0.035484 0.015834 -0.020714 -0.047203 0.124383 0.042884 -0.053498 -0.008386 0.021344 -0.067561 0.065113 0.056041 0.015761 -0.216312 0.030804 0.115766 0.042202 0.040089 -0.04552 0.037696 -0.035265 -0.061292 0.089332 -0.073238 0.059697 0.059535 -0.110628 -0.009766 -0.06961 -0.097859 0.113874 -0.112083 0.054601 0.019945 -0.02968 0.029021 -0.070732 0.021012 -0.030158 -0.007574
-0.019902 0.086651 0.052478 0.254707 -0.032005 0.122879 -0.111774 0.021463 -0.099033 0.025593 -0.07114 0.107267 0.149994 -0.046678 0.041733 0.040567 -0.059266 -0.065368 -0.066319 0.07369 -0.124621 0.177082 0.047006 -0.020985 -0.124597 0.121996 0.01768 -0.023439 0.129847 -0.025297 -0.17983 0.10537 0.008853 0.002651 -0.118707 0.015745 0.026455 -0.011241 0.062753 -0.006361 -0.22739 -0.055348 0.068506 0.031773 0.037381 -0.073711 -0.144735 -0.01756 0.051828 0.122709 -0.206149 -0.048107 -0.018532 0.073449 -0.055725 -0.064436 -0.209387 0.077891 0.064357 -0.086059 0.045929 -0.057561 0.072627 -0.027586 -0.086508 0.108469 -0.034119 0.011096 0.051145 0.081278 0.0944 -0.080822 0.252171 0.068288 0.004006 -0.096022 -0.275879 -0.073657 -0.016081 -0.099079 0.140542 0.229151 0.03566 0.123205 -0.193337 -0.031132 0.065447 -0.022185 0.062183 0.130465 0.001642 0.140141 0.064626 0.051402 0.103184 -0.156244 0.056929 -0.112156 0.091655 0.16587
-0.141789 -0.261591 0.322514 0.167225 0.148803 0.020134 -0.091048 -0.202351 -0.238786 0.051094 0.030116 -0.009236 0.068991 -0.127686 -0.069145 -0.021946 -0.032574 0.175723 0.024365 0.013963 0.17246 0.03368 0.005641 -0.127123 -0.023875 0.021804 -0.151168 -0.089631 -0.192217 0.070043 -0.087208 -0.136943 0.177573 0.083931 -0.105144 -0.065504 -0.051498 0.424712 -0.06004 0.200172 0.001055 0.045183 -0.10945 0.034081 -0.112104 0.053605 -0.339402 -0.003897 -0.119207 0.142655 0.110225 0.174789 -0.338292 -0.351659 -0.028526 -0.264784 0.148871 0.053851 0.042363 -0.085073 0.163537 -0.04996 0.033247 0.175266 -0.266205 0.227714 0.309533 -0.039892 0.284235 0.211774 0.105671 0.086398 -0.111422 0.115467 0.113978 -0.129871 -0.051041 -0.038479 -8.82E-4 0.031983 -0.091867 -0.074215 -0.02365 -0.100958 -0.140728 -0.102136 0.203172 0.215047 0.255626 0.043605 -0.043256 -0.01504 0.032635 0.279567 0.099435 -0.093271 0.025936 -0.158422 -0.155745 0.034673
-0.087475 0.186701 -0.046917 -0.041847 -0.059088 -0.013273 -0.073892 0.233091 -0.003596 -0.039339 0.066277 0.094805 0.150238 -0.09346 -0.021952 -0.202147 0.117833 8.46E-4 -0.091551 -0.028534 -0.237071 0.054316 -0.011612 -0.160773 0.222265 0.005336 0.12038 0.033854 -0.004107 0.003107 0.168426 0.016482 -0.08677 -0.113422 0.086407 0.106075 -0.149861 0.126073 -0.0634 0.062826 -0.083977 -0.145637 0.061467 -0.051229 0.204229 -0.17109 0.026782 -0.001161 -0.009186 0.041333 0.019968 0.012454 -0.139774 0.27773 0.102443 0.019878 -0.056911 0.009365 0.008677 0.008326 -0.019961 -0.155983 0.037278 0.082971 0.091306 -0.05795 -0.070034 -0.19837 -0.104056 0.119097 0.096727 0.077648 -0.004616 -0.085341 -0.201546 0.033147 -0.083137 -0.088842 -0.009531 0.066588 -0.075343 -0.080456 -0.068234 -0.087612 -0.042374 -0.007313 -0.137535 0.008539 0.080121 0.119683 -0.07983 0.023474 -0.158168 0.093865 -0.115452 -0.038433 0.056332 0.205291 -0.056107 -0.130454
0.0 0.0 0.0 0.0 0.0 0.0 0.0 0.0 0.0 0.0 0.0 0.0 0.0 0.0 0.0 0.0 0.0 0.0 0.0 0.0 0.0 0.0 0.0 0.0 0.0 0.0 0.0 0.0 0.0 0.0 0.0 0.0 0.0 0.0 0.0 0.0 0.0 0.0 0.0 0.0 0.0 0.0 0.0 0.0 0.0 0.0 0.0 0.0 0.0 0.0 0.0 0.0 0.0 0.0 0.0 0.0 0.0 0.0 0.0 0.0 0.0 0.0 0.0 0.0 0.0 0.0 0.0 0.0 0.0 0.0 0.0 0.0 0.0 0.0 0.0 0.0 0.0 0.0 0.0 0.0 0.0 0.0 0.0 0.0 0.0 0.0 0.0 0.0 0.0 0.0 0.0 0.0 0.0 0.0 0.0 0.0 0.0 0.0 0.0 0.0
-0.096904 -0.049504 -0.082471 -0.050801 -0.175429 0.021206 0.034848 0.045176 -0.193814 0.016602 0.164478 0.025249 -0.024159 -0.110062 -0.136905 0.065549 0.103004 0.160755 -0.009444 -0.125299 -0.114883 0.040214 0.191318 -0.081817 0.066316 -0.065548 -0.067374 -0.085891 0.113077 -0.121134 -0.10236 0.003337 -0.18259 -0.194313 -0.039843 -0.331344 -0.047765 -0.082314 -0.072703 0.049634 -0.144728 0.101607 -0.160328 0.150916 -0.001313 -0.182803 0.231857 0.098347 -0.006359 0.071247 -0.106722 -0.262918 0.005404 0.108825 0.097083 -0.109244 0.053893 -0.128451 0.190794 -0.069653 0.238598 -0.146518 0.037883 -0.085972 0.02993 0.106087 0.336965 -0.160098 0.129957 0.065108 -0.147377 0.095608 0.178532 -0.033717 -0.023657 0.038147 -0.146698 -0.014592 0.163545 -0.012975 0.050209 0.038704 0.231172 -0.015421 -0.038847 0.011368 -0.004337 0.04574 0.057537 0.210886 -0.060135 0.090964 0.080115 -0.014874 -0.066099 0.035194 -0.020067 -0.273852 0.060846 -0.102303
0.0 0.0 0.0 0.0 0.0 0.0 0.0 0.0 0.0 0.0 0.0 0.0 0.0 0.0 0.0 0.0 0.0 0.0 0.0 0.0 0.0 0.0 0.0 0.0 0.0 0.0 0.0 0.0 0.0 0.0 0.0 0.0 0.0 0.0 0.0 0.0 0.0 0.0 0.0 0.0 0.0 0.0 0.0 0.0 0.0 0.0 0.0 0.0 0.0 0.0 0.0 0.0 0.0 0.0 0.0 0.0 0.0 0.0 0.0 0.0 0.0 0.0 0.0 0.0 0.0 0.0 0.0 0.0 0.0 0.0 0.0 0.0 0.0 0.0 0.0 0.0 0.0 0.0 0.0 0.0 0.0 0.0 0.0 0.0 0.0 0.0 0.0 0.0 0.0 0.0 0.0 0.0 0.0 0.0 0.0 0.0 0.0 0.0 0.0 0.0
1.979182 1.475284 1.616709 3.670848 1.493383 1.565553 0.713709 0.821536 -0.198276 1.095257 1.13035 3.013426 -0.31575 0.272355 -1.140889 3.059924 -0.481724 -0.114922 -4.136081 -3.168525 0.468706 0.468211 -1.450609 1.536269 1.463073 0.091064 0.456867 -0.772584 1.94826 0.637724 3.384043 1.31124 -0.547482 -2.46209 -1.172514 0.108789 -0.436092 -0.542017 -2.899063 -1.238649 0.992894 -1.25533 1.441906 -2.837638 -0.37597 0.84588 0.567863 1.067483 3.045772 2.851722 1.127934 2.750989 2.037369 -0.330697 -3.137371 -0.277042 1.105257 3.888075 -0.863423 -0.157175 -2.285182 -0.166755 0.331731 -0.01245 0.62688 0.367884 -0.075369 -0.159061 -0.417307 -2.027856 0.1471 0.649553 -2.645108 0.793309 -1.226665 0.217122 -0.469072 -0.459028 -1.403266 -0.635382 -0.504689 1.214626 1.214261 1.363001 0.553679 -3.299866 -1.882137 1.302355 -0.459088 -0.175485 1.192438 -0.480862 1.435369 0.431146 -1.119326 -1.423348 -1.759886 0.376096 -1.342863 3.008839
0.0 0.0 0.0 0.0 0.0 0.0 0.0 0.0 0.0 0.0 0.0 0.0 0.0 0.0 0.0 0.0 0.0 0.0 0.0 0.0 0.0 0.0 0.0 0.0 0.0 0.0 0.0 0.0 0.0 0.0 0.0 0.0 0.0 0.0 0.0 0.0 0.0 0.0 0.0 0.0 0.0 0.0 0.0 0.0 0.0 0.0 0.0 0.0 0.0 0.0 0.0 0.0 0.0 0.0 0.0 0.0 0.0 0.0 0.0 0.0 0.0 0.0 0.0 0.0 0.0 0.0 0.0 0.0 0.0 0.0 0.0 0.0 0.0 0.0 0.0 0.0 0.0 0.0 0.0 0.0 0.0 0.0 0.0 0.0 0.0 0.0 0.0 0.0 0.0 0.0 0.0 0.0 0.0 0.0 0.0 0.0 0.0 0.0 0.0 0.0
-0.216608 -0.135263 0.271362 0.064631 -0.058472 0.007236 -0.105295 -0.067634 -0.178555 -0.063222 0.176318 0.001652 -0.070044 0.037822 0.172801 0.12771 0.058199 0.16586 -0.077341 0.120071 -0.154733 0.161664 0.291504 0.113562 -0.051629 -0.227728 -0.120683 -0.018789 0.021112 -0.156981 -0.055216 -0.150219 0.028774 0.006067 0.008834 0.083017 0.087725 0.10309 0.144559 0.230401 -0.145693 -0.003684 0.046353 0.177527 0.089936 -0.188201 -0.014907 -0.080068 -0.009225 0.080584 0.247199 0.027727 -0.023643 -0.333408 0.080675 -0.009407 0.001642 -0.139457 0.103284 -0.065379 -0.067105 -0.208892 -0.147464 -0.189518 0.068986 -0.133539 -0.101328 -0.17995 -0.04107 -0.066256 0.014339 0.094617 -0.039733 -0.009701 0.132607 -0.0652 -0.233482 -0.146858 -0.004052 -0.222281 -0.051324 -0.077138 0.144242 -0.164035 -0.018531 -0.175091 0.132275 -0.148507 0.099047 0.175248 0.122157 0.03334 0.073291 0.004423 -0.025155 -0.054521 0.05249 -0.01786 0.107547 -0.007077
2.109678 0.690136 -0.545 -0.830999 0.995201 0.064784 -0.458576 1.363052 2.120223 -0.851362 0.93129 0.619166 -1.263631 0.354207 1.354058 -1.1798 -0.386972 0.333918 -0.537101 -1.864474 0.674518 -1.205797 -0.45147 -0.700799 0.657579 -0.772728 2.03411 4.333917 2.35857 0.074233 0.245767 2.08775 1.768356 1.074105 2.155479 -2.959731 0.331959 -3.361838 2.226252 2.427867 0.738796 -0.531131 1.103719 -3.341216 0.943669 -1.148409 -0.85593 3.167121 -1.390474 2.0125 2.690305 0.079778 -1.734017 0.302356 0.310915 0.953546 0.341462 -0.159874 2.693263 -1.304537 -0.248335 -0.512696 0.262661 -1.273663 0.353424 -0.180182 1.138703 -0.171617 0.130237 -0.345662 -1.557081 -2.056346 1.780258 0.094674 0.986672 -0.836889 0.513439 -2.37097 -0.742467 0.96098 0.200721 -2.029745 1.16585 -1.622879 0.061109 -0.161688 -0.663717 1.638245 1.912167 -0.768903 1.183685 -0.049418 -1.376598 -0.235922 2.525017 1.465748 -0.768889 -0.455502 -1.616328 -0.319291
-1.065606 0.533753 0.910539 3.543059 0.368569 1.597649 -0.519771 -0.247222 1.578391 2.909145 1.185637 -0.247268 -0.716281 1.35386 -0.251681 0.227917 -3.435648 -1.468091 0.138548 -3.573357 -0.833259 -3.115163 -0.859579 1.596989 1.633077 -0.638709 -0.799514 1.716393 1.942845 2.681403 1.324192 -1.461442 1.262433 0.77695 0.116056 0.428042 1.625365 -1.252677 0.254399 -0.323462 -4.566795 -3.203862 -0.946261 1.024219 -2.07884 2.824191 -0.847312 4.380866 0.595449 -0.11373 0.316467 -0.699965 -0.436177 -1.257761 -1.321721 0.680097 -2.302612 2.250984 0.584371 -0.26538 0.787436 0.633428 -1.681146 0.424241 1.463038 -0.916837 0.658149 -2.729938 2.542377 1.454206 -0.159867 1.713575 0.56282 2.668697 -0.658566 -1.738439 -0.044845 -0.014771 -0.900467 1.515695 -0.438715 0.974892 1.901643 0.302059 2.063125 0.261282 4.331543 -1.527047 0.524464 -1.24293 1.971736 1.099806 2.648463 0.620221 -2.160666 -1.800198 -0.50196 -0.109514 1.107482 -0.316954
-0.219936 -0.067721 -0.013209 -0.042437 0.04851 0.035264 -0.078125 -0.076667 -0.130761 0.155857 0.112074 0.060985 -0.004626 -0.015667 0.071499 0.061208 -0.026755 0.179012 0.143729 -0.076798 -0.098111 0.035587 0.150621 0.121856 -0.124475 -0.089416 -0.123457 0.074356 0.139182 0.038751 -0.005272 0.073431 -0.100427 0.012423 -0.013406 -0.001636 0.010209 -0.110047 -0.09609 0.127815 -0.068851 0.060821 -0.081765 -0.141657 -0.044266 -0.121606 0.033188 0.085272 -0.113091 -5.96E-4 0.115973 -0.104378 0.07202 -0.015882 0.021182 0.066903 -0.025513 -0.103935 0.05927 -0.067645 -0.109436 -0.005406 -0.03647 -0.030517 -0.005681 0.009377 0.152324 0.153507 -0.042793 -0.17006 -0.023583 0.061818 -0.040371 0.052568 -0.03188 0.088115 -0.095357 -0.016481 -0.012866 0.027737 -0.075782 0.044474 -0.031837 -0.07029 0.081726 -0.042527 0.086457 0.09411 0.192308 0.126992 -0.175601 -0.072075 0.023172 0.195318 0.039686 0.028802 0.013654 -0.023731 0.113933 -0.027616
0.118327 0.014474 0.149739 -0.039141 -0.07914 0.026932 -0.109939 -0.030743 0.002002 0.089153 -0.058982 0.062824 -0.040879 -0.001064 0.160586 -0.003866 -0.125038 -0.01759 0.118496 -0.070626 1.44E-4 -0.053527 0.128674 0.0746 -0.029798 -0.112342 -0.099783 0.09229 0.196258 0.026405 -0.01809 0.022477 -0.019445 0.1122 0.227063 -0.084974 -0.001596 0.045513 -0.031294 0.158781 -0.090571 -0.076524 -0.021161 0.017926 -0.022938 0.057419 0.076583 0.143054 -0.113411 0.186942 0.013826 -0.144024 -0.009165 -0.128103 -0.096353 0.131657 -0.20171 -0.030404 -0.097591 0.052025 -0.135836 -0.06554 -0.070635 -0.17299 0.044611 0.032768 -0.152752 -0.118459 0.159326 -0.004322 0.061533 0.027988 0.058729 0.07215 0.099833 -0.076622 -0.029982 0.096282 -0.075295 -0.089822 0.036607 0.197156 0.156232 0.005819 0.058219 -0.154788 0.179998 -0.100202 0.15288 0.091115 0.110708 -0.129478 -0.028741 0.159316 0.033274 -0.104111 -0.121452 -0.050306 -2.73E-4 -0.034225
0.100692 -0.157131 0.139302 0.123578 0.151543 0.178422 -0.012679 -0.103362 0.233611 0.029945 -0.033496 -0.02353 -0.150988 -0.078962 0.230475 0.006161 -0.201667 0.084881 -0.295978 -0.216595 -0.152078 -0.096403 -0.182565 -0.034674 -0.008271 0.123985 -0.225344 0.060741 0.064737 -0.027452 -0.020276 -0.040379 -0.062847 -0.021902 -0.155636 0.098869 0.118253 -0.054786 -0.035252 0.089718 -0.093516 0.108242 -0.165133 -0.010665 -0.002421 -0.171869 -0.111112 -0.041381 -0.044332 -0.069941 -0.02046 0.052983 -0.30701 0.053758 -0.133805 0.122561 8.2E-4 0.037855 -0.034898 0.091687 -0.127096 0.09488 -0.140734 -0.009746 -0.040595 0.12427 0.130515 0.010606 0.177229 0.063676 0.149195 0.026542 -0.108012 0.401386 -0.015993 -0.159563 0.171247 0.017552 -0.091249 -0.185777 0.041517 -0.021989 -0.300138 0.0411 -0.232056 0.111526 -0.051533 0.011578 0.198834 -0.128702 0.184857 -0.029913 -0.123641 -0.092647 0.286203 -0.109599 0.093666 0.015337 -0.091583 0.060957
0.0 0.0 0.0 0.0 0.0 0.0 0.0 0.0 0.0 0.0 0.0 0.0 0.0 0.0 0.0 0.0 0.0 0.0 0.0 0.0 0.0 0.0 0.0 0.0 0.0 0.0 0.0 0.0 0.0 0.0 0.0 0.0 0.0 0.0 0.0 0.0 0.0 0.0 0.0 0.0 0.0 0.0 0.0 0.0 0.0 0.0 0.0 0.0 0.0 0.0 0.0 0.0 0.0 0.0 0.0 0.0 0.0 0.0 0.0 0.0 0.0 0.0 0.0 0.0 0.0 0.0 0.0 0.0 0.0 0.0 0.0 0.0 0.0 0.0 0.0 0.0 0.0 0.0 0.0 0.0 0.0 0.0 0.0 0.0 0.0 0.0 0.0 0.0 0.0 0.0 0.0 0.0 0.0 0.0 0.0 0.0 0.0 0.0 0.0 0.0
-0.003094 -0.167835 0.414167 0.20214 0.021192 0.110874 -0.142571 -0.037466 0.106848 0.210642 -0.104314 0.368307 -0.180382 0.077357 0.178098 0.279879 0.11783 0.088282 -0.24772 -0.115248 -0.054334 0.134777 0.26336 0.082243 -0.293855 -0.028461 3.44E-4 -0.063758 0.311569 -0.233804 0.127595 -0.011127 -0.128887 0.041042 -0.086175 -0.074408 0.088104 0.068682 0.046454 -0.047408 -0.036691 -0.110982 -0.019407 -0.186861 0.082029 -0.006638 -0.113443 -0.147593 -0.01641 0.094933 0.118614 -0.043671 0.018239 -0.413848 0.281094 0.152042 -0.042809 0.166658 -0.018005 -0.05191 -0.023496 0.119143 -0.092649 -0.042531 0.058689 -0.124429 -0.030609 0.011888 -0.002563 0.032041 0.205577 0.076755 0.032821 0.085427 -0.127106 -0.219912 -0.095765 0.089966 -0.089799 -0.123091 -0.053708 0.014194 0.133849 -0.209805 -0.029523 0.050832 -0.087862 -0.109852 0.313246 0.164122 -0.114575 0.04465 0.051932 -0.079995 -0.022854 -0.28581 -0.010104 0.221313 -0.025797 -0.064144
1.51713 0.950998 -0.43035 1.410565 1.027436 -0.021932 -0.446363 2.014639 -1.367287 -0.918352 -0.238369 -0.583637 1.276085 2.410767 0.73524 -0.15024 -0.680788 0.540768 -4.791297 -0.527541 -1.792397 2.281269 -1.972297 1.909008 0.906279 -0.575539 -1.816574 -2.135859 -3.533016 2.209813 2.599934 -3.737719 -1.60086 -3.001603 -3.728525 -0.759598 0.009888 -1.240785 -3.960285 -0.934149 1.498481 -3.789986 0.521224 -1.196375 -1.411245 -1.454399 -1.089609 -0.558878 1.182928 -0.369626 3.654269 1.714898 -0.545065 -1.442425 -3.594375 -1.122622 0.863868 -1.031306 -1.259423 -1.192458 -1.02248 -0.593149 -0.642908 1.307686 -0.362551 -1.302147 0.495603 -2.945837 -1.743057 1.619189 2.335525 -3.309908 -1.940478 2.695575 0.207934 0.223261 -2.343333 -0.356945 -1.7503 1.252601 1.358825 -1.229506 -1.651647 -0.467668 0.469764 -3.772937 1.519435 1.437086 0.207474 1.961345 0.765705 -0.622458 -2.069355 1.397011 1.495126 -1.007558 -0.943656 2.980306 -2.320673 0.76536
-0.043145 0.012281 -0.217595 -0.071285 0.052157 0.181162 -0.119804 -0.09611 -0.144841 0.097308 0.072652 0.001757 -0.108284 -0.079961 -0.104155 0.082348 -0.135383 -0.004891 0.059983 0.02744 -0.217138 0.051376 0.059437 0.057671 -0.050694 -0.102972 -0.058591 -0.023347 -0.116415 -0.040561 0.071366 0.223981 -0.106379 0.082729 0.034726 -0.11401 0.05488 0.042338 0.182901 0.015861 -0.058425 0.138361 0.005666 0.037873 -0.10221 -0.101146 -0.016762 0.009323 -0.073328 -0.052671 -0.070033 0.106216 -0.076261 0.066904 -0.103414 -0.176306 -0.077643 -0.009903 -0.014741 0.009753 -0.035484 0.015834 -0.020714 -0.047203 0.124383 0.042884 -0.053498 -0.008386 0.021344 -0.067561 0.065113 0.056041 0.015761 -0.216312 0.030804 0.115766 0.042202 0.040089 -0.04552 0.037696 -0.035265 -0.061292 0.089332 -0.073238 0.059697 0.059535 -0.110628 -0.009766 -0.06961 -0.097859 0.113874 -0.112083 0.054601 0.019945 -0.02968 0.029021 -0.070732 0.021012 -0.030158 -0.007574
-0.101576 -0.04595 -0.100875 0.128497 0.014382 0.097924 -0.206074 0.070767 -0.210365 0.032601 0.120792 0.086625 0.014947 0.042064 -0.152524 0.183275 -0.137203 0.003509 -0.053986 -0.164445 -0.104236 0.00422 0.132534 0.075005 0.082686 -0.13657 0.123383 0.061392 0.026939 -0.062062 -0.050539 -0.148057 0.023285 0.049574 -0.14151 -0.181292 0.066366 -0.014384 0.200371 -0.014576 0.179568 0.001207 0.125407 -0.043182 0.066252 -0.146947 0.183063 0.16278 -0.116405 0.150418 0.167755 -0.031975 -0.007926 0.127132 -0.124404 -0.182316 0.106149 -0.085778 0.132423 -0.046725 0.059781 0.007699 0.061466 -0.036872 -0.142542 -0.00763 0.138386 -0.032805 0.016533 -0.036306 0.016485 0.008346 0.12894 0.097411 -0.029521 -0.045679 -0.128511 -0.061176 -0.194345 0.14332 -0.035847 0.245735 0.182542 -0.076675 0.127765 0.026006 0.00595 -0.043528 0.069574 -0.040142 -0.21439 -0.040153 -0.140714 0.004619 0.080136 0.053883 0.046673 0.062517 -0.016682 0.005716
0.022625 -0.184516 0.046842 0.079374 -0.071856 0.049229 -0.058892 -0.187936 -0.01055 0.228966 0.001471 0.093515 -0.190119 0.025465 0.017553 0.098558 -0.037417 0.172047 0.071928 -0.009564 -0.191977 -0.061096 0.213438 -0.03025 -0.097373 -0.095908 -0.095859 -0.007926 0.205037 0.010388 -0.063494 -0.109944 -4.81E-4 0.082838 0.011589 -0.024035 0.031258 0.012904 -0.020883 0.176944 0.156405 0.140562 -0.03215 0.002225 -0.113848 0.018325 -0.043674 0.090341 -0.139917 -0.025834 -0.04024 0.193317 -0.167128 0.080069 0.023892 0.076249 0.089667 0.014822 0.063873 -0.019707 0.083735 -0.160708 -0.033848 0.038925 0.109851 0.094835 0.146819 -0.003459 0.049797 -0.181572 -0.135452 0.095562 0.006713 -0.25213 0.108298 -0.194547 -0.04723 0.091041 -0.015821 -0.036305 0.024435 0.028225 -0.003843 -0.017038 3.55E-4 0.092093 -0.011422 -0.027966 0.109281 0.023474 -0.093249 -0.002282 0.162477 0.08776 -0.105365 -0.039832 0.088801 0.074321 -0.047396 -0.052518
-0.355547 -0.109787 -2.055126 0.839444 1.592105 1.750838 -1.62937 -0.311217 -1.129099 -0.823484 -0.55588 0.951222 -1.117573 -0.289065 -0.895517 2.202287 -0.661909 -1.6766 -0.486533 0.360222 -0.467223 -0.627957 1.386786 1.204164 1.085388 -0.66138 -1.898521 2.061689 0.886767 -0.161974 0.758239 -2.112221 -1.299941 1.443058 -0.065486 -0.173605 1.454085 -1.156886 3.743604 0.323008 -1.227411 -2.675763 0.565301 0.589028 -0.48076 -0.688074 -0.510322 0.001635 -1.025583 0.225798 0.127946 0.039461 0.143299 -1.007335 -1.536704 1.628386 -0.217522 -0.42883 0.853672 -0.813438 -0.458409 -0.636803 0.141393 0.178687 1.186972 -0.812238 -0.430678 -0.230549 -0.637437 -0.465646 0.961839 0.205122 -0.558696 -0.889203 -2.392014 0.192754 0.227327 0.520347 -1.805125 -1.474638 0.627641 -0.455912 0.358584 1.553994 -0.164334 0.052659 -0.576755 -0.697846 0.090415 0.770042 1.957542 0.927207 -2.507294 -1.859083 0.59264 -1.69777 0.251755 -1.337201 -0.694082 1.088784
-0.031484 -0.103956 0.082364 -0.096094 -0.183751 -0.144711 -0.209882 -0.043685 -0.125849 0.003038 0.078143 0.18237 -0.135992 -0.041061 0.076755 0.281916 0.054474 0.127214 0.053243 0.06095 -0.039238 0.158561 0.227031 0.079424 -0.057925 -0.238603 -0.121109 0.073295 0.284165 -0.157427 -0.100935 -0.110264 -0.193727 0.093455 -0.171641 -0.064171 0.139375 -0.146279 -0.038873 0.063144 -0.157158 -0.009664 -0.004624 -0.015629 0.105359 -0.142988 0.016381 -0.024227 -0.020383 0.097754 0.033596 -0.171446 -0.066933 0.026629 0.117278 -0.127329 -0.045597 0.049756 0.047607 -0.12733 0.071157 -0.300472 0.069768 -0.05163 0.002982 0.002646 -0.119978 -0.056908 0.050685 -0.061496 -0.093 0.08165 0.029531 -0.098188 -0.052058 2.03E-4 -0.022449 0.035223 -0.055341 -0.11058 0.054593 -0.017495 0.00164 0.032697 0.104624 -0.073087 0.065675 0.1264 0.294941 0.119219 -0.194139 -0.057381 -0.177822 0.210813 0.026623 -0.110991 0.047548 0.038924 0.009728 -0.220961
1.879339 0.953923 -0.147499 1.906341 1.175161 0.446103 -1.311884 1.985994 -2.175534 0.811465 -2.17682 1.51892 0.441542 -0.021096 -0.75664 1.316362 2.486465 0.652165 2.38605 -4.498637 -1.695008 0.547167 -0.114492 0.774627 -0.003803 0.976456 -0.148773 0.753446 -0.787239 -1.519884 0.874406 -0.594125 -0.725063 0.521832 -1.187535 -1.204156 1.063391 -0.014916 -0.743057 -2.203681 1.609036 -0.230317 0.74316 -1.982763 -0.801162 -1.51158 1.102976 -0.32952 -1.4718 1.305729 1.274848 -2.269303 0.315538 1.608839 1.629214 -0.784276 2.428055 -1.609289 0.345563 2.312383 5.120581 -2.986072 0.205078 3.812997 -2.150803 -0.967188 -0.379084 -1.709962 -0.525205 -0.258282 -0.603445 -0.573382 1.296696 -1.900158 -1.065514 -0.147247 -0.421304 -0.507162 2.017892 -0.967248 -1.193994 0.483989 0.373879 -0.680387 2.579113 -0.353115 -2.797816 -1.44608 -2.459893 0.227524 0.237694 0.240605 -0.321011 0.694652 0.450959 -1.569968 1.283937 -1.953082 -1.870708 -0.569459
0.352905 0.550922 -1.128945 -0.511125 0.774489 1.405335 -0.371647 0.106012 -0.779785 -0.640302 -0.68578 1.570717 -0.712288 -0.706705 -0.789609 -0.045278 -1.599722 -2.840112 -0.089543 -1.158838 -1.862605 -0.62748 -0.063542 -0.468696 0.750564 0.033551 -0.772222 -0.188991 -0.163115 0.455978 0.038455 -0.779588 0.172303 -1.114448 -0.548246 -0.008155 1.66721 -0.744821 -0.15746 -2.668482 -0.304702 -0.905716 0.479063 0.151803 -0.94063 -0.044338 -0.906122 -0.456182 0.281891 0.268287 0.47007 0.628019 0.328428 1.471286 -2.345457 0.072073 -0.345477 -0.998199 -1.496897 -0.053061 0.351206 -0.934426 0.295591 0.07336 0.24092 0.486976 0.390085 -0.621556 0.375246 -0.02625 1.957847 1.014101 0.004675 0.08874 -0.900479 -0.462149 0.922254 1.355385 -1.048724 0.105897 1.254466 0.410718 0.321258 1.066395 -0.171761 -0.128774 0.315556 0.697301 -0.180925 0.555334 1.005586 -0.891677 -1.232923 -1.994189 -0.567812 0.204184 -0.947385 -0.051526 -0.987029 0.725141
-0.208151 -0.114146 -0.106437 0.155525 -0.04609 -0.177238 0.00459 0.128602 -0.218291 -0.131253 0.063523 -0.147389 0.058931 0.094142 0.037548 0.237744 -0.161552 0.033022 -0.15894 -0.272948 -0.055555 -0.157444 0.214107 0.146576 -0.026329 0.110058 -0.145186 0.15088 0.218634 -0.140792 -0.064678 0.027366 -0.075939 0.156374 0.092913 0.08402 -0.041598 -0.080869 0.222245 0.257802 -0.158289 -0.221784 0.06359 -0.070166 0.045078 -0.215128 0.063575 0.060176 -0.060142 -0.116252 0.201064 -0.05382 -0.081267 -0.033253 -0.160715 0.090034 -0.126498 -0.1481 0.164912 -0.113869 0.10737 0.072976 -0.059161 -0.111477 -0.009292 -0.010493 0.113177 -0.131385 0.016406 -0.127832 0.165914 -0.011444 0.005916 -0.065053 0.108224 -0.270859 -0.190613 0.01742 0.097317 -0.092438 -0.112963 -0.099655 0.185162 0.012333 -0.145244 0.039178 0.030503 0.061828 0.110315 -0.062622 -0.012042 0.175752 -0.098853 0.083038 -0.009523 -0.115478 -0.128789 -0.083771 -0.013997 0.039745
0.0 0.0 0.0 0.0 0.0 0.0 0.0 0.0 0.0 0.0 0.0 0.0 0.0 0.0 0.0 0.0 0.0 0.0 0.0 0.0 0.0 0.0 0.0 0.0 0.0 0.0 0.0 0.0 0.0 0.0 0.0 0.0 0.0 0.0 0.0 0.0 0.0 0.0 0.0 0.0 0.0 0.0 0.0 0.0 0.0 0.0 0.0 0.0 0.0 0.0 0.0 0.0 0.0 0.0 0.0 0.0 0.0 0.0 0.0 0.0 0.0 0.0 0.0 0.0 0.0 0.0 0.0 0.0 0.0 0.0 0.0 0.0 0.0 0.0 0.0 0.0 0.0 0.0 0.0 0.0 0.0 0.0 0.0 0.0 0.0 0.0 0.0 0.0 0.0 0.0 0.0 0.0 0.0 0.0 0.0 0.0 0.0 0.0 0.0 0.0
0.197246 -0.165613 0.122956 -0.032277 -0.099665 -0.024211 0.050762 -0.022967 -0.01137 0.049389 0.10031 0.066083 -0.074557 -0.141668 -0.151508 0.174515 -0.076802 0.241732 -0.107628 0.024792 -0.177017 0.162746 0.050304 0.074222 -0.030587 -0.119586 0.014556 0.15769 0.19174 -0.188239 -0.214752 0.018327 0.120297 0.063609 -0.056034 -0.160286 4.75E-4 0.078305 -0.147693 0.094734 -0.156502 -0.003672 0.062234 0.040062 -0.080216 -0.145814 0.028281 0.008805 -0.130718 -0.022768 0.199961 0.114865 0.118271 0.052211 0.192397 -0.120776 0.049596 0.064631 0.003026 0.013971 0.055832 0.015001 -0.092819 -0.149283 -0.095534 -0.029456 0.132262 0.00101 0.165173 -0.147739 0.056772 -0.003817 -0.042098 -0.081459 2.96E-4 -0.100367 0.032068 0.004045 -0.010458 -0.021304 -0.057818 0.177753 0.100028 -0.017413 0.085129 -0.215981 -0.162845 0.058978 0.121185 0.126577 -0.04532 0.118306 0.097703 -0.060395 -0.108637 -0.074323 0.143914 -0.006089 -0.026484 0.012009
0.0 0.0 0.0 0.0 0.0 0.0 0.0 0.0 0.0 0.0 0.0 0.0 0.0 0.0 0.0 0.0 0.0 0.0 0.0 0.0 0.0 0.0 0.0 0.0 0.0 0.0 0.0 0.0 0.0 0.0 0.0 0.0 0.0 0.0 0.0 0.0 0.0 0.0 0.0 0.0 0.0 0.0 0.0 0.0 0.0 0.0 0.0 0.0 0.0 0.0 0.0 0.0 0.0 0.0 0.0 0.0 0.0 0.0 0.0 0.0 0.0 0.0 0.0 0.0 0.0 0.0 0.0 0.0 0.0 0.0 0.0 0.0 0.0 0.0 0.0 0.0 0.0 0.0 0.0 0.0 0.0 0.0 0.0 0.0 0.0 0.0 0.0 0.0 0.0 0.0 0.0 0.0 0.0 0.0 0.0 0.0 0.0 0.0 0.0 0.0
-0.096904 -0.049504 -0.082471 -0.050801 -0.175429 0.021206 0.034848 0.045176 -0.193814 0.016602 0.164478 0.025249 -0.024159 -0.110062 -0.136905 0.065549 0.103004 0.160755 -0.009444 -0.125299 -0.114883 0.040214 0.191318 -0.081817 0.066316 -0.065548 -0.067374 -0.085891 0.113077 -0.121134 -0.10236 0.003337 -0.18259 -0.194313 -0.039843 -0.331344 -0.047765 -0.082314 -0.072703 0.049634 -0.144728 0.101607 -0.160328 0.150916 -0.001313 -0.182803 0.231857 0.098347 -0.006359 0.071247 -0.106722 -0.262918 0.005404 0.108825 0.097083 -0.109244 0.053893 -0.128451 0.190794 -0.069653 0.238598 -0.146518 0.037883 -0.085972 0.02993 0.106087 0.336965 -0.160098 0.129957 0.065108 -0.147377 0.095608 0.178532 -0.033717 -0.023657 0.038147 -0.146698 -0.014592 0.163545 -0.012975 0.050209 0.038704 0.231172 -0.015421 -0.038847 0.011368 -0.004337 0.04574 0.057537 0.210886 -0.060135 0.090964 0.080115 -0.014874 -0.066099 0.035194 -0.020067 -0.273852 0.060846 -0.102303
0.0 0.0 0.0 0.0 0.0 0.0 0.0 0.0 0.0 0.0 0.0 0.0 0.0 0.0 0.0 0.0 0.0 0.0 0.0 0.0 0.0 0.0 0.0 0.0 0.0 0.0 0.0 0.0 0.0 0.0 0.0 0.0 0.0 0.0 0.0 0.0 0.0 0.0 0.0 0.0 0.0 0.0 0.0 0.0 0.0 0.0 0.0 0.0 0.0 0.0 0.0 0.0 0.0 0.0 0.0 0.0 0.0 0.0 0.0 0.0 0.0 0.0 0.0 0.0 0.0 0.0 0.0 0.0 0.0 0.0 0.0 0.0 0.0 0.0 0.0 0.0 0.0 0.0 0.0 0.0 0.0 0.0 0.0 0.0 0.0 0.0 0.0 0.0 0.0 0.0 0.0 0.0 0.0 0.0 0.0 0.0 0.0 0.0 0.0 0.0
1.979182 1.475284 1.616709 3.670848 1.493383 1.565553 0.713709 0.821536 -0.198276 1.095257 1.13035 3.013426 -0.31575 0.272355 -1.140889 3.059924 -0.481724 -0.114922 -4.136081 -3.168525 0.468706 0.468211 -1.450609 1.536269 1.463073 0.091064 0.456867 -0.772584 1.94826 0.637724 3.384043 1.31124 -0.547482 -2.46209 -1.172514 0.108789 -0.436092 -0.542017 -2.899063 -1.238649 0.992894 -1.25533 1.441906 -2.837638 -0.37597 0.84588 0.567863 1.067483 3.045772 2.851722 1.127934 2.750989 2.037369 -0.330697 -3.137371 -0.277042 1.105257 3.888075 -0.863423 -0.157175 -2.285182 -0.166755 0.331731 -0.01245 0.62688 0.367884 -0.075369 -0.159061 -0.417307 -2.027856 0.1471 0.649553 -2.645108 0.793309 -1.226665 0.217122 -0.469072 -0.459028 -1.403266 -0.635382 -0.504689 1.214626 1.214261 1.363001 0.553679 -3.299866 -1.882137 1.302355 -0.459088 -0.175485 1.192438 -0.480862 1.435369 0.431146 -1.119326 -1.423348 -1.759886 0.376096 -1.342863 3.008839
0.0 0.0 0.0 0.0 0.0 0.0 0.0 0.0 0.0 0.0 0.0 0.0 0.0 0.0 0.0 0.0 0.0 0.0 0.0 0.0 0.0 0.0 0.0 0.0 0.0 0.0 0.0 0.0 0.0 0.0 0.0 0.0 0.0 0.0 0.0 0.0 0.0 0.0 0.0 0.0 0.0 0.0 0.0 0.0 0.0 0.0 0.0 0.0 0.0 0.0 0.0 0.0 0.0 0.0 0.0 0.0 0.0 0.0 0.0 0.0 0.0 0.0 0.0 0.0 0.0 0.0 0.0 0.0 0.0 0.0 0.0 0.0 0.0 0.0 0.0 0.0 0.0 0.0 0.0 0.0 0.0 0.0 0.0 0.0 0.0 0.0 0.0 0.0 0.0 0.0 0.0 0.0 0.0 0.0 0.0 0.0 0.0 0.0 0.0 0.0
-0.216608 -0.135263 0.271362 0.064631 -0.058472 0.007236 -0.105295 -0.067634 -0.178555 -0.063222 0.176318 0.001652 -0.070044 0.037822 0.172801 0.12771 0.058199 0.16586 -0.077341 0.120071 -0.154733 0.161664 0.291504 0.113562 -0.051629 -0.227728 -0.120683 -0.018789 0.021112 -0.156981 -0.055216 -0.150219 0.028774 0.006067 0.008834 0.083017 0.087725 0.10309 0.144559 0.230401 -0.145693 -0.003684 0.046353 0.177527 0.089936 -0.188201 -0.014907 -0.080068 -0.009225 0.080584 0.247199 0.027727 -0.023643 -0.333408 0.080675 -0.009407 0.001642 -0.139457 0.103284 -0.065379 -0.067105 -0.208892 -0.147464 -0.189518 0.068986 -0.133539 -0.101328 -0.17995 -0.04107 -0.066256 0.014339 0.094617 -0.039733 -0.009701 0.132607 -0.0652 -0.233482 -0.146858 -0.004052 -0.222281 -0.051324 -0.077138 0.144242 -0.164035 -0.018531 -0.175091 0.132275 -0.148507 0.099047 0.175248 0.122157 0.03334 0.073291 0.004423 -0.025155 -0.054521 0.05249 -0.01786 0.107547 -0.007077
0.0 0.0 0.0 0.0 0.0 0.0 0.0 0.0 0.0 0.0 0.0 0.0 0.0 0.0 0.0 0.0 0.0 0.0 0.0 0.0 0.0 0.0 0.0 0.0 0.0 0.0 0.0 0.0 0.0 0.0 0.0 0.0 0.0 0.0 0.0 0.0 0.0 0.0 0.0 0.0 0.0 0.0 0.0 0.0 0.0 0.0 0.0 0.0 0.0 0.0 0.0 0.0 0.0 0.0 0.0 0.0 0.0 0.0 0.0 0.0 0.0 0.0 0.0 0.0 0.0 0.0 0.0 0.0 0.0 0.0 0.0 0.0 0.0 0.0 0.0 0.0 0.0 0.0 0.0 0.0 0.0 0.0 0.0 0.0 0.0 0.0 0.0 0.0 0.0 0.0 0.0 0.0 0.0 0.0 0.0 0.0 0.0 0.0 0.0 0.0
0.0 0.0 0.0 0.0 0.0 0.0 0.0 0.0 0.0 0.0 0.0 0.0 0.0 0.0 0.0 0.0 0.0 0.0 0.0 0.0 0.0 0.0 0.0 0.0 0.0 0.0 0.0 0.0 0.0 0.0 0.0 0.0 0.0 0.0 0.0 0.0 0.0 0.0 0.0 0.0 0.0 0.0 0.0 0.0 0.0 0.0 0.0 0.0 0.0 0.0 0.0 0.0 0.0 0.0 0.0 0.0 0.0 0.0 0.0 0.0 0.0 0.0 0.0 0.0 0.0 0.0 0.0 0.0 0.0 0.0 0.0 0.0 0.0 0.0 0.0 0.0 0.0 0.0 0.0 0.0 0.0 0.0 0.0 0.0 0.0 0.0 0.0 0.0 0.0 0.0 0.0 0.0 0.0 0.0 0.0 0.0 0.0 0.0 0.0 0.0
0.197246 -0.165613 0.122956 -0.032277 -0.099665 -0.024211 0.050762 -0.022967 -0.01137 0.049389 0.10031 0.066083 -0.074557 -0.141668 -0.151508 0.174515 -0.076802 0.241732 -0.107628 0.024792 -0.177017 0.162746 0.050304 0.074222 -0.030587 -0.119586 0.014556 0.15769 0.19174 -0.188239 -0.214752 0.018327 0.120297 0.063609 -0.056034 -0.160286 4.75E-4 0.078305 -0.147693 0.094734 -0.156502 -0.003672 0.062234 0.040062 -0.080216 -0.145814 0.028281 0.008805 -0.130718 -0.022768 0.199961 0.114865 0.118271 0.052211 0.192397 -0.120776 0.049596 0.064631 0.003026 0.013971 0.055832 0.015001 -0.092819 -0.149283 -0.095534 -0.029456 0.132262 0.00101 0.165173 -0.147739 0.056772 -0.003817 -0.042098 -0.081459 2.96E-4 -0.100367 0.032068 0.004045 -0.010458 -0.021304 -0.057818 0.177753 0.100028 -0.017413 0.085129 -0.215981 -0.162845 0.058978 0.121185 0.126577 -0.04532 0.118306 0.097703 -0.060395 -0.108637 -0.074323 0.143914 -0.006089 -0.026484 0.012009
0.0 0.0 0.0 0.0 0.0 0.0 0.0 0.0 0.0 0.0 0.0 0.0 0.0 0.0 0.0 0.0 0.0 0.0 0.0 0.0 0.0 0.0 0.0 0.0 0.0 0.0 0.0 0.0 0.0 0.0 0.0 0.0 0.0 0.0 0.0 0.0 0.0 0.0 0.0 0.0 0.0 0.0 0.0 0.0 0.0 0.0 0.0 0.0 0.0 0.0 0.0 0.0 0.0 0.0 0.0 0.0 0.0 0.0 0.0 0.0 0.0 0.0 0.0 0.0 0.0 0.0 0.0 0.0 0.0 0.0 0.0 0.0 0.0 0.0 0.0 0.0 0.0 0.0 0.0 0.0 0.0 0.0 0.0 0.0 0.0 0.0 0.0 0.0 0.0 0.0 0.0 0.0 0.0 0.0 0.0 0.0 0.0 0.0 0.0 0.0
-0.096904 -0.049504 -0.082471 -0.050801 -0.175429 0.021206 0.034848 0.045176 -0.193814 0.016602 0.164478 0.025249 -0.024159 -0.110062 -0.136905 0.065549 0.103004 0.160755 -0.009444 -0.125299 -0.114883 0.040214 0.191318 -0.081817 0.066316 -0.065548 -0.067374 -0.085891 0.113077 -0.121134 -0.10236 0.003337 -0.18259 -0.194313 -0.039843 -0.331344 -0.047765 -0.082314 -0.072703 0.049634 -0.144728 0.101607 -0.160328 0.150916 -0.001313 -0.182803 0.231857 0.098347 -0.006359 0.071247 -0.106722 -0.262918 0.005404 0.108825 0.097083 -0.109244 0.053893 -0.128451 0.190794 -0.069653 0.238598 -0.146518 0.037883 -0.085972 0.02993 0.106087 0.336965 -0.160098 0.129957 0.065108 -0.147377 0.095608 0.178532 -0.033717 -0.023657 0.038147 -0.146698 -0.014592 0.163545 -0.012975 0.050209 0.038704 0.231172 -0.015421 -0.038847 0.011368 -0.004337 0.04574 0.057537 0.210886 -0.060135 0.090964 0.080115 -0.014874 -0.066099 0.035194 -0.020067 -0.273852 0.060846 -0.102303
0.0 0.0 0.0 0.0 0.0 0.0 0.0 0.0 0.0 0.0 0.0 0.0 0.0 0.0 0.0 0.0 0.0 0.0 0.0 0.0 0.0 0.0 0.0 0.0 0.0 0.0 0.0 0.0 0.0 0.0 0.0 0.0 0.0 0.0 0.0 0.0 0.0 0.0 0.0 0.0 0.0 0.0 0.0 0.0 0.0 0.0 0.0 0.0 0.0 0.0 0.0 0.0 0.0 0.0 0.0 0.0 0.0 0.0 0.0 0.0 0.0 0.0 0.0 0.0 0.0 0.0 0.0 0.0 0.0 0.0 0.0 0.0 0.0 0.0 0.0 0.0 0.0 0.0 0.0 0.0 0.0 0.0 0.0 0.0 0.0 0.0 0.0 0.0 0.0 0.0 0.0 0.0 0.0 0.0 0.0 0.0 0.0 0.0 0.0 0.0
1.979182 1.475284 1.616709 3.670848 1.493383 1.565553 0.713709 0.821536 -0.198276 1.095257 1.13035 3.013426 -0.31575 0.272355 -1.140889 3.059924 -0.481724 -0.114922 -4.136081 -3.168525 0.468706 0.468211 -1.450609 1.536269 1.463073 0.091064 0.456867 -0.772584 1.94826 0.637724 3.384043 1.31124 -0.547482 -2.46209 -1.172514 0.108789 -0.436092 -0.542017 -2.899063 -1.238649 0.992894 -1.25533 1.441906 -2.837638 -0.37597 0.84588 0.567863 1.067483 3.045772 2.851722 1.127934 2.750989 2.037369 -0.330697 -3.137371 -0.277042 1.105257 3.888075 -0.863423 -0.157175 -2.285182 -0.166755 0.331731 -0.01245 0.62688 0.367884 -0.075369 -0.159061 -0.417307 -2.027856 0.1471 0.649553 -2.645108 0.793309 -1.226665 0.217122 -0.469072 -0.459028 -1.403266 -0.635382 -0.504689 1.214626 1.214261 1.363001 0.553679 -3.299866 -1.882137 1.302355 -0.459088 -0.175485 1.192438 -0.480862 1.435369 0.431146 -1.119326 -1.423348 -1.759886 0.376096 -1.342863 3.008839
0.0 0.0 0.0 0.0 0.0 0.0 0.0 0.0 0.0 0.0 0.0 0.0 0.0 0.0 0.0 0.0 0.0 0.0 0.0 0.0 0.0 0.0 0.0 0.0 0.0 0.0 0.0 0.0 0.0 0.0 0.0 0.0 0.0 0.0 0.0 0.0 0.0 0.0 0.0 0.0 0.0 0.0 0.0 0.0 0.0 0.0 0.0 0.0 0.0 0.0 0.0 0.0 0.0 0.0 0.0 0.0 0.0 0.0 0.0 0.0 0.0 0.0 0.0 0.0 0.0 0.0 0.0 0.0 0.0 0.0 0.0 0.0 0.0 0.0 0.0 0.0 0.0 0.0 0.0 0.0 0.0 0.0 0.0 0.0 0.0 0.0 0.0 0.0 0.0 0.0 0.0 0.0 0.0 0.0 0.0 0.0 0.0 0.0 0.0 0.0
-0.216608 -0.135263 0.271362 0.064631 -0.058472 0.007236 -0.105295 -0.067634 -0.178555 -0.063222 0.176318 0.001652 -0.070044 0.037822 0.172801 0.12771 0.058199 0.16586 -0.077341 0.120071 -0.154733 0.161664 0.291504 0.113562 -0.051629 -0.227728 -0.120683 -0.018789 0.021112 -0.156981 -0.055216 -0.150219 0.028774 0.006067 0.008834 0.083017 0.087725 0.10309 0.144559 0.230401 -0.145693 -0.003684 0.046353 0.177527 0.089936 -0.188201 -0.014907 -0.080068 -0.009225 0.080584 0.247199 0.027727 -0.023643 -0.333408 0.080675 -0.009407 0.001642 -0.139457 0.103284 -0.065379 -0.067105 -0.208892 -0.147464 -0.189518 0.068986 -0.133539 -0.101328 -0.17995 -0.04107 -0.066256 0.014339 0.094617 -0.039733 -0.009701 0.132607 -0.0652 -0.233482 -0.146858 -0.004052 -0.222281 -0.051324 -0.077138 0.144242 -0.164035 -0.018531 -0.175091 0.132275 -0.148507 0.099047 0.175248 0.122157 0.03334 0.073291 0.004423 -0.025155 -0.054521 0.05249 -0.01786 0.107547 -0.007077
-0.049418 -0.036399 0.047087 0.035521 -0.04426 -0.07204 -0.057305 -0.01961 -0.050576 0.008957 0.069274 -0.056356 -0.087336 0.079403 0.091801 0.044752 -0.062672 0.096308 0.004329 -0.057825 0.011089 -0.10588 0.043849 0.053918 -0.089942 -0.217775 -0.03278 -0.046642 0.021616 0.022529 2.28E-4 0.073149 -0.096805 0.097561 -0.018957 0.004865 0.051744 -0.118616 0.015623 0.052852 -0.0062 -0.008272 0.021985 0.043405 0.014403 0.0084 -0.031356 0.238753 0.006306 0.119369 0.192711 -0.105924 -0.171451 -0.105112 -0.04012 -0.008332 0.007063 0.056833 -0.195563 -0.057609 -0.057991 -0.003439 -0.017028 -0.078926 -0.070455 -0.066509 0.003854 -0.046651 0.173206 0.097305 -0.046108 0.042303 0.107519 -0.064719 0.043666 0.057978 0.004657 0.057185 -0.070903 0.047588 -0.021279 0.08271 0.069409 -0.034849 0.013943 0.099619 -0.031629 -0.101472 0.060454 0.084281 0.073155 0.102968 -0.083518 0.043023 0.031514 -0.014303 0.049097 -0.061045 0.050428 0.067779
-0.219936 -0.067721 -0.013209 -0.042437 0.04851 0.035264 -0.078125 -0.076667 -0.130761 0.155857 0.112074 0.060985 -0.004626 -0.015667 0.071499 0.061208 -0.026755 0.179012 0.143729 -0.076798 -0.098111 0.035587 0.150621 0.121856 -0.124475 -0.089416 -0.123457 0.074356 0.139182 0.038751 -0.005272 0.073431 -0.100427 0.012423 -0.013406 -0.001636 0.010209 -0.110047 -0.09609 0.127815 -0.068851 0.060821 -0.081765 -0.141657 -0.044266 -0.121606 0.033188 0.085272 -0.113091 -5.96E-4 0.115973 -0.104378 0.07202 -0.015882 0.021182 0.066903 -0.025513 -0.103935 0.05927 -0.067645 -0.109436 -0.005406 -0.03647 -0.030517 -0.005681 0.009377 0.152324 0.153507 -0.042793 -0.17006 -0.023583 0.061818 -0.040371 0.052568 -0.03188 0.088115 -0.095357 -0.016481 -0.012866 0.027737 -0.075782 0.044474 -0.031837 -0.07029 0.081726 -0.042527 0.086457 0.09411 0.192308 0.126992 -0.175601 -0.072075 0.023172 0.195318 0.039686 0.028802 0.013654 -0.023731 0.113933 -0.027616
0.054249 -0.039973 -0.073067 -0.066972 0.219888 -0.02162 -0.03907 0.016585 0.012354 -0.073402 -0.016188 0.169889 0.019907 -0.091335 0.100535 0.018615 -0.179979 -0.1167 0.041379 0.070453 -0.131855 -0.125453 0.040118 -0.206116 0.038424 0.043818 0.096914 0.023527 -0.18004 0.225852 0.209534 0.13861 0.002891 0.044858 0.006263 -0.042791 -0.005928 -0.064396 0.046051 -0.173959 0.119788 -0.018166 7.11E-4 0.042576 0.041408 0.010094 -0.060708 0.001785 -0.031146 0.051339 0.00132 0.222265 -0.038346 0.055379 -0.01756 0.08879 -0.075273 -0.063337 -0.196817 0.086933 -0.113418 -0.047535 0.091253 0.084666 0.182898 -0.102906 -0.00167 0.012439 -0.052781 -0.129516 -7.8E-4 0.202164 0.056305 -0.107068 -0.21488 0.081403 0.209704 -0.006028 0.031308 0.211334 0.005169 -0.171297 -0.015898 0.042174 0.017301 0.00323 0.01262 0.052545 -0.041215 0.005229 0.06264 -0.061039 -0.010815 -0.155969 -0.035864 0.172506 -0.007646 0.051205 -0.075384 0.026131
0.069101 0.18389 0.033081 -0.023943 -0.084498 0.03658 -0.039839 0.009206 0.005333 -0.047342 -0.045634 0.111169 0.101069 -0.010166 0.022475 0.255339 0.003381 0.005683 0.120174 -0.162962 0.017088 -0.038826 0.002358 0.288975 -0.118435 -0.023648 0.008818 -0.069446 0.141338 -0.084812 0.002777 0.056462 -0.185337 -0.173869 -0.191497 -0.009901 -0.045189 -0.023369 -0.035993 -0.190063 0.054217 -0.035835 0.110461 0.088074 -0.130799 -0.079342 -0.021986 -0.067025 -0.037107 -0.017972 0.329949 0.013751 -0.126826 0.118772 -0.115219 -0.050376 -0.084175 -0.084278 -0.076472 -0.062313 0.067176 0.021638 0.022295 -0.107596 0.013376 -0.047378 -0.066723 0.19333 0.139453 0.22229 0.134981 -0.059903 0.082741 0.040849 0.14139 0.108804 -0.141279 -0.089111 0.0029 0.098468 0.027122 0.174119 0.204139 -0.002367 -0.037604 0.083722 0.146544 0.054869 0.041938 0.074462 -0.234056 -0.051867 -0.154926 0.105156 -0.111479 -0.124788 0.040486 0.049976 0.137567 0.209531
0.0 0.0 0.0 0.0 0.0 0.0 0.0 0.0 0.0 0.0 0.0 0.0 0.0 0.0 0.0 0.0 0.0 0.0 0.0 0.0 0.0 0.0 0.0 0.0 0.0 0.0 0.0 0.0 0.0 0.0 0.0 0.0 0.0 0.0 0.0 0.0 0.0 0.0 0.0 0.0 0.0 0.0 0.0 0.0 0.0 0.0 0.0 0.0 0.0 0.0 0.0 0.0 0.0 0.0 0.0 0.0 0.0 0.0 0.0 0.0 0.0 0.0 0.0 0.0 0.0 0.0 0.0 0.0 0.0 0.0 0.0 0.0 0.0 0.0 0.0 0.0 0.0 0.0 0.0 0.0 0.0 0.0 0.0 0.0 0.0 0.0 0.0 0.0 0.0 0.0 0.0 0.0 0.0 0.0 0.0 0.0 0.0 0.0 0.0 0.0
0.197246 -0.165613 0.122956 -0.032277 -0.099665 -0.024211 0.050762 -0.022967 -0.01137 0.049389 0.10031 0.066083 -0.074557 -0.141668 -0.151508 0.174515 -0.076802 0.241732 -0.107628 0.024792 -0.177017 0.162746 0.050304 0.074222 -0.030587 -0.119586 0.014556 0.15769 0.19174 -0.188239 -0.214752 0.018327 0.120297 0.063609 -0.056034 -0.160286 4.75E-4 0.078305 -0.147693 0.094734 -0.156502 -0.003672 0.062234 0.040062 -0.080216 -0.145814 0.028281 0.008805 -0.130718 -0.022768 0.199961 0.114865 0.118271 0.052211 0.192397 -0.120776 0.049596 0.064631 0.003026 0.013971 0.055832 0.015001 -0.092819 -0.149283 -0.095534 -0.029456 0.132262 0.00101 0.165173 -0.147739 0.056772 -0.003817 -0.042098 -0.081459 2.96E-4 -0.100367 0.032068 0.004045 -0.010458 -0.021304 -0.057818 0.177753 0.100028 -0.017413 0.085129 -0.215981 -0.162845 0.058978 0.121185 0.126577 -0.04532 0.118306 0.097703 -0.060395 -0.108637 -0.074323 0.143914 -0.006089 -0.026484 0.012009
0.0 0.0 0.0 0.0 0.0 0.0 0.0 0.0 0.0 0.0 0.0 0.0 0.0 0.0 0.0 0.0 0.0 0.0 0.0 0.0 0.0 0.0 0.0 0.0 0.0 0.0 0.0 0.0 0.0 0.0 0.0 0.0 0.0 0.0 0.0 0.0 0.0 0.0 0.0 0.0 0.0 0.0 0.0 0.0 0.0 0.0 0.0 0.0 0.0 0.0 0.0 0.0 0.0 0.0 0.0 0.0 0.0 0.0 0.0 0.0 0.0 0.0 0.0 0.0 0.0 0.0 0.0 0.0 0.0 0.0 0.0 0.0 0.0 0.0 0.0 0.0 0.0 0.0 0.0 0.0 0.0 0.0 0.0 0.0 0.0 0.0 0.0 0.0 0.0 0.0 0.0 0.0 0.0 0.0 0.0 0.0 0.0 0.0 0.0 0.0
-0.096904 -0.049504 -0.082471 -0.050801 -0.175429 0.021206 0.034848 0.045176 -0.193814 0.016602 0.164478 0.025249 -0.024159 -0.110062 -0.136905 0.065549 0.103004 0.160755 -0.009444 -0.125299 -0.114883 0.040214 0.191318 -0.081817 0.066316 -0.065548 -0.067374 -0.085891 0.113077 -0.121134 -0.10236 0.003337 -0.18259 -0.194313 -0.039843 -0.331344 -0.047765 -0.082314 -0.072703 0.049634 -0.144728 0.101607 -0.160328 0.150916 -0.001313 -0.182803 0.231857 0.098347 -0.006359 0.071247 -0.106722 -0.262918 0.005404 0.108825 0.097083 -0.109244 0.053893 -0.128451 0.190794 -0.069653 0.238598 -0.146518 0.037883 -0.085972 0.02993 0.106087 0.336965 -0.160098 0.129957 0.065108 -0.147377 0.095608 0.178532 -0.033717 -0.023657 0.038147 -0.146698 -0.014592 0.163545 -0.012975 0.050209 0.038704 0.231172 -0.015421 -0.038847 0.011368 -0.004337 0.04574 0.057537 0.210886 -0.060135 0.090964 0.080115 -0.014874 -0.066099 0.035194 -0.020067 -0.273852 0.060846 -0.102303
0.0 0.0 0.0 0.0 0.0 0.0 0.0 0.0 0.0 0.0 0.0 0.0 0.0 0.0 0.0 0.0 0.0 0.0 0.0 0.0 0.0 0.0 0.0 0.0 0.0 0.0 0.0 0.0 0.0 0.0 0.0 0.0 0.0 0.0 0.0 0.0 0.0 0.0 0.0 0.0 0.0 0.0 0.0 0.0 0.0 0.0 0.0 0.0 0.0 0.0 0.0 0.0 0.0 0.0 0.0 0.0 0.0 0.0 0.0 0.0 0.0 0.0 0.0 0.0 0.0 0.0 0.0 0.0 0.0 0.0 0.0 0.0 0.0 0.0 0.0 0.0 0.0 0.0 0.0 0.0 0.0 0.0 0.0 0.0 0.0 0.0 0.0 0.0 0.0 0.0 0.0 0.0 0.0 0.0 0.0 0.0 0.0 0.0 0.0 0.0
1.979182 1.475284 1.616709 3.670848 1.493383 1.565553 0.713709 0.821536 -0.198276 1.095257 1.13035 3.013426 -0.31575 0.272355 -1.140889 3.059924 -0.481724 -0.114922 -4.136081 -3.168525 0.468706 0.468211 -1.450609 1.536269 1.463073 0.091064 0.456867 -0.772584 1.94826 0.637724 3.384043 1.31124 -0.547482 -2.46209 -1.172514 0.108789 -0.436092 -0.542017 -2.899063 -1.238649 0.992894 -1.25533 1.441906 -2.837638 -0.37597 0.84588 0.567863 1.067483 3.045772 2.851722 1.127934 2.750989 2.037369 -0.330697 -3.137371 -0.277042 1.105257 3.888075 -0.863423 -0.157175 -2.285182 -0.166755 0.331731 -0.01245 0.62688 0.367884 -0.075369 -0.159061 -0.417307 -2.027856 0.1471 0.649553 -2.645108 0.793309 -1.226665 0.217122 -0.469072 -0.459028 -1.403266 -0.635382 -0.504689 1.214626 1.214261 1.363001 0.553679 -3.299866 -1.882137 1.302355 -0.459088 -0.175485 1.192438 -0.480862 1.435369 0.431146 -1.119326 -1.423348 -1.759886 0.376096 -1.342863 3.008839
0.0 0.0 0.0 0.0 0.0 0.0 0.0 0.0 0.0 0.0 0.0 0.0 0.0 0.0 0.0 0.0 0.0 0.0 0.0 0.0 0.0 0.0 0.0 0.0 0.0 0.0 0.0 0.0 0.0 0.0 0.0 0.0 0.0 0.0 0.0 0.0 0.0 0.0 0.0 0.0 0.0 0.0 0.0 0.0 0.0 0.0 0.0 0.0 0.0 0.0 0.0 0.0 0.0 0.0 0.0 0.0 0.0 0.0 0.0 0.0 0.0 0.0 0.0 0.0 0.0 0.0 0.0 0.0 0.0 0.0 0.0 0.0 0.0 0.0 0.0 0.0 0.0 0.0 0.0 0.0 0.0 0.0 0.0 0.0 0.0 0.0 0.0 0.0 0.0 0.0 0.0 0.0 0.0 0.0 0.0 0.0 0.0 0.0 0.0 0.0
-0.216608 -0.135263 0.271362 0.064631 -0.058472 0.007236 -0.105295 -0.067634 -0.178555 -0.063222 0.176318 0.001652 -0.070044 0.037822 0.172801 0.12771 0.058199 0.16586 -0.077341 0.120071 -0.154733 0.161664 0.291504 0.113562 -0.051629 -0.227728 -0.120683 -0.018789 0.021112 -0.156981 -0.055216 -0.150219 0.028774 0.006067 0.008834 0.083017 0.087725 0.10309 0.144559 0.230401 -0.145693 -0.003684 0.046353 0.177527 0.089936 -0.188201 -0.014907 -0.080068 -0.009225 0.080584 0.247199 0.027727 -0.023643 -0.333408 0.080675 -0.009407 0.001642 -0.139457 0.103284 -0.065379 -0.067105 -0.208892 -0.147464 -0.189518 0.068986 -0.133539 -0.101328 -0.17995 -0.04107 -0.066256 0.014339 0.094617 -0.039733 -0.009701 0.132607 -0.0652 -0.233482 -0.146858 -0.004052 -0.222281 -0.051324 -0.077138 0.144242 -0.164035 -0.018531 -0.175091 0.132275 -0.148507 0.099047 0.175248 0.122157 0.03334 0.073291 0.004423 -0.025155 -0.054521 0.05249 -0.01786 0.107547 -0.007077
0.0 0.0 0.0 0.0 0.0 0.0 0.0 0.0 0.0 0.0 0.0 0.0 0.0 0.0 0.0 0.0 0.0 0.0 0.0 0.0 0.0 0.0 0.0 0.0 0.0 0.0 0.0 0.0 0.0 0.0 0.0 0.0 0.0 0.0 0.0 0.0 0.0 0.0 0.0 0.0 0.0 0.0 0.0 0.0 0.0 0.0 0.0 0.0 0.0 0.0 0.0 0.0 0.0 0.0 0.0 0.0 0.0 0.0 0.0 0.0 0.0 0.0 0.0 0.0 0.0 0.0 0.0 0.0 0.0 0.0 0.0 0.0 0.0 0.0 0.0 0.0 0.0 0.0 0.0 0.0 0.0 0.0 0.0 0.0 0.0 0.0 0.0 0.0 0.0 0.0 0.0 0.0 0.0 0.0 0.0 0.0 0.0 0.0 0.0 0.0
0.0 0.0 0.0 0.0 0.0 0.0 0.0 0.0 0.0 0.0 0.0 0.0 0.0 0.0 0.0 0.0 0.0 0.0 0.0 0.0 0.0 0.0 0.0 0.0 0.0 0.0 0.0 0.0 0.0 0.0 0.0 0.0 0.0 0.0 0.0 0.0 0.0 0.0 0.0 0.0 0.0 0.0 0.0 0.0 0.0 0.0 0.0 0.0 0.0 0.0 0.0 0.0 0.0 0.0 0.0 0.0 0.0 0.0 0.0 0.0 0.0 0.0 0.0 0.0 0.0 0.0 0.0 0.0 0.0 0.0 0.0 0.0 0.0 0.0 0.0 0.0 0.0 0.0 0.0 0.0 0.0 0.0 0.0 0.0 0.0 0.0 0.0 0.0 0.0 0.0 0.0 0.0 0.0 0.0 0.0 0.0 0.0 0.0 0.0 0.0
0.197246 -0.165613 0.122956 -0.032277 -0.099665 -0.024211 0.050762 -0.022967 -0.01137 0.049389 0.10031 0.066083 -0.074557 -0.141668 -0.151508 0.174515 -0.076802 0.241732 -0.107628 0.024792 -0.177017 0.162746 0.050304 0.074222 -0.030587 -0.119586 0.014556 0.15769 0.19174 -0.188239 -0.214752 0.018327 0.120297 0.063609 -0.056034 -0.160286 4.75E-4 0.078305 -0.147693 0.094734 -0.156502 -0.003672 0.062234 0.040062 -0.080216 -0.145814 0.028281 0.008805 -0.130718 -0.022768 0.199961 0.114865 0.118271 0.052211 0.192397 -0.120776 0.049596 0.064631 0.003026 0.013971 0.055832 0.015001 -0.092819 -0.149283 -0.095534 -0.029456 0.132262 0.00101 0.165173 -0.147739 0.056772 -0.003817 -0.042098 -0.081459 2.96E-4 -0.100367 0.032068 0.004045 -0.010458 -0.021304 -0.057818 0.177753 0.100028 -0.017413 0.085129 -0.215981 -0.162845 0.058978 0.121185 0.126577 -0.04532 0.118306 0.097703 -0.060395 -0.108637 -0.074323 0.143914 -0.006089 -0.026484 0.012009
0.0 0.0 0.0 0.0 0.0 0.0 0.0 0.0 0.0 0.0 0.0 0.0 0.0 0.0 0.0 0.0 0.0 0.0 0.0 0.0 0.0 0.0 0.0 0.0 0.0 0.0 0.0 0.0 0.0 0.0 0.0 0.0 0.0 0.0 0.0 0.0 0.0 0.0 0.0 0.0 0.0 0.0 0.0 0.0 0.0 0.0 0.0 0.0 0.0 0.0 0.0 0.0 0.0 0.0 0.0 0.0 0.0 0.0 0.0 0.0 0.0 0.0 0.0 0.0 0.0 0.0 0.0 0.0 0.0 0.0 0.0 0.0 0.0 0.0 0.0 0.0 0.0 0.0 0.0 0.0 0.0 0.0 0.0 0.0 0.0 0.0 0.0 0.0 0.0 0.0 0.0 0.0 0.0 0.0 0.0 0.0 0.0 0.0 0.0 0.0
-0.096904 -0.049504 -0.082471 -0.050801 -0.175429 0.021206 0.034848 0.045176 -0.193814 0.016602 0.164478 0.025249 -0.024159 -0.110062 -0.136905 0.065549 0.103004 0.160755 -0.009444 -0.125299 -0.114883 0.040214 0.191318 -0.081817 0.066316 -0.065548 -0.067374 -0.085891 0.113077 -0.121134 -0.10236 0.003337 -0.18259 -0.194313 -0.039843 -0.331344 -0.047765 -0.082314 -0.072703 0.049634 -0.144728 0.101607 -0.160328 0.150916 -0.001313 -0.182803 0.231857 0.098347 -0.006359 0.071247 -0.106722 -0.262918 0.005404 0.108825 0.097083 -0.109244 0.053893 -0.128451 0.190794 -0.069653 0.238598 -0.146518 0.037883 -0.085972 0.02993 0.106087 0.336965 -0.160098 0.129957 0.065108 -0.147377 0.095608 0.178532 -0.033717 -0.023657 0.038147 -0.146698 -0.014592 0.163545 -0.012975 0.050209 0.038704 0.231172 -0.015421 -0.038847 0.011368 -0.004337 0.04574 0.057537 0.210886 -0.060135 0.090964 0.080115 -0.014874 -0.066099 0.035194 -0.020067 -0.273852 0.060846 -0.102303
0.0 0.0 0.0 0.0 0.0 0.0 0.0 0.0 0.0 0.0 0.0 0.0 0.0 0.0 0.0 0.0 0.0 0.0 0.0 0.0 0.0 0.0 0.0 0.0 0.0 0.0 0.0 0.0 0.0 0.0 0.0 0.0 0.0 0.0 0.0 0.0 0.0 0.0 0.0 0.0 0.0 0.0 0.0 0.0 0.0 0.0 0.0 0.0 0.0 0.0 0.0 0.0 0.0 0.0 0.0 0.0 0.0 0.0 0.0 0.0 0.0 0.0 0.0 0.0 0.0 0.0 0.0 0.0 0.0 0.0 0.0 0.0 0.0 0.0 0.0 0.0 0.0 0.0 0.0 0.0 0.0 0.0 0.0 0.0 0.0 0.0 0.0 0.0 0.0 0.0 0.0 0.0 0.0 0.0 0.0 0.0 0.0 0.0 0.0 0.0
1.979182 1.475284 1.616709 3.670848 1.493383 1.565553 0.713709 0.821536 -0.198276 1.095257 1.13035 3.013426 -0.31575 0.272355 -1.140889 3.059924 -0.481724 -0.114922 -4.136081 -3.168525 0.468706 0.468211 -1.450609 1.536269 1.463073 0.091064 0.456867 -0.772584 1.94826 0.637724 3.384043 1.31124 -0.547482 -2.46209 -1.172514 0.108789 -0.436092 -0.542017 -2.899063 -1.238649 0.992894 -1.25533 1.441906 -2.837638 -0.37597 0.84588 0.567863 1.067483 3.045772 2.851722 1.127934 2.750989 2.037369 -0.330697 -3.137371 -0.277042 1.105257 3.888075 -0.863423 -0.157175 -2.285182 -0.166755 0.331731 -0.01245 0.62688 0.367884 -0.075369 -0.159061 -0.417307 -2.027856 0.1471 0.649553 -2.645108 0.793309 -1.226665 0.217122 -0.469072 -0.459028 -1.403266 -0.635382 -0.504689 1.214626 1.214261 1.363001 0.553679 -3.299866 -1.882137 1.302355 -0.459088 -0.175485 1.192438 -0.480862 1.435369 0.431146 -1.119326 -1.423348 -1.759886 0.376096 -1.342863 3.008839
0.0 0.0 0.0 0.0 0.0 0.0 0.0 0.0 0.0 0.0 0.0 0.0 0.0 0.0 0.0 0.0 0.0 0.0 0.0 0.0 0.0 0.0 0.0 0.0 0.0 0.0 0.0 0.0 0.0 0.0 0.0 0.0 0.0 0.0 0.0 0.0 0.0 0.0 0.0 0.0 0.0 0.0 0.0 0.0 0.0 0.0 0.0 0.0 0.0 0.0 0.0 0.0 0.0 0.0 0.0 0.0 0.0 0.0 0.0 0.0 0.0 0.0 0.0 0.0 0.0 0.0 0.0 0.0 0.0 0.0 0.0 0.0 0.0 0.0 0.0 0.0 0.0 0.0 0.0 0.0 0.0 0.0 0.0 0.0 0.0 0.0 0.0 0.0 0.0 0.0 0.0 0.0 0.0 0.0 0.0 0.0 0.0 0.0 0.0 0.0
-0.216608 -0.135263 0.271362 0.064631 -0.058472 0.007236 -0.105295 -0.067634 -0.178555 -0.063222 0.176318 0.001652 -0.070044 0.037822 0.172801 0.12771 0.058199 0.16586 -0.077341 0.120071 -0.154733 0.161664 0.291504 0.113562 -0.051629 -0.227728 -0.120683 -0.018789 0.021112 -0.156981 -0.055216 -0.150219 0.028774 0.006067 0.008834 0.083017 0.087725 0.10309 0.144559 0.230401 -0.145693 -0.003684 0.046353 0.177527 0.089936 -0.188201 -0.014907 -0.080068 -0.009225 0.080584 0.247199 0.027727 -0.023643 -0.333408 0.080675 -0.009407 0.001642 -0.139457 0.103284 -0.065379 -0.067105 -0.208892 -0.147464 -0.189518 0.068986 -0.133539 -0.101328 -0.17995 -0.04107 -0.066256 0.014339 0.094617 -0.039733 -0.009701 0.132607 -0.0652 -0.233482 -0.146858 -0.004052 -0.222281 -0.051324 -0.077138 0.144242 -0.164035 -0.018531 -0.175091 0.132275 -0.148507 0.099047 0.175248 0.122157 0.03334 0.073291 0.004423 -0.025155 -0.054521 0.05249 -0.01786 0.107547 -0.007077
-0.049418 -0.036399 0.047087 0.035521 -0.04426 -0.07204 -0.057305 -0.01961 -0.050576 0.008957 0.069274 -0.056356 -0.087336 0.079403 0.091801 0.044752 -0.062672 0.096308 0.004329 -0.057825 0.011089 -0.10588 0.043849 0.053918 -0.089942 -0.217775 -0.03278 -0.046642 0.021616 0.022529 2.28E-4 0.073149 -0.096805 0.097561 -0.018957 0.004865 0.051744 -0.118616 0.015623 0.052852 -0.0062 -0.008272 0.021985 0.043405 0.014403 0.0084 -0.031356 0.238753 0.006306 0.119369 0.192711 -0.105924 -0.171451 -0.105112 -0.04012 -0.008332 0.007063 0.056833 -0.195563 -0.057609 -0.057991 -0.003439 -0.017028 -0.078926 -0.070455 -0.066509 0.003854 -0.046651 0.173206 0.097305 -0.046108 0.042303 0.107519 -0.064719 0.043666 0.057978 0.004657 0.057185 -0.070903 0.047588 -0.021279 0.08271 0.069409 -0.034849 0.013943 0.099619 -0.031629 -0.101472 0.060454 0.084281 0.073155 0.102968 -0.083518 0.043023 0.031514 -0.014303 0.049097 -0.061045 0.050428 0.067779
0.040639 0.081814 0.04287 0.062167 0.092794 0.114908 -5.3E-4 -0.061893 -0.128806 0.029658 -0.102642 0.050736 0.021353 0.278962 0.156361 -0.045776 -0.059025 0.007615 0.069272 0.03742 0.044666 -0.205296 -0.009373 0.060588 0.130976 -0.007905 -0.098053 0.083234 0.088487 0.073668 -0.063313 0.05638 -0.149995 0.040243 0.139103 0.120814 0.186168 0.077513 0.035539 -0.137722 0.149343 -0.011946 0.157701 0.051791 -0.073664 0.096946 -0.283681 0.058369 -0.065895 0.126711 -0.040991 -0.045914 -0.057224 -0.17697 0.066608 0.102407 -0.15335 -0.00258 -0.222251 -0.069709 -9.96E-4 0.033302 -0.223593 -0.01348 0.109527 0.085455 -0.086426 0.046289 0.047765 0.150103 -0.094972 -0.019492 -0.08396 0.061637 0.042416 0.083935 -0.175169 -0.031524 -0.150901 -0.072843 -0.056665 0.199748 0.160562 -0.070466 0.072887 0.025233 0.011767 0.031496 0.08045 -0.027642 0.037393 0.123465 -0.042501 0.013419 0.046506 -0.08898 -0.024989 -0.132646 0.135167 0.194549
0.0 0.0 0.0 0.0 0.0 0.0 0.0 0.0 0.0 0.0 0.0 0.0 0.0 0.0 0.0 0.0 0.0 0.0 0.0 0.0 0.0 0.0 0.0 0.0 0.0 0.0 0.0 0.0 0.0 0.0 0.0 0.0 0.0 0.0 0.0 0.0 0.0 0.0 0.0 0.0 0.0 0.0 0.0 0.0 0.0 0.0 0.0 0.0 0.0 0.0 0.0 0.0 0.0 0.0 0.0 0.0 0.0 0.0 0.0 0.0 0.0 0.0 0.0 0.0 0.0 0.0 0.0 0.0 0.0 0.0 0.0 0.0 0.0 0.0 0.0 0.0 0.0 0.0 0.0 0.0 0.0 0.0 0.0 0.0 0.0 0.0 0.0 0.0 0.0 0.0 0.0 0.0 0.0 0.0 0.0 0.0 0.0 0.0 0.0 0.0
0.054249 -0.039973 -0.073067 -0.066972 0.219888 -0.02162 -0.03907 0.016585 0.012354 -0.073402 -0.016188 0.169889 0.019907 -0.091335 0.100535 0.018615 -0.179979 -0.1167 0.041379 0.070453 -0.131855 -0.125453 0.040118 -0.206116 0.038424 0.043818 0.096914 0.023527 -0.18004 0.225852 0.209534 0.13861 0.002891 0.044858 0.006263 -0.042791 -0.005928 -0.064396 0.046051 -0.173959 0.119788 -0.018166 7.11E-4 0.042576 0.041408 0.010094 -0.060708 0.001785 -0.031146 0.051339 0.00132 0.222265 -0.038346 0.055379 -0.01756 0.08879 -0.075273 -0.063337 -0.196817 0.086933 -0.113418 -0.047535 0.091253 0.084666 0.182898 -0.102906 -0.00167 0.012439 -0.052781 -0.129516 -7.8E-4 0.202164 0.056305 -0.107068 -0.21488 0.081403 0.209704 -0.006028 0.031308 0.211334 0.005169 -0.171297 -0.015898 0.042174 0.017301 0.00323 0.01262 0.052545 -0.041215 0.005229 0.06264 -0.061039 -0.010815 -0.155969 -0.035864 0.172506 -0.007646 0.051205 -0.075384 0.026131
0.069101 0.18389 0.033081 -0.023943 -0.084498 0.03658 -0.039839 0.009206 0.005333 -0.047342 -0.045634 0.111169 0.101069 -0.010166 0.022475 0.255339 0.003381 0.005683 0.120174 -0.162962 0.017088 -0.038826 0.002358 0.288975 -0.118435 -0.023648 0.008818 -0.069446 0.141338 -0.084812 0.002777 0.056462 -0.185337 -0.173869 -0.191497 -0.009901 -0.045189 -0.023369 -0.035993 -0.190063 0.054217 -0.035835 0.110461 0.088074 -0.130799 -0.079342 -0.021986 -0.067025 -0.037107 -0.017972 0.329949 0.013751 -0.126826 0.118772 -0.115219 -0.050376 -0.084175 -0.084278 -0.076472 -0.062313 0.067176 0.021638 0.022295 -0.107596 0.013376 -0.047378 -0.066723 0.19333 0.139453 0.22229 0.134981 -0.059903 0.082741 0.040849 0.14139 0.108804 -0.141279 -0.089111 0.0029 0.098468 0.027122 0.174119 0.204139 -0.002367 -0.037604 0.083722 0.146544 0.054869 0.041938 0.074462 -0.234056 -0.051867 -0.154926 0.105156 -0.111479 -0.124788 0.040486 0.049976 0.137567 0.209531
-0.141789 -0.261591 0.322514 0.167225 0.148803 0.020134 -0.091048 -0.202351 -0.238786 0.051094 0.030116 -0.009236 0.068991 -0.127686 -0.069145 -0.021946 -0.032574 0.175723 0.024365 0.013963 0.17246 0.03368 0.005641 -0.127123 -0.023875 0.021804 -0.151168 -0.089631 -0.192217 0.070043 -0.087208 -0.136943 0.177573 0.083931 -0.105144 -0.065504 -0.051498 0.424712 -0.06004 0.200172 0.001055 0.045183 -0.10945 0.034081 -0.112104 0.053605 -0.339402 -0.003897 -0.119207 0.142655 0.110225 0.174789 -0.338292 -0.351659 -0.028526 -0.264784 0.148871 0.053851 0.042363 -0.085073 0.163537 -0.04996 0.033247 0.175266 -0.266205 0.227714 0.309533 -0.039892 0.284235 0.211774 0.105671 0.086398 -0.111422 0.115467 0.113978 -0.129871 -0.051041 -0.038479 -8.82E-4 0.031983 -0.091867 -0.074215 -0.02365 -0.100958 -0.140728 -0.102136 0.203172 0.215047 0.255626 0.043605 -0.043256 -0.01504 0.032635 0.279567 0.099435 -0.093271 0.025936 -0.158422 -0.155745 0.034673
-0.087475 0.186701 -0.046917 -0.041847 -0.059088 -0.013273 -0.073892 0.233091 -0.003596 -0.039339 0.066277 0.094805 0.150238 -0.09346 -0.021952 -0.202147 0.117833 8.46E-4 -0.091551 -0.028534 -0.237071 0.054316 -0.011612 -0.160773 0.222265 0.005336 0.12038 0.033854 -0.004107 0.003107 0.168426 0.016482 -0.08677 -0.113422 0.086407 0.106075 -0.149861 0.126073 -0.0634 0.062826 -0.083977 -0.145637 0.061467 -0.051229 0.204229 -0.17109 0.026782 -0.001161 -0.009186 0.041333 0.019968 0.012454 -0.139774 0.27773 0.102443 0.019878 -0.056911 0.009365 0.008677 0.008326 -0.019961 -0.155983 0.037278 0.082971 0.091306 -0.05795 -0.070034 -0.19837 -0.104056 0.119097 0.096727 0.077648 -0.004616 -0.085341 -0.201546 0.033147 -0.083137 -0.088842 -0.009531 0.066588 -0.075343 -0.080456 -0.068234 -0.087612 -0.042374 -0.007313 -0.137535 0.008539 0.080121 0.119683 -0.07983 0.023474 -0.158168 0.093865 -0.115452 -0.038433 0.056332 0.205291 -0.056107 -0.130454
0.0 0.0 0.0 0.0 0.0 0.0 0.0 0.0 0.0 0.0 0.0 0.0 0.0 0.0 0.0 0.0 0.0 0.0 0.0 0.0 0.0 0.0 0.0 0.0 0.0 0.0 0.0 0.0 0.0 0.0 0.0 0.0 0.0 0.0 0.0 0.0 0.0 0.0 0.0 0.0 0.0 0.0 0.0 0.0 0.0 0.0 0.0 0.0 0.0 0.0 0.0 0.0 0.0 0.0 0.0 0.0 0.0 0.0 0.0 0.0 0.0 0.0 0.0 0.0 0.0 0.0 0.0 0.0 0.0 0.0 0.0 0.0 0.0 0.0 0.0 0.0 0.0 0.0 0.0 0.0 0.0 0.0 0.0 0.0 0.0 0.0 0.0 0.0 0.0 0.0 0.0 0.0 0.0 0.0 0.0 0.0 0.0 0.0 0.0 0.0
1.979182 1.475284 1.616709 3.670848 1.493383 1.565553 0.713709 0.821536 -0.198276 1.095257 1.13035 3.013426 -0.31575 0.272355 -1.140889 3.059924 -0.481724 -0.114922 -4.136081 -3.168525 0.468706 0.468211 -1.450609 1.536269 1.463073 0.091064 0.456867 -0.772584 1.94826 0.637724 3.384043 1.31124 -0.547482 -2.46209 -1.172514 0.108789 -0.436092 -0.542017 -2.899063 -1.238649 0.992894 -1.25533 1.441906 -2.837638 -0.37597 0.84588 0.567863 1.067483 3.045772 2.851722 1.127934 2.750989 2.037369 -0.330697 -3.137371 -0.277042 1.105257 3.888075 -0.863423 -0.157175 -2.285182 -0.166755 0.331731 -0.01245 0.62688 0.367884 -0.075369 -0.159061 -0.417307 -2.027856 0.1471 0.649553 -2.645108 0.793309 -1.226665 0.217122 -0.469072 -0.459028 -1.403266 -0.635382 -0.504689 1.214626 1.214261 1.363001 0.553679 -3.299866 -1.882137 1.302355 -0.459088 -0.175485 1.192438 -0.480862 1.435369 0.431146 -1.119326 -1.423348 -1.759886 0.376096 -1.342863 3.008839
0.0 0.0 0.0 0.0 0.0 0.0 0.0 0.0 0.0 0.0 0.0 0.0 0.0 0.0 0.0 0.0 0.0 0.0 0.0 0.0 0.0 0.0 0.0 0.0 0.0 0.0 0.0 0.0 0.0 0.0 0.0 0.0 0.0 0.0 0.0 0.0 0.0 0.0 0.0 0.0 0.0 0.0 0.0 0.0 0.0 0.0 0.0 0.0 0.0 0.0 0.0 0.0 0.0 0.0 0.0 0.0 0.0 0.0 0.0 0.0 0.0 0.0 0.0 0.0 0.0 0.0 0.0 0.0 0.0 0.0 0.0 0.0 0.0 0.0 0.0 0.0 0.0 0.0 0.0 0.0 0.0 0.0 0.0 0.0 0.0 0.0 0.0 0.0 0.0 0.0 0.0 0.0 0.0 0.0 0.0 0.0 0.0 0.0 0.0 0.0
-0.216608 -0.135263 0.271362 0.064631 -0.058472 0.007236 -0.105295 -0.067634 -0.178555 -0.063222 0.176318 0.001652 -0.070044 0.037822 0.172801 0.12771 0.058199 0.16586 -0.077341 0.120071 -0.154733 0.161664 0.291504 0.113562 -0.051629 -0.227728 -0.120683 -0.018789 0.021112 -0.156981 -0.055216 -0.150219 0.028774 0.006067 0.008834 0.083017 0.087725 0.10309 0.144559 0.230401 -0.145693 -0.003684 0.046353 0.177527 0.089936 -0.188201 -0.014907 -0.080068 -0.009225 0.080584 0.247199 0.027727 -0.023643 -0.333408 0.080675 -0.009407 0.001642 -0.139457 0.103284 -0.065379 -0.067105 -0.208892 -0.147464 -0.189518 0.068986 -0.133539 -0.101328 -0.17995 -0.04107 -0.066256 0.014339 0.094617 -0.039733 -0.009701 0.132607 -0.0652 -0.233482 -0.146858 -0.004052 -0.222281 -0.051324 -0.077138 0.144242 -0.164035 -0.018531 -0.175091 0.132275 -0.148507 0.099047 0.175248 0.122157 0.03334 0.073291 0.004423 -0.025155 -0.054521 0.05249 -0.01786 0.107547 -0.007077
0.0 0.0 0.0 0.0 0.0 0.0 0.0 0.0 0.0 0.0 0.0 0.0 0.0 0.0 0.0 0.0 0.0 0.0 0.0 0.0 0.0 0.0 0.0 0.0 0.0 0.0 0.0 0.0 0.0 0.0 0.0 0.0 0.0 0.0 0.0 0.0 0.0 0.0 0.0 0.0 0.0 0.0 0.0 0.0 0.0 0.0 0.0 0.0 0.0 0.0 0.0 0.0 0.0 0.0 0.0 0.0 0.0 0.0 0.0 0.0 0.0 0.0 0.0 0.0 0.0 0.0 0.0 0.0 0.0 0.0 0.0 0.0 0.0 0.0 0.0 0.0 0.0 0.0 0.0 0.0 0.0 0.0 0.0 0.0 0.0 0.0 0.0 0.0 0.0 0.0 0.0 0.0 0.0 0.0 0.0 0.0 0.0 0.0 0.0 0.0
0.0 0.0 0.0 0.0 0.0 0.0 0.0 0.0 0.0 0.0 0.0 0.0 0.0 0.0 0.0 0.0 0.0 0.0 0.0 0.0 0.0 0.0 0.0 0.0 0.0 0.0 0.0 0.0 0.0 0.0 0.0 0.0 0.0 0.0 0.0 0.0 0.0 0.0 0.0 0.0 0.0 0.0 0.0 0.0 0.0 0.0 0.0 0.0 0.0 0.0 0.0 0.0 0.0 0.0 0.0 0.0 0.0 0.0 0.0 0.0 0.0 0.0 0.0 0.0 0.0 0.0 0.0 0.0 0.0 0.0 0.0 0.0 0.0 0.0 0.0 0.0 0.0 0.0 0.0 0.0 0.0 0.0 0.0 0.0 0.0 0.0 0.0 0.0 0.0 0.0 0.0 0.0 0.0 0.0 0.0 0.0 0.0 0.0 0.0 0.0
1.979182 1.475284 1.616709 3.670848 1.493383 1.565553 0.713709 0.821536 -0.198276 1.095257 1.13035 3.013426 -0.31575 0.272355 -1.140889 3.059924 -0.481724 -0.114922 -4.136081 -3.168525 0.468706 0.468211 -1.450609 1.536269 1.463073 0.091064 0.456867 -0.772584 1.94826 0.637724 3.384043 1.31124 -0.547482 -2.46209 -1.172514 0.108789 -0.436092 -0.542017 -2.899063 -1.238649 0.992894 -1.25533 1.441906 -2.837638 -0.37597 0.84588 0.567863 1.067483 3.045772 2.851722 1.127934 2.750989 2.037369 -0.330697 -3.137371 -0.277042 1.105257 3.888075 -0.863423 -0.157175 -2.285182 -0.166755 0.331731 -0.01245 0.62688 0.367884 -0.075369 -0.159061 -0.417307 -2.027856 0.1471 0.649553 -2.645108 0.793309 -1.226665 0.217122 -0.469072 -0.459028 -1.403266 -0.635382 -0.504689 1.214626 1.214261 1.363001 0.553679 -3.299866 -1.882137 1.302355 -0.459088 -0.175485 1.192438 -0.480862 1.435369 0.431146 -1.119326 -1.423348 -1.759886 0.376096 -1.342863 3.008839
0.0 0.0 0.0 0.0 0.0 0.0 0.0 0.0 0.0 0.0 0.0 0.0 0.0 0.0 0.0 0.0 0.0 0.0 0.0 0.0 0.0 0.0 0.0 0.0 0.0 0.0 0.0 0.0 0.0 0.0 0.0 0.0 0.0 0.0 0.0 0.0 0.0 0.0 0.0 0.0 0.0 0.0 0.0 0.0 0.0 0.0 0.0 0.0 0.0 0.0 0.0 0.0 0.0 0.0 0.0 0.0 0.0 0.0 0.0 0.0 0.0 0.0 0.0 0.0 0.0 0.0 0.0 0.0 0.0 0.0 0.0 0.0 0.0 0.0 0.0 0.0 0.0 0.0 0.0 0.0 0.0 0.0 0.0 0.0 0.0 0.0 0.0 0.0 0.0 0.0 0.0 0.0 0.0 0.0 0.0 0.0 0.0 0.0 0.0 0.0
-0.216608 -0.135263 0.271362 0.064631 -0.058472 0.007236 -0.105295 -0.067634 -0.178555 -0.063222 0.176318 0.001652 -0.070044 0.037822 0.172801 0.12771 0.058199 0.16586 -0.077341 0.120071 -0.154733 0.161664 0.291504 0.113562 -0.051629 -0.227728 -0.120683 -0.018789 0.021112 -0.156981 -0.055216 -0.150219 0.028774 0.006067 0.008834 0.083017 0.087725 0.10309 0.144559 0.230401 -0.145693 -0.003684 0.046353 0.177527 0.089936 -0.188201 -0.014907 -0.080068 -0.009225 0.080584 0.247199 0.027727 -0.023643 -0.333408 0.080675 -0.009407 0.001642 -0.139457 0.103284 -0.065379 -0.067105 -0.208892 -0.147464 -0.189518 0.068986 -0.133539 -0.101328 -0.17995 -0.04107 -0.066256 0.014339 0.094617 -0.039733 -0.009701 0.132607 -0.0652 -0.233482 -0.146858 -0.004052 -0.222281 -0.051324 -0.077138 0.144242 -0.164035 -0.018531 -0.175091 0.132275 -0.148507 0.099047 0.175248 0.122157 0.03334 0.073291 0.004423 -0.025155 -0.054521 0.05249 -0.01786 0.107547 -0.007077
-0.049418 -0.036399 0.047087 0.035521 -0.04426 -0.07204 -0.057305 -0.01961 -0.050576 0.008957 0.069274 -0.056356 -0.087336 0.079403 0.091801 0.044752 -0.062672 0.096308 0.004329 -0.057825 0.011089 -0.10588 0.043849 0.053918 -0.089942 -0.217775 -0.03278 -0.046642 0.021616 0.022529 2.28E-4 0.073149 -0.096805 0.097561 -0.018957 0.004865 0.051744 -0.118616 0.015623 0.052852 -0.0062 -0.008272 0.021985 0.043405 0.014403 0.0084 -0.031356 0.238753 0.006306 0.119369 0.192711 -0.105924 -0.171451 -0.105112 -0.04012 -0.008332 0.007063 0.056833 -0.195563 -0.057609 -0.057991 -0.003439 -0.017028 -0.078926 -0.070455 -0.066509 0.003854 -0.046651 0.173206 0.097305 -0.046108 0.042303 0.107519 -0.064719 0.043666 0.057978 0.004657 0.057185 -0.070903 0.047588 -0.021279 0.08271 0.069409 -0.034849 0.013943 0.099619 -0.031629 -0.101472 0.060454 0.084281 0.073155 0.102968 -0.083518 0.043023 0.031514 -0.014303 0.049097 -0.061045 0.050428 0.067779
-0.219936 -0.067721 -0.013209 -0.042437 0.04851 0.035264 -0.078125 -0.076667 -0.130761 0.155857 0.112074 0.060985 -0.004626 -0.015667 0.071499 0.061208 -0.026755 0.179012 0.143729 -0.076798 -0.098111 0.035587 0.150621 0.121856 -0.124475 -0.089416 -0.123457 0.074356 0.139182 0.038751 -0.005272 0.073431 -0.100427 0.012423 -0.013406 -0.001636 0.010209 -0.110047 -0.09609 0.127815 -0.068851 0.060821 -0.081765 -0.141657 -0.044266 -0.121606 0.033188 0.085272 -0.113091 -5.96E-4 0.115973 -0.104378 0.07202 -0.015882 0.021182 0.066903 -0.025513 -0.103935 0.05927 -0.067645 -0.109436 -0.005406 -0.03647 -0.030517 -0.005681 0.009377 0.152324 0.153507 -0.042793 -0.17006 -0.023583 0.061818 -0.040371 0.052568 -0.03188 0.088115 -0.095357 -0.016481 -0.012866 0.027737 -0.075782 0.044474 -0.031837 -0.07029 0.081726 -0.042527 0.086457 0.09411 0.192308 0.126992 -0.175601 -0.072075 0.023172 0.195318 0.039686 0.028802 0.013654 -0.023731 0.113933 -0.027616
0.008295 0.155992 -0.095987 0.143272 -0.090747 0.089867 -0.036767 -0.042586 0.049493 -0.03879 0.131404 0.167846 -0.005857 0.097915 -0.041447 0.130812 -0.101024 -0.019059 -0.03218 0.050227 -0.046986 -0.144451 -0.047946 0.174897 -0.280311 0.027491 0.004025 0.064692 0.182785 0.038695 -0.035743 -0.099148 -0.16593 -0.074931 -0.035095 0.011676 0.08857 -0.004165 0.00732 -0.011308 -0.098974 0.234456 -0.128188 -0.066622 0.133185 -0.055237 -0.142849 7.09E-4 -0.106584 0.142178 0.130097 -0.130924 -0.043746 0.061101 -0.111981 -0.093798 -0.08556 0.008638 -0.008092 -0.112021 -0.107498 -0.166343 -0.09852 0.16687 -0.013483 -0.021161 -0.030071 -0.015101 0.152232 0.021384 0.07597 -0.131909 -0.001323 -0.250236 0.068634 0.265819 -0.025702 -0.039893 -0.037552 -0.101397 0.134745 0.217435 0.006246 0.033504 -0.25704 -0.012431 -0.018236 -0.002739 -0.010802 0.108972 -0.051089 0.096593 -0.050342 0.236503 0.135097 -0.038636 0.051361 0.029269 0.056388 -0.044065
0.069101 0.18389 0.033081 -0.023943 -0.084498 0.03658 -0.039839 0.009206 0.005333 -0.047342 -0.045634 0.111169 0.101069 -0.010166 0.022475 0.255339 0.003381 0.005683 0.120174 -0.162962 0.017088 -0.038826 0.002358 0.288975 -0.118435 -0.023648 0.008818 -0.069446 0.141338 -0.084812 0.002777 0.056462 -0.185337 -0.173869 -0.191497 -0.009901 -0.045189 -0.023369 -0.035993 -0.190063 0.054217 -0.035835 0.110461 0.088074 -0.130799 -0.079342 -0.021986 -0.067025 -0.037107 -0.017972 0.329949 0.013751 -0.126826 0.118772 -0.115219 -0.050376 -0.084175 -0.084278 -0.076472 -0.062313 0.067176 0.021638 0.022295 -0.107596 0.013376 -0.047378 -0.066723 0.19333 0.139453 0.22229 0.134981 -0.059903 0.082741 0.040849 0.14139 0.108804 -0.141279 -0.089111 0.0029 0.098468 0.027122 0.174119 0.204139 -0.002367 -0.037604 0.083722 0.146544 0.054869 0.041938 0.074462 -0.234056 -0.051867 -0.154926 0.105156 -0.111479 -0.124788 0.040486 0.049976 0.137567 0.209531
1.560996 0.842868 -0.966121 0.794535 0.732082 2.167424 0.982662 0.057444 0.504819 0.07841 0.055279 1.416647 -0.670558 0.122239 -1.875473 -0.339444 -1.661959 -1.985793 -0.005729 -2.592115 -2.183448 0.044516 0.671895 -0.589479 0.827514 1.432932 1.133599 0.800224 0.356391 -1.617423 1.243533 -0.771712 1.46062 -1.283942 -0.283672 -0.793244 2.250382 0.636489 -0.035825 -2.112469 -0.960024 -2.532577 1.013875 -0.496549 -0.535743 1.359858 0.125133 -0.377994 0.914883 0.328853 0.713591 1.260942 -0.948324 1.504832 -1.93683 0.311228 0.965607 -1.013595 0.329382 -0.198887 0.96078 -0.013681 0.350227 0.828392 -1.894402 -0.039104 0.283785 -0.554694 -1.197001 0.540337 2.851685 1.269162 -1.080219 0.093043 0.787903 -0.091276 2.31099 1.354835 -1.181959 0.872145 0.826596 0.712391 -0.103207 1.442596 -0.009761 -0.491948 1.238818 0.369032 -0.415171 1.980595 2.066964 0.180408 -0.553874 -1.180511 -2.075199 0.329212 -1.398948 0.834816 -1.169907 1.291362
0.0 0.0 0.0 0.0 0.0 0.0 0.0 0.0 0.0 0.0 0.0 0.0 0.0 0.0 0.0 0.0 0.0 0.0 0.0 0.0 0.0 0.0 0.0 0.0 0.0 0.0 0.0 0.0 0.0 0.0 0.0 0.0 0.0 0.0 0.0 0.0 0.0 0.0 0.0 0.0 0.0 0.0 0.0 0.0 0.0 0.0 0.0 0.0 0.0 0.0 0.0 0.0 0.0 0.0 0.0 0.0 0.0 0.0 0.0 0.0 0.0 0.0 0.0 0.0 0.0 0.0 0.0 0.0 0.0 0.0 0.0 0.0 0.0 0.0 0.0 0.0 0.0 0.0 0.0 0.0 0.0 0.0 0.0 0.0 0.0 0.0 0.0 0.0 0.0 0.0 0.0 0.0 0.0 0.0 0.0 0.0 0.0 0.0 0.0 0.0
1.979182 1.475284 1.616709 3.670848 1.493383 1.565553 0.713709 0.821536 -0.198276 1.095257 1.13035 3.013426 -0.31575 0.272355 -1.140889 3.059924 -0.481724 -0.114922 -4.136081 -3.168525 0.468706 0.468211 -1.450609 1.536269 1.463073 0.091064 0.456867 -0.772584 1.94826 0.637724 3.384043 1.31124 -0.547482 -2.46209 -1.172514 0.108789 -0.436092 -0.542017 -2.899063 -1.238649 0.992894 -1.25533 1.441906 -2.837638 -0.37597 0.84588 0.567863 1.067483 3.045772 2.851722 1.127934 2.750989 2.037369 -0.330697 -3.137371 -0.277042 1.105257 3.888075 -0.863423 -0.157175 -2.285182 -0.166755 0.331731 -0.01245 0.62688 0.367884 -0.075369 -0.159061 -0.417307 -2.027856 0.1471 0.649553 -2.645108 0.793309 -1.226665 0.217122 -0.469072 -0.459028 -1.403266 -0.635382 -0.504689 1.214626 1.214261 1.363001 0.553679 -3.299866 -1.882137 1.302355 -0.459088 -0.175485 1.192438 -0.480862 1.435369 0.431146 -1.119326 -1.423348 -1.759886 0.376096 -1.342863 3.008839
0.0 0.0 0.0 0.0 0.0 0.0 0.0 0.0 0.0 0.0 0.0 0.0 0.0 0.0 0.0 0.0 0.0 0.0 0.0 0.0 0.0 0.0 0.0 0.0 0.0 0.0 0.0 0.0 0.0 0.0 0.0 0.0 0.0 0.0 0.0 0.0 0.0 0.0 0.0 0.0 0.0 0.0 0.0 0.0 0.0 0.0 0.0 0.0 0.0 0.0 0.0 0.0 0.0 0.0 0.0 0.0 0.0 0.0 0.0 0.0 0.0 0.0 0.0 0.0 0.0 0.0 0.0 0.0 0.0 0.0 0.0 0.0 0.0 0.0 0.0 0.0 0.0 0.0 0.0 0.0 0.0 0.0 0.0 0.0 0.0 0.0 0.0 0.0 0.0 0.0 0.0 0.0 0.0 0.0 0.0 0.0 0.0 0.0 0.0 0.0
-0.216608 -0.135263 0.271362 0.064631 -0.058472 0.007236 -0.105295 -0.067634 -0.178555 -0.063222 0.176318 0.001652 -0.070044 0.037822 0.172801 0.12771 0.058199 0.16586 -0.077341 0.120071 -0.154733 0.161664 0.291504 0.113562 -0.051629 -0.227728 -0.120683 -0.018789 0.021112 -0.156981 -0.055216 -0.150219 0.028774 0.006067 0.008834 0.083017 0.087725 0.10309 0.144559 0.230401 -0.145693 -0.003684 0.046353 0.177527 0.089936 -0.188201 -0.014907 -0.080068 -0.009225 0.080584 0.247199 0.027727 -0.023643 -0.333408 0.080675 -0.009407 0.001642 -0.139457 0.103284 -0.065379 -0.067105 -0.208892 -0.147464 -0.189518 0.068986 -0.133539 -0.101328 -0.17995 -0.04107 -0.066256 0.014339 0.094617 -0.039733 -0.009701 0.132607 -0.0652 -0.233482 -0.146858 -0.004052 -0.222281 -0.051324 -0.077138 0.144242 -0.164035 -0.018531 -0.175091 0.132275 -0.148507 0.099047 0.175248 0.122157 0.03334 0.073291 0.004423 -0.025155 -0.054521 0.05249 -0.01786 0.107547 -0.007077
0.0 0.0 0.0 0.0 0.0 0.0 0.0 0.0 0.0 0.0 0.0 0.0 0.0 0.0 0.0 0.0 0.0 0.0 0.0 0.0 0.0 0.0 0.0 0.0 0.0 0.0 0.0 0.0 0.0 0.0 0.0 0.0 0.0 0.0 0.0 0.0 0.0 0.0 0.0 0.0 0.0 0.0 0.0 0.0 0.0 0.0 0.0 0.0 0.0 0.0 0.0 0.0 0.0 0.0 0.0 0.0 0.0 0.0 0.0 0.0 0.0 0.0 0.0 0.0 0.0 0.0 0.0 0.0 0.0 0.0 0.0 0.0 0.0 0.0 0.0 0.0 0.0 0.0 0.0 0.0 0.0 0.0 0.0 0.0 0.0 0.0 0.0 0.0 0.0 0.0 0.0 0.0 0.0 0.0 0.0 0.0 0.0 0.0 0.0 0.0
0.0 0.0 0.0 0.0 0.0 0.0 0.0 0.0 0.0 0.0 0.0 0.0 0.0 0.0 0.0 0.0 0.0 0.0 0.0 0.0 0.0 0.0 0.0 0.0 0.0 0.0 0.0 0.0 0.0 0.0 0.0 0.0 0.0 0.0 0.0 0.0 0.0 0.0 0.0 0.0 0.0 0.0 0.0 0.0 0.0 0.0 0.0 0.0 0.0 0.0 0.0 0.0 0.0 0.0 0.0 0.0 0.0 0.0 0.0 0.0 0.0 0.0 0.0 0.0 0.0 0.0 0.0 0.0 0.0 0.0 0.0 0.0 0.0 0.0 0.0 0.0 0.0 0.0 0.0 0.0 0.0 0.0 0.0 0.0 0.0 0.0 0.0 0.0 0.0 0.0 0.0 0.0 0.0 0.0 0.0 0.0 0.0 0.0 0.0 0.0
1.979182 1.475284 1.616709 3.670848 1.493383 1.565553 0.713709 0.821536 -0.198276 1.095257 1.13035 3.013426 -0.31575 0.272355 -1.140889 3.059924 -0.481724 -0.114922 -4.136081 -3.168525 0.468706 0.468211 -1.450609 1.536269 1.463073 0.091064 0.456867 -0.772584 1.94826 0.637724 3.384043 1.31124 -0.547482 -2.46209 -1.172514 0.108789 -0.436092 -0.542017 -2.899063 -1.238649 0.992894 -1.25533 1.441906 -2.837638 -0.37597 0.84588 0.567863 1.067483 3.045772 2.851722 1.127934 2.750989 2.037369 -0.330697 -3.137371 -0.277042 1.105257 3.888075 -0.863423 -0.157175 -2.285182 -0.166755 0.331731 -0.01245 0.62688 0.367884 -0.075369 -0.159061 -0.417307 -2.027856 0.1471 0.649553 -2.645108 0.793309 -1.226665 0.217122 -0.469072 -0.459028 -1.403266 -0.635382 -0.504689 1.214626 1.214261 1.363001 0.553679 -3.299866 -1.882137 1.302355 -0.459088 -0.175485 1.192438 -0.480862 1.435369 0.431146 -1.119326 -1.423348 -1.759886 0.376096 -1.342863 3.008839
0.0 0.0 0.0 0.0 0.0 0.0 0.0 0.0 0.0 0.0 0.0 0.0 0.0 0.0 0.0 0.0 0.0 0.0 0.0 0.0 0.0 0.0 0.0 0.0 0.0 0.0 0.0 0.0 0.0 0.0 0.0 0.0 0.0 0.0 0.0 0.0 0.0 0.0 0.0 0.0 0.0 0.0 0.0 0.0 0.0 0.0 0.0 0.0 0.0 0.0 0.0 0.0 0.0 0.0 0.0 0.0 0.0 0.0 0.0 0.0 0.0 0.0 0.0 0.0 0.0 0.0 0.0 0.0 0.0 0.0 0.0 0.0 0.0 0.0 0.0 0.0 0.0 0.0 0.0 0.0 0.0 0.0 0.0 0.0 0.0 0.0 0.0 0.0 0.0 0.0 0.0 0.0 0.0 0.0 0.0 0.0 0.0 0.0 0.0 0.0
-0.216608 -0.135263 0.271362 0.064631 -0.058472 0.007236 -0.105295 -0.067634 -0.178555 -0.063222 0.176318 0.001652 -0.070044 0.037822 0.172801 0.12771 0.058199 0.16586 -0.077341 0.120071 -0.154733 0.161664 0.291504 0.113562 -0.051629 -0.227728 -0.120683 -0.018789 0.021112 -0.156981 -0.055216 -0.150219 0.028774 0.006067 0.008834 0.083017 0.087725 0.10309 0.144559 0.230401 -0.145693 -0.003684 0.046353 0.177527 0.089936 -0.188201 -0.014907 -0.080068 -0.009225 0.080584 0.247199 0.027727 -0.023643 -0.333408 0.080675 -0.009407 0.001642 -0.139457 0.103284 -0.065379 -0.067105 -0.208892 -0.147464 -0.189518 0.068986 -0.133539 -0.101328 -0.17995 -0.04107 -0.066256 0.014339 0.094617 -0.039733 -0.009701 0.132607 -0.0652 -0.233482 -0.146858 -0.004052 -0.222281 -0.051324 -0.077138 0.144242 -0.164035 -0.018531 -0.175091 0.132275 -0.148507 0.099047 0.175248 0.122157 0.03334 0.073291 0.004423 -0.025155 -0.054521 0.05249 -0.01786 0.107547 -0.007077
-0.049418 -0.036399 0.047087 0.035521 -0.04426 -0.07204 -0.057305 -0.01961 -0.050576 0.008957 0.069274 -0.056356 -0.087336 0.079403 0.091801 0.044752 -0.062672 0.096308 0.004329 -0.057825 0.011089 -0.10588 0.043849 0.053918 -0.089942 -0.217775 -0.03278 -0.046642 0.021616 0.022529 2.28E-4 0.073149 -0.096805 0.097561 -0.018957 0.004865 0.051744 -0.118616 0.015623 0.052852 -0.0062 -0.008272 0.021985 0.043405 0.014403 0.0084 -0.031356 0.238753 0.006306 0.119369 0.192711 -0.105924 -0.171451 -0.105112 -0.04012 -0.008332 0.007063 0.056833 -0.195563 -0.057609 -0.057991 -0.003439 -0.017028 -0.078926 -0.070455 -0.066509 0.003854 -0.046651 0.173206 0.097305 -0.046108 0.042303 0.107519 -0.064719 0.043666 0.057978 0.004657 0.057185 -0.070903 0.047588 -0.021279 0.08271 0.069409 -0.034849 0.013943 0.099619 -0.031629 -0.101472 0.060454 0.084281 0.073155 0.102968 -0.083518 0.043023 0.031514 -0.014303 0.049097 -0.061045 0.050428 0.067779
-1.174438 -1.779496 -2.884643 -1.980569 -1.811442 0.802219 3.24162 2.13542 1.072113 -6.30087 -0.536639 -1.391427 -2.88417 4.246961 -3.027189 0.946365 -0.026784 0.247014 -0.762893 2.913034 -0.263349 -0.956588 0.152459 -0.316076 -2.226356 0.573865 1.412833 -0.226441 1.261183 -0.212977 1.771552 -2.369826 -4.170671 0.13249 0.868273 1.147922 2.430621 -1.968543 -4.578587 -2.986281 3.871865 -0.823217 2.595884 3.480093 0.533133 0.878431 0.387692 2.462725 0.223327 1.141813 -0.441701 2.712278 2.231814 -2.734433 -2.793043 -1.460152 -1.258203 -0.320362 -0.011213 3.948059 2.23208 0.576536 -2.914066 2.651914 -0.503334 1.199899 -4.674464 -1.500644 1.760803 2.473771 0.178545 2.73978 1.645898 1.133394 -0.108783 0.105876 2.282132 1.002993 -0.423922 -1.306339 1.345819 -2.456647 -2.401045 4.065031 0.113419 -2.520884 1.615937 1.110972 1.543527 -2.373648 -2.88938 0.002854 -1.364661 3.250194 -4.113174 -3.347918 -4.282845 0.18644 -3.493049 -2.841606
