0.0 0.0 0.0 0.0 0.0 0.0 0.0 0.0 0.0 0.0 0.0 0.0 0.0 0.0 0.0 0.0 0.0 0.0 0.0 0.0 0.0 0.0 0.0 0.0 0.0 0.0 0.0 0.0 0.0 0.0 0.0 0.0 0.0 0.0 0.0 0.0 0.0 0.0 0.0 0.0 0.0 0.0 0.0 0.0 0.0 0.0 0.0 0.0 0.0 0.0 0.0 0.0 0.0 0.0 0.0 0.0 0.0 0.0 0.0 0.0 0.0 0.0 0.0 0.0 0.0 0.0 0.0 0.0 0.0 0.0 0.0 0.0 0.0 0.0 0.0 0.0 0.0 0.0 0.0 0.0 0.0 0.0 0.0 0.0 0.0 0.0 0.0 0.0 0.0 0.0 0.0 0.0 0.0 0.0 0.0 0.0 0.0 0.0 0.0 0.0
-1.367719 3.183656 -1.263929 3.884161 -0.582285 -2.105898 1.669446 -2.430971 0.032641 -0.520311 0.478526 1.380133 2.11884 0.34399 -1.596145 0.490688 3.891043 -0.229751 -2.092222 0.213036 -2.338181 3.451993 1.472009 -1.723612 3.257188 -0.018917 -0.486766 1.973738 0.058916 1.703307 -0.893854 -0.334044 -1.953466 -0.093909 -3.063591 -0.651696 -0.703496 0.225908 1.355057 -3.9286 -1.650311 0.352136 -1.939202 0.855583 0.215705 -0.801806 -2.5456 -1.00415 3.495013 0.597702 0.757199 -1.113256 1.382574 0.278277 -0.714061 0.931063 1.458582 -0.553248 -1.113393 -0.268339 -1.838714 -1.417196 -1.226364 1.345745 -0.141818 -0.313526 2.017501 -0.167962 1.027652 -0.280974 2.814302 2.607885 -2.253716 0.680154 -2.863211 0.919262 1.102602 0.870886 -1.256193 1.398065 4.522685 2.813602 -2.409751 -1.797647 -0.041925 -0.846068 0.838359 1.548523 2.414198 0.910382 -0.666967 0.793764 -2.201741 1.425351 -1.180615 -0.543377 -1.377291 0.303242 -0.145284 1.682704
0.146208 0.200658 0.086965 0.14266 -0.06568 0.075487 0.042058 -0.070462 -0.057553 0.080862 0.03267 -0.081682 -0.10842 -0.188563 -0.068229 -0.069369 -0.293211 -0.012514 -0.09424 -0.204957 -0.041407 -0.168425 0.115414 0.116417 -0.077647 0.23282 -0.079879 -0.011044 0.299685 -0.209392 -0.181543 -0.012554 0.195888 0.218679 -0.151993 -0.015494 -0.052576 -0.188732 0.186366 0.07534 -0.138711 0.230859 0.221838 -0.291637 -0.00569 -0.084367 -0.209569 -0.070135 -0.311881 0.018116 -0.045494 -0.039066 -0.163774 -0.043202 -0.183124 0.079179 -0.133066 0.099117 0.188969 -0.126784 -0.153197 -0.057019 0.033339 -0.032745 0.047407 -0.098853 0.125437 0.057777 0.116357 0.01192 -0.159338 -0.037672 0.090684 0.043139 -0.194764 -0.052681 -0.088448 0.266905 0.102961 0.188804 -0.146071 0.23897 -0.039335 -0.157309 0.125853 0.083146 -0.021157 -0.207619 0.23662 0.165877 -0.013006 0.069808 0.063459 -0.048349 0.206074 0.208656 -0.021807 0.255143 0.007927 0.09966
0.0 0.0 0.0 0.0 0.0 0.0 0.0 0.0 0.0 0.0 0.0 0.0 0.0 0.0 0.0 0.0 0.0 0.0 0.0 0.0 0.0 0.0 0.0 0.0 0.0 0.0 0.0 0.0 0.0 0.0 0.0 0.0 0.0 0.0 0.0 0.0 0.0 0.0 0.0 0.0 0.0 0.0 0.0 0.0 0.0 0.0 0.0 0.0 0.0 0.0 0.0 0.0 0.0 0.0 0.0 0.0 0.0 0.0 0.0 0.0 0.0 0.0 0.0 0.0 0.0 0.0 0.0 0.0 0.0 0.0 0.0 0.0 0.0 0.0 0.0 0.0 0.0 0.0 0.0 0.0 0.0 0.0 0.0 0.0 0.0 0.0 0.0 0.0 0.0 0.0 0.0 0.0 0.0 0.0 0.0 0.0 0.0 0.0 0.0 0.0
0.0 0.0 0.0 0.0 0.0 0.0 0.0 0.0 0.0 0.0 0.0 0.0 0.0 0.0 0.0 0.0 0.0 0.0 0.0 0.0 0.0 0.0 0.0 0.0 0.0 0.0 0.0 0.0 0.0 0.0 0.0 0.0 0.0 0.0 0.0 0.0 0.0 0.0 0.0 0.0 0.0 0.0 0.0 0.0 0.0 0.0 0.0 0.0 0.0 0.0 0.0 0.0 0.0 0.0 0.0 0.0 0.0 0.0 0.0 0.0 0.0 0.0 0.0 0.0 0.0 0.0 0.0 0.0 0.0 0.0 0.0 0.0 0.0 0.0 0.0 0.0 0.0 0.0 0.0 0.0 0.0 0.0 0.0 0.0 0.0 0.0 0.0 0.0 0.0 0.0 0.0 0.0 0.0 0.0 0.0 0.0 0.0 0.0 0.0 0.0
-0.077885 -0.107392 -0.055501 0.055018 0.084623 0.013052 -0.191898 0.136653 -0.172429 0.223783 0.143972 0.079103 0.036474 0.083469 -0.089995 0.200205 0.204906 0.091441 0.100856 0.116842 -0.106028 0.15604 0.227183 -0.109091 0.004946 -0.122266 0.036822 0.041988 0.037819 6.83E-4 -0.041332 -0.218405 0.029037 -0.133051 -0.120366 -0.109215 0.036311 0.143882 -0.029043 0.077492 -0.082288 0.06483 -0.169847 0.048821 0.178329 0.050613 0.038609 -0.003486 -0.165658 0.102508 0.003695 -0.074353 0.042872 -0.152007 -0.059905 -0.115617 0.172435 -0.054524 0.018153 -0.030101 -0.066894 0.086649 0.108217 -0.009053 -0.134343 -0.215491 0.101731 -0.0212 0.050575 -0.008462 -0.106122 0.002476 -0.031095 -0.057213 0.239514 -0.060647 -0.06949 0.036622 0.034877 0.072043 -0.029828 -0.009318 0.019848 -0.106115 -0.019077 -0.107368 -0.086129 -0.009842 -0.055542 -0.013841 0.073133 -0.008921 -0.017718 0.045219 0.054859 -0.07795 0.046706 -0.045061 -0.091335 0.043627
-0.134479 -0.201092 0.102271 0.002669 0.120794 -0.087992 -0.031231 -0.040148 -0.159061 0.010352 0.041171 -0.002003 0.079042 0.280674 -0.029083 0.058437 -0.150388 0.035032 0.021108 0.233462 -0.217474 0.06723 0.276668 0.112478 -0.150351 -0.103645 0.070888 -0.143294 0.196721 -0.063561 -0.088609 0.11372 0.007442 0.106444 -0.198926 -0.102521 -0.004449 0.091836 -0.14093 0.151173 -0.151609 0.047041 -0.026158 0.004994 -0.030211 0.068682 0.04013 -0.118331 -0.004907 0.153485 -0.080778 0.014527 0.081006 0.004299 0.075357 -0.013429 -0.083725 -0.013959 0.060696 -0.088104 -0.09536 -0.072839 -0.114671 -0.219741 -0.02541 0.064584 0.048715 -0.077685 0.072836 0.015792 0.072638 -0.049939 0.013054 0.008565 -5.15E-4 -0.112807 0.013752 -0.013242 -0.028483 0.009564 -0.021688 0.212303 0.030531 0.025818 0.106601 0.099459 -0.024813 -0.061896 0.199817 -0.080639 -0.257613 -0.180528 0.006001 -0.099301 -0.090026 -0.414161 -0.130542 0.119803 -0.128566 0.103501
0.0 0.0 0.0 0.0 0.0 0.0 0.0 0.0 0.0 0.0 0.0 0.0 0.0 0.0 0.0 0.0 0.0 0.0 0.0 0.0 0.0 0.0 0.0 0.0 0.0 0.0 0.0 0.0 0.0 0.0 0.0 0.0 0.0 0.0 0.0 0.0 0.0 0.0 0.0 0.0 0.0 0.0 0.0 0.0 0.0 0.0 0.0 0.0 0.0 0.0 0.0 0.0 0.0 0.0 0.0 0.0 0.0 0.0 0.0 0.0 0.0 0.0 0.0 0.0 0.0 0.0 0.0 0.0 0.0 0.0 0.0 0.0 0.0 0.0 0.0 0.0 0.0 0.0 0.0 0.0 0.0 0.0 0.0 0.0 0.0 0.0 0.0 0.0 0.0 0.0 0.0 0.0 0.0 0.0 0.0 0.0 0.0 0.0 0.0 0.0
-2.833489 6.470801 -0.056457 -0.734743 2.933674 3.783554 -0.235303 0.921758 -1.506842 -0.430297 1.64185 0.536904 -1.827145 -2.386503 -0.669298 -1.673335 0.805989 -1.53097 1.513381 1.006162 -1.281058 -2.047516 1.367584 2.960999 -0.893415 -0.005819 1.445815 -2.100958 -1.049479 1.963367 3.646859 -2.227594 0.998074 -2.090255 0.055475 -0.018037 1.10169 -4.53054 -3.715872 -1.367796 0.709102 -3.507129 1.623487 -0.242469 -2.032787 2.190298 -1.039793 2.786738 2.373907 1.560513 2.224157 -0.68954 -5.84418 0.901708 -4.165372 1.696038 5.4891 -4.0139 -1.129109 0.168372 -2.930342 -0.3607 2.534225 -0.012915 0.605202 2.881898 1.740559 1.635391 0.541473 0.733468 1.01492 -1.579225 -0.802697 -2.11646 -1.920238 1.870109 4.058731 0.418924 -3.106427 0.237959 0.225733 0.901459 0.159218 -1.277962 -1.410819 1.918782 2.094696 -1.054044 5.284285 1.577471 -2.271189 -3.930153 -2.021685 1.756549 0.024599 0.528126 2.160485 -8.701056 -1.531567 1.417191
-0.136755 -0.144771 -0.022108 0.094826 -0.022552 0.010348 -0.164645 0.186831 0.078642 -0.019879 0.00255 0.047507 -0.113261 0.003632 0.034458 0.096911 -0.005264 0.192858 0.016322 9.23E-4 -0.014412 0.133968 0.140044 0.137165 -0.126885 -0.017492 0.035384 0.114696 0.169813 -0.288621 -0.17845 -0.048968 -0.021447 0.034885 0.106102 -0.115465 -0.054622 0.130903 0.095764 0.014452 -0.089814 -0.049034 0.011594 -0.079264 0.137246 0.029271 -0.050378 -0.155563 0.062358 -0.166994 0.010299 -0.130533 0.030653 -0.20712 -0.039105 -0.026384 -0.026843 -0.118747 -0.046282 -0.06714 0.097876 -0.11768 0.01588 -0.012371 -0.11248 0.033799 -0.008324 -0.126367 -0.007461 -0.014939 0.00499 -0.112014 -0.063465 -0.019873 -0.036533 -0.125488 -0.157851 0.069061 0.046174 -0.030631 0.025291 0.025595 0.19191 -0.082706 -0.020826 0.015896 0.021275 0.031341 0.068412 -0.138541 -0.15659 -0.01352 -0.072288 0.109339 0.099734 -0.049894 -0.013783 0.0235 -0.06783 0.01125
3.7985 -1.082345 -4.582426 1.327267 -0.939029 -0.880345 2.582878 0.192085 0.933729 -5.657293 -1.916441 2.467584 0.449633 0.407017 -4.630371 -0.604018 -3.41299 0.29008 -1.614277 -2.756587 -2.714086 -0.93234 0.069074 3.818598 5.539465 -2.931416 1.378435 -0.195403 2.886121 -2.359724 0.419635 0.777901 -1.604804 1.945421 -0.395707 -0.023051 4.087409 -0.366329 -3.355318 -3.952479 -0.50245 -2.18653 3.143122 1.423101 -0.935942 3.468551 -0.549373 -2.844957 -3.095131 -0.789162 -1.201739 -2.336129 -0.953368 -0.622454 -2.972632 -2.495876 -1.663108 -1.168824 -1.361565 1.320152 2.4282 0.900589 0.48678 -1.736467 -2.532431 3.04529 -2.053399 -1.172469 -0.188753 2.497536 0.264387 0.919128 0.837184 -1.662081 -2.185893 -1.944731 3.785047 -1.521675 -2.033386 -0.201458 2.984529 0.574114 2.144407 -2.264628 0.40968 -2.835506 2.241655 1.827251 1.661657 1.329415 2.120007 -1.123921 -2.93135 0.178893 1.060819 6.466646 1.892551 -3.670969 -0.687867 0.674772
1.519526 1.445578 -1.609499 2.582747 2.460795 3.529971 0.431498 -0.524736 0.238502 0.565084 -2.150664 2.607871 -3.578636 0.22885 1.205379 0.400126 -2.365878 -2.228676 -0.500047 -1.958516 -2.734259 -2.028213 -0.339577 -2.726884 0.003785 -1.85554 -0.90189 1.042933 0.930181 0.561229 0.956561 0.220468 -1.219533 -0.188243 -0.649085 -0.117874 2.101841 -0.317004 1.300647 -1.49228 0.533457 -2.976113 -0.635474 -1.431524 -0.943268 0.543614 -2.072507 -1.004219 4.072807 -1.496014 2.612373 2.458477 -0.120651 0.418572 -2.53177 0.646754 2.04053 2.0667 -2.403623 -3.037353 -1.289071 1.269349 0.447478 0.512568 0.464348 -0.142416 -1.155552 0.32258 -0.986119 3.909852 3.839548 0.865499 -1.089316 -1.400134 0.517204 -3.398406 -0.576028 -0.612853 -0.573641 -1.979957 1.278503 1.159562 0.583915 -0.210028 0.851463 1.075476 2.276915 0.114312 2.2836 1.968815 1.899569 0.001135 -2.286771 -2.666814 -1.408445 1.975128 -0.085175 1.44887 -1.994305 2.796178
0.043959 -0.042065 0.152873 -0.063135 0.135731 -0.100213 -0.003591 -0.026148 -0.178461 -0.035774 0.086589 0.094657 -0.191567 0.037829 -0.09744 0.114892 0.048295 -0.050466 -0.153502 0.077609 -0.175845 0.031356 0.060312 0.019628 0.017147 -0.124694 0.016325 -0.051315 0.007539 -0.054975 -0.188742 0.009841 -0.016424 0.124583 -0.104404 -0.045225 0.074569 0.052698 0.007289 -0.102672 -0.039751 0.025302 -0.075179 0.009583 -0.165844 -0.051432 -0.135855 -0.064711 0.015192 -0.021816 -0.067496 -0.151776 -0.140047 -0.087647 0.041429 0.07968 -0.061375 -0.126014 0.151498 -0.108681 -0.179376 -0.057954 -0.032214 -0.220841 -0.098692 0.087904 -0.106605 -0.090893 0.154821 0.165072 0.117309 -0.057541 -0.051152 -0.006049 0.005311 -0.120906 -0.010085 -0.008964 -0.063421 -0.017369 -0.06455 -0.040576 0.138925 0.038011 -0.097767 -0.029411 -0.117423 0.114436 0.162926 0.059376 -0.027113 -0.08066 -0.008813 0.138763 -0.081257 0.041472 -0.054326 0.083569 0.069001 -0.084584
0.03743 -0.11176 -0.083567 0.17403 0.155158 -0.082429 -0.169193 -0.134679 -0.089849 0.014715 -0.142882 0.093097 0.029447 0.063455 -0.001174 0.167776 0.082809 -0.024947 0.07378 0.044449 -0.232399 -0.048715 0.130298 -0.048243 -0.06447 -0.188859 -0.212774 -0.009599 0.124788 -0.124758 -0.157989 -0.070119 0.056784 0.226702 -0.189777 -0.230807 0.155289 -0.145726 -0.010739 0.007573 -0.18992 -0.098218 0.046944 -0.047131 0.044041 -0.035562 0.043918 0.035719 -0.005861 0.11152 0.129706 0.039865 -0.051839 -0.089898 -0.064972 -0.018245 -0.015836 0.06125 -0.02144 -0.113695 -0.035567 0.062176 0.076041 -0.131089 -0.029987 0.057435 0.082699 0.128155 -0.026345 -0.071495 -3.86E-4 0.052103 0.017049 0.041441 0.028877 -0.080368 0.079094 -0.071626 -0.188833 -0.035872 -0.068654 0.046756 0.018171 -0.354861 0.119982 0.194915 0.069031 -0.041803 -0.061406 0.044532 0.053466 -0.035979 -0.158242 0.019417 0.169204 -0.027938 0.050125 -0.148731 -0.153636 0.019816
0.352905 0.550922 -1.128945 -0.511125 0.774489 1.405335 -0.371647 0.106012 -0.779785 -0.640302 -0.68578 1.570717 -0.712288 -0.706705 -0.789609 -0.045278 -1.599722 -2.840112 -0.089543 -1.158838 -1.862605 -0.62748 -0.063542 -0.468696 0.750564 0.033551 -0.772222 -0.188991 -0.163115 0.455978 0.038455 -0.779588 0.172303 -1.114448 -0.548246 -0.008155 1.66721 -0.744821 -0.15746 -2.668482 -0.304702 -0.905716 0.479063 0.151803 -0.94063 -0.044338 -0.906122 -0.456182 0.281891 0.268287 0.47007 0.628019 0.328428 1.471286 -2.345457 0.072073 -0.345477 -0.998199 -1.496897 -0.053061 0.351206 -0.934426 0.295591 0.07336 0.24092 0.486976 0.390085 -0.621556 0.375246 -0.02625 1.957847 1.014101 0.004675 0.08874 -0.900479 -0.462149 0.922254 1.355385 -1.048724 0.105897 1.254466 0.410718 0.321258 1.066395 -0.171761 -0.128774 0.315556 0.697301 -0.180925 0.555334 1.005586 -0.891677 -1.232923 -1.994189 -0.567812 0.204184 -0.947385 -0.051526 -0.987029 0.725141
-0.074937 0.093976 0.198684 -0.042318 -0.013842 -0.09912 -0.109468 -0.061929 -0.064327 0.089172 0.061786 -0.003903 0.066855 -0.08703 0.114102 0.261738 0.043086 -0.089404 0.265719 0.053005 0.008855 -0.067311 0.068327 0.033016 -0.036284 -0.037564 0.099957 -0.024146 0.034269 -0.214018 -0.114053 0.02103 0.002112 0.08753 0.021409 0.079675 -0.123601 0.072104 -0.1999 0.209893 -0.030048 0.223004 0.10637 -0.061677 -0.152455 0.011033 -0.049721 -0.317988 -0.072968 -0.00926 0.09456 -0.019782 0.058947 -0.203305 0.079084 -0.164514 -0.059931 -0.125152 -0.156995 -0.150325 0.228988 -0.073844 0.163403 -0.070304 -0.261498 0.012185 0.046563 0.098407 -0.116487 0.022511 0.051347 0.082897 0.136175 0.059728 -0.012412 -0.056864 -0.051684 0.093981 -0.31015 -0.141563 0.097527 -0.025663 0.001912 -0.015651 0.123885 0.03739 0.137355 0.057921 0.320132 -0.012152 -0.082293 -0.136143 0.171547 0.037309 0.037435 0.017064 0.170887 0.029992 0.033384 -0.110106
-0.38434 -0.570338 -3.334123 -0.990325 -0.281295 3.633702 1.320934 0.804616 -0.499895 -0.831205 0.460112 1.388349 -2.264975 3.215568 -3.90167 1.353361 -1.448904 -2.546085 -1.024352 -1.734034 -1.344124 0.93203 0.532723 0.23208 -0.507331 0.823317 0.659701 0.36019 1.191168 -0.162178 -0.263719 -1.148898 -0.733443 1.049014 -0.463284 0.424462 1.721949 -2.279087 -0.239497 -3.509027 0.274708 -0.478871 -0.254635 1.092364 -0.333634 -0.504492 -0.065145 -0.538987 0.565458 0.780359 -0.571438 2.952173 0.370658 -0.759209 -2.924849 1.720769 0.511283 1.62778 2.047539 0.727555 2.155394 -1.325505 -0.576841 2.155423 -1.025197 1.359344 -0.744288 -2.504187 -1.775349 1.348846 2.846446 1.640962 1.869469 1.38429 0.797755 -0.790083 2.739745 1.110482 1.051984 -1.114181 2.453474 -0.002451 -1.249565 3.986771 0.736882 -1.32782 1.044597 0.12676 2.039398 0.327395 0.179204 -1.66492 -0.55174 -2.138355 -3.629091 -1.09422 -3.320013 0.282001 -1.758182 -2.017416
-0.157175 -0.069485 0.110766 0.131713 -0.214241 0.020172 -0.162239 0.023314 -0.035425 0.145808 0.0454 0.091606 0.044515 0.003932 0.011234 0.124517 0.119771 0.207576 0.084175 0.024047 -0.28128 0.080864 0.297987 -0.054802 -0.182629 -0.09237 -0.008642 -0.016931 0.155205 -0.058039 -0.141646 -0.028304 0.038907 -0.050231 -0.421204 -0.103966 -0.021398 -0.048374 -0.181913 -0.112057 0.004753 0.121528 0.043894 0.119848 0.246029 -0.068287 -0.0545 0.077124 -0.060377 -0.047424 0.005207 -0.109575 0.113823 0.068919 0.053698 -0.094411 0.175076 -0.057505 -0.082715 -0.127094 0.101478 -0.25153 -0.009806 -0.168316 -0.116434 0.016646 0.227432 -0.039188 -7.3E-5 -0.107639 0.030187 0.002598 -0.058844 0.112253 -0.050775 -0.251287 -0.158693 0.119676 -0.076024 0.067803 -0.001303 0.02555 0.323918 -0.238118 0.121802 -0.083684 0.177321 0.027459 0.03031 0.090963 -0.188371 -0.107901 -9.65E-4 0.119414 -0.0582 -0.184464 -0.149669 0.018998 -0.037054 0.043528
0.022601 -0.023569 -0.032796 0.087274 -0.05525 -0.125805 -0.083429 0.080311 -0.125149 0.106256 0.148385 0.173177 -0.093971 0.08358 0.027163 0.115353 -0.101953 0.050322 -0.025861 0.084382 0.119449 0.053943 0.217961 0.255346 0.056731 0.080892 0.103907 -0.126235 -0.03431 -0.11038 0.045216 -0.077642 0.063682 -0.061189 -0.07606 0.003876 0.12885 0.087522 -0.015259 -0.05557 -0.093873 0.083331 0.246033 0.01806 -0.108965 -0.078381 0.026749 -0.005417 -0.036903 0.185242 0.123361 -0.142295 -0.162819 0.0646 0.013233 -0.052103 -0.133982 -0.061703 0.133131 0.004652 0.021199 -0.01708 -0.014907 -0.201404 -0.10884 -0.147331 0.07938 -0.101486 -0.013116 0.087015 0.139966 0.00774 -0.003155 -0.037629 0.020508 0.095254 -0.200411 -0.052059 -0.05269 0.070415 -0.106641 0.01191 0.059088 -0.030742 -0.112337 -0.187975 0.102966 0.118789 0.135369 0.065288 -0.086208 0.072004 -0.1489 0.095254 -0.071854 -0.078586 0.093914 -0.004491 0.120449 -0.127054
0.042073 -0.04842 0.19777 0.105992 -0.147167 -8.79E-4 0.035673 -0.2248 -0.011774 0.109034 0.121706 -0.075898 -0.021454 0.010515 0.083152 0.279004 0.005445 0.181972 -0.024128 0.215169 -0.071534 0.150165 0.133256 0.093808 -0.24995 -0.124576 0.043665 0.010737 0.083782 -0.256944 0.008616 -0.076191 -0.247966 0.165418 0.04838 -0.148447 0.169279 -0.196105 -0.237028 0.05749 -0.012047 0.170882 0.093254 0.101128 0.011619 -0.098392 -0.041343 0.239809 -0.144969 0.056826 0.060227 -0.035978 -0.160176 0.028136 0.041426 -0.0243 0.174787 -0.059005 0.108101 0.00292 0.184141 -0.060595 0.016423 -0.242279 -0.130339 -0.080119 0.056443 -0.104359 0.131527 -0.012953 -0.205221 0.151199 -0.083828 0.080973 0.131528 -0.080467 -0.062853 0.14609 0.149817 -0.062415 0.007214 -0.095099 -0.033119 -0.2174 -0.040931 -0.118067 0.013366 0.042482 -0.043211 -0.055878 -0.066733 -0.049178 0.016288 0.044974 -0.0985 -0.150254 0.160717 -0.011585 0.03681 -0.029117
0.744349 0.123291 -0.848139 -0.381039 0.333985 4.169088 3.859226 -1.921714 2.111273 1.134952 1.227218 0.537818 1.939384 -0.586129 0.19173 1.279308 0.002832 0.929545 -1.190768 1.851444 -3.073964 4.144522 -2.000784 -2.161983 3.285669 1.854434 0.572523 0.060183 -1.215921 -2.069122 1.750985 -1.81634 1.246876 1.039147 3.333945 -3.912397 0.495202 -0.264304 -0.801766 1.101822 -1.352791 -0.494615 -0.552731 -1.552886 -1.18361 -3.285911 -1.268379 2.143973 0.70146 -0.452438 2.113106 0.639318 -1.070393 2.374014 -1.825622 -3.18665 -0.808291 -0.372699 -0.041109 -2.596575 -2.88712 4.996323 -1.192566 -3.24996 -1.923826 1.446769 -0.37872 0.257785 -0.43111 2.302388 4.554473 0.553372 0.893298 -2.168113 -0.725571 1.836282 1.290398 -3.235257 -0.224548 0.755286 -2.747389 -3.72807 -2.832725 0.185193 1.083182 -1.783882 1.841679 1.300448 -1.780576 3.158461 1.436188 0.213896 -1.850151 0.271222 -2.916245 -2.301801 -0.303492 1.842364 -2.196419 -3.028467
-0.091942 0.183405 0.037327 -0.017277 -0.035479 0.042468 -0.002797 -0.143573 0.022942 0.107071 0.123919 0.162999 0.001042 -0.089377 0.021638 0.16429 0.125118 -0.066361 0.120039 0.049471 -0.004365 0.127504 0.148128 0.016127 -0.115398 -0.02411 -0.011015 0.187425 0.064843 -0.311508 0.012298 -0.130669 -0.05112 -0.04411 -0.009656 -0.086979 -0.100192 0.030087 0.031406 0.003388 -0.136685 0.144215 0.090308 0.185604 -0.065785 -0.096575 0.046745 0.064025 -0.101829 -0.065709 0.05584 -0.016514 -0.01115 -0.12858 -0.001071 -0.103436 -0.231293 -0.048364 -0.031928 -0.055394 -0.036302 0.011431 -0.003475 -0.084192 -0.02735 0.127462 0.049095 0.017547 -0.034712 -0.072446 -2.5E-5 0.010493 0.082108 0.023761 0.075143 0.095755 -0.051464 0.021523 -0.148118 -0.033283 -0.270334 -0.040059 0.064061 -0.049233 -0.080793 -0.039086 0.093585 -0.032036 -0.026846 -0.026492 -0.068366 -0.087295 -0.037631 0.158086 -0.112021 -0.201485 0.108903 0.003329 0.066934 -0.014053
-0.013663 -0.017904 -0.071069 -0.027412 -0.106277 -0.070689 0.0441 -0.065723 -0.01079 0.138118 -0.010105 0.046432 -0.062129 -0.027962 0.152809 0.006251 -0.00829 0.147524 -0.103551 -0.00816 0.071308 0.113974 0.102471 -0.008174 -0.161043 -0.065183 0.002317 -0.18834 0.018161 -0.012515 0.060593 -0.025239 -0.066279 -0.054458 -0.088463 -0.021271 0.082925 0.065061 0.068101 -0.001538 -0.153881 0.177298 0.18044 0.232386 -0.058677 -0.043418 0.089598 0.123697 -0.141886 -0.079594 0.120406 -0.092358 -0.034454 0.020755 0.097099 -0.083526 -0.08484 -0.007254 0.081385 -0.053535 0.092838 -0.045633 -0.00582 -0.133896 -0.116863 0.062812 -0.018595 0.044284 0.22196 -0.284501 0.085767 0.028283 0.009004 0.002828 -0.042202 -0.188489 -0.105119 0.013402 -0.151123 -0.016756 -0.165417 0.041837 0.081233 0.055275 0.096289 0.166944 0.143259 -0.074497 0.267854 -0.056319 -0.045625 0.071536 -0.032727 0.190066 -0.154213 -0.097282 0.011885 0.062398 0.130281 -0.103205
-0.047524 -0.056418 0.152426 0.164386 -0.068943 0.049205 -0.200131 -0.172014 0.015844 -0.097376 -0.129815 0.072003 -0.036051 0.388767 0.068266 -0.038304 0.0949 0.018618 0.094448 0.118131 -0.059074 0.003758 0.132824 0.164657 -0.109614 0.087625 -0.102257 0.07855 0.184949 0.017492 -0.027249 0.102367 -0.009004 0.078221 -0.107879 -0.248584 -0.127962 -0.148823 0.074154 -0.083384 0.015023 -0.273287 0.114582 -0.262055 0.025994 -0.014456 -0.169826 -0.29523 -0.045169 -0.059713 -0.083546 -0.239749 -0.095238 -0.156067 -0.019737 -0.059052 -0.172925 -0.03516 -0.101309 0.270739 -0.166443 0.0027 -0.110807 -0.047799 0.063499 0.002647 0.10562 -0.127266 -0.105035 0.069806 0.107506 0.079007 -0.001581 -0.093473 0.07171 0.374933 -0.055934 0.08382 0.066629 0.020428 0.064735 -0.049276 0.067481 -0.104993 -0.042289 0.107203 -0.109638 -0.036018 0.103351 0.287212 0.002522 0.082882 0.157033 0.21881 0.071961 -0.092656 -0.048382 0.003596 0.145041 0.084943
-0.025966 -0.056637 0.165595 0.820624 -0.425119 -1.176589 -1.725573 0.61513 0.438567 0.707473 0.997448 0.840914 1.318859 -0.509035 -0.2645 1.579253 0.960583 1.070968 -0.620193 0.354581 -0.185871 0.710008 0.353785 -0.476408 0.409561 0.524002 -0.111838 -0.988927 0.74107 -0.295548 -0.201829 0.77074 0.698114 -0.161894 -0.313841 1.465 -0.618377 -0.259052 -1.254831 -0.794596 -0.092722 -0.009603 -1.151242 -1.093966 1.485487 -0.05415 0.281742 -0.682222 -0.196409 -0.782464 -0.836719 0.301345 0.769555 -0.023937 0.630367 0.310479 -0.355257 -0.540824 1.802547 -0.380397 -0.094594 -0.957116 -0.224894 -0.200555 0.089861 -1.766101 0.033156 0.135579 -0.243572 -0.578421 -1.81877 -0.447695 0.453025 0.145216 -0.008573 -0.393596 -0.206387 -0.333782 0.723352 1.307637 0.272539 0.335494 1.051018 -0.71065 0.983972 -0.703448 -1.105488 -0.120774 0.385277 -0.65195 0.347027 -0.542757 0.380118 0.321953 -0.084963 -1.178873 0.189656 -0.537818 -0.771397 -0.74249
0.0 0.0 0.0 0.0 0.0 0.0 0.0 0.0 0.0 0.0 0.0 0.0 0.0 0.0 0.0 0.0 0.0 0.0 0.0 0.0 0.0 0.0 0.0 0.0 0.0 0.0 0.0 0.0 0.0 0.0 0.0 0.0 0.0 0.0 0.0 0.0 0.0 0.0 0.0 0.0 0.0 0.0 0.0 0.0 0.0 0.0 0.0 0.0 0.0 0.0 0.0 0.0 0.0 0.0 0.0 0.0 0.0 0.0 0.0 0.0 0.0 0.0 0.0 0.0 0.0 0.0 0.0 0.0 0.0 0.0 0.0 0.0 0.0 0.0 0.0 0.0 0.0 0.0 0.0 0.0 0.0 0.0 0.0 0.0 0.0 0.0 0.0 0.0 0.0 0.0 0.0 0.0 0.0 0.0 0.0 0.0 0.0 0.0 0.0 0.0
-0.105822 -0.099504 -6.1E-5 -0.037641 -0.094849 0.001514 0.029901 -0.064676 -0.00738 0.079685 0.118019 0.141888 0.110064 0.089232 0.078756 -0.001913 0.114622 0.312206 0.087776 -0.005747 -0.051885 0.093393 0.070225 0.079912 -0.173402 -0.019644 -0.088079 0.051892 0.124458 0.042917 -0.043074 0.088696 0.055531 0.077229 -0.122276 -0.078898 0.046315 0.026945 0.079311 -0.076046 -0.111879 0.056031 -0.09175 -0.081192 0.027639 0.105572 -0.076943 -0.166895 -0.104735 0.030607 0.045404 0.041094 -0.060058 -0.025054 0.209084 0.025625 -0.129525 -0.142385 -0.176097 0.072268 0.04495 -0.235614 0.048904 0.053232 0.017261 -0.191383 -0.002634 0.069229 0.120054 -0.246368 -0.081415 0.03288 -0.027501 -0.007807 0.019199 0.220149 -0.268194 -0.064196 -0.061396 -0.011917 -0.148986 -0.003776 0.057933 -0.162626 -0.001596 -0.117901 0.103493 0.024001 0.064105 0.073437 -0.211932 -0.025324 0.078885 -0.041096 0.090138 0.033101 -0.005923 -0.021627 0.057516 0.010749
2.986683 0.891048 0.502242 2.563102 -0.833594 1.074317 3.695644 -0.777531 2.188026 -0.699979 0.036443 0.733135 -1.432868 -0.891451 -1.142959 -0.942936 1.068958 -1.874863 -5.092594 -1.1966 -1.959903 -2.195483 -2.042068 -1.143233 -1.459129 -1.317735 2.335449 -2.434227 0.201016 -0.60309 3.022425 -0.350954 -0.742291 -3.692008 -0.428454 2.260322 1.299332 2.709176 1.349321 -0.696621 1.114271 -3.635821 0.008208 1.672507 -0.838007 2.333875 -2.054475 0.380345 1.490836 -0.726134 0.769087 3.405334 -1.16381 3.050478 -0.068498 -4.041586 4.555243 -0.814241 -1.668317 0.224789 -0.566141 -0.288359 0.917884 0.934006 -3.229766 1.334999 2.586487 0.072999 0.113326 0.865491 3.495866 2.934418 -0.434585 -2.448313 -1.514856 -0.37738 0.862876 1.158082 -2.049671 3.100108 -0.871714 -1.041083 -2.50899 0.427097 1.673651 2.875635 3.071153 2.417479 -1.666681 -0.917672 -0.608627 3.287783 -1.69514 -2.40585 -1.155071 1.198252 -1.330375 1.26239 -2.958205 2.412288
2.435781 0.100349 0.308449 3.152133 1.825135 5.043144 3.475524 1.030966 -0.034425 -0.654124 0.54443 1.85661 0.966298 0.552882 -3.802456 1.108151 -0.250147 -3.79877 -1.904833 -0.011453 -2.159244 -1.572273 0.732551 0.260713 -0.645201 0.187067 1.392596 -0.244902 1.131114 -0.728669 3.354901 -1.622406 0.818601 -3.344845 -0.890048 -2.218333 1.226071 3.380607 0.571719 -2.18929 1.393823 -1.89321 0.90535 -0.21635 1.300456 0.529849 -0.278674 -0.392318 1.942874 1.160389 1.082429 3.002813 -1.929275 -0.063759 -3.057961 0.757342 3.298706 -0.827257 0.491665 -2.297385 -1.09161 0.13502 0.61725 0.757817 1.588338 0.095699 -1.589534 -0.620415 0.900094 3.029701 5.348423 0.97465 1.26103 1.909403 -0.68424 -1.054519 -2.714854 2.056666 0.763454 0.435456 1.053121 0.26585 -1.053407 0.188019 1.656854 0.11074 1.51996 -0.017017 1.002859 0.300488 -0.510804 0.786016 -1.453753 -2.532027 -2.289254 1.557155 -1.175717 1.880744 -2.001581 3.864802
1.43129 -0.339106 -1.003863 -1.675982 -0.220252 1.474103 -0.138875 0.621327 0.127159 -1.800868 -0.699072 -0.978536 0.357308 -1.19667 -1.736805 -0.673161 -0.56586 -0.18368 -0.727143 -1.207169 -1.821597 -0.934856 1.323266 -0.357426 0.916561 2.597878 -0.806655 0.973597 -2.121005 -1.31179 0.862677 -0.556508 0.305226 -2.221695 0.157985 -0.552923 -1.277507 0.847111 1.163675 1.337632 0.767897 -1.311401 1.253211 0.750545 -0.527977 -1.807075 -0.345346 1.61503 -0.939016 0.139736 -0.162698 1.266582 0.835516 -0.211687 0.155806 -0.578906 0.887547 -0.221674 0.903191 -1.861231 -1.381911 1.82298 -0.389842 -0.072853 -0.335782 0.061171 -1.494569 0.387576 0.655264 -1.491172 1.894043 0.143715 -1.314191 1.236959 -1.471476 -3.775722 -1.600976 -0.624718 0.12197 0.491185 0.600591 1.694747 -0.177666 1.519033 0.495936 -0.556191 -1.100482 -0.078373 2.604267 0.812588 0.13358 2.424616 0.055289 -0.444914 0.653759 0.939265 -0.94202 0.868913 -0.694804 1.235896
0.074105 -0.146444 0.228501 0.007171 0.131324 0.08682 0.187224 0.162158 0.095958 -0.187497 -0.041485 0.08472 0.03655 0.142501 0.079381 0.163159 -0.165551 -0.085792 -0.066235 -0.173735 -0.016171 0.113537 0.199985 0.009495 0.186782 -0.06194 0.081643 0.126242 0.097041 -0.156974 -0.055219 -0.029844 0.119493 -0.056483 -0.239271 -0.197421 0.119839 -0.050158 0.126067 0.189621 -0.134534 -0.017843 0.1067 0.119839 -0.060704 -0.062101 0.001881 -0.015871 -0.12417 -0.194816 0.13012 0.019066 -0.141998 -0.034839 -0.16931 0.093132 -0.072259 -0.157908 -0.059764 -0.091188 -0.075386 -0.096239 0.035815 -0.22734 0.001195 0.002145 -0.244166 0.019022 -0.10149 -0.055995 0.070745 -0.096875 -0.001714 0.054813 0.143909 0.094266 0.187761 0.013183 0.105059 -0.028974 0.029342 -0.154683 -0.029637 -0.033394 -0.150826 0.084688 0.068953 0.120493 0.04429 -0.121641 -0.215088 -0.09875 -0.011332 0.082761 0.044459 -0.105065 -0.228603 0.036651 -0.029934 0.049592
0.034009 -0.12767 0.848137 0.23001 -0.301578 -0.198917 0.34888 0.257544 -0.098903 0.220668 0.91579 -0.663866 0.010453 0.596437 -0.011432 -0.27887 0.00652 0.46212 0.071923 0.837687 -0.720502 0.428985 0.276128 0.214173 0.184711 0.61084 0.734601 -0.320217 -0.501175 -0.958591 0.876741 -0.704065 -0.313439 -0.403858 0.255342 -0.185678 0.077485 -0.461994 -0.730587 -0.206844 0.571906 -0.203359 0.356747 -0.377563 0.149187 -0.187638 0.347207 0.215461 -0.277092 -0.086461 0.48397 -0.057953 -0.35917 0.580039 0.225205 -0.442764 0.027792 -0.31716 0.04721 0.443256 -0.077943 0.714154 -0.159753 -0.557294 -0.662051 -0.131695 -0.419151 -0.32298 -0.342586 0.482107 0.033083 0.430574 3.51E-4 0.522639 0.248375 0.30957 0.382347 -0.0658 -0.718124 0.059385 -0.560464 0.453463 0.008908 0.349133 0.31392 -0.319616 -0.129281 0.414258 0.017284 -0.098118 -0.749487 0.425761 -0.724437 3.0E-5 -0.464939 0.114015 0.223101 -0.189208 0.174354 -0.360773
-0.077885 -0.107392 -0.055501 0.055018 0.084623 0.013052 -0.191898 0.136653 -0.172429 0.223783 0.143972 0.079103 0.036474 0.083469 -0.089995 0.200205 0.204906 0.091441 0.100856 0.116842 -0.106028 0.15604 0.227183 -0.109091 0.004946 -0.122266 0.036822 0.041988 0.037819 6.83E-4 -0.041332 -0.218405 0.029037 -0.133051 -0.120366 -0.109215 0.036311 0.143882 -0.029043 0.077492 -0.082288 0.06483 -0.169847 0.048821 0.178329 0.050613 0.038609 -0.003486 -0.165658 0.102508 0.003695 -0.074353 0.042872 -0.152007 -0.059905 -0.115617 0.172435 -0.054524 0.018153 -0.030101 -0.066894 0.086649 0.108217 -0.009053 -0.134343 -0.215491 0.101731 -0.0212 0.050575 -0.008462 -0.106122 0.002476 -0.031095 -0.057213 0.239514 -0.060647 -0.06949 0.036622 0.034877 0.072043 -0.029828 -0.009318 0.019848 -0.106115 -0.019077 -0.107368 -0.086129 -0.009842 -0.055542 -0.013841 0.073133 -0.008921 -0.017718 0.045219 0.054859 -0.07795 0.046706 -0.045061 -0.091335 0.043627
0.014189 -0.008239 0.088965 0.176521 0.058134 -0.008503 0.034639 0.029214 -0.060149 0.112406 0.061123 0.039043 9.97E-4 -0.133159 0.106593 0.297088 -0.202723 0.162526 0.019477 -0.016479 -0.061395 -0.062584 0.166372 0.068918 -0.323934 -0.148554 -0.124192 -0.157525 -0.059055 -0.079956 0.085422 -0.104752 -0.176885 0.171127 -0.090198 -0.187546 -0.026457 -0.054914 0.057983 0.018189 -0.188967 0.078537 0.222729 0.151895 -0.014995 -0.113775 -0.048726 -0.003107 -0.07034 0.172827 0.154511 0.015389 0.082631 0.149779 -0.047888 0.006431 -0.046154 0.055539 -0.001075 -0.205588 0.02218 0.032836 0.115841 -0.055947 -0.010248 0.011781 0.037919 0.053186 0.096657 -0.057777 0.059636 -0.020035 0.153124 -0.087031 0.003704 0.012579 0.063373 0.121915 0.061008 -0.046316 0.001737 0.124148 0.021785 -0.089389 0.035976 0.040506 0.035327 0.179541 0.056667 -0.041727 -0.080251 -0.241141 0.04415 -0.010793 0.0212 -0.054418 -0.065278 -0.061479 -0.068346 0.011463
0.135717 -0.065497 0.02281 0.048052 -0.011836 -0.09375 0.0016 -0.035631 -0.026011 -0.016446 0.147576 0.093555 -0.033806 0.001119 0.136647 0.086354 -0.119676 0.293363 0.140583 -0.140273 0.092999 0.105554 0.007309 -0.047042 -0.138044 -0.144529 -0.090671 0.023305 0.042831 -0.089424 -0.009516 -0.050607 -0.11973 0.043476 -0.110033 -0.070775 0.210602 -0.044688 0.047415 0.07877 -0.058849 0.123783 -0.083304 0.146343 -0.016713 -0.014302 -0.083131 -0.029171 -0.052871 0.027786 -0.056479 -0.019677 -0.067362 0.060823 0.051262 -0.094924 0.099503 0.030649 0.106531 -0.086298 0.023543 -0.100214 0.036796 -0.033757 -0.018593 0.054249 -0.041703 -0.048402 0.151764 -0.052203 -0.028287 0.059596 0.03622 0.059919 0.042116 -0.083798 0.077838 -0.039275 -0.10326 -0.058138 -0.047792 -0.041267 0.071076 -0.034964 0.077873 0.115244 -0.016893 -0.059243 0.145701 -0.018047 -0.084552 -0.05323 0.136246 0.034465 0.051731 -0.033088 0.142559 -0.100828 -0.127029 -0.153227
-0.091942 0.183405 0.037327 -0.017277 -0.035479 0.042468 -0.002797 -0.143573 0.022942 0.107071 0.123919 0.162999 0.001042 -0.089377 0.021638 0.16429 0.125118 -0.066361 0.120039 0.049471 -0.004365 0.127504 0.148128 0.016127 -0.115398 -0.02411 -0.011015 0.187425 0.064843 -0.311508 0.012298 -0.130669 -0.05112 -0.04411 -0.009656 -0.086979 -0.100192 0.030087 0.031406 0.003388 -0.136685 0.144215 0.090308 0.185604 -0.065785 -0.096575 0.046745 0.064025 -0.101829 -0.065709 0.05584 -0.016514 -0.01115 -0.12858 -0.001071 -0.103436 -0.231293 -0.048364 -0.031928 -0.055394 -0.036302 0.011431 -0.003475 -0.084192 -0.02735 0.127462 0.049095 0.017547 -0.034712 -0.072446 -2.5E-5 0.010493 0.082108 0.023761 0.075143 0.095755 -0.051464 0.021523 -0.148118 -0.033283 -0.270334 -0.040059 0.064061 -0.049233 -0.080793 -0.039086 0.093585 -0.032036 -0.026846 -0.026492 -0.068366 -0.087295 -0.037631 0.158086 -0.112021 -0.201485 0.108903 0.003329 0.066934 -0.014053
0.146208 0.200658 0.086965 0.14266 -0.06568 0.075487 0.042058 -0.070462 -0.057553 0.080862 0.03267 -0.081682 -0.10842 -0.188563 -0.068229 -0.069369 -0.293211 -0.012514 -0.09424 -0.204957 -0.041407 -0.168425 0.115414 0.116417 -0.077647 0.23282 -0.079879 -0.011044 0.299685 -0.209392 -0.181543 -0.012554 0.195888 0.218679 -0.151993 -0.015494 -0.052576 -0.188732 0.186366 0.07534 -0.138711 0.230859 0.221838 -0.291637 -0.00569 -0.084367 -0.209569 -0.070135 -0.311881 0.018116 -0.045494 -0.039066 -0.163774 -0.043202 -0.183124 0.079179 -0.133066 0.099117 0.188969 -0.126784 -0.153197 -0.057019 0.033339 -0.032745 0.047407 -0.098853 0.125437 0.057777 0.116357 0.01192 -0.159338 -0.037672 0.090684 0.043139 -0.194764 -0.052681 -0.088448 0.266905 0.102961 0.188804 -0.146071 0.23897 -0.039335 -0.157309 0.125853 0.083146 -0.021157 -0.207619 0.23662 0.165877 -0.013006 0.069808 0.063459 -0.048349 0.206074 0.208656 -0.021807 0.255143 0.007927 0.09966
0.088818 -0.061311 -0.111663 0.097393 0.045691 -0.010961 -0.21572 0.004071 -0.166896 0.06866 -0.079494 0.159545 0.002996 0.003731 0.063833 0.192101 -0.043492 0.097387 -0.102628 -0.110666 0.084476 0.162951 0.349787 0.156469 -0.117455 -0.155383 0.079135 0.080612 0.192915 -0.191564 -0.129325 -0.062331 -0.083861 0.059941 0.029485 0.076688 0.198913 0.061143 0.024111 -0.260808 -0.007891 -0.212778 0.027135 0.060872 0.18015 0.153644 -0.029493 -0.206549 0.011779 -0.105395 0.217456 -0.149009 0.030375 -0.02184 0.09967 -0.04111 -0.213161 0.106849 -0.014084 -0.103095 -0.119891 -0.028264 -0.152488 -0.034396 -0.012373 0.083143 -0.080539 -0.059996 0.181946 0.140828 0.054666 -0.050643 0.024971 -0.094375 0.004006 -0.023425 -0.122179 -0.098369 -0.024194 -0.201302 -0.140878 -0.071994 0.025133 -0.111348 -0.191138 -0.098934 -0.071546 0.115754 0.05669 0.023883 -0.049307 0.154766 -0.092998 0.117273 0.070254 0.068456 0.035118 0.138621 0.07848 0.009706
-0.041077 -0.046971 0.12257 -0.040869 -0.082339 -0.073433 0.03466 0.022263 -0.168397 0.066255 -0.011146 0.060876 -0.130089 0.050535 -0.003479 0.17541 -0.041009 0.2033 0.038303 0.064522 -0.164091 0.174974 0.130191 0.049081 -0.108982 -0.050347 0.039878 0.064941 0.03257 -0.228331 0.135591 -0.074348 -0.068179 0.062799 -0.117356 -0.078491 0.00313 0.127379 0.134381 -0.010967 -0.169136 -0.04402 -0.05013 -0.035006 0.013893 -0.04264 0.119254 -0.043959 0.101737 -0.002023 0.164761 -0.065662 -0.184098 -0.07635 -0.095084 -0.099496 -0.014413 0.00761 0.055457 -0.124257 0.108216 0.037334 -0.141402 -0.278608 -0.139197 -0.073526 0.04865 0.094266 0.001292 -0.047586 0.112574 0.007568 -0.055103 0.031144 0.068608 -0.143775 -0.193248 -0.059545 -0.02459 -0.030364 -0.045168 0.243924 0.054219 -0.061257 0.160239 -0.077431 0.171155 0.04903 0.342964 0.041425 -0.042881 0.009159 -0.175121 0.026866 -0.086331 0.118966 0.100929 -0.095159 -0.101371 -0.069956
-0.088681 0.023825 0.099192 0.067894 -6.33E-4 -0.088254 -0.220084 -0.114151 0.068998 0.042981 0.024034 0.086697 -0.133167 -0.02558 -0.023883 0.010089 -0.115978 -0.017936 0.262914 0.001188 0.139901 -0.049602 0.185917 0.092181 -0.043155 0.122692 0.088739 -0.115772 0.106547 0.131176 0.130564 -0.001573 -0.06654 0.021553 -0.003792 0.062549 -0.042897 0.076226 0.169486 0.088912 -0.001253 0.37483 0.091615 -0.155038 0.134274 -0.161149 0.061059 0.03674 -0.332978 -0.020457 0.021456 -0.069825 0.293665 -0.068034 -0.054043 -0.142045 0.164825 -0.010158 -0.082105 0.152899 0.031814 -0.081164 -0.106989 -0.005867 -0.177456 0.099321 0.119636 -0.040935 -0.191776 -0.061743 -0.06616 -0.117537 -0.117831 -0.003724 -0.01094 -0.164583 0.036709 -0.100986 0.160627 -0.094017 -0.024119 -0.042157 0.141973 0.116492 -0.113997 0.119173 0.138433 -0.018683 -0.186791 -0.143256 -0.041499 -0.002421 0.079106 -0.01527 -0.057079 -0.046294 -0.051489 -0.133264 0.017781 -0.058659
-0.05739 0.083862 -0.059129 0.104623 -0.034739 -0.110533 -0.008177 -0.09861 0.031824 -0.003593 -0.035665 0.118391 -0.097722 -0.12287 0.049304 0.213995 -0.098618 0.158292 -0.012209 0.048933 0.075178 0.132461 0.062628 -0.041708 0.031766 0.022115 -0.047516 0.052626 -0.103886 0.164863 0.011226 0.055899 -0.013633 0.184695 -0.05411 -0.056877 0.093954 0.040765 -0.11576 0.069928 -0.200197 -0.101876 -0.012222 -0.133743 -0.0394 0.016092 -0.064518 0.127605 -0.070978 0.120005 0.242616 0.001093 -0.059743 0.009455 -0.06102 -0.144939 -0.004075 0.065205 -0.123068 -0.088128 0.053845 -0.015431 0.050303 -0.098023 -0.153158 0.066349 0.092201 0.022474 0.034728 0.072464 0.1451 0.088503 0.164743 0.083971 -0.002862 -0.012729 0.010108 0.076165 -0.068666 -0.065846 0.094272 0.179615 0.090158 -0.140031 -0.309548 -0.071145 0.197202 0.104468 -0.048893 0.092496 0.054391 -0.061848 -0.013662 0.043592 -0.031029 -0.113577 0.151853 -0.090575 -0.021193 0.051677
-0.155016 -0.068421 -0.039482 -0.020588 -0.105346 0.088809 -0.198271 -0.071814 -0.029185 0.032766 0.006626 0.177866 0.097445 0.075477 0.019226 0.119646 0.009574 0.107688 -6.92E-4 0.097243 -0.133165 0.059705 0.117529 0.010082 -0.101165 -0.203563 0.104029 0.055067 -0.03318 -0.15414 -0.095998 -0.09209 -0.002233 0.048493 -0.075033 -0.238226 0.037046 -0.011323 -0.005668 0.110324 -0.046797 0.207513 0.030575 0.145349 -9.5E-5 -0.164211 -0.075671 0.159919 0.013025 0.069715 0.029459 0.021288 -0.05784 0.067322 0.085667 -0.159834 -0.054518 -0.033121 -0.028793 -0.192191 0.129052 -0.232005 0.01524 -0.216924 -0.039274 0.074062 0.105693 0.096967 0.09038 -0.12832 -0.027068 0.125513 0.032996 -0.087469 0.071876 -0.102309 -0.154435 -0.176832 0.095866 0.056426 0.070736 0.28552 0.078951 -0.112899 0.159539 0.097507 0.079623 -0.134092 0.174297 0.055928 0.004374 0.106243 -0.042314 0.172871 -0.072481 0.055126 0.001135 9.68E-4 -0.021373 -0.154567
0.036516 -0.017106 -0.012625 -0.110259 -0.058703 -0.07175 -0.00426 -0.131734 -0.17749 0.038933 -0.060178 0.147241 0.043538 -0.146855 -0.259103 0.238953 0.030855 0.017162 0.045796 -0.054197 -0.051733 0.127415 0.054889 -0.012925 -0.102312 0.033884 0.031345 -0.052135 -0.024182 -0.040765 -0.151597 -0.038209 -0.108257 0.05294 -0.241157 0.035253 0.045651 -0.070801 0.105832 0.039027 -0.066623 0.144984 -0.065799 0.083979 -0.083561 -0.141144 -0.113824 0.103352 -0.268195 0.14047 0.018391 -0.074496 -0.007179 -0.094198 -0.160231 -0.005318 -4.73E-4 0.001548 0.061552 -0.13544 0.014767 -0.087623 -4.07E-4 -0.213449 -0.013584 0.130976 0.053651 -0.025226 0.125211 0.083925 -0.028544 -0.030039 0.039968 -0.079752 -0.018216 -0.04572 -0.048005 -0.056497 -0.205491 -0.038741 0.067133 0.18957 0.007287 -0.13699 -0.05781 0.117331 -0.044041 0.139468 0.208917 0.163011 -0.011396 0.121648 -0.07081 0.029104 -0.103234 0.01825 0.070253 -0.101864 -0.06658 -0.024084
0.4836 -0.128125 0.295835 -1.436213 -1.639341 -1.712583 -2.126432 0.286431 1.930541 1.333684 0.072447 0.57341 2.303689 2.033355 0.020388 -0.666229 0.567236 3.124451 -0.818145 2.384757 1.698554 1.001617 1.758234 0.124408 0.516346 1.63175 1.691278 -0.507115 -0.013527 -1.875775 -0.716911 0.579828 0.77039 1.160049 -1.426072 2.516037 0.932834 2.876371 1.517209 1.003748 0.618956 -0.062342 -0.122991 -1.734022 4.311615 -0.719804 2.921138 -0.934823 1.704553 0.6725 0.772547 -1.883585 -0.456774 0.416637 0.21963 -2.511046 -0.990534 -3.619963 -1.695539 1.392565 3.978896 -1.702341 -0.627503 0.467952 0.411751 1.224482 1.688078 0.283666 -0.006506 1.811484 -4.355505 0.999936 -0.590073 2.517243 1.210404 -2.851489 1.771709 -0.063442 2.796036 3.533809 1.444619 1.828075 2.568061 -1.501956 -0.753658 1.229794 3.336126 0.006691 -1.217598 0.326594 -0.029574 0.837826 -1.362732 -0.973868 -2.160141 -0.27708 3.165882 0.074289 -1.264699 0.631474
0.352905 0.550922 -1.128945 -0.511125 0.774489 1.405335 -0.371647 0.106012 -0.779785 -0.640302 -0.68578 1.570717 -0.712288 -0.706705 -0.789609 -0.045278 -1.599722 -2.840112 -0.089543 -1.158838 -1.862605 -0.62748 -0.063542 -0.468696 0.750564 0.033551 -0.772222 -0.188991 -0.163115 0.455978 0.038455 -0.779588 0.172303 -1.114448 -0.548246 -0.008155 1.66721 -0.744821 -0.15746 -2.668482 -0.304702 -0.905716 0.479063 0.151803 -0.94063 -0.044338 -0.906122 -0.456182 0.281891 0.268287 0.47007 0.628019 0.328428 1.471286 -2.345457 0.072073 -0.345477 -0.998199 -1.496897 -0.053061 0.351206 -0.934426 0.295591 0.07336 0.24092 0.486976 0.390085 -0.621556 0.375246 -0.02625 1.957847 1.014101 0.004675 0.08874 -0.900479 -0.462149 0.922254 1.355385 -1.048724 0.105897 1.254466 0.410718 0.321258 1.066395 -0.171761 -0.128774 0.315556 0.697301 -0.180925 0.555334 1.005586 -0.891677 -1.232923 -1.994189 -0.567812 0.204184 -0.947385 -0.051526 -0.987029 0.725141
0.0 0.0 0.0 0.0 0.0 0.0 0.0 0.0 0.0 0.0 0.0 0.0 0.0 0.0 0.0 0.0 0.0 0.0 0.0 0.0 0.0 0.0 0.0 0.0 0.0 0.0 0.0 0.0 0.0 0.0 0.0 0.0 0.0 0.0 0.0 0.0 0.0 0.0 0.0 0.0 0.0 0.0 0.0 0.0 0.0 0.0 0.0 0.0 0.0 0.0 0.0 0.0 0.0 0.0 0.0 0.0 0.0 0.0 0.0 0.0 0.0 0.0 0.0 0.0 0.0 0.0 0.0 0.0 0.0 0.0 0.0 0.0 0.0 0.0 0.0 0.0 0.0 0.0 0.0 0.0 0.0 0.0 0.0 0.0 0.0 0.0 0.0 0.0 0.0 0.0 0.0 0.0 0.0 0.0 0.0 0.0 0.0 0.0 0.0 0.0
0.102413 0.135426 0.040687 -0.146626 -0.159832 0.008729 0.003148 -0.087992 -0.122973 0.301326 0.052093 0.139445 0.039637 0.043402 -0.188189 0.121328 0.010128 0.074732 0.127131 0.194968 -0.094151 -0.021794 0.135063 0.018036 -0.153539 -0.231613 -0.036197 0.088945 -0.157446 -0.139416 -0.118021 -0.050989 -0.021219 0.020628 0.040918 -0.006867 0.08886 0.111204 0.106759 -0.133524 0.152992 0.059729 0.019945 -0.216987 -0.113488 -0.031154 -0.259488 -0.238606 -0.059047 -0.14785 0.049294 -0.025649 0.231034 -0.191307 0.133486 0.022728 0.176112 0.033427 0.112747 -0.057271 0.005899 -0.407468 0.145645 -0.25277 -0.006707 -0.151054 -0.09448 0.159609 0.056922 -0.047374 0.096554 -0.213706 -0.059042 -0.100775 -0.121598 -0.053996 0.126066 0.134812 -0.117338 -0.095294 0.011719 0.201949 -0.212304 -0.028178 0.276178 -0.028878 0.057103 -0.086138 0.278203 -0.141998 0.206955 -0.180686 0.193979 0.2052 0.015845 0.390994 -0.352313 -0.081009 0.125774 0.082247
-0.11719 0.157112 -0.014117 -0.088458 -0.080283 0.118121 -0.031509 -0.018573 -0.083695 0.070928 0.089856 0.085562 0.01686 -0.109276 0.14001 0.040275 -0.128641 0.025602 -0.042511 -0.070822 -0.095003 0.099692 0.143652 0.141249 -0.040176 0.080077 -0.08681 0.030607 -0.020226 0.142357 0.07923 0.088488 -0.322635 0.060545 0.157514 -0.083109 0.042134 0.069799 0.002264 -0.247601 -0.0496 -0.088127 -0.00728 0.14979 -0.12509 -0.133064 -0.160255 0.02237 -0.08645 0.070527 0.143149 0.137326 -0.054762 0.137942 -0.195493 -0.06551 -0.154348 0.135263 -0.161696 -0.042704 -0.006986 0.099685 0.061137 -0.044457 -0.059555 0.216352 0.054275 -0.015218 0.045034 -0.014972 -0.007714 -0.012673 0.066129 0.02302 -0.013105 0.013703 -0.197739 0.021511 0.056039 -0.097501 -0.128551 0.359602 0.084534 -0.132362 -0.049248 0.040423 -0.009948 0.066171 0.073117 -0.121229 -0.056422 0.103031 -0.047446 -0.131591 -0.061782 0.034015 -0.026256 0.001815 -0.010916 0.008569
-0.205367 0.067393 0.068435 0.189009 -0.137026 -0.123786 -0.041079 -0.077717 -0.130616 0.247401 0.244771 0.012678 0.00995 -0.115428 -0.09318 0.121482 0.061645 0.085199 -0.024016 0.048494 0.131149 0.044642 0.0736 -0.021492 -0.046464 0.057026 0.047001 0.145361 0.064209 0.109837 -0.199547 -0.079771 0.087179 0.172733 -0.038087 0.149527 -0.040555 0.05946 0.052489 0.303811 -0.061536 0.430524 0.084402 0.100872 -0.080772 -0.046597 -0.053895 -0.073495 -0.006515 0.101345 0.306322 -0.012918 -0.130879 -0.098465 -0.044608 -0.016312 0.039363 0.004919 -0.101404 -0.011946 0.118399 0.197799 0.076515 0.046814 0.25701 0.087715 0.172339 -0.161081 0.027578 -0.061642 -0.100528 0.102829 -0.196709 -0.154279 -0.116277 0.094386 -0.236215 -0.205513 -0.093494 0.031315 0.0077 0.028297 -0.172988 -0.075744 0.046058 -0.100091 0.055335 -0.040069 0.137123 -0.047547 -0.136039 0.027831 -0.09232 -0.018621 0.045208 0.032823 0.032162 0.102488 0.078781 -0.179824
0.547472 -0.546431 -0.171574 -1.170703 -0.735744 0.307968 -0.165127 -0.687631 1.166229 -1.036227 2.21095 -1.977874 1.117657 0.786371 -2.822622 -1.042907 -1.259314 -0.577958 -2.97302 3.327046 -3.272824 3.997465 0.694129 -0.742907 3.783531 -0.293078 1.990199 4.254129 -2.076309 -0.677489 3.818246 0.700814 1.210333 -3.830618 1.766463 -1.021344 -0.839714 0.600247 -0.47048 0.277331 -0.788322 -3.76968 0.674375 0.620284 -0.908839 2.041321 2.458712 2.380119 0.391342 2.481892 4.551153 2.670301 -1.044658 1.618795 -1.526303 -3.687973 2.72718 0.807452 0.307679 0.174716 -3.1927 0.502724 3.586803 -0.823028 0.564988 -2.425731 -0.160065 -2.689758 -0.429518 0.649262 2.822703 0.572216 1.430898 -0.777544 -0.420787 1.252981 0.161266 -2.892447 -1.878877 0.058522 -1.609815 0.29552 -0.117169 -1.144573 1.66522 -1.391517 0.346366 3.53426 0.816998 -0.195205 -0.677872 1.454161 1.120074 0.07328 -3.180565 -0.526855 0.162873 0.799355 0.772764 -0.802761
0.041521 -0.094551 0.254224 0.196826 -0.063005 0.143498 -0.024278 -0.117672 -0.136981 0.121399 0.137994 0.202595 -0.040113 -0.172078 0.089382 0.121518 -0.034268 0.24257 9.56E-4 0.01645 0.029009 0.122174 0.24183 -0.115716 -0.101383 -0.019544 -0.082532 -0.031896 0.012332 -0.049164 -0.001236 -0.212041 0.0509 -0.056934 -0.086268 -0.111156 0.28186 -0.022718 0.104901 0.11125 -0.146877 0.064133 0.038516 0.044244 -0.181847 0.010003 0.154673 0.031687 -0.235052 0.088136 -0.021119 0.025051 -0.146764 -0.004051 -0.02617 -0.086966 -0.077997 0.002726 0.161426 -0.082626 -0.043226 -0.053245 -0.086456 -0.139068 -0.117928 -0.014975 0.104689 -0.079801 -0.023993 -0.0171 0.033395 0.165615 0.032343 -0.00593 0.01398 -0.116829 -0.086425 -0.061299 -0.0398 0.146232 0.020922 0.235194 0.034827 -0.107373 0.090383 -0.094679 0.036239 0.06252 0.263945 -0.062003 0.110807 -0.079017 -0.200186 0.007263 0.027888 -0.020928 0.185095 0.008028 -0.131801 0.084576
-0.077885 -0.107392 -0.055501 0.055018 0.084623 0.013052 -0.191898 0.136653 -0.172429 0.223783 0.143972 0.079103 0.036474 0.083469 -0.089995 0.200205 0.204906 0.091441 0.100856 0.116842 -0.106028 0.15604 0.227183 -0.109091 0.004946 -0.122266 0.036822 0.041988 0.037819 6.83E-4 -0.041332 -0.218405 0.029037 -0.133051 -0.120366 -0.109215 0.036311 0.143882 -0.029043 0.077492 -0.082288 0.06483 -0.169847 0.048821 0.178329 0.050613 0.038609 -0.003486 -0.165658 0.102508 0.003695 -0.074353 0.042872 -0.152007 -0.059905 -0.115617 0.172435 -0.054524 0.018153 -0.030101 -0.066894 0.086649 0.108217 -0.009053 -0.134343 -0.215491 0.101731 -0.0212 0.050575 -0.008462 -0.106122 0.002476 -0.031095 -0.057213 0.239514 -0.060647 -0.06949 0.036622 0.034877 0.072043 -0.029828 -0.009318 0.019848 -0.106115 -0.019077 -0.107368 -0.086129 -0.009842 -0.055542 -0.013841 0.073133 -0.008921 -0.017718 0.045219 0.054859 -0.07795 0.046706 -0.045061 -0.091335 0.043627
1.560996 0.842868 -0.966121 0.794535 0.732082 2.167424 0.982662 0.057444 0.504819 0.07841 0.055279 1.416647 -0.670558 0.122239 -1.875473 -0.339444 -1.661959 -1.985793 -0.005729 -2.592115 -2.183448 0.044516 0.671895 -0.589479 0.827514 1.432932 1.133599 0.800224 0.356391 -1.617423 1.243533 -0.771712 1.46062 -1.283942 -0.283672 -0.793244 2.250382 0.636489 -0.035825 -2.112469 -0.960024 -2.532577 1.013875 -0.496549 -0.535743 1.359858 0.125133 -0.377994 0.914883 0.328853 0.713591 1.260942 -0.948324 1.504832 -1.93683 0.311228 0.965607 -1.013595 0.329382 -0.198887 0.96078 -0.013681 0.350227 0.828392 -1.894402 -0.039104 0.283785 -0.554694 -1.197001 0.540337 2.851685 1.269162 -1.080219 0.093043 0.787903 -0.091276 2.31099 1.354835 -1.181959 0.872145 0.826596 0.712391 -0.103207 1.442596 -0.009761 -0.491948 1.238818 0.369032 -0.415171 1.980595 2.066964 0.180408 -0.553874 -1.180511 -2.075199 0.329212 -1.398948 0.834816 -1.169907 1.291362
1.519526 1.445578 -1.609499 2.582747 2.460795 3.529971 0.431498 -0.524736 0.238502 0.565084 -2.150664 2.607871 -3.578636 0.22885 1.205379 0.400126 -2.365878 -2.228676 -0.500047 -1.958516 -2.734259 -2.028213 -0.339577 -2.726884 0.003785 -1.85554 -0.90189 1.042933 0.930181 0.561229 0.956561 0.220468 -1.219533 -0.188243 -0.649085 -0.117874 2.101841 -0.317004 1.300647 -1.49228 0.533457 -2.976113 -0.635474 -1.431524 -0.943268 0.543614 -2.072507 -1.004219 4.072807 -1.496014 2.612373 2.458477 -0.120651 0.418572 -2.53177 0.646754 2.04053 2.0667 -2.403623 -3.037353 -1.289071 1.269349 0.447478 0.512568 0.464348 -0.142416 -1.155552 0.32258 -0.986119 3.909852 3.839548 0.865499 -1.089316 -1.400134 0.517204 -3.398406 -0.576028 -0.612853 -0.573641 -1.979957 1.278503 1.159562 0.583915 -0.210028 0.851463 1.075476 2.276915 0.114312 2.2836 1.968815 1.899569 0.001135 -2.286771 -2.666814 -1.408445 1.975128 -0.085175 1.44887 -1.994305 2.796178
0.013683 -0.027082 -0.049429 -0.164019 -0.068441 -0.052374 0.013584 -0.230513 -0.139737 0.011332 -0.034287 0.043275 -0.104441 -0.059585 -0.144327 0.15159 -0.199089 0.265243 0.093994 0.046412 -0.213191 0.166091 0.155057 0.015059 -0.259458 -0.103969 0.013618 -0.30088 0.208328 0.048578 -0.041584 -0.102957 -0.203879 0.131193 -0.294493 -0.077305 -0.087752 -0.00229 -0.023654 0.034289 -0.106168 0.211892 -0.030946 -6.83E-4 0.057372 -0.025386 0.051662 -0.274573 -0.029561 0.130284 -0.077353 -0.111112 0.121677 -0.033296 0.199571 0.089974 -0.031271 -0.106098 -0.089963 -0.061327 -0.008646 -0.074122 0.112546 -0.147447 -0.07254 0.057127 0.113341 -0.020464 0.165298 -0.02867 -0.12317 0.035052 -0.023503 -0.005779 -0.03247 -0.184553 0.132142 0.142998 -0.018996 0.021382 0.063652 0.02674 -0.063812 -0.185855 -0.121509 0.305112 -0.08336 0.110717 -0.037875 -0.002714 -0.171015 -0.038846 -0.067151 -0.063431 0.084236 -0.091038 -0.044029 -0.099293 -0.079153 0.030298
-0.075059 0.015857 -0.009738 0.136176 -0.017389 -0.09928 0.011682 -0.108098 -0.097083 0.157927 0.059731 -0.046775 -0.115808 -0.00372 -0.052202 0.13688 -0.231722 -0.066988 -0.123808 0.116205 -0.129876 -0.038161 -0.096571 0.09547 0.048392 0.12219 0.233799 -0.087647 -0.084781 -0.114005 0.0218 0.015673 -0.012007 0.002115 -0.185503 -0.056082 0.039911 0.065533 -0.108886 -0.014507 0.132495 0.088317 0.123396 0.148328 -0.001286 -0.062762 0.06976 0.225577 0.064326 0.093647 -0.163119 -0.150659 0.102991 0.069065 -0.016205 0.051654 0.182162 -0.0875 0.0319 -0.101751 0.072819 0.092736 -0.050048 0.009198 0.042227 -0.009638 0.043121 -0.003846 -0.085168 0.224975 0.112944 0.056894 -0.054762 0.014735 -0.003208 0.026735 -0.074041 0.019421 0.002757 -0.033704 0.126268 0.112384 -0.064551 -0.047897 -0.056899 -0.042481 -0.096786 0.13469 0.085216 -0.126533 -0.044192 0.057561 -0.225999 0.049232 -0.040652 0.020918 -0.023948 -0.036409 0.114822 -0.172347
2.986683 0.891048 0.502242 2.563102 -0.833594 1.074317 3.695644 -0.777531 2.188026 -0.699979 0.036443 0.733135 -1.432868 -0.891451 -1.142959 -0.942936 1.068958 -1.874863 -5.092594 -1.1966 -1.959903 -2.195483 -2.042068 -1.143233 -1.459129 -1.317735 2.335449 -2.434227 0.201016 -0.60309 3.022425 -0.350954 -0.742291 -3.692008 -0.428454 2.260322 1.299332 2.709176 1.349321 -0.696621 1.114271 -3.635821 0.008208 1.672507 -0.838007 2.333875 -2.054475 0.380345 1.490836 -0.726134 0.769087 3.405334 -1.16381 3.050478 -0.068498 -4.041586 4.555243 -0.814241 -1.668317 0.224789 -0.566141 -0.288359 0.917884 0.934006 -3.229766 1.334999 2.586487 0.072999 0.113326 0.865491 3.495866 2.934418 -0.434585 -2.448313 -1.514856 -0.37738 0.862876 1.158082 -2.049671 3.100108 -0.871714 -1.041083 -2.50899 0.427097 1.673651 2.875635 3.071153 2.417479 -1.666681 -0.917672 -0.608627 3.287783 -1.69514 -2.40585 -1.155071 1.198252 -1.330375 1.26239 -2.958205 2.412288
2.530173 0.327177 0.044399 2.625334 0.517888 3.557013 2.451318 1.203172 0.111454 -0.877836 0.993505 0.925239 1.70411 0.184584 -3.344441 1.315561 -0.223449 -2.33738 -2.700772 -0.177901 -1.208876 -0.974611 0.664627 0.037142 -0.411572 -1.077825 -0.024273 -1.794378 -0.79838 -0.926177 3.292136 -1.096174 0.976798 -1.896207 -1.609797 -1.230844 0.232738 2.949578 -0.057924 -1.08101 1.370068 -0.923634 0.013831 -0.366606 1.583532 1.295864 0.295803 -0.518726 2.034311 1.638716 1.043836 2.014617 -1.517668 -0.761905 -2.216174 -0.119334 3.167721 0.564994 0.454407 -1.398431 -0.704063 0.182806 0.235055 0.009481 2.114973 0.423103 -0.915837 0.320128 -0.302114 1.741244 4.241235 1.532705 0.087395 1.733089 -1.914919 -1.555496 -2.553138 1.728217 0.554317 -0.161995 -0.15281 1.367703 -2.754788 0.402091 1.267373 0.151077 2.107006 0.23132 0.858491 -0.235151 -0.562467 1.447642 0.923927 -1.409843 -1.953653 0.852024 -1.663305 0.809944 -2.182186 3.15735
-0.033059 -0.003841 0.030108 0.163011 0.105352 0.147194 -0.036178 -0.068444 0.038477 0.06238 0.121326 0.096957 -0.03952 0.059737 0.108019 0.088335 -0.065316 -0.055853 0.004409 0.284164 -0.120727 0.012958 0.211637 -0.05379 -0.076821 0.048247 -0.036615 0.131151 0.105124 -0.132452 -0.004586 0.047553 0.018431 0.082375 -0.037184 -0.057503 -0.05921 0.098712 0.126763 0.00903 -0.082714 -0.216583 0.133272 -0.007393 0.089772 -0.115459 0.110736 -0.118571 0.00702 0.039542 0.055305 -0.1787 -0.106418 -0.041918 -0.069195 0.051072 -0.156254 0.108775 0.05522 -0.136086 -0.016338 0.004462 -0.009961 -0.119515 0.133079 0.064662 -0.03509 -0.099412 0.227227 0.051663 0.156802 -0.189851 -0.023435 0.082887 0.088759 0.099828 -0.107043 0.02213 -0.023956 -0.070325 -0.032073 0.11249 0.114516 -0.11666 -0.042468 0.059348 -0.026855 0.038676 0.052443 0.077647 0.162325 -0.039425 -5.71E-4 0.002889 -0.038787 -0.036086 -0.056988 0.015773 -0.025481 0.004083
1.392901 -0.788312 -2.423696 0.363859 -3.305615 0.128143 3.461813 -2.016391 -1.384095 -3.947135 5.218111 1.155244 0.254229 -1.86108 1.814396 1.853947 1.70585 -2.817121 -1.062142 0.037362 -3.693292 -2.575259 0.122499 -1.48993 1.275079 2.234722 1.550187 -1.114331 -6.576571 1.712761 -1.50735 0.815468 -2.963025 -0.129209 0.166625 2.179276 2.130191 2.708524 0.315995 -0.326468 6.035157 -0.173823 2.840967 -1.066569 0.48872 -1.374533 -2.922435 1.934456 0.419995 1.525117 -0.530607 -0.213727 4.550854 -3.156938 -1.496915 0.983738 0.670824 2.059749 2.409517 -2.406973 0.263116 0.51099 1.866174 2.964115 -3.439539 -2.525119 2.11547 2.749032 1.289994 1.640284 3.931649 -2.80737 -0.199252 -5.314263 -0.962183 0.659229 -1.368842 1.308344 3.32091 1.689934 -0.272208 -1.221051 0.326311 -0.889746 0.38701 -0.549574 -4.376913 2.868137 3.717038 3.953528 5.568576 -4.744875 -2.243931 1.083578 -5.538053 -0.496071 -0.20483 0.881473 3.428312 -0.912288
-0.088727 -0.010691 0.220845 0.076544 0.09866 -0.03842 -0.109723 -0.06249 0.093344 0.010987 -0.081364 0.123338 -0.085559 0.015764 0.224026 0.150881 -0.057398 0.09832 -0.032684 -0.056442 -0.052902 0.213842 0.23312 0.053933 -0.103587 0.051887 -0.091743 0.147632 0.129878 -0.206274 -0.159007 -0.036083 0.117579 -0.004606 -0.106827 -0.141785 -0.054165 -0.02079 -0.118446 0.111055 -0.138691 -0.092771 0.026445 0.066096 -0.042112 0.051529 -0.027706 -0.128405 -0.061826 -0.005895 0.04107 0.095508 0.036844 -0.180804 0.209473 -0.117331 -0.17056 0.032847 0.009845 -0.034416 -0.025842 -0.203662 -0.114804 -0.133317 -0.091443 0.001904 -0.018704 -0.026892 -0.121507 0.053459 -0.015016 -0.081401 0.064264 0.040488 0.154788 -0.261008 0.006433 -0.081348 -0.076983 -0.091177 0.046395 -0.023972 0.121227 -0.227264 -0.189334 -0.01524 0.082332 -0.047056 0.113474 -0.164948 -0.208653 -0.062184 0.049551 0.226947 -0.009975 -0.171566 -0.05046 0.032659 -0.178691 0.029828
0.083179 0.002254 -0.049256 -0.21362 0.051564 -0.060262 0.096911 -0.074286 -0.076749 -0.016157 -0.071299 -0.207634 -0.032896 -0.078349 0.157822 -0.290426 0.075084 -0.135845 0.050875 0.013848 -0.007894 -0.138929 -0.101827 0.073753 -0.056903 -0.090282 -0.02094 0.005315 -0.027234 -0.022766 0.050986 0.082409 0.024548 0.095395 0.20207 -0.012737 -0.064357 -0.031861 -0.179034 0.027828 0.119151 -0.04945 -0.140262 -0.030333 -0.190207 0.057076 -0.021845 0.094014 0.032423 -0.02014 0.08045 0.06025 -0.068302 -0.041255 0.200575 0.067904 -0.04836 -0.085325 -0.268935 0.181525 0.098077 0.0599 -0.190043 0.044102 0.062274 0.250987 0.022123 -0.033234 -0.119677 0.0383 -0.049743 0.065116 0.063389 -0.123539 -0.038954 -0.078152 0.135365 -0.078861 -0.044353 -0.136547 -0.020386 -0.04126 -0.106427 -0.112132 -0.058356 -0.014697 0.197562 0.037562 -0.048306 -0.021446 -0.04178 0.211239 -0.151883 0.026097 -0.093193 -0.049537 -0.033443 -0.095768 0.064258 0.237012
-0.157175 -0.069485 0.110766 0.131713 -0.214241 0.020172 -0.162239 0.023314 -0.035425 0.145808 0.0454 0.091606 0.044515 0.003932 0.011234 0.124517 0.119771 0.207576 0.084175 0.024047 -0.28128 0.080864 0.297987 -0.054802 -0.182629 -0.09237 -0.008642 -0.016931 0.155205 -0.058039 -0.141646 -0.028304 0.038907 -0.050231 -0.421204 -0.103966 -0.021398 -0.048374 -0.181913 -0.112057 0.004753 0.121528 0.043894 0.119848 0.246029 -0.068287 -0.0545 0.077124 -0.060377 -0.047424 0.005207 -0.109575 0.113823 0.068919 0.053698 -0.094411 0.175076 -0.057505 -0.082715 -0.127094 0.101478 -0.25153 -0.009806 -0.168316 -0.116434 0.016646 0.227432 -0.039188 -7.3E-5 -0.107639 0.030187 0.002598 -0.058844 0.112253 -0.050775 -0.251287 -0.158693 0.119676 -0.076024 0.067803 -0.001303 0.02555 0.323918 -0.238118 0.121802 -0.083684 0.177321 0.027459 0.03031 0.090963 -0.188371 -0.107901 -9.65E-4 0.119414 -0.0582 -0.184464 -0.149669 0.018998 -0.037054 0.043528
0.038999 -0.086898 0.241171 -0.007846 0.001691 -0.064539 0.252313 -0.189421 0.1305 0.02865 -0.066355 0.013941 -0.025085 -0.091814 -0.075578 0.114793 0.046347 0.014145 0.109631 0.069194 0.002711 0.210736 -0.155008 0.05043 -0.010908 0.048848 -0.11898 -0.07988 0.084295 -0.125725 0.042102 0.066448 -0.025675 -0.102024 0.051345 -0.058299 1.72E-4 -0.100617 -0.077823 0.11278 -0.040504 0.219775 -0.113515 -0.168229 -0.046543 -0.059591 0.005685 -0.014717 -0.159829 0.199225 -0.009116 -0.007297 0.03634 0.089394 -0.085225 0.022236 -0.008058 0.071846 0.134265 0.08776 0.097892 0.004365 -0.042977 -0.213248 -0.067846 0.001192 0.106613 -0.005001 -0.013497 0.074744 -0.053063 0.170681 0.061434 -0.130854 0.142855 0.150647 0.175623 0.041819 0.021288 -0.042793 -0.00212 0.011571 0.003688 -0.089313 0.00278 0.068299 0.069827 -0.085916 -0.058706 0.171379 -0.180816 -0.082046 -0.040151 0.055549 -0.087682 -0.028215 0.094162 0.070855 0.024039 -0.073007
-0.049467 -0.21716 0.090937 0.090442 0.039471 -0.158319 -0.11269 -0.069629 -0.152616 -0.168774 0.174922 -0.001446 -0.103807 0.051497 0.194559 0.131969 0.040381 0.032635 -0.067156 -0.025622 -0.010711 -0.020901 0.119984 0.244719 -0.109187 0.082315 -0.135338 -0.023344 0.21433 -0.064577 -0.064485 0.074849 0.149247 -0.027656 0.004969 0.03268 0.06585 -0.057646 0.153199 -0.005728 -0.022326 -0.274079 0.004042 0.014306 0.05418 -0.043258 -0.168469 -0.040621 -0.157761 -0.0691 0.094353 0.072912 -0.075834 -0.197271 0.168871 0.117121 -0.136197 -0.055852 -0.009409 -0.089041 -0.057739 -0.071827 -0.092378 -0.079523 -0.113948 -0.038776 0.031106 -0.010216 0.104807 -0.099296 -0.017116 -0.076253 -0.094261 0.043236 -0.070148 -0.074738 -0.099196 -0.105257 -0.096505 -0.240964 -0.008615 -0.07672 0.040914 0.071479 -0.071285 0.055601 0.005485 -0.102117 0.010954 0.072108 0.050477 0.154822 -0.090926 0.117414 0.012584 0.026602 -0.071613 -0.136944 0.106969 0.012461
0.302939 0.367845 -0.193636 0.183722 0.148999 -0.429842 -0.653551 0.259723 -1.215052 -0.631011 0.310631 -0.400763 -0.759144 0.830715 0.449076 0.734997 0.260842 -0.18123 -0.121371 0.508328 0.690213 0.091855 1.285471 -0.539559 -0.124075 0.543859 -0.255162 0.309748 1.551882 -0.228248 0.353252 0.342963 0.390817 0.159973 0.191786 0.109699 -0.049554 -0.66867 0.2956 0.001251 -0.10601 -0.190786 0.340489 -0.157095 0.210697 -0.566434 -0.003848 -0.656894 0.180914 0.322368 0.769324 0.041881 -0.397057 -0.582796 0.209418 0.715069 0.164212 -0.026663 -0.227951 -0.927275 -0.339269 -0.1063 -0.292091 -0.521014 0.574641 -0.124707 -0.810559 -0.037941 0.048442 0.190895 0.369608 -0.463762 0.174069 0.35424 0.356622 0.115615 -0.077529 -0.537555 -0.405712 -0.411972 -0.20149 -0.097565 -0.306462 -0.18624 0.746551 -0.063348 -0.048079 -0.382091 0.114533 0.690127 0.171609 -0.197596 -0.396348 -0.91268 -0.224073 0.516181 -0.356464 0.771696 -0.802855 -0.300994
-0.144336 0.074372 0.113318 0.085118 -0.148613 0.116197 -0.043826 0.097308 0.028569 0.0599 0.122926 0.129504 -0.202531 -0.024615 -0.184827 0.130076 -0.320919 0.065363 0.003498 0.051718 -0.144357 -0.139014 -0.049753 0.108518 -0.082871 0.171983 0.073164 -0.210686 -0.009667 0.210213 0.060274 0.046079 -0.075353 -0.162488 0.155761 -0.129948 -0.292558 -0.091019 -0.218721 0.241112 -0.031704 0.071499 0.229555 0.017352 -0.080441 0.02619 0.111902 -0.063922 0.15966 0.018002 0.091424 -0.033691 -0.13884 -0.017261 0.032462 0.057671 0.059981 0.008869 0.121346 -0.080853 0.079416 0.001784 0.19468 -0.254343 -0.090097 -0.09996 0.234742 -0.05806 -0.035704 -0.10223 -0.09253 0.014641 0.023658 0.024081 0.087838 0.004814 -0.031244 0.126039 -0.042851 0.057792 0.054989 0.062025 0.114046 -0.024096 0.166209 -0.182425 0.030826 0.162165 0.294079 0.052697 -0.053533 0.047016 -0.011732 0.117571 0.109081 -0.155768 -0.001293 -0.333485 -0.017285 0.020007
0.006 -0.128642 -0.045484 0.047758 -0.077576 0.093348 -0.134159 -0.003652 0.22072 0.018287 0.325358 0.084219 0.046547 -0.010571 0.014433 0.236936 -0.009671 0.14085 -0.07076 -0.023662 -0.215131 -0.085614 0.098925 0.148821 -0.138987 -0.069084 -0.058266 -0.093877 0.218626 -0.09805 -0.023253 -0.016232 -0.124112 -0.14569 -0.069722 -0.197353 0.111275 0.048544 0.030151 0.159607 0.031262 0.203503 0.019767 0.04288 -0.047677 -0.073011 -0.020026 0.055864 -0.043654 -0.019688 0.151222 0.004343 0.100708 0.073613 -0.069481 -0.155283 0.039517 -0.053023 0.083077 -0.099798 0.167018 -0.223968 0.012725 -6.52E-4 -0.024681 0.005522 0.131121 0.039166 -0.012072 -0.071856 0.009593 -0.103212 -0.133892 0.022882 0.024709 -0.082776 -0.021172 -0.032075 -0.073184 -0.142183 -0.113567 0.166598 0.115652 -0.081301 0.059875 0.242979 0.010607 -0.06259 0.17894 0.111582 -0.165255 0.047587 -0.04235 0.24437 -0.104867 -0.153317 0.16962 -0.154674 0.149531 -0.042606
-0.008385 -0.066079 0.220497 -0.119657 -0.055419 -0.151706 0.021606 -0.203212 -0.019869 0.149401 0.090316 -0.210795 0.018627 0.032 0.07656 -0.185006 6.8E-4 0.078709 -0.019967 0.033506 -0.223163 -0.191485 -0.119656 -0.158037 0.204807 0.195793 -0.046358 -0.159307 0.08678 -0.250558 0.346477 -0.001409 -0.130596 0.076231 0.193905 -0.116399 0.112844 -0.052826 0.20941 0.223621 -0.004013 0.159954 0.195338 -0.049834 -0.035877 0.250211 -0.030178 -0.128996 -0.010916 -0.114003 0.029117 -0.13994 0.075367 0.001692 8.48E-4 -0.247272 0.150874 -0.122209 -0.106668 0.276781 -0.251212 0.123027 -0.075362 -0.085445 -0.106326 -0.220621 -0.050397 0.068628 -0.07086 0.068825 0.078045 0.025019 -0.091936 0.094821 -0.015713 -0.053363 -0.062367 -0.090306 0.002209 -0.201403 -0.277544 -0.01157 -0.129765 0.186595 -0.020114 0.183245 0.063168 -0.106057 0.121027 -0.030672 -0.063734 0.141113 -0.028112 -0.067419 -0.223996 0.282807 0.190841 0.128602 0.211554 0.010206
0.047752 -0.011346 0.0923 -0.029609 0.057311 -0.018942 0.101697 -0.008816 0.160723 0.047691 0.071984 0.076167 -0.075283 -0.019033 0.020958 0.126101 -0.130388 0.006598 -0.014525 0.04765 -0.051593 0.1344 -0.019667 0.017882 0.076152 -0.006446 0.103046 0.003142 0.050101 -0.034555 0.102535 -0.03113 -0.059746 -0.06714 0.009189 -0.056583 -0.121006 -0.048071 -0.068459 0.107579 -0.067348 -0.079693 -0.025409 -0.126253 0.011246 0.093704 0.001957 -0.055331 0.072705 0.08961 0.033024 -0.078931 -0.030987 -0.136595 0.078724 -0.06895 -0.159063 -0.014373 -0.09182 -0.019845 0.021328 0.038025 -0.035713 -0.219075 -0.179694 0.088581 0.019521 0.046478 -0.034868 -0.055462 0.066894 0.044192 -0.038243 -0.03165 -0.04116 0.112415 -0.038024 -0.034903 -0.099677 -0.034058 -0.072879 0.11684 -0.027534 -0.060155 0.022785 -0.180086 0.147153 -0.028915 0.09839 0.09891 0.033324 -0.024952 -0.007763 0.133121 -0.043308 -0.063667 -0.016107 0.045521 -0.041694 0.037351
-0.061215 -0.072259 0.084243 -0.030504 -0.013459 -0.068481 -0.110691 -0.041203 -0.011781 0.201335 0.164634 0.100152 0.059381 -0.007293 0.007503 0.258327 0.023949 0.200135 0.160624 0.141867 -0.140884 0.009392 0.095937 -0.060625 -0.145273 -0.083304 -0.065534 0.00228 0.196047 -0.086997 -0.09548 0.144964 -0.010154 0.00676 -0.072258 -0.11042 -0.059686 0.092534 0.028576 -0.019117 -0.14082 0.171613 0.017974 0.105935 0.031365 -0.13258 0.016517 -0.034317 -0.175513 -0.033515 0.140521 -0.104039 -0.07902 -0.047517 0.030399 -0.040971 0.126207 -0.077338 0.167458 -0.100885 0.104016 -0.069127 -0.060114 -0.092072 -0.092672 -0.074532 0.080547 0.040309 -0.002105 -0.106835 -0.019157 -0.134797 -0.227205 -0.041914 0.024843 -0.090399 -0.120544 -0.038663 -0.049082 0.158767 -0.108226 0.075645 0.030504 -0.04743 0.146468 -0.023749 0.028419 -0.100328 0.22493 -0.105859 -0.067244 0.049096 -1.04E-4 0.202169 0.02616 -0.110856 0.173905 -0.07442 0.044634 -0.139452
-0.137448 -0.165271 0.130333 -8.0E-6 0.050107 -0.043931 -0.171677 0.007721 0.007373 0.067054 0.148393 0.137749 0.003854 -0.074689 0.190885 0.206584 -0.06847 0.211763 0.104202 0.069106 -0.183194 0.157317 0.223718 0.072586 -0.222323 -0.06536 -0.116532 -0.05973 0.221449 -0.106996 -0.055916 0.001211 -0.118776 0.119528 -0.113563 -0.05341 -0.032128 -0.025061 0.007817 0.10942 0.0215 0.238177 -0.039143 0.010739 0.196476 0.042437 -0.095493 -0.02479 -0.193776 0.062079 0.183557 -0.080987 -0.050593 -0.021337 0.072036 -0.113533 -0.049801 0.001729 0.061789 -0.022361 0.167741 -0.147962 -0.057488 -0.106108 -0.12927 -0.015228 0.102432 0.131209 0.156765 -0.188598 -0.14315 -0.07012 -0.019995 0.004737 -0.03048 -0.033991 -0.211077 0.029496 -0.078768 -0.175085 -0.070657 0.10409 0.13433 -0.24066 -0.005294 0.139621 0.011315 -0.042964 0.232204 0.126593 -0.162153 -0.016772 0.01595 0.220821 -0.003108 -0.082105 0.143102 -0.084966 -0.08918 -0.066876
