0.053781 -0.222944 0.204808 0.151615 0.017431 0.109608 -0.085225 -0.037154 -0.213211 0.05089 0.054283 0.068831 0.026976 -0.039968 0.082615 0.098736 0.14454 0.140029 0.097876 -0.032537 -0.047888 0.138885 0.155989 0.005763 -0.2063 -0.106865 0.060803 0.01138 0.24585 -0.024686 -0.072768 -0.020034 0.008524 0.003232 -0.075382 -0.046168 0.110014 -0.044878 -0.043512 0.010501 -0.047 0.077388 0.124494 0.083948 0.107861 -0.028797 -0.022475 0.031628 0.07426 -0.04296 -0.061435 -0.065162 0.016936 -0.112435 0.153688 0.093232 0.182286 -0.088026 0.102233 -0.082631 0.080156 -0.147229 0.061187 -0.198984 -0.047053 -0.10875 0.127417 0.074478 0.044638 -0.031404 -0.054157 -0.179801 -0.042449 0.132632 0.04176 -0.187576 -0.065778 0.006747 0.02051 0.059312 0.011187 0.110855 0.165564 -0.214982 0.119429 0.027408 -0.043915 0.010278 0.111847 -0.063662 -0.229417 0.079672 0.125218 0.100367 -0.012774 -0.130301 0.010793 0.065465 -0.089927 -0.017427
0.0 0.0 0.0 0.0 0.0 0.0 0.0 0.0 0.0 0.0 0.0 0.0 0.0 0.0 0.0 0.0 0.0 0.0 0.0 0.0 0.0 0.0 0.0 0.0 0.0 0.0 0.0 0.0 0.0 0.0 0.0 0.0 0.0 0.0 0.0 0.0 0.0 0.0 0.0 0.0 0.0 0.0 0.0 0.0 0.0 0.0 0.0 0.0 0.0 0.0 0.0 0.0 0.0 0.0 0.0 0.0 0.0 0.0 0.0 0.0 0.0 0.0 0.0 0.0 0.0 0.0 0.0 0.0 0.0 0.0 0.0 0.0 0.0 0.0 0.0 0.0 0.0 0.0 0.0 0.0 0.0 0.0 0.0 0.0 0.0 0.0 0.0 0.0 0.0 0.0 0.0 0.0 0.0 0.0 0.0 0.0 0.0 0.0 0.0 0.0
0.194844 -0.197727 -0.034256 0.22437 0.020778 0.119796 -0.042029 -0.073406 -0.06185 0.031408 0.126444 -0.064415 -0.174729 -0.166247 0.135294 0.202101 0.181909 -3.51E-4 -0.004026 0.00281 0.070247 0.090684 -0.014929 0.024123 -0.341737 -0.157964 0.158752 -0.051866 -0.065553 0.126302 -0.01017 0.086394 -0.10867 0.040013 0.023978 -0.007513 0.043232 -0.198177 -9.84E-4 -0.101193 -0.148838 0.072161 0.016649 0.165411 0.170135 -0.021135 0.020998 0.126914 -0.113176 0.095864 0.055182 -0.141513 0.064341 0.096159 0.074861 0.036018 0.09019 -0.074368 0.090911 0.008355 0.088351 0.169313 -0.205258 0.068269 0.024188 0.020022 0.115012 -0.027668 0.022884 -0.087527 0.042237 0.062564 -0.033086 0.081903 -0.070297 0.021361 -0.300958 0.057597 0.29788 0.051062 0.007759 -0.006302 0.060392 -0.093993 -0.155526 -0.050067 -0.014486 0.042589 0.094648 0.064186 -0.214107 0.217808 0.150252 0.174069 -0.015487 -0.077482 -0.067786 -0.081455 0.152929 -0.02574
0.0 0.0 0.0 0.0 0.0 0.0 0.0 0.0 0.0 0.0 0.0 0.0 0.0 0.0 0.0 0.0 0.0 0.0 0.0 0.0 0.0 0.0 0.0 0.0 0.0 0.0 0.0 0.0 0.0 0.0 0.0 0.0 0.0 0.0 0.0 0.0 0.0 0.0 0.0 0.0 0.0 0.0 0.0 0.0 0.0 0.0 0.0 0.0 0.0 0.0 0.0 0.0 0.0 0.0 0.0 0.0 0.0 0.0 0.0 0.0 0.0 0.0 0.0 0.0 0.0 0.0 0.0 0.0 0.0 0.0 0.0 0.0 0.0 0.0 0.0 0.0 0.0 0.0 0.0 0.0 0.0 0.0 0.0 0.0 0.0 0.0 0.0 0.0 0.0 0.0 0.0 0.0 0.0 0.0 0.0 0.0 0.0 0.0 0.0 0.0
0.0 0.0 0.0 0.0 0.0 0.0 0.0 0.0 0.0 0.0 0.0 0.0 0.0 0.0 0.0 0.0 0.0 0.0 0.0 0.0 0.0 0.0 0.0 0.0 0.0 0.0 0.0 0.0 0.0 0.0 0.0 0.0 0.0 0.0 0.0 0.0 0.0 0.0 0.0 0.0 0.0 0.0 0.0 0.0 0.0 0.0 0.0 0.0 0.0 0.0 0.0 0.0 0.0 0.0 0.0 0.0 0.0 0.0 0.0 0.0 0.0 0.0 0.0 0.0 0.0 0.0 0.0 0.0 0.0 0.0 0.0 0.0 0.0 0.0 0.0 0.0 0.0 0.0 0.0 0.0 0.0 0.0 0.0 0.0 0.0 0.0 0.0 0.0 0.0 0.0 0.0 0.0 0.0 0.0 0.0 0.0 0.0 0.0 0.0 0.0
0.231687 -0.054077 0.035858 0.159305 0.056275 0.023341 -0.166827 0.033332 -0.078638 -0.198149 -0.071532 -0.007287 -0.123172 0.038666 0.099689 0.053752 0.243294 -0.084986 0.062278 -0.093597 -0.253068 -0.049656 0.22134 0.138962 -0.121447 0.107268 -0.020517 0.121553 0.0704 -0.185704 0.084457 0.07509 -0.064962 0.036016 -0.114157 0.005294 -0.061942 -0.00814 -0.135093 -0.045438 0.050543 -0.402157 0.004765 -0.088132 0.008353 0.042167 -0.075754 -0.132131 -0.047619 0.004018 -0.113602 -0.176768 0.004682 -0.058924 0.044255 0.153816 -0.01689 0.193077 -0.272313 -0.078571 -0.076066 0.034546 -0.138577 -0.052959 -0.005965 -0.034719 -0.074531 -0.262567 0.035111 0.105395 0.098675 -0.006024 0.043437 0.023944 0.022529 0.024415 0.037731 0.127169 0.079377 -0.054636 0.040528 -0.041443 -0.04373 -0.082054 0.007811 0.00444 0.066753 -0.010108 -0.098769 0.037559 -0.112875 0.103071 -0.029145 -0.013492 0.067694 0.0442 -0.173489 -0.0288 -0.001023 0.051317
0.053781 -0.222944 0.204808 0.151615 0.017431 0.109608 -0.085225 -0.037154 -0.213211 0.05089 0.054283 0.068831 0.026976 -0.039968 0.082615 0.098736 0.14454 0.140029 0.097876 -0.032537 -0.047888 0.138885 0.155989 0.005763 -0.2063 -0.106865 0.060803 0.01138 0.24585 -0.024686 -0.072768 -0.020034 0.008524 0.003232 -0.075382 -0.046168 0.110014 -0.044878 -0.043512 0.010501 -0.047 0.077388 0.124494 0.083948 0.107861 -0.028797 -0.022475 0.031628 0.07426 -0.04296 -0.061435 -0.065162 0.016936 -0.112435 0.153688 0.093232 0.182286 -0.088026 0.102233 -0.082631 0.080156 -0.147229 0.061187 -0.198984 -0.047053 -0.10875 0.127417 0.074478 0.044638 -0.031404 -0.054157 -0.179801 -0.042449 0.132632 0.04176 -0.187576 -0.065778 0.006747 0.02051 0.059312 0.011187 0.110855 0.165564 -0.214982 0.119429 0.027408 -0.043915 0.010278 0.111847 -0.063662 -0.229417 0.079672 0.125218 0.100367 -0.012774 -0.130301 0.010793 0.065465 -0.089927 -0.017427
0.0 0.0 0.0 0.0 0.0 0.0 0.0 0.0 0.0 0.0 0.0 0.0 0.0 0.0 0.0 0.0 0.0 0.0 0.0 0.0 0.0 0.0 0.0 0.0 0.0 0.0 0.0 0.0 0.0 0.0 0.0 0.0 0.0 0.0 0.0 0.0 0.0 0.0 0.0 0.0 0.0 0.0 0.0 0.0 0.0 0.0 0.0 0.0 0.0 0.0 0.0 0.0 0.0 0.0 0.0 0.0 0.0 0.0 0.0 0.0 0.0 0.0 0.0 0.0 0.0 0.0 0.0 0.0 0.0 0.0 0.0 0.0 0.0 0.0 0.0 0.0 0.0 0.0 0.0 0.0 0.0 0.0 0.0 0.0 0.0 0.0 0.0 0.0 0.0 0.0 0.0 0.0 0.0 0.0 0.0 0.0 0.0 0.0 0.0 0.0
-0.229625 -0.047034 -0.085831 0.199739 0.114762 -0.142405 -0.147471 -0.039806 0.003833 -0.098795 0.102216 -0.103534 0.118883 -0.018055 -0.286023 -0.06209 0.023159 0.04879 0.153252 -0.023687 0.035303 -0.077942 0.002952 -0.043301 0.119328 -0.019983 -0.169805 0.019996 0.142905 0.217929 0.047815 -0.06247 0.136127 -0.085406 0.185965 -0.03391 -0.129249 -0.224397 0.076892 0.094262 -0.105747 -0.209069 0.001151 0.034042 -0.113226 -0.229493 -0.011378 0.191754 0.204075 0.018725 0.219125 0.101949 -0.11992 0.108734 -0.163977 -0.044572 -0.027529 -0.015981 0.209179 0.040021 -0.048008 0.01915 -0.091216 -0.005568 -0.040202 0.071868 -0.008373 -0.177839 0.04411 0.188934 0.249288 -0.096142 0.135334 -0.093268 -0.152227 -0.042511 0.009266 -0.02668 -0.031269 0.245701 -0.075782 -0.033736 0.092987 0.199161 -0.132026 0.088809 0.210851 -0.043704 -0.042668 -0.09998 0.227739 0.156418 3.27E-4 -0.083316 0.13444 0.104117 0.068121 -0.003221 0.088942 0.144428
-1.89386 0.878381 0.012445 0.723494 -0.77474 0.212641 -1.255331 0.238437 0.352405 1.155253 -0.294529 0.243917 -1.870697 2.026859 -0.69908 -0.553119 1.101638 0.059438 -0.01294 -0.626926 -1.360032 -0.859834 0.014624 -0.246395 -0.905204 0.759177 0.413044 -0.524845 -0.691695 -0.184815 0.032902 0.392258 -1.105437 -2.756906 -0.766607 -0.676376 -0.465171 -0.258433 0.948446 -0.185213 0.955459 -1.145693 1.102544 0.752757 0.186737 -0.859123 1.01864 1.234865 -0.281427 1.525722 -0.759602 -1.384333 -0.986261 0.795704 -1.278977 -0.477305 -0.303961 0.930266 0.599133 0.92544 0.448183 0.94117 0.293109 -0.766721 -0.681427 -0.599583 0.612462 -0.410615 -0.351577 -0.313343 0.571597 0.111453 0.848527 0.763181 0.679283 -1.354258 -0.240834 0.392015 0.572686 -0.826244 1.016941 0.341873 1.657209 -0.984187 -0.297482 0.304572 0.274986 -0.914006 -1.277455 -0.170356 -0.400417 1.506274 -0.313235 0.584011 0.313713 -1.805287 0.113268 -1.507313 0.076068 0.822568
-0.098263 -0.084883 0.034784 0.172294 -0.01124 -0.053605 -0.019461 0.056189 -0.081285 -0.081539 0.127756 -0.03205 -0.022311 -0.115846 0.051413 0.047245 0.002923 0.196778 -0.112288 0.014615 -0.148362 -0.071209 -0.067693 0.199998 -0.014382 -0.022539 -0.107628 -0.124343 0.035283 0.007934 0.119461 0.137943 -0.066624 0.079967 -0.027283 0.021601 -0.154463 -0.134401 -0.035881 -0.079212 -0.026568 0.048786 -0.038821 -0.008025 0.047973 0.033427 -0.0152 0.045049 -0.279889 0.190525 0.044256 -0.063057 -0.023708 0.004312 0.176622 0.016291 0.081373 0.122306 0.15747 -0.088216 -0.151833 -0.082682 0.076055 -0.065176 0.008343 -0.042462 0.124247 -0.021835 0.096936 -0.020273 -0.014944 -0.070676 0.054131 -0.006845 0.007358 0.053526 -0.160168 0.043703 0.137935 -0.077059 0.011245 -0.174355 0.16911 0.169298 0.022539 0.022888 0.201173 0.042145 0.091121 0.13332 -0.132077 -0.110411 0.063511 0.212589 -0.010085 -0.096309 0.014029 -0.151089 0.037931 -0.060845
-0.024332 0.12393 0.078446 0.077273 0.087825 -0.030776 -0.021689 -0.067762 0.038686 -0.027187 -0.098732 0.079939 0.031073 -0.244603 -0.073523 0.198997 -0.084706 0.148938 -0.066343 -0.154611 -0.13568 -0.052557 0.119636 0.234974 -0.099266 0.165647 -0.024254 -0.044397 0.12634 -0.00728 -0.042855 -0.076837 0.240122 0.092112 -0.082746 -0.030403 -0.003105 -0.121605 -0.100904 0.004095 0.004881 0.090103 -0.103702 -0.088421 0.093385 -0.102521 -0.103887 0.052089 -0.132442 0.144585 -0.083093 -0.152121 -0.0912 -0.056624 0.0907 -0.04516 0.023219 -0.01606 0.066706 -0.051962 0.017082 0.089367 -0.050009 -0.177445 -0.010374 0.129284 -0.042369 -0.053705 0.065317 -0.065148 -0.092822 0.138736 0.050699 -0.103055 -0.013783 0.032222 0.088585 0.004632 -0.02115 -0.038337 0.048833 0.035867 0.16071 0.032081 -0.0859 -0.083532 0.009257 0.037773 0.181752 -0.050896 0.037151 0.215277 -0.07769 0.195781 0.020256 -0.118444 -0.056932 0.012902 -0.004726 -0.075849
0.0 0.0 0.0 0.0 0.0 0.0 0.0 0.0 0.0 0.0 0.0 0.0 0.0 0.0 0.0 0.0 0.0 0.0 0.0 0.0 0.0 0.0 0.0 0.0 0.0 0.0 0.0 0.0 0.0 0.0 0.0 0.0 0.0 0.0 0.0 0.0 0.0 0.0 0.0 0.0 0.0 0.0 0.0 0.0 0.0 0.0 0.0 0.0 0.0 0.0 0.0 0.0 0.0 0.0 0.0 0.0 0.0 0.0 0.0 0.0 0.0 0.0 0.0 0.0 0.0 0.0 0.0 0.0 0.0 0.0 0.0 0.0 0.0 0.0 0.0 0.0 0.0 0.0 0.0 0.0 0.0 0.0 0.0 0.0 0.0 0.0 0.0 0.0 0.0 0.0 0.0 0.0 0.0 0.0 0.0 0.0 0.0 0.0 0.0 0.0
-0.113733 0.235265 0.301029 -9.75E-4 -0.162714 -0.226925 -0.087643 -0.013659 -0.163459 0.036066 0.080683 0.239949 0.012441 -0.181389 0.049885 -0.00484 -0.05146 -0.004773 -0.271796 -0.02285 0.182277 0.017579 0.040711 0.190398 -0.03412 0.082486 0.001363 -0.135725 0.025996 0.109692 -0.059403 -0.043294 0.018473 0.044869 -0.030232 0.061143 -0.114685 0.166883 0.040197 -0.216477 -0.032234 0.228789 -0.113728 0.151072 0.005197 -0.074631 0.031622 -0.107968 -0.221365 -0.019133 -0.002402 0.051309 0.104828 0.110283 -0.017094 -0.027512 -0.022797 -0.155833 0.087823 0.07736 0.15801 -0.047962 0.077773 -0.217582 -0.080308 0.049435 -0.150228 0.151205 0.094103 -0.115057 0.114414 -0.075988 -0.103774 -0.019138 0.010994 -0.025936 0.057282 0.06078 -0.109786 -0.126705 -0.01654 0.190078 0.153624 -0.056583 -0.01476 -0.02857 0.215737 -0.082167 0.275093 0.003728 0.162869 0.103977 -0.106441 0.086034 0.051712 -0.038608 0.091509 0.061267 0.133357 -0.229243
-0.049418 -0.036399 0.047087 0.035521 -0.04426 -0.07204 -0.057305 -0.01961 -0.050576 0.008957 0.069274 -0.056356 -0.087336 0.079403 0.091801 0.044752 -0.062672 0.096308 0.004329 -0.057825 0.011089 -0.10588 0.043849 0.053918 -0.089942 -0.217775 -0.03278 -0.046642 0.021616 0.022529 2.28E-4 0.073149 -0.096805 0.097561 -0.018957 0.004865 0.051744 -0.118616 0.015623 0.052852 -0.0062 -0.008272 0.021985 0.043405 0.014403 0.0084 -0.031356 0.238753 0.006306 0.119369 0.192711 -0.105924 -0.171451 -0.105112 -0.04012 -0.008332 0.007063 0.056833 -0.195563 -0.057609 -0.057991 -0.003439 -0.017028 -0.078926 -0.070455 -0.066509 0.003854 -0.046651 0.173206 0.097305 -0.046108 0.042303 0.107519 -0.064719 0.043666 0.057978 0.004657 0.057185 -0.070903 0.047588 -0.021279 0.08271 0.069409 -0.034849 0.013943 0.099619 -0.031629 -0.101472 0.060454 0.084281 0.073155 0.102968 -0.083518 0.043023 0.031514 -0.014303 0.049097 -0.061045 0.050428 0.067779
-0.219936 -0.067721 -0.013209 -0.042437 0.04851 0.035264 -0.078125 -0.076667 -0.130761 0.155857 0.112074 0.060985 -0.004626 -0.015667 0.071499 0.061208 -0.026755 0.179012 0.143729 -0.076798 -0.098111 0.035587 0.150621 0.121856 -0.124475 -0.089416 -0.123457 0.074356 0.139182 0.038751 -0.005272 0.073431 -0.100427 0.012423 -0.013406 -0.001636 0.010209 -0.110047 -0.09609 0.127815 -0.068851 0.060821 -0.081765 -0.141657 -0.044266 -0.121606 0.033188 0.085272 -0.113091 -5.96E-4 0.115973 -0.104378 0.07202 -0.015882 0.021182 0.066903 -0.025513 -0.103935 0.05927 -0.067645 -0.109436 -0.005406 -0.03647 -0.030517 -0.005681 0.009377 0.152324 0.153507 -0.042793 -0.17006 -0.023583 0.061818 -0.040371 0.052568 -0.03188 0.088115 -0.095357 -0.016481 -0.012866 0.027737 -0.075782 0.044474 -0.031837 -0.07029 0.081726 -0.042527 0.086457 0.09411 0.192308 0.126992 -0.175601 -0.072075 0.023172 0.195318 0.039686 0.028802 0.013654 -0.023731 0.113933 -0.027616
0.053781 -0.222944 0.204808 0.151615 0.017431 0.109608 -0.085225 -0.037154 -0.213211 0.05089 0.054283 0.068831 0.026976 -0.039968 0.082615 0.098736 0.14454 0.140029 0.097876 -0.032537 -0.047888 0.138885 0.155989 0.005763 -0.2063 -0.106865 0.060803 0.01138 0.24585 -0.024686 -0.072768 -0.020034 0.008524 0.003232 -0.075382 -0.046168 0.110014 -0.044878 -0.043512 0.010501 -0.047 0.077388 0.124494 0.083948 0.107861 -0.028797 -0.022475 0.031628 0.07426 -0.04296 -0.061435 -0.065162 0.016936 -0.112435 0.153688 0.093232 0.182286 -0.088026 0.102233 -0.082631 0.080156 -0.147229 0.061187 -0.198984 -0.047053 -0.10875 0.127417 0.074478 0.044638 -0.031404 -0.054157 -0.179801 -0.042449 0.132632 0.04176 -0.187576 -0.065778 0.006747 0.02051 0.059312 0.011187 0.110855 0.165564 -0.214982 0.119429 0.027408 -0.043915 0.010278 0.111847 -0.063662 -0.229417 0.079672 0.125218 0.100367 -0.012774 -0.130301 0.010793 0.065465 -0.089927 -0.017427
-0.098263 -0.084883 0.034784 0.172294 -0.01124 -0.053605 -0.019461 0.056189 -0.081285 -0.081539 0.127756 -0.03205 -0.022311 -0.115846 0.051413 0.047245 0.002923 0.196778 -0.112288 0.014615 -0.148362 -0.071209 -0.067693 0.199998 -0.014382 -0.022539 -0.107628 -0.124343 0.035283 0.007934 0.119461 0.137943 -0.066624 0.079967 -0.027283 0.021601 -0.154463 -0.134401 -0.035881 -0.079212 -0.026568 0.048786 -0.038821 -0.008025 0.047973 0.033427 -0.0152 0.045049 -0.279889 0.190525 0.044256 -0.063057 -0.023708 0.004312 0.176622 0.016291 0.081373 0.122306 0.15747 -0.088216 -0.151833 -0.082682 0.076055 -0.065176 0.008343 -0.042462 0.124247 -0.021835 0.096936 -0.020273 -0.014944 -0.070676 0.054131 -0.006845 0.007358 0.053526 -0.160168 0.043703 0.137935 -0.077059 0.011245 -0.174355 0.16911 0.169298 0.022539 0.022888 0.201173 0.042145 0.091121 0.13332 -0.132077 -0.110411 0.063511 0.212589 -0.010085 -0.096309 0.014029 -0.151089 0.037931 -0.060845
0.0 0.0 0.0 0.0 0.0 0.0 0.0 0.0 0.0 0.0 0.0 0.0 0.0 0.0 0.0 0.0 0.0 0.0 0.0 0.0 0.0 0.0 0.0 0.0 0.0 0.0 0.0 0.0 0.0 0.0 0.0 0.0 0.0 0.0 0.0 0.0 0.0 0.0 0.0 0.0 0.0 0.0 0.0 0.0 0.0 0.0 0.0 0.0 0.0 0.0 0.0 0.0 0.0 0.0 0.0 0.0 0.0 0.0 0.0 0.0 0.0 0.0 0.0 0.0 0.0 0.0 0.0 0.0 0.0 0.0 0.0 0.0 0.0 0.0 0.0 0.0 0.0 0.0 0.0 0.0 0.0 0.0 0.0 0.0 0.0 0.0 0.0 0.0 0.0 0.0 0.0 0.0 0.0 0.0 0.0 0.0 0.0 0.0 0.0 0.0
-0.113733 0.235265 0.301029 -9.75E-4 -0.162714 -0.226925 -0.087643 -0.013659 -0.163459 0.036066 0.080683 0.239949 0.012441 -0.181389 0.049885 -0.00484 -0.05146 -0.004773 -0.271796 -0.02285 0.182277 0.017579 0.040711 0.190398 -0.03412 0.082486 0.001363 -0.135725 0.025996 0.109692 -0.059403 -0.043294 0.018473 0.044869 -0.030232 0.061143 -0.114685 0.166883 0.040197 -0.216477 -0.032234 0.228789 -0.113728 0.151072 0.005197 -0.074631 0.031622 -0.107968 -0.221365 -0.019133 -0.002402 0.051309 0.104828 0.110283 -0.017094 -0.027512 -0.022797 -0.155833 0.087823 0.07736 0.15801 -0.047962 0.077773 -0.217582 -0.080308 0.049435 -0.150228 0.151205 0.094103 -0.115057 0.114414 -0.075988 -0.103774 -0.019138 0.010994 -0.025936 0.057282 0.06078 -0.109786 -0.126705 -0.01654 0.190078 0.153624 -0.056583 -0.01476 -0.02857 0.215737 -0.082167 0.275093 0.003728 0.162869 0.103977 -0.106441 0.086034 0.051712 -0.038608 0.091509 0.061267 0.133357 -0.229243
0.045095 -0.21127 0.125373 0.074237 0.007647 0.18504 0.045787 -0.184104 0.030198 0.11914 0.1983 0.086465 -0.141271 -0.077666 0.014851 0.132928 0.074591 0.322036 0.058856 -0.084171 -0.129354 0.307768 0.175603 0.013358 -0.070895 -0.06668 -0.239019 0.251437 0.036056 -0.062582 0.252618 -0.176318 -0.325737 -0.015385 -0.038072 0.059884 0.079871 0.053789 0.183478 0.195559 0.070297 -0.007785 -0.024471 -0.135222 0.100866 -0.009469 -0.020333 0.02507 -0.354238 0.04821 0.094193 -0.278267 0.031648 -0.014155 -0.056645 -0.141083 0.024582 0.062033 -0.153087 -0.047952 5.71E-4 -0.085863 -0.29435 -0.140095 0.064401 0.026493 0.031457 0.09054 0.204617 -0.156498 0.030437 0.135681 0.083154 0.084266 -0.030886 0.126194 0.061522 -0.128509 -0.255667 0.129185 -0.166008 0.169758 0.159931 -0.153329 0.022439 -0.090226 0.082205 -0.112939 0.043698 0.105657 -0.089102 0.156432 0.165769 0.148849 0.185967 -0.084966 -0.011397 0.167807 -0.092416 -0.076449
0.239894 0.04949 -0.160032 0.009757 0.018696 0.136511 -0.077293 -0.052871 0.009257 0.001548 0.079511 -0.223437 0.206189 -0.037028 0.214684 -0.010991 0.241003 0.118594 -0.032309 -0.081901 0.023193 0.152056 0.086901 -3.39E-4 -0.313752 -0.086578 0.052654 -0.01207 0.066553 0.146937 0.092481 0.223632 0.047369 0.045958 -0.158821 0.047187 0.005641 0.106828 0.059908 0.097406 -0.181077 0.012932 -0.158385 0.024668 0.210254 0.06514 0.037754 0.011918 -0.104102 0.135669 0.010223 0.017382 0.170672 -0.056735 0.103218 -0.02343 0.235243 0.092021 0.178693 0.042105 0.131127 7.57E-4 0.002599 0.01404 0.265666 -0.044989 -0.19844 -0.233159 0.146326 0.021889 0.008072 0.159796 0.013099 0.004344 0.022276 0.140679 -0.103384 -0.087695 0.005615 0.027468 0.134791 0.032845 0.025022 0.082947 -0.019859 -0.069218 -0.062653 -0.018655 0.115413 0.016091 -0.094854 0.055184 0.02095 0.170573 -0.076062 0.168748 0.096274 -0.070929 -0.066981 -0.138396
0.012081 -0.109525 0.132941 -0.048567 -0.110607 0.069992 -0.063588 -0.158531 -0.158784 -0.013888 0.035706 -0.135947 -0.134464 0.071779 -0.027952 -0.023991 -0.146928 0.287666 0.117409 -0.037438 -0.061732 0.232652 0.236335 0.028172 -0.189825 0.110793 0.078263 -0.244431 -0.123773 -0.077728 0.190686 -0.186177 -0.206608 0.032748 -0.047155 -0.054193 0.051629 0.038668 -0.066155 0.009935 -0.05105 -0.075172 0.032713 0.074729 -0.033297 -0.059223 0.121652 0.065041 -0.229325 0.07065 0.123837 -0.158647 -0.082621 -0.011452 0.089273 -0.01698 7.0E-6 0.021968 0.097433 0.058386 0.059717 0.143983 -0.277892 -0.066483 -0.021533 -0.017909 -0.056886 -0.012421 0.109274 -0.023096 0.008059 0.116352 -0.064568 0.122588 0.18849 0.093756 -0.199127 -0.066128 -0.049119 0.15539 -0.109357 0.167264 -0.032739 -0.04127 0.039432 -0.143022 0.060826 0.219589 0.390066 -0.118427 -0.157044 0.109906 -0.054419 0.056566 -0.069204 0.007117 -0.095487 -0.069454 0.070936 -0.125083
0.032396 -0.153017 0.013261 0.047099 -0.16096 -0.002847 -0.14501 0.068005 -0.149359 0.076423 0.087914 0.08774 -0.052729 0.078781 0.117473 0.074295 0.151985 0.072683 0.119518 0.122415 -0.135198 0.247231 0.180758 0.015866 -0.113795 -0.127057 -0.071395 0.168229 0.095199 -0.336627 -0.153192 -0.143154 -0.026817 0.033279 -0.138762 -0.11222 0.10966 -0.08999 0.082217 0.118244 -0.209306 -0.145128 0.075727 0.090038 -0.029107 0.029357 -0.046449 0.077719 -0.03284 -0.077257 -0.012984 -0.045672 -0.116 -0.276832 0.093682 -0.058702 0.12833 -0.142148 0.008875 0.083015 -0.016207 -0.124211 -0.089497 -0.070414 -0.053119 -0.049462 -0.046969 0.093573 -0.213675 0.119268 -0.018275 3.93E-4 0.116123 -0.134844 0.078802 -0.103423 -0.118698 -0.023437 0.037259 0.011934 0.026229 -0.010741 0.123861 -0.243128 -0.03501 -0.001409 -0.172359 -0.035735 0.189753 0.012574 -0.164292 0.135864 0.031712 0.210915 -0.032895 0.034045 -0.017284 -0.092774 0.076027 0.134429
0.0 0.0 0.0 0.0 0.0 0.0 0.0 0.0 0.0 0.0 0.0 0.0 0.0 0.0 0.0 0.0 0.0 0.0 0.0 0.0 0.0 0.0 0.0 0.0 0.0 0.0 0.0 0.0 0.0 0.0 0.0 0.0 0.0 0.0 0.0 0.0 0.0 0.0 0.0 0.0 0.0 0.0 0.0 0.0 0.0 0.0 0.0 0.0 0.0 0.0 0.0 0.0 0.0 0.0 0.0 0.0 0.0 0.0 0.0 0.0 0.0 0.0 0.0 0.0 0.0 0.0 0.0 0.0 0.0 0.0 0.0 0.0 0.0 0.0 0.0 0.0 0.0 0.0 0.0 0.0 0.0 0.0 0.0 0.0 0.0 0.0 0.0 0.0 0.0 0.0 0.0 0.0 0.0 0.0 0.0 0.0 0.0 0.0 0.0 0.0
-0.011401 -0.148384 0.198507 0.014281 -0.112075 -0.043296 -0.0896 -0.172698 -0.112186 0.088068 0.143385 0.190086 0.016383 -0.059187 0.177615 0.164917 -0.076105 0.157518 0.080312 0.038369 -0.126254 0.157889 0.189299 0.1266 -0.218361 -0.030584 -0.167432 0.012597 0.231352 -0.133925 -0.024844 1.58E-4 -0.026968 0.053663 -0.099208 -0.073596 -0.003551 -0.053953 0.005108 0.103921 -0.072911 0.202477 -0.013601 -0.043473 -0.004453 -0.032077 -0.050562 0.005374 -0.247736 0.142506 0.086329 -0.161261 -0.061927 9.68E-4 0.13499 -0.093917 -0.08376 -0.159776 0.062987 -0.051299 0.111697 -0.172846 -0.048841 -0.13167 -0.088857 -0.022418 0.075589 0.064087 0.169376 -0.103409 -0.112249 0.021501 -0.045088 -0.101752 0.065418 0.011421 -0.173935 -4.36E-4 0.009245 -0.088695 -0.060097 0.180829 0.087706 -0.212514 -0.008053 0.035302 0.176063 0.065895 0.265278 0.092446 -0.15587 -0.146044 0.118119 0.175072 -0.075941 -0.042854 0.090929 0.066769 0.032815 -0.099912
-0.064201 -0.095673 -0.048534 0.021514 0.079613 0.132785 -0.08165 0.005974 -0.169294 0.012628 0.098353 0.185033 0.18347 0.067755 -0.01631 0.017389 -0.093935 0.065387 0.055363 -0.050335 -0.085577 0.046738 0.398851 0.018418 0.121441 -0.13032 0.033359 0.080958 0.102929 -0.106208 0.075821 -0.013491 -0.078803 0.142095 0.015741 -0.179801 -0.093445 0.048238 0.099035 0.067275 -0.015243 0.08193 0.016809 0.195173 0.043512 -0.215729 0.100361 -0.078176 -0.165296 -0.027322 0.161717 -0.018282 -0.327171 -0.033032 -0.06707 -0.00504 -0.131082 -0.089052 0.183227 -0.086545 0.209663 -0.196354 -0.156462 -0.050325 0.048183 -0.054964 -0.059576 -0.093838 0.170392 0.012597 0.109233 0.134743 -0.022198 0.003987 0.01006 -0.201337 -0.123975 0.009856 -0.078531 -0.021332 -0.122042 0.043209 -0.008567 -0.134421 0.176491 0.06245 0.04491 0.007892 0.23911 0.054558 0.01417 0.042226 -0.0628 -0.041685 -0.09059 -0.03474 0.189804 -0.037253 -0.049874 -0.163169
-0.793787 2.419585 -0.797417 2.227383 1.571771 1.406275 1.235937 -0.525309 -0.656312 2.031588 1.782209 1.785774 -0.027709 1.187534 1.712129 2.019041 -3.858163 1.282584 -0.305382 -1.107469 -3.102788 -2.510505 1.722888 0.393522 1.085108 -0.778337 -1.231002 2.090062 0.025707 1.808496 2.902295 -0.251082 -1.41164 -0.814824 0.465813 0.163647 0.001262 0.170453 0.120514 -1.695735 -0.327196 -4.705218 -0.801684 0.125667 -2.589303 3.097778 1.308786 2.993875 0.511321 1.689873 3.003369 0.06016 -1.673508 0.082402 -0.195313 1.563439 -3.376205 5.01384 0.617175 0.706584 0.581975 1.279525 -0.248962 0.636235 0.815199 0.102157 0.974239 -3.008136 -0.113715 -1.999952 -0.028238 1.75656 2.77157 0.995161 -1.89522 -1.736149 0.32308 -0.317786 -0.31094 2.083806 -0.024804 1.12182 2.637 1.254328 0.1288 -1.312012 -0.327148 -1.026754 0.244004 0.548496 2.300243 0.711489 0.907558 0.436453 -0.821056 -2.147506 -0.573226 0.083572 1.250763 1.020033
-0.046402 -0.091706 0.061221 0.133444 -0.008668 -0.16598 -0.07187 -0.087157 -0.052572 0.073168 0.095557 0.257013 0.142319 -0.081129 -0.066367 0.308917 0.028502 0.04387 0.083795 -0.016291 -0.082195 0.077681 0.230168 -0.005251 -0.04611 -0.08803 -0.157456 -0.023775 0.073221 0.062342 0.047893 -0.048412 -0.087557 -0.012438 -0.024717 -0.229277 0.183815 -0.090387 -0.017625 0.119046 -0.048995 0.155954 0.076712 -0.047176 -0.03431 -0.12912 0.198561 0.110542 -0.147049 0.033725 0.097346 -0.24984 -0.142597 -0.076786 0.134535 -0.136149 0.008805 0.126594 0.279123 -0.015593 0.230276 -0.168691 -0.002176 -0.161187 -0.101854 0.064825 -0.015816 -0.080153 0.098999 -0.150849 -0.02364 -0.029365 -0.100959 -0.006385 0.109394 -0.131104 0.018252 -0.186174 -0.086431 0.089744 -0.182748 0.154491 0.086368 -0.118594 0.304352 -0.019286 0.065491 0.018946 0.098769 0.25693 -0.159979 0.036608 -0.144006 0.07858 -0.158615 -0.15784 0.242939 -0.040458 -0.081704 -0.082728
0.0 0.0 0.0 0.0 0.0 0.0 0.0 0.0 0.0 0.0 0.0 0.0 0.0 0.0 0.0 0.0 0.0 0.0 0.0 0.0 0.0 0.0 0.0 0.0 0.0 0.0 0.0 0.0 0.0 0.0 0.0 0.0 0.0 0.0 0.0 0.0 0.0 0.0 0.0 0.0 0.0 0.0 0.0 0.0 0.0 0.0 0.0 0.0 0.0 0.0 0.0 0.0 0.0 0.0 0.0 0.0 0.0 0.0 0.0 0.0 0.0 0.0 0.0 0.0 0.0 0.0 0.0 0.0 0.0 0.0 0.0 0.0 0.0 0.0 0.0 0.0 0.0 0.0 0.0 0.0 0.0 0.0 0.0 0.0 0.0 0.0 0.0 0.0 0.0 0.0 0.0 0.0 0.0 0.0 0.0 0.0 0.0 0.0 0.0 0.0
0.0 0.0 0.0 0.0 0.0 0.0 0.0 0.0 0.0 0.0 0.0 0.0 0.0 0.0 0.0 0.0 0.0 0.0 0.0 0.0 0.0 0.0 0.0 0.0 0.0 0.0 0.0 0.0 0.0 0.0 0.0 0.0 0.0 0.0 0.0 0.0 0.0 0.0 0.0 0.0 0.0 0.0 0.0 0.0 0.0 0.0 0.0 0.0 0.0 0.0 0.0 0.0 0.0 0.0 0.0 0.0 0.0 0.0 0.0 0.0 0.0 0.0 0.0 0.0 0.0 0.0 0.0 0.0 0.0 0.0 0.0 0.0 0.0 0.0 0.0 0.0 0.0 0.0 0.0 0.0 0.0 0.0 0.0 0.0 0.0 0.0 0.0 0.0 0.0 0.0 0.0 0.0 0.0 0.0 0.0 0.0 0.0 0.0 0.0 0.0
0.0 0.0 0.0 0.0 0.0 0.0 0.0 0.0 0.0 0.0 0.0 0.0 0.0 0.0 0.0 0.0 0.0 0.0 0.0 0.0 0.0 0.0 0.0 0.0 0.0 0.0 0.0 0.0 0.0 0.0 0.0 0.0 0.0 0.0 0.0 0.0 0.0 0.0 0.0 0.0 0.0 0.0 0.0 0.0 0.0 0.0 0.0 0.0 0.0 0.0 0.0 0.0 0.0 0.0 0.0 0.0 0.0 0.0 0.0 0.0 0.0 0.0 0.0 0.0 0.0 0.0 0.0 0.0 0.0 0.0 0.0 0.0 0.0 0.0 0.0 0.0 0.0 0.0 0.0 0.0 0.0 0.0 0.0 0.0 0.0 0.0 0.0 0.0 0.0 0.0 0.0 0.0 0.0 0.0 0.0 0.0 0.0 0.0 0.0 0.0
-0.064488 -0.069993 0.094993 0.04353 -0.021518 0.020486 -0.193237 -0.034953 -0.270018 -0.037845 0.17373 0.006039 -0.077365 0.040952 0.044956 0.142139 -0.220156 0.162166 0.198308 -0.142877 0.04223 0.03488 0.135659 0.118072 -0.163726 0.076728 -0.106466 0.094981 0.059969 -0.088181 0.171021 -0.383633 -0.142376 0.022963 -0.033736 -0.15675 0.115579 0.144885 -0.048152 0.185793 -0.063083 -0.093281 0.022244 0.097918 -0.147135 -0.200449 0.055962 0.242058 -0.276377 0.094258 0.100654 0.018855 -0.102366 0.068181 -0.042578 -0.312198 0.195335 -0.188212 0.12077 -0.14602 0.019816 -0.04767 0.047202 0.090009 -0.142109 -0.068361 0.016456 -0.087872 0.058419 -0.046846 -0.051965 0.004995 -0.03837 0.080781 0.219409 -0.130813 -0.037579 -0.010874 0.048615 0.068293 0.053734 0.144883 -0.001789 -0.265273 0.123852 -0.114731 -0.00791 0.136954 0.264181 -0.01913 -0.035275 0.109262 0.032456 -0.134715 0.085859 -0.090352 0.030699 -0.135049 0.059159 -0.126211
-0.793787 2.419585 -0.797417 2.227383 1.571771 1.406275 1.235937 -0.525309 -0.656312 2.031588 1.782209 1.785774 -0.027709 1.187534 1.712129 2.019041 -3.858163 1.282584 -0.305382 -1.107469 -3.102788 -2.510505 1.722888 0.393522 1.085108 -0.778337 -1.231002 2.090062 0.025707 1.808496 2.902295 -0.251082 -1.41164 -0.814824 0.465813 0.163647 0.001262 0.170453 0.120514 -1.695735 -0.327196 -4.705218 -0.801684 0.125667 -2.589303 3.097778 1.308786 2.993875 0.511321 1.689873 3.003369 0.06016 -1.673508 0.082402 -0.195313 1.563439 -3.376205 5.01384 0.617175 0.706584 0.581975 1.279525 -0.248962 0.636235 0.815199 0.102157 0.974239 -3.008136 -0.113715 -1.999952 -0.028238 1.75656 2.77157 0.995161 -1.89522 -1.736149 0.32308 -0.317786 -0.31094 2.083806 -0.024804 1.12182 2.637 1.254328 0.1288 -1.312012 -0.327148 -1.026754 0.244004 0.548496 2.300243 0.711489 0.907558 0.436453 -0.821056 -2.147506 -0.573226 0.083572 1.250763 1.020033
1.560996 0.842868 -0.966121 0.794535 0.732082 2.167424 0.982662 0.057444 0.504819 0.07841 0.055279 1.416647 -0.670558 0.122239 -1.875473 -0.339444 -1.661959 -1.985793 -0.005729 -2.592115 -2.183448 0.044516 0.671895 -0.589479 0.827514 1.432932 1.133599 0.800224 0.356391 -1.617423 1.243533 -0.771712 1.46062 -1.283942 -0.283672 -0.793244 2.250382 0.636489 -0.035825 -2.112469 -0.960024 -2.532577 1.013875 -0.496549 -0.535743 1.359858 0.125133 -0.377994 0.914883 0.328853 0.713591 1.260942 -0.948324 1.504832 -1.93683 0.311228 0.965607 -1.013595 0.329382 -0.198887 0.96078 -0.013681 0.350227 0.828392 -1.894402 -0.039104 0.283785 -0.554694 -1.197001 0.540337 2.851685 1.269162 -1.080219 0.093043 0.787903 -0.091276 2.31099 1.354835 -1.181959 0.872145 0.826596 0.712391 -0.103207 1.442596 -0.009761 -0.491948 1.238818 0.369032 -0.415171 1.980595 2.066964 0.180408 -0.553874 -1.180511 -2.075199 0.329212 -1.398948 0.834816 -1.169907 1.291362
-0.046402 -0.091706 0.061221 0.133444 -0.008668 -0.16598 -0.07187 -0.087157 -0.052572 0.073168 0.095557 0.257013 0.142319 -0.081129 -0.066367 0.308917 0.028502 0.04387 0.083795 -0.016291 -0.082195 0.077681 0.230168 -0.005251 -0.04611 -0.08803 -0.157456 -0.023775 0.073221 0.062342 0.047893 -0.048412 -0.087557 -0.012438 -0.024717 -0.229277 0.183815 -0.090387 -0.017625 0.119046 -0.048995 0.155954 0.076712 -0.047176 -0.03431 -0.12912 0.198561 0.110542 -0.147049 0.033725 0.097346 -0.24984 -0.142597 -0.076786 0.134535 -0.136149 0.008805 0.126594 0.279123 -0.015593 0.230276 -0.168691 -0.002176 -0.161187 -0.101854 0.064825 -0.015816 -0.080153 0.098999 -0.150849 -0.02364 -0.029365 -0.100959 -0.006385 0.109394 -0.131104 0.018252 -0.186174 -0.086431 0.089744 -0.182748 0.154491 0.086368 -0.118594 0.304352 -0.019286 0.065491 0.018946 0.098769 0.25693 -0.159979 0.036608 -0.144006 0.07858 -0.158615 -0.15784 0.242939 -0.040458 -0.081704 -0.082728
0.0 0.0 0.0 0.0 0.0 0.0 0.0 0.0 0.0 0.0 0.0 0.0 0.0 0.0 0.0 0.0 0.0 0.0 0.0 0.0 0.0 0.0 0.0 0.0 0.0 0.0 0.0 0.0 0.0 0.0 0.0 0.0 0.0 0.0 0.0 0.0 0.0 0.0 0.0 0.0 0.0 0.0 0.0 0.0 0.0 0.0 0.0 0.0 0.0 0.0 0.0 0.0 0.0 0.0 0.0 0.0 0.0 0.0 0.0 0.0 0.0 0.0 0.0 0.0 0.0 0.0 0.0 0.0 0.0 0.0 0.0 0.0 0.0 0.0 0.0 0.0 0.0 0.0 0.0 0.0 0.0 0.0 0.0 0.0 0.0 0.0 0.0 0.0 0.0 0.0 0.0 0.0 0.0 0.0 0.0 0.0 0.0 0.0 0.0 0.0
0.023642 -0.033418 -0.065368 -0.077237 -0.023131 -0.01666 0.109329 -0.071902 0.062801 0.039845 0.148795 0.022279 -0.033313 0.021808 0.239187 -0.08721 -0.175498 0.029081 -0.040827 -0.029276 -0.086098 -0.15902 -0.033398 0.042278 0.124981 -0.030765 0.028417 0.073894 0.00855 0.035667 0.163449 0.099048 0.038305 0.314216 -0.005392 0.066826 0.260304 -0.189638 0.116148 -0.02674 -0.202298 -0.147073 0.073175 0.053558 0.012863 -0.065298 -0.053548 0.046997 0.014493 -0.044561 0.024142 -0.019223 -0.004661 0.10688 -0.154323 -0.118686 -0.028957 0.035459 0.064979 -0.101714 -0.025905 0.022247 0.012568 -0.044777 0.097248 0.19805 0.003512 0.018858 -0.090285 -0.060881 0.118181 -0.047211 0.105442 -0.116777 0.073733 -0.093917 -0.004179 -0.060928 -0.124383 -0.099921 -0.177899 -0.120009 -0.020528 -0.038147 0.030294 -0.114024 0.168003 -0.110367 0.103009 0.112822 0.19629 -0.164199 -0.072139 0.020273 -0.021859 0.072884 0.002728 0.055319 0.086852 0.084518
0.053781 -0.222944 0.204808 0.151615 0.017431 0.109608 -0.085225 -0.037154 -0.213211 0.05089 0.054283 0.068831 0.026976 -0.039968 0.082615 0.098736 0.14454 0.140029 0.097876 -0.032537 -0.047888 0.138885 0.155989 0.005763 -0.2063 -0.106865 0.060803 0.01138 0.24585 -0.024686 -0.072768 -0.020034 0.008524 0.003232 -0.075382 -0.046168 0.110014 -0.044878 -0.043512 0.010501 -0.047 0.077388 0.124494 0.083948 0.107861 -0.028797 -0.022475 0.031628 0.07426 -0.04296 -0.061435 -0.065162 0.016936 -0.112435 0.153688 0.093232 0.182286 -0.088026 0.102233 -0.082631 0.080156 -0.147229 0.061187 -0.198984 -0.047053 -0.10875 0.127417 0.074478 0.044638 -0.031404 -0.054157 -0.179801 -0.042449 0.132632 0.04176 -0.187576 -0.065778 0.006747 0.02051 0.059312 0.011187 0.110855 0.165564 -0.214982 0.119429 0.027408 -0.043915 0.010278 0.111847 -0.063662 -0.229417 0.079672 0.125218 0.100367 -0.012774 -0.130301 0.010793 0.065465 -0.089927 -0.017427
-0.098263 -0.084883 0.034784 0.172294 -0.01124 -0.053605 -0.019461 0.056189 -0.081285 -0.081539 0.127756 -0.03205 -0.022311 -0.115846 0.051413 0.047245 0.002923 0.196778 -0.112288 0.014615 -0.148362 -0.071209 -0.067693 0.199998 -0.014382 -0.022539 -0.107628 -0.124343 0.035283 0.007934 0.119461 0.137943 -0.066624 0.079967 -0.027283 0.021601 -0.154463 -0.134401 -0.035881 -0.079212 -0.026568 0.048786 -0.038821 -0.008025 0.047973 0.033427 -0.0152 0.045049 -0.279889 0.190525 0.044256 -0.063057 -0.023708 0.004312 0.176622 0.016291 0.081373 0.122306 0.15747 -0.088216 -0.151833 -0.082682 0.076055 -0.065176 0.008343 -0.042462 0.124247 -0.021835 0.096936 -0.020273 -0.014944 -0.070676 0.054131 -0.006845 0.007358 0.053526 -0.160168 0.043703 0.137935 -0.077059 0.011245 -0.174355 0.16911 0.169298 0.022539 0.022888 0.201173 0.042145 0.091121 0.13332 -0.132077 -0.110411 0.063511 0.212589 -0.010085 -0.096309 0.014029 -0.151089 0.037931 -0.060845
0.041182 -0.071701 -0.007566 -0.111173 0.078129 -0.015794 0.102992 0.084804 -0.294614 0.062785 -0.224475 0.044822 -0.054604 0.018822 -0.254624 0.187632 0.057536 -0.04948 0.077868 0.052887 -0.065284 -0.04327 -0.015092 0.035227 -0.120777 -0.01384 0.019468 0.133926 -0.002242 0.025286 0.056421 -0.140413 -0.062551 0.118069 0.067541 0.127629 -0.190311 0.209374 0.192921 0.054712 -0.148947 0.032204 -0.170128 -0.03032 -0.002925 0.169345 0.085453 -0.024603 -0.011659 -0.145112 -0.290293 -0.065943 -0.09053 -0.275955 0.113964 -0.118032 -0.172779 -0.215132 0.00824 0.127013 -0.169866 0.062208 0.042766 -0.087616 -0.10884 0.286924 0.050741 0.130539 0.292731 0.017204 -0.096873 -0.187146 0.25168 0.10377 0.08209 -0.05794 0.019952 -0.023549 -0.204179 -0.090327 0.135311 0.171028 -0.109687 0.012397 -0.001672 0.281126 0.051025 0.031007 0.309401 0.149164 -0.249441 -0.005679 -0.012549 0.20681 0.267068 -0.060891 -0.256129 0.182048 0.03837 0.01928
-0.13982 -0.070825 0.118315 -0.188916 -0.048283 -0.132856 -0.029281 0.019655 0.085709 0.086609 -1.09E-4 -0.165678 -0.168657 0.064968 0.117705 -0.089967 0.060461 0.154044 0.159206 -0.216385 -0.034292 0.002616 0.114454 0.012079 -0.101054 -0.066247 -0.019818 0.041505 0.08108 -0.193241 0.068194 0.076214 0.125376 -0.052328 0.091661 0.081679 -0.014446 0.060696 -0.224715 0.121678 0.111638 0.099933 -0.210582 -0.010916 -0.042724 -0.052161 0.059768 0.005555 -0.012583 0.011093 0.255467 -0.151262 0.143106 0.058177 -0.061392 0.09274 0.044614 -0.077992 0.039983 0.041117 0.050478 -0.036416 -0.244948 -0.113915 0.055078 0.070349 -0.061488 0.015295 -0.138233 0.021685 -0.017643 -0.02245 0.109452 0.020738 0.047203 -0.046728 0.127734 -0.069984 -0.010974 -0.151913 -0.108325 -0.106444 0.117066 0.045376 0.06448 0.087222 -0.020649 0.009947 0.146502 -0.081502 -0.023772 -0.027065 0.059738 0.169912 -0.134561 -0.043472 -0.114556 -0.049832 0.014935 -0.004474
0.018827 0.064355 -0.111836 0.284874 0.020097 -0.096826 -0.103897 -0.122568 0.020745 -0.059838 -0.055917 0.212417 0.047448 -0.037858 0.136713 0.142563 -0.028632 0.017192 0.088663 0.052239 -0.094337 -0.080084 0.009952 0.036324 -0.051929 -0.071521 -0.225569 0.106217 0.030082 -0.107296 0.124294 0.136108 -0.098003 -0.099345 -0.165261 0.03011 -0.107959 0.109622 0.02938 -0.046273 0.02244 0.18104 0.310698 0.032023 -0.161014 -0.045956 -0.177458 0.057487 -0.125923 0.265881 0.034389 0.051516 0.095786 0.008258 0.006661 0.03571 -0.051736 0.069153 -0.015455 -0.148001 0.191739 -0.297236 0.092893 -0.290168 -0.069909 0.151388 0.002069 -0.066634 -0.015485 -0.055387 -0.271773 -0.083529 0.207013 -0.025487 -0.010692 -0.005235 -0.080305 0.288168 0.136206 -0.022424 0.021006 0.085554 0.039145 0.064902 0.065358 -0.025097 0.133925 -0.061502 0.064067 -0.13904 -0.147467 -0.107993 0.234128 0.067893 -0.053044 -0.142389 -0.037975 0.113715 0.103891 0.010414
1.155368 3.302179 -0.818617 0.201583 -0.372035 -0.220049 -2.421694 1.24088 1.022918 0.281963 -0.56672 0.218504 -2.654141 0.687099 1.426786 -2.744465 -2.044989 -0.49789 -1.769702 -2.328375 -1.105508 0.104665 -0.061522 -2.669585 1.369504 1.778184 -0.869744 -1.441309 0.051265 1.116249 1.903031 -0.163683 1.731475 -0.652558 -1.459245 -0.212579 0.382415 1.861636 -0.394668 -0.423196 -0.983827 -1.176007 1.844253 0.853456 0.976233 -0.076248 -1.490589 -0.553926 0.506191 0.326236 0.251095 1.038919 -0.803142 0.658979 -3.236482 -1.07965 1.27678 -0.350029 -1.778651 0.292774 0.002745 0.267431 1.072933 -0.321661 -1.19536 -1.465055 -2.523761 -3.574044 -0.123843 -0.515256 3.2036 -0.08683 1.099575 -0.639959 -1.310584 0.629968 -0.142079 0.66081 -1.289981 -0.152693 -0.105374 0.388507 -1.068849 2.207516 -1.516502 0.618648 0.057959 1.61471 0.888036 -0.337188 -0.73306 -0.809614 -1.409634 -0.094797 -0.938314 1.210802 1.47048 2.210952 -1.933366 0.819087
-0.072979 -0.049148 -0.158062 0.032027 0.026724 -0.108417 0.177498 -0.254844 0.173076 0.338931 -0.080219 0.200941 0.017275 -0.106422 0.084503 0.224699 -0.279222 -0.034753 0.247635 -0.133338 -0.158055 -0.128108 -0.062005 0.104672 0.232352 -0.086018 -0.105067 0.049899 0.127191 -0.353358 0.138883 -0.242188 -0.135119 0.30134 -0.036763 0.017714 0.073597 -0.018695 -0.22954 -0.037377 -0.055274 -0.155144 -0.007533 -0.057589 -0.10086 0.112048 0.136518 0.182805 -0.12489 0.124146 0.417189 -0.010692 -0.120679 -0.09896 -0.006292 -0.109782 -0.436231 0.229605 -0.020507 -0.039977 -0.079964 -0.026368 -0.287936 0.025388 -0.008777 0.200896 0.245816 -0.087228 0.244894 0.065794 0.081228 0.117666 0.02191 0.02416 -5.66E-4 -0.009692 0.010342 0.109354 0.009639 0.053249 -0.207455 0.186564 0.091517 -0.02163 -0.142123 -0.14818 0.053476 -0.132615 0.125904 -0.117055 0.202813 0.008046 -0.299578 0.406907 -0.075427 -0.176287 -0.003067 0.19139 0.061636 0.159036
-0.046402 -0.091706 0.061221 0.133444 -0.008668 -0.16598 -0.07187 -0.087157 -0.052572 0.073168 0.095557 0.257013 0.142319 -0.081129 -0.066367 0.308917 0.028502 0.04387 0.083795 -0.016291 -0.082195 0.077681 0.230168 -0.005251 -0.04611 -0.08803 -0.157456 -0.023775 0.073221 0.062342 0.047893 -0.048412 -0.087557 -0.012438 -0.024717 -0.229277 0.183815 -0.090387 -0.017625 0.119046 -0.048995 0.155954 0.076712 -0.047176 -0.03431 -0.12912 0.198561 0.110542 -0.147049 0.033725 0.097346 -0.24984 -0.142597 -0.076786 0.134535 -0.136149 0.008805 0.126594 0.279123 -0.015593 0.230276 -0.168691 -0.002176 -0.161187 -0.101854 0.064825 -0.015816 -0.080153 0.098999 -0.150849 -0.02364 -0.029365 -0.100959 -0.006385 0.109394 -0.131104 0.018252 -0.186174 -0.086431 0.089744 -0.182748 0.154491 0.086368 -0.118594 0.304352 -0.019286 0.065491 0.018946 0.098769 0.25693 -0.159979 0.036608 -0.144006 0.07858 -0.158615 -0.15784 0.242939 -0.040458 -0.081704 -0.082728
0.0 0.0 0.0 0.0 0.0 0.0 0.0 0.0 0.0 0.0 0.0 0.0 0.0 0.0 0.0 0.0 0.0 0.0 0.0 0.0 0.0 0.0 0.0 0.0 0.0 0.0 0.0 0.0 0.0 0.0 0.0 0.0 0.0 0.0 0.0 0.0 0.0 0.0 0.0 0.0 0.0 0.0 0.0 0.0 0.0 0.0 0.0 0.0 0.0 0.0 0.0 0.0 0.0 0.0 0.0 0.0 0.0 0.0 0.0 0.0 0.0 0.0 0.0 0.0 0.0 0.0 0.0 0.0 0.0 0.0 0.0 0.0 0.0 0.0 0.0 0.0 0.0 0.0 0.0 0.0 0.0 0.0 0.0 0.0 0.0 0.0 0.0 0.0 0.0 0.0 0.0 0.0 0.0 0.0 0.0 0.0 0.0 0.0 0.0 0.0
0.145381 0.046322 0.121798 -0.036793 0.209872 0.002043 0.076196 -0.057282 0.061361 0.165965 0.001073 -0.078354 0.115764 -0.025617 -0.155768 -0.087534 -0.032241 0.069316 -0.138455 -0.027333 0.080839 0.020695 0.133976 0.265946 0.050066 -0.166508 -0.102664 -0.073444 -0.178115 0.177408 0.021642 0.151318 -0.108893 0.04261 -0.192118 0.00644 0.008557 -0.059839 -0.024424 0.132975 -0.058117 0.057334 0.08031 0.066405 0.055734 0.186993 0.128564 -0.022198 0.181221 0.06031 -0.096126 -0.025663 0.109576 -0.171479 -0.065868 -0.032279 -0.056375 -0.004651 0.14055 0.113262 -0.074176 0.233428 0.106469 -0.135542 -0.061566 -0.281672 0.031765 -0.032073 0.221977 -0.023083 0.158827 -0.078451 0.268537 -0.051379 -0.003568 -0.109362 -0.025252 0.129098 -0.030903 -0.102856 -0.062839 0.403456 0.040537 0.141656 -0.19579 0.134911 0.109547 0.057155 0.032451 -0.031885 0.042549 -0.235954 -0.143636 0.172367 -0.160338 -0.052671 -0.067787 -0.125373 -0.057891 0.204374
1.519526 1.445578 -1.609499 2.582747 2.460795 3.529971 0.431498 -0.524736 0.238502 0.565084 -2.150664 2.607871 -3.578636 0.22885 1.205379 0.400126 -2.365878 -2.228676 -0.500047 -1.958516 -2.734259 -2.028213 -0.339577 -2.726884 0.003785 -1.85554 -0.90189 1.042933 0.930181 0.561229 0.956561 0.220468 -1.219533 -0.188243 -0.649085 -0.117874 2.101841 -0.317004 1.300647 -1.49228 0.533457 -2.976113 -0.635474 -1.431524 -0.943268 0.543614 -2.072507 -1.004219 4.072807 -1.496014 2.612373 2.458477 -0.120651 0.418572 -2.53177 0.646754 2.04053 2.0667 -2.403623 -3.037353 -1.289071 1.269349 0.447478 0.512568 0.464348 -0.142416 -1.155552 0.32258 -0.986119 3.909852 3.839548 0.865499 -1.089316 -1.400134 0.517204 -3.398406 -0.576028 -0.612853 -0.573641 -1.979957 1.278503 1.159562 0.583915 -0.210028 0.851463 1.075476 2.276915 0.114312 2.2836 1.968815 1.899569 0.001135 -2.286771 -2.666814 -1.408445 1.975128 -0.085175 1.44887 -1.994305 2.796178
-0.079705 -0.00982 0.048693 -0.031077 0.102375 0.014261 -0.166017 -0.050237 -0.142458 0.216548 0.052275 0.183186 0.074702 0.07403 0.187212 -0.002286 0.148544 0.284238 0.204104 0.131839 0.102347 0.10251 0.132246 0.006668 0.039868 -0.191978 0.007489 -0.22714 -0.076693 0.053087 -0.225312 0.092043 -0.072434 0.025744 -0.060089 0.053958 -0.064263 0.116749 -0.00591 -0.001093 0.049946 0.192275 0.124727 0.120368 0.055669 0.050612 0.100146 0.054321 -0.093042 0.098358 -0.004394 -0.025176 0.003648 0.056023 0.273264 -0.069858 0.168579 0.040079 0.092591 -0.01619 -0.036516 -0.049934 0.041822 -0.136447 -0.118666 -0.069571 0.078213 0.095838 -0.068948 0.048359 -0.080978 -0.225815 -0.053206 0.034585 0.152497 -0.218659 -0.026619 0.044708 0.071186 -0.108052 -0.136472 0.057954 -0.001526 -0.134722 -0.017998 -7.9E-4 0.044567 -0.069105 -0.085579 -0.029555 -0.181781 -0.104784 0.00824 0.009907 -0.066423 -0.12315 0.21492 -0.069621 -0.041674 -0.088963
-0.01875 -0.285329 -0.002424 0.108049 -0.121485 0.011509 -0.309429 0.071278 0.030139 -0.09504 0.026686 -0.113073 0.095932 -0.179022 0.042966 0.129678 0.08961 0.196302 0.063608 0.023636 0.017566 0.282635 0.203737 -0.001727 -0.166336 0.016611 0.066798 0.070245 -0.044842 -0.010532 0.02894 0.068283 0.222737 -0.011348 -0.061199 -0.009894 -0.096135 0.074612 0.011411 0.061689 -0.114957 0.107116 0.054659 -0.135911 0.206663 -0.107839 -0.106604 0.14633 0.055843 0.071442 0.032643 -0.128132 0.097352 -0.140302 -0.003045 -0.183681 0.160041 -0.078107 0.0398 -0.116372 -0.065673 -0.00229 -0.127849 0.022587 0.141333 -0.050803 0.054219 -0.019527 0.040823 -0.187221 -0.087694 0.011191 -0.043953 -0.204306 0.081344 -0.016947 -0.105763 -0.100188 -0.004993 0.025402 0.12403 0.063183 0.003483 0.031502 -0.006452 0.015156 -0.143862 -0.149512 -0.053303 0.05853 -0.072347 -0.161299 0.009473 0.162584 0.023232 0.039946 -0.041596 -0.076351 -0.12545 -0.034996
-0.057979 -0.037179 0.078829 0.028023 0.024966 -0.076814 -0.163232 -0.165893 0.080963 0.052362 0.194472 0.162104 -0.059948 -0.130611 0.116564 0.156312 0.078845 0.138934 0.074483 -0.067959 -0.101799 0.079863 -0.003455 0.100289 -0.195062 -0.032084 0.057559 -0.058524 0.019896 -0.163092 0.04417 0.076618 -0.117228 0.059405 0.009847 -0.084033 0.007911 0.091666 -0.056731 0.008748 -0.122501 0.07818 0.068898 0.07906 0.035539 -0.106055 -0.073976 0.151102 -0.201606 0.02665 0.055031 0.002526 -0.027947 0.117948 0.023095 -0.124161 0.023863 -0.064064 -0.007178 -0.093157 0.025792 -0.14652 0.011475 -0.157312 0.090424 0.027935 -0.042535 0.034816 0.072076 -0.175002 -0.040896 -0.029544 0.087093 -0.110089 0.118617 -0.082232 -0.028298 -0.001364 0.034411 -0.117591 0.074807 0.196216 0.072712 -0.220792 0.194228 0.007396 0.054378 -0.089073 -0.029378 0.114734 -0.090957 -0.031401 -0.107236 0.146533 0.072302 -0.119735 -0.066842 -0.069018 0.026788 -0.003694
-0.36841 1.513444 -1.838171 3.403038 0.671672 1.622458 -2.908681 -1.708858 0.863716 2.282866 0.635927 -0.103462 0.331327 2.300215 1.017446 5.214146 -1.881265 -0.23936 0.333033 -0.844694 -3.591968 -2.612507 0.919915 -1.027188 0.497727 1.467576 0.224107 3.03871 -2.756592 2.188018 1.117249 0.052708 -0.885234 -1.085475 0.032046 1.576074 1.698914 0.318818 -0.029863 -0.116492 -2.056068 -2.644953 1.452071 -0.582875 -1.927319 1.999539 -0.720461 2.422593 2.040711 2.822704 1.843434 -1.513669 1.937895 -0.581443 -2.485586 -0.940137 0.316515 3.948978 0.16494 -0.302284 3.51631 2.876316 -0.965426 -0.904518 -0.289307 0.658121 0.923617 -2.860303 0.806213 1.394096 3.472015 1.425355 4.661679 4.072598 -2.100009 -2.317379 1.78491 -0.0546 0.753992 -0.211913 -0.352573 -1.606013 4.150368 0.369519 0.272659 -0.573907 0.054241 -0.329642 -1.305306 0.819769 2.941053 2.908024 1.617088 0.703031 1.032178 0.368721 -1.464458 -0.340373 -0.38375 -0.451768
1.805017 -0.047342 -2.700709 1.14398 0.90462 1.623214 -1.733883 0.40973 0.730245 -0.336809 0.809732 1.496362 -0.557908 0.769405 0.939867 -1.173768 -3.119434 1.684508 2.293697 -2.458411 -0.737913 -1.88993 -1.483012 -0.041193 -1.540164 2.203254 -2.235684 0.357471 -2.209526 1.170667 0.135491 3.819394 -1.263166 -1.137016 0.277635 -0.047521 -0.041291 -0.225069 -0.143245 0.42224 2.375386 0.32087 -1.725626 0.223451 -0.270407 -0.258081 -0.75204 -0.063166 -1.446973 0.704301 -0.565702 -0.539529 -0.103783 0.650753 -5.045749 -2.108791 -2.477634 2.898002 -2.296671 -0.20628 -0.014582 -2.288828 -2.351974 0.442772 0.651784 3.417854 0.543779 -1.309973 0.031745 -1.500893 -2.16141 -0.638412 2.332 1.610489 -1.510949 1.394225 -1.646691 2.661525 -1.624314 1.05501 -2.475263 0.104331 3.777959 -0.579481 1.430409 -0.451134 0.757001 0.311747 -4.473263 -1.159796 0.731683 4.085809 0.51002 1.195336 2.360251 -2.923724 -2.084777 -0.237672 1.471049 -1.920072
-0.671963 -1.356401 3.602218 0.823366 -0.502176 -0.026847 2.688116 0.953721 0.412325 -0.074957 -2.563688 0.379861 -0.279054 0.512633 -0.426346 -0.669122 -2.193019 -1.985633 1.195718 -0.843091 -3.07709 -2.336138 0.676971 -1.157188 0.84245 -0.067074 1.662677 -0.902702 0.573933 0.762577 1.605777 -0.494156 -0.764054 -4.857189 1.199538 0.081996 1.582965 -1.800896 1.133021 -2.874443 -0.067305 0.527258 -0.963475 2.056148 -0.810059 -2.590427 0.192699 -0.925293 0.533123 0.50128 0.198265 1.047486 -1.15476 -0.133629 -3.660616 2.9145 0.67414 -1.747608 -1.472014 0.506851 -0.089567 -1.009712 -0.989767 -0.231732 -1.20197 -0.899847 -0.180586 -0.280434 1.214359 0.601947 3.002038 1.452004 1.898121 0.64863 -0.773459 -0.546508 1.482508 0.349815 -0.022055 1.977613 1.349274 -0.187718 2.026595 2.419264 -2.256871 -0.764584 -0.110956 2.609596 -0.511332 0.497735 1.205947 -0.553892 0.146347 -2.201324 -0.117853 -0.193777 0.312823 3.388883 -4.036498 2.412019
-0.718438 -0.830038 -0.584242 2.1215 -0.644012 1.416116 -0.587713 -0.321771 0.15449 -1.337212 0.646351 2.943981 -2.520119 -0.053393 1.892255 -0.247068 0.153723 -1.774544 -1.713547 1.03615 -2.316809 -1.758234 0.596352 -1.216816 0.651834 0.378166 -0.461749 -1.113127 -1.262089 1.808952 2.079526 -0.645053 -1.036425 -0.051591 0.752853 1.877822 1.149022 -1.563167 0.088195 1.179668 0.264795 -0.643595 -1.254162 2.294433 -0.67558 -0.480528 -1.903531 -1.404449 3.451226 0.215378 -0.348073 3.059608 -0.201534 3.176656 -2.660815 -0.397857 0.658943 0.204092 -2.861443 -2.700162 -0.267356 1.597524 -0.058446 0.400235 0.112722 2.04443 -0.418444 -0.708333 -0.409393 0.970238 4.077705 1.113589 0.123738 0.071757 1.385313 -2.550826 0.377188 -1.266978 -0.033552 1.268038 1.334944 -1.192168 -2.617046 1.325431 1.537295 0.868143 0.029881 0.136091 0.48518 -1.968409 0.753802 -0.972635 0.324233 1.386425 1.801178 1.298403 -2.240443 1.965765 -0.567086 2.183566
2.591633 1.608701 -2.087245 2.00752 3.012652 4.995656 0.847355 -1.594905 -0.365708 -1.629805 -1.650237 3.712017 -0.231463 -0.537534 -2.036098 2.002639 -0.696666 -4.310136 -1.477319 -1.356504 -0.581823 -1.830239 -0.272773 -1.648095 0.090509 0.008711 0.330842 0.396714 2.341035 -0.526067 1.155793 -1.730906 -1.010387 -1.342646 -1.939355 0.734869 0.727366 0.700702 1.516974 -2.133831 -0.280653 -3.051674 0.017123 0.532043 1.478449 0.375441 0.920129 1.548929 1.087478 0.668327 0.707416 3.249232 -0.362503 1.273221 -2.929682 -0.245389 1.633444 -0.119836 0.103459 -3.445175 0.513245 0.427807 0.738792 1.448203 0.501908 0.362882 -0.731533 -0.391201 0.037778 3.053553 4.030229 1.793904 1.24136 0.081706 -1.401954 -0.638804 -0.487445 -0.267924 0.012844 0.538179 -0.241935 -0.068756 1.351665 -0.112558 0.001814 0.447262 0.833441 -0.023876 1.212707 1.514635 -0.568611 0.376173 -3.663739 -4.345135 -0.444319 2.139788 -2.53093 0.92131 -1.399435 1.763954
0.001564 -0.127255 0.103199 0.012475 -0.087582 -0.05006 -0.040662 -0.167026 0.224035 0.054072 0.043824 0.005381 0.04625 -0.103767 -0.120666 0.266492 0.045953 0.117641 0.028697 -0.092203 -0.043896 0.019176 0.09755 0.093464 -0.030795 -0.146396 -0.056036 0.152562 0.020018 0.063471 -0.131383 -0.073576 -0.150236 0.109508 0.052882 -0.040904 0.102418 -0.043468 0.033417 0.089466 0.055432 -0.068102 -1.26E-4 0.011228 -0.195282 -0.136976 -0.077216 0.1808 -0.263871 -0.003575 0.027516 -0.050603 0.075971 -0.17313 0.12128 -0.163844 0.218397 0.026672 0.247042 0.059902 0.075497 -0.005301 -0.021007 0.119021 -0.096329 0.136222 -0.058893 0.065961 0.056724 -0.236547 -0.127701 0.050667 -0.046245 -0.154499 0.230465 -0.191131 -0.01343 0.067695 -0.201374 0.014724 -0.099319 0.09462 0.018381 -0.047268 -0.049327 0.032209 0.065218 5.61E-4 0.054597 0.033328 -0.052345 -0.021349 0.144751 0.253881 -0.128719 -0.191529 0.133758 0.177568 -6.66E-4 0.040142
-0.178361 0.023108 0.030516 -0.00779 -0.127135 0.033774 -0.058489 0.108023 -0.081989 0.181792 0.15754 -0.042374 0.022531 0.074904 0.06134 0.212379 0.125077 0.182368 0.042925 0.141779 -0.175989 0.068378 0.056694 0.173894 -0.156246 -0.052193 0.009312 0.006255 0.137546 -0.101633 -0.01366 -4.65E-4 -0.057965 0.105498 0.088793 -0.099231 -0.069107 0.033709 -0.094455 0.070188 0.08289 0.088396 0.081002 -0.251021 0.005646 -0.147359 -0.131828 0.036224 -0.096342 -0.051767 -0.006245 -0.057025 -0.177246 0.121287 0.13194 -0.054862 -1.47E-4 -0.090271 0.044172 -0.094164 0.068466 0.014386 0.044188 0.055794 -0.294903 -0.052435 0.071505 -0.126545 0.164685 -0.079436 -0.032483 0.014316 0.023237 0.036095 -0.003958 -0.126208 -0.175707 0.050816 0.018969 -0.135684 -0.112811 0.192106 0.262908 -0.161332 0.045463 -0.091907 -0.012066 -0.066752 -0.01573 0.008406 -0.178769 -0.032234 0.170579 0.307644 -0.092665 -0.064283 -0.192889 -0.104724 0.032471 -0.060748
0.133658 0.009986 0.138952 -0.095045 -0.150601 0.033429 -0.157539 0.119307 -0.14746 -0.174664 0.05436 -0.064403 -0.251236 -0.01319 0.231859 0.256623 0.059431 0.043622 0.189471 0.107568 -9.43E-4 0.118534 0.178217 0.134863 -0.240821 -0.108322 -0.030546 -0.031988 0.28019 -0.204743 -0.015384 -0.023617 0.100566 0.067937 -0.017835 -0.045019 -0.015679 -0.052514 0.076652 0.140144 -0.013811 -0.128432 -0.008102 0.128145 0.067734 0.098241 -0.04858 -0.03594 -0.15693 -0.083071 -0.066534 -0.344305 -0.14579 0.128798 0.113175 0.11337 -0.069072 0.012222 -0.017767 -0.111976 -0.136179 -0.160598 -0.252375 -0.269066 -0.112411 -0.104676 -0.125442 -0.202172 -0.031036 0.060726 -0.154076 0.055114 -0.110781 -0.067322 0.019866 -0.053324 0.138083 -0.006563 -0.125187 -0.004538 0.005156 -0.049674 0.065453 -0.297967 -0.067816 0.207561 -0.017369 -0.090657 -4.77E-4 0.201038 -0.180319 -0.095071 -0.090069 0.025703 0.007828 -0.027208 -0.029666 -0.24264 0.016459 0.091212
0.047836 -0.260219 0.14638 0.007779 -0.104955 -0.050724 -0.319432 -0.027407 -0.104778 0.124311 0.14477 0.148278 -0.013076 -0.069917 0.254554 0.25292 0.091697 0.206138 0.168034 0.12307 -0.258927 -0.00695 0.102032 0.075771 -0.201948 -0.129118 -0.138297 -0.097396 0.264104 -0.141635 -0.00303 -0.004618 -0.171331 0.006413 -0.129962 -0.058793 -0.107657 -0.040955 0.117533 0.181708 -0.064138 0.225566 -0.062915 -0.035464 0.269723 -0.089994 -0.005719 -0.078063 -0.215832 0.079343 0.266575 -0.25419 -0.128297 0.038341 0.119308 -0.207662 -0.029523 0.019236 0.024436 -0.109361 0.007955 -0.078744 0.071111 -0.325345 -0.091151 0.006054 0.103893 0.156867 0.20827 -0.195221 -0.011492 -0.084134 -0.077224 -0.110934 0.098004 -0.068865 -0.108344 -0.153112 -0.094614 -0.187216 -0.01459 0.218526 0.241999 -0.141711 0.084584 0.252269 0.155438 -0.088298 0.260633 0.198838 -0.176457 -0.052125 -0.045839 0.131111 -0.115358 -0.197565 0.088973 -0.089591 0.060949 -0.086675
-0.088393 -0.146106 0.217346 0.013461 0.14206 0.112249 -0.131849 -0.026853 -0.105337 0.070846 0.068113 0.073003 0.065748 0.034382 0.150759 0.189027 0.037061 0.218421 0.012166 0.012416 0.016741 0.082563 0.134716 0.079045 0.003767 -0.080953 0.032409 0.061713 0.057373 -0.119377 -0.069885 0.007188 -0.080992 0.279457 -0.048062 -0.100737 0.082162 -0.078683 0.098924 0.003596 -0.078868 0.123608 -0.160253 0.086996 0.116536 -0.085338 0.106765 -0.109479 -0.176457 -0.012875 0.05623 -0.004932 -0.127514 -0.0154 0.026224 -0.089977 0.071541 -0.083851 0.032595 -0.005932 0.078327 0.020204 0.024084 -0.197656 0.1245 0.150092 -0.04379 -0.057668 0.095754 -0.243341 -0.053762 0.100638 0.041679 0.198625 0.140688 -0.137497 0.097823 0.115471 -0.035016 -0.122948 -0.069367 0.0144 0.026779 -0.187272 0.017289 0.060159 0.015718 -0.046635 0.208143 0.02484 0.033166 -0.104856 0.084273 0.020137 0.05623 -0.188608 0.185021 0.060612 -0.05721 0.040974
-2.624672 -1.554463 0.721791 0.057634 -4.060073 0.62512 -1.904671 -1.214719 3.417883 -2.21608 -1.288049 0.833958 2.562591 -2.007247 -1.089559 -1.856265 -2.632277 -1.096159 -0.575553 -0.097507 -3.172086 0.974568 0.031504 -0.139215 -0.808232 0.751506 1.58791 3.674081 -0.526015 3.586167 3.317653 0.353082 0.054125 0.255352 -0.233135 -0.196828 2.473883 -2.154672 -0.635499 -2.408924 -2.285774 -0.679714 -0.537962 -2.375608 -0.359529 2.122944 -3.349861 0.568652 -2.574357 1.057826 0.861368 1.753231 2.829964 2.314444 -0.260215 3.682849 1.61588 0.415127 -1.524783 -1.360525 2.612372 1.309274 2.014461 3.862636 4.902708 -0.900143 -0.204208 -1.736223 0.101982 0.048446 0.558404 0.62084 -4.266359 -2.985905 -4.302859 2.362859 0.888264 2.322715 -1.663494 1.137201 0.95968 -3.628558 0.498155 -0.315144 0.055032 -1.361952 1.850147 4.145928 -1.920611 -2.244518 -2.592072 -2.563996 -1.97104 -1.054235 -2.718191 1.924839 -0.246865 3.447866 0.018846 0.871122
0.018827 0.064355 -0.111836 0.284874 0.020097 -0.096826 -0.103897 -0.122568 0.020745 -0.059838 -0.055917 0.212417 0.047448 -0.037858 0.136713 0.142563 -0.028632 0.017192 0.088663 0.052239 -0.094337 -0.080084 0.009952 0.036324 -0.051929 -0.071521 -0.225569 0.106217 0.030082 -0.107296 0.124294 0.136108 -0.098003 -0.099345 -0.165261 0.03011 -0.107959 0.109622 0.02938 -0.046273 0.02244 0.18104 0.310698 0.032023 -0.161014 -0.045956 -0.177458 0.057487 -0.125923 0.265881 0.034389 0.051516 0.095786 0.008258 0.006661 0.03571 -0.051736 0.069153 -0.015455 -0.148001 0.191739 -0.297236 0.092893 -0.290168 -0.069909 0.151388 0.002069 -0.066634 -0.015485 -0.055387 -0.271773 -0.083529 0.207013 -0.025487 -0.010692 -0.005235 -0.080305 0.288168 0.136206 -0.022424 0.021006 0.085554 0.039145 0.064902 0.065358 -0.025097 0.133925 -0.061502 0.064067 -0.13904 -0.147467 -0.107993 0.234128 0.067893 -0.053044 -0.142389 -0.037975 0.113715 0.103891 0.010414
0.050302 -0.12009 0.084174 -0.116491 -0.045555 -0.124316 0.051145 -0.174034 -0.027692 0.103208 -0.060318 -0.05675 -0.081737 -0.083512 0.163925 0.144075 -0.125168 0.079343 0.172383 -0.022537 -0.024177 0.066972 0.088805 -0.047403 -0.136072 -0.188316 -0.012886 0.054933 0.08408 -0.018094 0.189229 -0.023451 -0.162673 0.174362 0.073498 -0.007578 -0.03952 -0.04219 0.091584 0.036354 0.049459 -0.016062 -0.171457 0.071997 0.034782 -0.083476 -0.154245 0.099422 0.004489 0.059936 0.047365 -0.114978 0.053816 -0.055702 -0.00184 -0.072897 -0.102248 -0.089562 7.6E-4 -0.019302 0.056548 -0.086836 -0.317136 0.028696 0.035258 0.180164 0.170379 -0.03028 0.053334 -0.080353 -0.062281 0.174468 -0.131705 0.049609 0.159631 -0.058574 -0.089801 -0.038587 -0.001592 -0.126052 -0.111993 0.081373 -0.033031 -0.227569 -0.049212 0.075016 8.7E-5 -0.02541 0.065638 0.119082 -0.077241 -0.002513 -0.116225 0.268898 0.069817 0.050859 -0.053378 -0.149207 -0.010042 0.090943
0.014895 -0.074651 0.149306 0.034592 -0.124813 -0.093557 -0.109336 0.095357 -0.004559 0.120353 0.063101 0.05611 -0.170765 -0.006183 0.124002 0.088 -0.022982 0.178539 0.120661 -0.099426 -0.17549 -0.103627 0.078423 0.137021 -0.092399 0.002396 -0.042626 -0.023468 0.096275 -0.108979 0.132579 0.107589 0.023667 0.08889 -0.068845 0.075061 -0.090449 -0.124697 0.044909 0.153786 -0.062018 0.140137 0.011821 -0.024917 0.008052 -0.056226 0.022864 0.329903 -0.163185 0.142635 0.012172 -0.079026 -0.007989 0.170461 0.037373 -0.096909 -0.048095 0.015752 -0.069819 -0.092043 0.043143 -0.075547 -0.063596 -0.256005 -0.12047 0.106857 0.001612 -0.163451 0.158917 -0.023493 -0.246208 0.135086 -0.028539 0.047393 -0.002472 -0.10495 -0.291074 -0.025242 -0.243293 -0.04879 -0.104205 0.125458 0.272848 -0.229472 0.076153 0.001134 0.120864 0.078803 0.239046 0.089035 -0.119129 0.043415 0.055045 0.077094 0.11125 -0.099579 0.005875 -0.083713 0.00718 0.06281
-0.16225 -0.032322 -0.03917 0.096177 0.096948 0.061502 -0.036537 0.098782 -0.089099 -0.151664 0.035142 0.25276 0.090552 0.030173 -0.166204 0.207673 -0.278657 0.051852 0.192001 -0.171525 -0.279041 -0.229337 0.201596 -0.019003 0.182247 -0.057525 0.053857 -0.186438 0.172656 0.021237 0.07688 -0.168025 -0.052865 -0.004899 0.194309 -0.075175 0.249231 0.062088 0.129553 -0.202323 -0.207369 0.128355 -4.74E-4 0.248014 0.06558 -0.200034 0.31 -0.066517 -0.154945 -0.008659 0.108006 -0.080843 -0.161406 0.174536 -0.211446 0.082693 -0.133933 -0.121253 0.137987 0.135345 0.118639 -0.142715 0.066458 -0.165393 -0.176125 0.10435 0.150449 0.09377 0.291957 0.041535 0.094704 0.014485 0.242912 0.006219 -0.145365 0.159966 -0.12923 -0.071031 0.128476 -0.067087 -0.001964 -0.214279 0.267862 0.012321 -0.026008 -0.039113 -0.004982 0.211859 -0.0904 -0.020908 -0.134764 -0.077557 -0.038871 0.05068 -0.272739 -0.163474 0.051106 0.142399 -0.144492 0.070792
-0.13982 -0.070825 0.118315 -0.188916 -0.048283 -0.132856 -0.029281 0.019655 0.085709 0.086609 -1.09E-4 -0.165678 -0.168657 0.064968 0.117705 -0.089967 0.060461 0.154044 0.159206 -0.216385 -0.034292 0.002616 0.114454 0.012079 -0.101054 -0.066247 -0.019818 0.041505 0.08108 -0.193241 0.068194 0.076214 0.125376 -0.052328 0.091661 0.081679 -0.014446 0.060696 -0.224715 0.121678 0.111638 0.099933 -0.210582 -0.010916 -0.042724 -0.052161 0.059768 0.005555 -0.012583 0.011093 0.255467 -0.151262 0.143106 0.058177 -0.061392 0.09274 0.044614 -0.077992 0.039983 0.041117 0.050478 -0.036416 -0.244948 -0.113915 0.055078 0.070349 -0.061488 0.015295 -0.138233 0.021685 -0.017643 -0.02245 0.109452 0.020738 0.047203 -0.046728 0.127734 -0.069984 -0.010974 -0.151913 -0.108325 -0.106444 0.117066 0.045376 0.06448 0.087222 -0.020649 0.009947 0.146502 -0.081502 -0.023772 -0.027065 0.059738 0.169912 -0.134561 -0.043472 -0.114556 -0.049832 0.014935 -0.004474
-0.13134 0.143083 0.606953 0.106345 -0.260819 0.043664 0.099436 0.01346 -0.543378 0.099966 0.052696 -0.428956 -0.603349 0.1235 0.15115 -0.170498 0.124467 0.443516 0.125265 -0.209328 0.166474 0.300794 -0.280793 0.098007 -0.295131 -0.067665 -0.427209 -0.218631 -0.03083 0.080686 -0.44194 0.232253 0.057069 -0.274179 0.086875 -0.513668 -1.131845 0.311181 0.384319 -0.214154 0.162523 -0.08522 0.21833 0.296138 -0.056857 -0.382368 0.146484 0.644786 0.086365 0.342015 0.292657 -0.283214 -0.163256 0.230639 0.205142 0.024096 -0.490501 -0.451532 0.544596 0.21247 0.881856 -0.468857 -0.165306 -0.320557 -0.117468 0.573261 0.236654 0.004747 0.63917 -0.414601 -0.068272 -0.149685 0.330926 0.105188 0.274099 -0.192809 0.212855 0.438596 0.296831 0.421398 -0.156402 0.724094 0.522788 0.194618 0.538551 -0.026513 0.13857 -0.834488 0.084165 -0.142627 0.086725 0.590346 0.383037 0.235594 -0.22578 0.059467 0.071506 -0.055098 0.042398 -0.368107
-0.087255 -0.05591 0.054305 -0.024922 0.12279 0.041971 0.011628 -0.098172 0.13061 0.088978 0.139548 0.154385 0.10967 -0.074364 0.077608 0.342633 -0.019875 0.008986 0.121981 0.055307 -0.003396 0.250389 -0.003606 -0.027202 -0.077535 -1.16E-4 -0.00206 0.156913 0.196292 -0.041947 -0.256602 -0.075561 -0.331833 -0.028169 -0.227118 -0.023069 -0.031505 -0.123196 0.067817 0.109003 -0.150311 -0.176863 -0.003222 0.297853 0.06886 0.054723 0.197442 -0.009663 0.124548 -0.115984 -0.107457 -0.134223 -0.057877 0.014351 -0.020055 -0.038021 0.086742 0.251573 0.36257 0.003758 0.053095 -0.086013 -0.02227 -0.136233 -0.017961 0.053643 0.053971 -0.264445 0.141244 -0.001727 0.102822 -0.045402 0.072919 -0.05572 -0.011331 -0.015733 -0.123198 -0.088768 0.042072 -0.014455 -0.084923 -0.030051 0.101633 -0.145179 0.084003 0.006179 0.137993 -0.044962 0.159725 0.029218 -0.030525 -0.103093 -0.1477 -0.002794 0.039423 -0.078334 0.05768 0.210979 -0.090714 -0.257268
-0.38434 -0.570338 -3.334123 -0.990325 -0.281295 3.633702 1.320934 0.804616 -0.499895 -0.831205 0.460112 1.388349 -2.264975 3.215568 -3.90167 1.353361 -1.448904 -2.546085 -1.024352 -1.734034 -1.344124 0.93203 0.532723 0.23208 -0.507331 0.823317 0.659701 0.36019 1.191168 -0.162178 -0.263719 -1.148898 -0.733443 1.049014 -0.463284 0.424462 1.721949 -2.279087 -0.239497 -3.509027 0.274708 -0.478871 -0.254635 1.092364 -0.333634 -0.504492 -0.065145 -0.538987 0.565458 0.780359 -0.571438 2.952173 0.370658 -0.759209 -2.924849 1.720769 0.511283 1.62778 2.047539 0.727555 2.155394 -1.325505 -0.576841 2.155423 -1.025197 1.359344 -0.744288 -2.504187 -1.775349 1.348846 2.846446 1.640962 1.869469 1.38429 0.797755 -0.790083 2.739745 1.110482 1.051984 -1.114181 2.453474 -0.002451 -1.249565 3.986771 0.736882 -1.32782 1.044597 0.12676 2.039398 0.327395 0.179204 -1.66492 -0.55174 -2.138355 -3.629091 -1.09422 -3.320013 0.282001 -1.758182 -2.017416
0.761839 -0.938024 0.496921 0.58483 0.818477 0.175284 -0.766251 0.265017 1.826486 -1.990869 0.666817 0.469983 1.161885 -1.298175 0.156637 4.428195 -0.212083 -0.574378 -2.750715 -1.074915 -1.208459 -1.913334 0.184919 2.019809 3.073618 -0.327019 -0.699928 -1.802632 -2.867185 0.903787 4.216012 1.266556 0.095209 -1.76775 0.142792 0.742814 5.296293 -0.018697 -1.371932 -0.468201 0.59532 -3.398765 0.587559 -0.166478 -1.444564 -1.781924 0.409167 -3.006053 -1.248959 -3.024124 2.69178 -0.30701 1.977343 2.042086 -4.840298 -1.830624 -0.482616 2.732292 -0.801884 -0.472534 -0.366207 1.358775 0.553509 2.204911 3.230709 2.390573 2.115641 -1.09307 1.202358 0.793524 -1.638712 -1.996248 0.271729 -0.168319 -1.070408 1.243496 1.294459 -0.437144 3.452807 1.249149 -1.427302 -1.689526 0.716038 1.420218 -0.058143 -1.096066 2.255744 -1.515499 0.319968 -1.35765 -0.129799 1.999189 -3.279956 -0.043635 -1.666706 -1.165557 1.052505 0.425416 -0.847125 1.949146
0.018827 0.064355 -0.111836 0.284874 0.020097 -0.096826 -0.103897 -0.122568 0.020745 -0.059838 -0.055917 0.212417 0.047448 -0.037858 0.136713 0.142563 -0.028632 0.017192 0.088663 0.052239 -0.094337 -0.080084 0.009952 0.036324 -0.051929 -0.071521 -0.225569 0.106217 0.030082 -0.107296 0.124294 0.136108 -0.098003 -0.099345 -0.165261 0.03011 -0.107959 0.109622 0.02938 -0.046273 0.02244 0.18104 0.310698 0.032023 -0.161014 -0.045956 -0.177458 0.057487 -0.125923 0.265881 0.034389 0.051516 0.095786 0.008258 0.006661 0.03571 -0.051736 0.069153 -0.015455 -0.148001 0.191739 -0.297236 0.092893 -0.290168 -0.069909 0.151388 0.002069 -0.066634 -0.015485 -0.055387 -0.271773 -0.083529 0.207013 -0.025487 -0.010692 -0.005235 -0.080305 0.288168 0.136206 -0.022424 0.021006 0.085554 0.039145 0.064902 0.065358 -0.025097 0.133925 -0.061502 0.064067 -0.13904 -0.147467 -0.107993 0.234128 0.067893 -0.053044 -0.142389 -0.037975 0.113715 0.103891 0.010414
-0.055778 -0.016369 -0.018677 0.101959 0.269767 0.057036 0.196561 0.006525 0.054708 0.134445 0.175072 -0.09785 -0.050075 -0.040856 -0.032362 0.02583 -0.170609 -0.066657 0.20407 -0.007647 -0.226083 -0.259507 0.036394 0.010549 -0.046218 -0.087638 -0.014468 0.147 -0.015059 -0.017822 0.123562 -0.158458 -0.225383 -0.106443 0.030258 -0.015503 -0.067781 -0.024669 0.309292 0.126584 -0.081091 0.021066 -0.27066 0.082699 -0.13878 1.8E-4 0.074398 0.011191 -0.1487 0.136472 -0.093103 0.023206 -0.09396 0.149853 0.043683 0.167889 -0.071449 0.193163 0.027684 0.062867 0.041206 0.044796 0.121284 -0.060981 0.199281 0.148669 0.048441 -0.046688 0.069559 0.05672 -0.120117 0.107547 -0.009144 0.141226 -0.029216 0.187746 0.054377 -0.013193 -0.015974 -0.103151 -0.105938 -0.141942 0.013236 0.064434 0.051627 0.162962 -0.02314 -0.106423 0.005328 0.017619 -0.02089 0.11464 0.197688 -0.143112 0.066149 -0.189613 0.088399 -0.180643 4.78E-4 0.001585
0.0 0.0 0.0 0.0 0.0 0.0 0.0 0.0 0.0 0.0 0.0 0.0 0.0 0.0 0.0 0.0 0.0 0.0 0.0 0.0 0.0 0.0 0.0 0.0 0.0 0.0 0.0 0.0 0.0 0.0 0.0 0.0 0.0 0.0 0.0 0.0 0.0 0.0 0.0 0.0 0.0 0.0 0.0 0.0 0.0 0.0 0.0 0.0 0.0 0.0 0.0 0.0 0.0 0.0 0.0 0.0 0.0 0.0 0.0 0.0 0.0 0.0 0.0 0.0 0.0 0.0 0.0 0.0 0.0 0.0 0.0 0.0 0.0 0.0 0.0 0.0 0.0 0.0 0.0 0.0 0.0 0.0 0.0 0.0 0.0 0.0 0.0 0.0 0.0 0.0 0.0 0.0 0.0 0.0 0.0 0.0 0.0 0.0 0.0 0.0
-1.36551 1.360421 0.224526 -0.278527 -0.110206 2.214733 0.397284 -2.795895 0.580303 -0.775632 4.754531 -1.272801 0.307695 -2.001497 1.796271 2.227985 -0.898463 -1.084921 -1.36922 0.906372 -3.641103 -0.375557 -0.384943 -0.982907 0.863706 2.6541 2.547823 -3.615038 -5.664214 0.632378 -0.79345 -1.743109 1.830923 -0.589605 3.207805 1.668313 -0.396614 -1.017756 2.224696 2.073024 -0.094132 -2.677256 0.873894 0.814467 -1.818991 0.70617 -1.695649 -0.439818 1.178894 0.902172 1.899588 -3.174521 0.478937 0.665585 -1.600765 1.886903 2.303742 -0.337038 2.188324 -1.875406 0.122476 0.704712 -1.504492 1.324088 -4.22924 -1.508543 1.165481 -0.855131 0.796353 0.072167 0.37308 0.592853 2.781998 -3.574148 -0.395894 -1.060172 -4.00183 1.447629 -0.174682 1.068802 -0.600145 1.868335 1.158061 2.743646 2.514546 0.081088 -2.762983 1.640273 0.353996 2.029094 4.459471 0.926929 -1.992373 1.865254 -2.806636 1.107546 1.603676 -0.528764 -0.234799 2.082244
-3.845801 -2.159122 0.888798 -2.661652 2.838361 0.115707 -1.683624 -1.553801 -1.268616 -1.66037 5.45069 -3.209406 1.900224 1.724729 1.902449 -0.895269 -0.226954 0.513142 0.660895 2.273916 -3.140519 0.343516 -0.633192 -0.020156 2.776358 3.959558 2.461453 0.010308 -1.975396 -1.044424 3.015601 2.098534 -2.518984 -2.958158 3.569956 0.341194 -1.316923 0.142836 -1.605817 4.708776 0.565996 0.22498 2.118939 -0.340418 2.548611 1.236036 1.649961 2.004502 4.50679 2.313832 1.289519 -3.157987 2.251914 -1.008809 -1.528149 -2.163311 -3.020207 0.728816 3.953602 2.718107 -2.89502 0.238185 -0.031381 -1.837142 0.182695 -2.273168 -0.24248 2.156023 -0.764606 -0.483754 1.900076 -1.736707 -0.532439 -1.1044 -1.557324 -0.014879 -4.220398 -1.790332 3.839336 0.031986 1.567299 0.089968 1.26601 -3.016248 1.808375 -3.973751 1.626086 -0.640189 2.681455 -0.20585 0.415424 0.155088 -0.987342 0.484808 -2.894026 -0.037267 0.089502 2.24816 -2.837719 2.411517
-0.156826 -0.067288 0.171838 -0.049617 0.055337 -0.163643 0.301697 -0.176928 -0.004384 0.169642 0.124849 0.011881 -0.198034 0.024497 0.026561 0.279231 -0.110391 0.124517 -0.090056 -0.074895 0.02391 -0.179954 -0.055739 -0.084542 0.038018 -0.185511 -0.004149 0.092581 0.029111 -0.12482 -0.131214 -0.190218 -0.011561 0.258437 -0.178325 -0.047123 -0.167701 -0.346553 -0.034659 0.001843 0.135394 0.047195 0.130966 0.030381 -0.294502 -0.02314 0.123023 0.09235 -0.059465 0.160631 0.141256 -0.056468 -0.145526 0.066112 -0.129999 0.020947 -0.089766 0.122465 0.198794 -0.0159 0.135536 -0.120703 -0.201821 -0.21415 0.067988 0.02427 0.079523 -0.104205 0.083822 -0.197429 -0.070476 0.147635 -0.011444 -0.241333 0.058141 -0.004399 -0.053515 0.12796 -0.223491 -0.157576 0.020642 0.00141 -0.174363 -0.155261 0.281489 0.184188 0.200079 0.017107 0.259638 0.205737 -0.094769 -0.052183 0.082757 0.145117 -0.155428 -0.150709 0.192042 0.045548 0.09738 -0.273358
-1.445697 -0.376991 0.605131 -2.927773 -2.545095 -0.012935 0.304803 -1.289168 2.935763 -3.30048 2.013736 0.601604 0.463606 -2.513579 -3.111959 1.509581 -2.270566 -3.193746 -0.683823 1.11226 2.641423 -0.439638 -1.461155 -0.230057 -3.083891 1.464638 -3.482595 0.292508 -2.961341 2.670694 2.633844 0.530248 -0.915058 -5.213341 1.151417 2.088477 0.077027 1.987321 -2.701086 -1.896473 -1.396191 -0.28458 3.471924 3.377009 0.510478 -0.338405 -1.080892 -0.17368 -0.293555 -0.092374 -0.194442 -0.035597 -0.210813 3.880518 -1.574683 0.838801 3.22272 2.935631 -0.150343 1.362463 2.574235 3.434764 2.104742 1.146516 1.989767 1.356181 1.46733 1.525646 1.808291 -1.537805 -0.288857 -0.65458 0.173075 -0.698576 0.239921 -0.800718 2.227096 -0.11127 0.137437 0.862853 3.100754 -0.68748 2.771815 -0.865885 0.747454 -2.708324 2.056632 -2.880682 -0.510213 -0.75684 1.062552 3.109441 -4.090577 -0.19873 0.562437 -4.868546 1.064819 1.171282 -1.742815 -0.694478
0.053781 -0.222944 0.204808 0.151615 0.017431 0.109608 -0.085225 -0.037154 -0.213211 0.05089 0.054283 0.068831 0.026976 -0.039968 0.082615 0.098736 0.14454 0.140029 0.097876 -0.032537 -0.047888 0.138885 0.155989 0.005763 -0.2063 -0.106865 0.060803 0.01138 0.24585 -0.024686 -0.072768 -0.020034 0.008524 0.003232 -0.075382 -0.046168 0.110014 -0.044878 -0.043512 0.010501 -0.047 0.077388 0.124494 0.083948 0.107861 -0.028797 -0.022475 0.031628 0.07426 -0.04296 -0.061435 -0.065162 0.016936 -0.112435 0.153688 0.093232 0.182286 -0.088026 0.102233 -0.082631 0.080156 -0.147229 0.061187 -0.198984 -0.047053 -0.10875 0.127417 0.074478 0.044638 -0.031404 -0.054157 -0.179801 -0.042449 0.132632 0.04176 -0.187576 -0.065778 0.006747 0.02051 0.059312 0.011187 0.110855 0.165564 -0.214982 0.119429 0.027408 -0.043915 0.010278 0.111847 -0.063662 -0.229417 0.079672 0.125218 0.100367 -0.012774 -0.130301 0.010793 0.065465 -0.089927 -0.017427
0.018827 0.064355 -0.111836 0.284874 0.020097 -0.096826 -0.103897 -0.122568 0.020745 -0.059838 -0.055917 0.212417 0.047448 -0.037858 0.136713 0.142563 -0.028632 0.017192 0.088663 0.052239 -0.094337 -0.080084 0.009952 0.036324 -0.051929 -0.071521 -0.225569 0.106217 0.030082 -0.107296 0.124294 0.136108 -0.098003 -0.099345 -0.165261 0.03011 -0.107959 0.109622 0.02938 -0.046273 0.02244 0.18104 0.310698 0.032023 -0.161014 -0.045956 -0.177458 0.057487 -0.125923 0.265881 0.034389 0.051516 0.095786 0.008258 0.006661 0.03571 -0.051736 0.069153 -0.015455 -0.148001 0.191739 -0.297236 0.092893 -0.290168 -0.069909 0.151388 0.002069 -0.066634 -0.015485 -0.055387 -0.271773 -0.083529 0.207013 -0.025487 -0.010692 -0.005235 -0.080305 0.288168 0.136206 -0.022424 0.021006 0.085554 0.039145 0.064902 0.065358 -0.025097 0.133925 -0.061502 0.064067 -0.13904 -0.147467 -0.107993 0.234128 0.067893 -0.053044 -0.142389 -0.037975 0.113715 0.103891 0.010414
0.0 0.0 0.0 0.0 0.0 0.0 0.0 0.0 0.0 0.0 0.0 0.0 0.0 0.0 0.0 0.0 0.0 0.0 0.0 0.0 0.0 0.0 0.0 0.0 0.0 0.0 0.0 0.0 0.0 0.0 0.0 0.0 0.0 0.0 0.0 0.0 0.0 0.0 0.0 0.0 0.0 0.0 0.0 0.0 0.0 0.0 0.0 0.0 0.0 0.0 0.0 0.0 0.0 0.0 0.0 0.0 0.0 0.0 0.0 0.0 0.0 0.0 0.0 0.0 0.0 0.0 0.0 0.0 0.0 0.0 0.0 0.0 0.0 0.0 0.0 0.0 0.0 0.0 0.0 0.0 0.0 0.0 0.0 0.0 0.0 0.0 0.0 0.0 0.0 0.0 0.0 0.0 0.0 0.0 0.0 0.0 0.0 0.0 0.0 0.0
-1.36551 1.360421 0.224526 -0.278527 -0.110206 2.214733 0.397284 -2.795895 0.580303 -0.775632 4.754531 -1.272801 0.307695 -2.001497 1.796271 2.227985 -0.898463 -1.084921 -1.36922 0.906372 -3.641103 -0.375557 -0.384943 -0.982907 0.863706 2.6541 2.547823 -3.615038 -5.664214 0.632378 -0.79345 -1.743109 1.830923 -0.589605 3.207805 1.668313 -0.396614 -1.017756 2.224696 2.073024 -0.094132 -2.677256 0.873894 0.814467 -1.818991 0.70617 -1.695649 -0.439818 1.178894 0.902172 1.899588 -3.174521 0.478937 0.665585 -1.600765 1.886903 2.303742 -0.337038 2.188324 -1.875406 0.122476 0.704712 -1.504492 1.324088 -4.22924 -1.508543 1.165481 -0.855131 0.796353 0.072167 0.37308 0.592853 2.781998 -3.574148 -0.395894 -1.060172 -4.00183 1.447629 -0.174682 1.068802 -0.600145 1.868335 1.158061 2.743646 2.514546 0.081088 -2.762983 1.640273 0.353996 2.029094 4.459471 0.926929 -1.992373 1.865254 -2.806636 1.107546 1.603676 -0.528764 -0.234799 2.082244
-3.845801 -2.159122 0.888798 -2.661652 2.838361 0.115707 -1.683624 -1.553801 -1.268616 -1.66037 5.45069 -3.209406 1.900224 1.724729 1.902449 -0.895269 -0.226954 0.513142 0.660895 2.273916 -3.140519 0.343516 -0.633192 -0.020156 2.776358 3.959558 2.461453 0.010308 -1.975396 -1.044424 3.015601 2.098534 -2.518984 -2.958158 3.569956 0.341194 -1.316923 0.142836 -1.605817 4.708776 0.565996 0.22498 2.118939 -0.340418 2.548611 1.236036 1.649961 2.004502 4.50679 2.313832 1.289519 -3.157987 2.251914 -1.008809 -1.528149 -2.163311 -3.020207 0.728816 3.953602 2.718107 -2.89502 0.238185 -0.031381 -1.837142 0.182695 -2.273168 -0.24248 2.156023 -0.764606 -0.483754 1.900076 -1.736707 -0.532439 -1.1044 -1.557324 -0.014879 -4.220398 -1.790332 3.839336 0.031986 1.567299 0.089968 1.26601 -3.016248 1.808375 -3.973751 1.626086 -0.640189 2.681455 -0.20585 0.415424 0.155088 -0.987342 0.484808 -2.894026 -0.037267 0.089502 2.24816 -2.837719 2.411517
-0.046453 -0.114089 0.048378 0.039697 0.205342 -0.134425 0.195579 -0.187425 0.012362 -0.056148 -0.131226 -0.036605 -0.166618 -0.005606 0.011423 -0.035289 0.073024 0.049955 -0.03056 -0.116564 -4.0E-4 0.248965 0.168589 -0.016666 -0.127127 -3.18E-4 0.127741 -0.107854 0.05539 -0.111124 -0.041902 -0.11626 0.086201 0.191946 -0.031307 -0.026238 0.135582 -0.138117 -0.118683 -0.205278 -0.118941 0.075416 -0.021621 -0.074612 0.105553 0.141257 -0.097239 0.031083 -0.191864 0.157126 0.157338 0.018714 -0.190255 -0.078835 0.160698 0.051121 -0.022634 0.282011 -0.210636 0.065967 0.011387 -0.10215 -0.014587 8.06E-4 -0.126806 0.10146 -0.051249 -0.166886 0.138311 -0.092453 -0.203714 0.163209 0.126385 -0.163049 0.060969 -0.136489 -0.119169 0.143901 -0.166778 -0.074124 -0.205023 0.138254 -0.069697 -0.023512 0.056226 -0.151985 0.057434 -0.163405 0.084998 0.19969 0.169875 -0.038445 0.015784 -0.127481 -0.113888 -0.245198 0.065981 0.165014 0.001608 -0.042748
-0.100536 -0.049864 0.130206 -0.049731 -0.042941 -0.032091 -0.064091 0.108566 -0.059113 0.016186 0.090179 0.075443 -0.067953 -0.011079 0.13148 0.00617 -0.112359 0.073998 0.241716 0.119249 -0.08097 0.047562 0.095701 -0.08766 -0.049792 0.050357 -0.046013 0.01235 -0.109682 -0.080465 -0.131787 -0.099841 0.047698 0.13177 -0.112354 -0.111422 -0.075306 0.035333 0.11044 0.153253 -0.10884 0.129701 0.023678 0.040154 0.049655 -0.102259 -0.006475 -0.118121 -0.071722 -0.007759 -0.084045 -0.034862 0.002983 -0.09286 -0.066786 -0.12839 0.05938 -0.082218 0.038846 -0.05921 0.095984 -0.036154 0.046281 -0.156993 -0.221218 -0.030603 0.07015 -0.124411 0.133795 0.036911 0.017639 0.084227 -0.038401 -0.027062 -0.088096 0.029048 -0.06855 -0.005337 -0.01606 -0.054779 0.131409 0.210188 0.010738 -0.053459 -0.106127 0.131147 0.087429 -0.065199 0.099535 -0.074751 -0.113806 -0.011074 -0.057863 0.103176 -0.082159 -0.063912 0.032556 -0.199189 -0.124562 -0.041265
-0.01875 -0.285329 -0.002424 0.108049 -0.121485 0.011509 -0.309429 0.071278 0.030139 -0.09504 0.026686 -0.113073 0.095932 -0.179022 0.042966 0.129678 0.08961 0.196302 0.063608 0.023636 0.017566 0.282635 0.203737 -0.001727 -0.166336 0.016611 0.066798 0.070245 -0.044842 -0.010532 0.02894 0.068283 0.222737 -0.011348 -0.061199 -0.009894 -0.096135 0.074612 0.011411 0.061689 -0.114957 0.107116 0.054659 -0.135911 0.206663 -0.107839 -0.106604 0.14633 0.055843 0.071442 0.032643 -0.128132 0.097352 -0.140302 -0.003045 -0.183681 0.160041 -0.078107 0.0398 -0.116372 -0.065673 -0.00229 -0.127849 0.022587 0.141333 -0.050803 0.054219 -0.019527 0.040823 -0.187221 -0.087694 0.011191 -0.043953 -0.204306 0.081344 -0.016947 -0.105763 -0.100188 -0.004993 0.025402 0.12403 0.063183 0.003483 0.031502 -0.006452 0.015156 -0.143862 -0.149512 -0.053303 0.05853 -0.072347 -0.161299 0.009473 0.162584 0.023232 0.039946 -0.041596 -0.076351 -0.12545 -0.034996
0.0 0.0 0.0 0.0 0.0 0.0 0.0 0.0 0.0 0.0 0.0 0.0 0.0 0.0 0.0 0.0 0.0 0.0 0.0 0.0 0.0 0.0 0.0 0.0 0.0 0.0 0.0 0.0 0.0 0.0 0.0 0.0 0.0 0.0 0.0 0.0 0.0 0.0 0.0 0.0 0.0 0.0 0.0 0.0 0.0 0.0 0.0 0.0 0.0 0.0 0.0 0.0 0.0 0.0 0.0 0.0 0.0 0.0 0.0 0.0 0.0 0.0 0.0 0.0 0.0 0.0 0.0 0.0 0.0 0.0 0.0 0.0 0.0 0.0 0.0 0.0 0.0 0.0 0.0 0.0 0.0 0.0 0.0 0.0 0.0 0.0 0.0 0.0 0.0 0.0 0.0 0.0 0.0 0.0 0.0 0.0 0.0 0.0 0.0 0.0
-0.128437 -0.003054 -0.003386 0.030387 0.015299 -0.150334 0.105072 -0.018476 -0.094722 0.216158 0.190263 0.097397 -0.025875 -0.231724 0.011198 -0.034392 -0.209266 0.174321 0.060799 0.118916 0.088171 -0.112811 0.098589 0.149765 0.099006 0.035497 -0.012058 0.026697 -0.219843 0.069521 0.137193 0.125544 0.020672 -0.24469 -0.075487 -0.208463 0.072825 0.026382 0.162073 0.139246 -0.085018 -0.186262 0.072954 0.007061 -0.102898 0.037759 -0.118354 -0.054955 -0.075603 0.386099 0.178972 -0.16086 0.019449 0.215603 -0.023537 0.054911 -0.057495 0.317412 -0.0869 -0.399904 -0.094528 -0.109849 0.097712 -0.177199 -0.157963 0.069722 0.133674 -0.187434 0.052473 0.134813 0.164076 0.131182 -0.01607 0.060559 -0.070398 -0.063332 -0.282927 -0.105776 -0.106369 0.02058 -0.249527 0.238923 0.099585 0.006895 0.255917 0.408443 0.216296 -0.08709 0.026446 -0.006991 -0.192334 -0.042711 -0.029907 -0.046175 0.088192 -0.194817 0.123449 -0.128081 -0.051927 0.051529
0.018827 0.064355 -0.111836 0.284874 0.020097 -0.096826 -0.103897 -0.122568 0.020745 -0.059838 -0.055917 0.212417 0.047448 -0.037858 0.136713 0.142563 -0.028632 0.017192 0.088663 0.052239 -0.094337 -0.080084 0.009952 0.036324 -0.051929 -0.071521 -0.225569 0.106217 0.030082 -0.107296 0.124294 0.136108 -0.098003 -0.099345 -0.165261 0.03011 -0.107959 0.109622 0.02938 -0.046273 0.02244 0.18104 0.310698 0.032023 -0.161014 -0.045956 -0.177458 0.057487 -0.125923 0.265881 0.034389 0.051516 0.095786 0.008258 0.006661 0.03571 -0.051736 0.069153 -0.015455 -0.148001 0.191739 -0.297236 0.092893 -0.290168 -0.069909 0.151388 0.002069 -0.066634 -0.015485 -0.055387 -0.271773 -0.083529 0.207013 -0.025487 -0.010692 -0.005235 -0.080305 0.288168 0.136206 -0.022424 0.021006 0.085554 0.039145 0.064902 0.065358 -0.025097 0.133925 -0.061502 0.064067 -0.13904 -0.147467 -0.107993 0.234128 0.067893 -0.053044 -0.142389 -0.037975 0.113715 0.103891 0.010414
0.0 0.0 0.0 0.0 0.0 0.0 0.0 0.0 0.0 0.0 0.0 0.0 0.0 0.0 0.0 0.0 0.0 0.0 0.0 0.0 0.0 0.0 0.0 0.0 0.0 0.0 0.0 0.0 0.0 0.0 0.0 0.0 0.0 0.0 0.0 0.0 0.0 0.0 0.0 0.0 0.0 0.0 0.0 0.0 0.0 0.0 0.0 0.0 0.0 0.0 0.0 0.0 0.0 0.0 0.0 0.0 0.0 0.0 0.0 0.0 0.0 0.0 0.0 0.0 0.0 0.0 0.0 0.0 0.0 0.0 0.0 0.0 0.0 0.0 0.0 0.0 0.0 0.0 0.0 0.0 0.0 0.0 0.0 0.0 0.0 0.0 0.0 0.0 0.0 0.0 0.0 0.0 0.0 0.0 0.0 0.0 0.0 0.0 0.0 0.0
-0.216608 -0.135263 0.271362 0.064631 -0.058472 0.007236 -0.105295 -0.067634 -0.178555 -0.063222 0.176318 0.001652 -0.070044 0.037822 0.172801 0.12771 0.058199 0.16586 -0.077341 0.120071 -0.154733 0.161664 0.291504 0.113562 -0.051629 -0.227728 -0.120683 -0.018789 0.021112 -0.156981 -0.055216 -0.150219 0.028774 0.006067 0.008834 0.083017 0.087725 0.10309 0.144559 0.230401 -0.145693 -0.003684 0.046353 0.177527 0.089936 -0.188201 -0.014907 -0.080068 -0.009225 0.080584 0.247199 0.027727 -0.023643 -0.333408 0.080675 -0.009407 0.001642 -0.139457 0.103284 -0.065379 -0.067105 -0.208892 -0.147464 -0.189518 0.068986 -0.133539 -0.101328 -0.17995 -0.04107 -0.066256 0.014339 0.094617 -0.039733 -0.009701 0.132607 -0.0652 -0.233482 -0.146858 -0.004052 -0.222281 -0.051324 -0.077138 0.144242 -0.164035 -0.018531 -0.175091 0.132275 -0.148507 0.099047 0.175248 0.122157 0.03334 0.073291 0.004423 -0.025155 -0.054521 0.05249 -0.01786 0.107547 -0.007077
0.023642 -0.033418 -0.065368 -0.077237 -0.023131 -0.01666 0.109329 -0.071902 0.062801 0.039845 0.148795 0.022279 -0.033313 0.021808 0.239187 -0.08721 -0.175498 0.029081 -0.040827 -0.029276 -0.086098 -0.15902 -0.033398 0.042278 0.124981 -0.030765 0.028417 0.073894 0.00855 0.035667 0.163449 0.099048 0.038305 0.314216 -0.005392 0.066826 0.260304 -0.189638 0.116148 -0.02674 -0.202298 -0.147073 0.073175 0.053558 0.012863 -0.065298 -0.053548 0.046997 0.014493 -0.044561 0.024142 -0.019223 -0.004661 0.10688 -0.154323 -0.118686 -0.028957 0.035459 0.064979 -0.101714 -0.025905 0.022247 0.012568 -0.044777 0.097248 0.19805 0.003512 0.018858 -0.090285 -0.060881 0.118181 -0.047211 0.105442 -0.116777 0.073733 -0.093917 -0.004179 -0.060928 -0.124383 -0.099921 -0.177899 -0.120009 -0.020528 -0.038147 0.030294 -0.114024 0.168003 -0.110367 0.103009 0.112822 0.19629 -0.164199 -0.072139 0.020273 -0.021859 0.072884 0.002728 0.055319 0.086852 0.084518
0.0 0.0 0.0 0.0 0.0 0.0 0.0 0.0 0.0 0.0 0.0 0.0 0.0 0.0 0.0 0.0 0.0 0.0 0.0 0.0 0.0 0.0 0.0 0.0 0.0 0.0 0.0 0.0 0.0 0.0 0.0 0.0 0.0 0.0 0.0 0.0 0.0 0.0 0.0 0.0 0.0 0.0 0.0 0.0 0.0 0.0 0.0 0.0 0.0 0.0 0.0 0.0 0.0 0.0 0.0 0.0 0.0 0.0 0.0 0.0 0.0 0.0 0.0 0.0 0.0 0.0 0.0 0.0 0.0 0.0 0.0 0.0 0.0 0.0 0.0 0.0 0.0 0.0 0.0 0.0 0.0 0.0 0.0 0.0 0.0 0.0 0.0 0.0 0.0 0.0 0.0 0.0 0.0 0.0 0.0 0.0 0.0 0.0 0.0 0.0
0.018827 0.064355 -0.111836 0.284874 0.020097 -0.096826 -0.103897 -0.122568 0.020745 -0.059838 -0.055917 0.212417 0.047448 -0.037858 0.136713 0.142563 -0.028632 0.017192 0.088663 0.052239 -0.094337 -0.080084 0.009952 0.036324 -0.051929 -0.071521 -0.225569 0.106217 0.030082 -0.107296 0.124294 0.136108 -0.098003 -0.099345 -0.165261 0.03011 -0.107959 0.109622 0.02938 -0.046273 0.02244 0.18104 0.310698 0.032023 -0.161014 -0.045956 -0.177458 0.057487 -0.125923 0.265881 0.034389 0.051516 0.095786 0.008258 0.006661 0.03571 -0.051736 0.069153 -0.015455 -0.148001 0.191739 -0.297236 0.092893 -0.290168 -0.069909 0.151388 0.002069 -0.066634 -0.015485 -0.055387 -0.271773 -0.083529 0.207013 -0.025487 -0.010692 -0.005235 -0.080305 0.288168 0.136206 -0.022424 0.021006 0.085554 0.039145 0.064902 0.065358 -0.025097 0.133925 -0.061502 0.064067 -0.13904 -0.147467 -0.107993 0.234128 0.067893 -0.053044 -0.142389 -0.037975 0.113715 0.103891 0.010414
1.155368 3.302179 -0.818617 0.201583 -0.372035 -0.220049 -2.421694 1.24088 1.022918 0.281963 -0.56672 0.218504 -2.654141 0.687099 1.426786 -2.744465 -2.044989 -0.49789 -1.769702 -2.328375 -1.105508 0.104665 -0.061522 -2.669585 1.369504 1.778184 -0.869744 -1.441309 0.051265 1.116249 1.903031 -0.163683 1.731475 -0.652558 -1.459245 -0.212579 0.382415 1.861636 -0.394668 -0.423196 -0.983827 -1.176007 1.844253 0.853456 0.976233 -0.076248 -1.490589 -0.553926 0.506191 0.326236 0.251095 1.038919 -0.803142 0.658979 -3.236482 -1.07965 1.27678 -0.350029 -1.778651 0.292774 0.002745 0.267431 1.072933 -0.321661 -1.19536 -1.465055 -2.523761 -3.574044 -0.123843 -0.515256 3.2036 -0.08683 1.099575 -0.639959 -1.310584 0.629968 -0.142079 0.66081 -1.289981 -0.152693 -0.105374 0.388507 -1.068849 2.207516 -1.516502 0.618648 0.057959 1.61471 0.888036 -0.337188 -0.73306 -0.809614 -1.409634 -0.094797 -0.938314 1.210802 1.47048 2.210952 -1.933366 0.819087
0.0 0.0 0.0 0.0 0.0 0.0 0.0 0.0 0.0 0.0 0.0 0.0 0.0 0.0 0.0 0.0 0.0 0.0 0.0 0.0 0.0 0.0 0.0 0.0 0.0 0.0 0.0 0.0 0.0 0.0 0.0 0.0 0.0 0.0 0.0 0.0 0.0 0.0 0.0 0.0 0.0 0.0 0.0 0.0 0.0 0.0 0.0 0.0 0.0 0.0 0.0 0.0 0.0 0.0 0.0 0.0 0.0 0.0 0.0 0.0 0.0 0.0 0.0 0.0 0.0 0.0 0.0 0.0 0.0 0.0 0.0 0.0 0.0 0.0 0.0 0.0 0.0 0.0 0.0 0.0 0.0 0.0 0.0 0.0 0.0 0.0 0.0 0.0 0.0 0.0 0.0 0.0 0.0 0.0 0.0 0.0 0.0 0.0 0.0 0.0
-0.216608 -0.135263 0.271362 0.064631 -0.058472 0.007236 -0.105295 -0.067634 -0.178555 -0.063222 0.176318 0.001652 -0.070044 0.037822 0.172801 0.12771 0.058199 0.16586 -0.077341 0.120071 -0.154733 0.161664 0.291504 0.113562 -0.051629 -0.227728 -0.120683 -0.018789 0.021112 -0.156981 -0.055216 -0.150219 0.028774 0.006067 0.008834 0.083017 0.087725 0.10309 0.144559 0.230401 -0.145693 -0.003684 0.046353 0.177527 0.089936 -0.188201 -0.014907 -0.080068 -0.009225 0.080584 0.247199 0.027727 -0.023643 -0.333408 0.080675 -0.009407 0.001642 -0.139457 0.103284 -0.065379 -0.067105 -0.208892 -0.147464 -0.189518 0.068986 -0.133539 -0.101328 -0.17995 -0.04107 -0.066256 0.014339 0.094617 -0.039733 -0.009701 0.132607 -0.0652 -0.233482 -0.146858 -0.004052 -0.222281 -0.051324 -0.077138 0.144242 -0.164035 -0.018531 -0.175091 0.132275 -0.148507 0.099047 0.175248 0.122157 0.03334 0.073291 0.004423 -0.025155 -0.054521 0.05249 -0.01786 0.107547 -0.007077
-0.100536 -0.049864 0.130206 -0.049731 -0.042941 -0.032091 -0.064091 0.108566 -0.059113 0.016186 0.090179 0.075443 -0.067953 -0.011079 0.13148 0.00617 -0.112359 0.073998 0.241716 0.119249 -0.08097 0.047562 0.095701 -0.08766 -0.049792 0.050357 -0.046013 0.01235 -0.109682 -0.080465 -0.131787 -0.099841 0.047698 0.13177 -0.112354 -0.111422 -0.075306 0.035333 0.11044 0.153253 -0.10884 0.129701 0.023678 0.040154 0.049655 -0.102259 -0.006475 -0.118121 -0.071722 -0.007759 -0.084045 -0.034862 0.002983 -0.09286 -0.066786 -0.12839 0.05938 -0.082218 0.038846 -0.05921 0.095984 -0.036154 0.046281 -0.156993 -0.221218 -0.030603 0.07015 -0.124411 0.133795 0.036911 0.017639 0.084227 -0.038401 -0.027062 -0.088096 0.029048 -0.06855 -0.005337 -0.01606 -0.054779 0.131409 0.210188 0.010738 -0.053459 -0.106127 0.131147 0.087429 -0.065199 0.099535 -0.074751 -0.113806 -0.011074 -0.057863 0.103176 -0.082159 -0.063912 0.032556 -0.199189 -0.124562 -0.041265
