-0.331948 0.126703 0.161882 0.212503 0.096733 -0.201543 -0.143691 -0.081832 -0.114495 0.074679 0.030278 -0.096378 -0.082389 -0.286524 0.025515 0.176607 -0.166066 -0.031721 0.037603 -0.105554 -0.155771 0.141413 -0.202115 0.007044 -0.219266 0.067356 0.066329 -0.216661 -0.293136 0.029563 -0.103342 -0.013791 -0.128572 -0.061451 -0.066534 0.125869 0.045289 0.170814 0.066434 0.2484 -0.036972 0.027118 -0.081493 -0.152026 -0.2897 0.123594 -0.141628 0.164037 -0.123813 0.130793 0.242071 0.068593 0.141564 -0.163997 -0.126083 -0.19402 0.182709 0.093292 0.113181 0.175814 0.292309 -0.095704 0.057334 0.022893 -0.253698 0.149914 0.155955 0.078517 0.19929 0.121105 -0.068037 -0.086394 -0.185115 -0.072629 0.047015 -0.067535 -0.200994 0.002423 -0.002036 0.025111 0.197854 -0.01515 -0.038478 -0.078467 0.220191 0.004525 0.015313 -0.10614 0.217501 0.09848 -0.107511 -0.033352 0.033466 -0.125287 0.068481 -0.008352 0.17098 0.017676 -0.048228 0.032973
0.018205 -0.031736 0.031022 0.003355 0.033414 0.080811 -0.161338 -0.233527 0.06244 0.025634 0.103923 0.203148 0.045981 -0.086424 0.06392 0.013097 -0.019936 0.146688 -0.014027 0.061466 0.080077 0.128684 0.066381 0.029753 0.018048 0.007134 -0.014649 -0.086114 0.096329 -0.074893 -0.136207 0.053107 0.032278 -0.02181 -0.038367 -0.007195 0.079817 -0.088224 -0.072369 -0.011395 -0.080304 0.095606 -0.002204 -0.167883 0.014121 -0.178674 0.239245 0.111891 -0.049131 -0.216926 -0.068426 0.015183 0.193495 -0.102399 0.051222 -0.095485 0.12396 -0.060168 0.199361 -0.011809 0.179272 -0.01941 -0.041808 -0.05226 -0.027229 -0.235882 0.045783 -0.02528 0.157644 -0.049078 -0.058775 -0.015054 -0.227081 -0.112542 -0.023399 -0.311255 0.020194 0.040506 0.136313 0.012479 0.027018 -0.003722 -0.015392 -0.086654 0.129084 0.025131 0.10422 0.003294 -0.023959 -0.059567 -0.006051 -0.06011 -0.018539 0.040787 -0.00334 -0.159836 -0.013252 0.0331 -0.084165 -0.039115
-0.026799 -0.103797 0.112651 -0.259641 -0.103915 0.088316 -0.053088 -0.022809 0.009437 -0.09753 0.060073 0.126938 -0.120166 -0.201027 -0.031192 0.114149 -0.054812 0.193163 0.102408 0.014485 -0.142804 0.004168 0.106051 0.11444 -0.218755 -0.190187 0.08501 -0.064668 -0.128386 0.029669 -0.065954 0.042625 -0.391147 -0.09788 -0.127327 0.028785 0.023364 -0.057131 -0.029977 -0.052351 -0.109947 0.189529 -0.137615 0.126845 -0.031891 -0.070696 -0.021912 0.047885 0.00687 0.096735 0.088226 -0.067865 -0.012925 0.020968 -0.00858 0.059358 0.11823 -0.176081 -0.213955 -0.175354 0.240854 -0.072666 0.023853 -0.029982 0.089821 0.130766 0.016941 0.178835 -0.00797 -0.080021 -0.044534 0.049337 -0.037857 -0.1511 0.060476 -0.006618 0.145705 0.04376 -0.128786 -0.038244 0.01883 -0.008851 0.060935 -0.194196 0.098924 0.049666 0.05715 0.08558 0.098442 0.050731 -0.160965 -0.078077 -0.002686 -0.001068 -0.122167 -0.028315 -0.037337 -0.071233 -0.050617 -0.095917
-0.002237 0.068675 -0.046287 -0.031886 -0.137919 0.013661 -0.031519 0.181064 0.020382 0.087791 -0.063359 -0.215116 0.035582 -0.03427 0.11849 -0.122356 0.136002 0.052442 0.125394 0.098851 -0.019775 0.239399 0.11961 -0.062103 0.084164 0.038598 0.133902 -0.142957 0.016318 0.171035 -0.065419 0.065747 0.102706 -0.196078 -0.024411 0.129514 -0.10998 -0.009823 -0.090532 0.027363 -0.044151 0.056098 -0.063484 -0.059632 0.044203 -0.033025 0.13901 0.064248 -0.104433 -0.06356 0.003656 0.094117 0.011135 -0.074083 0.154524 -0.077153 -0.005097 -0.026065 0.160962 0.048547 0.066881 0.02394 -0.018035 0.127532 -4.3E-4 0.044966 0.081409 -0.06808 0.157435 0.081565 -0.121249 0.018908 0.028423 0.027461 0.130568 0.033633 -0.031653 0.031799 0.130089 0.148517 0.104493 0.045419 0.002147 0.086544 0.060944 0.174382 -0.062334 -0.177867 0.023145 0.048495 -0.135988 -0.077762 -0.025428 0.055864 0.08813 0.062387 -0.009352 -0.095337 -0.191885 0.052572
0.004703 -0.062273 -0.025679 -0.101104 0.155037 -0.05007 -0.040433 -0.064963 -0.002024 0.043163 0.013145 0.20033 -0.040543 -0.019415 0.083808 0.151193 -0.053072 0.113034 0.052904 -0.11358 -0.096405 -0.062211 0.150597 0.212678 -0.043778 -0.017879 0.035163 0.009755 0.078208 -0.15732 0.047419 -0.046215 -0.08901 0.080005 -0.015931 -0.062026 -0.051508 0.049401 0.133039 0.079958 -0.133947 0.171195 0.126626 0.150075 0.048526 -0.063997 -0.120738 -0.079094 -0.147763 0.115538 0.107812 -0.094327 0.001089 0.077713 0.07065 -0.015121 0.023336 -0.056458 0.110967 0.032638 -0.003168 -0.170242 0.132499 0.019334 -0.054456 0.071198 -0.05854 0.123735 0.085028 -0.252915 -0.016834 -0.052474 0.019276 0.044861 0.052236 0.119567 -0.082146 -0.10515 0.04785 -0.056638 0.020079 0.054878 0.026394 -0.056494 0.015258 0.033388 -0.001474 0.052699 0.119387 0.095269 -0.008829 0.131707 0.050361 0.099774 -0.039855 0.010908 0.057211 0.102341 0.014816 -0.116547
0.0 0.0 0.0 0.0 0.0 0.0 0.0 0.0 0.0 0.0 0.0 0.0 0.0 0.0 0.0 0.0 0.0 0.0 0.0 0.0 0.0 0.0 0.0 0.0 0.0 0.0 0.0 0.0 0.0 0.0 0.0 0.0 0.0 0.0 0.0 0.0 0.0 0.0 0.0 0.0 0.0 0.0 0.0 0.0 0.0 0.0 0.0 0.0 0.0 0.0 0.0 0.0 0.0 0.0 0.0 0.0 0.0 0.0 0.0 0.0 0.0 0.0 0.0 0.0 0.0 0.0 0.0 0.0 0.0 0.0 0.0 0.0 0.0 0.0 0.0 0.0 0.0 0.0 0.0 0.0 0.0 0.0 0.0 0.0 0.0 0.0 0.0 0.0 0.0 0.0 0.0 0.0 0.0 0.0 0.0 0.0 0.0 0.0 0.0 0.0
0.018336 -0.137163 -0.029627 0.128172 -0.045956 -0.023802 -0.108621 -0.04369 -0.16751 0.133 0.175361 0.163902 0.007596 -0.041028 -0.062108 0.239324 0.06215 -0.005503 0.052969 0.086646 -0.045702 0.073246 0.075648 0.007983 -0.042623 -0.183391 -0.034467 0.016647 0.007929 -0.167663 -0.132052 -0.131696 -0.281045 0.090862 -0.169253 -0.151134 0.081827 -0.19741 -0.082489 -0.027545 -0.162824 -0.116384 -0.079359 0.027846 0.196157 -0.124446 0.027944 0.068258 -0.164819 -0.067346 -0.032165 -0.128372 -0.016769 -0.101562 0.129065 0.031056 0.016591 0.027301 0.066687 0.002282 0.079472 -0.056693 0.111025 -0.111667 -0.041353 0.027727 -0.062785 -0.024992 0.015069 0.074928 -0.087496 -1.75E-4 -0.16281 -0.073809 0.042645 -0.091865 0.051474 -0.007921 0.028972 0.065995 0.057448 0.146347 0.084188 -0.027034 0.101409 0.0779 0.129895 0.102215 0.230054 -0.052916 -0.025521 -0.012097 -0.004752 0.010025 0.062464 0.101908 0.132857 -0.076193 0.102684 0.00554
1.519526 1.445578 -1.609499 2.582747 2.460795 3.529971 0.431498 -0.524736 0.238502 0.565084 -2.150664 2.607871 -3.578636 0.22885 1.205379 0.400126 -2.365878 -2.228676 -0.500047 -1.958516 -2.734259 -2.028213 -0.339577 -2.726884 0.003785 -1.85554 -0.90189 1.042933 0.930181 0.561229 0.956561 0.220468 -1.219533 -0.188243 -0.649085 -0.117874 2.101841 -0.317004 1.300647 -1.49228 0.533457 -2.976113 -0.635474 -1.431524 -0.943268 0.543614 -2.072507 -1.004219 4.072807 -1.496014 2.612373 2.458477 -0.120651 0.418572 -2.53177 0.646754 2.04053 2.0667 -2.403623 -3.037353 -1.289071 1.269349 0.447478 0.512568 0.464348 -0.142416 -1.155552 0.32258 -0.986119 3.909852 3.839548 0.865499 -1.089316 -1.400134 0.517204 -3.398406 -0.576028 -0.612853 -0.573641 -1.979957 1.278503 1.159562 0.583915 -0.210028 0.851463 1.075476 2.276915 0.114312 2.2836 1.968815 1.899569 0.001135 -2.286771 -2.666814 -1.408445 1.975128 -0.085175 1.44887 -1.994305 2.796178
0.143827 -0.109827 0.034065 0.227088 -0.055472 0.197211 -0.263184 -0.105788 0.075174 0.037992 -0.02462 0.234734 -0.026546 -0.058231 0.124374 -0.05098 -0.044082 -0.076087 0.095286 -0.104294 -0.117871 0.037764 -0.128611 0.130376 -0.042743 -0.102692 0.001838 -0.001977 0.176824 -0.065073 0.146438 0.062689 -0.137862 -0.03456 -0.107469 0.048835 -0.033829 0.05883 -0.077667 -0.149738 -0.129411 -0.004244 0.096813 0.032204 0.019195 0.045283 -0.028667 -0.045173 0.146696 0.073569 0.077296 -0.035214 -0.06627 -0.173317 0.139935 -0.063089 -0.135907 0.058288 -0.023565 -0.189732 -0.026764 -0.060015 0.05455 -0.024232 -0.04955 -0.0857 -0.055489 -0.148741 -0.038161 0.081191 0.120172 0.098276 0.142734 -0.018801 -4.69E-4 -0.112375 -0.072463 0.107795 0.062915 -0.170122 0.094813 0.132555 -0.086554 -0.053139 -0.038224 0.136973 -0.133582 0.007514 0.140238 -0.028718 -0.112625 -0.020174 0.069623 0.179129 -0.123251 -0.323619 -0.004731 -0.144719 0.055472 -0.005833
-0.130164 -0.187953 0.144406 0.174656 -0.077117 0.039888 -0.193869 -0.041281 -0.105436 0.074729 0.119843 0.156117 -0.072708 -0.069583 0.116153 0.231153 0.020629 0.206416 0.134536 0.097755 -0.097777 0.197873 0.24626 0.099782 -0.23611 -0.137214 -0.119742 -0.07529 0.184674 -0.081489 -0.040968 -0.009743 0.005189 0.130197 -0.066131 -0.039399 -0.021028 -0.053901 -0.036153 0.056895 -0.055839 0.221577 0.036025 -0.107652 0.153219 -0.1358 -0.072192 -0.055033 -0.211391 0.0609 0.153305 -0.076466 -0.06142 0.02834 0.047927 0.014312 -0.030226 0.008804 0.06576 -0.080365 0.201824 -0.175889 -0.052142 -0.081267 -0.035925 -0.110725 0.130939 0.022002 0.145222 -0.073833 -0.035926 -0.008361 0.019765 -0.03487 -0.03352 -0.038814 -0.163654 0.025095 -0.013035 0.048879 0.019235 0.195218 0.105204 -0.264004 -0.010729 0.045505 0.037127 0.058709 0.231443 0.065061 -0.085906 -0.085544 0.008585 0.079536 0.019914 -0.127723 0.097586 0.05478 0.012018 -0.096895
-0.003094 -0.167835 0.414167 0.20214 0.021192 0.110874 -0.142571 -0.037466 0.106848 0.210642 -0.104314 0.368307 -0.180382 0.077357 0.178098 0.279879 0.11783 0.088282 -0.24772 -0.115248 -0.054334 0.134777 0.26336 0.082243 -0.293855 -0.028461 3.44E-4 -0.063758 0.311569 -0.233804 0.127595 -0.011127 -0.128887 0.041042 -0.086175 -0.074408 0.088104 0.068682 0.046454 -0.047408 -0.036691 -0.110982 -0.019407 -0.186861 0.082029 -0.006638 -0.113443 -0.147593 -0.01641 0.094933 0.118614 -0.043671 0.018239 -0.413848 0.281094 0.152042 -0.042809 0.166658 -0.018005 -0.05191 -0.023496 0.119143 -0.092649 -0.042531 0.058689 -0.124429 -0.030609 0.011888 -0.002563 0.032041 0.205577 0.076755 0.032821 0.085427 -0.127106 -0.219912 -0.095765 0.089966 -0.089799 -0.123091 -0.053708 0.014194 0.133849 -0.209805 -0.029523 0.050832 -0.087862 -0.109852 0.313246 0.164122 -0.114575 0.04465 0.051932 -0.079995 -0.022854 -0.28581 -0.010104 0.221313 -0.025797 -0.064144
-0.045034 -0.171359 0.184678 0.097529 -0.021152 -0.063557 0.165518 -0.095463 0.122723 0.005338 0.032194 0.104262 0.002841 0.035373 0.176075 0.074424 -0.237605 0.094492 0.176673 -0.095809 -0.176576 -0.008606 0.199225 0.115573 -0.093062 0.066268 -0.007132 -0.06829 0.05348 -0.030247 0.067004 -0.195815 -0.057617 0.051465 0.06698 -0.241073 0.129252 -0.04287 0.039021 -0.055443 -0.141548 0.125892 -0.024648 0.095763 0.081229 -0.296273 0.118912 0.001528 -0.008892 0.100446 0.029094 -0.107701 -0.094931 -0.031189 -0.237412 0.05769 0.026742 -0.188172 -0.070202 -0.185837 -0.118722 -0.188817 0.016652 -0.233815 -0.252807 -0.12861 -0.078005 0.163661 0.153729 -0.075312 -0.061938 -0.103743 0.009898 0.023548 0.220844 -0.15455 -0.024319 -0.177401 -0.004623 0.086814 -0.116381 0.132928 0.251795 -0.119481 -0.116005 0.073754 0.077959 0.198077 0.130755 0.16859 -0.051399 -0.107858 -0.037692 0.019149 -0.238987 -0.043204 0.282933 0.054821 -0.219089 0.104743
-0.026799 -0.103797 0.112651 -0.259641 -0.103915 0.088316 -0.053088 -0.022809 0.009437 -0.09753 0.060073 0.126938 -0.120166 -0.201027 -0.031192 0.114149 -0.054812 0.193163 0.102408 0.014485 -0.142804 0.004168 0.106051 0.11444 -0.218755 -0.190187 0.08501 -0.064668 -0.128386 0.029669 -0.065954 0.042625 -0.391147 -0.09788 -0.127327 0.028785 0.023364 -0.057131 -0.029977 -0.052351 -0.109947 0.189529 -0.137615 0.126845 -0.031891 -0.070696 -0.021912 0.047885 0.00687 0.096735 0.088226 -0.067865 -0.012925 0.020968 -0.00858 0.059358 0.11823 -0.176081 -0.213955 -0.175354 0.240854 -0.072666 0.023853 -0.029982 0.089821 0.130766 0.016941 0.178835 -0.00797 -0.080021 -0.044534 0.049337 -0.037857 -0.1511 0.060476 -0.006618 0.145705 0.04376 -0.128786 -0.038244 0.01883 -0.008851 0.060935 -0.194196 0.098924 0.049666 0.05715 0.08558 0.098442 0.050731 -0.160965 -0.078077 -0.002686 -0.001068 -0.122167 -0.028315 -0.037337 -0.071233 -0.050617 -0.095917
0.102552 -0.16986 0.176563 -0.016792 -0.075467 -0.145314 0.02184 -0.132824 -0.014519 0.080671 0.260322 0.177028 0.152792 0.010205 0.112916 0.238972 -0.083864 0.158997 -0.115616 0.086057 -0.087761 0.150296 0.078687 -0.050504 -0.228487 0.067191 0.040371 -0.027306 -0.120541 -0.056817 0.166968 -0.160496 0.091024 0.103811 -0.107916 -0.255359 0.156895 0.162379 -0.067521 -0.034548 0.01417 0.074665 -0.12552 -0.249095 0.038275 0.085202 -0.029517 0.009402 -0.120507 0.272002 0.221301 -0.228887 0.022212 -0.032619 0.049654 -0.2589 0.014059 -0.088643 -0.03042 0.021255 0.19797 0.067486 0.099511 -0.035845 -0.180838 -0.062864 0.154229 0.087381 0.118233 0.108047 -0.009006 0.058648 0.052429 -0.030079 -0.110129 0.048083 0.023506 0.071163 -0.042314 -0.03222 0.020556 -0.061379 -0.035855 -0.101175 -0.139598 -0.12239 0.169656 0.168243 0.159593 0.234457 0.006015 -0.046646 0.066652 0.205211 -0.002982 -0.061163 -0.010577 0.127874 -0.155092 -0.131251
1.260627 1.599994 -1.15685 -0.095142 -0.379541 -2.055629 3.236184 0.644579 1.468387 1.902358 0.388442 -2.073489 0.819164 1.660996 0.646246 0.186846 0.9307 1.602334 -0.530539 3.949719 0.763756 -1.14209 -1.049875 -2.435617 1.328807 7.637197 -3.562523 1.077793 -3.47278 -4.277141 5.277156 0.995659 -1.947196 -1.198195 2.502772 -5.788221 0.412544 -0.924881 0.323918 4.169696 -3.107795 3.945776 3.333708 -6.079014 4.436243 -0.336725 -0.259322 -1.461375 -2.107108 -5.871193 3.925537 1.765888 1.268693 2.205376 -3.125986 -3.985181 0.218387 -1.002339 -4.991611 4.98678 -0.71456 7.532733 -1.447588 -3.066321 -4.43056 2.007843 -1.240176 -0.021347 -2.950239 1.730913 -1.66244 2.296627 -0.05978 -3.042275 0.515046 2.606064 2.064176 0.012134 -0.205455 3.038773 -1.392456 -0.968183 -1.358008 0.98077 -0.044278 1.272459 2.336447 1.556644 1.061936 1.744135 -2.133068 2.893799 1.172018 5.421838 -5.033532 -3.601843 -0.996689 2.483666 -2.135578 -4.45665
0.102552 -0.16986 0.176563 -0.016792 -0.075467 -0.145314 0.02184 -0.132824 -0.014519 0.080671 0.260322 0.177028 0.152792 0.010205 0.112916 0.238972 -0.083864 0.158997 -0.115616 0.086057 -0.087761 0.150296 0.078687 -0.050504 -0.228487 0.067191 0.040371 -0.027306 -0.120541 -0.056817 0.166968 -0.160496 0.091024 0.103811 -0.107916 -0.255359 0.156895 0.162379 -0.067521 -0.034548 0.01417 0.074665 -0.12552 -0.249095 0.038275 0.085202 -0.029517 0.009402 -0.120507 0.272002 0.221301 -0.228887 0.022212 -0.032619 0.049654 -0.2589 0.014059 -0.088643 -0.03042 0.021255 0.19797 0.067486 0.099511 -0.035845 -0.180838 -0.062864 0.154229 0.087381 0.118233 0.108047 -0.009006 0.058648 0.052429 -0.030079 -0.110129 0.048083 0.023506 0.071163 -0.042314 -0.03222 0.020556 -0.061379 -0.035855 -0.101175 -0.139598 -0.12239 0.169656 0.168243 0.159593 0.234457 0.006015 -0.046646 0.066652 0.205211 -0.002982 -0.061163 -0.010577 0.127874 -0.155092 -0.131251
-0.205391 -0.036769 0.166638 -0.006048 -0.239688 0.033663 -0.131736 0.155403 -0.043184 -0.008869 -0.142834 0.200533 -0.009243 0.213072 0.013553 0.065567 0.288369 -0.064607 0.092198 0.049833 0.088686 0.138937 0.139638 0.026687 -0.083493 -0.00628 0.017726 -0.23194 0.212052 -0.194064 -0.086992 0.068332 0.126633 -0.066876 -0.152459 -0.151588 -0.021706 -0.027539 -0.196726 -0.057535 0.091218 0.127864 0.056674 -0.036129 0.139463 -0.070691 0.221264 0.045015 0.073746 0.011487 -0.121246 -0.093524 0.124506 0.013963 0.188021 -0.15882 0.089759 0.073029 0.069782 -0.030448 0.082574 0.036901 0.019637 -0.085934 -0.124127 -0.17176 0.094555 -0.020356 -0.201752 -0.119802 -0.035376 -0.055072 0.166038 0.13702 -0.02876 -0.446024 -0.056226 0.181553 0.102184 0.10934 0.16551 -0.164115 0.172459 -0.09509 -0.106755 -0.065906 -0.009885 0.069749 -0.020278 0.20674 -0.027871 -0.013387 0.16721 0.055782 -0.032039 -0.037201 0.027434 -0.274177 -0.123245 0.057219
-0.331948 0.126703 0.161882 0.212503 0.096733 -0.201543 -0.143691 -0.081832 -0.114495 0.074679 0.030278 -0.096378 -0.082389 -0.286524 0.025515 0.176607 -0.166066 -0.031721 0.037603 -0.105554 -0.155771 0.141413 -0.202115 0.007044 -0.219266 0.067356 0.066329 -0.216661 -0.293136 0.029563 -0.103342 -0.013791 -0.128572 -0.061451 -0.066534 0.125869 0.045289 0.170814 0.066434 0.2484 -0.036972 0.027118 -0.081493 -0.152026 -0.2897 0.123594 -0.141628 0.164037 -0.123813 0.130793 0.242071 0.068593 0.141564 -0.163997 -0.126083 -0.19402 0.182709 0.093292 0.113181 0.175814 0.292309 -0.095704 0.057334 0.022893 -0.253698 0.149914 0.155955 0.078517 0.19929 0.121105 -0.068037 -0.086394 -0.185115 -0.072629 0.047015 -0.067535 -0.200994 0.002423 -0.002036 0.025111 0.197854 -0.01515 -0.038478 -0.078467 0.220191 0.004525 0.015313 -0.10614 0.217501 0.09848 -0.107511 -0.033352 0.033466 -0.125287 0.068481 -0.008352 0.17098 0.017676 -0.048228 0.032973
-0.066437 -0.092262 0.20651 0.12308 0.037427 -0.03114 -0.085206 0.05502 -0.084668 0.095572 0.043874 0.054121 0.011785 -0.172491 -0.001026 -0.126019 0.03982 0.148044 0.139412 0.101951 -0.046342 0.115553 0.170058 -0.012527 -0.13643 0.064969 -0.118808 -0.115757 0.052639 -0.057597 -0.176863 0.229836 0.009377 0.249157 -0.056519 -0.008866 0.033916 -0.008748 -0.099761 0.044775 -0.00959 0.309738 0.1407 0.021772 0.068294 0.032833 0.172205 0.061869 -0.209061 0.028674 0.006718 0.126366 -0.068182 -0.116445 0.080244 -0.148131 0.012839 -0.107345 0.018894 -0.058058 -0.013308 -0.085134 -0.051306 -0.106379 -0.027048 0.006252 0.107546 0.042982 0.177589 -0.088319 -0.065284 0.116306 0.056094 0.092332 0.050274 -0.23424 -0.176344 -0.058353 0.004087 -0.093256 -0.003132 0.221259 0.091115 -0.117862 0.050354 -0.064759 -0.041719 -0.063826 0.090675 -0.046661 -0.064002 -0.134371 0.008086 0.184792 -0.079487 0.022554 0.127205 0.062445 -0.123089 0.027522
-0.671963 -1.356401 3.602218 0.823366 -0.502176 -0.026847 2.688116 0.953721 0.412325 -0.074957 -2.563688 0.379861 -0.279054 0.512633 -0.426346 -0.669122 -2.193019 -1.985633 1.195718 -0.843091 -3.07709 -2.336138 0.676971 -1.157188 0.84245 -0.067074 1.662677 -0.902702 0.573933 0.762577 1.605777 -0.494156 -0.764054 -4.857189 1.199538 0.081996 1.582965 -1.800896 1.133021 -2.874443 -0.067305 0.527258 -0.963475 2.056148 -0.810059 -2.590427 0.192699 -0.925293 0.533123 0.50128 0.198265 1.047486 -1.15476 -0.133629 -3.660616 2.9145 0.67414 -1.747608 -1.472014 0.506851 -0.089567 -1.009712 -0.989767 -0.231732 -1.20197 -0.899847 -0.180586 -0.280434 1.214359 0.601947 3.002038 1.452004 1.898121 0.64863 -0.773459 -0.546508 1.482508 0.349815 -0.022055 1.977613 1.349274 -0.187718 2.026595 2.419264 -2.256871 -0.764584 -0.110956 2.609596 -0.511332 0.497735 1.205947 -0.553892 0.146347 -2.201324 -0.117853 -0.193777 0.312823 3.388883 -4.036498 2.412019
-0.450212 -3.231828 1.75205 1.465626 2.295127 2.155446 3.883918 1.838695 2.1571 1.386027 2.6545 -1.87159 1.811871 -0.979486 1.27296 0.123855 -2.270849 0.446859 0.79487 0.380998 -1.026206 1.901699 -0.551961 0.638112 0.523607 3.198777 1.252476 -0.514885 -1.089403 -1.047872 4.437664 -0.140985 -1.311384 0.023812 1.653396 -1.562536 2.436673 -0.102598 -0.008537 4.37969 1.233382 1.713986 0.072573 -3.026041 4.237589 0.541248 -1.555899 -0.298941 0.513403 -2.753461 1.92617 -1.629641 -0.653963 1.427093 -1.158551 -2.215701 -0.513148 0.848297 -0.708563 0.064667 -0.438362 3.347454 -1.171061 -1.323198 -2.717955 0.908132 -0.129503 -0.712676 0.261541 1.899308 0.925656 -1.490814 -0.341176 0.444751 0.37431 -2.212635 2.664552 -0.297996 -0.03441 1.370183 0.904899 -0.643933 -1.086086 -1.372982 0.654498 1.576843 2.004715 1.011594 -5.158356 -2.130905 -0.393529 3.289016 -2.688763 2.331017 -5.213072 -0.326206 -0.982429 -1.91885 -0.118952 -1.913195
0.004703 -0.062273 -0.025679 -0.101104 0.155037 -0.05007 -0.040433 -0.064963 -0.002024 0.043163 0.013145 0.20033 -0.040543 -0.019415 0.083808 0.151193 -0.053072 0.113034 0.052904 -0.11358 -0.096405 -0.062211 0.150597 0.212678 -0.043778 -0.017879 0.035163 0.009755 0.078208 -0.15732 0.047419 -0.046215 -0.08901 0.080005 -0.015931 -0.062026 -0.051508 0.049401 0.133039 0.079958 -0.133947 0.171195 0.126626 0.150075 0.048526 -0.063997 -0.120738 -0.079094 -0.147763 0.115538 0.107812 -0.094327 0.001089 0.077713 0.07065 -0.015121 0.023336 -0.056458 0.110967 0.032638 -0.003168 -0.170242 0.132499 0.019334 -0.054456 0.071198 -0.05854 0.123735 0.085028 -0.252915 -0.016834 -0.052474 0.019276 0.044861 0.052236 0.119567 -0.082146 -0.10515 0.04785 -0.056638 0.020079 0.054878 0.026394 -0.056494 0.015258 0.033388 -0.001474 0.052699 0.119387 0.095269 -0.008829 0.131707 0.050361 0.099774 -0.039855 0.010908 0.057211 0.102341 0.014816 -0.116547
0.102552 -0.16986 0.176563 -0.016792 -0.075467 -0.145314 0.02184 -0.132824 -0.014519 0.080671 0.260322 0.177028 0.152792 0.010205 0.112916 0.238972 -0.083864 0.158997 -0.115616 0.086057 -0.087761 0.150296 0.078687 -0.050504 -0.228487 0.067191 0.040371 -0.027306 -0.120541 -0.056817 0.166968 -0.160496 0.091024 0.103811 -0.107916 -0.255359 0.156895 0.162379 -0.067521 -0.034548 0.01417 0.074665 -0.12552 -0.249095 0.038275 0.085202 -0.029517 0.009402 -0.120507 0.272002 0.221301 -0.228887 0.022212 -0.032619 0.049654 -0.2589 0.014059 -0.088643 -0.03042 0.021255 0.19797 0.067486 0.099511 -0.035845 -0.180838 -0.062864 0.154229 0.087381 0.118233 0.108047 -0.009006 0.058648 0.052429 -0.030079 -0.110129 0.048083 0.023506 0.071163 -0.042314 -0.03222 0.020556 -0.061379 -0.035855 -0.101175 -0.139598 -0.12239 0.169656 0.168243 0.159593 0.234457 0.006015 -0.046646 0.066652 0.205211 -0.002982 -0.061163 -0.010577 0.127874 -0.155092 -0.131251
0.0 0.0 0.0 0.0 0.0 0.0 0.0 0.0 0.0 0.0 0.0 0.0 0.0 0.0 0.0 0.0 0.0 0.0 0.0 0.0 0.0 0.0 0.0 0.0 0.0 0.0 0.0 0.0 0.0 0.0 0.0 0.0 0.0 0.0 0.0 0.0 0.0 0.0 0.0 0.0 0.0 0.0 0.0 0.0 0.0 0.0 0.0 0.0 0.0 0.0 0.0 0.0 0.0 0.0 0.0 0.0 0.0 0.0 0.0 0.0 0.0 0.0 0.0 0.0 0.0 0.0 0.0 0.0 0.0 0.0 0.0 0.0 0.0 0.0 0.0 0.0 0.0 0.0 0.0 0.0 0.0 0.0 0.0 0.0 0.0 0.0 0.0 0.0 0.0 0.0 0.0 0.0 0.0 0.0 0.0 0.0 0.0 0.0 0.0 0.0
0.159417 0.834166 2.054408 2.344199 -0.745911 -3.903244 0.877196 2.730294 0.297308 4.835881 3.047026 -2.553458 0.289173 -4.671243 0.542178 -2.08617 -0.320778 -0.032307 -3.632316 2.725504 -1.68044 2.328873 1.277586 1.51956 -2.287098 2.197989 3.019614 -3.673107 -1.407109 -3.745031 0.878769 -0.451963 -1.121339 -1.356484 1.84399 -2.434014 2.498029 1.159163 1.114379 5.378764 0.970237 2.727468 -1.13403 -0.494027 5.758744 0.174784 0.653724 -0.519303 0.907777 -2.245607 1.964157 2.20466 -1.411444 0.869506 -1.513327 -3.588641 -1.656131 -0.444958 1.94406 3.997756 -0.261424 4.787302 -0.275866 -0.187858 -3.849917 1.609367 0.031652 -0.0307 3.945939 0.396393 -1.485014 -1.003469 -2.540395 1.003849 -0.704376 -1.150485 2.778122 -0.166877 0.140222 -1.62827 -1.508136 -2.422587 -0.088784 -1.325814 -0.138746 -1.680219 1.105044 -1.860147 -4.26643 0.40225 -1.787036 0.147006 -0.670575 2.823716 -1.078183 0.050426 0.169144 -2.066578 0.825617 -3.246226
0.018205 -0.031736 0.031022 0.003355 0.033414 0.080811 -0.161338 -0.233527 0.06244 0.025634 0.103923 0.203148 0.045981 -0.086424 0.06392 0.013097 -0.019936 0.146688 -0.014027 0.061466 0.080077 0.128684 0.066381 0.029753 0.018048 0.007134 -0.014649 -0.086114 0.096329 -0.074893 -0.136207 0.053107 0.032278 -0.02181 -0.038367 -0.007195 0.079817 -0.088224 -0.072369 -0.011395 -0.080304 0.095606 -0.002204 -0.167883 0.014121 -0.178674 0.239245 0.111891 -0.049131 -0.216926 -0.068426 0.015183 0.193495 -0.102399 0.051222 -0.095485 0.12396 -0.060168 0.199361 -0.011809 0.179272 -0.01941 -0.041808 -0.05226 -0.027229 -0.235882 0.045783 -0.02528 0.157644 -0.049078 -0.058775 -0.015054 -0.227081 -0.112542 -0.023399 -0.311255 0.020194 0.040506 0.136313 0.012479 0.027018 -0.003722 -0.015392 -0.086654 0.129084 0.025131 0.10422 0.003294 -0.023959 -0.059567 -0.006051 -0.06011 -0.018539 0.040787 -0.00334 -0.159836 -0.013252 0.0331 -0.084165 -0.039115
-0.046114 -0.096927 0.169069 0.144269 -0.119074 -0.193156 -0.124727 -0.032294 -0.157273 0.08883 -0.03296 0.293558 0.07893 -0.047052 -0.119052 0.185173 0.196271 0.050811 -0.122053 0.089397 -0.091714 0.232699 0.113825 -0.068748 -0.147901 -0.107476 0.246612 -0.131633 -0.05764 0.05048 0.095109 -0.0877 0.146594 0.039324 -0.044364 -0.207138 0.124381 0.324543 -0.018863 0.104365 -0.045524 0.132069 -0.028297 -0.149431 0.018935 -0.055591 0.001973 -0.157042 -0.142966 0.039132 0.092991 -0.026374 -0.28532 0.05507 -0.092563 0.012103 0.024034 0.02716 0.062432 -0.164619 0.081968 0.040453 0.175791 -0.088481 -0.161604 -0.105879 0.21227 0.116576 -0.142894 0.031165 0.133612 0.206576 0.058895 -0.061574 -0.149486 -0.098667 -0.055111 0.184263 -0.18037 0.200018 -0.072303 0.137909 -0.078129 0.038057 -0.050973 -0.195379 0.117281 0.08288 0.252438 0.018566 0.026409 -0.122338 0.097277 0.076946 0.017598 -0.098627 -0.053671 -0.081359 -0.098846 -0.177147
-0.149151 0.051679 -0.051764 0.020552 0.070617 0.062165 -0.112563 0.006333 0.135076 0.026331 0.038158 0.02567 0.017613 0.142294 0.129874 0.065011 -0.075511 0.045352 0.034751 -0.024513 -0.043017 0.256634 0.298257 0.35153 -0.129262 -0.081822 -0.008114 -0.18214 0.054506 -0.178579 -0.034942 0.088872 -0.004503 0.001207 -0.041098 -0.189758 -0.095138 -0.087328 -0.081268 0.204187 -0.112607 0.162278 -0.017751 0.113767 -0.030728 -0.120672 0.085647 0.012892 -0.237576 0.293902 -0.140234 0.022282 -0.047195 -0.134321 0.113949 -0.140507 -0.077505 0.06957 0.046711 0.01867 -0.096344 0.215992 0.013992 -0.077306 -0.038565 -0.325411 -0.045649 0.046661 0.048834 -0.127996 -0.048183 0.01464 0.087616 0.087232 0.210925 -0.258689 0.012103 -0.114067 -0.044633 -0.135878 0.184526 0.154673 0.158945 0.015769 0.010447 -0.112183 -0.117019 -0.102709 -0.014146 0.043322 -0.023774 -0.006135 0.1268 -0.064857 -0.171731 -0.109069 0.063654 0.040452 -0.169669 0.134621
-0.028706 0.033732 -0.114421 -0.07457 0.127383 -0.072256 0.225561 0.060203 0.083158 -0.055015 -0.008016 -0.013805 -0.051516 0.044168 0.111501 0.025036 -0.238953 0.036993 0.171614 -0.137027 -0.117078 -0.077618 -0.049104 -0.008848 0.057426 -0.057326 0.059874 0.011163 0.064202 0.02249 0.115982 -0.050116 -0.037287 0.022451 0.317696 0.035591 0.023828 -0.193618 -0.051534 -0.084514 -0.011266 -0.085479 -0.049087 0.026278 0.053149 0.155973 -0.017962 0.090405 0.046952 -0.046551 0.079632 -0.054336 -0.079931 -0.02083 -0.19082 0.195755 -0.172548 -0.076107 -0.039663 -0.041625 -9.09E-4 -0.037134 -0.03562 -0.121145 -1.21E-4 -0.01738 0.076054 0.018905 0.018724 -0.037724 0.134652 -0.041302 0.140077 -0.048912 -0.024278 0.051511 -0.020874 0.112695 -0.215306 0.087446 0.074303 -0.127096 0.103432 -0.089674 -0.052799 0.058982 -0.081369 0.292689 -0.046317 0.05673 -0.017009 0.029554 -0.09257 0.016177 0.031009 -0.141385 -0.131271 0.186623 0.243762 0.077857
-0.028706 0.033732 -0.114421 -0.07457 0.127383 -0.072256 0.225561 0.060203 0.083158 -0.055015 -0.008016 -0.013805 -0.051516 0.044168 0.111501 0.025036 -0.238953 0.036993 0.171614 -0.137027 -0.117078 -0.077618 -0.049104 -0.008848 0.057426 -0.057326 0.059874 0.011163 0.064202 0.02249 0.115982 -0.050116 -0.037287 0.022451 0.317696 0.035591 0.023828 -0.193618 -0.051534 -0.084514 -0.011266 -0.085479 -0.049087 0.026278 0.053149 0.155973 -0.017962 0.090405 0.046952 -0.046551 0.079632 -0.054336 -0.079931 -0.02083 -0.19082 0.195755 -0.172548 -0.076107 -0.039663 -0.041625 -9.09E-4 -0.037134 -0.03562 -0.121145 -1.21E-4 -0.01738 0.076054 0.018905 0.018724 -0.037724 0.134652 -0.041302 0.140077 -0.048912 -0.024278 0.051511 -0.020874 0.112695 -0.215306 0.087446 0.074303 -0.127096 0.103432 -0.089674 -0.052799 0.058982 -0.081369 0.292689 -0.046317 0.05673 -0.017009 0.029554 -0.09257 0.016177 0.031009 -0.141385 -0.131271 0.186623 0.243762 0.077857
0.110693 -0.089382 -0.1042 0.088095 -0.094345 0.076031 -0.001375 -0.149925 -0.141647 -0.046288 -0.009878 0.081474 0.097894 0.157953 0.193783 0.151017 0.029816 0.045103 0.112677 -0.001287 -0.040243 -0.205078 0.109363 0.019802 -0.036564 0.213122 0.034571 0.016138 0.198142 -0.094925 -0.158766 -0.099852 0.056161 0.174886 0.117313 -0.005402 0.027828 -0.05355 -0.113252 -0.060183 -0.015416 -0.097592 0.052105 -0.240972 -0.013886 0.036541 -0.090512 0.020933 0.110999 -0.240721 0.009113 0.19445 -0.117784 0.048751 0.25332 0.072291 0.195416 -0.001097 0.143113 -0.130869 0.028272 -0.109788 0.033535 0.03135 -0.029411 0.142338 -0.145301 -0.038271 0.050975 0.139342 0.024327 0.05233 0.09886 -0.072485 0.074771 -0.011289 -0.045876 -0.02924 0.042561 -0.086063 0.04112 -0.054474 0.049727 -0.143901 -0.008168 -0.026263 0.234975 0.080949 0.041974 -0.087995 0.054594 -0.096466 0.035802 0.180267 0.040454 0.093537 -0.045373 0.004663 -0.030548 -0.065697
0.0 0.0 0.0 0.0 0.0 0.0 0.0 0.0 0.0 0.0 0.0 0.0 0.0 0.0 0.0 0.0 0.0 0.0 0.0 0.0 0.0 0.0 0.0 0.0 0.0 0.0 0.0 0.0 0.0 0.0 0.0 0.0 0.0 0.0 0.0 0.0 0.0 0.0 0.0 0.0 0.0 0.0 0.0 0.0 0.0 0.0 0.0 0.0 0.0 0.0 0.0 0.0 0.0 0.0 0.0 0.0 0.0 0.0 0.0 0.0 0.0 0.0 0.0 0.0 0.0 0.0 0.0 0.0 0.0 0.0 0.0 0.0 0.0 0.0 0.0 0.0 0.0 0.0 0.0 0.0 0.0 0.0 0.0 0.0 0.0 0.0 0.0 0.0 0.0 0.0 0.0 0.0 0.0 0.0 0.0 0.0 0.0 0.0 0.0 0.0
-0.08477 -0.115251 0.007686 0.048635 -0.168863 -0.030129 0.017766 0.021339 0.098368 0.044247 0.087481 0.254043 -0.073965 -0.134948 0.11242 0.127162 -0.133256 0.205706 0.168609 0.114059 -0.048373 0.155327 0.128861 0.178042 -0.183763 -0.161177 -0.082903 -0.075306 0.289974 -0.013723 -0.057601 0.009063 -0.066335 0.098877 -0.009943 -0.084573 0.057209 0.117931 -0.118959 0.032335 -0.096387 0.15325 0.015781 0.042297 0.07328 -0.005634 0.03635 0.153716 -0.243491 0.164453 0.029476 -0.078621 0.028559 0.048566 0.111939 0.096482 -0.023735 0.006661 0.064502 -0.071243 0.302454 -0.141656 0.042701 -0.238633 -0.121363 -0.049156 0.00137 0.025545 -0.070891 -0.161519 -0.075712 -0.124343 -0.055845 0.04378 0.119155 -0.076788 -0.193084 0.074952 -0.104933 -0.028067 0.027517 0.168009 0.019318 -0.168826 0.082503 -0.099823 -0.100129 -0.094195 0.180418 -0.022596 -0.247804 -0.002821 0.02595 0.145901 -0.023521 -0.288959 0.190055 -0.086932 -0.101002 -0.091411
0.251155 0.03624 0.255105 -0.042787 -0.014179 -0.014637 0.0286 -0.034855 -0.159639 0.013753 0.00527 -0.217851 0.083575 -0.225244 0.035252 -0.163994 -0.122798 0.019025 -0.169155 0.022945 -0.129537 -0.150201 0.055256 0.001115 0.140092 0.138114 0.120111 -0.135517 0.123237 -0.036642 -0.004279 0.064035 -0.090361 0.036244 0.090496 0.126197 -0.022987 -0.081326 -0.027756 0.12032 -0.132277 -0.075292 -0.013393 -0.20481 0.070039 -0.206795 0.010689 0.076481 0.055304 -0.016541 -0.015935 0.188356 -0.025695 -0.191791 -0.05479 0.110223 0.182276 -0.134965 -0.18726 0.116187 0.02168 0.136313 0.071222 0.113149 0.11075 -0.045334 -0.19175 0.13746 0.121636 0.194237 0.14098 -0.037976 0.200364 -0.044926 0.099988 -0.049927 0.13221 0.006785 -0.039518 -0.05688 -0.08828 0.001243 -0.025764 0.011722 0.052885 -0.077094 0.026482 -0.025092 0.003451 -0.125141 -0.106979 0.025526 0.071414 -0.140281 -0.201995 -0.079764 -0.044123 0.25822 0.016394 -0.192487
0.0 0.0 0.0 0.0 0.0 0.0 0.0 0.0 0.0 0.0 0.0 0.0 0.0 0.0 0.0 0.0 0.0 0.0 0.0 0.0 0.0 0.0 0.0 0.0 0.0 0.0 0.0 0.0 0.0 0.0 0.0 0.0 0.0 0.0 0.0 0.0 0.0 0.0 0.0 0.0 0.0 0.0 0.0 0.0 0.0 0.0 0.0 0.0 0.0 0.0 0.0 0.0 0.0 0.0 0.0 0.0 0.0 0.0 0.0 0.0 0.0 0.0 0.0 0.0 0.0 0.0 0.0 0.0 0.0 0.0 0.0 0.0 0.0 0.0 0.0 0.0 0.0 0.0 0.0 0.0 0.0 0.0 0.0 0.0 0.0 0.0 0.0 0.0 0.0 0.0 0.0 0.0 0.0 0.0 0.0 0.0 0.0 0.0 0.0 0.0
0.0 0.0 0.0 0.0 0.0 0.0 0.0 0.0 0.0 0.0 0.0 0.0 0.0 0.0 0.0 0.0 0.0 0.0 0.0 0.0 0.0 0.0 0.0 0.0 0.0 0.0 0.0 0.0 0.0 0.0 0.0 0.0 0.0 0.0 0.0 0.0 0.0 0.0 0.0 0.0 0.0 0.0 0.0 0.0 0.0 0.0 0.0 0.0 0.0 0.0 0.0 0.0 0.0 0.0 0.0 0.0 0.0 0.0 0.0 0.0 0.0 0.0 0.0 0.0 0.0 0.0 0.0 0.0 0.0 0.0 0.0 0.0 0.0 0.0 0.0 0.0 0.0 0.0 0.0 0.0 0.0 0.0 0.0 0.0 0.0 0.0 0.0 0.0 0.0 0.0 0.0 0.0 0.0 0.0 0.0 0.0 0.0 0.0 0.0 0.0
0.036737 -0.032921 0.024463 0.001525 -0.14953 -0.081921 0.05195 0.033054 0.042371 0.187633 -0.169856 -0.043431 -0.173636 0.224604 -0.099043 -0.052621 -0.094147 -0.087315 -0.205223 0.126826 -0.051988 0.057934 0.007092 0.028646 0.030134 0.006318 0.118765 0.00841 -0.042876 -0.067148 -0.15148 -0.042306 0.047684 0.10077 -0.040846 -0.155266 0.173754 7.38E-4 -0.149543 -0.155015 0.042332 1.9E-5 0.164393 -0.109523 -0.01025 0.019395 0.060378 0.084138 0.12078 -0.042878 0.08194 -0.06976 0.047308 0.056745 0.006819 -0.026824 -0.156007 0.042841 -0.214906 -0.100455 0.001679 0.056153 0.00309 0.056995 -0.027269 0.054063 -0.021361 -0.118937 -0.039109 0.253888 -0.099679 0.068347 0.024916 0.004649 0.026359 0.067277 0.089904 -0.116294 -0.057639 -0.070171 0.238942 -0.101354 -0.104886 -0.195107 -0.268537 -0.124495 -0.010152 -7.27E-4 0.045996 0.182311 -0.129108 -0.070264 -0.013 0.100287 -0.131971 0.14376 -0.073632 0.262197 -0.055353 0.017675
0.352905 0.550922 -1.128945 -0.511125 0.774489 1.405335 -0.371647 0.106012 -0.779785 -0.640302 -0.68578 1.570717 -0.712288 -0.706705 -0.789609 -0.045278 -1.599722 -2.840112 -0.089543 -1.158838 -1.862605 -0.62748 -0.063542 -0.468696 0.750564 0.033551 -0.772222 -0.188991 -0.163115 0.455978 0.038455 -0.779588 0.172303 -1.114448 -0.548246 -0.008155 1.66721 -0.744821 -0.15746 -2.668482 -0.304702 -0.905716 0.479063 0.151803 -0.94063 -0.044338 -0.906122 -0.456182 0.281891 0.268287 0.47007 0.628019 0.328428 1.471286 -2.345457 0.072073 -0.345477 -0.998199 -1.496897 -0.053061 0.351206 -0.934426 0.295591 0.07336 0.24092 0.486976 0.390085 -0.621556 0.375246 -0.02625 1.957847 1.014101 0.004675 0.08874 -0.900479 -0.462149 0.922254 1.355385 -1.048724 0.105897 1.254466 0.410718 0.321258 1.066395 -0.171761 -0.128774 0.315556 0.697301 -0.180925 0.555334 1.005586 -0.891677 -1.232923 -1.994189 -0.567812 0.204184 -0.947385 -0.051526 -0.987029 0.725141
0.0 0.0 0.0 0.0 0.0 0.0 0.0 0.0 0.0 0.0 0.0 0.0 0.0 0.0 0.0 0.0 0.0 0.0 0.0 0.0 0.0 0.0 0.0 0.0 0.0 0.0 0.0 0.0 0.0 0.0 0.0 0.0 0.0 0.0 0.0 0.0 0.0 0.0 0.0 0.0 0.0 0.0 0.0 0.0 0.0 0.0 0.0 0.0 0.0 0.0 0.0 0.0 0.0 0.0 0.0 0.0 0.0 0.0 0.0 0.0 0.0 0.0 0.0 0.0 0.0 0.0 0.0 0.0 0.0 0.0 0.0 0.0 0.0 0.0 0.0 0.0 0.0 0.0 0.0 0.0 0.0 0.0 0.0 0.0 0.0 0.0 0.0 0.0 0.0 0.0 0.0 0.0 0.0 0.0 0.0 0.0 0.0 0.0 0.0 0.0
0.073035 -0.079919 0.122078 0.070009 0.035434 0.018658 -0.183059 0.147125 -0.107593 0.056228 0.140978 0.18021 -0.045348 0.078801 0.133653 0.113163 -0.083625 0.028451 0.070486 0.078892 0.129882 -0.021826 0.159269 0.225048 -0.141071 -0.097332 0.097015 0.065624 0.098688 -0.11977 0.063817 -0.092636 0.016315 0.078766 0.038852 -0.039027 0.052932 0.051182 0.001994 -0.010468 -0.123446 0.05773 0.245279 0.069994 -0.017064 -0.276416 0.014806 -0.124354 -0.168748 0.0047 -0.090285 -0.026535 0.010011 -0.072706 -0.005764 0.070877 0.144337 -0.118817 0.198057 -0.075779 0.049072 -0.160941 -0.165197 -0.121618 0.02331 -0.067647 -0.024769 0.121234 -0.024136 -0.049223 0.17132 0.002487 0.045679 -0.149489 -0.013201 0.065034 -0.154836 0.069014 -0.075832 -0.108717 0.022612 0.164612 0.116734 0.001492 -0.037908 -0.266655 -0.002428 -0.065099 0.15947 -0.045658 -0.060928 -0.041806 -0.072881 0.14122 -0.036616 0.010863 -0.091485 -0.125244 0.188287 -0.010979
0.005518 -0.107391 0.008761 0.074809 0.01072 0.10078 -0.185676 0.061005 -0.05864 -0.158753 0.147631 0.178736 0.21261 0.033499 -0.029589 -0.054362 0.040022 0.054126 0.069176 0.050842 -0.187513 0.074742 0.149203 -0.12281 -0.159585 0.009201 -0.002689 -0.11566 -0.033472 0.050095 -0.090487 -0.081857 -0.106713 0.008851 -0.09134 -0.203458 -0.017711 -0.021598 0.029755 -0.013845 -0.170454 -0.070843 0.026987 -0.15957 0.045001 0.013381 0.046643 -0.073505 -0.119621 0.032782 0.047018 0.090185 0.239849 0.009332 0.086841 -0.158627 -0.014716 0.120094 0.021645 -0.205818 -0.156046 -0.034598 -0.014673 -0.106711 0.119934 -0.033458 -0.026109 -0.14322 0.122374 -0.135113 0.038038 -0.050556 0.086382 -0.146432 0.088719 -0.038898 -0.095391 -0.025432 0.01844 -0.054276 0.021954 0.197215 0.086042 -0.175575 0.017637 0.105713 -0.037991 -0.103149 0.022615 -0.001705 -0.252832 -0.079772 0.051415 0.125229 -0.047579 3.91E-4 -0.061495 0.03482 -0.19239 -0.189367
0.0 0.0 0.0 0.0 0.0 0.0 0.0 0.0 0.0 0.0 0.0 0.0 0.0 0.0 0.0 0.0 0.0 0.0 0.0 0.0 0.0 0.0 0.0 0.0 0.0 0.0 0.0 0.0 0.0 0.0 0.0 0.0 0.0 0.0 0.0 0.0 0.0 0.0 0.0 0.0 0.0 0.0 0.0 0.0 0.0 0.0 0.0 0.0 0.0 0.0 0.0 0.0 0.0 0.0 0.0 0.0 0.0 0.0 0.0 0.0 0.0 0.0 0.0 0.0 0.0 0.0 0.0 0.0 0.0 0.0 0.0 0.0 0.0 0.0 0.0 0.0 0.0 0.0 0.0 0.0 0.0 0.0 0.0 0.0 0.0 0.0 0.0 0.0 0.0 0.0 0.0 0.0 0.0 0.0 0.0 0.0 0.0 0.0 0.0 0.0
0.034047 -0.054055 0.066418 -0.163977 -0.075615 0.157758 -0.024646 -0.085906 -0.173935 -0.07575 0.006035 0.052612 0.073274 0.056245 -0.042493 0.013867 0.048134 -0.001593 -0.05235 -0.057344 -0.186794 0.151452 0.357934 -0.012307 0.045587 -0.043686 0.047995 -0.006634 -0.094001 0.028944 0.181895 -0.125426 0.040265 0.136603 -0.12769 -0.056094 0.0523 0.048884 0.083915 -0.143552 0.017211 -0.184826 -0.125707 -0.098416 -0.042174 -0.24423 -0.026174 -0.025944 -0.112935 -0.059777 0.223408 0.084709 -0.042098 -0.038665 -0.067112 -0.131579 0.136619 -0.113291 0.095941 0.18834 0.008489 0.124124 -0.137053 -0.25958 -0.063078 -0.12351 0.009944 -0.059149 -0.253102 -0.142045 0.147294 0.080286 0.065335 0.082465 0.031799 -0.00673 0.105412 -0.066535 0.041727 0.086384 -0.183454 0.142685 -0.08434 -0.008157 -0.050973 0.051495 -0.037743 0.052507 0.118033 0.105436 -0.080337 0.035158 -0.214973 0.027573 0.152796 -0.069266 -0.17195 -0.009134 -0.043062 0.164158
-0.147489 -0.221817 0.140705 0.176839 -0.004569 -0.069109 -0.119252 -0.137636 -0.009603 0.171039 0.099959 0.043631 -0.003074 -0.241598 0.067494 0.182442 0.052162 0.167019 0.230822 0.182772 -0.161237 0.037602 0.225621 0.248225 0.019026 -0.121465 0.099542 -0.046511 -0.01433 -0.063734 0.00872 0.02234 -0.178523 0.153072 -0.126323 0.004608 0.099879 0.111052 -0.010054 0.237799 0.093175 0.238068 0.141286 0.134539 0.237039 -0.140747 -0.040618 0.012825 -0.104942 -0.04436 0.083831 -0.179556 -0.026322 0.051564 0.039183 -0.201974 0.048547 -0.008944 0.111685 -0.169662 -0.030513 0.081258 -0.023711 -0.174721 -0.056533 -0.148616 0.098021 -0.074351 0.197913 -0.073629 -0.130989 -0.0724 -0.081476 -0.02102 0.141475 -0.131143 -0.023615 -0.00243 0.114985 -0.23491 -0.122902 0.228549 0.044123 -0.102711 -0.052869 0.054946 -0.029587 -0.031113 0.125624 0.09331 -0.25664 0.08044 -0.00262 0.054258 0.015983 -0.068429 0.192214 -0.038779 -0.084776 -0.031137
-0.019303 -0.002529 -0.008422 0.115266 0.028528 0.037318 -0.171611 -0.119728 0.08063 0.123641 0.205162 0.12071 0.033668 -0.050189 0.029205 0.160692 0.102192 0.160543 0.019279 -0.006701 -0.046097 0.22825 0.183039 -0.002247 -0.195626 -0.026982 -0.115158 0.044293 0.015434 -0.147153 -0.05616 -0.040167 -0.025384 0.009314 -0.123721 -0.240182 0.052266 0.018256 0.061974 0.057055 0.214691 0.236485 0.001764 -0.022228 0.117568 0.037046 0.018025 -0.122168 -0.073133 -0.028363 0.068127 0.029865 0.107291 0.044675 0.143504 -0.03141 0.003965 0.039915 -0.03263 -0.097703 0.064074 -0.166368 -0.173704 -0.022724 -0.099146 -0.117954 0.187166 0.031134 -0.034354 -0.038352 -0.109104 -0.274885 0.059596 -0.048928 0.006633 -0.076135 0.007098 -0.031185 -0.109211 0.02168 0.12185 0.082277 0.034144 0.007481 -0.037421 0.062545 -0.068271 -0.06697 0.030207 0.002634 -0.10734 -0.058583 -0.021734 0.131197 0.062131 -0.189168 0.135714 -0.272799 -0.004568 0.012972
-0.016095 -0.221284 0.154147 0.093093 -0.120192 0.173908 -0.009705 -0.062873 -0.097971 0.137386 0.059271 0.045163 -0.065457 0.01889 -0.037035 0.045368 0.1175 0.198912 0.027443 0.049138 -0.042477 0.075536 0.202853 0.161862 -0.146452 -0.063646 -0.104058 -0.063138 0.129651 -0.168296 -0.002577 -0.201428 -0.111876 0.014249 -0.123669 0.114499 0.087389 0.002974 0.04855 0.008512 -0.042541 0.277842 -0.001672 -0.050937 -0.046334 -0.066218 0.042947 -0.042938 -0.186846 0.030015 -0.10853 -0.017529 0.039545 -0.011386 0.134336 0.017813 -0.024028 -0.223112 -0.028306 -0.146831 0.074678 -0.10251 0.053908 -0.090249 0.05946 0.029108 0.159652 0.239093 0.131553 -0.085899 -0.158752 0.111013 -0.005195 -0.102156 0.082513 0.012178 0.041918 -0.038406 0.020171 -0.023594 -0.186237 -0.048326 -0.017435 -0.139643 0.051259 -0.004046 0.168775 0.021147 0.119302 0.125884 -0.196788 -0.0487 0.121817 0.079223 0.066627 -0.023851 -0.042194 0.036156 0.066127 -0.313196
-0.231046 -0.027097 0.160081 0.155097 -0.123167 -0.076865 -0.20027 -0.050448 0.315343 0.19895 0.188677 0.049745 0.077211 0.145307 0.014041 0.108087 -0.040267 0.15637 -0.011189 -0.194572 -0.23714 -0.015972 0.023557 0.071221 -0.268023 -0.016006 0.08002 0.092351 -0.006826 -0.074748 0.094306 0.067444 0.061511 0.03943 -0.086438 -0.012782 -0.148166 0.04149 0.052756 0.033653 0.083457 0.370738 -0.009408 -0.091631 -0.00611 -0.065454 0.059246 0.18682 -0.251368 0.043899 -0.090253 -0.06706 -0.056294 -0.019181 -0.082173 -0.09153 -0.09466 -0.04512 0.083953 -0.334486 -0.067243 -0.133624 0.092255 -0.119579 0.06984 0.312642 0.338252 -0.063663 0.091071 -0.213794 -0.061102 0.126736 -0.109849 -0.137483 -0.125395 0.094654 -0.121982 -0.048001 0.20732 0.052645 -0.076683 0.083718 0.305622 -0.140506 -0.013577 -0.095321 -0.143267 -0.174977 0.240734 -0.041716 -0.125687 -0.030518 0.026677 0.271762 -0.108715 0.071881 -0.093156 0.1017 -0.107791 -0.187334
-0.174596 0.042237 0.029378 0.144608 -0.143694 0.220433 0.097481 -0.077324 -0.074367 -0.155416 0.051585 0.123088 -0.145041 0.066892 0.144458 0.021207 -0.008966 0.041688 -0.155599 0.062556 0.02672 0.340693 0.251846 0.026713 -0.205085 -0.188037 0.08723 -0.087665 0.136478 -0.17854 -0.161791 -0.033438 0.007381 0.085569 -0.235092 -0.114827 0.033443 -0.026906 0.084493 0.00386 -0.059148 -0.128343 -0.006031 0.084857 0.009366 0.028422 -0.069897 -0.089022 0.145352 0.072656 0.045806 -0.071943 -0.047279 0.121694 -0.06004 0.078412 0.014155 0.00172 -0.088362 -0.24933 0.067504 0.04782 -0.007094 -0.088446 -0.14935 0.063683 0.007989 -0.002109 -0.157301 0.189646 0.038592 0.013846 0.226156 0.094574 0.046972 -0.03868 0.034843 0.131358 -0.165334 0.059048 0.192934 0.087395 0.097785 -0.191127 -0.016787 0.105338 -0.091555 0.171515 -0.054174 0.147277 -0.085246 0.039402 -0.097694 0.204332 0.102649 -0.240054 0.044449 -0.007943 0.007376 0.00738
-0.028706 0.033732 -0.114421 -0.07457 0.127383 -0.072256 0.225561 0.060203 0.083158 -0.055015 -0.008016 -0.013805 -0.051516 0.044168 0.111501 0.025036 -0.238953 0.036993 0.171614 -0.137027 -0.117078 -0.077618 -0.049104 -0.008848 0.057426 -0.057326 0.059874 0.011163 0.064202 0.02249 0.115982 -0.050116 -0.037287 0.022451 0.317696 0.035591 0.023828 -0.193618 -0.051534 -0.084514 -0.011266 -0.085479 -0.049087 0.026278 0.053149 0.155973 -0.017962 0.090405 0.046952 -0.046551 0.079632 -0.054336 -0.079931 -0.02083 -0.19082 0.195755 -0.172548 -0.076107 -0.039663 -0.041625 -9.09E-4 -0.037134 -0.03562 -0.121145 -1.21E-4 -0.01738 0.076054 0.018905 0.018724 -0.037724 0.134652 -0.041302 0.140077 -0.048912 -0.024278 0.051511 -0.020874 0.112695 -0.215306 0.087446 0.074303 -0.127096 0.103432 -0.089674 -0.052799 0.058982 -0.081369 0.292689 -0.046317 0.05673 -0.017009 0.029554 -0.09257 0.016177 0.031009 -0.141385 -0.131271 0.186623 0.243762 0.077857
-0.010971 -0.034351 -0.011097 0.221807 -0.065566 0.185728 -0.317866 0.040087 -0.118493 -0.075951 0.215787 0.118379 -0.021735 -0.086491 0.189167 0.11601 0.013075 0.086812 -0.178419 -0.127487 -0.117099 0.04729 0.337422 0.076018 0.036677 0.005025 -0.017811 0.0961 0.119238 -0.032263 0.148141 0.02196 0.075808 -0.032933 -0.109935 -0.051085 0.013178 -0.081682 0.022449 0.120279 -0.136102 -0.113393 -0.036229 0.132455 0.177291 -0.30778 -0.015308 0.033919 -0.086703 -0.018164 0.133371 -0.017829 0.077923 0.049357 -0.076693 -0.141062 0.126618 -0.089243 -0.02122 -0.273588 0.016519 -0.093718 0.050353 -0.056041 -0.209225 -0.181204 0.089111 -0.114673 0.095058 -0.079525 0.093298 0.033974 -0.014007 -0.065354 -9.06E-4 0.171558 -0.091632 -0.007464 0.030945 0.236523 -0.048932 -0.015709 0.138642 -0.182845 0.150139 -0.003296 0.221281 0.175936 -0.035635 0.079809 -0.043367 -0.022366 -0.212028 0.068894 0.015529 0.127741 0.108841 0.059899 -0.08061 0.173454
-0.056914 -0.217986 0.089741 -0.202397 -0.111876 3.58E-4 0.103781 -0.078983 -0.099879 0.03409 0.115647 -0.083219 0.256699 0.026267 -0.111952 0.097758 0.004936 0.113418 0.025651 -0.017128 -0.105235 -0.11542 0.271633 0.177784 -0.248305 -0.234808 0.002026 -0.153928 0.140914 -0.155503 0.235502 -0.105196 -0.070666 -0.039014 -0.132116 0.003968 -0.030979 -0.191948 0.123079 0.086435 -0.09775 -0.039066 0.045015 0.073815 -0.033826 -0.005732 -0.035222 -0.192003 -0.080778 0.134891 0.20254 -0.040938 -0.007388 0.037378 -0.093975 -0.057653 0.130649 -0.005688 0.003766 0.071896 0.209541 -0.105452 0.018233 -0.043691 -0.105979 -0.022797 0.053277 -0.036101 0.080818 -0.043414 0.018528 0.04212 -0.047058 -0.165309 -0.022808 0.045116 -0.228238 0.047629 -0.110446 -0.106899 0.031418 0.093544 0.152496 -0.22961 -0.013462 0.057347 -0.079868 0.055385 0.208318 0.035764 -0.17485 -0.098348 0.087533 -0.033752 -0.078916 -0.125425 0.02397 -0.084893 0.164204 -0.189526
0.092769 -0.081049 -0.163177 -0.043278 -0.057635 -0.041707 -0.061083 -0.125327 -0.050842 0.06315 0.212626 0.31831 -0.274402 0.080819 -0.101289 0.139644 0.062989 -0.012516 0.092763 -0.071062 0.022437 -0.064483 0.135018 -0.069137 -0.133471 -0.154079 0.113348 -0.094678 0.093732 0.027708 0.061243 0.084365 -0.109389 -0.002163 -0.141381 -1.2E-4 -0.060004 0.020336 0.064285 -0.0203 0.015434 0.235374 0.080484 -0.110912 0.03027 -0.082714 0.038417 0.049911 -0.220931 0.187206 0.224677 0.096005 0.18735 0.045678 0.087894 -0.145741 0.045204 0.010946 0.090685 -0.107226 3.6E-5 -0.053355 -0.00806 -0.110271 -0.105575 0.008128 -0.085757 -0.013694 0.017478 -0.024191 -0.073232 -0.042174 0.147372 -0.002722 -0.154882 -0.130336 -0.022908 0.073837 -0.047886 0.053399 0.122744 0.091829 0.120464 -0.301266 -0.13731 0.00837 -0.068131 0.283987 0.070855 -0.050588 -0.164443 -0.132179 0.305248 -0.055566 -0.096763 -0.139969 -0.079771 -0.100134 0.085357 0.030879
-0.712057 0.466211 0.063591 0.086174 -1.255988 2.822991 2.076746 0.838774 -0.020671 -1.280441 1.179102 -1.753032 1.376135 0.882455 2.237254 1.983971 0.866371 2.591895 -0.269502 -0.286136 -3.406377 -0.009819 -0.394248 -1.190766 -0.403296 0.709212 0.116725 -0.666605 1.681637 0.990057 1.471824 -0.87375 0.531074 -0.153881 -2.91014 0.753966 -2.665062 -1.117472 -2.337228 -1.729195 -2.683231 -0.651913 0.514991 -2.911624 1.06297 2.151303 -1.372346 0.237424 1.273261 0.514875 -1.367583 3.708289 1.689892 1.139073 0.76024 1.034704 -1.965361 -0.918685 0.228013 2.049749 0.645334 -1.179384 0.972813 0.669267 1.481583 -0.667748 0.57514 -0.714184 -0.381661 -1.775352 -1.511462 0.523812 -2.714397 -1.051762 -2.676722 1.344343 0.740221 1.577323 -1.169534 1.013976 -0.837904 -0.788646 1.780799 1.81327 1.312842 -1.259174 0.378098 2.875814 0.217882 0.80454 -2.934274 -0.415746 1.106138 0.112843 -0.687791 -0.850835 -1.564319 1.301084 -0.965878 2.951018
-0.14548 -0.062599 0.014553 0.093006 0.030147 0.027419 -0.128218 -0.197515 -0.328783 0.215626 0.003545 0.047465 -0.039261 -0.07225 -0.255156 -8.61E-4 0.091833 0.121466 0.169069 -0.025883 0.012194 -0.106618 0.235702 0.008871 0.179123 0.175779 -0.069405 0.105677 0.097522 -0.004056 -0.195227 -0.00928 0.037675 0.094042 -0.037137 0.102196 0.144444 -0.185098 -0.114514 -0.144615 -0.027239 -0.022459 0.094122 0.048809 -0.126976 -0.153899 -0.030759 -0.063389 -0.12168 -0.150572 -0.109318 0.134147 0.141663 0.04638 0.064312 0.048698 0.232769 -0.216839 0.100408 0.006537 -0.243881 0.077976 -0.261746 0.01403 -0.034077 -0.118123 0.208814 0.145253 -0.02412 -0.104831 0.125269 -0.043594 -0.080159 0.127983 -0.315523 -0.121698 -0.014493 -0.182801 -0.200434 -0.039772 0.049074 0.19489 -0.197834 0.136614 0.053125 0.02353 0.091236 -0.002094 0.128043 -0.092548 0.093961 0.185108 0.151333 -0.211877 -0.019125 0.010538 -0.013846 0.092518 -0.025604 -0.047287
-0.061863 -0.079345 0.103598 0.045211 0.061593 -0.077624 -0.067189 -0.012872 -0.201992 0.080875 0.162167 0.028598 0.040467 -0.204114 0.076455 0.152766 -0.027006 0.06825 0.020634 0.071285 -0.081458 0.195743 0.215241 0.245682 -0.24624 -0.117262 0.002516 -0.068687 0.196092 -0.227624 -0.20016 -0.038738 -0.050658 0.178066 -0.29978 -0.118063 -0.115515 0.005599 -0.068775 0.064049 0.037323 -0.034479 -0.065635 -0.0807 -0.098913 -0.101213 -0.097232 -0.031206 -0.130468 0.073487 0.180285 -0.200842 -0.026162 -0.085043 0.201517 -0.021145 -0.038832 -0.036929 0.171265 -0.063117 0.05324 -0.08952 0.003775 -0.089382 -0.132004 0.101306 -0.011311 -0.02325 0.077661 0.076793 -0.113444 0.017192 -0.133459 0.059805 0.244545 -0.126165 -0.089391 -0.100507 -0.001827 -0.07036 0.042199 0.201295 0.006624 -0.23504 0.023052 0.056736 0.027739 -0.188469 0.219602 0.22098 -0.27377 -0.014261 -0.070813 0.062091 -0.006003 -0.033712 0.096357 -0.198023 0.127128 -0.074758
0.111892 0.01378 -0.047297 0.162341 0.067451 0.10902 -0.119088 -0.090107 -0.097076 0.025296 -0.017535 0.107782 -0.00256 0.080795 0.058893 -0.0372 -0.011759 -0.146208 -0.16243 0.06978 0.094832 0.025283 0.105435 -0.05398 0.080288 -0.052925 -0.020773 0.103992 -0.014634 -0.084328 0.101895 0.190913 0.05204 -0.029759 -0.021684 -0.013872 0.2671 -0.019463 0.095875 -0.102192 -0.084271 -0.100327 0.133149 0.029422 -0.027453 -0.081145 -0.103923 -0.075562 0.083272 -0.014515 0.138298 -0.001562 -0.028913 0.076054 0.003076 0.115093 0.034456 -0.034865 0.03911 -0.13262 0.095919 0.001019 0.00623 -0.127794 -0.06241 -0.034712 -0.013499 -0.056035 -0.005595 0.156541 -0.025752 -0.013765 0.05656 0.032367 0.013893 -4.69E-4 -0.055776 -0.100697 -0.098114 0.153965 0.071293 -0.046671 -0.071572 0.024842 0.053576 0.002123 0.018444 0.109556 0.030393 0.121736 0.008703 -0.110794 -0.18146 0.103898 -0.109619 0.044195 -0.104034 0.011503 -0.081351 0.146507
-1.371364 -0.905838 -2.28994 -1.283174 -1.310577 -1.606454 0.910305 1.305647 -4.371454 0.628874 1.806303 0.828653 -2.382652 -0.686732 0.545703 1.326346 0.154753 -3.264551 1.126633 -1.969114 -0.800301 -1.436766 3.728197 -1.038718 -2.327168 -1.817844 -1.522537 3.301526 -0.516965 -1.374094 -0.051603 -1.351815 -0.389973 -0.502437 0.25835 0.846892 1.917309 -2.564942 1.743738 0.299837 -0.077633 -0.203545 -1.348593 -0.075214 -1.608776 -1.418613 -1.239597 1.346437 1.05542 -0.955862 -1.024128 -0.739272 -1.267341 -0.406832 -0.563292 1.91249 -0.495804 -1.8464 -2.951108 -2.501113 -2.256394 0.158864 1.280809 0.511105 1.438967 -1.170372 -0.297717 -2.259045 1.504669 -0.129935 2.657114 -0.654912 -1.802167 1.676283 -1.228934 1.0964 1.563019 0.572077 -0.396552 -2.394884 0.52895 2.143209 0.307586 -0.887167 -1.371926 0.836945 0.408248 -0.956246 -1.326029 0.678732 3.122775 -1.439952 -0.709464 -1.94331 -0.773044 1.524834 1.347463 -1.037819 -0.217821 2.595661
0.532644 -0.860817 1.198677 0.582545 -0.626783 -0.465447 1.939619 0.083003 1.209608 1.599136 0.778628 -0.050643 0.231255 -0.24686 0.588766 0.248936 0.070529 -0.026923 -0.494092 0.494631 -1.361052 -0.898113 -0.035963 0.144204 0.704453 0.640959 0.428196 0.09308 -1.187488 -1.076308 1.064579 -0.47615 -0.103489 -0.163342 0.287603 0.181823 0.1227 -0.029238 -0.689872 -0.326106 0.162304 0.259698 1.009655 -0.475449 -0.292468 0.118884 0.233699 0.044594 0.128143 -0.080104 0.525568 -0.458248 0.030657 0.108918 -0.347045 -0.400477 0.311209 -1.552633 -1.211508 1.144063 -0.653118 0.942275 -0.42759 -1.63529 -0.704128 0.668231 -0.858259 0.330991 0.620672 0.731018 1.268885 0.360439 1.532227 0.560891 -0.769975 -1.301148 0.596858 0.055151 0.671664 -0.028785 -1.350054 -0.400525 0.368296 -0.109937 -1.007344 -0.570231 0.671095 1.235982 -0.930861 -0.2676 -0.255042 0.300814 -0.186746 1.347926 -0.709568 0.180287 0.030195 0.73295 -0.457588 -0.147559
2.639274 0.860779 1.914535 0.075096 -2.067821 0.868151 2.41574 -0.571041 1.339049 -1.281174 -0.433602 0.871327 -1.548308 0.966946 -0.786386 -0.714393 -0.087621 -1.306236 -1.047139 -0.923836 -2.264294 -2.588521 -1.458217 -1.134626 3.310679 -0.54589 2.199729 -1.371259 0.466074 -3.369755 1.958229 3.033066 0.421195 1.634074 1.586538 1.129434 3.1813 -0.503733 0.596682 -1.070617 2.576208 -4.845244 0.269594 -0.305141 -0.001004 0.927763 -1.411168 -0.369687 5.073754 1.296224 2.814874 2.86693 1.155716 1.341413 0.524913 -2.458242 1.601557 1.575213 -1.137998 -0.420681 -0.255038 -1.034292 0.758403 1.042079 -2.456706 0.577587 2.169803 -0.212162 -0.74104 -0.859061 4.336587 1.523722 -1.638986 -0.00237 0.544093 -2.246276 -2.027173 0.113195 -2.980508 2.742148 0.260742 0.054881 -3.011818 -0.787116 2.629465 2.104289 4.309555 2.458298 -0.916654 -0.451662 0.519842 0.217335 -1.218073 1.333352 0.545333 1.80372 -1.063515 1.367284 -4.092412 2.91449
0.135717 -0.065497 0.02281 0.048052 -0.011836 -0.09375 0.0016 -0.035631 -0.026011 -0.016446 0.147576 0.093555 -0.033806 0.001119 0.136647 0.086354 -0.119676 0.293363 0.140583 -0.140273 0.092999 0.105554 0.007309 -0.047042 -0.138044 -0.144529 -0.090671 0.023305 0.042831 -0.089424 -0.009516 -0.050607 -0.11973 0.043476 -0.110033 -0.070775 0.210602 -0.044688 0.047415 0.07877 -0.058849 0.123783 -0.083304 0.146343 -0.016713 -0.014302 -0.083131 -0.029171 -0.052871 0.027786 -0.056479 -0.019677 -0.067362 0.060823 0.051262 -0.094924 0.099503 0.030649 0.106531 -0.086298 0.023543 -0.100214 0.036796 -0.033757 -0.018593 0.054249 -0.041703 -0.048402 0.151764 -0.052203 -0.028287 0.059596 0.03622 0.059919 0.042116 -0.083798 0.077838 -0.039275 -0.10326 -0.058138 -0.047792 -0.041267 0.071076 -0.034964 0.077873 0.115244 -0.016893 -0.059243 0.145701 -0.018047 -0.084552 -0.05323 0.136246 0.034465 0.051731 -0.033088 0.142559 -0.100828 -0.127029 -0.153227
-0.157175 -0.069485 0.110766 0.131713 -0.214241 0.020172 -0.162239 0.023314 -0.035425 0.145808 0.0454 0.091606 0.044515 0.003932 0.011234 0.124517 0.119771 0.207576 0.084175 0.024047 -0.28128 0.080864 0.297987 -0.054802 -0.182629 -0.09237 -0.008642 -0.016931 0.155205 -0.058039 -0.141646 -0.028304 0.038907 -0.050231 -0.421204 -0.103966 -0.021398 -0.048374 -0.181913 -0.112057 0.004753 0.121528 0.043894 0.119848 0.246029 -0.068287 -0.0545 0.077124 -0.060377 -0.047424 0.005207 -0.109575 0.113823 0.068919 0.053698 -0.094411 0.175076 -0.057505 -0.082715 -0.127094 0.101478 -0.25153 -0.009806 -0.168316 -0.116434 0.016646 0.227432 -0.039188 -7.3E-5 -0.107639 0.030187 0.002598 -0.058844 0.112253 -0.050775 -0.251287 -0.158693 0.119676 -0.076024 0.067803 -0.001303 0.02555 0.323918 -0.238118 0.121802 -0.083684 0.177321 0.027459 0.03031 0.090963 -0.188371 -0.107901 -9.65E-4 0.119414 -0.0582 -0.184464 -0.149669 0.018998 -0.037054 0.043528
0.116223 -0.114481 0.100973 0.030231 0.179821 -0.192506 0.04348 -0.009206 0.060852 0.140189 0.226733 -0.004959 0.043311 0.104423 0.007959 0.094292 -0.151781 0.096908 -0.196085 0.006861 0.096389 0.214827 -0.052469 0.071471 -0.115062 -0.019769 0.172594 -0.070708 -0.152732 0.049076 0.068193 0.136727 -0.128071 -0.172429 0.225428 -0.016599 0.070609 0.054711 -0.134167 0.160325 -0.222709 -0.064015 0.03835 -0.129592 -0.07471 0.128557 -0.01101 -0.030772 0.056429 0.257577 0.054149 -0.12721 0.075846 -0.160742 -0.00251 -0.063957 -0.013114 0.14369 -0.023768 0.011799 -0.109025 0.080088 -0.223416 -0.096692 0.155382 0.16376 -0.02479 -0.004907 -0.094847 0.049297 -0.060041 0.006333 0.05368 0.022489 0.039517 -0.110085 -0.260389 0.012583 0.101197 -0.060396 -0.126008 -0.022552 0.293128 -0.044408 0.119762 -0.232664 0.115387 -0.05951 0.037801 0.049206 0.119085 0.212581 -0.024904 0.203118 0.06663 -0.074337 0.034649 0.17496 0.069111 0.110862
