0.0 0.0 0.0 0.0 0.0 0.0 0.0 0.0 0.0 0.0 0.0 0.0 0.0 0.0 0.0 0.0 0.0 0.0 0.0 0.0 0.0 0.0 0.0 0.0 0.0 0.0 0.0 0.0 0.0 0.0 0.0 0.0 0.0 0.0 0.0 0.0 0.0 0.0 0.0 0.0 0.0 0.0 0.0 0.0 0.0 0.0 0.0 0.0 0.0 0.0 0.0 0.0 0.0 0.0 0.0 0.0 0.0 0.0 0.0 0.0 0.0 0.0 0.0 0.0 0.0 0.0 0.0 0.0 0.0 0.0 0.0 0.0 0.0 0.0 0.0 0.0 0.0 0.0 0.0 0.0 0.0 0.0 0.0 0.0 0.0 0.0 0.0 0.0 0.0 0.0 0.0 0.0 0.0 0.0 0.0 0.0 0.0 0.0 0.0 0.0
1.089632 -1.225462 1.3924 -2.334336 -4.914549 -2.002741 5.592828 1.30787 -0.106145 -1.178884 2.939537 -1.036439 2.254587 -1.067435 0.220589 -3.837344 -3.336479 0.215779 -2.161715 5.431429 0.250541 -0.107656 -3.387963 -3.225062 -0.100581 0.822503 -0.801992 2.400753 -4.19317 -5.363085 1.358291 0.778932 0.819827 -3.261039 2.078441 -2.948893 0.002447 -1.790628 -1.819884 1.148803 0.598034 -0.187687 0.390203 -0.105192 1.907627 1.667431 0.193149 0.424368 0.491864 -0.353762 4.616759 2.425463 2.99453 3.822163 -1.402275 -1.88933 3.546197 0.891653 0.999775 -0.63709 4.261774 4.673379 -0.219498 -2.762749 -2.397185 0.191184 1.132842 -2.605166 0.547155 1.265546 1.879576 -1.632382 -0.666593 -1.637866 0.701843 1.698597 2.10698 -1.200772 0.865076 -2.136239 -1.388018 -0.0538 2.141118 -0.696533 -0.022352 -2.403205 2.194125 0.761718 1.165639 -2.833674 -2.125938 3.958899 -2.40581 0.658203 -2.218606 -2.488375 -0.43343 -1.507536 -1.20703 -1.255305
-0.119045 -0.223661 -0.034451 0.126323 0.130112 0.111166 -0.208968 -0.156689 0.024511 -0.036232 -0.035954 0.106329 -0.01149 -0.091571 0.252663 0.14562 -0.080337 0.075786 -0.0717 0.180427 -0.207509 0.131166 0.195085 0.082967 -0.16104 -0.12734 -0.039405 0.004032 0.165731 -0.185477 -0.126275 0.043733 0.108902 -0.010054 5.74E-4 -0.127151 0.016546 0.083687 0.070101 0.229517 -0.203906 0.066929 0.010932 0.018083 0.058128 -0.024782 0.046448 0.013257 -0.192462 -0.072633 0.132763 -0.033729 -0.037145 -0.031019 0.121412 0.181563 0.106265 -0.074325 0.005282 0.129965 0.079372 -0.070154 -0.006446 -0.165089 0.052021 -0.080571 0.001825 0.070396 0.138857 -0.084548 -0.018601 -0.097228 0.013487 0.042422 0.033105 -0.015115 -0.019069 -0.109353 0.100678 -0.154538 0.051528 -0.082462 0.111176 -0.160001 -0.022266 -0.030965 -0.090493 0.034684 0.062967 -0.166263 -0.053464 0.070572 -0.186536 -0.053572 -0.045181 -0.104324 0.117715 -0.049824 -0.006216 -0.085716
-0.113592 0.021734 -0.107796 -0.055351 -0.254265 0.192693 -0.030184 -0.204755 -0.032514 0.111876 -0.069056 0.148943 0.022106 0.088739 -0.244831 0.054588 0.057001 -0.117027 -0.09707 -0.196372 0.046108 0.042787 0.105808 -0.087283 -0.181546 0.031456 -0.306925 -0.052706 0.028012 -0.156616 0.123923 -0.102664 -0.039407 -0.158384 0.032382 0.027736 -0.137251 -0.065033 -0.151039 -0.159096 -0.019389 0.092833 0.082254 0.212047 0.073603 0.018875 -0.01008 -0.040293 0.133672 0.113824 -0.128214 0.137444 0.021716 0.077402 0.033978 -0.009936 0.113947 0.065402 -0.020108 0.037263 0.100731 0.145186 0.110231 -0.145082 -0.027738 -0.002764 0.073832 0.061556 0.159483 0.005298 -0.093692 0.075918 0.096387 0.016326 0.17705 -0.051498 -0.021815 -0.081634 0.07395 0.065289 0.015232 0.069114 0.302198 -0.206156 -0.038991 0.009985 0.007459 -0.126381 0.025956 0.155047 0.010664 -0.107695 -0.057463 -0.109059 0.189162 -0.332972 0.179268 -0.195442 -0.156902 0.018572
0.0 0.0 0.0 0.0 0.0 0.0 0.0 0.0 0.0 0.0 0.0 0.0 0.0 0.0 0.0 0.0 0.0 0.0 0.0 0.0 0.0 0.0 0.0 0.0 0.0 0.0 0.0 0.0 0.0 0.0 0.0 0.0 0.0 0.0 0.0 0.0 0.0 0.0 0.0 0.0 0.0 0.0 0.0 0.0 0.0 0.0 0.0 0.0 0.0 0.0 0.0 0.0 0.0 0.0 0.0 0.0 0.0 0.0 0.0 0.0 0.0 0.0 0.0 0.0 0.0 0.0 0.0 0.0 0.0 0.0 0.0 0.0 0.0 0.0 0.0 0.0 0.0 0.0 0.0 0.0 0.0 0.0 0.0 0.0 0.0 0.0 0.0 0.0 0.0 0.0 0.0 0.0 0.0 0.0 0.0 0.0 0.0 0.0 0.0 0.0
-0.130676 -0.199196 -0.035099 0.032604 -0.042615 -0.023303 0.060237 -0.076584 0.00545 -3.35E-4 0.118055 0.026695 0.105707 -0.087032 -0.074505 0.037002 0.065281 -0.0393 -0.02517 -0.164946 -0.046293 0.003275 0.142592 0.137317 -0.170921 -0.034709 -0.10291 0.048386 0.126692 -0.266657 -0.127747 -0.057535 0.122498 0.074111 0.291178 -0.160118 -0.075608 -0.043598 0.006866 0.015539 -0.137898 -0.115492 0.208727 -0.008284 0.052131 -0.116619 0.023857 0.210145 -0.047289 -0.018462 0.033972 0.011168 -0.074561 -0.257832 -0.0933 -0.024824 -0.097729 0.006717 0.038456 0.006223 -0.011547 0.063837 -0.152379 -0.094751 -0.137922 0.048831 1.73E-4 -0.012646 0.098069 0.060623 -0.129729 0.0301 -0.09719 -0.052737 0.068991 -0.122321 0.078189 -0.077004 0.078852 -0.080564 0.044351 0.069768 0.02003 -0.028151 -0.244601 0.090499 -0.068458 -0.008291 0.107898 -0.035807 -0.070642 0.014903 -0.141891 -0.031287 0.151151 -0.009146 -0.130039 -0.011589 0.097959 0.081507
-0.045034 -0.171359 0.184678 0.097529 -0.021152 -0.063557 0.165518 -0.095463 0.122723 0.005338 0.032194 0.104262 0.002841 0.035373 0.176075 0.074424 -0.237605 0.094492 0.176673 -0.095809 -0.176576 -0.008606 0.199225 0.115573 -0.093062 0.066268 -0.007132 -0.06829 0.05348 -0.030247 0.067004 -0.195815 -0.057617 0.051465 0.06698 -0.241073 0.129252 -0.04287 0.039021 -0.055443 -0.141548 0.125892 -0.024648 0.095763 0.081229 -0.296273 0.118912 0.001528 -0.008892 0.100446 0.029094 -0.107701 -0.094931 -0.031189 -0.237412 0.05769 0.026742 -0.188172 -0.070202 -0.185837 -0.118722 -0.188817 0.016652 -0.233815 -0.252807 -0.12861 -0.078005 0.163661 0.153729 -0.075312 -0.061938 -0.103743 0.009898 0.023548 0.220844 -0.15455 -0.024319 -0.177401 -0.004623 0.086814 -0.116381 0.132928 0.251795 -0.119481 -0.116005 0.073754 0.077959 0.198077 0.130755 0.16859 -0.051399 -0.107858 -0.037692 0.019149 -0.238987 -0.043204 0.282933 0.054821 -0.219089 0.104743
0.086907 -0.131506 0.139674 -0.04117 0.380264 0.056617 0.306648 -0.09318 0.146475 0.130978 0.070514 -0.079385 0.122424 -0.133037 0.193298 -0.019464 0.031829 -0.254492 0.214216 0.236874 -0.07483 -0.109205 -0.075951 0.061352 0.139889 0.19528 -0.114155 0.220009 0.078016 -0.281501 0.187071 -0.002318 -0.014962 0.320968 0.044219 -0.126777 0.019012 -0.096482 0.182838 0.057653 0.183269 0.137193 -0.1396 -0.031069 0.061134 0.020339 -0.122941 -0.025332 -1.02E-4 0.109609 -0.028795 -0.251744 0.01114 -0.031784 -0.184373 -0.038041 -0.159717 0.128919 0.098926 0.068513 -0.153114 0.036273 0.166039 -0.301713 0.082272 -0.089392 -0.17252 0.049843 -0.250541 0.086442 0.220322 0.112848 0.191978 0.013881 0.057074 -0.061004 0.02504 -0.190384 0.1789 -0.17337 -0.196934 -0.129968 0.002266 0.048077 0.072385 -0.004377 0.303968 0.049065 -0.025255 0.014256 -0.059107 0.075701 -0.114667 0.046928 -0.236022 -0.023217 -0.117127 -0.155955 0.009279 0.043627
0.352905 0.550922 -1.128945 -0.511125 0.774489 1.405335 -0.371647 0.106012 -0.779785 -0.640302 -0.68578 1.570717 -0.712288 -0.706705 -0.789609 -0.045278 -1.599722 -2.840112 -0.089543 -1.158838 -1.862605 -0.62748 -0.063542 -0.468696 0.750564 0.033551 -0.772222 -0.188991 -0.163115 0.455978 0.038455 -0.779588 0.172303 -1.114448 -0.548246 -0.008155 1.66721 -0.744821 -0.15746 -2.668482 -0.304702 -0.905716 0.479063 0.151803 -0.94063 -0.044338 -0.906122 -0.456182 0.281891 0.268287 0.47007 0.628019 0.328428 1.471286 -2.345457 0.072073 -0.345477 -0.998199 -1.496897 -0.053061 0.351206 -0.934426 0.295591 0.07336 0.24092 0.486976 0.390085 -0.621556 0.375246 -0.02625 1.957847 1.014101 0.004675 0.08874 -0.900479 -0.462149 0.922254 1.355385 -1.048724 0.105897 1.254466 0.410718 0.321258 1.066395 -0.171761 -0.128774 0.315556 0.697301 -0.180925 0.555334 1.005586 -0.891677 -1.232923 -1.994189 -0.567812 0.204184 -0.947385 -0.051526 -0.987029 0.725141
-0.01875 -0.285329 -0.002424 0.108049 -0.121485 0.011509 -0.309429 0.071278 0.030139 -0.09504 0.026686 -0.113073 0.095932 -0.179022 0.042966 0.129678 0.08961 0.196302 0.063608 0.023636 0.017566 0.282635 0.203737 -0.001727 -0.166336 0.016611 0.066798 0.070245 -0.044842 -0.010532 0.02894 0.068283 0.222737 -0.011348 -0.061199 -0.009894 -0.096135 0.074612 0.011411 0.061689 -0.114957 0.107116 0.054659 -0.135911 0.206663 -0.107839 -0.106604 0.14633 0.055843 0.071442 0.032643 -0.128132 0.097352 -0.140302 -0.003045 -0.183681 0.160041 -0.078107 0.0398 -0.116372 -0.065673 -0.00229 -0.127849 0.022587 0.141333 -0.050803 0.054219 -0.019527 0.040823 -0.187221 -0.087694 0.011191 -0.043953 -0.204306 0.081344 -0.016947 -0.105763 -0.100188 -0.004993 0.025402 0.12403 0.063183 0.003483 0.031502 -0.006452 0.015156 -0.143862 -0.149512 -0.053303 0.05853 -0.072347 -0.161299 0.009473 0.162584 0.023232 0.039946 -0.041596 -0.076351 -0.12545 -0.034996
0.004703 -0.062273 -0.025679 -0.101104 0.155037 -0.05007 -0.040433 -0.064963 -0.002024 0.043163 0.013145 0.20033 -0.040543 -0.019415 0.083808 0.151193 -0.053072 0.113034 0.052904 -0.11358 -0.096405 -0.062211 0.150597 0.212678 -0.043778 -0.017879 0.035163 0.009755 0.078208 -0.15732 0.047419 -0.046215 -0.08901 0.080005 -0.015931 -0.062026 -0.051508 0.049401 0.133039 0.079958 -0.133947 0.171195 0.126626 0.150075 0.048526 -0.063997 -0.120738 -0.079094 -0.147763 0.115538 0.107812 -0.094327 0.001089 0.077713 0.07065 -0.015121 0.023336 -0.056458 0.110967 0.032638 -0.003168 -0.170242 0.132499 0.019334 -0.054456 0.071198 -0.05854 0.123735 0.085028 -0.252915 -0.016834 -0.052474 0.019276 0.044861 0.052236 0.119567 -0.082146 -0.10515 0.04785 -0.056638 0.020079 0.054878 0.026394 -0.056494 0.015258 0.033388 -0.001474 0.052699 0.119387 0.095269 -0.008829 0.131707 0.050361 0.099774 -0.039855 0.010908 0.057211 0.102341 0.014816 -0.116547
0.018336 -0.137163 -0.029627 0.128172 -0.045956 -0.023802 -0.108621 -0.04369 -0.16751 0.133 0.175361 0.163902 0.007596 -0.041028 -0.062108 0.239324 0.06215 -0.005503 0.052969 0.086646 -0.045702 0.073246 0.075648 0.007983 -0.042623 -0.183391 -0.034467 0.016647 0.007929 -0.167663 -0.132052 -0.131696 -0.281045 0.090862 -0.169253 -0.151134 0.081827 -0.19741 -0.082489 -0.027545 -0.162824 -0.116384 -0.079359 0.027846 0.196157 -0.124446 0.027944 0.068258 -0.164819 -0.067346 -0.032165 -0.128372 -0.016769 -0.101562 0.129065 0.031056 0.016591 0.027301 0.066687 0.002282 0.079472 -0.056693 0.111025 -0.111667 -0.041353 0.027727 -0.062785 -0.024992 0.015069 0.074928 -0.087496 -1.75E-4 -0.16281 -0.073809 0.042645 -0.091865 0.051474 -0.007921 0.028972 0.065995 0.057448 0.146347 0.084188 -0.027034 0.101409 0.0779 0.129895 0.102215 0.230054 -0.052916 -0.025521 -0.012097 -0.004752 0.010025 0.062464 0.101908 0.132857 -0.076193 0.102684 0.00554
0.120805 0.079159 -0.073163 0.020733 0.269675 -0.092892 -0.001189 0.061516 -0.03919 -0.027303 0.113143 0.134202 0.085427 -0.194601 -0.03586 0.116035 -0.153693 -0.11985 0.223803 -0.158899 0.116104 -0.479343 0.037877 0.036774 -0.09675 0.057029 -0.050119 0.089439 -0.172318 0.201105 0.251777 -0.013015 -0.132726 0.097475 -0.102595 -0.260651 -0.046788 -0.145693 0.068205 0.126203 0.054267 0.045803 -0.031139 0.163801 -0.097542 0.19522 -0.190557 -0.015428 -0.012881 0.013319 -0.042306 -0.17474 0.126248 0.092303 -0.081649 -0.112915 -0.096712 0.297319 -0.104655 0.179162 -0.07488 -0.107111 -0.125969 -0.039396 0.010967 0.123657 0.07491 0.028845 0.023327 0.038443 -0.171425 0.012342 -2.73E-4 0.018867 0.10363 -0.110462 -0.147732 -0.024942 -0.158016 -0.165641 -0.162128 -0.030205 -0.012995 0.35882 -0.049209 0.238946 0.069457 -0.011479 -0.016259 0.025813 0.168615 -0.098154 0.19023 0.011782 -0.009221 0.182998 -0.020101 0.114435 0.049802 -0.129776
2.87464 -0.701464 -1.945087 0.798465 -1.901464 1.233586 0.415548 0.910772 -0.151839 1.954772 -2.264912 0.994107 0.647736 1.938717 -1.183067 0.135941 1.050214 0.11356 0.379275 1.268901 0.645368 0.378905 1.320608 -1.295395 0.750989 0.976305 1.28864 -0.982362 -1.931958 -1.239804 1.587084 0.099185 -0.294902 0.436027 0.579342 -1.183696 2.604155 -3.317551 -3.743154 -0.710407 -1.556585 -0.511151 -0.532478 0.756932 1.957984 -0.225002 -2.678844 0.397858 3.112323 3.965641 -0.165851 0.658701 -0.352562 2.544936 -1.39593 -0.599487 1.586211 -0.84923 -1.311629 -0.481193 1.327159 -0.223012 1.456903 -1.794692 0.410009 1.426936 2.365917 0.247322 -1.171522 1.262023 0.9894 3.527386 0.238687 -0.61635 1.079046 0.388121 -2.076334 0.369052 0.602814 0.861609 -0.099859 -1.472652 -1.350623 2.55205 2.553534 -0.407998 0.322457 1.532821 -1.233828 -0.554601 -1.412275 -1.700174 0.034869 0.921896 0.269059 1.176658 0.871542 0.570573 0.448573 0.170237
0.037849 -0.100233 -0.107105 -0.027225 0.067278 0.147612 -0.106445 -0.105371 0.03895 -0.062845 0.251584 0.021429 0.144628 -0.083176 0.077918 0.139193 -0.086762 0.120255 -0.106267 0.122236 -0.250973 0.02653 0.044437 0.075115 -0.051721 0.062606 0.004644 -0.113328 0.028015 -0.068722 0.038509 -0.11277 -0.132428 0.061694 -0.038156 0.037153 0.194308 0.051645 0.074192 0.138674 -0.196978 0.013696 -0.101702 -0.001271 -0.172855 0.13447 0.059783 -0.134858 -0.059124 -0.080523 0.229458 -0.136155 -0.016287 0.03094 0.091073 -0.270268 0.015884 -0.00906 -0.067817 -0.132534 -0.160197 -0.103635 0.136331 0.047325 -0.026598 -0.118753 -0.158951 -0.03681 -0.002021 -0.275294 -0.105902 -0.22101 0.141152 -0.097914 0.13933 -0.002364 0.258101 0.097075 0.021563 0.021884 0.073072 -0.150325 0.219491 -0.186588 -0.144713 0.046572 0.082974 0.136275 0.034412 0.041427 -0.134298 0.004313 0.012029 0.132371 -0.291006 0.002028 -0.030638 0.052588 0.047763 -0.195426
-0.120807 0.018497 0.031062 0.083342 0.181877 0.167932 -0.169831 -0.144749 -0.132034 0.128717 0.058668 0.23677 0.185677 -3.23E-4 0.027428 0.355127 -0.109699 -0.079585 -0.033777 -0.06121 -0.135239 -0.055875 0.305945 -0.059854 0.038959 0.074703 -0.225178 0.151952 0.099185 -0.075696 0.044791 -0.067924 -0.106849 -0.074079 -0.208531 -0.18793 -0.103189 0.012428 0.157148 0.077723 0.012027 0.094189 -0.066315 0.003122 -0.203014 -0.07061 -0.095466 -0.116574 -0.051939 0.102932 0.124676 0.072361 -0.00312 0.031077 0.080539 0.007857 -0.05697 -0.047222 0.365916 -0.121324 -0.103479 0.013708 0.135226 -0.265094 -0.084791 0.120143 0.132667 -0.021185 0.028615 0.034701 0.098117 0.038167 -0.142457 -0.066284 0.167602 0.025711 -0.115535 -0.070461 0.039881 -0.021818 -0.017518 0.158737 0.109103 -0.047396 -0.103088 -0.042425 -0.154013 0.098576 0.13236 0.012345 -0.007379 0.12561 -0.151509 7.12E-4 -0.126204 -0.189496 0.019982 0.035686 0.029232 -0.100802
-2.097085 1.828952 0.646181 -1.13726 -3.723797 1.253607 -1.830721 0.365449 1.812513 1.789102 -1.393131 1.698592 -0.732674 -0.949975 0.584497 0.042143 -0.548691 1.915099 -0.377084 -0.983923 -0.230301 2.463192 -0.518472 0.605223 -2.361422 -0.305374 1.939563 0.176254 1.928982 0.636216 1.322607 0.730396 2.057222 0.492839 -1.504775 -1.0395 2.422898 -1.345842 0.816005 -0.551835 -2.098887 -0.342149 0.184036 -1.889673 -1.541516 -0.123656 -0.943585 -1.518647 -0.627181 -1.064818 -0.223253 0.953726 -0.907294 1.846917 1.790967 0.830055 2.565886 0.221449 0.813202 -1.493282 0.545642 -1.717018 2.311206 3.41287 2.366917 -2.143333 -0.618335 -0.970187 0.315424 -0.164923 -1.06487 -0.62345 -0.390292 -3.782697 -0.009355 2.601218 -1.371176 -0.745262 1.609328 0.771596 0.242953 -0.876278 1.722446 -0.974729 -0.837833 -1.096816 -1.077593 1.21953 -0.198256 -0.249426 -0.086555 -0.727973 -0.132106 -1.424655 -1.45351 0.983698 1.561918 -1.020651 0.604033 1.491575
-0.232467 0.156485 -0.027489 0.038278 -0.690644 -0.065165 0.283855 0.005988 0.118225 0.63554 0.016573 0.080553 0.212954 0.197451 -0.166964 -0.129347 -0.005827 -0.119898 0.098601 0.490881 -0.152312 0.046293 0.068428 0.248164 -0.02463 0.079279 0.101871 0.035966 0.352076 -0.323239 0.240311 0.239739 0.110202 0.204666 -0.509267 -0.127903 -0.014537 -0.122873 0.335886 -0.022916 -0.077198 0.625682 -0.164353 -0.394189 -0.131425 0.08715 0.25584 -0.097259 -0.104466 0.186749 0.261794 -0.061071 0.077764 0.299651 0.39122 -0.058092 0.256535 -0.202922 0.152115 0.077792 0.108211 -0.328931 -0.107033 -0.045859 0.108598 -0.119806 -0.109942 -0.07469 0.042117 0.17595 -0.147856 -0.191247 0.081914 -0.460432 -0.007987 0.086507 -0.252579 -0.061791 -0.033936 -0.204078 0.129834 0.474805 0.728332 -0.241278 -0.122138 -0.318745 -0.270123 -0.024896 0.285484 0.086968 -0.00124 -0.202588 0.094783 0.111549 0.133915 -0.434883 0.361899 -0.310477 0.063564 -0.238375
1.089632 -1.225462 1.3924 -2.334336 -4.914549 -2.002741 5.592828 1.30787 -0.106145 -1.178884 2.939537 -1.036439 2.254587 -1.067435 0.220589 -3.837344 -3.336479 0.215779 -2.161715 5.431429 0.250541 -0.107656 -3.387963 -3.225062 -0.100581 0.822503 -0.801992 2.400753 -4.19317 -5.363085 1.358291 0.778932 0.819827 -3.261039 2.078441 -2.948893 0.002447 -1.790628 -1.819884 1.148803 0.598034 -0.187687 0.390203 -0.105192 1.907627 1.667431 0.193149 0.424368 0.491864 -0.353762 4.616759 2.425463 2.99453 3.822163 -1.402275 -1.88933 3.546197 0.891653 0.999775 -0.63709 4.261774 4.673379 -0.219498 -2.762749 -2.397185 0.191184 1.132842 -2.605166 0.547155 1.265546 1.879576 -1.632382 -0.666593 -1.637866 0.701843 1.698597 2.10698 -1.200772 0.865076 -2.136239 -1.388018 -0.0538 2.141118 -0.696533 -0.022352 -2.403205 2.194125 0.761718 1.165639 -2.833674 -2.125938 3.958899 -2.40581 0.658203 -2.218606 -2.488375 -0.43343 -1.507536 -1.20703 -1.255305
-0.026987 0.079472 0.150477 -0.123635 -0.196096 -0.155594 0.060737 0.001125 -0.051483 0.044561 -0.013286 -0.215892 0.058768 0.083777 -0.0149 -0.119245 -0.042341 0.275117 -0.004122 -0.04899 0.001295 0.024345 0.031647 0.07302 0.008738 0.092481 -0.185917 -0.072882 0.018681 -0.093554 -0.177112 -0.110245 -0.057236 0.120266 -0.016769 -0.105921 -0.21509 0.061323 0.128403 0.067796 -0.040793 0.085168 -0.019531 -0.102989 -0.047756 0.089433 0.034831 -0.024744 -0.254327 0.071778 0.135133 -0.195671 -0.007059 -0.094605 0.053831 0.040048 -0.195654 -0.141432 0.130793 -0.030897 0.173553 0.152595 -0.052375 -0.213755 0.008154 0.065962 -0.057427 0.006706 -0.064934 0.021837 0.045207 0.098062 8.19E-4 -0.058686 0.157582 -0.136331 -0.001817 -0.138411 0.049074 -0.254846 -0.140942 0.24651 0.004983 0.063565 -0.105728 -0.064462 -0.100351 -0.027947 0.090736 -0.082556 -0.167846 0.12307 -0.031225 0.252032 0.014416 -0.105694 0.143173 -0.052909 0.009959 0.111314
1.519526 1.445578 -1.609499 2.582747 2.460795 3.529971 0.431498 -0.524736 0.238502 0.565084 -2.150664 2.607871 -3.578636 0.22885 1.205379 0.400126 -2.365878 -2.228676 -0.500047 -1.958516 -2.734259 -2.028213 -0.339577 -2.726884 0.003785 -1.85554 -0.90189 1.042933 0.930181 0.561229 0.956561 0.220468 -1.219533 -0.188243 -0.649085 -0.117874 2.101841 -0.317004 1.300647 -1.49228 0.533457 -2.976113 -0.635474 -1.431524 -0.943268 0.543614 -2.072507 -1.004219 4.072807 -1.496014 2.612373 2.458477 -0.120651 0.418572 -2.53177 0.646754 2.04053 2.0667 -2.403623 -3.037353 -1.289071 1.269349 0.447478 0.512568 0.464348 -0.142416 -1.155552 0.32258 -0.986119 3.909852 3.839548 0.865499 -1.089316 -1.400134 0.517204 -3.398406 -0.576028 -0.612853 -0.573641 -1.979957 1.278503 1.159562 0.583915 -0.210028 0.851463 1.075476 2.276915 0.114312 2.2836 1.968815 1.899569 0.001135 -2.286771 -2.666814 -1.408445 1.975128 -0.085175 1.44887 -1.994305 2.796178
2.082039 0.336366 -0.935759 1.511715 -3.560424 -1.928395 -0.911915 -1.085328 -1.256373 0.828435 -1.449189 0.830347 3.442916 1.790874 -0.795908 0.249226 -1.530745 -0.635556 -1.441355 0.696001 -1.140813 2.05411 0.814944 0.836391 -1.047091 -0.889873 3.043443 -1.069069 -0.899694 0.721261 2.050779 -3.380024 0.1115 -1.253804 -2.627244 -0.738129 -1.483601 -2.160747 -3.339145 -0.071523 -1.30318 -1.329457 1.06052 0.453372 1.154068 0.100435 -2.694531 1.675936 0.774536 -0.092699 -0.812041 -0.280022 0.540321 -1.072 0.076079 2.162178 -1.843101 -3.528751 -0.2769 -0.121911 -2.462143 -1.574445 0.452342 -0.434565 0.591436 -2.196673 1.253671 -3.489306 0.254867 0.607124 4.850824 -2.454176 -1.448066 3.273839 1.188581 0.926558 2.282821 1.441728 1.200107 2.581533 1.824633 0.458611 -2.129844 0.248367 1.412666 0.895334 -0.173264 1.487316 -0.204748 2.015196 0.763463 1.086268 -4.820467 0.906443 -0.025663 1.331479 -0.281809 1.843237 -1.288186 0.45067
-0.134526 -0.126538 0.057262 0.054104 -0.198303 0.113411 -0.137567 -0.030855 -0.202571 0.256428 0.080528 0.151268 0.037782 2.9E-4 0.006527 0.342893 0.122472 0.136534 0.059851 0.169453 -0.197261 0.138052 0.144229 -0.009992 0.005875 -0.03048 -0.184923 -0.039721 0.26545 -0.279849 0.049031 -0.007935 -0.329573 0.005948 -0.337315 -0.015182 0.134071 -0.170318 0.002722 0.135194 -0.126943 0.111977 -0.080735 -0.126719 0.140135 -0.113153 -0.244083 0.057408 -0.176095 0.101106 -0.001943 -0.27393 0.008458 -0.01033 0.047556 -0.074919 0.189162 -0.156681 0.139442 -0.07898 0.065457 -0.116752 -0.105694 -0.199821 0.042658 -0.157013 0.075051 0.032388 0.190557 -0.109381 -0.035766 0.032865 0.051765 0.057016 0.050798 0.003351 -0.124699 0.03559 -0.039756 0.062156 -0.226327 0.327783 -0.01406 -0.167738 0.079277 0.171175 0.085667 -0.018549 0.151315 0.193594 -0.099691 0.013165 0.051784 0.085283 -0.118145 -0.121439 0.155424 -0.052657 0.048855 -0.190744
-0.028706 0.033732 -0.114421 -0.07457 0.127383 -0.072256 0.225561 0.060203 0.083158 -0.055015 -0.008016 -0.013805 -0.051516 0.044168 0.111501 0.025036 -0.238953 0.036993 0.171614 -0.137027 -0.117078 -0.077618 -0.049104 -0.008848 0.057426 -0.057326 0.059874 0.011163 0.064202 0.02249 0.115982 -0.050116 -0.037287 0.022451 0.317696 0.035591 0.023828 -0.193618 -0.051534 -0.084514 -0.011266 -0.085479 -0.049087 0.026278 0.053149 0.155973 -0.017962 0.090405 0.046952 -0.046551 0.079632 -0.054336 -0.079931 -0.02083 -0.19082 0.195755 -0.172548 -0.076107 -0.039663 -0.041625 -9.09E-4 -0.037134 -0.03562 -0.121145 -1.21E-4 -0.01738 0.076054 0.018905 0.018724 -0.037724 0.134652 -0.041302 0.140077 -0.048912 -0.024278 0.051511 -0.020874 0.112695 -0.215306 0.087446 0.074303 -0.127096 0.103432 -0.089674 -0.052799 0.058982 -0.081369 0.292689 -0.046317 0.05673 -0.017009 0.029554 -0.09257 0.016177 0.031009 -0.141385 -0.131271 0.186623 0.243762 0.077857
0.268714 0.063012 0.149776 -0.332172 -0.055641 -0.048024 0.178861 0.063317 -0.13181 0.067845 -0.090768 -0.065424 -0.022944 -0.089796 -0.028602 0.068729 0.015082 -0.224925 0.013851 -0.062391 -0.037836 -0.026923 -0.014069 -0.116236 0.013326 -0.085578 0.240798 0.249541 0.319862 -0.117498 -0.046107 -0.274466 0.155201 0.168184 0.135384 0.020071 -0.027548 0.126485 -0.162616 -0.256581 0.136857 -0.019526 0.088341 0.006999 -0.029963 0.031836 -0.034983 0.065293 0.106058 0.045225 0.259746 -0.17401 0.105542 -0.126647 -0.088847 -0.036504 -0.136969 -0.042197 -0.117257 0.13414 -0.13433 -0.036844 0.088525 -0.15335 -0.053576 0.03066 -0.025205 0.074765 0.145546 0.193628 0.077354 -0.166112 0.318034 -0.074772 0.167091 -0.072024 0.013728 -0.115705 0.240723 -0.07732 0.253528 0.066393 -0.03766 -0.018828 -0.017086 0.203722 0.204833 -0.040904 0.167457 0.152485 -0.086309 -0.212084 -0.112728 -0.248639 -0.045435 0.3498 2.2E-4 0.043191 -0.056937 -0.043359
-0.176803 -0.089627 0.081039 -0.010231 0.073297 -0.052973 -0.149716 0.013179 -0.02666 0.031833 -0.032669 0.02877 -0.057468 -0.05867 0.136312 0.013712 0.009557 -0.056668 -0.048016 0.062781 -0.067712 0.086391 0.090953 0.067611 -0.115329 -0.043725 -0.006618 0.147012 0.151577 -0.131064 0.001796 -0.101283 0.112699 0.046429 -0.011536 -0.009628 0.045665 -0.142356 0.103218 -0.03413 -0.206872 -0.10603 -0.251098 0.081128 0.088506 0.041975 -0.199377 -0.096467 -0.004632 -0.035162 0.122028 -0.08882 -0.011378 -0.148385 0.133486 0.120423 -0.055374 0.123165 0.030176 -0.175572 0.092321 -0.03572 -0.044897 -0.221843 0.01887 -0.04874 -0.048093 0.045394 -0.013758 -0.036734 -0.089425 -0.074869 -0.037387 0.003764 0.035655 -0.087188 0.016438 -0.08772 -0.109149 -0.252419 0.01939 -0.028784 0.267306 0.039749 0.16349 0.041344 0.106131 0.052394 0.150029 0.075017 -0.035052 0.039587 -0.106769 0.059972 -0.015365 -0.014134 -0.088367 0.010494 0.068234 -0.094448
0.0 0.0 0.0 0.0 0.0 0.0 0.0 0.0 0.0 0.0 0.0 0.0 0.0 0.0 0.0 0.0 0.0 0.0 0.0 0.0 0.0 0.0 0.0 0.0 0.0 0.0 0.0 0.0 0.0 0.0 0.0 0.0 0.0 0.0 0.0 0.0 0.0 0.0 0.0 0.0 0.0 0.0 0.0 0.0 0.0 0.0 0.0 0.0 0.0 0.0 0.0 0.0 0.0 0.0 0.0 0.0 0.0 0.0 0.0 0.0 0.0 0.0 0.0 0.0 0.0 0.0 0.0 0.0 0.0 0.0 0.0 0.0 0.0 0.0 0.0 0.0 0.0 0.0 0.0 0.0 0.0 0.0 0.0 0.0 0.0 0.0 0.0 0.0 0.0 0.0 0.0 0.0 0.0 0.0 0.0 0.0 0.0 0.0 0.0 0.0
0.253567 -0.016185 0.088233 0.018374 -0.027776 -0.15079 0.139624 -0.038316 -0.061701 -0.127654 -0.049635 0.135328 0.041344 -0.165002 -0.104123 0.127664 -0.14035 0.016468 -0.004034 0.039589 0.046476 -0.061242 -0.022484 -0.028198 -0.002564 0.071761 -0.16233 -0.022096 0.057716 -0.039096 0.019139 0.009592 0.061842 0.068221 0.096623 0.107233 -0.073874 0.08323 -0.102125 -0.038145 0.099119 0.099957 -0.058435 -0.043396 0.007145 -0.038618 0.06539 0.053364 -0.095923 -0.035366 0.139217 -0.012202 0.219123 -0.074375 -0.049679 0.004657 -0.007137 -0.175804 -0.066251 0.032424 0.051321 -0.063374 -0.03209 -0.277042 0.113012 0.0338 -0.128401 -0.122026 -0.121414 -0.015954 -0.138822 0.068473 0.00368 0.053678 0.0195 0.033308 -0.014164 -0.068329 0.081975 -0.22155 -0.209108 -0.146493 -0.010761 0.008288 -0.04626 -0.073981 0.113714 -0.159294 0.043037 0.184523 0.008239 -0.162094 0.051128 -0.010951 -0.146361 0.029435 0.037215 0.180498 -0.005658 -0.058351
0.352905 0.550922 -1.128945 -0.511125 0.774489 1.405335 -0.371647 0.106012 -0.779785 -0.640302 -0.68578 1.570717 -0.712288 -0.706705 -0.789609 -0.045278 -1.599722 -2.840112 -0.089543 -1.158838 -1.862605 -0.62748 -0.063542 -0.468696 0.750564 0.033551 -0.772222 -0.188991 -0.163115 0.455978 0.038455 -0.779588 0.172303 -1.114448 -0.548246 -0.008155 1.66721 -0.744821 -0.15746 -2.668482 -0.304702 -0.905716 0.479063 0.151803 -0.94063 -0.044338 -0.906122 -0.456182 0.281891 0.268287 0.47007 0.628019 0.328428 1.471286 -2.345457 0.072073 -0.345477 -0.998199 -1.496897 -0.053061 0.351206 -0.934426 0.295591 0.07336 0.24092 0.486976 0.390085 -0.621556 0.375246 -0.02625 1.957847 1.014101 0.004675 0.08874 -0.900479 -0.462149 0.922254 1.355385 -1.048724 0.105897 1.254466 0.410718 0.321258 1.066395 -0.171761 -0.128774 0.315556 0.697301 -0.180925 0.555334 1.005586 -0.891677 -1.232923 -1.994189 -0.567812 0.204184 -0.947385 -0.051526 -0.987029 0.725141
0.0 0.0 0.0 0.0 0.0 0.0 0.0 0.0 0.0 0.0 0.0 0.0 0.0 0.0 0.0 0.0 0.0 0.0 0.0 0.0 0.0 0.0 0.0 0.0 0.0 0.0 0.0 0.0 0.0 0.0 0.0 0.0 0.0 0.0 0.0 0.0 0.0 0.0 0.0 0.0 0.0 0.0 0.0 0.0 0.0 0.0 0.0 0.0 0.0 0.0 0.0 0.0 0.0 0.0 0.0 0.0 0.0 0.0 0.0 0.0 0.0 0.0 0.0 0.0 0.0 0.0 0.0 0.0 0.0 0.0 0.0 0.0 0.0 0.0 0.0 0.0 0.0 0.0 0.0 0.0 0.0 0.0 0.0 0.0 0.0 0.0 0.0 0.0 0.0 0.0 0.0 0.0 0.0 0.0 0.0 0.0 0.0 0.0 0.0 0.0
0.123314 0.024232 0.067758 -0.019176 0.04035 0.102721 0.022867 0.004876 -0.130388 -0.025998 -0.111174 -0.099004 0.08676 0.050864 -0.09914 -0.024014 -0.171609 -0.023554 -0.121212 -0.180475 0.179989 0.036153 -0.154862 -0.046345 0.094379 -0.14447 -0.041587 -0.048431 -0.136792 0.120946 0.186365 -0.07131 -0.07154 -0.104935 0.223496 -0.046738 -0.060067 -0.130754 -0.062099 -0.018454 0.144663 0.005022 0.142013 0.055336 -0.079464 0.134955 -0.01171 0.012333 -0.042385 0.102204 0.067493 0.045559 0.08181 -0.037308 -0.105499 0.04795 0.127704 0.287375 0.072091 0.04644 0.063593 0.228401 -0.07889 -0.03959 0.122115 0.054482 0.084107 0.013265 0.011559 -0.014696 0.109437 0.025601 -0.204002 0.310683 0.003437 0.019704 0.139319 0.086808 -0.081497 -0.018019 -0.014725 -0.169411 -0.017058 0.108817 -0.009525 -0.201578 -0.092985 0.072472 0.005488 0.045185 0.12776 0.042456 -0.19091 0.059921 -0.111423 0.013748 -0.096482 0.111096 0.034894 -0.026429
2.87464 -0.701464 -1.945087 0.798465 -1.901464 1.233586 0.415548 0.910772 -0.151839 1.954772 -2.264912 0.994107 0.647736 1.938717 -1.183067 0.135941 1.050214 0.11356 0.379275 1.268901 0.645368 0.378905 1.320608 -1.295395 0.750989 0.976305 1.28864 -0.982362 -1.931958 -1.239804 1.587084 0.099185 -0.294902 0.436027 0.579342 -1.183696 2.604155 -3.317551 -3.743154 -0.710407 -1.556585 -0.511151 -0.532478 0.756932 1.957984 -0.225002 -2.678844 0.397858 3.112323 3.965641 -0.165851 0.658701 -0.352562 2.544936 -1.39593 -0.599487 1.586211 -0.84923 -1.311629 -0.481193 1.327159 -0.223012 1.456903 -1.794692 0.410009 1.426936 2.365917 0.247322 -1.171522 1.262023 0.9894 3.527386 0.238687 -0.61635 1.079046 0.388121 -2.076334 0.369052 0.602814 0.861609 -0.099859 -1.472652 -1.350623 2.55205 2.553534 -0.407998 0.322457 1.532821 -1.233828 -0.554601 -1.412275 -1.700174 0.034869 0.921896 0.269059 1.176658 0.871542 0.570573 0.448573 0.170237
-0.120807 0.018497 0.031062 0.083342 0.181877 0.167932 -0.169831 -0.144749 -0.132034 0.128717 0.058668 0.23677 0.185677 -3.23E-4 0.027428 0.355127 -0.109699 -0.079585 -0.033777 -0.06121 -0.135239 -0.055875 0.305945 -0.059854 0.038959 0.074703 -0.225178 0.151952 0.099185 -0.075696 0.044791 -0.067924 -0.106849 -0.074079 -0.208531 -0.18793 -0.103189 0.012428 0.157148 0.077723 0.012027 0.094189 -0.066315 0.003122 -0.203014 -0.07061 -0.095466 -0.116574 -0.051939 0.102932 0.124676 0.072361 -0.00312 0.031077 0.080539 0.007857 -0.05697 -0.047222 0.365916 -0.121324 -0.103479 0.013708 0.135226 -0.265094 -0.084791 0.120143 0.132667 -0.021185 0.028615 0.034701 0.098117 0.038167 -0.142457 -0.066284 0.167602 0.025711 -0.115535 -0.070461 0.039881 -0.021818 -0.017518 0.158737 0.109103 -0.047396 -0.103088 -0.042425 -0.154013 0.098576 0.13236 0.012345 -0.007379 0.12561 -0.151509 7.12E-4 -0.126204 -0.189496 0.019982 0.035686 0.029232 -0.100802
-0.026799 -0.103797 0.112651 -0.259641 -0.103915 0.088316 -0.053088 -0.022809 0.009437 -0.09753 0.060073 0.126938 -0.120166 -0.201027 -0.031192 0.114149 -0.054812 0.193163 0.102408 0.014485 -0.142804 0.004168 0.106051 0.11444 -0.218755 -0.190187 0.08501 -0.064668 -0.128386 0.029669 -0.065954 0.042625 -0.391147 -0.09788 -0.127327 0.028785 0.023364 -0.057131 -0.029977 -0.052351 -0.109947 0.189529 -0.137615 0.126845 -0.031891 -0.070696 -0.021912 0.047885 0.00687 0.096735 0.088226 -0.067865 -0.012925 0.020968 -0.00858 0.059358 0.11823 -0.176081 -0.213955 -0.175354 0.240854 -0.072666 0.023853 -0.029982 0.089821 0.130766 0.016941 0.178835 -0.00797 -0.080021 -0.044534 0.049337 -0.037857 -0.1511 0.060476 -0.006618 0.145705 0.04376 -0.128786 -0.038244 0.01883 -0.008851 0.060935 -0.194196 0.098924 0.049666 0.05715 0.08558 0.098442 0.050731 -0.160965 -0.078077 -0.002686 -0.001068 -0.122167 -0.028315 -0.037337 -0.071233 -0.050617 -0.095917
0.009227 -0.172944 -0.110714 -0.122991 -0.079308 -0.003994 0.087829 -0.009287 0.071133 0.074024 0.052632 -0.031198 0.189331 0.182894 0.127031 0.120079 0.060036 -0.11758 -0.237249 0.119037 0.071619 -0.187774 -0.109013 -0.310178 0.180406 -0.030039 -0.037164 0.008089 -0.230848 -0.066024 0.048788 -0.25212 0.115317 0.21656 0.191906 0.216025 -0.090478 -0.153466 0.279973 0.013814 0.010501 0.10408 -0.045189 -0.087049 0.20429 0.056843 -0.06418 0.087114 0.02615 0.005961 0.223878 -0.141851 -0.049618 0.022914 -0.049342 0.008602 0.006458 0.085943 -0.016615 0.067407 0.005867 0.210092 0.121864 -0.091883 0.029728 0.111292 0.093481 -0.125033 0.235134 0.093804 0.053473 -0.053123 -0.27295 -0.014556 -0.18318 0.130678 0.138372 -0.037391 0.192998 -0.15137 -0.009232 -0.230904 -0.113083 0.08149 -0.36455 -0.097502 -0.071542 -0.013309 -0.186465 -0.129828 0.048809 0.211542 -0.063621 0.019163 -0.122877 0.346512 -0.059225 -0.037686 -0.058462 0.106827
1.089632 -1.225462 1.3924 -2.334336 -4.914549 -2.002741 5.592828 1.30787 -0.106145 -1.178884 2.939537 -1.036439 2.254587 -1.067435 0.220589 -3.837344 -3.336479 0.215779 -2.161715 5.431429 0.250541 -0.107656 -3.387963 -3.225062 -0.100581 0.822503 -0.801992 2.400753 -4.19317 -5.363085 1.358291 0.778932 0.819827 -3.261039 2.078441 -2.948893 0.002447 -1.790628 -1.819884 1.148803 0.598034 -0.187687 0.390203 -0.105192 1.907627 1.667431 0.193149 0.424368 0.491864 -0.353762 4.616759 2.425463 2.99453 3.822163 -1.402275 -1.88933 3.546197 0.891653 0.999775 -0.63709 4.261774 4.673379 -0.219498 -2.762749 -2.397185 0.191184 1.132842 -2.605166 0.547155 1.265546 1.879576 -1.632382 -0.666593 -1.637866 0.701843 1.698597 2.10698 -1.200772 0.865076 -2.136239 -1.388018 -0.0538 2.141118 -0.696533 -0.022352 -2.403205 2.194125 0.761718 1.165639 -2.833674 -2.125938 3.958899 -2.40581 0.658203 -2.218606 -2.488375 -0.43343 -1.507536 -1.20703 -1.255305
-0.026987 0.079472 0.150477 -0.123635 -0.196096 -0.155594 0.060737 0.001125 -0.051483 0.044561 -0.013286 -0.215892 0.058768 0.083777 -0.0149 -0.119245 -0.042341 0.275117 -0.004122 -0.04899 0.001295 0.024345 0.031647 0.07302 0.008738 0.092481 -0.185917 -0.072882 0.018681 -0.093554 -0.177112 -0.110245 -0.057236 0.120266 -0.016769 -0.105921 -0.21509 0.061323 0.128403 0.067796 -0.040793 0.085168 -0.019531 -0.102989 -0.047756 0.089433 0.034831 -0.024744 -0.254327 0.071778 0.135133 -0.195671 -0.007059 -0.094605 0.053831 0.040048 -0.195654 -0.141432 0.130793 -0.030897 0.173553 0.152595 -0.052375 -0.213755 0.008154 0.065962 -0.057427 0.006706 -0.064934 0.021837 0.045207 0.098062 8.19E-4 -0.058686 0.157582 -0.136331 -0.001817 -0.138411 0.049074 -0.254846 -0.140942 0.24651 0.004983 0.063565 -0.105728 -0.064462 -0.100351 -0.027947 0.090736 -0.082556 -0.167846 0.12307 -0.031225 0.252032 0.014416 -0.105694 0.143173 -0.052909 0.009959 0.111314
0.185938 -0.089624 0.093234 0.147536 -0.11459 -0.129008 -0.09481 -0.008017 -0.075406 0.0206 0.119411 0.100719 -0.033793 -0.109748 0.239836 0.145497 0.032362 0.132324 -0.001636 0.056896 -0.207768 0.14385 0.103415 -0.067541 -0.08987 -0.002098 0.003064 0.060203 0.149974 -0.225837 0.178074 0.043982 0.12233 0.044586 -0.058302 0.17733 -0.198181 0.002445 -0.169354 0.158764 -0.047726 -0.005613 -0.108721 -0.188066 0.076265 -0.007771 -0.001382 -0.030905 0.0393 0.141754 0.159115 -0.006548 -0.01495 -0.030699 0.059923 0.007514 -0.081255 0.014984 -0.157812 -0.086708 0.051821 -0.228048 -0.183213 -0.164892 0.021959 -0.050445 -0.007444 -0.141708 -0.039219 -0.202261 0.013122 0.23699 -0.082318 0.070748 0.231225 0.002655 -0.105667 -0.196822 0.099719 0.039002 -0.142883 0.048344 0.164295 -0.164501 0.042459 0.006267 0.221968 0.201626 0.073428 0.235844 -0.12395 -0.056444 0.124315 0.063309 -0.00743 0.033688 0.071343 0.150496 0.072951 -0.079105
0.0 0.0 0.0 0.0 0.0 0.0 0.0 0.0 0.0 0.0 0.0 0.0 0.0 0.0 0.0 0.0 0.0 0.0 0.0 0.0 0.0 0.0 0.0 0.0 0.0 0.0 0.0 0.0 0.0 0.0 0.0 0.0 0.0 0.0 0.0 0.0 0.0 0.0 0.0 0.0 0.0 0.0 0.0 0.0 0.0 0.0 0.0 0.0 0.0 0.0 0.0 0.0 0.0 0.0 0.0 0.0 0.0 0.0 0.0 0.0 0.0 0.0 0.0 0.0 0.0 0.0 0.0 0.0 0.0 0.0 0.0 0.0 0.0 0.0 0.0 0.0 0.0 0.0 0.0 0.0 0.0 0.0 0.0 0.0 0.0 0.0 0.0 0.0 0.0 0.0 0.0 0.0 0.0 0.0 0.0 0.0 0.0 0.0 0.0 0.0
0.06553 -0.125673 0.034491 0.043696 -0.08785 -0.070191 -0.104459 -0.048669 0.006119 0.030927 -0.13537 -0.036367 -0.163152 -0.059444 0.060532 -0.023973 0.098727 0.031182 -0.080261 0.051743 -0.07395 0.036216 -0.082271 -0.07694 -0.227916 8.49E-4 0.074039 -0.007776 0.046045 -0.104478 0.002922 0.032865 -0.001549 -0.142678 0.054115 -0.01641 0.00671 0.02971 0.075554 0.035918 0.017778 0.02266 0.074529 -0.007011 -0.166621 -0.149341 -0.036893 0.187838 -0.051182 0.035542 0.035646 -0.071808 0.164016 0.07998 0.087969 -0.192645 -0.030305 -0.225898 -0.106839 -0.021025 0.244137 -0.057087 -0.051305 0.059616 -0.184024 0.189175 0.205994 -0.054882 -0.034451 -0.087239 0.044602 -0.036991 -0.094929 -0.008204 0.212651 0.003758 -0.115127 0.104404 0.032918 0.078207 0.184447 0.044535 -0.025218 -0.026929 -0.017865 0.117728 0.029414 -0.031504 0.043071 0.093661 -0.096078 -0.012874 0.052235 0.078689 -0.053345 -0.059396 0.152948 -0.086422 -0.102222 -0.027954
1.814151 2.725041 -2.520807 1.315217 -2.659736 -0.577578 -0.098853 -2.904366 -0.032722 1.191541 0.710047 -3.486917 -1.140206 -2.148185 -1.238322 0.125979 3.87631 -3.391414 -2.149732 -3.879909 0.361408 -3.001931 2.196447 0.485063 -3.576644 0.907799 -0.886135 -1.106671 -0.662454 -0.914057 1.775644 -0.689767 -0.512792 -2.903615 0.025863 -2.535058 1.396454 1.783473 -1.549027 -4.462953 -1.220526 -3.423896 3.921904 -0.977825 0.482074 -0.032766 2.556823 -1.984932 0.462286 -0.82803 -0.616266 2.004642 0.638358 2.338322 -0.14656 0.110032 0.542961 -2.143865 3.538935 -2.800782 -0.313044 -0.849714 -0.922162 -2.367314 -0.536273 1.636989 0.719054 1.096486 -0.6067 0.903771 3.410814 1.087137 -0.117382 -1.020717 -2.033878 1.428637 -2.876301 -0.85942 -3.915745 -0.085598 1.794468 -0.474081 0.946705 0.727701 2.498669 -0.83144 3.99432 2.242111 -3.425523 0.855851 -1.431578 -1.178527 -1.62518 -3.8492 0.580365 0.031299 1.708449 -0.696136 -1.803421 0.056324
0.135717 -0.065497 0.02281 0.048052 -0.011836 -0.09375 0.0016 -0.035631 -0.026011 -0.016446 0.147576 0.093555 -0.033806 0.001119 0.136647 0.086354 -0.119676 0.293363 0.140583 -0.140273 0.092999 0.105554 0.007309 -0.047042 -0.138044 -0.144529 -0.090671 0.023305 0.042831 -0.089424 -0.009516 -0.050607 -0.11973 0.043476 -0.110033 -0.070775 0.210602 -0.044688 0.047415 0.07877 -0.058849 0.123783 -0.083304 0.146343 -0.016713 -0.014302 -0.083131 -0.029171 -0.052871 0.027786 -0.056479 -0.019677 -0.067362 0.060823 0.051262 -0.094924 0.099503 0.030649 0.106531 -0.086298 0.023543 -0.100214 0.036796 -0.033757 -0.018593 0.054249 -0.041703 -0.048402 0.151764 -0.052203 -0.028287 0.059596 0.03622 0.059919 0.042116 -0.083798 0.077838 -0.039275 -0.10326 -0.058138 -0.047792 -0.041267 0.071076 -0.034964 0.077873 0.115244 -0.016893 -0.059243 0.145701 -0.018047 -0.084552 -0.05323 0.136246 0.034465 0.051731 -0.033088 0.142559 -0.100828 -0.127029 -0.153227
1.656623 -2.168529 1.529542 -1.60635 -0.130761 0.712996 1.417666 3.2299 -0.420853 3.514704 0.619538 -1.204311 -2.354038 1.478325 -3.594923 1.333707 2.067889 -0.266263 -1.020405 -1.04812 0.521147 -1.67442 -1.387213 -0.233327 -0.909069 -0.607047 -0.36783 0.241813 -1.791608 -1.26011 1.735957 0.960283 0.163881 1.899209 -0.212248 -2.226101 -0.623222 1.31892 2.325521 -0.948139 0.268356 -2.698513 0.33366 0.184404 1.090727 -1.250875 1.654373 -0.185707 -1.68552 1.928658 -1.545614 -2.875563 1.116203 1.872711 -0.703366 -4.301974 1.551244 -2.233195 1.672878 0.638856 1.352925 2.402984 3.588785 3.416317 2.228081 2.05149 3.482634 -0.709107 0.709109 -1.759878 0.050353 2.271721 -2.878096 0.209722 2.141706 -0.625345 2.296475 -0.160606 0.172581 -0.2623 -1.247225 -1.418166 0.155189 -1.186399 0.249674 -0.728062 -2.683932 1.578922 -0.120616 0.464418 0.830112 -1.479356 0.848508 3.154159 -0.603009 -2.237913 5.257249 1.541949 -0.393961 0.048974
-0.13982 -0.070825 0.118315 -0.188916 -0.048283 -0.132856 -0.029281 0.019655 0.085709 0.086609 -1.09E-4 -0.165678 -0.168657 0.064968 0.117705 -0.089967 0.060461 0.154044 0.159206 -0.216385 -0.034292 0.002616 0.114454 0.012079 -0.101054 -0.066247 -0.019818 0.041505 0.08108 -0.193241 0.068194 0.076214 0.125376 -0.052328 0.091661 0.081679 -0.014446 0.060696 -0.224715 0.121678 0.111638 0.099933 -0.210582 -0.010916 -0.042724 -0.052161 0.059768 0.005555 -0.012583 0.011093 0.255467 -0.151262 0.143106 0.058177 -0.061392 0.09274 0.044614 -0.077992 0.039983 0.041117 0.050478 -0.036416 -0.244948 -0.113915 0.055078 0.070349 -0.061488 0.015295 -0.138233 0.021685 -0.017643 -0.02245 0.109452 0.020738 0.047203 -0.046728 0.127734 -0.069984 -0.010974 -0.151913 -0.108325 -0.106444 0.117066 0.045376 0.06448 0.087222 -0.020649 0.009947 0.146502 -0.081502 -0.023772 -0.027065 0.059738 0.169912 -0.134561 -0.043472 -0.114556 -0.049832 0.014935 -0.004474
