0.029311 -0.00394 0.144591 0.005349 -0.224872 -0.14955 -0.330434 -0.13472 -0.234834 0.123263 0.161535 0.083347 0.113596 -0.025119 -0.039363 0.237404 0.02545 0.238108 0.19576 -0.053798 -0.023347 -0.268285 0.275654 0.156607 -0.094224 0.101317 -0.053377 -0.271919 -0.014906 -0.214083 0.083123 -0.139274 -0.178363 0.25395 0.103669 -0.070443 0.112469 -0.082278 0.001379 0.146319 -0.150933 0.113648 -0.03025 -0.077003 0.193874 -0.160045 0.001308 -0.291884 -0.043525 0.083474 0.176586 0.006538 -0.122754 0.083964 0.246809 0.146183 0.145932 0.184616 -0.127022 -0.183764 0.044634 -0.028374 0.026217 -0.140107 -0.250464 -0.062883 0.177839 0.01395 0.106302 -0.25498 -0.097386 -0.048577 0.021871 -0.049886 0.13255 -0.040562 -0.126186 0.036832 -0.066077 -0.110903 0.037933 0.286047 -0.113528 -0.040929 -0.086173 -0.078301 0.001312 -0.146959 0.076818 -0.004594 -0.108198 -0.170872 -0.053995 0.057122 0.157757 0.085169 0.007176 -0.052063 -0.081327 -0.250041
-1.230496 -1.784998 -2.701176 0.758382 1.022601 0.134257 -0.985047 1.562518 0.310835 -0.272668 -2.093218 0.576908 2.040189 3.9509 0.774258 -3.034902 0.015918 3.094607 -0.955282 -0.161599 1.346793 -0.427151 2.407651 2.929724 -1.837484 3.452367 0.53745 -0.982041 -0.926567 -0.170227 1.02313 -0.319885 0.057295 -0.759491 -3.167264 0.215212 0.199355 2.17803 -2.880665 -3.126606 1.987815 -0.672563 -1.358064 -0.033815 -0.248648 -1.018406 0.174184 0.367458 2.183337 2.743262 -1.304921 3.026151 -0.376082 1.947597 -1.255474 -1.064786 1.087376 -2.089309 0.970619 0.252176 5.222122 -0.33553 0.351429 0.429232 -0.472527 -0.662081 -0.365277 -1.304831 1.49886 -2.889978 0.333237 -0.579763 2.984992 1.952844 2.048453 -0.167153 0.122451 0.366104 2.33386 4.508055 2.013939 1.926481 3.227053 4.010036 0.598998 -2.80402 1.407855 2.476772 -2.103011 3.048537 -0.582139 -2.261293 -0.407356 -1.748715 -0.955609 0.330801 0.787854 1.235672 2.16538 0.751083
-0.868528 -2.096773 -2.297737 -1.92163 -4.782328 0.495511 -1.206954 1.840061 -1.578795 -0.700643 -3.577079 -1.237034 -0.150158 0.357047 2.689426 1.942271 0.847547 1.002508 -0.879021 0.683427 -1.236998 2.313119 -1.140837 -3.390305 -0.563054 1.933463 0.53114 -1.7645 -0.167898 0.908317 -1.752758 -0.08637 1.506495 -4.882413 -0.345224 -2.903016 -1.359395 1.282631 0.118259 -0.512948 -1.371479 0.680884 1.05754 1.586138 0.208767 0.975685 0.34396 0.853164 1.211654 0.287068 -0.159279 0.015548 0.713871 -0.284979 1.809821 -0.114466 1.046905 0.317113 1.188733 -1.737614 1.92399 2.02477 1.418323 -1.801728 -0.940321 1.53376 1.831906 1.767443 -0.878986 1.170077 -0.540883 -0.103387 -1.58598 1.634518 2.327548 -0.082331 -0.626056 0.225148 1.340655 1.077765 -1.529258 0.601304 2.107917 -0.287201 -0.495747 1.723457 -0.288982 -0.9477 1.226922 0.15435 -1.211208 3.125587 0.046566 1.063728 0.145621 -1.113295 2.055665 0.911951 -0.038015 -2.449436
-0.138751 -0.054909 0.083661 0.002545 -0.071638 -0.165765 -0.148184 -0.030872 -0.029375 0.044658 0.088254 0.105816 -0.057361 -0.178624 0.048149 0.248983 -0.040736 0.299217 0.035488 0.091328 0.122423 0.16077 0.139655 0.177076 -0.121552 -0.089234 -0.124821 -0.101721 0.04199 -0.047746 -0.146088 0.158699 -0.018105 0.025031 -0.051162 -0.008437 0.015674 0.164893 0.1148 -0.030002 -0.077171 0.324483 -0.017767 0.098934 -0.07273 -0.102109 0.007307 0.131351 -0.023624 0.06199 0.088163 0.036824 -0.105556 -0.051742 0.138351 0.030598 -0.13035 0.04542 0.176031 -0.119051 0.093289 -0.045385 0.168364 -0.234426 0.023005 0.067168 0.038368 0.205432 0.10015 -0.162468 -0.129821 -0.107497 0.05373 0.017626 0.068073 -0.063054 -0.021831 0.074324 -1.97E-4 -0.151613 -0.055647 0.10516 -0.019676 -0.241654 0.093586 -0.00202 0.073551 -0.12812 0.179131 0.036425 -0.117168 -0.147322 0.016951 7.97E-4 0.079125 -0.033242 0.191255 -0.047689 0.07185 -0.118315
-0.045641 -0.07437 0.166668 -0.001213 -0.126788 -0.031418 -0.030711 0.001839 -0.144409 0.112212 -0.139098 0.153209 -0.040734 -0.071713 0.213025 0.146147 -0.089207 0.248655 -0.074927 0.15242 -0.002682 0.036858 0.323295 0.277517 -0.240706 -0.291649 -0.1444 -0.194298 0.005591 -0.246316 -0.079605 0.011321 -0.102197 0.049554 0.001845 -0.0323 -0.062907 -0.214642 -0.146337 0.038993 -0.114586 0.193915 0.087261 0.107199 0.048742 -0.055703 0.085665 0.133498 -0.191939 0.084235 0.059544 -0.077637 -0.091201 -0.088723 0.006257 -0.005313 0.006126 -0.172788 0.038392 -0.018824 0.242534 -0.219858 -0.013601 -0.237255 0.021422 -0.059419 0.217122 -0.01214 0.232176 -0.173841 -0.134825 0.261717 0.051499 0.129135 0.073568 -0.050183 -0.27244 0.16249 0.167712 -0.195312 -0.206473 -0.003776 0.118466 -0.065567 -0.064976 -0.049614 0.125988 -0.011975 0.118247 -0.030012 -0.093256 0.123164 0.140959 0.107411 -0.09602 -0.146793 0.147966 0.038203 -0.009463 -0.036929
-0.01875 -0.285329 -0.002424 0.108049 -0.121485 0.011509 -0.309429 0.071278 0.030139 -0.09504 0.026686 -0.113073 0.095932 -0.179022 0.042966 0.129678 0.08961 0.196302 0.063608 0.023636 0.017566 0.282635 0.203737 -0.001727 -0.166336 0.016611 0.066798 0.070245 -0.044842 -0.010532 0.02894 0.068283 0.222737 -0.011348 -0.061199 -0.009894 -0.096135 0.074612 0.011411 0.061689 -0.114957 0.107116 0.054659 -0.135911 0.206663 -0.107839 -0.106604 0.14633 0.055843 0.071442 0.032643 -0.128132 0.097352 -0.140302 -0.003045 -0.183681 0.160041 -0.078107 0.0398 -0.116372 -0.065673 -0.00229 -0.127849 0.022587 0.141333 -0.050803 0.054219 -0.019527 0.040823 -0.187221 -0.087694 0.011191 -0.043953 -0.204306 0.081344 -0.016947 -0.105763 -0.100188 -0.004993 0.025402 0.12403 0.063183 0.003483 0.031502 -0.006452 0.015156 -0.143862 -0.149512 -0.053303 0.05853 -0.072347 -0.161299 0.009473 0.162584 0.023232 0.039946 -0.041596 -0.076351 -0.12545 -0.034996
0.021227 0.256935 0.099547 0.348556 -0.127069 -0.050705 -0.102331 -0.256089 0.152229 0.055313 -0.026213 0.214663 0.009905 0.061829 0.043596 -0.00146 -0.075414 0.099793 -0.284019 -0.038673 -0.099342 -0.02743 -0.17003 0.340114 0.100317 0.133977 -0.190506 0.204493 0.089792 1.28E-4 -0.044372 -0.219502 0.0032 0.080611 -0.181975 0.043986 0.060562 0.15122 -0.026455 -0.110261 -0.043246 -0.022612 0.071106 0.09374 0.149408 0.098891 0.033777 -0.119526 -0.129595 0.02523 -0.128133 0.142963 0.116926 -0.128284 0.17142 0.120371 0.006182 -0.164726 0.075339 -0.214377 0.083519 0.099822 -0.014549 0.12349 0.129112 -0.177416 0.03806 0.155535 -0.004321 0.229976 0.11803 0.033793 0.201035 -0.178477 -0.08934 0.117569 -0.072554 -0.053581 0.134662 -0.110127 -0.084745 0.280266 -0.051032 0.175702 -0.029649 -0.026692 0.109934 0.178722 0.237877 -0.005253 0.028887 -0.003813 -0.03892 0.208035 0.026704 -0.020305 -0.099412 0.13161 0.252001 -0.14665
-0.085494 -0.149316 0.183549 0.167682 0.055287 0.09294 0.029028 0.07634 -0.122433 -0.073176 0.107685 -0.009193 0.165838 -0.001106 0.001629 0.069658 0.093446 0.224895 0.036948 -0.132478 -0.252074 0.018657 0.345716 0.395379 -0.02237 -0.19747 -0.186649 -0.056215 0.312126 -0.120157 -0.16578 -0.073164 -0.082997 0.139289 -0.117811 0.010686 -0.018348 -0.116511 -0.079776 -0.254973 0.098406 0.322906 -0.072794 -0.05135 0.035556 0.13813 0.042459 0.075526 -0.299295 -1.97E-4 -0.134619 -0.079612 0.311913 -0.022074 0.247371 0.161953 0.061073 -0.250592 0.223209 -0.031304 0.004015 -0.189731 -0.018753 0.043932 -0.142347 0.020538 -0.0122 0.056568 0.120927 -0.255561 -0.048352 -0.073473 0.184326 0.060367 -0.110818 -0.146405 0.058358 -0.085777 0.003834 0.036698 -0.177666 -0.040515 9.46E-4 -0.114281 0.140738 -0.094118 -0.050403 -0.044612 0.438074 0.061267 -0.090135 -0.297988 0.208974 0.199893 -0.186718 0.005724 -0.048983 0.074326 -0.033767 -0.253751
0.0 0.0 0.0 0.0 0.0 0.0 0.0 0.0 0.0 0.0 0.0 0.0 0.0 0.0 0.0 0.0 0.0 0.0 0.0 0.0 0.0 0.0 0.0 0.0 0.0 0.0 0.0 0.0 0.0 0.0 0.0 0.0 0.0 0.0 0.0 0.0 0.0 0.0 0.0 0.0 0.0 0.0 0.0 0.0 0.0 0.0 0.0 0.0 0.0 0.0 0.0 0.0 0.0 0.0 0.0 0.0 0.0 0.0 0.0 0.0 0.0 0.0 0.0 0.0 0.0 0.0 0.0 0.0 0.0 0.0 0.0 0.0 0.0 0.0 0.0 0.0 0.0 0.0 0.0 0.0 0.0 0.0 0.0 0.0 0.0 0.0 0.0 0.0 0.0 0.0 0.0 0.0 0.0 0.0 0.0 0.0 0.0 0.0 0.0 0.0
0.047964 -0.069501 -0.228902 -0.016337 -0.069884 0.042694 -0.109464 0.045751 -0.062078 -0.053961 -0.15293 0.178492 -0.082622 -0.030605 -0.025431 -0.098749 -0.110394 0.015113 -8.53E-4 -0.152089 -0.09425 -0.058442 0.080024 0.07191 0.012551 0.297885 0.111016 -0.008872 0.007516 -0.070631 0.011933 -0.124452 0.024267 0.011002 -0.153358 0.041654 -0.073466 0.037715 0.092594 -0.036643 -0.092036 0.207285 0.095301 0.059961 0.024259 -0.043283 -0.083745 0.063168 0.038013 0.085664 0.081271 0.068655 -0.127636 0.202816 0.163441 0.138332 0.074697 -0.104548 0.165417 -0.147556 -0.01918 -0.161796 0.018204 0.060057 0.026721 0.017184 0.191276 0.218602 0.025437 -0.069277 0.294863 0.15458 -0.06973 -0.014134 0.040024 0.198639 0.00572 -0.062885 0.030424 -0.012386 -0.057557 0.099053 -0.055325 -0.118539 -0.005547 -0.090675 -0.027903 0.001844 -0.004449 0.007587 0.038847 0.055435 0.190304 0.006768 -0.030324 -0.067174 0.064977 0.209606 -0.051907 -0.030303
-0.259312 -0.110788 0.112036 -0.03771 -0.153514 0.018339 -0.157182 -0.038662 9.23E-4 0.219423 0.156956 0.228702 0.110191 0.016299 0.083158 0.328285 0.129957 0.223039 0.167905 0.125768 -0.134194 0.078631 0.227548 0.100854 -0.157981 -0.043403 -0.120722 -0.034519 0.276614 -0.11146 -0.101109 0.041646 -0.044978 0.089264 -0.172501 0.122512 -0.002956 -0.07803 0.085264 0.088079 -0.099736 0.213944 0.008076 -0.112715 0.02261 -0.090514 0.040777 -0.018105 -0.344301 0.053414 0.125603 -0.088615 -0.065329 0.089879 0.171549 -0.05365 -0.147733 -0.040132 0.060657 -0.184287 0.107762 -0.113966 0.032887 -0.122252 -0.046094 -0.00887 0.014168 0.041642 0.194655 -0.026783 -0.210108 0.00292 -0.066874 0.015989 -0.016672 -0.093823 -0.207369 -0.145552 -0.031348 -0.084738 -0.070522 0.267967 0.148752 -0.320411 -0.004721 0.090197 0.021782 0.098911 0.279539 0.152137 -0.132355 -0.030349 0.080425 0.094383 0.099046 -0.158228 0.063495 -0.048244 0.105433 0.009918
-0.321931 0.073674 0.210129 0.063231 -0.341954 -0.414269 -0.027959 -0.134987 0.086062 0.282654 0.121684 -0.067267 0.503169 0.040272 -0.021057 -0.194872 -0.075731 0.53735 0.044213 -0.080353 -0.231253 0.334906 0.454367 0.165366 -0.136217 0.685636 0.25394 0.037477 0.477228 -0.015245 -0.377811 -0.191042 0.502425 0.213518 -0.541351 0.44968 -0.193752 -0.184912 -0.487461 0.392982 0.396209 0.885478 0.06983 -0.144928 0.187676 -0.177974 0.261469 0.402467 -0.288655 0.12731 0.063386 0.407244 -0.033262 0.030967 0.27255 0.126755 -0.123714 -0.086913 0.122802 0.718607 0.693109 0.295318 0.029468 -0.145166 -0.263162 -0.079819 0.55981 0.269641 0.673846 -0.606393 -0.136423 0.247022 -0.08583 -0.296624 -0.329237 -0.123377 -0.29834 0.069157 0.536003 0.221979 -0.044195 0.214926 0.206933 0.156882 0.415975 0.259297 0.385311 0.364894 -0.400289 -0.039432 -0.605907 -0.389447 0.194867 -0.140381 -0.24793 0.146129 -0.027208 0.407062 0.003332 0.184107
-0.003094 -0.167835 0.414167 0.20214 0.021192 0.110874 -0.142571 -0.037466 0.106848 0.210642 -0.104314 0.368307 -0.180382 0.077357 0.178098 0.279879 0.11783 0.088282 -0.24772 -0.115248 -0.054334 0.134777 0.26336 0.082243 -0.293855 -0.028461 3.44E-4 -0.063758 0.311569 -0.233804 0.127595 -0.011127 -0.128887 0.041042 -0.086175 -0.074408 0.088104 0.068682 0.046454 -0.047408 -0.036691 -0.110982 -0.019407 -0.186861 0.082029 -0.006638 -0.113443 -0.147593 -0.01641 0.094933 0.118614 -0.043671 0.018239 -0.413848 0.281094 0.152042 -0.042809 0.166658 -0.018005 -0.05191 -0.023496 0.119143 -0.092649 -0.042531 0.058689 -0.124429 -0.030609 0.011888 -0.002563 0.032041 0.205577 0.076755 0.032821 0.085427 -0.127106 -0.219912 -0.095765 0.089966 -0.089799 -0.123091 -0.053708 0.014194 0.133849 -0.209805 -0.029523 0.050832 -0.087862 -0.109852 0.313246 0.164122 -0.114575 0.04465 0.051932 -0.079995 -0.022854 -0.28581 -0.010104 0.221313 -0.025797 -0.064144
-0.075385 -0.006092 0.081262 0.032492 0.056898 -6.73E-4 -0.044814 0.168261 -0.038961 0.22206 -0.007393 0.001724 0.207905 0.192474 0.116484 -0.047394 0.177802 0.218903 0.211241 0.052432 -0.322523 0.049297 0.046245 0.062236 0.039783 0.023302 0.157258 -0.223648 0.14046 -0.230409 -0.024654 -0.071076 -0.05464 -0.039822 0.02003 -0.006062 0.016681 -0.008118 -0.046609 0.288479 0.054888 0.117332 -0.003713 -0.070618 -0.04705 0.060842 0.112034 -0.039002 -0.149401 0.061304 -0.013952 -0.04701 -0.03926 0.052649 0.039721 -0.111731 -0.201464 -0.028693 -0.053283 0.065266 -0.118488 -0.008999 0.034691 -0.168895 -0.075865 0.081188 0.143746 0.081038 0.031648 0.024236 -0.119154 0.151672 0.085268 0.002946 0.085684 -0.097256 0.016009 -0.002956 0.067952 -0.094097 0.245072 0.265827 0.140642 -0.038945 0.008962 -0.003779 -0.033109 0.03562 -0.059048 0.166017 -0.123806 -0.230061 -0.049252 0.123824 -0.127426 -0.054067 0.089826 -0.082211 0.032491 0.033708
0.15849 -0.108446 0.060652 -0.008194 -0.052735 -0.14132 -0.064968 -0.131062 -0.176986 0.016132 0.146535 0.097815 -0.006962 0.031031 0.059471 0.228522 -0.072115 0.059189 -0.072778 0.016396 -0.179111 0.031434 0.186752 0.024644 -0.023998 -0.187947 0.062745 0.037207 0.009899 -0.073008 -0.052259 -0.02762 -0.137408 0.098595 -0.129036 -0.108954 0.203361 0.015456 0.063842 -0.078139 0.023904 0.165628 0.087652 0.091934 0.040288 -0.119348 -0.095886 0.086081 -0.017142 -0.01886 0.062085 0.007646 -0.071529 0.016292 0.071593 0.042954 0.010719 -0.144194 0.270578 -0.178196 -0.01856 0.046642 0.069962 -0.239681 -0.078538 -0.080061 0.116532 0.089446 0.187609 -0.137 0.088933 -0.032391 0.006936 0.020387 0.059 0.059742 -0.147257 0.00724 0.065396 -0.036561 -0.015099 -0.005432 0.025834 -0.088228 -0.013923 0.078631 -0.054426 0.14857 -0.045009 0.07035 0.058348 -0.097176 0.10859 0.187265 -0.00569 -0.139389 0.063445 -0.034281 0.047319 -0.08592
5.8E-4 -0.166282 -0.007142 0.030966 -0.002342 -0.003641 -0.208086 -0.102648 -0.088019 0.143738 0.203844 0.167444 -0.098228 -0.062454 0.054963 0.052161 0.134411 0.189531 0.001616 -0.055346 -0.06122 -0.037834 0.153142 0.078407 -0.245088 -0.048893 -0.077412 -0.202455 0.067537 -0.165299 0.004362 -0.002674 -0.195584 -0.051519 0.002983 -0.143993 -0.184044 0.001714 0.069729 0.039232 -0.087638 -0.054429 0.137845 -0.090005 -0.006268 0.026023 -0.061104 0.022408 -0.232451 0.274804 -0.020747 -0.181498 0.055366 -0.040905 0.066078 0.085578 -0.063706 -0.098234 0.128944 -0.235579 -0.012032 -0.251056 -0.118028 -0.034383 -0.062989 -0.036642 0.101305 0.007671 0.068913 -0.131371 -0.149438 -0.11061 0.008767 0.015464 0.042378 -0.320782 -0.191728 0.024424 0.052617 -0.055048 -0.025897 0.206257 0.097253 0.015978 -0.089612 0.194139 -0.06014 0.03642 0.179928 0.057093 -0.0174 0.021255 0.028493 0.073299 -0.02547 0.054872 0.048373 -0.011646 0.019997 -0.067056
1.035361 1.319725 0.388011 1.220811 -0.236045 1.447081 -1.78193 3.520004 0.063077 -1.681862 0.545208 0.767849 -1.479444 -1.152839 0.669301 0.685509 -2.946755 -2.239533 -1.187422 -1.793336 0.607402 0.130687 0.296681 -1.569517 1.825066 1.715849 -1.639836 0.849724 -1.742086 0.427502 3.84844 -1.377145 0.671096 -1.312902 -1.152387 0.705431 2.180344 2.97496 1.402098 -0.909545 -1.649212 -0.253421 1.186817 1.193823 3.167747 -0.387379 -0.12198 0.872223 0.13285 0.490844 0.029473 1.345032 0.297008 2.724698 -1.656047 -0.109585 1.500583 -1.148555 -3.658389 1.022988 -1.211381 0.342059 -0.023586 1.22536 -1.874871 -1.957746 -0.188066 -0.235303 -0.067175 1.107354 1.448404 0.838301 1.67396 -0.238039 -0.504146 -1.334739 0.688005 0.37731 -2.953094 0.650433 0.307563 -0.457962 -1.694326 2.40152 -0.816994 0.208705 1.853393 0.15935 -0.989952 1.089235 1.087388 -2.786835 -2.248864 -0.788939 0.405791 0.907533 -1.516669 1.970717 -0.345554 -0.134731
0.0 0.0 0.0 0.0 0.0 0.0 0.0 0.0 0.0 0.0 0.0 0.0 0.0 0.0 0.0 0.0 0.0 0.0 0.0 0.0 0.0 0.0 0.0 0.0 0.0 0.0 0.0 0.0 0.0 0.0 0.0 0.0 0.0 0.0 0.0 0.0 0.0 0.0 0.0 0.0 0.0 0.0 0.0 0.0 0.0 0.0 0.0 0.0 0.0 0.0 0.0 0.0 0.0 0.0 0.0 0.0 0.0 0.0 0.0 0.0 0.0 0.0 0.0 0.0 0.0 0.0 0.0 0.0 0.0 0.0 0.0 0.0 0.0 0.0 0.0 0.0 0.0 0.0 0.0 0.0 0.0 0.0 0.0 0.0 0.0 0.0 0.0 0.0 0.0 0.0 0.0 0.0 0.0 0.0 0.0 0.0 0.0 0.0 0.0 0.0
-0.124425 -0.286311 0.238245 0.099732 -0.066821 -0.183051 -0.091604 0.306634 0.03945 -0.061084 -0.075858 0.018433 -0.365098 0.0632 -0.123235 0.071307 -0.06992 0.096088 0.09016 0.101541 -0.31032 0.260324 0.055778 -0.08635 -0.396013 0.018556 0.154773 -0.173092 -0.020868 -0.260008 -0.218151 -0.142272 -0.119882 0.131695 0.046999 -0.249193 -0.296397 0.117747 -0.067781 -0.208684 0.079529 -0.013684 0.057076 0.10386 0.102489 -0.083714 0.294589 -0.096983 -0.22822 0.011841 -0.173484 -0.173459 -0.007607 0.354301 0.300225 -0.228172 0.12053 0.200734 0.022645 -0.158472 0.268128 0.00177 -0.020188 -0.207497 -0.214502 -0.003521 0.355355 0.024414 0.159175 -0.323036 0.049736 0.15668 -0.047421 -0.013929 0.233991 -0.260972 -0.186263 0.041274 0.221432 0.350859 0.139428 0.068267 0.0289 -0.105745 0.022827 -0.033028 -0.085668 0.126808 0.143847 0.050538 0.092152 0.121662 -0.113184 0.238403 -0.036051 -0.10043 0.140196 0.012147 0.010661 0.011894
-0.018578 -0.013529 -0.197786 0.004558 -0.03893 0.177607 -0.094776 -0.028732 0.049933 -0.019242 0.024483 -0.03787 0.087781 0.102523 -0.018177 -0.113433 0.00792 0.018237 -0.112263 -0.012437 -0.025213 0.029112 0.083467 -0.073337 -0.189303 0.028439 0.116287 -0.001391 0.014309 0.100544 -0.048657 0.012629 0.033045 -0.093333 -0.004685 -0.133262 -0.021247 -0.113092 -0.088792 0.041907 -0.001325 -0.045895 0.022741 -0.081275 0.013529 0.073373 -0.067027 -0.168668 -0.006753 -0.067314 -0.105993 0.062033 0.045719 0.063312 0.015729 -0.031425 -0.00582 0.043282 -0.178492 -0.007358 -0.138719 0.014791 -0.077292 0.079456 -0.042082 -0.019539 0.084549 -0.063962 -0.012012 -0.119895 0.005047 0.067728 -0.032636 -0.079965 0.010365 0.041523 -0.009269 0.039553 -0.006631 -0.030167 -0.055269 0.051498 0.045561 -0.049533 -0.045832 0.033137 -0.100607 0.174563 -0.042659 -0.00745 0.032349 -0.004679 0.126933 0.028874 0.005375 -0.046068 0.008693 -0.032079 0.08015 0.027962
0.015168 -0.572687 -0.166973 0.401357 -0.025315 0.238495 -0.104759 0.007773 0.010576 -0.346945 0.016364 -0.117263 -0.047954 0.588289 0.122976 -0.258635 -0.106789 -0.225963 -0.028887 0.173061 -0.093177 -0.088772 -0.137136 -0.187844 -0.442443 -0.193952 0.086444 -0.236473 -0.18834 0.098282 0.039055 0.337361 0.052986 0.024466 0.380063 -0.134876 -0.120858 0.226359 0.203624 0.215881 0.388965 0.29729 -0.197525 -0.131561 0.251789 -0.410159 -0.113307 0.045728 -0.073032 0.155406 -0.104287 0.062728 -0.074805 0.068933 -0.144653 -0.651857 -0.089324 0.10589 0.017566 -0.267873 0.1484 -0.723111 -0.132113 -0.010642 -0.213251 0.21735 -0.01171 -0.081508 0.267467 -0.167981 -0.135592 -0.255048 -0.452591 0.02586 -0.141587 -0.338937 -0.075581 0.108316 0.183725 -0.010633 -0.178445 0.18395 0.389352 -0.137729 0.297626 0.338991 0.215445 0.153924 0.212108 0.002933 -0.501605 0.228002 0.103738 0.141518 0.22184 -0.313188 -0.220903 -0.12493 0.377266 -0.169572
0.047964 -0.069501 -0.228902 -0.016337 -0.069884 0.042694 -0.109464 0.045751 -0.062078 -0.053961 -0.15293 0.178492 -0.082622 -0.030605 -0.025431 -0.098749 -0.110394 0.015113 -8.53E-4 -0.152089 -0.09425 -0.058442 0.080024 0.07191 0.012551 0.297885 0.111016 -0.008872 0.007516 -0.070631 0.011933 -0.124452 0.024267 0.011002 -0.153358 0.041654 -0.073466 0.037715 0.092594 -0.036643 -0.092036 0.207285 0.095301 0.059961 0.024259 -0.043283 -0.083745 0.063168 0.038013 0.085664 0.081271 0.068655 -0.127636 0.202816 0.163441 0.138332 0.074697 -0.104548 0.165417 -0.147556 -0.01918 -0.161796 0.018204 0.060057 0.026721 0.017184 0.191276 0.218602 0.025437 -0.069277 0.294863 0.15458 -0.06973 -0.014134 0.040024 0.198639 0.00572 -0.062885 0.030424 -0.012386 -0.057557 0.099053 -0.055325 -0.118539 -0.005547 -0.090675 -0.027903 0.001844 -0.004449 0.007587 0.038847 0.055435 0.190304 0.006768 -0.030324 -0.067174 0.064977 0.209606 -0.051907 -0.030303
-0.052946 -0.002335 -0.25818 -0.123329 0.045591 0.15536 0.367015 0.015597 -0.119155 0.017418 0.018511 0.138634 -0.060776 -0.004559 -0.192524 0.20866 0.05983 -0.092321 0.138927 -0.019236 -0.152498 -0.162159 -0.016595 -0.006471 -0.22679 -0.10749 -0.141192 -0.250028 0.052643 0.046959 -0.045516 0.024902 -0.049228 0.09669 0.013305 0.187122 0.118523 0.139798 0.066763 -0.139264 0.119082 0.072789 -0.035384 -0.182514 -0.036318 0.190386 -0.066147 -0.083892 -0.086178 0.26731 0.093035 0.153217 0.369133 -0.128121 0.173798 0.12763 -0.225369 -0.09792 0.024188 -0.077032 -0.007896 -0.093418 0.221741 0.013322 0.340326 0.035551 -0.159267 0.012716 0.119325 0.083955 0.010134 0.057152 0.07396 0.050272 -0.263191 0.130875 -0.092921 0.002303 0.108632 -0.294243 0.019439 -0.152031 0.133538 0.031938 -0.008199 -0.143283 -0.075024 0.068402 -0.180848 -0.047205 -0.229843 0.052124 0.235134 -0.213917 -0.075069 0.048355 -0.188057 0.054834 0.089076 -0.112866
0.015168 -0.572687 -0.166973 0.401357 -0.025315 0.238495 -0.104759 0.007773 0.010576 -0.346945 0.016364 -0.117263 -0.047954 0.588289 0.122976 -0.258635 -0.106789 -0.225963 -0.028887 0.173061 -0.093177 -0.088772 -0.137136 -0.187844 -0.442443 -0.193952 0.086444 -0.236473 -0.18834 0.098282 0.039055 0.337361 0.052986 0.024466 0.380063 -0.134876 -0.120858 0.226359 0.203624 0.215881 0.388965 0.29729 -0.197525 -0.131561 0.251789 -0.410159 -0.113307 0.045728 -0.073032 0.155406 -0.104287 0.062728 -0.074805 0.068933 -0.144653 -0.651857 -0.089324 0.10589 0.017566 -0.267873 0.1484 -0.723111 -0.132113 -0.010642 -0.213251 0.21735 -0.01171 -0.081508 0.267467 -0.167981 -0.135592 -0.255048 -0.452591 0.02586 -0.141587 -0.338937 -0.075581 0.108316 0.183725 -0.010633 -0.178445 0.18395 0.389352 -0.137729 0.297626 0.338991 0.215445 0.153924 0.212108 0.002933 -0.501605 0.228002 0.103738 0.141518 0.22184 -0.313188 -0.220903 -0.12493 0.377266 -0.169572
0.060589 0.011417 0.044043 0.003035 -0.031687 -0.093862 -0.02546 -0.001299 0.045352 0.079939 0.220729 0.17079 -0.13606 0.09828 0.151429 0.102683 -0.043894 0.171398 -0.061698 0.004764 -0.020539 0.059526 0.13831 0.155409 -0.034684 -0.084537 0.063673 0.045146 0.247284 -0.292189 0.034692 -0.025793 0.094335 0.172263 0.045233 -0.02372 0.070817 -0.029726 -0.086155 0.025896 -0.074822 -0.037976 0.00952 0.020839 0.053407 -0.097107 -0.021214 0.017771 -0.001698 -0.124655 0.136661 -0.139381 -0.113528 -0.033204 0.149994 0.014432 -0.051002 -0.103533 0.039247 -0.159025 0.032098 -0.078212 -0.027019 -0.12256 -0.005065 -0.071103 -0.052674 0.125948 -0.034649 0.161429 -0.153411 -0.011595 -0.039618 -0.045692 -0.051084 -0.015296 0.028964 -0.019612 -0.002999 -0.083688 0.070337 0.074292 0.109922 -0.268538 0.074152 -0.086813 0.140775 0.06524 0.067809 0.037349 0.062841 -0.163058 -0.125298 0.040573 0.019118 0.082663 0.14099 -0.039204 0.131427 0.125448
0.0 0.0 0.0 0.0 0.0 0.0 0.0 0.0 0.0 0.0 0.0 0.0 0.0 0.0 0.0 0.0 0.0 0.0 0.0 0.0 0.0 0.0 0.0 0.0 0.0 0.0 0.0 0.0 0.0 0.0 0.0 0.0 0.0 0.0 0.0 0.0 0.0 0.0 0.0 0.0 0.0 0.0 0.0 0.0 0.0 0.0 0.0 0.0 0.0 0.0 0.0 0.0 0.0 0.0 0.0 0.0 0.0 0.0 0.0 0.0 0.0 0.0 0.0 0.0 0.0 0.0 0.0 0.0 0.0 0.0 0.0 0.0 0.0 0.0 0.0 0.0 0.0 0.0 0.0 0.0 0.0 0.0 0.0 0.0 0.0 0.0 0.0 0.0 0.0 0.0 0.0 0.0 0.0 0.0 0.0 0.0 0.0 0.0 0.0 0.0
-0.101233 -0.028981 0.122072 0.055564 -0.119101 -0.011968 -0.065091 0.057049 -0.141289 0.048056 0.152967 0.102676 -0.029566 0.12009 0.045419 0.106173 0.191355 0.060038 0.053383 0.019261 -0.304464 0.150024 0.06848 0.032268 -0.207894 0.128676 -0.130434 -0.188874 0.007583 -0.007322 0.099895 0.013638 -0.171385 -0.031615 -0.208374 0.045345 0.028277 -0.083767 -0.043488 -0.144111 -0.068156 -0.033179 0.124055 -0.033053 0.194379 -0.04111 0.079372 -0.082782 0.125926 0.1154 -0.093623 0.008286 -0.070831 -0.10159 0.033651 -0.04791 0.060654 -0.025729 0.057175 2.93E-4 0.092663 -0.04962 -0.080444 0.032288 -0.120738 -0.025935 0.111584 -0.126758 0.003024 -0.012687 -0.060887 0.102847 0.101356 0.026747 0.074143 -0.022913 -0.018563 0.143065 -0.058595 -0.035716 0.045794 0.029573 0.187051 -0.235308 -0.06017 -0.088053 -0.121569 -0.006034 0.096534 0.018686 -0.169076 0.010447 -0.086636 -0.00607 0.095911 -0.130194 -0.097029 -0.084907 -0.105087 -0.142592
0.051165 -0.165567 0.057387 -0.047117 -0.055985 -0.089265 -0.161667 0.027546 -0.193722 0.074437 0.032065 0.151745 -0.124054 -0.026066 0.011416 0.150188 0.001488 -0.051853 0.157387 0.222313 -0.010918 0.018108 0.154399 -0.072291 -0.104732 -0.033217 -0.143429 -0.099798 0.254464 -0.088514 -0.102527 0.087279 0.01474 0.156084 -0.069026 -0.154502 0.115485 -0.247551 -0.076085 0.165472 -0.002171 -0.179689 0.169712 0.09509 0.137689 -0.071428 -0.051784 -0.131872 -0.022114 0.0997 0.179132 -0.133992 -0.054962 -0.064365 0.04262 -0.05019 0.036852 -0.017944 0.016026 -0.002934 -0.091133 -0.166799 -0.009752 -0.16941 -0.072423 0.041147 -0.062812 0.148223 0.050873 -0.040301 -0.100109 -0.044623 -0.002945 0.149274 0.109497 0.047123 -0.048675 -0.245103 0.012633 -0.02212 0.06102 0.009143 0.073899 -0.200987 -0.017948 -0.036457 9.33E-4 0.056704 0.095663 0.085862 -0.222083 -0.027442 0.16887 -0.013047 0.038085 0.055135 0.061535 0.007615 -0.062965 -0.133145
-0.165196 -0.187699 0.145836 0.082668 0.040064 -0.045251 0.004174 0.029527 -0.024558 -0.026131 0.023913 0.320158 -0.090711 0.044991 0.150156 0.174163 -0.0519 0.042628 -0.026399 0.047388 -0.165743 0.010284 0.204239 0.071984 -0.107495 -0.102199 -0.149213 0.068356 0.231175 -0.06892 -0.057282 -0.002082 0.029661 0.06453 -0.178023 -0.165563 0.02343 0.099836 -0.034307 0.12499 -0.09186 -0.149883 0.10307 0.135714 0.048112 0.220214 -0.127854 -0.08647 0.050639 -0.102859 0.183301 -0.005277 0.064837 -0.182468 0.027936 -0.1064 -0.039704 -0.131126 -0.109041 0.017793 0.036649 -0.078217 0.042461 0.001268 0.003871 -0.083882 0.01323 -0.082705 0.006515 0.022732 -0.10605 0.050127 -0.099351 -0.009821 0.15021 -0.028078 0.003612 0.071222 0.125964 -0.120994 0.118497 -0.092383 0.012254 -0.277435 -0.184025 0.007325 0.069125 0.057009 0.012555 0.020677 -0.209572 -0.006419 -0.084359 0.043591 -0.061368 -0.08374 -0.07863 0.048275 5.73E-4 0.043937
-0.066077 -0.04614 0.177105 0.014828 -0.224598 0.156356 -0.004028 -0.007531 -0.089205 0.028751 0.048576 0.148986 -0.014054 -0.167094 0.07888 0.286417 0.168158 0.125907 -0.00256 0.072251 -0.180823 0.195891 0.220981 1.61E-4 0.092377 -0.111037 0.037183 0.159373 0.115474 -0.107876 -0.034336 0.054294 0.073709 0.031907 -0.149478 -0.282266 -0.085972 -0.143729 0.088277 -0.091016 -0.101417 -0.193437 -0.068736 0.048832 0.079692 -0.219752 -0.076563 0.028148 0.112467 0.123575 0.054896 -0.144447 0.020002 -0.092077 -0.046204 -0.202982 -0.016351 -0.014284 -0.025389 -0.226911 -0.043733 -0.101362 0.021068 -0.219044 -0.134985 -0.073455 0.151863 -0.081384 0.059907 -0.118205 0.109246 0.06212 0.15729 0.025655 0.039673 -0.308074 -0.010718 0.0628 -0.013453 0.051374 0.110286 0.021042 0.042938 -0.12111 -0.059889 0.071295 0.013045 -0.111699 0.183925 0.143572 -0.171258 0.036566 -0.11123 0.166856 0.044894 -0.061448 0.014747 -0.005242 0.02121 -0.069617
-0.022472 -0.0286 0.014651 0.037713 0.053146 0.080121 -0.093468 -0.250423 0.060869 -0.018404 0.192859 0.071127 -0.034619 0.120386 0.06543 -0.038705 -0.125265 -0.166616 0.026529 0.069964 -0.010113 0.047386 -0.105185 0.198162 0.105395 0.097151 0.118624 -0.100568 0.194718 0.16027 0.025583 -0.178672 -0.005309 -0.095614 0.112059 0.055169 0.103159 -0.104924 0.078805 0.116019 0.030468 -0.175176 -0.13289 0.10757 -0.15683 -0.049192 0.003908 0.191115 -0.135681 -0.02097 -0.011078 -0.097853 -0.009189 0.014958 0.104894 -0.038316 -0.070534 0.121314 0.178612 -0.052544 0.100195 0.127438 -0.089321 -0.009738 0.021255 0.030159 0.064451 0.063533 -0.16463 0.259147 0.058314 -0.092746 0.030844 -0.04324 0.101487 0.007273 -0.244303 0.100858 0.069425 -0.022574 -0.165127 0.008106 -0.238021 -0.217159 -0.039656 0.097376 -0.038173 -0.06334 0.028843 0.050891 0.004594 -0.251316 -0.050187 0.12119 -0.120483 0.042783 0.011264 -0.08886 0.109574 -0.057601
2.082039 0.336366 -0.935759 1.511715 -3.560424 -1.928395 -0.911915 -1.085328 -1.256373 0.828435 -1.449189 0.830347 3.442916 1.790874 -0.795908 0.249226 -1.530745 -0.635556 -1.441355 0.696001 -1.140813 2.05411 0.814944 0.836391 -1.047091 -0.889873 3.043443 -1.069069 -0.899694 0.721261 2.050779 -3.380024 0.1115 -1.253804 -2.627244 -0.738129 -1.483601 -2.160747 -3.339145 -0.071523 -1.30318 -1.329457 1.06052 0.453372 1.154068 0.100435 -2.694531 1.675936 0.774536 -0.092699 -0.812041 -0.280022 0.540321 -1.072 0.076079 2.162178 -1.843101 -3.528751 -0.2769 -0.121911 -2.462143 -1.574445 0.452342 -0.434565 0.591436 -2.196673 1.253671 -3.489306 0.254867 0.607124 4.850824 -2.454176 -1.448066 3.273839 1.188581 0.926558 2.282821 1.441728 1.200107 2.581533 1.824633 0.458611 -2.129844 0.248367 1.412666 0.895334 -0.173264 1.487316 -0.204748 2.015196 0.763463 1.086268 -4.820467 0.906443 -0.025663 1.331479 -0.281809 1.843237 -1.288186 0.45067
0.005727 0.024875 -0.03211 -0.014352 0.087566 0.025791 -0.0576 0.071649 -0.146391 0.033925 0.178542 0.104497 0.01205 0.162628 -0.102663 0.156289 0.175853 0.022571 -0.014516 -0.064931 -0.143594 0.11287 0.203688 -0.015318 0.010606 -0.019756 0.016361 0.142799 0.038384 -0.096013 -0.020147 -0.005624 -0.077409 -0.136004 0.021291 -0.080188 -0.047848 -0.052591 -0.008377 -0.20991 0.034855 -0.139408 0.120732 0.087282 0.171771 -0.057156 -0.138011 -0.022773 -0.078898 -0.091263 -0.090599 -0.131681 0.016857 0.056799 -0.031713 -0.118186 0.097133 -0.095688 -0.01253 -0.071959 -0.053595 -0.090943 -0.156421 -0.037279 0.056075 -0.074774 -0.004386 -0.179982 0.056285 -0.04857 0.041173 -0.003324 -0.01983 0.04633 0.007082 -0.018687 -0.132614 -0.001865 0.125883 -0.054192 -0.00151 -0.021273 -0.111373 0.148415 0.083756 0.03832 -0.014445 -0.112029 -0.165936 -0.006342 -0.031237 -0.005023 -0.037118 0.05475 -0.056123 0.014665 -0.027899 0.127032 -0.092186 -0.177427
0.090592 -0.083604 0.024649 0.133682 -0.088965 -0.024589 0.063804 -0.050051 0.045123 -0.066043 0.090645 0.029783 0.023505 0.04618 0.09618 0.182095 -0.019903 0.01327 0.091002 0.01352 -0.17043 -0.058674 0.133109 0.085692 -0.209853 -0.152758 -0.067309 0.038909 0.021296 0.003607 -0.038638 -0.066564 -0.144532 0.026055 0.054866 -0.189371 0.175461 -0.094739 -0.0401 0.114581 -0.019227 0.089445 0.08929 0.143019 -0.130988 0.066257 -0.042065 0.084997 -0.026535 0.063992 -0.025873 -0.047241 -0.134722 0.050746 -0.0619 -0.036903 0.110423 0.06198 0.029813 -0.170762 0.097651 -0.056537 0.016299 -0.156251 -0.229159 0.071877 0.027617 0.035416 0.152834 -0.126798 -0.099113 -0.100261 0.029015 0.166221 0.115961 -0.012504 -0.098568 -0.052666 -0.040827 -0.144332 0.025598 0.037255 0.027463 0.002493 -0.051618 0.035101 -0.018394 0.103613 0.211118 0.063924 -0.141035 -0.169562 -0.052069 0.252574 -0.081469 -0.084071 0.059319 0.094186 -0.060524 0.039293
4.576825 1.829772 -2.921497 0.35633 -2.96301 -2.262088 0.312889 -1.614879 -1.098961 0.362014 -0.625678 0.349944 2.791968 2.431569 1.014511 1.251372 -0.60646 -0.15469 -0.537582 2.853085 -0.078045 0.434491 -1.24517 -2.117113 -0.464771 -1.247461 -1.642884 -0.476422 -2.717773 2.011859 3.133013 -1.975354 0.017981 -1.296624 -4.494658 -1.368734 -1.708212 -0.340824 2.043243 0.576402 -2.100339 -1.013339 0.323114 1.081909 -1.026444 -4.137285 -0.678499 -0.760245 1.627034 1.929081 -2.817467 -3.461468 2.825439 4.021184 -0.260423 -0.384818 2.966753 0.032952 -0.055288 0.906798 1.622791 1.017857 -1.817255 -0.079658 1.644132 0.288531 2.037838 -0.974517 -0.403529 2.447022 3.058547 2.120925 -0.537942 0.936158 -0.593324 -1.081755 0.604481 1.271467 2.419385 3.674406 3.211711 -1.842987 -1.133937 -3.350729 -4.114371 2.734298 -0.223713 0.580741 1.349085 -0.592185 -0.027233 2.086853 -1.195834 -0.196174 -4.159688 -0.71735 -2.85489 -0.997014 -0.926882 1.084662
-0.287062 -0.884748 0.972012 -0.442799 0.034672 0.592954 -0.420078 -0.493554 0.080949 0.234445 0.06031 0.318648 -0.538925 -0.296985 0.171448 -0.162269 -0.160903 0.139368 0.180178 0.588139 0.12763 -0.516944 -0.643595 0.018772 -0.483579 -0.337369 0.52284 0.378391 0.550588 -0.848047 -0.529645 -0.029038 -0.323859 -0.027742 0.280784 -0.098178 0.939223 -0.095528 -1.174062 0.167987 0.422459 -0.015729 -0.163136 0.101952 0.371887 0.547943 -0.066491 0.331554 -0.50522 -0.331358 0.546063 -0.306752 -0.507532 -0.101305 0.16552 -0.181791 -0.224169 0.012703 -0.844297 0.506193 -0.23294 0.212779 0.080457 0.294041 -0.131369 -0.018523 -0.766224 0.324308 0.242656 0.366963 0.002432 -0.017047 -0.14268 -0.159364 -0.115369 0.29883 0.29244 0.139806 0.157503 -0.973809 0.416741 0.402674 0.41749 0.245907 0.19796 0.17054 0.379598 -0.82711 -0.06144 0.279768 0.537147 0.108058 -0.317443 0.263042 0.246333 -0.301692 -0.377087 0.384285 -0.301102 0.372596
-0.052946 -0.002335 -0.25818 -0.123329 0.045591 0.15536 0.367015 0.015597 -0.119155 0.017418 0.018511 0.138634 -0.060776 -0.004559 -0.192524 0.20866 0.05983 -0.092321 0.138927 -0.019236 -0.152498 -0.162159 -0.016595 -0.006471 -0.22679 -0.10749 -0.141192 -0.250028 0.052643 0.046959 -0.045516 0.024902 -0.049228 0.09669 0.013305 0.187122 0.118523 0.139798 0.066763 -0.139264 0.119082 0.072789 -0.035384 -0.182514 -0.036318 0.190386 -0.066147 -0.083892 -0.086178 0.26731 0.093035 0.153217 0.369133 -0.128121 0.173798 0.12763 -0.225369 -0.09792 0.024188 -0.077032 -0.007896 -0.093418 0.221741 0.013322 0.340326 0.035551 -0.159267 0.012716 0.119325 0.083955 0.010134 0.057152 0.07396 0.050272 -0.263191 0.130875 -0.092921 0.002303 0.108632 -0.294243 0.019439 -0.152031 0.133538 0.031938 -0.008199 -0.143283 -0.075024 0.068402 -0.180848 -0.047205 -0.229843 0.052124 0.235134 -0.213917 -0.075069 0.048355 -0.188057 0.054834 0.089076 -0.112866
0.0 0.0 0.0 0.0 0.0 0.0 0.0 0.0 0.0 0.0 0.0 0.0 0.0 0.0 0.0 0.0 0.0 0.0 0.0 0.0 0.0 0.0 0.0 0.0 0.0 0.0 0.0 0.0 0.0 0.0 0.0 0.0 0.0 0.0 0.0 0.0 0.0 0.0 0.0 0.0 0.0 0.0 0.0 0.0 0.0 0.0 0.0 0.0 0.0 0.0 0.0 0.0 0.0 0.0 0.0 0.0 0.0 0.0 0.0 0.0 0.0 0.0 0.0 0.0 0.0 0.0 0.0 0.0 0.0 0.0 0.0 0.0 0.0 0.0 0.0 0.0 0.0 0.0 0.0 0.0 0.0 0.0 0.0 0.0 0.0 0.0 0.0 0.0 0.0 0.0 0.0 0.0 0.0 0.0 0.0 0.0 0.0 0.0 0.0 0.0
-0.134579 -0.139974 0.013886 -0.069906 -0.102701 -0.080058 0.20992 0.044222 0.022884 0.141639 0.07783 0.07847 0.010654 0.108619 0.031618 0.158627 0.014888 0.027838 0.065534 -0.072797 0.034403 0.050657 0.128381 0.059882 0.0031 0.02256 -0.13872 0.046182 0.163069 -0.026036 -0.00829 0.083024 -0.102082 -0.041064 -0.102225 0.139514 -0.084642 0.112833 -0.079127 -0.017908 -0.083816 0.01254 -0.037633 -0.077424 -0.026789 0.076132 0.010153 2.97E-4 -0.115247 0.087333 0.167528 0.008065 0.01585 0.063771 0.218325 0.161432 -0.025117 -0.052279 0.135613 -0.052111 -0.140966 0.054997 0.071394 -0.06767 0.031518 0.046365 -0.032177 -0.046223 0.09832 -0.041825 -0.015908 0.062144 -0.041425 0.033421 0.058311 -0.046075 -0.008629 -0.10226 0.066735 0.036214 -0.028332 0.024337 0.121044 -0.013556 -0.08955 -0.054528 0.145136 0.147909 -0.036114 -0.007388 -0.090843 -0.102913 -0.101274 0.071491 -0.044156 0.081253 -0.043095 -0.059629 0.074339 -0.093616
-0.272266 0.051206 0.052835 -0.012651 -0.068231 -0.296381 0.016978 -0.078581 -0.080973 -0.027663 0.201273 -0.057816 0.032598 -0.193951 -0.194794 0.026566 0.064723 -0.144831 0.02746 -0.110459 0.073424 0.081397 0.043103 0.014546 -0.047584 0.263999 -0.012727 0.312527 0.145582 0.133169 -0.03769 0.050766 0.079929 0.094089 -0.022132 -0.245857 0.165754 0.011596 0.209334 0.052735 -0.058344 -0.19199 0.04047 0.067666 -0.111685 -0.108375 -0.159221 0.28299 -0.233948 0.100173 -0.215142 0.088658 -0.113033 -0.329971 -0.045867 -0.096112 0.043407 -0.105603 0.267399 0.010154 0.040399 0.222557 -0.039743 -0.042653 0.051513 0.048332 -0.119905 -0.03086 0.003751 -0.011742 0.066818 0.033137 -0.040596 0.049249 0.145987 -0.186871 0.106803 -0.092707 0.122789 0.152941 0.032845 0.10313 -0.226629 0.106892 0.006639 0.10414 0.094044 0.076637 -0.126351 0.033622 -0.162763 -0.10691 -0.079326 0.050875 0.089033 -8.2E-4 -0.074968 -0.066933 -0.141017 -0.016638
0.142855 2.096782 -0.44488 -0.186519 4.581101 0.368552 1.025096 -0.312802 -2.617651 -0.157005 2.963322 2.120705 -1.775955 -0.565663 0.972057 2.924774 -3.483148 -0.388176 -2.731071 -0.326463 1.005034 -0.173592 0.985748 -2.472826 -0.247049 -1.602126 -2.48254 -0.015307 0.921201 -0.634243 -0.734395 -4.469334 -2.338912 -3.86095 -2.404253 -1.170435 3.191081 0.66076 0.725646 -0.864367 -2.371157 -0.851367 -3.29822 -1.074393 -2.64488 2.784424 -0.996674 2.506345 2.15789 -2.159862 -0.441733 -0.926918 -0.098512 0.757891 -1.999629 -4.007104 0.387073 -3.003765 1.204233 -2.431844 -2.281004 -0.27222 1.915759 2.567541 -2.305997 0.668549 -1.469449 -4.443738 -0.244681 3.958085 3.663286 2.390184 0.145926 -1.914193 1.202993 0.085106 1.119028 1.764289 0.413107 1.270882 2.30135 -2.063297 -0.209725 -0.837978 1.54811 -1.075222 1.662849 3.024555 -0.817108 2.02425 0.827332 0.999754 -2.964958 -4.68355 2.112919 1.12159 -1.379614 1.011169 -1.034187 2.880255
3.229447 1.832686 -0.196265 -0.303454 -0.824437 2.082854 1.150219 -0.493805 -3.50143 -0.594107 2.103319 2.396154 1.056781 -0.578498 -1.172209 3.210305 -0.978008 -1.908997 -0.472705 -1.788789 -2.346806 -2.098664 -0.288581 -2.078696 0.41261 0.520842 -1.276654 0.578767 1.70845 -0.136278 -1.41294 0.371846 1.173228 1.232021 0.598135 -3.597398 4.723318 -0.907374 3.160397 -2.027976 1.188048 -5.433854 0.01906 -0.240727 2.932695 1.836205 0.69537 0.647449 5.328198 0.625981 0.041762 2.070653 0.300511 1.656161 -2.571092 0.908767 3.294905 2.941907 -1.065341 -2.086696 -0.817265 -1.894089 0.299235 -1.879644 0.485823 1.848637 -0.344618 -2.532108 2.074767 0.482597 3.034693 1.42216 0.457834 2.431775 -0.318071 1.666885 -1.364005 1.576786 -1.71492 -0.790398 2.548478 -2.38312 -0.502643 1.256626 0.730181 1.714355 1.091085 4.672542 0.202716 -0.959086 0.774024 -2.161259 -1.810393 -2.763748 0.167227 4.207294 2.675714 0.636561 -0.117425 -0.284099
-0.045083 -0.19687 -0.06 0.003559 0.033509 0.141955 -0.139007 -0.206977 -0.226579 0.166602 0.019783 0.008107 0.076507 -0.155864 0.060798 0.265573 0.058668 0.07552 0.102978 0.097348 -0.088562 0.114029 0.114109 -0.060764 0.004652 -0.135875 0.004874 -0.161096 0.102211 -0.057811 -0.121829 -0.103973 -0.169059 0.127805 -0.111264 -0.086279 0.008203 -0.213774 0.102711 0.051415 -0.012953 0.289777 0.011086 0.102717 -0.024242 -0.044806 -0.091976 0.05822 -0.009229 0.02277 0.026414 -0.138618 0.108455 0.060915 0.124607 0.097188 0.264609 0.189498 0.04821 -0.18664 0.053928 -0.301882 -0.024624 -0.199058 0.074888 0.039696 0.116723 0.176903 -0.031482 -0.206083 -0.173768 -0.0644 -0.099043 -0.061583 0.048885 0.157453 0.058047 0.035995 -0.1319 -0.030059 -0.018018 0.187598 -0.12108 -0.022437 -0.066318 -0.064275 0.007456 -0.082184 0.042442 0.045903 -0.196162 0.138957 -0.147727 0.069251 -0.005298 -0.10725 -0.128268 -0.315066 -0.126738 -0.294103
-0.072507 -0.063385 0.074991 -0.018484 -0.085031 -0.025035 -0.14301 -0.132166 0.016351 -0.097177 0.017348 0.211578 0.191063 -0.01139 0.032681 0.07383 0.061179 0.221407 0.067962 -0.019081 -0.144218 0.111819 0.339002 0.03881 -0.149478 -0.129965 0.099061 -0.01384 0.213757 0.018264 -0.0079 0.109834 0.097 0.021909 -0.186111 -0.019673 0.016087 -0.09534 -0.026016 -0.012939 0.01474 -0.011651 -6.5E-4 -0.043214 0.121467 -0.221004 -0.019398 0.060966 -0.125314 0.002736 0.041377 -0.100125 2.61E-4 0.110774 0.156071 -0.001921 -6.59E-4 0.046207 -0.038602 -0.010356 -0.058631 -0.049993 -0.04393 -0.202394 0.021955 -0.108381 -0.024842 -0.118521 0.112722 -0.161796 0.024422 0.074117 -0.120381 -0.218584 0.008452 0.113747 -0.114344 0.021317 -0.054289 0.07783 0.009452 0.056524 0.027897 -0.080562 0.017382 -0.083507 0.156726 0.114527 0.124751 0.115333 -0.22652 0.11307 -0.009267 0.092876 -0.076771 -0.129415 -0.037666 -0.159096 -0.093727 0.084447
-0.019201 0.028111 0.019217 0.052324 -0.012545 0.076041 0.041859 0.132425 -0.042682 -0.25324 0.153679 -0.052639 -0.234426 0.154245 0.001178 0.07083 0.073083 0.160228 0.024133 -0.054811 0.001969 0.005439 0.181016 0.099355 -0.126409 -0.051701 0.037309 -0.123638 0.247936 -0.162055 0.114555 0.125901 0.087982 0.08593 -0.090916 0.032607 0.058566 -0.084423 -0.083684 -0.120125 -0.142636 -0.134573 0.099572 -0.067549 0.144656 -0.140025 -0.119758 0.069446 0.087216 -0.032862 -0.006618 -0.111395 0.032981 -0.031112 -0.118341 0.110071 -0.111936 0.153878 0.041608 0.007703 0.064796 -0.130385 0.030277 0.045725 -0.1256 0.149386 -0.11782 -0.166733 0.122695 0.114102 -0.065025 -0.01284 -0.004014 -0.036946 -0.052576 0.183617 0.039352 -0.109896 0.002856 -0.049741 0.098582 -0.079185 0.058208 -0.092538 -0.020486 -0.024785 0.136707 0.03449 -0.090652 0.201497 -0.097455 0.025029 -0.120762 -0.013839 -0.051103 -0.067125 -0.00444 -0.252706 0.02388 -0.108891
-2.648351 -0.794316 -2.108887 0.20446 0.883061 0.242784 1.848653 1.149137 -4.975573 0.237654 -1.499665 2.924494 0.344217 -1.640431 0.763777 0.138944 -3.029439 -2.813434 -0.761102 -1.057557 -1.373735 -0.870599 1.234095 0.127805 -1.372618 1.35802 -1.501738 0.80945 0.172993 -0.484995 1.783363 -0.047587 0.483285 -1.526831 2.103549 2.116639 4.583491 -4.022388 -0.843817 0.361243 -0.546655 -2.301259 -2.000973 2.64631 -1.604053 -1.914206 -1.581895 -0.464185 1.757769 1.056301 0.263866 -0.904419 -0.422466 0.007824 -1.651553 0.7499 1.638666 -0.336108 -3.288466 -2.953238 -1.135414 1.165223 -1.047256 -0.821696 -0.135806 0.434207 -2.389307 -3.56953 -0.656773 0.578325 3.337902 0.782195 -1.250815 2.925509 -1.981492 0.121786 0.836257 1.710923 -2.640405 -0.628995 0.247469 0.863847 1.749171 -0.214156 -0.274807 2.192709 -0.892334 -1.614644 -1.225919 -0.042182 2.51632 3.464583 -3.591523 -2.506587 0.990426 1.8843 -2.460629 0.953462 0.359605 2.267383
1.939635 1.52901 1.289587 3.251535 -1.724015 -0.88548 -1.305419 2.302571 -1.417341 -1.68966 -0.63789 2.076267 -3.058223 1.539613 1.180597 0.029053 -0.321402 -2.23572 -2.38652 1.658533 -1.245721 -0.526509 -3.599429 0.754249 -0.80274 0.507379 -2.39552 1.105986 -0.056637 -0.438303 1.940801 -2.557426 0.985315 3.029874 0.213126 0.861485 3.121805 0.640059 -0.820139 -2.40745 -0.196076 -4.070904 0.803788 0.627065 2.287266 2.341116 0.489852 -1.57276 1.345608 0.42161 3.228641 4.822541 2.307207 0.997003 -2.753309 0.364194 3.286885 -0.854741 -0.545387 -4.263543 -0.321177 2.708668 -5.839749 -0.190246 1.192365 1.834868 0.85099 3.023894 0.019983 -0.356687 2.290085 -1.712409 1.283075 5.053623 2.119578 0.310527 -1.882558 -2.366862 0.130671 -0.478639 1.414622 1.526558 0.318589 2.752702 0.046978 -1.332104 0.951956 1.81757 -0.872666 2.804518 -1.758129 0.070445 -0.158419 -4.010314 -0.794193 0.288862 -0.172084 0.635215 -0.313457 -0.581935
-0.042523 0.024749 6.91E-4 -0.26575 0.008355 0.028194 -0.020424 -0.136087 -0.025558 0.105787 -0.001496 0.14697 -0.179981 -0.085913 0.440997 0.018978 -0.055112 0.124878 0.07273 0.152022 -0.146047 0.091255 0.108754 0.013896 -0.089811 -0.088669 0.065202 -0.095467 0.023064 -0.042442 0.132386 -0.041716 0.061944 0.094728 -0.129591 -0.171022 0.050154 -0.038871 -0.033825 0.065327 -0.017908 -0.027786 0.052224 0.021003 -0.057085 -0.119798 0.137171 -0.091169 0.002676 0.07286 8.32E-4 -0.068731 0.165598 -0.095077 -0.038189 0.054869 0.026498 0.014497 -0.071139 -0.127599 0.016509 0.057653 -0.152475 -0.078893 -0.120135 -0.122344 0.040005 -0.083366 -0.101545 -0.00861 -0.088042 -0.033089 0.12272 0.035467 0.066741 -0.11193 -0.179774 0.037721 0.049228 -0.077146 -0.00175 -0.060322 0.18986 -0.08436 -0.116085 -0.002837 7.39E-4 0.076268 0.020747 0.013695 -0.069687 -0.040999 -0.030926 0.076269 0.032407 -0.015299 0.001412 -0.169807 0.075407 0.069591
-0.094013 -0.123574 -0.130657 0.026955 -0.063462 -0.134241 -0.179834 -0.048204 -0.15823 -0.004616 0.170288 0.067191 0.00723 0.026208 0.106987 0.259395 0.004772 0.107511 0.207329 0.094296 -0.057599 0.030485 0.197108 0.019946 -0.176794 -0.059378 0.188442 0.185238 0.182696 -0.069471 -0.226518 -0.232284 -0.092909 0.24658 -0.14541 -0.054422 0.094156 -0.167811 -0.039106 0.005765 -0.090352 -0.030164 0.138588 0.027752 -0.096 -0.065579 -0.127338 -0.138715 -0.032253 -0.069995 0.002424 -0.037564 -0.063076 0.050825 0.221686 -0.130653 -0.080409 -0.075172 0.083342 0.004109 -0.025205 -0.037827 -0.066623 -0.022887 0.007148 0.025956 -0.054166 0.14222 0.093247 0.040082 0.019397 0.160142 0.096716 -0.080604 0.07521 0.116127 -0.032074 -0.172387 0.007845 -0.112967 0.083154 -0.133491 0.11355 -0.118862 -0.089729 -0.092753 0.016256 0.137472 0.023952 0.071323 -0.279127 -6.33E-4 -0.052398 0.100991 0.01871 -0.001998 -0.158169 -0.005629 0.019939 -0.094406
0.343438 0.229527 -1.694119 1.130874 2.191538 0.535544 -0.532862 0.57552 -1.733407 1.103 0.880196 1.472585 -0.609341 -0.448605 -0.739255 1.891 -1.929479 -2.688603 0.228509 -1.812764 -1.317513 0.71045 1.318161 1.413847 0.033874 0.120829 0.62379 3.001002 0.456124 -1.258147 -1.410466 0.134196 0.980516 0.704821 -1.325765 -1.139943 2.370865 -1.116757 1.313574 -1.332694 -2.56652 -3.707061 0.240385 0.371504 -1.363723 1.276897 -1.082878 -1.891862 0.660764 -0.660147 1.383951 -0.585535 -1.417497 1.769495 -0.706042 1.42796 -0.307258 0.354226 -1.279261 -3.181787 -0.267638 0.150519 -0.15729 -2.594746 -2.232076 1.140833 -1.017786 -2.195866 -1.135092 1.974684 3.359118 -0.013495 0.637055 0.62696 1.486446 -0.239905 1.497714 1.511991 -0.169367 -0.506105 0.573118 -0.656714 -0.410501 0.469186 -0.629195 1.316862 0.098456 -1.150134 0.457543 3.469013 0.964341 -0.239708 -2.871351 -3.81722 1.624714 2.347626 0.527425 0.120594 -0.116767 0.903178
-0.099779 -0.088851 -0.036921 0.088425 -0.040922 0.072369 -0.154586 0.011688 -0.007618 0.076278 0.089523 0.224786 0.062236 -0.233317 0.06423 0.133326 -0.132016 0.100983 -0.096608 0.02889 -0.116602 0.025416 0.115793 0.091144 -0.181606 0.01795 -0.140598 -0.079933 0.06915 -0.108515 0.060402 0.033142 -0.039611 0.073342 -0.337017 -0.119071 0.154116 0.004965 0.122293 -0.024123 -0.094374 0.202871 0.064663 -0.093456 -0.016288 -0.107149 -0.02292 -0.015554 -0.210102 0.17543 0.117124 -0.187922 0.003764 0.002373 0.07756 -0.167652 0.007686 -0.033869 0.020928 -0.055266 0.082302 -0.15228 0.001255 -0.170724 0.066994 0.10561 0.053247 0.006181 0.130398 -0.056247 0.049538 0.055487 0.010175 0.04748 0.065952 -0.050069 -0.103701 -0.065108 -0.023664 -0.057811 -0.024543 0.009046 0.093955 -0.110368 -0.096206 -0.04799 0.09091 0.135345 0.033909 0.149976 -0.22925 0.022657 -0.119194 0.012082 -0.17202 0.012624 0.055093 0.005004 -0.105271 -0.143153
2.082039 0.336366 -0.935759 1.511715 -3.560424 -1.928395 -0.911915 -1.085328 -1.256373 0.828435 -1.449189 0.830347 3.442916 1.790874 -0.795908 0.249226 -1.530745 -0.635556 -1.441355 0.696001 -1.140813 2.05411 0.814944 0.836391 -1.047091 -0.889873 3.043443 -1.069069 -0.899694 0.721261 2.050779 -3.380024 0.1115 -1.253804 -2.627244 -0.738129 -1.483601 -2.160747 -3.339145 -0.071523 -1.30318 -1.329457 1.06052 0.453372 1.154068 0.100435 -2.694531 1.675936 0.774536 -0.092699 -0.812041 -0.280022 0.540321 -1.072 0.076079 2.162178 -1.843101 -3.528751 -0.2769 -0.121911 -2.462143 -1.574445 0.452342 -0.434565 0.591436 -2.196673 1.253671 -3.489306 0.254867 0.607124 4.850824 -2.454176 -1.448066 3.273839 1.188581 0.926558 2.282821 1.441728 1.200107 2.581533 1.824633 0.458611 -2.129844 0.248367 1.412666 0.895334 -0.173264 1.487316 -0.204748 2.015196 0.763463 1.086268 -4.820467 0.906443 -0.025663 1.331479 -0.281809 1.843237 -1.288186 0.45067
0.009227 -0.172944 -0.110714 -0.122991 -0.079308 -0.003994 0.087829 -0.009287 0.071133 0.074024 0.052632 -0.031198 0.189331 0.182894 0.127031 0.120079 0.060036 -0.11758 -0.237249 0.119037 0.071619 -0.187774 -0.109013 -0.310178 0.180406 -0.030039 -0.037164 0.008089 -0.230848 -0.066024 0.048788 -0.25212 0.115317 0.21656 0.191906 0.216025 -0.090478 -0.153466 0.279973 0.013814 0.010501 0.10408 -0.045189 -0.087049 0.20429 0.056843 -0.06418 0.087114 0.02615 0.005961 0.223878 -0.141851 -0.049618 0.022914 -0.049342 0.008602 0.006458 0.085943 -0.016615 0.067407 0.005867 0.210092 0.121864 -0.091883 0.029728 0.111292 0.093481 -0.125033 0.235134 0.093804 0.053473 -0.053123 -0.27295 -0.014556 -0.18318 0.130678 0.138372 -0.037391 0.192998 -0.15137 -0.009232 -0.230904 -0.113083 0.08149 -0.36455 -0.097502 -0.071542 -0.013309 -0.186465 -0.129828 0.048809 0.211542 -0.063621 0.019163 -0.122877 0.346512 -0.059225 -0.037686 -0.058462 0.106827
-0.185567 -0.026862 0.155619 0.012404 -0.110648 -0.059643 -0.071794 -0.043277 0.071991 0.125523 0.026112 0.176507 0.01313 -0.029823 0.155243 0.136668 -0.018089 0.186859 -0.016225 -0.076514 -0.126394 0.22325 0.08143 0.198264 -0.088305 -0.194101 -0.220469 -0.053674 0.152264 -0.18834 0.015363 0.078745 -0.125315 0.038039 -0.117079 0.016553 -0.085872 0.019918 -0.16402 0.02559 -0.094342 0.116436 0.024648 0.067008 0.010948 -0.061467 -0.094763 0.071683 -0.132756 0.012427 0.069775 -0.009616 0.115073 0.065085 0.148129 -0.062992 -0.122733 -0.029636 0.078181 -0.132689 0.159882 -0.073453 0.046588 -0.124103 -0.328037 -0.112225 -0.039829 0.070565 -0.043564 -0.271609 -0.145568 0.069647 -0.079351 -0.019322 0.042588 0.021953 0.013866 0.02942 -0.084713 -0.116654 -0.01491 -0.044328 0.02998 0.045963 -0.003089 -0.188915 -0.058901 0.02326 0.130464 -0.015168 -0.143752 -0.031726 0.127776 0.056271 -0.019774 -0.085377 0.192722 -0.161715 0.041601 -0.078696
-0.015368 -0.084884 -0.118949 0.098761 -0.073406 -0.102981 -0.040422 -0.127286 -0.06107 -0.06769 -1.07E-4 0.050685 -0.034454 -0.159516 0.097998 0.034498 -0.072975 -0.023375 0.161727 -0.17932 -0.156013 -0.093205 -7.33E-4 -0.021695 0.169855 0.110166 -0.061827 -0.189392 0.048917 -0.137388 -0.057407 0.022426 -0.14276 0.002763 0.10253 -0.024346 -0.014652 0.104367 0.060395 0.172397 -0.145654 -0.027961 0.07461 0.104792 -0.143869 0.07617 -0.031448 0.20794 -0.071059 -0.170332 -0.03543 -0.107389 -0.097634 0.113057 0.10461 0.004904 -0.086427 -0.046017 0.058109 -0.117567 0.131111 -0.024096 0.085458 -0.030959 -0.129505 0.050855 0.033546 0.025787 0.028697 -0.069944 -0.00865 -0.058922 0.06116 0.021335 0.099153 -0.142818 -0.262644 -0.045643 0.10316 -0.168499 0.064941 0.004702 -0.08728 0.020131 -0.015549 0.084014 0.094643 -0.060598 0.038423 -0.032033 0.027827 0.031413 0.079993 -0.139617 -0.017276 -0.062342 0.021206 -0.058065 0.201677 0.096193
0.024378 -0.116139 0.180639 0.111395 0.030568 -0.071668 -0.121108 -0.109806 -0.091698 0.013018 0.08259 0.069038 -0.061427 0.004082 0.229398 0.047504 0.066332 -0.026818 0.02069 0.023222 -0.024814 0.084488 0.163639 0.026093 -0.167495 -0.080491 0.015155 0.002639 0.149547 -0.107706 -0.032128 0.017933 0.035418 0.02069 0.071325 -0.134884 -0.023948 0.019409 -0.045767 0.036389 0.01007 -0.18179 0.153652 0.026089 -0.154465 -0.04553 -0.142306 0.003931 -0.113083 0.004437 0.142883 -0.219551 -0.115541 -0.039264 0.151018 0.201031 -0.024747 -0.016886 -0.027411 -0.073582 0.10617 -0.086841 -0.04312 0.003789 -0.024946 0.136003 0.096762 -0.080263 0.012766 -0.01203 0.076892 -0.020938 -0.04654 0.044006 0.078363 -0.05006 -0.068905 -0.123399 -0.034683 -0.051999 0.022561 -0.158305 0.056823 0.044635 0.08235 0.268783 0.147618 -0.026452 0.059026 0.082304 0.068505 -0.104877 -0.124045 0.110571 0.004564 -0.087215 -0.038814 -0.270774 -0.070765 0.099681
0.159269 -0.134179 -0.015055 0.217463 -0.08043 -0.039072 -0.099856 0.128249 -0.090292 0.129741 -0.027652 0.132589 -0.033553 0.157472 0.095135 0.078756 -0.033924 0.05137 0.036379 0.091179 -0.137569 -0.089971 0.189705 0.135017 0.031774 -0.166543 -0.221011 0.143586 0.214029 -0.067267 -0.115184 -0.11052 0.148247 0.213308 -0.037198 -0.041817 0.059129 -0.042213 -0.038195 -0.053242 -0.057164 0.042912 0.085721 0.064144 0.128709 0.0118 0.013663 0.081525 -0.201103 0.041771 0.151609 -0.070278 -0.025107 -0.041244 0.309778 0.038839 -0.007528 -0.106713 0.036854 -0.068467 -0.064923 -0.082905 -0.095898 -0.134545 -0.050026 0.059854 0.049766 -0.065217 0.054228 0.080969 0.111417 0.163221 0.035053 -0.011219 0.102275 -0.152725 -0.128818 -0.057271 -0.064544 -0.051895 0.046619 0.185422 0.139478 0.032972 0.148382 0.067372 0.144107 0.057219 0.024979 0.139541 0.040123 -0.043543 0.071814 0.153146 -0.037474 0.084312 -0.133978 0.158782 -0.09893 -0.02452
0.038879 -0.189124 -0.004296 -0.071356 0.059909 0.019719 -0.084446 -0.086602 -0.091351 0.27392 0.268827 0.197099 -0.061725 -0.099979 0.032393 0.122435 -0.026355 0.205966 0.127768 -0.040536 -0.247468 0.126229 0.225568 -0.004792 -0.189948 -0.049082 0.006028 -0.032572 0.206358 -0.159202 -0.170065 -1.47E-4 -0.016746 0.021821 -0.230161 -0.051813 -0.022108 -0.130553 0.098463 -0.061701 -0.167863 0.153139 0.091029 -0.036506 0.184478 -0.114265 0.043978 -0.088294 -0.114218 0.037599 -0.036793 -0.21311 0.05194 0.122841 0.045239 -0.032822 0.137219 -0.044966 0.098979 -0.042508 -0.060284 -0.063579 0.065456 -0.199353 -0.064369 -0.036195 0.043013 -0.033746 0.272411 -0.183746 -0.038987 0.042465 0.022818 -0.028009 0.001901 -0.101135 -0.276581 0.062028 -0.105651 -0.018709 -0.056702 0.278082 0.156567 -0.267429 -0.119503 0.077102 0.06595 0.048358 0.089367 0.133218 -0.277736 -0.086071 0.029656 0.123684 -0.079591 -0.206988 -0.007119 0.087389 -0.06197 0.004951
-0.020892 -0.118995 0.162166 0.122723 0.280551 0.110134 -0.170222 -0.094985 0.022663 -0.096152 0.256238 -0.100829 -0.080812 0.117885 0.071203 0.073747 -0.283052 -0.00865 0.053285 -0.06135 -0.20049 0.113432 0.184392 0.098893 -0.302982 -0.092137 -0.052162 -0.023556 0.127995 -0.164167 -0.093513 -0.20606 -0.112134 0.15593 -0.102057 -0.290756 0.094313 -0.190004 0.126246 0.124971 -0.067207 -0.022883 0.192596 -0.017167 -0.098132 -0.002793 0.073871 0.015025 0.144251 0.159564 0.152852 0.142563 -0.127496 0.218968 -0.01863 0.108195 -0.06489 0.056022 0.330959 -0.233376 0.163535 0.057803 -0.20535 -0.22593 -0.210829 0.059133 0.062431 -0.070913 -0.219805 -0.068653 -0.086861 0.008006 0.08474 0.025432 0.120814 0.095618 -0.093603 0.083745 -0.08213 -0.029395 0.019301 0.048208 -0.091801 -0.138467 0.030923 0.071388 -0.098868 0.17327 0.148358 0.232573 -0.143218 -0.030999 -0.127425 0.038931 -0.186786 -0.121369 0.048425 -0.0115 -0.055581 -0.050098
-0.068454 -0.122863 0.134262 0.083716 -0.146457 -0.05854 -0.046249 0.145899 -0.070309 0.010732 0.090118 0.029646 -0.134044 0.011502 0.13797 0.056779 -0.07073 0.176961 0.006425 -0.153893 -0.009753 0.0856 0.130737 0.060926 -0.08509 -0.0078 0.032945 0.025603 0.032755 -0.111281 4.93E-4 -0.017962 0.032708 0.128146 -0.085697 0.05081 0.0276 0.03696 0.01402 0.060028 -0.124086 0.028109 -0.015197 0.122354 0.089105 -0.142934 -0.046646 -0.03136 -0.088624 -0.018623 0.176395 0.059223 -0.037748 0.092775 0.211408 -0.085361 -0.007459 -0.099707 -0.09085 0.010112 0.047779 -0.174533 -0.067544 -0.18185 0.006312 -0.081968 0.046034 -0.073605 -0.048238 -0.084453 0.091696 0.038272 0.057807 0.027356 0.14928 -0.024513 -0.009631 -0.031003 -0.064339 0.046794 -0.17687 0.056175 -0.018763 -0.084626 0.021903 -0.031887 -0.026426 -0.017246 0.052909 -0.04163 -0.017914 -0.010917 -0.015599 0.164133 -0.056038 -0.053381 0.088108 0.022985 -0.007861 -0.03771
0.152732 -3.090123 -2.985273 2.591907 -0.950336 1.216059 -3.310944 1.244641 -0.887699 -1.329904 -0.070582 -0.588304 -2.282684 -1.448771 -0.322046 -0.350312 -1.527455 2.922333 0.864858 -1.314574 -0.046269 -0.264553 -1.297822 1.428307 3.54187 5.041806 -0.66987 2.353712 0.502372 0.637027 3.144169 -1.737297 -1.745287 1.093126 -2.546731 3.214225 -1.966774 2.875049 0.744619 1.250651 1.085015 -1.246357 -1.560468 -1.063055 -5.199481 -0.317703 0.410666 -0.899129 1.941621 0.37601 -2.969797 2.238695 -0.782878 -1.420851 1.16488 -2.84357 6.56557 -0.941069 5.204998 -2.207139 0.534301 -2.375232 1.356342 0.770274 -3.100297 0.528973 -0.827319 3.084889 -2.825361 -2.326455 4.467471 -2.625942 1.903513 -1.335464 -1.583931 2.391197 -0.506277 -1.660942 1.310751 0.91658 0.174102 1.231712 2.591623 -3.074739 1.841789 1.557231 -1.980873 -1.067994 -2.260208 2.450706 0.22561 0.803793 2.872474 0.418335 -2.029557 -0.985556 0.371304 1.495317 -0.874735 -1.278548
2.591633 1.608701 -2.087245 2.00752 3.012652 4.995656 0.847355 -1.594905 -0.365708 -1.629805 -1.650237 3.712017 -0.231463 -0.537534 -2.036098 2.002639 -0.696666 -4.310136 -1.477319 -1.356504 -0.581823 -1.830239 -0.272773 -1.648095 0.090509 0.008711 0.330842 0.396714 2.341035 -0.526067 1.155793 -1.730906 -1.010387 -1.342646 -1.939355 0.734869 0.727366 0.700702 1.516974 -2.133831 -0.280653 -3.051674 0.017123 0.532043 1.478449 0.375441 0.920129 1.548929 1.087478 0.668327 0.707416 3.249232 -0.362503 1.273221 -2.929682 -0.245389 1.633444 -0.119836 0.103459 -3.445175 0.513245 0.427807 0.738792 1.448203 0.501908 0.362882 -0.731533 -0.391201 0.037778 3.053553 4.030229 1.793904 1.24136 0.081706 -1.401954 -0.638804 -0.487445 -0.267924 0.012844 0.538179 -0.241935 -0.068756 1.351665 -0.112558 0.001814 0.447262 0.833441 -0.023876 1.212707 1.514635 -0.568611 0.376173 -3.663739 -4.345135 -0.444319 2.139788 -2.53093 0.92131 -1.399435 1.763954
1.697978 -0.541756 1.000827 1.497299 0.21152 -0.720629 0.636156 1.404152 -1.943481 1.039494 3.854969 -1.419001 -1.626855 1.487461 0.306945 0.404537 -0.345599 1.301402 -2.35213 1.533491 -0.16587 3.016178 0.447171 -1.168907 0.775755 0.73628 1.138247 0.468025 -1.811934 -1.841986 1.951343 0.777968 -1.245289 -2.918071 -0.644589 -0.215324 2.63703 -2.038071 -1.7692 -0.19265 0.361052 -3.908541 1.072945 -0.903911 -0.197815 -0.897327 -2.303197 -2.621002 -0.028051 0.412981 2.264751 1.089414 0.554779 -0.925928 -1.385304 0.421328 1.296736 -1.452534 -1.225692 -0.121333 -0.442573 1.700953 -0.969112 -2.619009 -0.736166 -0.961008 -2.273909 -0.437368 -0.354784 1.796732 1.685943 1.018739 1.426713 3.100723 1.371784 -1.549639 -1.389867 -0.650046 -1.234785 -0.908496 1.249361 0.761093 -2.39465 0.790437 -1.031642 -2.322711 0.771145 0.720654 0.197743 0.866024 0.965077 1.50055 0.748622 -1.686628 0.181969 1.38998 0.955342 -0.342761 0.389652 -0.449624
0.96685 0.425693 -0.98627 0.432219 0.708144 1.593974 0.650189 0.335185 -0.691923 -0.277257 0.229717 0.626344 -0.831943 0.366977 -0.245326 0.786647 -0.193855 -0.959354 -0.087195 0.69539 0.163681 -0.1215 1.932513 0.306063 0.3771 0.396139 0.202232 0.314587 1.104956 -1.116386 -0.667083 0.171244 -0.078923 -0.047359 -0.662832 -0.777172 -0.537078 -0.798747 -0.216685 -0.802715 0.446069 -1.319187 0.220742 0.272238 0.607873 0.138396 -0.71329 -1.49365 0.501621 0.336275 0.460108 -0.999786 0.795552 -0.235812 0.118508 1.173849 -1.113704 -0.390601 0.166703 -0.56619 -0.612782 -0.722699 -0.920294 -0.246607 -0.328164 -0.483017 -0.377332 -1.876222 -0.17718 1.886398 0.631738 0.426926 -1.156736 -0.096779 0.140603 1.587092 0.256697 -1.3005 0.491889 -0.846471 -0.494595 -1.204852 0.384193 -0.930695 0.438075 1.246874 0.842244 0.847688 -0.401385 0.630502 -0.936146 -0.543872 -1.01494 -0.263937 -1.084371 -0.862017 -1.270164 -0.518766 -0.273939 0.371824
0.064752 0.219277 0.03429 0.048699 -0.035276 -0.100647 0.215459 0.003593 -0.150105 0.016951 -0.071183 -2.53E-4 0.016612 -0.001254 -0.057155 0.071307 0.086654 0.015203 -0.056442 0.043862 -0.012856 -0.004086 0.140093 0.243787 0.091806 0.055124 -0.004091 0.157521 0.097683 0.069467 -0.020969 -0.106425 0.115666 0.202596 -0.0338 0.167208 -0.08124 -0.278503 -0.02205 -0.12927 -0.17158 0.099527 -8.52E-4 -0.052129 -0.11249 0.094158 -0.029301 0.091258 0.03007 0.142807 -0.02753 0.032339 0.020683 -0.05125 -0.134011 0.151554 -0.041486 -0.028434 -0.082631 0.018945 0.064734 -0.042828 -0.085075 -0.116679 0.004778 0.014222 0.09931 0.059327 -0.079647 0.097528 0.157217 0.209432 0.09599 0.179085 0.001369 0.075333 -0.058562 0.077961 -0.029918 -0.061446 -0.08568 -0.130384 0.140081 -0.109396 -0.030645 0.03685 -0.044746 -0.101705 0.042616 -0.055396 0.026291 0.027212 -0.105026 0.14881 -0.074654 -0.067219 -0.131505 -0.002526 -0.055413 0.073307
1.219979 0.840896 -0.889874 1.497061 0.359939 0.146731 -2.201161 0.483676 -1.725902 -0.978197 -0.356077 -0.234536 -1.475796 -0.289149 0.770841 2.620823 -1.409437 -2.538311 -1.120352 -1.693365 0.145075 -0.605518 0.982137 -0.159265 2.12607 0.308494 -1.876083 2.079224 1.353198 -0.963628 -0.046424 -0.806909 0.625672 1.849321 -2.230211 -1.820351 2.264509 -1.234566 1.239084 -1.665912 -1.112559 -3.463763 0.494633 0.282674 2.0141 2.000156 -1.575268 -0.706065 2.560699 0.202354 2.03992 0.343462 -0.582066 0.846577 -0.270955 0.712605 0.339486 1.417198 -1.110318 -1.571178 -1.529763 0.220338 -0.505979 -1.763048 -1.044964 0.249273 -1.121451 -1.860006 -0.322231 2.972221 1.748183 0.605485 0.208847 -1.113874 -0.261203 -0.387651 1.487286 0.603139 -2.605518 -1.142366 0.503438 -1.086088 -0.12459 -0.056509 -1.660534 0.534014 0.942284 -0.088356 0.703531 3.071906 0.348358 -0.478752 -3.365751 -0.561459 1.56756 2.364135 1.053051 0.51308 -1.024781 1.110015
-0.036515 -0.108364 -0.031801 0.267436 -0.171927 0.171588 -0.281176 -0.145397 0.035462 0.028305 0.130313 0.133629 -0.065908 0.047673 0.061338 0.34388 -0.030672 0.160015 0.077708 -0.015457 -0.060468 0.223702 0.236137 0.064994 -0.033854 -0.251204 -0.112697 0.254302 0.27391 -0.197557 -0.091613 -0.122841 -0.097085 0.022496 0.001318 -0.26321 1.04E-4 -0.007363 0.089253 0.139805 -0.067894 -0.09202 0.128974 0.070594 0.109777 -0.156658 -0.096962 -0.100005 -0.188515 -0.04154 0.119 -0.241156 -0.108324 -0.11287 0.187418 -0.184823 -0.044265 -0.141394 -0.004715 -0.066813 0.135263 -0.026324 0.003442 -0.252304 -0.039972 0.019757 0.039482 -0.153252 0.239949 -0.059473 -0.10857 -0.185077 0.072681 0.049182 0.03457 -0.092837 0.034295 -0.066374 0.029226 -0.024167 0.017149 0.062964 0.213126 -0.29822 0.115206 -0.10231 0.104477 0.0561 0.083084 -0.004185 -0.035549 -0.038487 -0.184816 0.215103 0.021952 -0.069623 -0.091406 -0.162304 -0.081617 0.08437
1.334478 0.56436 -1.603635 0.912445 2.221672 1.56943 -0.303465 0.589375 -2.69323 0.384322 0.358918 2.406595 -1.985486 -0.183182 -0.911629 1.571568 -2.16796 -3.121176 -0.899193 -1.979021 -1.959272 0.912333 1.273762 -0.198062 0.971122 1.52374 -0.309081 2.448326 1.601577 -1.552868 -1.420075 -0.261505 1.438153 -0.124586 -1.495065 -0.600136 1.40277 0.058802 -0.268475 -2.225384 -2.291475 -4.441744 1.14801 -0.569455 -0.371657 1.176302 -1.368912 -1.196988 2.185863 -0.313704 1.717073 -0.666015 -1.077057 2.551148 -1.932776 0.054327 -0.102726 -0.17058 -0.912058 -2.256425 -0.309558 -0.671292 0.420601 -1.439195 -1.892122 0.337137 -2.300364 -2.79083 -0.266267 2.864827 3.634638 -0.322773 0.841829 0.469717 1.547861 -0.552432 1.61195 0.508984 -0.264752 0.467316 1.386163 -1.4431 -0.15667 -0.07713 -2.121193 0.621864 0.635885 -0.738586 0.259944 2.962727 0.005839 -0.444849 -3.654301 -3.130575 1.11358 2.289078 0.244818 0.175707 -1.252141 1.653986
-0.178361 0.023108 0.030516 -0.00779 -0.127135 0.033774 -0.058489 0.108023 -0.081989 0.181792 0.15754 -0.042374 0.022531 0.074904 0.06134 0.212379 0.125077 0.182368 0.042925 0.141779 -0.175989 0.068378 0.056694 0.173894 -0.156246 -0.052193 0.009312 0.006255 0.137546 -0.101633 -0.01366 -4.65E-4 -0.057965 0.105498 0.088793 -0.099231 -0.069107 0.033709 -0.094455 0.070188 0.08289 0.088396 0.081002 -0.251021 0.005646 -0.147359 -0.131828 0.036224 -0.096342 -0.051767 -0.006245 -0.057025 -0.177246 0.121287 0.13194 -0.054862 -1.47E-4 -0.090271 0.044172 -0.094164 0.068466 0.014386 0.044188 0.055794 -0.294903 -0.052435 0.071505 -0.126545 0.164685 -0.079436 -0.032483 0.014316 0.023237 0.036095 -0.003958 -0.126208 -0.175707 0.050816 0.018969 -0.135684 -0.112811 0.192106 0.262908 -0.161332 0.045463 -0.091907 -0.012066 -0.066752 -0.01573 0.008406 -0.178769 -0.032234 0.170579 0.307644 -0.092665 -0.064283 -0.192889 -0.104724 0.032471 -0.060748
-0.061232 -0.175539 0.068167 0.078252 0.06015 0.041012 -0.08028 -0.135502 0.039867 0.279087 0.114418 0.085253 -0.107152 -0.119972 -0.085854 -0.004415 -0.213228 0.264457 -0.050855 0.037778 -0.065963 0.018975 0.144769 0.110755 0.064418 -0.113654 0.008461 0.011742 -0.015715 0.087128 0.04396 -0.099337 0.052369 0.110204 0.086685 0.099776 -0.009413 -0.094261 0.051687 0.080911 0.009893 0.066628 0.058133 -0.308457 -0.09559 -0.078986 0.117073 0.007948 -0.126513 0.035061 0.109192 -0.021008 -0.066383 0.053904 -0.02513 0.227016 -0.216231 -0.117145 0.055456 -0.075415 0.035626 0.005437 -0.166101 -0.101927 -0.020228 0.062948 0.08615 0.038341 -0.022722 0.016005 0.005802 -0.012065 0.041851 0.009544 0.131418 0.049153 -0.041383 -0.055892 0.04277 0.01581 -0.153883 0.065008 -0.130744 -0.423106 0.209176 0.129291 0.123923 0.004876 0.116119 0.058703 0.182482 -0.010209 -0.031067 0.108716 -0.0321 -0.172509 0.079675 0.208561 -0.05406 -0.126631
3.272915 0.815848 -1.174533 4.385144 0.524426 1.531284 -0.657749 -0.377525 0.687513 -2.439077 -3.464925 1.262172 -3.876401 0.632571 1.06346 -0.082445 -0.708844 -1.030423 -0.897187 1.618196 -2.087389 -0.548424 -0.328731 -2.951426 0.609206 -0.854115 0.572122 1.913802 0.597543 -1.571538 -0.329062 0.442052 -0.837796 1.168394 -0.795191 0.490829 1.003677 -0.318318 2.054393 -0.931082 1.083188 -2.284117 -2.386791 -0.421463 -0.761037 -1.00601 1.077742 -2.244967 4.900448 1.126803 3.343485 1.255126 0.563865 0.915854 0.221197 -1.017705 1.588296 3.475881 0.77764 -2.169942 0.060356 2.395727 0.746241 0.206615 -2.870158 -3.382245 -5.84E-4 -1.884076 0.358889 1.198429 0.914709 1.310388 -1.786353 0.581463 3.703629 -1.299082 0.623407 -0.516954 3.112407 -2.113873 -2.311625 0.872551 0.956237 0.077288 2.046968 2.104138 2.784744 1.559513 -0.989362 0.021333 -0.75829 -0.836621 -1.53654 0.065124 0.01169 1.935328 -0.860723 0.330949 -3.226011 -0.295441
1.035361 1.319725 0.388011 1.220811 -0.236045 1.447081 -1.78193 3.520004 0.063077 -1.681862 0.545208 0.767849 -1.479444 -1.152839 0.669301 0.685509 -2.946755 -2.239533 -1.187422 -1.793336 0.607402 0.130687 0.296681 -1.569517 1.825066 1.715849 -1.639836 0.849724 -1.742086 0.427502 3.84844 -1.377145 0.671096 -1.312902 -1.152387 0.705431 2.180344 2.97496 1.402098 -0.909545 -1.649212 -0.253421 1.186817 1.193823 3.167747 -0.387379 -0.12198 0.872223 0.13285 0.490844 0.029473 1.345032 0.297008 2.724698 -1.656047 -0.109585 1.500583 -1.148555 -3.658389 1.022988 -1.211381 0.342059 -0.023586 1.22536 -1.874871 -1.957746 -0.188066 -0.235303 -0.067175 1.107354 1.448404 0.838301 1.67396 -0.238039 -0.504146 -1.334739 0.688005 0.37731 -2.953094 0.650433 0.307563 -0.457962 -1.694326 2.40152 -0.816994 0.208705 1.853393 0.15935 -0.989952 1.089235 1.087388 -2.786835 -2.248864 -0.788939 0.405791 0.907533 -1.516669 1.970717 -0.345554 -0.134731
-0.004091 -0.187322 0.032672 0.057003 -0.040247 0.077224 -0.173466 -1.59E-4 -0.093617 0.134825 0.176882 0.060475 0.08873 -0.038276 0.240869 0.088694 0.115194 0.183016 0.066439 0.087114 -0.137474 0.080621 0.256458 0.076846 -0.169403 -0.05896 -0.063153 -0.033878 0.213084 -0.078803 -0.007963 0.100232 -0.007064 0.185576 -0.169589 -0.044285 0.126184 0.034418 -0.077908 -0.092313 -0.105833 0.133448 0.218334 0.01526 0.067879 -0.110745 0.049319 0.054323 -0.148123 -0.053089 -0.050185 -0.135174 -0.081354 0.047568 0.234408 -0.198807 0.160494 0.153197 0.126533 -0.147169 0.089178 0.005684 -0.035977 -0.004898 -0.071395 -0.130505 0.053137 -0.0696 0.152621 -0.153407 -0.043012 -0.137533 0.020505 -0.071915 0.002864 -0.016882 -0.042029 -0.153656 -0.06163 0.030669 -0.07582 0.163984 0.125569 -0.079241 -0.006095 0.041695 -0.057133 -0.020208 0.094599 0.051328 -0.135655 0.037171 -0.072915 0.159936 -0.099379 -0.179371 0.070101 -0.021467 -0.140929 -0.065888
-0.231901 -0.01036 0.146072 0.156379 -0.213334 -0.056064 -0.124837 0.260967 -0.279564 0.34541 0.137673 0.344544 0.047871 0.033004 -0.184505 0.127057 -0.072475 0.1973 0.024794 0.042361 -0.120474 0.151029 0.351674 0.048492 -0.032506 -0.15714 0.006894 -0.059893 0.108426 -0.144372 0.279001 -0.193258 0.044568 -0.303168 -0.408613 -0.133324 0.145113 -0.070993 -0.237644 -0.288842 0.129522 -0.002823 0.325258 -0.093293 -8.53E-4 0.177863 0.06492 -0.078324 -0.014096 0.295515 0.182166 0.050187 -0.239889 -0.176423 -0.029828 -0.242664 -0.052418 -0.553013 0.179644 -0.045616 0.138143 0.045415 -0.101323 -0.044804 -0.3046 -0.151815 -0.063129 0.062543 0.087498 0.346994 -0.026089 0.275195 -0.085272 0.063541 0.050087 0.07194 0.009855 -0.228619 0.046455 -0.174566 -0.059513 0.42406 -0.207529 0.189641 -0.023354 -0.16332 0.235245 0.19294 0.11487 -0.072717 -0.129032 0.123936 -0.231236 -0.055448 0.111311 -4.47E-4 -0.062391 0.087379 -0.21107 -0.014823
-0.105822 -0.099504 -6.1E-5 -0.037641 -0.094849 0.001514 0.029901 -0.064676 -0.00738 0.079685 0.118019 0.141888 0.110064 0.089232 0.078756 -0.001913 0.114622 0.312206 0.087776 -0.005747 -0.051885 0.093393 0.070225 0.079912 -0.173402 -0.019644 -0.088079 0.051892 0.124458 0.042917 -0.043074 0.088696 0.055531 0.077229 -0.122276 -0.078898 0.046315 0.026945 0.079311 -0.076046 -0.111879 0.056031 -0.09175 -0.081192 0.027639 0.105572 -0.076943 -0.166895 -0.104735 0.030607 0.045404 0.041094 -0.060058 -0.025054 0.209084 0.025625 -0.129525 -0.142385 -0.176097 0.072268 0.04495 -0.235614 0.048904 0.053232 0.017261 -0.191383 -0.002634 0.069229 0.120054 -0.246368 -0.081415 0.03288 -0.027501 -0.007807 0.019199 0.220149 -0.268194 -0.064196 -0.061396 -0.011917 -0.148986 -0.003776 0.057933 -0.162626 -0.001596 -0.117901 0.103493 0.024001 0.064105 0.073437 -0.211932 -0.025324 0.078885 -0.041096 0.090138 0.033101 -0.005923 -0.021627 0.057516 0.010749
2.287246 1.348758 3.3385 2.602799 3.711394 3.218853 -0.524456 -3.657739 -1.573267 0.987608 -3.184489 1.384671 -3.538349 1.211226 0.750504 -1.295874 -2.609782 -3.147296 -0.76006 0.390781 1.0986 0.839353 1.158657 -3.37151 -0.879594 1.187636 0.364224 2.784636 -0.705562 0.894783 0.88998 4.349974 1.68888 -0.57355 -1.522712 -1.123405 0.85469 1.082108 -1.61492 -0.493637 -0.603678 -1.48823 -0.616673 -0.95748 -2.446304 0.605044 -1.414548 -0.802802 0.289357 2.507977 1.455585 1.863811 -0.043311 2.03494 -3.395566 2.412908 -0.639311 0.816903 1.516479 -1.539687 0.663988 -0.196985 -1.850495 0.679603 -1.41325 -1.457098 -1.919837 -1.78985 1.120989 0.490522 2.477452 -2.814121 0.436716 1.47804 -0.149065 3.691156 -0.722253 0.827798 -0.202554 1.625855 1.340821 -3.007125 0.388472 -2.418846 -0.09649 2.03459 0.728771 -0.038473 -2.169551 1.169802 -2.112678 -2.021338 -3.645785 -0.662445 -2.658048 0.494165 -1.374901 1.4498 -2.703903 1.716418
0.662269 0.263163 -1.324879 -0.206612 0.542899 2.624008 -0.035644 -0.8934 0.299368 -2.103987 1.209076 0.5817 -0.543656 0.466854 0.180895 -0.030447 0.31293 0.301915 0.864932 -0.463794 -1.364391 1.521795 0.525362 0.385451 -1.692604 0.552632 0.498788 2.326818 0.62348 -0.907729 -0.779954 0.871163 1.509507 -0.465972 -0.023269 -2.302581 -1.37687 -0.109016 2.205799 0.642032 0.110214 -2.266653 -1.326088 1.349159 -1.680717 -3.539004 0.841853 -0.672055 -1.100959 -0.305852 2.117321 0.451314 -0.400822 0.8702 0.104094 -0.41245 -0.843483 -0.003581 0.935207 -0.661689 -0.965487 0.975588 0.021629 -0.720937 -0.279013 -2.01916 -0.300975 -0.805129 -2.537482 0.732203 0.196369 -0.280876 -0.916731 -0.147257 0.164618 -1.114229 1.250538 -1.575757 -0.164892 0.729432 -1.227601 -0.548096 0.375284 -0.094326 1.200844 1.173631 -0.987482 0.279617 -0.565919 0.168623 1.864023 -1.075622 -0.243495 -0.775506 -1.203134 -0.400322 0.247802 0.345182 -0.369241 0.458549
-0.081976 -0.115757 -0.037235 0.047823 0.080689 0.063797 -5.68E-4 -0.01326 0.046137 -0.018663 0.194683 -0.005646 -0.105143 0.101302 2.5E-4 0.042415 -0.004486 0.138738 -0.078027 -0.053297 -0.003047 -0.023425 0.085859 -0.070821 -0.190224 -0.012094 -0.086764 -0.045521 0.150154 -0.047248 0.070507 0.031023 -0.057365 -0.08781 0.001422 0.075423 -0.066596 0.024679 -0.117901 -0.073922 0.070657 -0.106933 0.058077 -0.160043 0.040598 -0.017318 -0.299725 0.063393 -0.092627 0.237713 -0.006285 0.101227 0.108785 0.075157 0.185542 0.256717 0.042432 0.095008 -0.144651 -0.113949 -0.033652 0.139527 0.065923 -0.032528 -0.197757 -0.050823 -0.204303 0.037119 0.052392 -0.140878 -0.160956 0.140009 0.123425 0.02236 -0.175671 0.117527 -0.136467 0.049225 0.078615 0.003431 0.075346 0.071353 0.001563 0.038175 -0.030556 -0.200884 0.070405 -0.021092 -0.090239 -0.018722 -0.070156 -0.02856 0.169741 0.070406 -0.035222 -0.052597 0.005802 -0.011343 0.013407 0.169905
-0.091037 -0.090231 0.171377 0.195907 -0.103586 0.069052 -0.125643 0.085258 -0.152372 0.148054 0.157978 0.082709 0.0709 0.121728 0.092702 0.031355 0.066447 0.274935 -0.006131 0.093081 0.128128 0.246835 0.028567 9.93E-4 -0.017199 0.029206 -0.025993 -0.053559 0.093621 0.014123 -0.162062 -0.031627 0.067805 0.025052 -0.02795 0.05596 0.091985 -0.105579 -0.049743 0.069648 -0.071343 0.292651 -0.030104 -0.149311 0.113745 -0.141174 0.103269 0.008578 -0.065717 -0.098101 0.034339 -8.68E-4 -0.051737 0.014584 0.076432 -0.053401 -0.157834 0.001712 0.192382 -0.073581 0.155758 -0.085463 0.084108 0.079382 -0.069956 0.05751 0.267084 0.04682 0.117437 -0.119527 -0.025666 -0.021788 0.018048 -0.191872 -0.116432 0.111125 -0.196076 -0.093353 0.110985 0.040043 0.022525 0.033935 -6.16E-4 -0.157236 0.002322 0.04701 0.068482 0.132856 0.260971 0.025572 -0.125039 -0.009169 0.027274 0.022375 -0.011032 -0.017917 0.082027 0.048744 0.00527 -0.029455
-0.38719 -1.152602 0.648979 0.326572 -0.439275 1.355604 -1.585271 0.039227 -0.189045 0.202466 -0.101042 0.722263 -0.620832 -0.01457 0.228747 -0.125044 -0.323008 -0.058433 -0.557829 0.270478 0.59121 -0.781832 0.297958 0.309491 -0.665488 -0.389529 0.223019 0.235828 1.522156 -0.940721 -0.79349 0.070482 -0.363952 0.435949 -0.763774 -0.878888 0.750918 -0.220328 -1.022467 0.348867 0.509409 -0.992325 0.212973 -0.134839 1.125333 0.709563 0.134234 0.131238 -0.533541 -0.258 0.709827 -0.524475 -0.893206 -0.335325 0.870937 -0.037818 -1.005289 0.32605 -0.902245 -0.064403 -0.927755 -0.184436 0.446927 -0.309709 -0.257718 -0.093781 -1.108613 0.008762 -0.062961 0.088971 0.107907 -0.015036 0.390386 -0.025258 -0.565566 0.798946 -0.044479 -0.072953 0.444515 -0.760673 -0.131143 0.042224 0.858516 0.578986 0.986289 0.154143 -0.250338 -0.562329 -0.706673 0.451213 0.981902 -0.371371 -0.303085 0.416461 0.621062 -0.740834 -0.181905 -0.511766 -1.007777 0.020324
