0.0 0.0 0.0 0.0 0.0 0.0 0.0 0.0 0.0 0.0 0.0 0.0 0.0 0.0 0.0 0.0 0.0 0.0 0.0 0.0 0.0 0.0 0.0 0.0 0.0 0.0 0.0 0.0 0.0 0.0 0.0 0.0 0.0 0.0 0.0 0.0 0.0 0.0 0.0 0.0 0.0 0.0 0.0 0.0 0.0 0.0 0.0 0.0 0.0 0.0 0.0 0.0 0.0 0.0 0.0 0.0 0.0 0.0 0.0 0.0 0.0 0.0 0.0 0.0 0.0 0.0 0.0 0.0 0.0 0.0 0.0 0.0 0.0 0.0 0.0 0.0 0.0 0.0 0.0 0.0 0.0 0.0 0.0 0.0 0.0 0.0 0.0 0.0 0.0 0.0 0.0 0.0 0.0 0.0 0.0 0.0 0.0 0.0 0.0 0.0
0.0 0.0 0.0 0.0 0.0 0.0 0.0 0.0 0.0 0.0 0.0 0.0 0.0 0.0 0.0 0.0 0.0 0.0 0.0 0.0 0.0 0.0 0.0 0.0 0.0 0.0 0.0 0.0 0.0 0.0 0.0 0.0 0.0 0.0 0.0 0.0 0.0 0.0 0.0 0.0 0.0 0.0 0.0 0.0 0.0 0.0 0.0 0.0 0.0 0.0 0.0 0.0 0.0 0.0 0.0 0.0 0.0 0.0 0.0 0.0 0.0 0.0 0.0 0.0 0.0 0.0 0.0 0.0 0.0 0.0 0.0 0.0 0.0 0.0 0.0 0.0 0.0 0.0 0.0 0.0 0.0 0.0 0.0 0.0 0.0 0.0 0.0 0.0 0.0 0.0 0.0 0.0 0.0 0.0 0.0 0.0 0.0 0.0 0.0 0.0
2.763139 -1.500145 -1.054949 0.108129 -2.441239 2.409272 -0.628655 2.54715 0.077627 -0.447567 0.838375 -0.585443 -4.814465 -0.839256 -0.044537 0.14507 1.902158 -0.088702 1.068148 -1.829617 0.774778 1.827085 -1.33367 -1.018203 -2.298032 0.806193 4.646079 0.435196 -0.767047 2.630828 3.288036 1.184743 -2.818143 -1.28687 -1.55878 1.998231 -2.645496 -1.070538 -0.272486 -0.592495 2.340952 2.298635 -2.254341 0.835384 0.76466 -0.233515 -0.589683 0.660476 -0.292724 0.196121 -1.743456 0.467143 -0.293524 -1.36158 -1.286497 -0.345213 1.68089 -2.735131 0.150425 -1.745792 0.999559 -1.352985 1.809873 0.524243 -0.542897 -0.451405 -0.850107 -0.394458 -1.819923 -1.793292 5.570456 0.433684 0.71208 0.305952 -0.312276 -0.536647 -0.100762 1.983368 1.605956 1.458349 1.519876 3.813322 -1.471682 -0.197783 -0.983431 1.355965 -2.265172 1.588993 -0.126059 0.738662 -0.823898 2.627036 3.975982 -0.745065 -1.519473 0.033927 -2.716809 -1.402747 -0.110809 0.28648
-0.028363 -0.067505 0.192841 0.188934 -0.067921 0.006432 -0.17965 -0.01128 -0.006455 0.026866 0.129998 0.231064 0.01005 -0.072657 0.066001 0.373965 0.187987 0.215433 -0.073216 0.124291 -0.170127 0.217655 0.289721 0.036053 -0.165501 0.102116 0.012141 -0.084059 0.131438 -0.091141 -0.040628 -0.114652 0.069561 0.135216 -0.320887 -0.097532 -0.215854 -0.054228 -0.070766 -0.064903 -0.011907 -0.036055 -0.042895 -0.159584 0.137051 -0.169295 -0.082528 -0.115838 0.037863 -0.038047 -0.062549 -0.22978 -0.065249 -0.054277 0.073959 0.074109 -0.172126 0.203514 -0.070835 -0.059779 0.021899 -0.247512 0.177297 -0.112036 -0.119856 -0.269152 -0.05013 0.006087 0.067885 -0.014171 -0.090123 0.041589 -0.064244 -0.052175 -0.133467 -0.053012 -0.033519 -0.004545 2.73E-4 0.028431 -0.06255 0.137883 0.091678 -0.279879 0.121466 0.047768 -0.008515 0.047801 -0.051177 0.169685 -0.295786 0.023024 -0.048001 0.06686 0.088609 -0.028068 -0.101724 0.040617 -0.137678 -0.130477
0.233485 -0.169544 -0.176879 -0.264085 -0.107436 0.057878 -0.060163 0.020134 -0.075479 0.113908 -0.09997 -0.174725 -0.252921 -0.122678 -0.035219 -0.077484 0.037537 -0.037793 0.129264 -0.099879 0.019875 -0.018207 0.00781 -0.131311 -0.122916 0.092196 -0.101513 -0.137821 -0.180387 0.028172 0.152386 0.192303 -0.095574 -0.106227 0.072159 0.021054 0.055603 -0.084775 0.048133 -0.033319 -0.145469 -0.052611 0.055902 0.169461 -0.069542 -0.067575 -0.154715 -0.139578 0.004359 -0.018258 0.099611 -0.130799 0.00714 -0.072897 0.088522 -0.010623 -0.01831 -0.120719 -0.232138 0.024499 0.020253 0.024691 -0.092193 -0.006159 -0.073972 0.145627 -0.15225 -0.053373 0.093501 -0.006107 0.04413 0.186046 -0.098408 0.199472 0.186096 0.163884 0.172805 0.064425 -0.04161 0.131829 0.010201 -0.12358 0.009225 -0.16262 -0.009664 -0.110038 0.19284 0.088062 0.137671 -0.018017 -0.1722 -0.015099 -0.007537 0.047423 -0.025555 0.128165 -0.06147 -0.007149 0.227166 0.114048
2.986683 0.891048 0.502242 2.563102 -0.833594 1.074317 3.695644 -0.777531 2.188026 -0.699979 0.036443 0.733135 -1.432868 -0.891451 -1.142959 -0.942936 1.068958 -1.874863 -5.092594 -1.1966 -1.959903 -2.195483 -2.042068 -1.143233 -1.459129 -1.317735 2.335449 -2.434227 0.201016 -0.60309 3.022425 -0.350954 -0.742291 -3.692008 -0.428454 2.260322 1.299332 2.709176 1.349321 -0.696621 1.114271 -3.635821 0.008208 1.672507 -0.838007 2.333875 -2.054475 0.380345 1.490836 -0.726134 0.769087 3.405334 -1.16381 3.050478 -0.068498 -4.041586 4.555243 -0.814241 -1.668317 0.224789 -0.566141 -0.288359 0.917884 0.934006 -3.229766 1.334999 2.586487 0.072999 0.113326 0.865491 3.495866 2.934418 -0.434585 -2.448313 -1.514856 -0.37738 0.862876 1.158082 -2.049671 3.100108 -0.871714 -1.041083 -2.50899 0.427097 1.673651 2.875635 3.071153 2.417479 -1.666681 -0.917672 -0.608627 3.287783 -1.69514 -2.40585 -1.155071 1.198252 -1.330375 1.26239 -2.958205 2.412288
0.06553 -0.125673 0.034491 0.043696 -0.08785 -0.070191 -0.104459 -0.048669 0.006119 0.030927 -0.13537 -0.036367 -0.163152 -0.059444 0.060532 -0.023973 0.098727 0.031182 -0.080261 0.051743 -0.07395 0.036216 -0.082271 -0.07694 -0.227916 8.49E-4 0.074039 -0.007776 0.046045 -0.104478 0.002922 0.032865 -0.001549 -0.142678 0.054115 -0.01641 0.00671 0.02971 0.075554 0.035918 0.017778 0.02266 0.074529 -0.007011 -0.166621 -0.149341 -0.036893 0.187838 -0.051182 0.035542 0.035646 -0.071808 0.164016 0.07998 0.087969 -0.192645 -0.030305 -0.225898 -0.106839 -0.021025 0.244137 -0.057087 -0.051305 0.059616 -0.184024 0.189175 0.205994 -0.054882 -0.034451 -0.087239 0.044602 -0.036991 -0.094929 -0.008204 0.212651 0.003758 -0.115127 0.104404 0.032918 0.078207 0.184447 0.044535 -0.025218 -0.026929 -0.017865 0.117728 0.029414 -0.031504 0.043071 0.093661 -0.096078 -0.012874 0.052235 0.078689 -0.053345 -0.059396 0.152948 -0.086422 -0.102222 -0.027954
-0.020449 -0.10516 0.026726 0.096864 -0.158903 0.004788 0.068933 0.181737 0.162068 -0.078981 0.120779 0.041734 0.155343 -0.129504 0.144421 0.121791 0.014532 0.247691 0.208155 0.093175 -0.067894 0.073457 0.110122 0.021126 -0.146347 -0.02849 -0.020647 0.03199 0.205093 0.070711 -0.02001 -0.153863 0.002811 0.037702 -0.162243 -0.092061 -0.00379 -0.067016 0.15108 0.077687 0.013903 -0.075489 -0.009655 0.068451 0.035165 -0.18155 0.06344 -0.060229 -0.127617 0.200029 0.043939 -0.145493 -0.11223 -0.005128 0.039135 -0.008743 -0.068487 0.044084 0.154037 -0.012069 0.101954 -0.09548 -0.045324 -0.215727 0.055111 -0.064166 0.1971 0.116412 0.238318 -0.121497 -0.016783 -0.143706 0.014207 0.085258 -0.037786 -0.075288 -0.108233 0.015738 -0.104652 -0.019463 0.035531 0.237243 0.138561 -0.18907 -0.027062 0.183462 -0.065378 0.068296 0.085241 0.055798 -0.130131 0.047738 -0.124738 0.032985 0.129578 -0.143043 0.118968 -0.099837 0.069953 0.022174
0.019479 -0.183264 0.185006 -0.021941 -0.097963 -0.008214 -0.28331 0.01185 0.095198 0.169737 0.100628 0.164095 -0.05979 0.123105 0.144524 0.197585 0.19024 0.316095 0.091165 0.069978 -0.074459 0.212687 0.185175 0.046881 -0.190323 0.031465 0.078004 -0.02983 0.13538 -0.144208 -0.009203 -0.035321 -0.031773 0.062922 -0.304796 0.031311 -0.133618 0.05864 -0.049713 0.166453 0.015537 0.091394 -0.016407 -0.075259 0.095004 -0.013696 0.078337 0.064056 -0.176312 -0.078285 0.08624 -0.234833 0.019062 0.019408 0.186058 0.001942 -0.169513 0.099512 -0.091399 -0.056506 0.008458 -0.113064 -0.146808 -0.155589 -0.018393 -0.027796 -0.00495 -0.042528 0.152307 -0.280884 -0.062882 -0.00428 -0.143041 -0.038973 -0.07433 0.007374 -0.211817 -0.047318 0.123371 -0.047261 -0.02469 -0.057035 0.025451 -0.249572 -0.025784 0.076371 0.041486 -0.009586 0.183004 0.287509 -0.288415 0.01809 0.107814 0.215119 0.093625 -0.127788 0.023802 -0.040161 0.007104 -0.016095
0.0 0.0 0.0 0.0 0.0 0.0 0.0 0.0 0.0 0.0 0.0 0.0 0.0 0.0 0.0 0.0 0.0 0.0 0.0 0.0 0.0 0.0 0.0 0.0 0.0 0.0 0.0 0.0 0.0 0.0 0.0 0.0 0.0 0.0 0.0 0.0 0.0 0.0 0.0 0.0 0.0 0.0 0.0 0.0 0.0 0.0 0.0 0.0 0.0 0.0 0.0 0.0 0.0 0.0 0.0 0.0 0.0 0.0 0.0 0.0 0.0 0.0 0.0 0.0 0.0 0.0 0.0 0.0 0.0 0.0 0.0 0.0 0.0 0.0 0.0 0.0 0.0 0.0 0.0 0.0 0.0 0.0 0.0 0.0 0.0 0.0 0.0 0.0 0.0 0.0 0.0 0.0 0.0 0.0 0.0 0.0 0.0 0.0 0.0 0.0
0.053284 -0.02831 0.073534 0.043655 -0.071761 0.023829 -0.089469 -0.149685 -0.02029 0.002805 -0.115475 0.10861 -0.187293 0.173159 0.10573 -0.027871 -0.046233 -0.019196 -0.123889 0.145442 -0.244349 -0.141501 0.058057 0.183622 -0.171211 -0.100848 -0.030764 -0.006491 0.033087 -0.010223 -0.099035 0.046627 -0.06875 0.271824 -0.227026 -0.065529 -0.022397 -0.104088 -0.155273 -0.113572 -0.201725 -0.123283 0.001715 -0.078569 0.141362 -0.079199 -0.092461 -0.16356 0.008255 0.01264 0.032743 -0.040167 -0.141769 -0.092711 0.13236 0.061398 -0.21891 0.014964 -0.088068 -0.097294 -0.04269 -0.23188 -0.022815 -0.018621 0.004086 0.036345 -0.005373 -0.048773 -0.07733 0.005778 0.17246 -0.043684 0.107732 0.1208 -0.018265 0.170388 0.011399 -0.032943 0.033442 0.026036 0.01454 0.053651 0.169479 -0.031658 -0.080207 0.056691 -0.007069 0.013756 0.031409 0.087834 0.008524 -0.098607 0.024264 0.189625 0.019321 -0.036829 -0.182828 0.059476 -0.001309 -0.070991
0.01138 -0.138514 0.226323 0.132162 0.07805 0.00343 0.083845 -0.09138 0.079482 0.022071 -0.002286 -0.006272 -0.055472 -0.054731 0.078293 -0.140183 0.15088 0.013218 0.007411 0.046312 0.0286 0.219363 -0.011629 -0.130226 -0.150721 -0.283571 -0.028629 0.067705 0.135719 -0.132972 -0.094048 -0.072213 -0.023802 0.214469 -0.250461 -0.012114 0.041212 -0.012535 0.09064 -0.133034 -0.062136 0.154734 -0.068564 -0.062881 0.080259 0.063067 0.019327 0.00957 0.032935 0.016774 -0.050169 0.059704 -0.009306 -0.012702 0.179211 -0.043178 0.076398 0.018125 0.206446 -0.090811 -0.158088 -0.04166 -0.027056 -0.161963 0.015678 0.034851 0.035571 0.172649 -0.019972 -0.118805 -0.018352 -0.127559 -0.069902 -0.121 0.06276 -0.072027 -0.084075 -0.076834 -0.049779 0.009668 -0.106123 0.128864 0.067299 -0.113024 -0.033589 0.034719 -0.040078 0.084181 0.070565 0.001174 0.182729 -0.016327 0.065474 0.261385 -0.113425 -0.125606 -0.105792 0.112522 0.014332 -0.110195
-1.153241 -0.248613 -0.34468 -0.582294 -0.521382 1.03559 -1.02839 0.871303 2.127479 -0.416129 0.784643 -0.61561 1.171782 -0.171464 -0.86278 -1.629511 1.209861 0.907789 -0.317603 -0.286378 -1.899627 1.057091 1.006825 -0.670799 -1.405454 -0.501305 1.396959 -0.131683 -0.065219 0.993208 -0.286854 -0.038365 0.277636 -0.637862 -1.527023 0.691331 -0.088836 -0.658362 -1.350391 -0.336601 1.053107 0.553558 -1.160673 -1.102438 1.189684 -0.046552 0.025219 -0.687083 0.103084 1.251508 -0.353383 1.702541 1.259446 0.451869 1.393003 -0.725198 -0.292359 -1.376779 -2.053567 -0.203671 0.709766 -0.593767 1.071371 0.779971 1.238741 -1.336103 2.213471 0.448132 -0.504927 -1.706573 -0.027853 -0.344501 -0.813484 0.152853 -2.085663 0.475797 -1.7115 1.144237 0.330983 0.598395 0.529701 -0.932226 0.441738 0.614232 0.894614 -0.322266 0.585446 2.113356 -0.910788 1.920398 -2.084961 0.677361 1.019931 0.886599 0.426056 0.516913 -1.277777 -0.492171 -0.702581 1.404599
0.0 0.0 0.0 0.0 0.0 0.0 0.0 0.0 0.0 0.0 0.0 0.0 0.0 0.0 0.0 0.0 0.0 0.0 0.0 0.0 0.0 0.0 0.0 0.0 0.0 0.0 0.0 0.0 0.0 0.0 0.0 0.0 0.0 0.0 0.0 0.0 0.0 0.0 0.0 0.0 0.0 0.0 0.0 0.0 0.0 0.0 0.0 0.0 0.0 0.0 0.0 0.0 0.0 0.0 0.0 0.0 0.0 0.0 0.0 0.0 0.0 0.0 0.0 0.0 0.0 0.0 0.0 0.0 0.0 0.0 0.0 0.0 0.0 0.0 0.0 0.0 0.0 0.0 0.0 0.0 0.0 0.0 0.0 0.0 0.0 0.0 0.0 0.0 0.0 0.0 0.0 0.0 0.0 0.0 0.0 0.0 0.0 0.0 0.0 0.0
-0.18255 1.260997 -2.937011 0.741657 0.301679 0.127472 -1.176587 -0.021752 -0.742262 0.233798 0.429781 0.975995 -2.798835 -0.781561 1.800542 0.765993 -3.833084 -2.428071 0.125751 -1.292969 -1.471998 -2.224791 0.887228 -1.830926 -0.837093 -2.394116 -1.028549 0.925758 -1.10665 0.315067 -1.693757 -2.444497 -0.471722 0.598476 -1.04198 0.63184 3.217104 -2.250083 3.737814 -1.932973 0.831435 0.463103 0.949557 -0.956962 -0.488984 1.741216 -3.862303 -0.431256 2.7532 -0.958319 1.58654 -0.182633 -0.680963 2.230035 -1.865555 0.565095 0.376398 0.346151 -0.855264 -2.866216 -1.228112 1.069066 1.567339 0.020816 1.000839 -0.97259 1.037177 -0.604886 1.044482 0.383741 2.476696 0.014949 -2.869114 -1.993708 -1.370498 -1.618366 1.959962 0.624031 -2.814246 -1.413119 2.512324 -0.979847 -1.204673 1.534497 0.90827 0.682642 1.511776 0.258177 -0.760564 0.513091 3.074975 -1.611095 -0.088312 -0.38557 -0.714002 -0.178161 1.209946 -0.16744 0.076855 4.005261
0.117168 -0.081261 -0.21121 -0.066731 -0.275521 -0.130438 -0.046803 -0.273643 -0.150722 0.128034 0.022846 0.025637 0.017576 -0.037796 -0.006386 0.181461 0.040128 0.176475 0.001647 0.03528 0.070044 -0.024315 0.215394 -0.130377 -0.154997 0.123641 -0.07993 -0.058194 0.148347 -0.018316 0.156754 -0.072208 0.001166 -0.053391 0.028107 0.083249 0.022714 -0.070362 -0.004466 0.162951 0.050816 0.152059 -0.164474 -0.096015 0.09615 -0.187866 0.132109 -0.009701 -0.10345 -0.013038 -0.027891 0.111158 0.060939 0.107792 0.130701 -0.200889 0.071201 -0.114933 8.7E-5 0.031794 0.016418 -0.117627 -0.056679 -0.001196 0.089719 0.159084 0.137783 -0.070769 -0.035414 0.08029 -0.036544 0.101405 -0.025484 -0.201066 -0.02413 -0.047368 0.018007 -0.073843 0.064688 0.001593 0.200226 -0.006609 0.254566 0.024887 -0.033327 0.160618 -0.001714 0.167928 -0.14361 -0.241829 -0.169614 -0.106336 0.004607 -0.019156 0.065673 0.113677 0.125263 -0.012755 0.004842 0.018239
3.229447 1.832686 -0.196265 -0.303454 -0.824437 2.082854 1.150219 -0.493805 -3.50143 -0.594107 2.103319 2.396154 1.056781 -0.578498 -1.172209 3.210305 -0.978008 -1.908997 -0.472705 -1.788789 -2.346806 -2.098664 -0.288581 -2.078696 0.41261 0.520842 -1.276654 0.578767 1.70845 -0.136278 -1.41294 0.371846 1.173228 1.232021 0.598135 -3.597398 4.723318 -0.907374 3.160397 -2.027976 1.188048 -5.433854 0.01906 -0.240727 2.932695 1.836205 0.69537 0.647449 5.328198 0.625981 0.041762 2.070653 0.300511 1.656161 -2.571092 0.908767 3.294905 2.941907 -1.065341 -2.086696 -0.817265 -1.894089 0.299235 -1.879644 0.485823 1.848637 -0.344618 -2.532108 2.074767 0.482597 3.034693 1.42216 0.457834 2.431775 -0.318071 1.666885 -1.364005 1.576786 -1.71492 -0.790398 2.548478 -2.38312 -0.502643 1.256626 0.730181 1.714355 1.091085 4.672542 0.202716 -0.959086 0.774024 -2.161259 -1.810393 -2.763748 0.167227 4.207294 2.675714 0.636561 -0.117425 -0.284099
-0.051775 -0.10281 0.084388 0.060623 -0.051156 -0.11973 -0.095633 -0.124312 -0.067864 -0.013006 -0.249109 0.013311 -0.020683 0.026781 0.069122 0.088293 0.044743 -0.061664 -0.035527 0.169693 0.067591 -0.074064 0.144772 0.015614 0.068402 -0.131427 -0.253039 0.105115 0.253451 -0.145534 -0.001659 -0.054279 -0.119701 0.196662 -0.039824 -0.324796 0.209521 -0.145872 -0.014862 -0.024781 -0.171394 0.042379 0.032539 0.060787 0.124539 -0.004992 -0.084252 0.120159 0.120764 -0.037683 0.031286 -0.109508 -0.117723 -0.052173 -0.002051 -0.11071 0.061406 -0.087296 -0.148341 -0.071744 0.219745 -0.04972 -0.060623 -0.080108 0.004511 -0.022071 -0.027307 -0.211295 0.133496 0.063373 0.00468 0.198885 0.158026 -0.031835 -0.007714 -0.020698 0.102395 -0.14017 0.107992 -0.086615 0.20439 0.082184 0.076634 0.018254 0.068199 0.027119 -0.009514 0.0318 -0.150937 -0.035327 -0.048232 0.02036 -0.2042 0.090078 -0.167559 0.116165 -0.171551 0.042631 0.00252 0.115522
-0.047421 -0.15849 0.107499 0.089927 0.167776 0.08617 -0.300314 -0.309623 0.108092 0.189928 0.056687 0.033222 -0.077897 -0.080874 0.159018 0.266839 -0.245001 0.016831 -0.085825 0.058383 -0.059198 -0.055262 0.240707 -0.12969 -0.22039 0.060318 -0.047124 -0.139865 0.089529 -0.172326 0.039714 -0.133083 -0.093917 0.050088 -0.217563 -0.099461 0.041898 -0.126919 0.020688 0.317283 0.16597 0.022872 0.046324 -0.073254 -0.180954 0.079862 0.019486 0.185367 0.118476 0.006355 -0.032953 -0.037425 0.063885 0.11699 0.184923 0.052025 0.128145 -0.13686 0.190992 -0.211976 0.013083 -0.015876 -0.029147 0.01214 -0.021098 0.071397 0.239282 -0.021331 -0.132596 -0.213218 -0.047197 -0.061747 0.108005 0.06585 0.170104 0.21 0.017802 0.149472 0.139998 -0.100998 0.016478 -0.071088 -0.215638 -0.123884 -0.172349 0.055991 -0.115719 -0.021301 0.071983 0.092645 -0.139537 0.078519 -0.099633 0.035876 -0.078405 -0.346964 0.042416 0.013565 -0.105723 -0.0419
2.830667 -0.105401 -0.54124 2.127139 0.582978 3.63949 2.522238 1.069748 -0.393169 -0.802764 0.717131 -0.155238 0.912383 1.226219 -3.199442 2.021953 -0.484377 -1.457168 -2.647823 0.123852 -1.2112 -0.841558 0.087582 0.28099 -0.234864 -0.049575 0.032612 -2.243814 -0.765425 -0.915133 3.273834 -1.199446 0.680186 -2.089783 -1.01912 -0.216504 -0.331873 2.60169 -0.790026 -1.57667 1.192332 -1.595181 -0.228302 -0.690204 1.06943 2.275778 0.060144 -0.145241 1.596527 1.407131 1.360307 1.471244 -0.914931 -1.382722 -2.193795 -0.304368 3.016587 2.083321 0.306685 -1.442817 -0.117802 -0.109051 0.046279 -0.92935 2.173826 0.296798 -0.573677 0.05389 -0.210066 1.217081 3.187731 1.215974 0.559173 1.988361 -1.474544 -0.836477 -3.092288 1.196591 -0.517599 -0.05186 0.27803 0.652957 -1.61764 -0.543138 1.390365 -1.207225 1.831044 0.35971 1.168761 -0.305612 -0.50075 2.058456 0.940071 -1.995087 -1.549846 0.366603 -1.856254 1.373651 -1.777815 2.619339
-0.019303 -0.002529 -0.008422 0.115266 0.028528 0.037318 -0.171611 -0.119728 0.08063 0.123641 0.205162 0.12071 0.033668 -0.050189 0.029205 0.160692 0.102192 0.160543 0.019279 -0.006701 -0.046097 0.22825 0.183039 -0.002247 -0.195626 -0.026982 -0.115158 0.044293 0.015434 -0.147153 -0.05616 -0.040167 -0.025384 0.009314 -0.123721 -0.240182 0.052266 0.018256 0.061974 0.057055 0.214691 0.236485 0.001764 -0.022228 0.117568 0.037046 0.018025 -0.122168 -0.073133 -0.028363 0.068127 0.029865 0.107291 0.044675 0.143504 -0.03141 0.003965 0.039915 -0.03263 -0.097703 0.064074 -0.166368 -0.173704 -0.022724 -0.099146 -0.117954 0.187166 0.031134 -0.034354 -0.038352 -0.109104 -0.274885 0.059596 -0.048928 0.006633 -0.076135 0.007098 -0.031185 -0.109211 0.02168 0.12185 0.082277 0.034144 0.007481 -0.037421 0.062545 -0.068271 -0.06697 0.030207 0.002634 -0.10734 -0.058583 -0.021734 0.131197 0.062131 -0.189168 0.135714 -0.272799 -0.004568 0.012972
-0.165196 -0.187699 0.145836 0.082668 0.040064 -0.045251 0.004174 0.029527 -0.024558 -0.026131 0.023913 0.320158 -0.090711 0.044991 0.150156 0.174163 -0.0519 0.042628 -0.026399 0.047388 -0.165743 0.010284 0.204239 0.071984 -0.107495 -0.102199 -0.149213 0.068356 0.231175 -0.06892 -0.057282 -0.002082 0.029661 0.06453 -0.178023 -0.165563 0.02343 0.099836 -0.034307 0.12499 -0.09186 -0.149883 0.10307 0.135714 0.048112 0.220214 -0.127854 -0.08647 0.050639 -0.102859 0.183301 -0.005277 0.064837 -0.182468 0.027936 -0.1064 -0.039704 -0.131126 -0.109041 0.017793 0.036649 -0.078217 0.042461 0.001268 0.003871 -0.083882 0.01323 -0.082705 0.006515 0.022732 -0.10605 0.050127 -0.099351 -0.009821 0.15021 -0.028078 0.003612 0.071222 0.125964 -0.120994 0.118497 -0.092383 0.012254 -0.277435 -0.184025 0.007325 0.069125 0.057009 0.012555 0.020677 -0.209572 -0.006419 -0.084359 0.043591 -0.061368 -0.08374 -0.07863 0.048275 5.73E-4 0.043937
0.100342 -0.046996 0.118235 -0.195914 -0.062845 -0.00263 -0.049219 -0.025702 0.070879 -0.088164 -0.065009 0.03587 -0.089495 0.200695 0.197936 -0.134646 -0.082224 -0.070048 -0.145857 0.084524 -0.062734 -0.0729 0.007797 0.175391 -0.101227 -0.157721 -0.084787 0.070467 0.110842 0.121566 0.010786 0.118229 -0.061778 0.140583 0.236701 0.12967 0.077058 -0.126444 0.138968 0.008993 -0.082232 -0.142226 -0.252312 -0.076795 0.025792 0.126785 -0.198613 0.115954 0.031074 0.049458 -0.036227 -0.047244 -0.072856 -0.047129 0.072417 0.286561 -0.197108 0.154958 -0.024637 -0.143688 -0.172099 -0.056494 -0.036697 -0.030624 0.102039 0.094845 -0.130347 0.005958 0.05083 0.076224 -0.109301 -0.01604 0.056115 -0.1556 -0.06116 -0.096975 -0.078609 0.096475 -0.006104 -0.21483 0.140204 0.106451 -0.001017 -0.16566 0.049768 -0.057636 0.107731 -0.120294 -0.05759 0.026303 -0.024757 -0.006144 0.035358 0.009715 -0.044794 -0.222967 -0.004228 -0.028474 0.152531 0.056453
2.591633 1.608701 -2.087245 2.00752 3.012652 4.995656 0.847355 -1.594905 -0.365708 -1.629805 -1.650237 3.712017 -0.231463 -0.537534 -2.036098 2.002639 -0.696666 -4.310136 -1.477319 -1.356504 -0.581823 -1.830239 -0.272773 -1.648095 0.090509 0.008711 0.330842 0.396714 2.341035 -0.526067 1.155793 -1.730906 -1.010387 -1.342646 -1.939355 0.734869 0.727366 0.700702 1.516974 -2.133831 -0.280653 -3.051674 0.017123 0.532043 1.478449 0.375441 0.920129 1.548929 1.087478 0.668327 0.707416 3.249232 -0.362503 1.273221 -2.929682 -0.245389 1.633444 -0.119836 0.103459 -3.445175 0.513245 0.427807 0.738792 1.448203 0.501908 0.362882 -0.731533 -0.391201 0.037778 3.053553 4.030229 1.793904 1.24136 0.081706 -1.401954 -0.638804 -0.487445 -0.267924 0.012844 0.538179 -0.241935 -0.068756 1.351665 -0.112558 0.001814 0.447262 0.833441 -0.023876 1.212707 1.514635 -0.568611 0.376173 -3.663739 -4.345135 -0.444319 2.139788 -2.53093 0.92131 -1.399435 1.763954
-0.028363 -0.067505 0.192841 0.188934 -0.067921 0.006432 -0.17965 -0.01128 -0.006455 0.026866 0.129998 0.231064 0.01005 -0.072657 0.066001 0.373965 0.187987 0.215433 -0.073216 0.124291 -0.170127 0.217655 0.289721 0.036053 -0.165501 0.102116 0.012141 -0.084059 0.131438 -0.091141 -0.040628 -0.114652 0.069561 0.135216 -0.320887 -0.097532 -0.215854 -0.054228 -0.070766 -0.064903 -0.011907 -0.036055 -0.042895 -0.159584 0.137051 -0.169295 -0.082528 -0.115838 0.037863 -0.038047 -0.062549 -0.22978 -0.065249 -0.054277 0.073959 0.074109 -0.172126 0.203514 -0.070835 -0.059779 0.021899 -0.247512 0.177297 -0.112036 -0.119856 -0.269152 -0.05013 0.006087 0.067885 -0.014171 -0.090123 0.041589 -0.064244 -0.052175 -0.133467 -0.053012 -0.033519 -0.004545 2.73E-4 0.028431 -0.06255 0.137883 0.091678 -0.279879 0.121466 0.047768 -0.008515 0.047801 -0.051177 0.169685 -0.295786 0.023024 -0.048001 0.06686 0.088609 -0.028068 -0.101724 0.040617 -0.137678 -0.130477
0.233485 -0.169544 -0.176879 -0.264085 -0.107436 0.057878 -0.060163 0.020134 -0.075479 0.113908 -0.09997 -0.174725 -0.252921 -0.122678 -0.035219 -0.077484 0.037537 -0.037793 0.129264 -0.099879 0.019875 -0.018207 0.00781 -0.131311 -0.122916 0.092196 -0.101513 -0.137821 -0.180387 0.028172 0.152386 0.192303 -0.095574 -0.106227 0.072159 0.021054 0.055603 -0.084775 0.048133 -0.033319 -0.145469 -0.052611 0.055902 0.169461 -0.069542 -0.067575 -0.154715 -0.139578 0.004359 -0.018258 0.099611 -0.130799 0.00714 -0.072897 0.088522 -0.010623 -0.01831 -0.120719 -0.232138 0.024499 0.020253 0.024691 -0.092193 -0.006159 -0.073972 0.145627 -0.15225 -0.053373 0.093501 -0.006107 0.04413 0.186046 -0.098408 0.199472 0.186096 0.163884 0.172805 0.064425 -0.04161 0.131829 0.010201 -0.12358 0.009225 -0.16262 -0.009664 -0.110038 0.19284 0.088062 0.137671 -0.018017 -0.1722 -0.015099 -0.007537 0.047423 -0.025555 0.128165 -0.06147 -0.007149 0.227166 0.114048
0.06553 -0.125673 0.034491 0.043696 -0.08785 -0.070191 -0.104459 -0.048669 0.006119 0.030927 -0.13537 -0.036367 -0.163152 -0.059444 0.060532 -0.023973 0.098727 0.031182 -0.080261 0.051743 -0.07395 0.036216 -0.082271 -0.07694 -0.227916 8.49E-4 0.074039 -0.007776 0.046045 -0.104478 0.002922 0.032865 -0.001549 -0.142678 0.054115 -0.01641 0.00671 0.02971 0.075554 0.035918 0.017778 0.02266 0.074529 -0.007011 -0.166621 -0.149341 -0.036893 0.187838 -0.051182 0.035542 0.035646 -0.071808 0.164016 0.07998 0.087969 -0.192645 -0.030305 -0.225898 -0.106839 -0.021025 0.244137 -0.057087 -0.051305 0.059616 -0.184024 0.189175 0.205994 -0.054882 -0.034451 -0.087239 0.044602 -0.036991 -0.094929 -0.008204 0.212651 0.003758 -0.115127 0.104404 0.032918 0.078207 0.184447 0.044535 -0.025218 -0.026929 -0.017865 0.117728 0.029414 -0.031504 0.043071 0.093661 -0.096078 -0.012874 0.052235 0.078689 -0.053345 -0.059396 0.152948 -0.086422 -0.102222 -0.027954
0.036737 -0.032921 0.024463 0.001525 -0.14953 -0.081921 0.05195 0.033054 0.042371 0.187633 -0.169856 -0.043431 -0.173636 0.224604 -0.099043 -0.052621 -0.094147 -0.087315 -0.205223 0.126826 -0.051988 0.057934 0.007092 0.028646 0.030134 0.006318 0.118765 0.00841 -0.042876 -0.067148 -0.15148 -0.042306 0.047684 0.10077 -0.040846 -0.155266 0.173754 7.38E-4 -0.149543 -0.155015 0.042332 1.9E-5 0.164393 -0.109523 -0.01025 0.019395 0.060378 0.084138 0.12078 -0.042878 0.08194 -0.06976 0.047308 0.056745 0.006819 -0.026824 -0.156007 0.042841 -0.214906 -0.100455 0.001679 0.056153 0.00309 0.056995 -0.027269 0.054063 -0.021361 -0.118937 -0.039109 0.253888 -0.099679 0.068347 0.024916 0.004649 0.026359 0.067277 0.089904 -0.116294 -0.057639 -0.070171 0.238942 -0.101354 -0.104886 -0.195107 -0.268537 -0.124495 -0.010152 -7.27E-4 0.045996 0.182311 -0.129108 -0.070264 -0.013 0.100287 -0.131971 0.14376 -0.073632 0.262197 -0.055353 0.017675
-2.648351 -0.794316 -2.108887 0.20446 0.883061 0.242784 1.848653 1.149137 -4.975573 0.237654 -1.499665 2.924494 0.344217 -1.640431 0.763777 0.138944 -3.029439 -2.813434 -0.761102 -1.057557 -1.373735 -0.870599 1.234095 0.127805 -1.372618 1.35802 -1.501738 0.80945 0.172993 -0.484995 1.783363 -0.047587 0.483285 -1.526831 2.103549 2.116639 4.583491 -4.022388 -0.843817 0.361243 -0.546655 -2.301259 -2.000973 2.64631 -1.604053 -1.914206 -1.581895 -0.464185 1.757769 1.056301 0.263866 -0.904419 -0.422466 0.007824 -1.651553 0.7499 1.638666 -0.336108 -3.288466 -2.953238 -1.135414 1.165223 -1.047256 -0.821696 -0.135806 0.434207 -2.389307 -3.56953 -0.656773 0.578325 3.337902 0.782195 -1.250815 2.925509 -1.981492 0.121786 0.836257 1.710923 -2.640405 -0.628995 0.247469 0.863847 1.749171 -0.214156 -0.274807 2.192709 -0.892334 -1.614644 -1.225919 -0.042182 2.51632 3.464583 -3.591523 -2.506587 0.990426 1.8843 -2.460629 0.953462 0.359605 2.267383
3.229447 1.832686 -0.196265 -0.303454 -0.824437 2.082854 1.150219 -0.493805 -3.50143 -0.594107 2.103319 2.396154 1.056781 -0.578498 -1.172209 3.210305 -0.978008 -1.908997 -0.472705 -1.788789 -2.346806 -2.098664 -0.288581 -2.078696 0.41261 0.520842 -1.276654 0.578767 1.70845 -0.136278 -1.41294 0.371846 1.173228 1.232021 0.598135 -3.597398 4.723318 -0.907374 3.160397 -2.027976 1.188048 -5.433854 0.01906 -0.240727 2.932695 1.836205 0.69537 0.647449 5.328198 0.625981 0.041762 2.070653 0.300511 1.656161 -2.571092 0.908767 3.294905 2.941907 -1.065341 -2.086696 -0.817265 -1.894089 0.299235 -1.879644 0.485823 1.848637 -0.344618 -2.532108 2.074767 0.482597 3.034693 1.42216 0.457834 2.431775 -0.318071 1.666885 -1.364005 1.576786 -1.71492 -0.790398 2.548478 -2.38312 -0.502643 1.256626 0.730181 1.714355 1.091085 4.672542 0.202716 -0.959086 0.774024 -2.161259 -1.810393 -2.763748 0.167227 4.207294 2.675714 0.636561 -0.117425 -0.284099
-0.066267 0.201871 0.108034 0.076583 0.16994 0.005658 -0.0302 -0.129966 -0.158724 -0.008996 0.069749 0.122597 -0.101687 -0.097132 0.165063 0.240302 -0.114908 -0.005206 -0.042209 0.284939 0.084863 -0.147275 0.257734 0.019663 -0.021052 -0.329583 0.037826 0.204777 0.18125 0.002744 -0.113394 -0.202896 -0.157376 0.32488 -0.207653 -0.088064 0.430444 -0.042329 -0.246823 -0.068491 0.257524 0.102657 0.021031 0.134687 -0.133491 -0.151161 0.076248 0.020933 -9.22E-4 -0.098347 0.008631 0.017043 -0.010621 -0.296357 0.237198 -0.06866 -0.046374 0.055293 0.030538 -0.361248 -0.042527 -0.090818 -0.003849 0.091373 -0.185789 0.178883 -0.18751 0.182729 0.102027 0.060574 -0.060221 -0.093019 0.120862 0.060054 0.193614 0.085517 0.160454 -0.249536 -0.222271 -0.109296 -0.059619 -0.004339 0.061643 -0.058035 0.15235 -0.14135 0.049639 -0.077826 0.235839 0.031614 -0.055268 -0.08326 -0.297275 0.282935 -0.060943 0.008625 0.090085 0.104306 -0.021654 -0.070119
-0.019201 0.028111 0.019217 0.052324 -0.012545 0.076041 0.041859 0.132425 -0.042682 -0.25324 0.153679 -0.052639 -0.234426 0.154245 0.001178 0.07083 0.073083 0.160228 0.024133 -0.054811 0.001969 0.005439 0.181016 0.099355 -0.126409 -0.051701 0.037309 -0.123638 0.247936 -0.162055 0.114555 0.125901 0.087982 0.08593 -0.090916 0.032607 0.058566 -0.084423 -0.083684 -0.120125 -0.142636 -0.134573 0.099572 -0.067549 0.144656 -0.140025 -0.119758 0.069446 0.087216 -0.032862 -0.006618 -0.111395 0.032981 -0.031112 -0.118341 0.110071 -0.111936 0.153878 0.041608 0.007703 0.064796 -0.130385 0.030277 0.045725 -0.1256 0.149386 -0.11782 -0.166733 0.122695 0.114102 -0.065025 -0.01284 -0.004014 -0.036946 -0.052576 0.183617 0.039352 -0.109896 0.002856 -0.049741 0.098582 -0.079185 0.058208 -0.092538 -0.020486 -0.024785 0.136707 0.03449 -0.090652 0.201497 -0.097455 0.025029 -0.120762 -0.013839 -0.051103 -0.067125 -0.00444 -0.252706 0.02388 -0.108891
0.129347 -0.034539 0.110756 -0.026581 0.053886 -0.05038 0.172565 0.132583 -0.006302 -0.025741 0.199193 -0.01627 -0.058173 0.038852 0.028399 0.136799 0.128914 -0.089835 0.105659 0.069627 -0.106558 0.048134 0.078275 0.091079 -0.215898 0.129203 0.06114 0.070604 0.154959 -0.061403 -0.15137 0.108239 0.040297 -0.028921 -0.140838 0.004863 0.040579 -0.022986 0.060521 -0.153493 0.09818 -0.227794 -0.085577 0.195567 -0.053753 0.112956 -0.044755 -0.040024 -0.044331 -0.019505 -0.063551 -0.166768 -0.1715 -0.163148 0.313635 0.204647 -0.094257 0.087367 0.093534 0.108667 -0.039805 0.002312 0.075644 -0.03595 0.023051 0.049548 -0.016284 0.056146 -0.060892 0.086197 0.080908 -0.100306 0.007319 0.050592 0.04522 -0.055598 0.156943 -0.10538 -0.039652 -0.321456 0.14167 -0.161084 -0.014301 -0.218639 -0.161051 0.149793 0.124222 0.004853 -0.114716 0.088538 -0.055419 0.040508 -0.109684 -0.082626 -0.151726 -0.053494 -0.152339 0.019812 0.07956 0.091433
-0.072674 -7.172178 3.243542 -3.416216 -3.078808 6.196021 -4.841667 1.097196 -0.069161 1.281094 -1.867299 2.00664 -3.509578 -1.91784 -3.71946 -1.31319 -2.045076 0.300286 -1.171953 -1.055153 0.413733 -4.900678 -1.569404 0.87886 -2.045129 -1.808549 3.916455 -0.208298 2.321721 -2.340044 -1.758158 0.426659 -1.302078 -0.956855 -1.534045 -0.5092 3.699516 -1.615464 -4.803689 1.209575 2.470521 -1.772277 -1.289194 0.075271 2.969475 5.294761 1.165935 1.551812 -2.864125 -2.655352 5.174971 1.730763 -3.638956 -1.622863 -1.08695 -1.558467 -3.220565 0.142856 -2.906218 2.40766 -2.416126 -0.276478 1.480663 0.762824 -0.901475 0.444124 -2.828977 2.000263 -3.260752 0.442676 2.227862 0.843619 -0.517631 -1.033588 -2.178106 1.253474 -1.086825 1.923508 1.341381 -3.757782 1.47075 1.992821 3.822498 6.974607 4.826773 0.101915 1.476335 -1.446077 -2.964966 2.275137 5.51195 -1.78916 -2.196929 -0.36233 1.699235 -0.269662 -2.034092 -1.169337 -1.898828 -0.46444
0.0 0.0 0.0 0.0 0.0 0.0 0.0 0.0 0.0 0.0 0.0 0.0 0.0 0.0 0.0 0.0 0.0 0.0 0.0 0.0 0.0 0.0 0.0 0.0 0.0 0.0 0.0 0.0 0.0 0.0 0.0 0.0 0.0 0.0 0.0 0.0 0.0 0.0 0.0 0.0 0.0 0.0 0.0 0.0 0.0 0.0 0.0 0.0 0.0 0.0 0.0 0.0 0.0 0.0 0.0 0.0 0.0 0.0 0.0 0.0 0.0 0.0 0.0 0.0 0.0 0.0 0.0 0.0 0.0 0.0 0.0 0.0 0.0 0.0 0.0 0.0 0.0 0.0 0.0 0.0 0.0 0.0 0.0 0.0 0.0 0.0 0.0 0.0 0.0 0.0 0.0 0.0 0.0 0.0 0.0 0.0 0.0 0.0 0.0 0.0
0.0 0.0 0.0 0.0 0.0 0.0 0.0 0.0 0.0 0.0 0.0 0.0 0.0 0.0 0.0 0.0 0.0 0.0 0.0 0.0 0.0 0.0 0.0 0.0 0.0 0.0 0.0 0.0 0.0 0.0 0.0 0.0 0.0 0.0 0.0 0.0 0.0 0.0 0.0 0.0 0.0 0.0 0.0 0.0 0.0 0.0 0.0 0.0 0.0 0.0 0.0 0.0 0.0 0.0 0.0 0.0 0.0 0.0 0.0 0.0 0.0 0.0 0.0 0.0 0.0 0.0 0.0 0.0 0.0 0.0 0.0 0.0 0.0 0.0 0.0 0.0 0.0 0.0 0.0 0.0 0.0 0.0 0.0 0.0 0.0 0.0 0.0 0.0 0.0 0.0 0.0 0.0 0.0 0.0 0.0 0.0 0.0 0.0 0.0 0.0
-0.210297 -0.110426 0.216681 0.234905 0.146177 -0.027548 -0.167471 0.090435 -0.207622 -0.092425 0.003913 0.178187 -0.016488 0.102242 0.121312 0.07318 0.056993 0.388147 0.139244 0.12288 0.130087 0.201213 0.113501 -0.015419 -0.231154 -0.007734 -0.231062 -0.078131 0.05559 -0.303317 -0.035802 -0.253457 -0.076114 -0.133836 -0.075931 -0.035982 -0.057258 0.141355 -0.232815 0.059615 0.021996 -0.030046 -0.130594 -0.228321 -0.011104 -0.012042 -0.175301 0.090232 -0.045175 -0.161788 0.125901 0.021348 -0.079319 -0.213233 0.125293 -0.349209 0.047147 -0.198495 -0.04132 -0.060085 0.043266 -0.128431 0.108734 0.328802 -0.308664 -0.195565 -0.074267 -0.2212 0.076606 0.207828 0.06611 0.127721 0.126594 -0.043507 0.204157 -0.138518 0.086449 0.128265 0.002965 0.146771 0.202147 -0.035849 0.128995 0.019777 -0.140549 -0.164229 0.047008 0.253277 0.113727 0.042127 -0.320517 -0.071481 -0.067294 0.093729 0.195632 -0.137148 0.111997 0.06802 -0.233878 0.165139
-0.052909 0.025143 0.068653 0.007157 0.011234 0.036372 0.043707 0.054511 -0.053174 -0.043019 0.060511 -0.048646 -0.067574 0.073135 0.180058 -0.067954 0.056104 0.048957 -0.026837 0.017887 -0.066345 0.111809 0.008814 0.042789 -0.081723 -0.231614 -0.054533 -0.042471 0.174947 0.003484 0.075105 -0.05242 -0.102105 0.069054 -0.041269 0.032313 0.116635 5.57E-4 0.085291 0.110494 0.108896 0.042603 -0.056126 0.017715 0.092263 0.169691 0.112594 0.041834 0.060141 0.041644 0.04647 0.064717 -9.63E-4 -0.13351 0.063508 -0.237244 0.079755 -0.099942 0.051928 -0.116207 -0.026734 -0.055449 0.042605 -0.042566 0.040305 0.049141 0.103737 0.088645 -0.117647 -0.164979 -0.036473 -0.052894 0.086874 0.089989 0.129154 -0.122938 -0.022409 -0.039708 -0.120727 -0.078467 -0.016841 0.107075 0.039005 -0.061214 0.127975 0.050425 -0.016271 -0.057088 -0.083193 0.066411 -0.123916 0.0576 0.073208 0.049729 -0.145444 -0.117469 0.03845 -0.056778 -0.005137 0.081234
0.463253 -0.07331 0.395771 -0.968373 -0.440558 0.032104 -0.737681 0.940274 -0.210841 0.227768 0.368569 -0.455817 0.182824 -0.227267 0.773688 0.622304 0.474775 0.177235 -0.165091 -0.047933 0.601783 0.344021 0.792065 0.423881 -0.674448 -0.655323 0.721348 -0.044616 -0.122589 -0.146364 -0.383462 -0.004189 -0.439055 -0.423542 -0.20715 -0.938272 0.067155 0.029115 -0.287882 0.241028 0.582502 0.13384 0.522386 0.600774 0.674138 0.180129 0.473663 0.52911 0.409643 -0.095635 -0.302178 -0.472463 -0.470214 0.95278 0.003854 0.390499 0.385298 -0.024454 0.291012 0.147112 0.631299 0.273945 0.276661 0.120844 -0.546077 -0.139035 0.979782 0.238807 0.293736 0.36964 -0.629599 0.214335 -0.174549 0.764739 -0.10633 -0.1497 -0.978837 -0.479465 0.63208 0.336289 -0.396886 0.356525 -0.424265 -0.678049 -0.201653 -0.780593 -0.431444 0.65849 0.376169 -0.208564 0.326993 0.785941 0.352555 0.319401 0.05889 -0.019652 0.377313 -0.060819 -0.085389 -0.164319
2.230384 2.57E-4 -1.678975 -1.555628 -2.357657 2.265452 0.678842 0.233296 0.076624 1.843067 0.745985 1.41654 -0.995556 -0.944992 -0.225089 -0.071161 -1.830699 0.884739 -0.386654 1.080697 0.907707 0.50039 0.713684 -2.638825 0.19146 -0.737758 2.83714 0.679558 -2.546489 -0.675405 1.524268 -1.871826 0.812828 -2.532114 0.366652 2.367975 -1.560134 -0.894714 2.144815 0.035824 -0.517329 -1.167498 -0.322439 1.487399 1.288337 -2.455925 -0.68873 0.347358 -0.101244 -0.312722 2.424421 0.652207 0.309418 1.587607 -1.875759 -0.402055 0.501426 -0.378165 0.025554 0.077194 0.750846 0.300912 -0.447255 1.120057 0.690596 2.037422 -0.579657 -2.340285 1.805962 -0.041606 1.865699 -1.513036 -1.873489 0.769817 -0.706352 1.230228 -0.533311 0.452896 0.84748 0.852587 1.517258 0.085008 -0.258423 1.705048 0.345877 -0.608669 -0.45161 1.672221 1.368211 2.38534 -0.532738 0.104139 0.838027 2.854114 2.751583 0.196215 -0.430762 0.913765 -0.033766 3.275335
0.352905 0.550922 -1.128945 -0.511125 0.774489 1.405335 -0.371647 0.106012 -0.779785 -0.640302 -0.68578 1.570717 -0.712288 -0.706705 -0.789609 -0.045278 -1.599722 -2.840112 -0.089543 -1.158838 -1.862605 -0.62748 -0.063542 -0.468696 0.750564 0.033551 -0.772222 -0.188991 -0.163115 0.455978 0.038455 -0.779588 0.172303 -1.114448 -0.548246 -0.008155 1.66721 -0.744821 -0.15746 -2.668482 -0.304702 -0.905716 0.479063 0.151803 -0.94063 -0.044338 -0.906122 -0.456182 0.281891 0.268287 0.47007 0.628019 0.328428 1.471286 -2.345457 0.072073 -0.345477 -0.998199 -1.496897 -0.053061 0.351206 -0.934426 0.295591 0.07336 0.24092 0.486976 0.390085 -0.621556 0.375246 -0.02625 1.957847 1.014101 0.004675 0.08874 -0.900479 -0.462149 0.922254 1.355385 -1.048724 0.105897 1.254466 0.410718 0.321258 1.066395 -0.171761 -0.128774 0.315556 0.697301 -0.180925 0.555334 1.005586 -0.891677 -1.232923 -1.994189 -0.567812 0.204184 -0.947385 -0.051526 -0.987029 0.725141
-0.028363 -0.067505 0.192841 0.188934 -0.067921 0.006432 -0.17965 -0.01128 -0.006455 0.026866 0.129998 0.231064 0.01005 -0.072657 0.066001 0.373965 0.187987 0.215433 -0.073216 0.124291 -0.170127 0.217655 0.289721 0.036053 -0.165501 0.102116 0.012141 -0.084059 0.131438 -0.091141 -0.040628 -0.114652 0.069561 0.135216 -0.320887 -0.097532 -0.215854 -0.054228 -0.070766 -0.064903 -0.011907 -0.036055 -0.042895 -0.159584 0.137051 -0.169295 -0.082528 -0.115838 0.037863 -0.038047 -0.062549 -0.22978 -0.065249 -0.054277 0.073959 0.074109 -0.172126 0.203514 -0.070835 -0.059779 0.021899 -0.247512 0.177297 -0.112036 -0.119856 -0.269152 -0.05013 0.006087 0.067885 -0.014171 -0.090123 0.041589 -0.064244 -0.052175 -0.133467 -0.053012 -0.033519 -0.004545 2.73E-4 0.028431 -0.06255 0.137883 0.091678 -0.279879 0.121466 0.047768 -0.008515 0.047801 -0.051177 0.169685 -0.295786 0.023024 -0.048001 0.06686 0.088609 -0.028068 -0.101724 0.040617 -0.137678 -0.130477
0.233485 -0.169544 -0.176879 -0.264085 -0.107436 0.057878 -0.060163 0.020134 -0.075479 0.113908 -0.09997 -0.174725 -0.252921 -0.122678 -0.035219 -0.077484 0.037537 -0.037793 0.129264 -0.099879 0.019875 -0.018207 0.00781 -0.131311 -0.122916 0.092196 -0.101513 -0.137821 -0.180387 0.028172 0.152386 0.192303 -0.095574 -0.106227 0.072159 0.021054 0.055603 -0.084775 0.048133 -0.033319 -0.145469 -0.052611 0.055902 0.169461 -0.069542 -0.067575 -0.154715 -0.139578 0.004359 -0.018258 0.099611 -0.130799 0.00714 -0.072897 0.088522 -0.010623 -0.01831 -0.120719 -0.232138 0.024499 0.020253 0.024691 -0.092193 -0.006159 -0.073972 0.145627 -0.15225 -0.053373 0.093501 -0.006107 0.04413 0.186046 -0.098408 0.199472 0.186096 0.163884 0.172805 0.064425 -0.04161 0.131829 0.010201 -0.12358 0.009225 -0.16262 -0.009664 -0.110038 0.19284 0.088062 0.137671 -0.018017 -0.1722 -0.015099 -0.007537 0.047423 -0.025555 0.128165 -0.06147 -0.007149 0.227166 0.114048
0.012081 -0.109525 0.132941 -0.048567 -0.110607 0.069992 -0.063588 -0.158531 -0.158784 -0.013888 0.035706 -0.135947 -0.134464 0.071779 -0.027952 -0.023991 -0.146928 0.287666 0.117409 -0.037438 -0.061732 0.232652 0.236335 0.028172 -0.189825 0.110793 0.078263 -0.244431 -0.123773 -0.077728 0.190686 -0.186177 -0.206608 0.032748 -0.047155 -0.054193 0.051629 0.038668 -0.066155 0.009935 -0.05105 -0.075172 0.032713 0.074729 -0.033297 -0.059223 0.121652 0.065041 -0.229325 0.07065 0.123837 -0.158647 -0.082621 -0.011452 0.089273 -0.01698 7.0E-6 0.021968 0.097433 0.058386 0.059717 0.143983 -0.277892 -0.066483 -0.021533 -0.017909 -0.056886 -0.012421 0.109274 -0.023096 0.008059 0.116352 -0.064568 0.122588 0.18849 0.093756 -0.199127 -0.066128 -0.049119 0.15539 -0.109357 0.167264 -0.032739 -0.04127 0.039432 -0.143022 0.060826 0.219589 0.390066 -0.118427 -0.157044 0.109906 -0.054419 0.056566 -0.069204 0.007117 -0.095487 -0.069454 0.070936 -0.125083
1.182212 -2.531039 1.128113 0.898601 2.75209 0.012921 -2.383325 1.026026 0.903226 -0.962966 -2.577595 -1.37635 -1.449845 5.814804 1.340394 1.177734 1.139675 -0.904302 -0.934509 -2.628148 0.774728 0.123914 3.260528 -0.71475 -1.561875 -0.466455 0.791026 3.613736 3.412659 -2.335449 0.270221 -1.207132 -0.237126 -0.493326 -0.348522 0.010153 0.920751 -1.993505 -0.359035 -0.218314 -1.678174 -4.184809 -0.872747 -0.452388 0.775696 0.846023 -0.351939 -0.164937 0.59197 -5.224001 1.147328 -0.258624 -2.291126 -0.005562 2.019471 0.097873 -0.757841 -1.945638 0.238279 -0.979349 -1.793747 0.343991 -1.858576 -0.219856 2.983737 -1.276173 -2.45311 -1.697362 -1.109122 -0.076709 -0.404688 0.009829 -1.051091 2.530171 0.233478 -1.160306 0.102372 -0.65883 -1.283483 -2.203568 0.773085 -0.103697 0.13014 -0.5742 -3.690474 -1.745835 1.476038 0.308663 0.21914 -2.119529 -3.136288 3.768542 -0.536725 2.052079 1.562024 -0.962654 -2.809072 0.356201 -1.572418 -0.790401
0.0 0.0 0.0 0.0 0.0 0.0 0.0 0.0 0.0 0.0 0.0 0.0 0.0 0.0 0.0 0.0 0.0 0.0 0.0 0.0 0.0 0.0 0.0 0.0 0.0 0.0 0.0 0.0 0.0 0.0 0.0 0.0 0.0 0.0 0.0 0.0 0.0 0.0 0.0 0.0 0.0 0.0 0.0 0.0 0.0 0.0 0.0 0.0 0.0 0.0 0.0 0.0 0.0 0.0 0.0 0.0 0.0 0.0 0.0 0.0 0.0 0.0 0.0 0.0 0.0 0.0 0.0 0.0 0.0 0.0 0.0 0.0 0.0 0.0 0.0 0.0 0.0 0.0 0.0 0.0 0.0 0.0 0.0 0.0 0.0 0.0 0.0 0.0 0.0 0.0 0.0 0.0 0.0 0.0 0.0 0.0 0.0 0.0 0.0 0.0
0.016761 -0.116603 -0.128803 -0.085956 -0.331505 -0.005635 -0.24598 -0.189948 -0.156206 -0.002443 0.075572 -0.008364 -0.139675 0.126897 -0.004456 0.057895 -0.088723 0.174266 0.085188 -0.085007 -0.075556 0.123927 0.088185 0.026955 -0.130153 0.076374 0.0957 -0.25201 0.003484 -0.238015 -0.036255 0.039226 -0.015772 -0.079196 -0.335473 0.006978 0.172757 -0.121315 -0.06076 -0.098614 -0.100969 0.179943 -0.134157 -0.075677 0.053369 -0.162456 0.128946 0.087226 -0.11526 0.126585 0.04661 -0.14619 0.024327 0.220343 0.068667 -0.090185 0.082926 -0.065364 0.019387 0.003375 0.059688 0.017492 -0.074307 -0.126323 -0.142204 0.029827 -0.080282 -0.049183 0.133455 0.03925 0.081019 0.02228 -0.085705 0.010979 0.090813 -0.218384 -0.081749 0.05013 0.043586 0.112995 0.092207 0.051805 0.232937 0.013064 -0.138894 0.218488 0.139092 0.161748 0.127503 -0.165375 -0.172091 -0.015813 -0.013581 0.0414 -0.044944 -0.06549 -0.065871 -0.026492 -0.022413 -0.13116
-0.034389 -0.155456 0.165438 -0.08501 0.031145 0.146589 0.011542 0.041099 -0.054408 0.002071 0.095363 0.06084 -0.095816 -0.176451 0.104143 0.06392 0.274541 0.124244 -0.071819 -0.032675 -0.01743 0.055379 0.266393 0.129552 -0.119948 -0.0144 0.116546 -0.015862 0.041776 0.011889 0.032998 -0.138819 0.067969 -0.026994 -0.182485 0.205072 -0.008216 0.008179 -0.089372 -0.071517 0.017638 0.004202 0.183011 -0.125382 0.050341 0.100882 0.003407 -0.084112 -0.216215 0.078509 -0.23538 0.056796 -0.022311 -0.025274 0.046442 0.137082 0.0151 0.089792 -0.184163 0.091505 0.023519 -0.213222 -0.212568 -0.13965 0.087245 -0.092819 0.105928 -0.232864 0.01352 -0.03682 0.272231 -0.098941 -0.307328 0.21383 -0.08911 -0.028757 -0.078596 0.136176 0.208714 0.111532 -0.071354 -0.086276 -0.01039 -0.17978 0.111322 0.154755 -0.150561 -0.012288 0.185951 0.181108 -0.080809 0.055385 0.029985 0.148265 -0.090434 -0.14077 0.038677 -0.044264 -0.029844 -0.153936
0.255485 -1.276392 0.222156 1.477285 -0.479825 1.179874 -1.972698 -0.197214 -1.520237 -0.012809 0.978256 0.904212 -2.640176 0.682815 0.582159 1.097231 0.821088 -0.277028 -0.596789 0.830273 -0.064205 1.070412 2.10008 0.33863 -1.078703 1.769213 -0.244409 2.642053 1.827754 -1.667733 0.322095 0.505658 0.960539 0.340702 -1.357225 0.079136 -0.256575 0.238904 -0.365027 -1.00149 -2.192447 -4.152352 -0.738396 -1.082137 0.330372 0.79742 -1.120942 -2.065085 1.771927 -1.030424 -1.471479 -1.148729 0.044319 -0.675935 0.57597 0.986359 -1.237179 -0.89946 -1.845365 -1.75778 -0.640798 -0.607996 -1.053879 -0.504839 -0.733751 -1.266803 -1.07199 -1.567567 -0.592649 0.897631 0.75474 0.044456 0.030446 -0.608024 0.10011 0.428988 0.397041 0.521278 0.394105 -1.718288 0.873011 -0.84528 -0.26521 -2.18245 -1.650362 0.531907 -0.040594 -0.118575 -0.027335 1.988229 -0.158513 0.142133 -0.562452 -0.85727 1.185843 0.009449 -1.683584 -0.377853 -0.808441 0.753821
-0.020172 0.267531 0.01011 -0.070243 -0.164767 0.048139 -0.018786 0.211137 0.05407 -0.147125 0.50815 -0.326073 -0.367965 -0.258042 0.24794 -0.265735 -0.304189 0.163625 -0.160495 -0.509336 0.150125 0.04102 0.290338 -0.075247 -0.017694 -0.135188 -0.107975 0.368166 0.10484 0.147221 -0.126815 -0.099208 0.142949 -0.109188 -0.105988 -0.196531 -0.202576 0.003435 0.045777 0.445085 0.030191 0.154942 0.040784 -0.359961 0.519933 -0.478788 -0.202829 0.294871 0.020136 0.008101 0.261785 -0.251837 -0.093513 0.1928 0.264957 0.011494 0.083496 0.116592 0.486826 -0.158051 0.193505 0.228926 -0.097021 -0.087205 -0.134816 -0.442904 0.505253 -0.480423 0.237335 0.08203 -0.470299 -0.131144 -0.262702 -0.319137 -0.338844 -0.376533 0.158437 -0.210766 0.0838 0.026395 0.294568 -0.279437 0.145963 -0.30803 0.197464 0.03756 0.00103 -0.143047 -0.097548 -0.135926 0.152767 0.514809 0.250605 0.06612 0.232616 0.030314 -0.120903 0.168622 -0.23717 -0.482027
0.003772 0.059917 -0.005339 -0.122639 -0.064394 0.020403 0.082146 0.085133 0.194471 -0.067586 0.075385 -0.009933 0.041241 0.042617 0.154404 0.00977 -0.044104 -0.112267 0.029421 0.049845 0.02723 0.017649 0.082491 0.160788 -0.001029 -0.011256 -0.121976 -0.108063 0.049015 0.006047 0.109804 0.116279 -0.045357 0.107098 0.167844 0.01025 0.157226 0.166732 -0.189593 0.064612 -0.074583 -0.117035 -0.06943 -0.032357 -0.053915 4.77E-4 -0.127866 -0.034624 0.020842 -0.081807 -0.024191 0.079707 -0.070059 0.046102 -0.137059 0.082153 -0.081451 -0.008189 0.038967 -0.089436 0.034118 0.037167 -0.059729 0.050838 -0.045312 0.14582 0.0542 0.070652 0.075883 0.071451 0.024234 -0.064983 -0.135816 -0.004871 0.097168 9.6E-5 0.023537 0.049276 -0.096959 -0.113435 0.199257 0.128414 0.086377 -0.151764 -0.119737 -0.189061 0.099777 -0.046698 0.025487 -0.110833 -0.060514 0.093381 -0.107849 0.121369 -0.006654 -0.097659 0.06927 -0.016069 0.131439 0.051263
1.334478 0.56436 -1.603635 0.912445 2.221672 1.56943 -0.303465 0.589375 -2.69323 0.384322 0.358918 2.406595 -1.985486 -0.183182 -0.911629 1.571568 -2.16796 -3.121176 -0.899193 -1.979021 -1.959272 0.912333 1.273762 -0.198062 0.971122 1.52374 -0.309081 2.448326 1.601577 -1.552868 -1.420075 -0.261505 1.438153 -0.124586 -1.495065 -0.600136 1.40277 0.058802 -0.268475 -2.225384 -2.291475 -4.441744 1.14801 -0.569455 -0.371657 1.176302 -1.368912 -1.196988 2.185863 -0.313704 1.717073 -0.666015 -1.077057 2.551148 -1.932776 0.054327 -0.102726 -0.17058 -0.912058 -2.256425 -0.309558 -0.671292 0.420601 -1.439195 -1.892122 0.337137 -2.300364 -2.79083 -0.266267 2.864827 3.634638 -0.322773 0.841829 0.469717 1.547861 -0.552432 1.61195 0.508984 -0.264752 0.467316 1.386163 -1.4431 -0.15667 -0.07713 -2.121193 0.621864 0.635885 -0.738586 0.259944 2.962727 0.005839 -0.444849 -3.654301 -3.130575 1.11358 2.289078 0.244818 0.175707 -1.252141 1.653986
0.0 0.0 0.0 0.0 0.0 0.0 0.0 0.0 0.0 0.0 0.0 0.0 0.0 0.0 0.0 0.0 0.0 0.0 0.0 0.0 0.0 0.0 0.0 0.0 0.0 0.0 0.0 0.0 0.0 0.0 0.0 0.0 0.0 0.0 0.0 0.0 0.0 0.0 0.0 0.0 0.0 0.0 0.0 0.0 0.0 0.0 0.0 0.0 0.0 0.0 0.0 0.0 0.0 0.0 0.0 0.0 0.0 0.0 0.0 0.0 0.0 0.0 0.0 0.0 0.0 0.0 0.0 0.0 0.0 0.0 0.0 0.0 0.0 0.0 0.0 0.0 0.0 0.0 0.0 0.0 0.0 0.0 0.0 0.0 0.0 0.0 0.0 0.0 0.0 0.0 0.0 0.0 0.0 0.0 0.0 0.0 0.0 0.0 0.0 0.0
0.0 0.0 0.0 0.0 0.0 0.0 0.0 0.0 0.0 0.0 0.0 0.0 0.0 0.0 0.0 0.0 0.0 0.0 0.0 0.0 0.0 0.0 0.0 0.0 0.0 0.0 0.0 0.0 0.0 0.0 0.0 0.0 0.0 0.0 0.0 0.0 0.0 0.0 0.0 0.0 0.0 0.0 0.0 0.0 0.0 0.0 0.0 0.0 0.0 0.0 0.0 0.0 0.0 0.0 0.0 0.0 0.0 0.0 0.0 0.0 0.0 0.0 0.0 0.0 0.0 0.0 0.0 0.0 0.0 0.0 0.0 0.0 0.0 0.0 0.0 0.0 0.0 0.0 0.0 0.0 0.0 0.0 0.0 0.0 0.0 0.0 0.0 0.0 0.0 0.0 0.0 0.0 0.0 0.0 0.0 0.0 0.0 0.0 0.0 0.0
0.0 0.0 0.0 0.0 0.0 0.0 0.0 0.0 0.0 0.0 0.0 0.0 0.0 0.0 0.0 0.0 0.0 0.0 0.0 0.0 0.0 0.0 0.0 0.0 0.0 0.0 0.0 0.0 0.0 0.0 0.0 0.0 0.0 0.0 0.0 0.0 0.0 0.0 0.0 0.0 0.0 0.0 0.0 0.0 0.0 0.0 0.0 0.0 0.0 0.0 0.0 0.0 0.0 0.0 0.0 0.0 0.0 0.0 0.0 0.0 0.0 0.0 0.0 0.0 0.0 0.0 0.0 0.0 0.0 0.0 0.0 0.0 0.0 0.0 0.0 0.0 0.0 0.0 0.0 0.0 0.0 0.0 0.0 0.0 0.0 0.0 0.0 0.0 0.0 0.0 0.0 0.0 0.0 0.0 0.0 0.0 0.0 0.0 0.0 0.0
-0.205676 0.080441 -0.035888 -0.010409 -0.036601 -0.187614 -0.163101 0.063726 -0.0964 0.03273 0.054014 0.174916 -0.05358 -0.168242 -0.127577 0.23307 0.094928 0.021819 0.084448 -0.059543 -0.012789 -0.01479 0.006847 0.039754 -0.176746 0.021365 0.037231 0.018082 0.051285 -0.170516 0.038806 0.014239 0.016543 -0.007205 -0.104716 0.122802 0.020149 0.208878 -0.134831 0.091717 0.067783 0.098017 -0.04025 -0.161173 -0.014903 0.021373 0.201496 -0.041616 -0.043652 -0.056432 0.093343 0.045586 0.149423 0.104579 -0.024202 -0.073469 0.16386 0.0928 0.131421 -0.145468 0.059998 -0.044913 0.086842 -0.054527 -0.212147 -0.055705 0.018523 -0.008623 0.112246 -0.02317 0.073592 0.131876 0.152538 -0.002085 0.067547 -0.033732 0.026096 0.021758 -0.085384 0.065857 0.067836 -0.008533 0.089701 -0.128081 0.006311 -0.005025 0.09461 0.136495 0.0453 -0.066041 -0.122072 -0.048182 -4.39E-4 0.05518 -0.19537 0.098213 0.224928 -0.038705 -0.082649 0.023441
0.130834 -0.312734 -0.655364 -0.407293 -1.370967 -0.047771 -0.023866 0.127951 -0.064277 0.164935 -0.530879 -0.034474 -0.596752 0.415875 -0.024114 -0.099177 0.655204 -0.265442 -0.085303 0.336009 0.294374 0.095964 -0.002964 -0.423402 -0.792006 0.017786 0.746355 -0.182655 0.651948 -0.551494 -0.33222 -0.059357 -0.177434 -0.734448 -0.172254 -0.28855 -0.122764 -0.144682 -0.241214 0.048185 0.265912 0.384954 0.482595 0.776437 0.17462 0.104659 -0.196173 0.585959 0.518023 0.349878 -1.05311 -0.305642 0.443971 -0.402171 0.410263 0.612979 1.098793 -0.773455 0.332968 0.245034 1.474335 0.282222 0.357669 -0.325405 -0.497109 0.235981 0.227966 0.284145 0.51424 -0.336369 -0.120179 0.261586 0.241103 0.66009 0.717611 -0.225371 0.162916 0.258849 0.66918 -0.577556 0.396776 0.257242 0.201581 0.359113 0.147178 -0.152331 -0.129291 0.443011 -0.02815 1.023565 -0.718306 0.722008 -0.212217 0.997001 0.01153 -0.475176 0.057604 -0.037588 0.261282 0.553533
1.112954 -0.183859 0.669772 0.736186 3.723262 0.60634 -1.174749 1.096331 -0.991226 1.312231 1.904151 -0.98435 -1.765554 1.318662 0.579126 2.249065 -0.462041 -0.74877 -0.521388 0.579313 0.593899 -0.432079 4.401561 -4.083623 -1.280758 1.442565 1.574282 3.27023 3.337505 -0.396623 1.908519 0.376337 -0.103246 -0.250016 -3.247895 1.958177 -1.309956 -0.642554 0.631126 2.066274 0.847363 -5.924819 1.502471 -1.759492 0.565717 -1.158747 -1.399555 1.159686 4.873506 0.505411 -0.568984 -0.602223 -0.62357 3.166548 1.014109 2.365555 -1.670901 0.044011 -1.034765 -3.74944 -0.032979 2.446953 -0.543882 0.440677 -0.120772 -1.199338 0.296838 -1.804825 -0.782017 1.155816 1.069883 -1.275421 -0.905823 1.964295 0.31202 2.72876 -0.730513 1.792428 -0.219461 -0.846542 1.408551 -4.690707 -0.222245 -2.410511 -3.02076 0.02889 0.527689 0.736131 -0.438318 3.150315 -3.208391 0.830115 -3.275739 -0.21375 0.597848 -1.768863 -1.719797 -0.602128 -3.391898 -0.068135
3.229447 1.832686 -0.196265 -0.303454 -0.824437 2.082854 1.150219 -0.493805 -3.50143 -0.594107 2.103319 2.396154 1.056781 -0.578498 -1.172209 3.210305 -0.978008 -1.908997 -0.472705 -1.788789 -2.346806 -2.098664 -0.288581 -2.078696 0.41261 0.520842 -1.276654 0.578767 1.70845 -0.136278 -1.41294 0.371846 1.173228 1.232021 0.598135 -3.597398 4.723318 -0.907374 3.160397 -2.027976 1.188048 -5.433854 0.01906 -0.240727 2.932695 1.836205 0.69537 0.647449 5.328198 0.625981 0.041762 2.070653 0.300511 1.656161 -2.571092 0.908767 3.294905 2.941907 -1.065341 -2.086696 -0.817265 -1.894089 0.299235 -1.879644 0.485823 1.848637 -0.344618 -2.532108 2.074767 0.482597 3.034693 1.42216 0.457834 2.431775 -0.318071 1.666885 -1.364005 1.576786 -1.71492 -0.790398 2.548478 -2.38312 -0.502643 1.256626 0.730181 1.714355 1.091085 4.672542 0.202716 -0.959086 0.774024 -2.161259 -1.810393 -2.763748 0.167227 4.207294 2.675714 0.636561 -0.117425 -0.284099
-0.129572 -0.054498 -0.014431 -0.010518 -0.1181 0.04321 -0.009813 -0.141922 -0.03403 -0.003956 -0.042078 0.062186 0.118844 -0.007019 0.024397 -0.038015 -0.031213 -0.048661 -0.027383 0.149133 -0.084227 -0.003645 -0.139071 0.149603 -0.123784 0.01269 -0.008455 0.068437 0.0132 -0.094179 -0.227579 0.00503 -0.112782 -0.039869 0.015743 0.115204 -0.011434 -0.057123 0.170004 -0.124649 -0.149206 0.010117 0.100749 0.059569 -0.030563 0.033211 -0.086792 0.105512 0.226636 0.185125 0.10018 -0.086366 -0.105244 -0.062667 -0.093688 0.092907 -0.093358 -0.101969 -0.186214 0.035318 0.132782 -0.083167 -0.049597 -0.037183 0.033136 0.012714 0.04743 -0.030626 0.021592 0.11324 0.019346 0.021533 -0.099523 -0.071272 -0.058953 0.228175 -0.008318 -0.075132 -0.054205 -0.087851 -0.02149 0.132696 -0.091235 0.085887 7.98E-4 0.128983 -0.082309 -0.001982 0.039615 -0.043285 -0.044541 0.04972 -0.056688 -0.103972 0.004426 -0.085946 -0.100682 0.054136 -0.07561 -0.068316
-0.019201 0.028111 0.019217 0.052324 -0.012545 0.076041 0.041859 0.132425 -0.042682 -0.25324 0.153679 -0.052639 -0.234426 0.154245 0.001178 0.07083 0.073083 0.160228 0.024133 -0.054811 0.001969 0.005439 0.181016 0.099355 -0.126409 -0.051701 0.037309 -0.123638 0.247936 -0.162055 0.114555 0.125901 0.087982 0.08593 -0.090916 0.032607 0.058566 -0.084423 -0.083684 -0.120125 -0.142636 -0.134573 0.099572 -0.067549 0.144656 -0.140025 -0.119758 0.069446 0.087216 -0.032862 -0.006618 -0.111395 0.032981 -0.031112 -0.118341 0.110071 -0.111936 0.153878 0.041608 0.007703 0.064796 -0.130385 0.030277 0.045725 -0.1256 0.149386 -0.11782 -0.166733 0.122695 0.114102 -0.065025 -0.01284 -0.004014 -0.036946 -0.052576 0.183617 0.039352 -0.109896 0.002856 -0.049741 0.098582 -0.079185 0.058208 -0.092538 -0.020486 -0.024785 0.136707 0.03449 -0.090652 0.201497 -0.097455 0.025029 -0.120762 -0.013839 -0.051103 -0.067125 -0.00444 -0.252706 0.02388 -0.108891
-0.030478 -0.029704 0.104285 0.158612 0.020246 -0.063034 0.009871 0.064611 -0.121423 0.066949 0.0209 0.062737 0.101253 -0.059448 0.119358 0.179413 0.033275 -0.051668 -0.069776 0.090521 -0.128209 0.118932 0.104775 0.01293 -0.069656 0.075942 0.028342 -0.08674 0.186082 -0.187311 0.030275 -0.100482 -0.124546 0.020271 -0.210359 -0.018412 -0.064155 -0.088003 -0.069519 -0.003666 -0.074133 -0.112309 0.040917 0.061785 0.075892 -0.061442 0.030421 0.032333 -0.01834 0.025634 0.048241 -0.161526 0.052645 -0.041627 -0.005925 0.039892 -0.070295 0.009903 0.130391 -0.095444 0.015975 -0.076308 0.07472 -0.089704 0.041168 -0.0812 0.091911 -0.052093 -0.068306 -0.007351 0.037662 -0.004718 -0.079382 0.155061 0.077288 -0.017812 -0.161587 -0.073944 -0.051831 -0.090756 -0.080309 -0.070434 0.040414 -0.026328 0.0049 0.048362 0.031225 -0.061932 0.127734 0.095872 -0.111956 -0.009301 0.014213 -0.012897 -0.006996 -0.058216 -0.031507 0.120228 -0.046411 -0.020919
0.012081 -0.109525 0.132941 -0.048567 -0.110607 0.069992 -0.063588 -0.158531 -0.158784 -0.013888 0.035706 -0.135947 -0.134464 0.071779 -0.027952 -0.023991 -0.146928 0.287666 0.117409 -0.037438 -0.061732 0.232652 0.236335 0.028172 -0.189825 0.110793 0.078263 -0.244431 -0.123773 -0.077728 0.190686 -0.186177 -0.206608 0.032748 -0.047155 -0.054193 0.051629 0.038668 -0.066155 0.009935 -0.05105 -0.075172 0.032713 0.074729 -0.033297 -0.059223 0.121652 0.065041 -0.229325 0.07065 0.123837 -0.158647 -0.082621 -0.011452 0.089273 -0.01698 7.0E-6 0.021968 0.097433 0.058386 0.059717 0.143983 -0.277892 -0.066483 -0.021533 -0.017909 -0.056886 -0.012421 0.109274 -0.023096 0.008059 0.116352 -0.064568 0.122588 0.18849 0.093756 -0.199127 -0.066128 -0.049119 0.15539 -0.109357 0.167264 -0.032739 -0.04127 0.039432 -0.143022 0.060826 0.219589 0.390066 -0.118427 -0.157044 0.109906 -0.054419 0.056566 -0.069204 0.007117 -0.095487 -0.069454 0.070936 -0.125083
-0.123206 -0.100466 0.033243 0.077 0.179319 0.017614 -0.213811 0.006909 0.040688 -0.005939 0.169882 -0.011291 0.039273 -0.072059 0.265201 0.131076 -0.197205 0.18388 0.101345 -0.031916 -0.174318 -0.027724 0.09908 0.042575 -0.156309 -0.085915 -0.007616 -0.01886 0.014835 -0.178846 0.04764 0.155708 -0.058266 0.108582 -0.22361 -0.158065 0.055741 -0.106418 0.0566 0.056205 0.068477 -0.015639 0.07966 0.217827 -0.087038 -0.013006 0.045994 0.061203 -0.240925 0.174703 0.013485 0.1065 -0.1214 0.120009 0.073172 0.163889 -0.035355 -0.014525 0.003944 -0.185124 0.064569 -0.174246 0.088216 -0.058944 -0.040741 0.031097 0.04478 0.0277 0.069906 0.013228 -0.039618 -0.031374 -0.101997 0.014663 0.134126 -0.120279 -0.089788 5.05E-4 0.037787 -0.091697 0.095113 0.242647 0.048629 -0.06049 -0.043156 0.026519 -0.168255 -0.118608 0.074704 0.047452 -0.18402 -0.115334 -0.056956 0.115259 0.098713 -0.367984 -0.133056 -0.058586 0.008264 0.00623
-1.633219 -4.869603 2.392982 -2.00382 -0.21567 3.609867 -4.442931 0.14877 -2.893183 -1.54138 -0.23362 0.138491 -3.825051 -0.903611 -1.543271 -0.790373 -0.388478 -0.825267 -1.731368 1.822057 0.985161 -2.573329 0.793945 -1.440935 -3.724564 -1.404068 3.620064 -1.33373 4.389146 -2.950501 -2.855229 -0.117523 -1.848076 0.690864 -1.302029 -0.989009 0.680171 -1.387683 -3.577304 2.578146 3.180345 -5.959367 0.201164 -0.149873 4.18029 5.611717 0.802665 1.817042 -2.717104 -3.467346 5.015191 -0.729009 -3.251598 -0.728661 1.477279 0.723964 -3.625222 -0.412897 -2.07347 1.119501 -4.205388 -0.362913 -0.299947 1.014166 -1.876991 -0.510496 -4.229342 -0.167469 -0.589178 1.672468 0.501347 -1.763692 -1.4332 -0.315932 -1.332018 1.878366 -1.863082 -0.588752 0.615346 -3.070335 -1.40567 -1.761822 3.148813 1.233574 0.989617 -1.839355 -0.096459 0.009695 -1.958432 1.940921 1.708241 0.067877 -2.129856 1.872584 1.836348 0.604456 -1.982768 1.543893 -3.77314 -0.927144
0.045003 -0.044368 0.035605 -0.111328 -0.088894 -0.266315 -0.07028 0.107775 0.021199 0.07416 0.149725 -0.059767 -0.078851 -0.071729 0.075701 0.091335 0.006284 0.20138 -0.007662 0.06065 -0.026537 0.033796 0.10115 0.033268 -0.229362 -0.178954 -4.22E-4 -0.125666 0.085309 -0.030325 -0.009181 -0.038526 -0.07677 -0.093632 -0.033729 -0.105193 -0.029696 0.063649 0.138141 0.191724 0.035912 0.082086 0.035098 0.225494 -0.049091 -0.071138 0.018009 0.033332 -0.042904 -0.028433 0.007967 -0.272756 0.088335 -0.01126 0.081094 0.086058 0.030843 -0.012759 0.029973 -0.050464 0.171892 -0.0125 0.123663 -0.127754 -0.059796 0.026606 0.119471 -0.004179 -0.007435 -0.19189 0.007287 -0.100505 0.082598 0.101625 0.065534 -0.039888 -0.022124 0.141037 -0.05617 -0.111448 0.080651 0.14644 0.088826 -0.13346 0.034034 0.177955 0.066889 -0.030515 0.213414 0.182697 -0.125745 0.026604 -0.043917 0.191956 0.09239 -0.053894 0.07348 0.008211 0.065069 0.016111
1.939635 1.52901 1.289587 3.251535 -1.724015 -0.88548 -1.305419 2.302571 -1.417341 -1.68966 -0.63789 2.076267 -3.058223 1.539613 1.180597 0.029053 -0.321402 -2.23572 -2.38652 1.658533 -1.245721 -0.526509 -3.599429 0.754249 -0.80274 0.507379 -2.39552 1.105986 -0.056637 -0.438303 1.940801 -2.557426 0.985315 3.029874 0.213126 0.861485 3.121805 0.640059 -0.820139 -2.40745 -0.196076 -4.070904 0.803788 0.627065 2.287266 2.341116 0.489852 -1.57276 1.345608 0.42161 3.228641 4.822541 2.307207 0.997003 -2.753309 0.364194 3.286885 -0.854741 -0.545387 -4.263543 -0.321177 2.708668 -5.839749 -0.190246 1.192365 1.834868 0.85099 3.023894 0.019983 -0.356687 2.290085 -1.712409 1.283075 5.053623 2.119578 0.310527 -1.882558 -2.366862 0.130671 -0.478639 1.414622 1.526558 0.318589 2.752702 0.046978 -1.332104 0.951956 1.81757 -0.872666 2.804518 -1.758129 0.070445 -0.158419 -4.010314 -0.794193 0.288862 -0.172084 0.635215 -0.313457 -0.581935
0.040639 0.081814 0.04287 0.062167 0.092794 0.114908 -5.3E-4 -0.061893 -0.128806 0.029658 -0.102642 0.050736 0.021353 0.278962 0.156361 -0.045776 -0.059025 0.007615 0.069272 0.03742 0.044666 -0.205296 -0.009373 0.060588 0.130976 -0.007905 -0.098053 0.083234 0.088487 0.073668 -0.063313 0.05638 -0.149995 0.040243 0.139103 0.120814 0.186168 0.077513 0.035539 -0.137722 0.149343 -0.011946 0.157701 0.051791 -0.073664 0.096946 -0.283681 0.058369 -0.065895 0.126711 -0.040991 -0.045914 -0.057224 -0.17697 0.066608 0.102407 -0.15335 -0.00258 -0.222251 -0.069709 -9.96E-4 0.033302 -0.223593 -0.01348 0.109527 0.085455 -0.086426 0.046289 0.047765 0.150103 -0.094972 -0.019492 -0.08396 0.061637 0.042416 0.083935 -0.175169 -0.031524 -0.150901 -0.072843 -0.056665 0.199748 0.160562 -0.070466 0.072887 0.025233 0.011767 0.031496 0.08045 -0.027642 0.037393 0.123465 -0.042501 0.013419 0.046506 -0.08898 -0.024989 -0.132646 0.135167 0.194549
1.707806 3.137176 0.628324 3.02296 -0.085047 -1.201807 4.100977 -0.226173 -1.511378 -1.82671 2.369611 -2.905526 1.745116 -0.394367 0.121312 -0.303201 -1.312183 -1.951623 0.106203 -0.49762 -0.421719 4.013167 -2.277836 -0.245814 1.145327 -0.879664 -1.832237 1.282066 -0.486835 1.975519 -0.091256 -1.770034 0.2073 0.128281 1.126141 -0.950017 -0.935701 -0.380957 3.946569 0.421467 -2.250818 -0.911492 0.062704 2.740027 -3.924454 -4.688355 -2.551311 0.56268 1.209284 1.619684 2.109401 -3.139412 0.38487 2.393739 -1.273581 1.416031 2.365058 0.208593 1.549386 -0.001544 -0.4745 1.219308 -2.245879 1.010954 -1.036886 2.608149 1.74888 -1.692622 -1.019432 2.186007 -0.166051 0.289611 -0.493025 0.59837 1.083597 -2.646822 -2.301694 -1.754741 -1.592838 2.086056 2.766651 1.813229 -0.60827 -1.610219 -2.987375 0.770693 1.90687 0.62176 2.778448 -1.49272 -1.097084 4.586298 -2.67468 -0.756303 -1.816693 -1.197147 1.682386 -0.068429 -0.613042 2.798928
0.04638 0.084651 -0.047326 -0.360825 -0.267693 -0.041 0.042013 0.074692 0.012729 -0.033728 -0.037797 0.018026 -0.137492 -0.004249 -0.096124 -0.025067 0.036437 -0.004565 -0.172747 -0.155899 -0.07228 0.054561 0.022394 -0.009443 -0.197926 -0.026367 0.193093 -0.119754 0.020623 0.082947 0.014353 0.032847 -0.139957 0.022493 -0.182905 0.041514 -0.013932 0.161205 0.053491 0.027261 -0.081334 0.005421 -0.154199 0.024965 -0.011818 -0.096124 -0.069872 0.028464 0.195904 0.107377 -0.34343 -0.0781 0.188986 -0.167166 -0.027906 0.035301 -0.0727 -0.07741 -0.018542 -0.051571 0.063807 0.001605 0.026243 -0.117973 0.003921 0.054212 0.093347 0.055704 0.084389 -0.080522 -0.133084 -0.170045 -0.130651 0.04577 -0.007305 -0.087716 -0.13632 -0.014304 -0.107102 -0.160997 0.102931 0.15833 0.05093 -0.01358 0.102738 -0.042346 0.100767 0.128895 0.068898 0.285796 -0.127291 0.112381 -0.138326 0.078845 0.056817 0.102927 0.037438 0.085991 0.058668 0.009152
3.229447 1.832686 -0.196265 -0.303454 -0.824437 2.082854 1.150219 -0.493805 -3.50143 -0.594107 2.103319 2.396154 1.056781 -0.578498 -1.172209 3.210305 -0.978008 -1.908997 -0.472705 -1.788789 -2.346806 -2.098664 -0.288581 -2.078696 0.41261 0.520842 -1.276654 0.578767 1.70845 -0.136278 -1.41294 0.371846 1.173228 1.232021 0.598135 -3.597398 4.723318 -0.907374 3.160397 -2.027976 1.188048 -5.433854 0.01906 -0.240727 2.932695 1.836205 0.69537 0.647449 5.328198 0.625981 0.041762 2.070653 0.300511 1.656161 -2.571092 0.908767 3.294905 2.941907 -1.065341 -2.086696 -0.817265 -1.894089 0.299235 -1.879644 0.485823 1.848637 -0.344618 -2.532108 2.074767 0.482597 3.034693 1.42216 0.457834 2.431775 -0.318071 1.666885 -1.364005 1.576786 -1.71492 -0.790398 2.548478 -2.38312 -0.502643 1.256626 0.730181 1.714355 1.091085 4.672542 0.202716 -0.959086 0.774024 -2.161259 -1.810393 -2.763748 0.167227 4.207294 2.675714 0.636561 -0.117425 -0.284099
0.121753 -0.106569 0.081856 0.122616 0.073751 -0.032063 -0.209726 0.130895 -0.177663 0.065384 0.040977 0.026264 -0.068902 0.117969 0.355971 0.009746 0.092369 0.021514 0.05325 0.182212 0.00619 0.151455 0.269817 0.001657 0.011069 -0.164917 0.134801 0.247471 0.303823 -0.131286 -0.247069 -0.083166 0.09248 0.088337 -0.270282 -0.147237 0.127802 -0.051597 0.040221 -0.167816 -0.23003 -0.065106 0.002149 0.141071 -0.009989 5.65E-4 -0.195799 0.005825 0.166814 -0.134558 0.130408 -0.103939 -0.124602 0.021089 0.226671 -0.070352 0.089017 0.103695 0.095369 -0.118407 -0.089348 -0.227395 0.079469 -0.183753 0.06154 0.007969 0.077599 -0.093309 -0.029644 0.07059 -0.045564 -0.132752 -0.119531 -0.069496 0.159023 -0.087594 0.041106 0.014149 0.030919 -0.141073 -0.148134 0.031826 -0.00432 -0.15474 0.114317 0.021483 -0.15472 -0.092868 0.120225 0.009356 -0.04895 -0.085841 -0.101194 -0.033131 0.046581 -0.151969 0.083189 0.015595 -0.030326 -0.172263
-0.044168 -0.117803 0.268406 0.010394 -0.149524 -0.089151 -0.06082 -0.197596 0.008691 0.156768 0.181038 0.129038 0.016221 -0.036438 0.194856 -0.04805 0.086882 0.14071 -0.021328 0.144548 -0.099619 -0.027536 0.077552 -0.019067 -0.056166 -0.122477 0.067205 -0.063809 0.187353 -0.209682 0.11108 -0.107491 0.084212 -0.087898 0.010019 -0.056394 -0.044743 0.025779 0.023802 0.038703 -0.179303 0.15181 0.12928 -0.192353 0.002072 0.008051 0.024824 -0.054588 -0.226083 0.028261 0.088953 -0.086445 -0.123716 -0.111986 -0.012371 -0.125387 0.024884 -0.062936 -0.040219 -0.03747 -0.025231 -0.013628 -0.059983 0.0825 -0.06748 -0.038068 -0.013155 0.017313 -0.01329 0.044503 -0.040359 -0.077016 -0.036321 0.045117 -0.028982 0.049528 -0.052906 0.034939 -0.175837 -0.0236 -0.138658 -0.086626 0.101315 -0.13255 -0.104777 0.066496 -0.031145 0.053452 0.179524 -0.073092 -0.135615 0.088795 0.116699 0.049621 -0.055746 -0.032017 0.133126 0.150626 0.036434 -0.185126
3.229447 1.832686 -0.196265 -0.303454 -0.824437 2.082854 1.150219 -0.493805 -3.50143 -0.594107 2.103319 2.396154 1.056781 -0.578498 -1.172209 3.210305 -0.978008 -1.908997 -0.472705 -1.788789 -2.346806 -2.098664 -0.288581 -2.078696 0.41261 0.520842 -1.276654 0.578767 1.70845 -0.136278 -1.41294 0.371846 1.173228 1.232021 0.598135 -3.597398 4.723318 -0.907374 3.160397 -2.027976 1.188048 -5.433854 0.01906 -0.240727 2.932695 1.836205 0.69537 0.647449 5.328198 0.625981 0.041762 2.070653 0.300511 1.656161 -2.571092 0.908767 3.294905 2.941907 -1.065341 -2.086696 -0.817265 -1.894089 0.299235 -1.879644 0.485823 1.848637 -0.344618 -2.532108 2.074767 0.482597 3.034693 1.42216 0.457834 2.431775 -0.318071 1.666885 -1.364005 1.576786 -1.71492 -0.790398 2.548478 -2.38312 -0.502643 1.256626 0.730181 1.714355 1.091085 4.672542 0.202716 -0.959086 0.774024 -2.161259 -1.810393 -2.763748 0.167227 4.207294 2.675714 0.636561 -0.117425 -0.284099
-0.087196 -0.102482 0.13964 0.054818 -0.10958 0.037206 -0.273724 -0.081604 -0.025699 -0.094771 -0.108471 0.080499 -3.86E-4 0.004337 -0.024702 0.045742 -0.014367 0.051812 -0.071228 -0.122714 -0.178213 -0.164789 0.103611 0.226379 -0.052943 -0.051341 -0.055864 0.018995 0.099935 -0.004212 0.089027 -0.063837 -0.09091 0.046627 -0.084746 -0.023935 -0.010237 -0.025289 0.093579 -0.088376 -0.071731 0.079101 0.052294 -0.015144 -0.021944 -5.8E-5 -0.084644 0.029409 -0.235579 0.134585 0.082904 -0.128962 -0.085625 -0.046327 0.084262 -0.054959 -0.124062 -0.062509 -0.049838 -0.007177 0.010095 -0.18262 -0.014572 -0.101411 0.033516 0.049501 0.107741 -0.160006 0.223848 -0.045046 0.002082 -0.031572 -0.146178 0.002101 0.03927 -0.106825 -0.069331 0.031073 -0.123084 -0.055153 0.031424 -0.01378 0.1348 -0.154105 -0.122943 -0.027 -0.072165 -0.163292 0.213837 -0.011113 0.009644 0.003378 0.009595 0.077777 -0.077246 -0.018925 -0.038336 0.092399 0.055868 -0.106817
-0.138592 -0.271833 0.118814 -0.02021 -0.266493 0.161467 -0.265617 0.099836 -0.190334 -0.12667 -0.029054 0.221119 -0.033505 0.007077 0.069918 0.063172 -0.14928 0.075313 -0.078727 0.11767 0.040559 -0.062533 0.107711 -0.013662 -0.194602 -0.027123 0.02078 0.017081 0.202102 -0.175173 -0.177316 0.045238 -0.107053 -0.077784 -0.048914 -0.065415 -0.056133 -0.004421 -0.231409 0.146404 0.088599 -0.169967 0.130374 0.144953 0.227703 0.013735 0.014891 0.196793 0.203234 -0.115706 0.040348 -0.277525 -0.258434 -0.039265 0.049736 -0.159048 -0.261463 -0.061389 -0.116186 -0.065953 -0.020217 -0.015362 -0.005119 -0.077227 -0.193008 0.087169 0.104908 0.108972 -0.024335 0.003069 -0.0114 -0.07505 0.146028 0.092169 0.009984 0.009441 -0.089921 -0.076484 0.149382 -0.129716 -0.030101 0.241964 0.221506 0.163706 0.116518 0.157613 -0.029026 0.013605 -0.156119 0.108773 0.016597 -0.048682 -0.181749 0.07382 0.002511 -0.142316 -0.145874 -0.013444 -0.094413 -0.047403
-0.099779 -0.088851 -0.036921 0.088425 -0.040922 0.072369 -0.154586 0.011688 -0.007618 0.076278 0.089523 0.224786 0.062236 -0.233317 0.06423 0.133326 -0.132016 0.100983 -0.096608 0.02889 -0.116602 0.025416 0.115793 0.091144 -0.181606 0.01795 -0.140598 -0.079933 0.06915 -0.108515 0.060402 0.033142 -0.039611 0.073342 -0.337017 -0.119071 0.154116 0.004965 0.122293 -0.024123 -0.094374 0.202871 0.064663 -0.093456 -0.016288 -0.107149 -0.02292 -0.015554 -0.210102 0.17543 0.117124 -0.187922 0.003764 0.002373 0.07756 -0.167652 0.007686 -0.033869 0.020928 -0.055266 0.082302 -0.15228 0.001255 -0.170724 0.066994 0.10561 0.053247 0.006181 0.130398 -0.056247 0.049538 0.055487 0.010175 0.04748 0.065952 -0.050069 -0.103701 -0.065108 -0.023664 -0.057811 -0.024543 0.009046 0.093955 -0.110368 -0.096206 -0.04799 0.09091 0.135345 0.033909 0.149976 -0.22925 0.022657 -0.119194 0.012082 -0.17202 0.012624 0.055093 0.005004 -0.105271 -0.143153
-0.253313 -0.011669 0.118994 0.073782 -0.12197 0.082215 -0.091985 -0.145117 0.137304 0.05342 0.076411 0.184456 0.025223 -0.172177 0.096143 0.205529 0.012401 0.056904 -0.084749 0.015403 -0.063431 0.190379 0.100507 0.017202 -0.107924 0.054241 0.046193 0.142495 0.102504 0.08729 0.066586 -0.098855 0.023272 0.07352 -0.193009 -0.087837 0.040061 -0.01653 -0.099192 -0.102304 -6.51E-4 0.112913 0.021825 -0.055398 0.013775 -0.12491 -0.094102 0.057799 0.092422 0.025687 -0.009384 0.024817 -0.050939 0.159246 0.023134 0.007526 0.118953 -0.034079 0.141116 -0.245055 0.250452 0.062814 0.14196 -0.163914 0.07494 0.063559 0.142866 0.096105 0.155659 -0.112934 0.133719 0.028865 -0.150449 -0.080325 -0.030608 -0.007615 0.008917 0.137176 -0.204966 -0.018115 -0.059625 0.073389 0.182854 -0.077647 0.12814 -0.045901 0.055981 0.059072 0.139878 -0.075122 -0.034386 -0.109798 -0.179243 0.16043 -0.103287 -0.20537 -0.021451 0.093099 0.0021 -0.075002
0.024378 -0.116139 0.180639 0.111395 0.030568 -0.071668 -0.121108 -0.109806 -0.091698 0.013018 0.08259 0.069038 -0.061427 0.004082 0.229398 0.047504 0.066332 -0.026818 0.02069 0.023222 -0.024814 0.084488 0.163639 0.026093 -0.167495 -0.080491 0.015155 0.002639 0.149547 -0.107706 -0.032128 0.017933 0.035418 0.02069 0.071325 -0.134884 -0.023948 0.019409 -0.045767 0.036389 0.01007 -0.18179 0.153652 0.026089 -0.154465 -0.04553 -0.142306 0.003931 -0.113083 0.004437 0.142883 -0.219551 -0.115541 -0.039264 0.151018 0.201031 -0.024747 -0.016886 -0.027411 -0.073582 0.10617 -0.086841 -0.04312 0.003789 -0.024946 0.136003 0.096762 -0.080263 0.012766 -0.01203 0.076892 -0.020938 -0.04654 0.044006 0.078363 -0.05006 -0.068905 -0.123399 -0.034683 -0.051999 0.022561 -0.158305 0.056823 0.044635 0.08235 0.268783 0.147618 -0.026452 0.059026 0.082304 0.068505 -0.104877 -0.124045 0.110571 0.004564 -0.087215 -0.038814 -0.270774 -0.070765 0.099681
-2.648351 -0.794316 -2.108887 0.20446 0.883061 0.242784 1.848653 1.149137 -4.975573 0.237654 -1.499665 2.924494 0.344217 -1.640431 0.763777 0.138944 -3.029439 -2.813434 -0.761102 -1.057557 -1.373735 -0.870599 1.234095 0.127805 -1.372618 1.35802 -1.501738 0.80945 0.172993 -0.484995 1.783363 -0.047587 0.483285 -1.526831 2.103549 2.116639 4.583491 -4.022388 -0.843817 0.361243 -0.546655 -2.301259 -2.000973 2.64631 -1.604053 -1.914206 -1.581895 -0.464185 1.757769 1.056301 0.263866 -0.904419 -0.422466 0.007824 -1.651553 0.7499 1.638666 -0.336108 -3.288466 -2.953238 -1.135414 1.165223 -1.047256 -0.821696 -0.135806 0.434207 -2.389307 -3.56953 -0.656773 0.578325 3.337902 0.782195 -1.250815 2.925509 -1.981492 0.121786 0.836257 1.710923 -2.640405 -0.628995 0.247469 0.863847 1.749171 -0.214156 -0.274807 2.192709 -0.892334 -1.614644 -1.225919 -0.042182 2.51632 3.464583 -3.591523 -2.506587 0.990426 1.8843 -2.460629 0.953462 0.359605 2.267383
0.119976 -0.120335 -0.019713 -0.111439 -0.065246 -0.085813 -0.165127 0.031161 -0.248081 0.17078 -0.00363 0.310793 0.012029 -0.021562 -0.0191 0.192315 0.041193 0.068141 0.138665 0.089787 -0.171928 -0.073711 0.044019 -0.026363 -0.052241 -0.084572 -0.006605 -0.179452 0.006873 0.055185 -0.106913 0.046877 -0.078862 0.113153 -0.090479 -0.249873 0.079773 -0.086782 0.060627 -0.013697 -0.169109 0.187961 0.063398 0.066365 0.036503 -0.053133 0.160377 0.059999 -0.055627 -0.056398 -0.1084 -0.090143 -0.128089 -0.094905 0.042217 -0.132292 -0.0763 -0.062777 -0.083638 -0.180113 0.149015 -0.186501 0.031953 -0.219033 0.004229 0.037217 0.08017 0.028373 -0.050086 -0.047816 -0.136017 -0.062054 0.155814 0.037024 0.029319 0.022848 0.043096 0.116143 -0.028957 0.028303 -0.062357 -0.006275 0.027035 -0.120152 0.013639 0.083609 0.070915 0.087139 0.028555 0.139846 -0.141944 -0.166026 0.031387 -0.111767 -0.040482 -0.036876 0.04442 -0.017961 -0.016656 -0.086579
0.0 0.0 0.0 0.0 0.0 0.0 0.0 0.0 0.0 0.0 0.0 0.0 0.0 0.0 0.0 0.0 0.0 0.0 0.0 0.0 0.0 0.0 0.0 0.0 0.0 0.0 0.0 0.0 0.0 0.0 0.0 0.0 0.0 0.0 0.0 0.0 0.0 0.0 0.0 0.0 0.0 0.0 0.0 0.0 0.0 0.0 0.0 0.0 0.0 0.0 0.0 0.0 0.0 0.0 0.0 0.0 0.0 0.0 0.0 0.0 0.0 0.0 0.0 0.0 0.0 0.0 0.0 0.0 0.0 0.0 0.0 0.0 0.0 0.0 0.0 0.0 0.0 0.0 0.0 0.0 0.0 0.0 0.0 0.0 0.0 0.0 0.0 0.0 0.0 0.0 0.0 0.0 0.0 0.0 0.0 0.0 0.0 0.0 0.0 0.0
0.0 0.0 0.0 0.0 0.0 0.0 0.0 0.0 0.0 0.0 0.0 0.0 0.0 0.0 0.0 0.0 0.0 0.0 0.0 0.0 0.0 0.0 0.0 0.0 0.0 0.0 0.0 0.0 0.0 0.0 0.0 0.0 0.0 0.0 0.0 0.0 0.0 0.0 0.0 0.0 0.0 0.0 0.0 0.0 0.0 0.0 0.0 0.0 0.0 0.0 0.0 0.0 0.0 0.0 0.0 0.0 0.0 0.0 0.0 0.0 0.0 0.0 0.0 0.0 0.0 0.0 0.0 0.0 0.0 0.0 0.0 0.0 0.0 0.0 0.0 0.0 0.0 0.0 0.0 0.0 0.0 0.0 0.0 0.0 0.0 0.0 0.0 0.0 0.0 0.0 0.0 0.0 0.0 0.0 0.0 0.0 0.0 0.0 0.0 0.0
0.06553 -0.125673 0.034491 0.043696 -0.08785 -0.070191 -0.104459 -0.048669 0.006119 0.030927 -0.13537 -0.036367 -0.163152 -0.059444 0.060532 -0.023973 0.098727 0.031182 -0.080261 0.051743 -0.07395 0.036216 -0.082271 -0.07694 -0.227916 8.49E-4 0.074039 -0.007776 0.046045 -0.104478 0.002922 0.032865 -0.001549 -0.142678 0.054115 -0.01641 0.00671 0.02971 0.075554 0.035918 0.017778 0.02266 0.074529 -0.007011 -0.166621 -0.149341 -0.036893 0.187838 -0.051182 0.035542 0.035646 -0.071808 0.164016 0.07998 0.087969 -0.192645 -0.030305 -0.225898 -0.106839 -0.021025 0.244137 -0.057087 -0.051305 0.059616 -0.184024 0.189175 0.205994 -0.054882 -0.034451 -0.087239 0.044602 -0.036991 -0.094929 -0.008204 0.212651 0.003758 -0.115127 0.104404 0.032918 0.078207 0.184447 0.044535 -0.025218 -0.026929 -0.017865 0.117728 0.029414 -0.031504 0.043071 0.093661 -0.096078 -0.012874 0.052235 0.078689 -0.053345 -0.059396 0.152948 -0.086422 -0.102222 -0.027954
0.352905 0.550922 -1.128945 -0.511125 0.774489 1.405335 -0.371647 0.106012 -0.779785 -0.640302 -0.68578 1.570717 -0.712288 -0.706705 -0.789609 -0.045278 -1.599722 -2.840112 -0.089543 -1.158838 -1.862605 -0.62748 -0.063542 -0.468696 0.750564 0.033551 -0.772222 -0.188991 -0.163115 0.455978 0.038455 -0.779588 0.172303 -1.114448 -0.548246 -0.008155 1.66721 -0.744821 -0.15746 -2.668482 -0.304702 -0.905716 0.479063 0.151803 -0.94063 -0.044338 -0.906122 -0.456182 0.281891 0.268287 0.47007 0.628019 0.328428 1.471286 -2.345457 0.072073 -0.345477 -0.998199 -1.496897 -0.053061 0.351206 -0.934426 0.295591 0.07336 0.24092 0.486976 0.390085 -0.621556 0.375246 -0.02625 1.957847 1.014101 0.004675 0.08874 -0.900479 -0.462149 0.922254 1.355385 -1.048724 0.105897 1.254466 0.410718 0.321258 1.066395 -0.171761 -0.128774 0.315556 0.697301 -0.180925 0.555334 1.005586 -0.891677 -1.232923 -1.994189 -0.567812 0.204184 -0.947385 -0.051526 -0.987029 0.725141
-0.002669 -0.0829 0.129022 -0.046385 -0.003326 0.019084 -0.264281 -0.113966 -0.008539 -0.112049 0.111752 -0.008482 -0.141258 0.024677 -0.032123 0.043785 0.150983 0.094222 0.097043 -0.100002 -0.013023 0.13641 -0.026477 0.109264 -0.225903 -0.069644 0.114758 0.019508 0.14589 -0.175026 0.120151 0.038597 -0.048939 -0.014586 -0.040852 -0.047472 0.017002 0.081818 0.042148 0.108091 0.271303 -0.034238 -0.050399 -0.025756 -0.01469 -0.129521 -0.081924 0.088011 -0.02242 0.130165 -0.109537 -0.099 -0.01579 -0.113214 0.082865 -0.036283 0.085626 -0.052277 -0.010047 0.208098 0.076045 0.056804 -0.25435 -0.049411 -0.059465 -0.1404 0.127191 0.019869 -0.01073 -0.074917 -0.093476 -0.011299 0.059857 -0.030504 0.057882 -0.1331 -0.108348 0.011688 -0.004533 -0.088608 0.098746 0.148164 0.048618 -0.048944 -0.209567 0.043123 -0.097948 0.11563 0.001589 0.059251 -0.00667 -0.070761 0.079012 0.075097 -0.110196 -0.064748 -0.11658 -0.033081 -0.097893 -0.036153
-0.099631 0.007705 -0.089328 0.001419 -0.176462 -0.070242 -0.143604 0.100721 -0.113153 0.152655 -0.048231 0.066103 -0.030021 0.136978 0.184418 0.078591 -0.081263 -0.14952 0.118956 0.018599 0.088655 -0.044432 0.08018 -0.027642 0.054357 0.141149 -0.010402 0.153027 0.020386 0.109349 0.117679 -0.029968 0.050486 0.065685 -0.026546 0.009213 0.202167 -0.097365 0.039664 0.002491 0.023136 0.003145 0.086197 -0.042913 0.081175 -0.051934 -0.147858 0.023432 -0.158 0.085715 0.136953 -0.012242 -0.017739 0.047149 0.107677 -0.025909 -0.0024 0.100764 -0.032059 -0.133362 0.004093 -0.006825 -0.13761 0.001839 0.159636 -0.11373 -0.106885 -0.117981 0.152819 0.071854 0.071347 0.01867 0.169183 0.02391 0.077507 -0.003162 -0.140262 -0.042323 -0.022703 -0.085081 -0.042414 0.05683 0.06501 0.047069 -0.103069 -0.027944 -0.103927 0.025789 -0.036474 -0.034893 -0.044729 -0.190334 0.044818 -0.046624 0.086366 0.039088 0.047178 -0.070743 0.040369 0.00671
0.05445 -0.154969 0.166303 0.137215 0.054534 -0.055247 -0.03007 -0.029194 -0.041704 -0.03219 -0.044052 0.158211 0.018569 0.079159 0.222411 0.273041 -0.05517 -0.059452 -0.007637 0.024361 -0.107348 -0.155667 -0.01122 0.058027 -0.020956 0.012614 -0.01486 -0.08957 0.081073 -0.10561 0.00956 -0.119328 -0.026298 -0.131649 -0.027708 -0.09139 0.06201 -0.094384 0.097205 -0.077073 -0.004379 -0.069626 -0.063017 0.080011 0.22157 0.049305 0.03294 -0.067514 0.024777 -0.01973 -0.072228 0.017215 -0.080971 -0.199317 0.122434 0.071172 -0.015927 -0.089741 -0.041939 -0.042975 -0.040509 -0.103942 -0.055095 0.049877 -0.117821 -0.027318 -0.08616 0.028884 0.057418 -0.024416 0.027208 0.016066 0.100084 -0.222348 0.114991 -0.195646 -0.06204 0.048645 0.029994 -0.086205 0.067047 -0.099119 0.080772 0.025108 -0.152555 -0.096488 -0.11049 0.005272 0.068805 -0.128175 0.034361 0.18292 0.060455 0.147935 0.109379 -0.042941 -0.120867 -0.12911 0.044019 0.177504
0.53308 0.073921 -0.606959 -0.432751 -0.390665 -1.002924 -0.540989 0.576692 -0.073413 0.646446 -1.374773 0.210028 -0.219255 -0.050785 1.142503 -0.401316 0.529965 0.26013 0.584669 -0.065254 -0.512531 0.273164 0.065638 -0.411275 -0.944052 -0.42308 0.345958 -1.385222 -0.378256 -0.054806 -1.482164 0.814216 0.277194 0.02353 -0.625842 0.443082 -0.090917 0.208311 -1.35517 2.121103 0.156062 0.586192 0.474309 0.163954 0.028486 -0.672143 -0.016968 0.469438 -0.507557 0.54128 -0.284578 -0.162042 -0.867182 0.420137 -0.23494 -0.746718 1.124446 0.380952 0.579047 0.643746 0.234622 0.245973 -0.496954 -0.139369 0.34437 -0.63329 1.371265 -0.178776 0.252418 -0.131228 -0.495343 0.227137 1.233812 0.094587 -0.408322 0.706675 -0.194715 1.122016 0.947034 0.359447 1.915491 0.080131 1.086153 -0.258727 -0.312542 0.60025 -0.113429 0.362864 -0.973891 -0.582272 -1.180613 -0.888444 0.714522 -0.838985 -0.816524 -0.665505 -0.113241 -0.124474 -0.580889 -0.131876
-1.10309 0.150136 -1.552947 -2.009824 -1.598477 0.81138 0.913215 1.322028 3.834959 -1.699104 -0.15129 2.528805 1.079173 -0.282642 -0.525865 -0.038703 2.216759 2.959339 2.037032 -0.35003 -4.773798 0.510592 -0.621119 -0.340647 -0.535981 -1.397274 2.514463 2.15651 -1.808621 -1.860053 1.412541 -1.280685 0.081283 -2.1848 1.741776 -1.813439 0.205013 -2.251591 -3.161936 1.720004 0.22354 2.795935 -0.130662 -4.436913 -1.986526 -2.108884 -2.532487 0.971135 -1.048385 -3.139971 2.70416 1.818679 -0.873793 -2.616517 3.211104 1.565925 -0.502929 1.971513 -2.671948 0.73052 0.969415 -1.427516 -0.851095 1.421753 0.877609 -3.185207 1.387322 -0.023625 3.368358 0.619531 -2.040637 -0.137628 -3.746514 1.017903 -1.824994 -1.395805 0.798182 1.311983 3.620249 2.460352 -1.201536 2.990075 -0.500355 1.226538 -2.93155 -1.321936 1.532374 -1.347358 -0.271398 2.706144 -1.669596 -2.775057 -0.87275 -0.038208 -0.33104 0.378044 -3.239555 -0.026003 3.145988 0.751396
0.0 0.0 0.0 0.0 0.0 0.0 0.0 0.0 0.0 0.0 0.0 0.0 0.0 0.0 0.0 0.0 0.0 0.0 0.0 0.0 0.0 0.0 0.0 0.0 0.0 0.0 0.0 0.0 0.0 0.0 0.0 0.0 0.0 0.0 0.0 0.0 0.0 0.0 0.0 0.0 0.0 0.0 0.0 0.0 0.0 0.0 0.0 0.0 0.0 0.0 0.0 0.0 0.0 0.0 0.0 0.0 0.0 0.0 0.0 0.0 0.0 0.0 0.0 0.0 0.0 0.0 0.0 0.0 0.0 0.0 0.0 0.0 0.0 0.0 0.0 0.0 0.0 0.0 0.0 0.0 0.0 0.0 0.0 0.0 0.0 0.0 0.0 0.0 0.0 0.0 0.0 0.0 0.0 0.0 0.0 0.0 0.0 0.0 0.0 0.0
-0.156132 -0.087009 0.184057 -0.064291 0.025926 -0.140273 0.153118 0.011303 -0.120193 -0.051684 -0.148623 0.32417 0.008043 -0.0575 0.098355 0.172891 -0.213084 0.217379 -0.092906 -0.032151 -0.129642 -0.155223 0.29281 -0.02845 -0.281571 -0.053774 0.133214 -0.273369 -0.051298 0.091218 -0.066916 0.178554 -0.064064 -0.004631 0.051336 -0.106444 0.182168 0.006947 0.079249 -0.161683 -0.273434 -0.019243 0.119573 -0.054022 0.021513 -0.022141 -0.044654 -0.006673 0.021181 0.006375 -0.118817 0.051245 -0.095237 -0.058976 0.00512 -0.273265 0.036794 -0.106845 -0.010845 -0.008263 -0.067046 -0.210741 -0.286682 -0.167816 0.112543 -0.067089 0.027545 -0.019236 0.178136 -0.045337 -0.137948 0.227984 0.082 -0.194051 -0.116966 -0.061753 0.033496 -0.205845 0.062885 -0.122352 -4.59E-4 -0.090407 0.065653 -0.066077 -0.228103 -0.26281 0.136919 0.197287 0.10598 -0.055988 0.084248 -0.199512 0.042654 -0.216336 -0.05094 -0.048441 0.111954 -0.05957 -0.144613 0.068956
0.017114 -0.128801 0.007637 0.162159 -0.147335 0.062085 -0.178015 0.065339 -0.251388 0.03556 -0.139071 -0.041749 0.14137 0.065434 -0.065489 0.024355 0.157514 -0.00732 -0.144274 -0.078361 -0.028577 0.083755 0.135902 0.0796 0.086372 -0.131618 -0.038265 0.015249 0.161081 -0.237953 -0.124213 0.051836 0.095154 0.224381 -0.172745 -0.229509 0.083254 -0.097092 0.014423 -0.123407 0.044084 -0.049114 0.137038 -0.188515 0.119082 -0.011355 -0.056627 0.104646 -0.049643 -0.046116 0.03325 -0.209417 -0.111735 -0.125519 0.260897 0.074047 0.031528 0.254596 -0.037029 -0.156243 -0.035264 0.09664 -0.163318 -0.185742 -0.012445 -0.173564 0.030327 -0.125016 -0.116916 0.107267 0.082456 0.018733 0.027233 0.118478 0.026945 -0.021593 0.04848 0.031515 -0.256732 -0.011014 -0.017598 0.180726 0.155376 -0.082894 0.179954 -0.251617 -0.02273 0.055985 -0.088069 0.077972 0.064706 -0.066247 -0.128221 -0.026991 -0.001887 0.060582 0.04091 -0.26034 -0.001264 0.193371
0.015706 0.018941 0.025713 -0.012076 0.326916 0.270881 -0.081697 -0.016403 0.027278 0.147275 -0.042631 -0.057802 0.190823 -0.069172 -0.06534 0.100996 -0.26886 -0.10913 -0.13104 -0.01074 0.03592 -0.349666 -0.005724 -0.12338 -0.004199 -0.05122 -0.042539 -0.037312 -0.308748 0.021665 -0.031822 -0.207561 -0.12162 0.231455 -0.042923 -0.080604 0.187383 -0.221607 0.108267 0.140549 0.087992 0.026129 0.163151 0.017423 -0.277067 0.043544 0.023946 0.060866 0.301517 0.143044 0.045858 0.120662 0.028552 0.078165 0.132364 0.151315 -0.178935 -0.002453 -0.03534 -0.110678 -0.154556 0.037711 -0.011168 0.040865 0.216407 0.323628 0.109897 -0.072175 -0.09814 0.071996 -0.117785 0.12353 0.270343 -0.04447 -0.172071 0.099498 0.114361 0.088155 0.069947 -0.236728 0.11911 -0.01778 -0.151913 -0.021999 -0.093278 0.122829 -0.144728 0.124549 -0.123118 -0.102054 -0.08655 -0.186467 -0.151387 -0.112391 -0.157849 -0.312281 0.051716 0.010692 -0.173117 0.110058
0.352905 0.550922 -1.128945 -0.511125 0.774489 1.405335 -0.371647 0.106012 -0.779785 -0.640302 -0.68578 1.570717 -0.712288 -0.706705 -0.789609 -0.045278 -1.599722 -2.840112 -0.089543 -1.158838 -1.862605 -0.62748 -0.063542 -0.468696 0.750564 0.033551 -0.772222 -0.188991 -0.163115 0.455978 0.038455 -0.779588 0.172303 -1.114448 -0.548246 -0.008155 1.66721 -0.744821 -0.15746 -2.668482 -0.304702 -0.905716 0.479063 0.151803 -0.94063 -0.044338 -0.906122 -0.456182 0.281891 0.268287 0.47007 0.628019 0.328428 1.471286 -2.345457 0.072073 -0.345477 -0.998199 -1.496897 -0.053061 0.351206 -0.934426 0.295591 0.07336 0.24092 0.486976 0.390085 -0.621556 0.375246 -0.02625 1.957847 1.014101 0.004675 0.08874 -0.900479 -0.462149 0.922254 1.355385 -1.048724 0.105897 1.254466 0.410718 0.321258 1.066395 -0.171761 -0.128774 0.315556 0.697301 -0.180925 0.555334 1.005586 -0.891677 -1.232923 -1.994189 -0.567812 0.204184 -0.947385 -0.051526 -0.987029 0.725141
-0.181016 -0.126776 -0.00204 -0.121265 0.103095 0.037222 -0.040561 -0.006273 -0.070426 0.210671 0.027904 0.139159 0.158573 -0.198906 0.037756 0.160809 -0.257298 0.042275 0.15349 0.183653 -0.079227 0.158618 0.102353 -0.030057 -0.151801 -0.155387 0.087316 0.157636 0.177323 -0.138123 -0.245338 0.023218 -0.086855 0.23983 -0.217194 -0.326965 -0.014276 -0.136591 0.003146 0.075452 0.105114 0.037821 -0.033039 0.141366 0.133352 0.040019 0.141936 0.136758 -0.114451 -0.117631 0.063519 -0.181397 -0.102081 0.148578 0.002284 -0.239133 -0.110048 0.095141 -0.013837 -0.197638 0.143419 -0.126869 -0.03851 -0.08295 -0.133066 0.144363 -0.022699 -0.133583 0.101668 -0.12162 0.00473 0.196365 0.10772 -0.105911 0.124821 -0.127257 -0.164071 0.051662 -0.03433 -0.11206 0.030466 0.190672 0.177271 -0.005139 0.131751 0.191894 0.166605 -0.074512 -0.013007 0.039714 -0.052525 -0.035078 -0.024444 -0.089419 0.035711 -0.234373 0.170065 0.070902 0.16763 0.0911
-0.019201 0.028111 0.019217 0.052324 -0.012545 0.076041 0.041859 0.132425 -0.042682 -0.25324 0.153679 -0.052639 -0.234426 0.154245 0.001178 0.07083 0.073083 0.160228 0.024133 -0.054811 0.001969 0.005439 0.181016 0.099355 -0.126409 -0.051701 0.037309 -0.123638 0.247936 -0.162055 0.114555 0.125901 0.087982 0.08593 -0.090916 0.032607 0.058566 -0.084423 -0.083684 -0.120125 -0.142636 -0.134573 0.099572 -0.067549 0.144656 -0.140025 -0.119758 0.069446 0.087216 -0.032862 -0.006618 -0.111395 0.032981 -0.031112 -0.118341 0.110071 -0.111936 0.153878 0.041608 0.007703 0.064796 -0.130385 0.030277 0.045725 -0.1256 0.149386 -0.11782 -0.166733 0.122695 0.114102 -0.065025 -0.01284 -0.004014 -0.036946 -0.052576 0.183617 0.039352 -0.109896 0.002856 -0.049741 0.098582 -0.079185 0.058208 -0.092538 -0.020486 -0.024785 0.136707 0.03449 -0.090652 0.201497 -0.097455 0.025029 -0.120762 -0.013839 -0.051103 -0.067125 -0.00444 -0.252706 0.02388 -0.108891
-0.047421 -0.15849 0.107499 0.089927 0.167776 0.08617 -0.300314 -0.309623 0.108092 0.189928 0.056687 0.033222 -0.077897 -0.080874 0.159018 0.266839 -0.245001 0.016831 -0.085825 0.058383 -0.059198 -0.055262 0.240707 -0.12969 -0.22039 0.060318 -0.047124 -0.139865 0.089529 -0.172326 0.039714 -0.133083 -0.093917 0.050088 -0.217563 -0.099461 0.041898 -0.126919 0.020688 0.317283 0.16597 0.022872 0.046324 -0.073254 -0.180954 0.079862 0.019486 0.185367 0.118476 0.006355 -0.032953 -0.037425 0.063885 0.11699 0.184923 0.052025 0.128145 -0.13686 0.190992 -0.211976 0.013083 -0.015876 -0.029147 0.01214 -0.021098 0.071397 0.239282 -0.021331 -0.132596 -0.213218 -0.047197 -0.061747 0.108005 0.06585 0.170104 0.21 0.017802 0.149472 0.139998 -0.100998 0.016478 -0.071088 -0.215638 -0.123884 -0.172349 0.055991 -0.115719 -0.021301 0.071983 0.092645 -0.139537 0.078519 -0.099633 0.035876 -0.078405 -0.346964 0.042416 0.013565 -0.105723 -0.0419
