-0.217622 0.099551 -0.1788 0.148128 0.131541 -0.071998 -0.088706 -0.090213 -0.168853 0.151684 -0.04797 0.203297 0.0948 0.213809 -0.023789 0.042139 -0.078633 0.103449 0.00966 -0.202018 -0.011194 -0.127344 0.024803 0.126006 0.049995 -0.10908 -0.057699 -0.13152 -0.005173 -0.052793 0.151821 0.05043 -0.255439 -0.002872 -0.031667 -0.066219 0.074826 0.071271 0.11909 -0.088312 0.003708 0.038564 -0.001743 -0.010963 -0.007699 -0.029344 0.067294 0.051736 -0.248372 0.193963 0.186096 -0.014138 -0.039565 0.108706 0.102777 -0.19065 0.010801 0.089382 0.022675 -0.007416 0.008789 0.015136 -9.99E-4 -0.123342 -0.014369 0.187522 -0.141317 -0.041627 0.064227 -0.03007 -0.006382 0.177663 0.211161 0.041135 -0.041127 0.030943 -0.155315 -0.143258 -0.091196 0.125358 -0.120306 0.12258 0.039654 -0.05828 -0.018611 0.028777 -0.020865 0.14492 -0.031455 0.071133 -0.037407 -0.156116 0.031923 0.132171 -0.012344 -0.158414 0.054987 -0.121596 0.101989 0.032146
0.023969 2.079215 -0.386865 -0.43294 -0.258919 -0.39794 -1.725514 0.462214 0.035873 1.981466 1.415514 -0.642642 -2.570403 2.495842 -1.018014 0.616244 2.082735 2.481714 -1.805903 1.682246 -1.866866 -0.148329 3.839458 -0.987561 -1.703964 1.560098 1.713226 1.274046 -3.510875 0.330682 -0.390013 0.038375 -1.368707 1.858289 2.598282 1.327149 -3.40482 -1.45084 -2.404902 -1.682163 -1.105882 -4.899683 0.147958 2.708589 -1.890802 1.447304 -1.172322 -2.735733 -1.183911 -0.368492 1.466427 0.463974 -0.87776 0.30483 -0.325743 -1.997133 2.704716 -3.054909 -0.367426 0.54905 -1.518167 1.250714 0.35925 1.418797 -0.001163 -0.344483 -0.269205 -0.759853 0.549492 0.797158 1.261334 3.346493 -0.670092 3.118869 0.980436 -0.013599 -0.131851 -0.898043 -0.126406 -0.771102 0.342808 1.325859 0.096138 -2.079221 0.117025 2.408824 3.296573 4.94765 -0.85022 1.47054 -1.436079 1.747828 -3.082548 -2.272797 0.04425 1.388747 -3.317572 1.32725 1.161213 0.518265
-0.171842 -0.83207 0.320748 0.499821 -0.080225 0.485777 0.087155 -0.0211 0.434749 -0.12076 0.440035 -0.176583 0.453425 0.272229 0.499829 -0.13105 -0.138611 0.313802 0.168888 0.078191 -0.452714 0.203798 -0.160286 -0.29762 -0.069553 0.144474 -0.375669 0.16427 0.346376 0.533006 0.341554 0.006414 -0.105808 0.109981 0.255436 -0.041873 0.158344 0.002945 -0.311806 -0.235301 0.094172 0.020143 -0.58569 -0.23042 0.117205 -3.22E-4 -0.507123 0.266548 -0.276543 -0.230141 0.031733 0.233197 0.018845 0.242482 0.079143 1.55E-4 -0.329226 -0.059355 -0.038978 0.137371 0.128125 -0.140232 0.349465 0.158766 -0.015575 0.261691 0.295745 -0.190445 -0.082149 0.204603 -0.148748 -0.239735 -0.325517 -0.169074 -0.129366 0.074201 0.238104 -0.197919 0.254358 0.486754 -0.108139 -0.15558 -0.104908 -0.425953 -0.004738 -0.186019 0.198131 -0.306788 -0.249651 -0.034432 -0.475941 0.04809 -0.048404 0.474785 -0.69219 -0.120632 -0.116749 0.040412 0.07259 0.169347
-0.008146 -0.005648 0.059531 0.125535 0.011328 0.024558 -0.165969 -0.019482 -0.076996 -0.167427 -0.035646 0.020818 -0.028113 -0.036329 -0.071534 -0.002174 -0.032754 -0.131044 -0.062638 -0.094554 -0.034763 -0.156622 -0.035706 -0.093561 0.027306 0.116182 0.031816 -0.094699 0.01367 -0.093147 -0.221748 0.003871 0.035001 -0.032771 0.015245 0.075022 -0.03079 0.059095 -0.140093 -0.093351 0.063765 0.064153 -0.036182 -0.007205 0.056318 -0.054911 -0.068876 -0.020263 -0.114443 -0.0113 -0.166841 0.023401 0.163193 0.030154 -0.040468 -0.037734 -0.144155 -0.07559 -0.067957 -0.135068 0.029689 -0.149559 -0.055197 -0.039455 0.185154 0.073544 -0.115102 0.115653 0.111712 -0.10039 -0.071982 0.010746 0.15125 0.026204 0.016248 0.085703 0.168286 -0.023663 0.005723 -0.237316 0.070247 0.079136 0.040366 -0.02896 -0.063939 -0.016178 0.023626 -0.078918 0.141125 0.036686 -0.156999 0.121274 0.089779 0.202551 0.070942 -0.023656 -0.075331 -0.043597 0.048624 -0.137596
0.121106 0.037326 0.144955 -0.039849 0.190907 -0.021294 -0.360487 0.068882 -0.049872 -0.097734 0.054547 0.147867 -0.14575 -0.007534 0.189939 0.040512 0.317968 0.228082 0.169117 0.083325 -0.224406 0.152066 0.19184 0.109042 -0.242936 -0.003641 0.03706 0.100761 0.352146 -0.064859 -0.109399 0.098228 0.16432 0.201149 0.070292 0.023841 -0.145174 0.115852 -0.002996 0.094706 -0.163311 -0.123271 -0.003908 0.020343 0.114002 0.084042 -0.005667 -0.120332 -0.088199 0.107917 0.189729 -0.227354 -0.042999 -0.151314 0.06721 -0.011073 0.050072 -0.004187 -0.026858 -0.084777 0.104916 0.036557 0.047224 -0.048079 0.04026 -0.020718 -0.010893 0.103286 -0.072125 -0.021873 -0.122629 -0.089216 -0.067342 -0.031364 0.144873 0.031106 -0.136449 -0.035758 -0.06933 -0.088391 0.021194 -0.095695 -0.021862 -0.285012 -0.173646 -0.076499 0.078427 0.078887 -0.089043 0.018054 0.058939 -0.056356 -0.08073 -0.017711 0.105982 -0.155119 0.052478 -0.212011 -0.034517 0.046851
-0.073843 -0.059589 0.02079 -0.003026 -0.015378 0.129731 -0.092164 -0.128453 0.1896 -0.04828 -0.073998 0.071628 -0.00721 0.119706 0.012321 0.106497 -0.154551 0.003301 0.279209 0.012427 -0.020755 0.182223 -0.205611 0.136663 -0.259656 -0.15838 0.01209 -0.025937 0.125639 -0.005184 6.03E-4 0.04732 -0.115644 0.096034 -0.125977 -0.056277 -0.095195 -0.082141 0.235645 -0.125572 -0.126572 -0.008714 0.101081 -0.073142 -0.126814 -0.137044 -0.11119 0.056072 -0.131195 -0.100049 0.136518 0.023079 -0.131634 0.030597 -0.094821 0.031327 -0.040237 0.159037 0.041189 0.071674 -0.008435 0.011013 -0.028878 -0.082541 -0.010232 -0.003002 -0.090612 0.033738 0.171709 0.052142 -0.022712 -0.031116 0.183779 -0.183957 0.129417 -0.062634 0.021567 -0.052125 -0.040465 0.11769 0.048514 -0.030506 -0.088549 0.068723 0.053593 -0.053114 0.163471 -0.136948 0.102235 -0.013556 -0.046679 -0.016717 0.033372 0.169048 -0.15101 -0.234252 0.192945 0.114441 0.021103 -0.032814
-0.073278 -0.021464 0.026284 0.075924 -0.004992 -0.057796 -0.217945 -0.018365 0.026759 0.077098 0.150204 -0.001158 0.118812 -0.099236 -0.0466 0.182957 -0.02265 0.215339 0.031943 0.052954 -0.102591 -0.0141 0.069009 0.02793 -0.127073 -0.053645 0.047896 0.122613 -0.082766 -0.129158 -0.060314 0.114726 -0.131543 0.05789 -0.089182 -0.006052 -0.080055 -0.0154 -0.108976 0.082262 0.055301 0.281122 -0.134421 0.014736 0.046911 -0.022387 0.132674 -0.101822 -0.081153 -0.047246 0.148192 0.029391 0.052169 0.141711 0.079479 -0.154257 -0.018899 0.18874 0.04423 -0.104994 0.091587 -0.077209 -0.003313 -0.039513 -0.148057 -0.050344 0.06597 0.018188 0.01114 -0.189024 -0.155455 -0.045394 0.06238 -0.060904 -0.01757 -0.061189 0.05635 -0.007774 -0.159144 0.127344 0.062933 0.016994 0.077387 -0.044185 -5.17E-4 0.075276 0.021695 0.055097 0.152708 0.023569 -0.097367 -0.017113 0.041241 -0.08075 0.037488 -0.129819 0.104849 -0.029266 0.133344 0.023148
2.279728 -2.236078 0.601665 0.336301 -1.782406 -0.796083 -0.724268 -0.788465 0.799016 0.336616 1.41352 -0.699695 0.991227 -0.295494 -0.820982 0.308307 1.632332 0.346132 -0.415005 1.463483 -0.699856 -0.879469 -0.134101 -0.726877 0.162631 0.170902 -0.278357 0.284221 -1.161737 -0.28398 1.077403 -0.634307 -0.283175 -0.773827 0.218701 0.120795 -0.157744 -1.210587 1.093873 1.10515 -0.66837 2.297204 0.363859 -0.988331 0.410164 0.665291 -0.898633 0.593012 -0.68394 1.634614 0.870281 -1.052898 -0.612669 0.266888 -0.896621 -0.086219 1.012009 0.125522 -0.301842 0.727797 1.299029 1.482453 0.775528 0.053486 -0.695877 1.689798 2.378606 0.10579 -1.144957 1.26137 0.080208 -0.391743 0.421903 -0.777624 -1.012916 0.710207 0.763991 0.585124 1.559871 -0.119586 -0.042445 -0.888312 0.332081 0.989318 -1.208325 1.215025 0.869849 -0.599936 -1.600927 -1.90252 -1.322205 0.08778 0.250876 -0.041533 -0.537605 -0.903025 0.81804 0.588976 0.473609 0.305322
0.352905 0.550922 -1.128945 -0.511125 0.774489 1.405335 -0.371647 0.106012 -0.779785 -0.640302 -0.68578 1.570717 -0.712288 -0.706705 -0.789609 -0.045278 -1.599722 -2.840112 -0.089543 -1.158838 -1.862605 -0.62748 -0.063542 -0.468696 0.750564 0.033551 -0.772222 -0.188991 -0.163115 0.455978 0.038455 -0.779588 0.172303 -1.114448 -0.548246 -0.008155 1.66721 -0.744821 -0.15746 -2.668482 -0.304702 -0.905716 0.479063 0.151803 -0.94063 -0.044338 -0.906122 -0.456182 0.281891 0.268287 0.47007 0.628019 0.328428 1.471286 -2.345457 0.072073 -0.345477 -0.998199 -1.496897 -0.053061 0.351206 -0.934426 0.295591 0.07336 0.24092 0.486976 0.390085 -0.621556 0.375246 -0.02625 1.957847 1.014101 0.004675 0.08874 -0.900479 -0.462149 0.922254 1.355385 -1.048724 0.105897 1.254466 0.410718 0.321258 1.066395 -0.171761 -0.128774 0.315556 0.697301 -0.180925 0.555334 1.005586 -0.891677 -1.232923 -1.994189 -0.567812 0.204184 -0.947385 -0.051526 -0.987029 0.725141
-0.132159 0.02385 0.129178 0.154073 -0.077103 -0.109198 -0.018255 0.001214 0.085152 0.198207 0.082902 -0.086791 -0.188635 -0.128342 0.05938 0.049469 -0.136377 0.121903 0.183812 0.235488 -0.127628 0.115259 -0.022529 0.004282 -0.115868 -0.00941 -0.024936 -0.079174 0.062946 0.05311 -0.005989 0.06562 -0.123305 0.004058 0.045764 -0.097991 -0.198624 0.187965 0.067272 0.035188 0.00595 0.239438 0.042682 0.127118 0.038945 -0.17558 0.11716 0.130842 -0.119912 0.019556 0.279177 0.124764 -0.127551 0.015219 0.089567 -0.03239 -0.109471 -0.018846 0.033522 0.125643 0.010957 0.115348 0.002173 0.173103 -0.089154 0.168851 0.232874 -0.217243 0.075483 0.058402 -0.076205 -0.091643 0.009238 0.118232 0.120002 -0.106933 -0.074422 -0.065315 0.136919 0.071195 0.150092 0.029983 -0.039404 -0.010412 -0.191987 0.226078 -0.078517 -0.09412 -0.022537 -0.113314 0.003251 0.191526 -0.092971 -0.110565 0.10683 -0.066829 0.11557 -0.158869 -0.059668 -0.041988
0.211973 -0.092191 0.01682 0.00752 -0.11148 -0.047151 -0.25211 -0.003559 -0.041992 -0.017392 0.122586 0.034418 0.291369 -0.102373 -0.070912 0.044721 -0.037685 0.08884 -0.12695 0.052702 -0.138448 -0.099887 0.082444 -0.152166 -0.132671 -0.010184 0.109569 0.040997 -0.034255 0.047064 -0.148467 -0.018285 -0.147244 -0.042001 -0.140929 -0.010691 0.04411 -0.119782 0.172568 0.126907 0.105579 0.15357 0.14665 0.145278 0.091117 -0.05353 -0.193694 0.066034 -0.138542 0.096085 -0.005513 -0.069577 -0.011472 0.010994 0.003303 0.010795 0.160352 -0.11605 -0.06194 0.155729 0.121073 -0.029254 -0.068439 -0.077468 -0.01889 0.238292 0.150529 0.086785 0.059525 -0.055921 0.002162 0.009488 0.078624 -0.01507 -0.122375 0.092598 0.123685 -0.136243 -0.014708 0.146005 -0.103784 0.036213 -0.001301 -0.15136 0.045672 0.035058 0.208834 -0.02604 0.113545 -0.054453 -0.180944 0.107466 -0.150036 0.21497 -0.025215 -0.011393 -0.072722 -0.081144 -0.046588 -0.073746
-0.056807 -0.19602 -0.070181 0.150318 -0.158828 0.213133 -0.017803 -0.110962 0.030786 -0.107592 -0.03214 -0.138298 -0.087249 -0.075074 0.161577 0.173081 0.104687 0.075745 -0.017393 -0.045763 0.18878 0.147128 0.098209 0.137606 -0.078234 0.200389 0.1587 -0.007553 0.00234 0.01647 0.112226 0.103536 -0.001673 0.018947 -0.003229 -0.0694 0.030136 0.115612 0.192548 0.053142 -0.059819 0.022575 0.166796 0.061627 -0.041195 -0.102948 -0.054522 -0.048541 -0.087274 9.0E-5 -0.034774 0.00861 -0.020738 -0.166565 0.279537 -0.025547 0.086524 -0.093838 -0.016279 0.213213 0.11504 -0.041292 0.047786 -0.162735 -0.113713 -0.034648 -0.174541 -0.069937 -0.054867 6.26E-4 -0.028866 -0.10454 -0.058244 -0.00409 0.099623 0.005106 0.058743 0.067785 0.076064 0.053988 0.031416 0.12053 -0.05898 0.076868 0.063759 0.010354 -0.307151 -0.10049 -0.067618 0.001816 -0.172453 0.018546 0.020677 -0.089102 -0.171139 -0.151926 0.057286 -0.208455 -0.211669 -0.024043
-0.046589 0.212856 -0.084046 -0.083049 0.182973 0.098686 0.024807 -0.09791 0.146903 -0.030586 0.057587 0.155748 0.024233 -0.195365 0.099553 0.050277 -0.370305 0.204735 0.100148 -0.21515 -0.18701 -0.143741 0.13152 0.136527 0.084457 -0.005023 0.085882 -0.005495 -0.094035 -0.085943 0.109817 0.126276 -0.23687 0.105273 -0.128389 0.249257 0.15225 -0.032953 0.058142 -0.172954 -0.148832 0.032831 -0.025804 0.167196 -0.04795 -0.0565 -0.063998 0.137943 -0.050229 0.030336 0.27647 0.015177 -0.040493 0.106248 -0.246136 0.005046 -0.038554 -0.145748 0.019574 -0.021479 -0.044741 0.036379 -0.030011 0.172886 -0.04547 0.072459 -0.120599 0.019363 0.191993 0.124608 0.141546 -0.048386 0.2146 -0.058173 0.127338 0.178351 -0.002075 0.068614 -0.185503 -0.119878 0.053248 0.040159 0.20206 -0.052545 -0.189927 0.012101 0.213512 -0.019141 -0.110363 -0.256602 -0.064832 -0.076818 0.035399 0.102838 -0.169202 -0.302285 -0.188222 0.161803 0.188584 0.01812
-2.648351 -0.794316 -2.108887 0.20446 0.883061 0.242784 1.848653 1.149137 -4.975573 0.237654 -1.499665 2.924494 0.344217 -1.640431 0.763777 0.138944 -3.029439 -2.813434 -0.761102 -1.057557 -1.373735 -0.870599 1.234095 0.127805 -1.372618 1.35802 -1.501738 0.80945 0.172993 -0.484995 1.783363 -0.047587 0.483285 -1.526831 2.103549 2.116639 4.583491 -4.022388 -0.843817 0.361243 -0.546655 -2.301259 -2.000973 2.64631 -1.604053 -1.914206 -1.581895 -0.464185 1.757769 1.056301 0.263866 -0.904419 -0.422466 0.007824 -1.651553 0.7499 1.638666 -0.336108 -3.288466 -2.953238 -1.135414 1.165223 -1.047256 -0.821696 -0.135806 0.434207 -2.389307 -3.56953 -0.656773 0.578325 3.337902 0.782195 -1.250815 2.925509 -1.981492 0.121786 0.836257 1.710923 -2.640405 -0.628995 0.247469 0.863847 1.749171 -0.214156 -0.274807 2.192709 -0.892334 -1.614644 -1.225919 -0.042182 2.51632 3.464583 -3.591523 -2.506587 0.990426 1.8843 -2.460629 0.953462 0.359605 2.267383
-0.11719 0.157112 -0.014117 -0.088458 -0.080283 0.118121 -0.031509 -0.018573 -0.083695 0.070928 0.089856 0.085562 0.01686 -0.109276 0.14001 0.040275 -0.128641 0.025602 -0.042511 -0.070822 -0.095003 0.099692 0.143652 0.141249 -0.040176 0.080077 -0.08681 0.030607 -0.020226 0.142357 0.07923 0.088488 -0.322635 0.060545 0.157514 -0.083109 0.042134 0.069799 0.002264 -0.247601 -0.0496 -0.088127 -0.00728 0.14979 -0.12509 -0.133064 -0.160255 0.02237 -0.08645 0.070527 0.143149 0.137326 -0.054762 0.137942 -0.195493 -0.06551 -0.154348 0.135263 -0.161696 -0.042704 -0.006986 0.099685 0.061137 -0.044457 -0.059555 0.216352 0.054275 -0.015218 0.045034 -0.014972 -0.007714 -0.012673 0.066129 0.02302 -0.013105 0.013703 -0.197739 0.021511 0.056039 -0.097501 -0.128551 0.359602 0.084534 -0.132362 -0.049248 0.040423 -0.009948 0.066171 0.073117 -0.121229 -0.056422 0.103031 -0.047446 -0.131591 -0.061782 0.034015 -0.026256 0.001815 -0.010916 0.008569
-0.034536 -0.125175 0.158552 0.03538 -0.072327 0.074902 0.055407 -0.024795 0.109899 -0.086138 -0.017064 0.081035 -0.152029 0.111313 0.094328 0.077553 -0.162004 0.138997 -0.123636 -0.01103 -0.014632 0.0674 0.089752 0.178229 -0.129657 -0.063272 -0.096769 0.019107 0.183826 -0.041714 -0.081645 -0.028951 -0.067856 0.208968 -0.076727 6.09E-4 0.095791 0.02998 0.131442 0.036719 0.043734 -0.030592 0.103599 0.039026 0.043346 0.009936 -0.093974 -1.4E-4 -0.079495 0.005356 0.08583 -0.036641 0.071825 -0.084164 0.01254 0.00449 -0.140188 0.080139 -0.07155 -0.044186 0.036816 -0.040001 0.060494 -0.061669 -0.197225 -0.056286 -0.104004 0.136182 0.025578 0.096599 -0.041605 -0.059427 -0.069678 0.037221 0.048166 -0.039409 -0.093071 -0.090468 -0.071333 -0.189162 0.198133 0.060829 0.013135 -0.221713 -0.043 -0.018496 0.023718 0.023411 0.022828 -0.005489 -0.212424 -0.066486 0.09013 0.176747 0.038348 -0.239805 -0.175462 -0.051011 0.065693 0.079449
-0.123206 -0.100466 0.033243 0.077 0.179319 0.017614 -0.213811 0.006909 0.040688 -0.005939 0.169882 -0.011291 0.039273 -0.072059 0.265201 0.131076 -0.197205 0.18388 0.101345 -0.031916 -0.174318 -0.027724 0.09908 0.042575 -0.156309 -0.085915 -0.007616 -0.01886 0.014835 -0.178846 0.04764 0.155708 -0.058266 0.108582 -0.22361 -0.158065 0.055741 -0.106418 0.0566 0.056205 0.068477 -0.015639 0.07966 0.217827 -0.087038 -0.013006 0.045994 0.061203 -0.240925 0.174703 0.013485 0.1065 -0.1214 0.120009 0.073172 0.163889 -0.035355 -0.014525 0.003944 -0.185124 0.064569 -0.174246 0.088216 -0.058944 -0.040741 0.031097 0.04478 0.0277 0.069906 0.013228 -0.039618 -0.031374 -0.101997 0.014663 0.134126 -0.120279 -0.089788 5.05E-4 0.037787 -0.091697 0.095113 0.242647 0.048629 -0.06049 -0.043156 0.026519 -0.168255 -0.118608 0.074704 0.047452 -0.18402 -0.115334 -0.056956 0.115259 0.098713 -0.367984 -0.133056 -0.058586 0.008264 0.00623
-0.092818 -0.01965 -0.018768 -0.170652 -0.148768 0.306287 0.099108 0.017424 0.128095 0.081867 0.025727 -0.344475 -0.197051 -0.042333 0.029794 -0.060513 -0.225365 -0.174755 -0.159086 0.184077 -0.080231 -0.33504 -0.338978 -0.13819 0.220801 0.106081 0.252942 0.075639 0.110714 -0.094753 -0.039629 0.121576 0.043085 0.019534 0.066726 0.093617 0.021869 -0.318684 -0.050855 0.031588 -0.026445 3.04E-4 -0.119578 -0.116504 0.237852 0.341047 0.010089 0.076136 -0.03739 -0.033314 0.054383 -0.012766 -0.176378 -0.142314 -0.003921 -0.087024 -0.183935 -0.113985 -0.199188 0.250776 -0.251605 -0.025043 -0.034968 0.085192 -0.140483 0.237827 -0.278911 0.107184 -0.07026 0.054674 0.113827 -0.105162 -0.089943 -0.011261 -0.257399 0.367105 0.014412 0.006502 0.053828 -0.458558 0.079329 -0.071989 0.110447 0.241846 0.161074 0.062798 -0.037711 -0.092598 -0.292547 0.213039 0.244502 -0.12637 0.083123 -0.102386 0.31135 -0.019783 -0.16928 0.053992 -0.071743 -0.215555
-2.624672 -1.554463 0.721791 0.057634 -4.060073 0.62512 -1.904671 -1.214719 3.417883 -2.21608 -1.288049 0.833958 2.562591 -2.007247 -1.089559 -1.856265 -2.632277 -1.096159 -0.575553 -0.097507 -3.172086 0.974568 0.031504 -0.139215 -0.808232 0.751506 1.58791 3.674081 -0.526015 3.586167 3.317653 0.353082 0.054125 0.255352 -0.233135 -0.196828 2.473883 -2.154672 -0.635499 -2.408924 -2.285774 -0.679714 -0.537962 -2.375608 -0.359529 2.122944 -3.349861 0.568652 -2.574357 1.057826 0.861368 1.753231 2.829964 2.314444 -0.260215 3.682849 1.61588 0.415127 -1.524783 -1.360525 2.612372 1.309274 2.014461 3.862636 4.902708 -0.900143 -0.204208 -1.736223 0.101982 0.048446 0.558404 0.62084 -4.266359 -2.985905 -4.302859 2.362859 0.888264 2.322715 -1.663494 1.137201 0.95968 -3.628558 0.498155 -0.315144 0.055032 -1.361952 1.850147 4.145928 -1.920611 -2.244518 -2.592072 -2.563996 -1.97104 -1.054235 -2.718191 1.924839 -0.246865 3.447866 0.018846 0.871122
0.325985 -0.22553 0.144491 -0.097046 0.1394 -0.034223 -0.143664 0.402349 -0.010381 0.321808 0.304425 -0.329597 0.447989 0.105313 -0.150499 0.223536 0.234432 0.006229 -0.014026 -0.02274 -0.143131 -0.633587 -0.192986 -0.188071 0.011228 0.144693 -0.232894 -0.027499 -0.259436 -0.125206 -0.259042 -0.145343 -0.077175 0.230539 -0.133079 -0.44369 -0.052545 -0.117013 0.24645 -0.102076 0.028738 0.159017 -0.078424 -0.128751 0.41368 0.069404 -0.313035 0.143069 -0.234133 0.304336 -0.121588 -0.209043 -0.052126 0.244285 -0.277791 0.095786 0.121009 -0.327779 -0.391849 -0.176424 -0.082447 0.224952 0.168331 -0.124875 -0.206454 0.29425 0.079074 0.066534 0.14287 0.162247 0.109205 0.297158 0.009104 0.031436 -0.200223 -0.014863 -0.021386 0.295826 0.357507 -0.169061 -0.170726 0.114693 -0.006173 -0.063962 0.202097 -0.055281 0.38886 -0.148136 -0.092432 -0.281205 -0.28691 -0.112188 -0.315304 -0.120275 -0.354508 -0.018232 0.1086 0.102551 0.205102 0.114233
-0.718438 -0.830038 -0.584242 2.1215 -0.644012 1.416116 -0.587713 -0.321771 0.15449 -1.337212 0.646351 2.943981 -2.520119 -0.053393 1.892255 -0.247068 0.153723 -1.774544 -1.713547 1.03615 -2.316809 -1.758234 0.596352 -1.216816 0.651834 0.378166 -0.461749 -1.113127 -1.262089 1.808952 2.079526 -0.645053 -1.036425 -0.051591 0.752853 1.877822 1.149022 -1.563167 0.088195 1.179668 0.264795 -0.643595 -1.254162 2.294433 -0.67558 -0.480528 -1.903531 -1.404449 3.451226 0.215378 -0.348073 3.059608 -0.201534 3.176656 -2.660815 -0.397857 0.658943 0.204092 -2.861443 -2.700162 -0.267356 1.597524 -0.058446 0.400235 0.112722 2.04443 -0.418444 -0.708333 -0.409393 0.970238 4.077705 1.113589 0.123738 0.071757 1.385313 -2.550826 0.377188 -1.266978 -0.033552 1.268038 1.334944 -1.192168 -2.617046 1.325431 1.537295 0.868143 0.029881 0.136091 0.48518 -1.968409 0.753802 -0.972635 0.324233 1.386425 1.801178 1.298403 -2.240443 1.965765 -0.567086 2.183566
2.591633 1.608701 -2.087245 2.00752 3.012652 4.995656 0.847355 -1.594905 -0.365708 -1.629805 -1.650237 3.712017 -0.231463 -0.537534 -2.036098 2.002639 -0.696666 -4.310136 -1.477319 -1.356504 -0.581823 -1.830239 -0.272773 -1.648095 0.090509 0.008711 0.330842 0.396714 2.341035 -0.526067 1.155793 -1.730906 -1.010387 -1.342646 -1.939355 0.734869 0.727366 0.700702 1.516974 -2.133831 -0.280653 -3.051674 0.017123 0.532043 1.478449 0.375441 0.920129 1.548929 1.087478 0.668327 0.707416 3.249232 -0.362503 1.273221 -2.929682 -0.245389 1.633444 -0.119836 0.103459 -3.445175 0.513245 0.427807 0.738792 1.448203 0.501908 0.362882 -0.731533 -0.391201 0.037778 3.053553 4.030229 1.793904 1.24136 0.081706 -1.401954 -0.638804 -0.487445 -0.267924 0.012844 0.538179 -0.241935 -0.068756 1.351665 -0.112558 0.001814 0.447262 0.833441 -0.023876 1.212707 1.514635 -0.568611 0.376173 -3.663739 -4.345135 -0.444319 2.139788 -2.53093 0.92131 -1.399435 1.763954
-0.168356 -0.072419 0.105428 0.025243 0.017851 0.046591 -0.235889 -0.090771 0.036418 0.071746 0.190823 0.007265 0.080083 0.105105 -0.010235 -0.033322 -0.087986 -0.061273 -0.067506 0.034889 -0.037064 0.161907 0.147977 -0.093828 -0.120085 -0.056925 -0.135542 -0.05011 0.262679 0.010727 -0.101737 0.019351 -0.185878 0.092285 0.018103 0.151831 0.052877 -0.060598 0.133543 0.156321 -0.183466 -0.089854 -0.108571 0.068285 0.080029 -0.001411 -0.002203 -0.24077 0.00391 0.014347 0.181483 -0.116666 -0.062123 -0.044395 -0.036011 0.00893 0.045143 -0.167087 0.329917 -0.031772 0.047813 0.048096 -0.159109 -0.15996 0.007678 -0.084777 0.085813 0.114417 0.033374 -0.061614 -0.02266 -0.105727 -0.167287 0.008891 -0.105995 -0.131385 -0.181432 -0.05375 0.026185 0.027144 0.015796 0.021525 0.089405 -0.050362 -0.18537 0.021976 0.071564 0.109842 0.137736 -0.032826 0.106197 0.04441 0.075972 0.133831 -0.079138 0.060177 -0.072915 0.128131 -0.19392 0.077907
0.0 0.0 0.0 0.0 0.0 0.0 0.0 0.0 0.0 0.0 0.0 0.0 0.0 0.0 0.0 0.0 0.0 0.0 0.0 0.0 0.0 0.0 0.0 0.0 0.0 0.0 0.0 0.0 0.0 0.0 0.0 0.0 0.0 0.0 0.0 0.0 0.0 0.0 0.0 0.0 0.0 0.0 0.0 0.0 0.0 0.0 0.0 0.0 0.0 0.0 0.0 0.0 0.0 0.0 0.0 0.0 0.0 0.0 0.0 0.0 0.0 0.0 0.0 0.0 0.0 0.0 0.0 0.0 0.0 0.0 0.0 0.0 0.0 0.0 0.0 0.0 0.0 0.0 0.0 0.0 0.0 0.0 0.0 0.0 0.0 0.0 0.0 0.0 0.0 0.0 0.0 0.0 0.0 0.0 0.0 0.0 0.0 0.0 0.0 0.0
-0.019706 -0.145242 -0.122787 -0.025671 0.145106 0.031524 -0.275041 -0.0709 -0.006053 0.073354 0.286241 0.343709 -0.212871 -0.07867 -0.045261 0.186722 0.170896 0.305223 0.354803 0.088141 -0.030515 0.042086 0.02879 0.169761 -0.133984 -0.226611 -0.123985 -0.004098 0.120111 -0.147155 -0.048636 -0.263586 -0.069398 0.071883 -0.039912 -0.213113 -0.020763 -0.006976 0.062398 0.013356 -0.004257 0.519273 -0.017954 0.199207 0.073616 -0.144031 -0.001655 -0.206376 -0.227646 -0.059971 -0.058292 -0.020765 -0.065085 -0.023748 0.090468 -0.073725 0.069063 0.114197 -0.326625 -0.26851 0.198798 -0.297594 -0.044988 -0.148157 -0.043126 -0.157496 0.180401 0.117417 0.023881 -0.20358 0.03505 -0.016076 -0.212179 0.099587 -0.052272 -0.092711 -0.058712 -0.012781 -0.036761 -0.098762 -0.078315 0.067382 0.034245 -0.093544 0.132454 -0.083435 0.121453 -0.149926 0.285521 0.124799 0.05276 0.04325 -0.05441 0.059682 -0.139771 0.157769 0.166039 0.23828 -0.0291 -0.129086
-0.19975 -0.163397 0.046376 0.108494 -0.086906 -0.079634 -0.174304 -0.190655 -0.16796 0.054171 0.073367 0.100495 0.028349 0.089697 0.084377 0.226077 -0.144981 0.170875 0.030617 -0.002744 -0.049142 0.147196 0.014105 -0.098415 -0.097857 -0.116433 -0.221617 -0.031682 0.328072 0.174668 0.066348 0.00991 0.088367 -0.047556 0.007861 -0.096847 0.029124 0.106336 -0.027728 0.071993 -0.012189 0.143203 -0.02933 0.062494 -0.056761 -0.120269 -0.12018 -0.017668 -0.062963 0.101128 0.16565 -0.026171 -0.079002 -0.131484 -0.015915 0.040522 -0.181151 -0.002836 0.057121 -0.107145 0.126391 -0.080741 0.019065 -0.07346 -0.064256 0.100005 0.14671 -0.007299 -0.060089 0.006398 0.030183 0.114927 0.121747 -0.032423 0.073375 -0.013173 -0.065432 0.056931 -0.211812 0.024416 -0.072059 -0.018436 0.023346 -0.02972 0.040747 0.006594 0.315286 0.127171 0.034984 0.125694 -0.126999 -0.159279 0.204473 0.190888 -0.115081 -0.166722 0.05582 -0.005334 0.014762 -0.26041
0.352905 0.550922 -1.128945 -0.511125 0.774489 1.405335 -0.371647 0.106012 -0.779785 -0.640302 -0.68578 1.570717 -0.712288 -0.706705 -0.789609 -0.045278 -1.599722 -2.840112 -0.089543 -1.158838 -1.862605 -0.62748 -0.063542 -0.468696 0.750564 0.033551 -0.772222 -0.188991 -0.163115 0.455978 0.038455 -0.779588 0.172303 -1.114448 -0.548246 -0.008155 1.66721 -0.744821 -0.15746 -2.668482 -0.304702 -0.905716 0.479063 0.151803 -0.94063 -0.044338 -0.906122 -0.456182 0.281891 0.268287 0.47007 0.628019 0.328428 1.471286 -2.345457 0.072073 -0.345477 -0.998199 -1.496897 -0.053061 0.351206 -0.934426 0.295591 0.07336 0.24092 0.486976 0.390085 -0.621556 0.375246 -0.02625 1.957847 1.014101 0.004675 0.08874 -0.900479 -0.462149 0.922254 1.355385 -1.048724 0.105897 1.254466 0.410718 0.321258 1.066395 -0.171761 -0.128774 0.315556 0.697301 -0.180925 0.555334 1.005586 -0.891677 -1.232923 -1.994189 -0.567812 0.204184 -0.947385 -0.051526 -0.987029 0.725141
0.16475 0.005165 0.044029 0.334368 -0.204468 0.107 0.024311 -0.183908 0.100245 0.206766 0.109302 0.054589 0.013548 0.019675 0.019309 0.189321 0.032818 0.272432 -0.10987 0.016886 -0.433897 0.012191 -0.041802 -0.061196 0.043972 0.092901 -0.085993 -0.036727 0.038931 -0.126447 0.008292 0.076665 0.097715 0.191747 -0.08552 -0.1506 0.173316 0.078945 -0.058802 -0.146411 -0.185176 0.027477 0.059426 -0.208739 0.008851 -0.22495 0.033972 0.032393 0.213532 0.05961 -0.120454 -0.034846 -0.049957 0.12936 0.096976 -0.056923 0.198887 -0.224495 8.42E-4 -0.211725 0.146563 0.048087 0.060565 -0.082936 -0.199797 -0.117215 0.204814 0.003792 -0.1669 -0.049879 0.09896 0.121781 0.10151 -0.031375 -0.037774 -0.356898 -0.018634 0.250892 0.132376 0.150584 0.148773 -0.031047 0.176201 -0.199042 0.309876 0.026238 -0.166857 0.027317 0.049177 0.131762 0.044142 0.061998 0.013149 -0.039868 -0.044111 -0.077359 0.134442 -0.137561 0.149039 0.066507
-0.140785 -0.14728 -0.027616 0.08445 -0.152002 0.023071 0.025384 -0.125483 -0.174535 0.123511 0.183223 0.057582 -0.114695 -0.126659 0.312273 0.107716 0.076027 -0.022061 -0.033984 -0.035121 -0.196234 0.084876 0.242653 0.041485 -0.033119 0.006834 0.068452 0.09493 -0.009738 -0.022149 0.04009 0.025885 -0.102782 0.076223 -0.119503 -0.163882 0.006091 -0.143649 0.042611 0.081483 -0.033372 0.179769 0.068813 -0.090208 0.071727 -0.153766 0.05288 0.091442 0.004049 0.058936 0.088653 -0.241223 0.034444 0.149167 -0.015737 -0.019929 0.114689 0.067139 -0.021938 -0.176811 0.159565 -0.13655 -0.091767 -0.318583 -0.315485 -0.007252 0.060879 0.042017 0.030844 -0.125873 0.016578 0.08261 -0.159142 0.013366 -0.060969 -0.012505 -0.13003 0.010829 -0.002904 -0.100702 -0.084819 0.117446 0.074885 -0.146817 0.13477 -0.058325 0.044237 -0.04391 0.144159 -0.039606 0.042236 -0.111675 -0.092263 0.084575 -0.225227 -0.206438 0.308123 -0.030676 -0.100911 0.028808
0.03493 -0.068118 0.132844 0.176315 0.107823 0.053858 0.006985 -0.018157 -0.213415 0.111053 0.020741 0.043736 -0.027093 0.137052 0.11699 0.059177 0.100954 0.141361 0.052933 0.055522 0.054073 0.153422 0.070043 -0.048292 0.038189 0.120294 -0.035213 0.046511 0.025829 0.011882 -0.127926 -0.144195 0.057105 -0.059021 -0.177076 0.206158 -0.101386 0.122123 -0.063389 -0.028613 -0.020374 -0.005995 -0.106676 -0.153741 0.041566 0.051899 -0.215131 -0.101061 0.096232 0.033951 -0.088936 0.043976 0.046066 -0.24792 0.106176 0.054334 -0.042923 -0.019118 -0.11611 0.1546 -0.002811 0.106799 0.119332 0.064634 -0.128624 -0.146718 -0.016856 0.012809 0.122706 0.163665 0.126128 0.213675 -0.162849 -0.055501 -0.129859 -0.028247 -0.074913 0.104947 0.045839 0.115419 -0.005842 -0.163038 -0.041627 -0.133011 -0.046627 -0.053558 0.101631 0.153348 0.217873 -0.109352 0.016815 0.063175 0.19653 -0.138073 0.049502 0.118835 0.074912 -0.123203 0.045501 0.157464
-2.543212 -1.547985 -1.720731 0.343894 -1.835935 0.259436 -1.090205 0.532381 2.926662 -0.929155 -0.395686 0.690629 0.698564 1.251246 0.675061 1.375841 1.109813 1.326019 -0.474946 -0.560343 -3.928067 0.2631 0.537611 -0.37452 -1.424982 0.376306 -1.925483 -0.67315 0.555874 2.646388 2.025884 -1.146886 0.71546 -0.846685 -0.472336 -0.225162 -1.933185 -1.480165 -2.24722 -3.25263 -1.153887 0.583964 1.558894 -4.356149 0.762338 1.027869 -2.991308 -0.064796 1.718614 -1.008015 -0.044254 3.60419 1.172523 2.984907 3.030044 1.64701 -0.574455 -1.160199 -1.012184 1.36862 -1.13435 -0.18662 0.537128 1.973674 -0.470624 -1.183716 -1.163639 0.835628 1.251174 -0.827905 0.053052 1.594374 -1.500735 -0.292572 -2.775918 0.510224 -0.107744 0.374175 1.374911 -0.339572 -0.206701 -0.472868 1.330999 1.514971 0.871936 -2.042604 1.847544 1.296662 0.679702 2.053429 -1.343627 0.867303 -0.188358 -0.896128 1.013537 -2.417886 -0.238467 1.660881 -0.491789 1.00584
0.001533 -0.023996 0.157291 0.253792 -0.025249 0.108006 -0.198451 -0.110338 0.012606 0.05878 -0.042348 0.028458 0.115119 -0.059944 -0.072366 -0.065742 -0.00612 0.168769 0.01861 0.007461 -0.070519 0.25752 -0.066032 0.117652 -0.031083 0.057649 -0.129892 0.034044 0.179974 0.143523 -0.005708 -0.017046 0.10724 0.011455 0.013749 0.209776 -0.035009 -0.020524 -0.186859 0.079093 -0.063507 0.134761 -0.014102 -0.149646 0.186093 -0.068242 0.056367 0.100391 -0.115162 -0.173519 -0.020337 0.022355 0.154386 0.063482 0.006339 0.027991 -0.036275 -0.023147 0.108681 0.004778 0.109124 -0.045879 -0.065759 -0.036489 -0.019594 -0.130723 -0.076352 0.06613 0.023124 -0.062388 0.065901 -0.139949 0.112614 -0.201406 -0.041024 -0.155351 0.089909 0.050315 0.09601 0.090311 -0.08769 0.041532 -0.074702 -0.192516 0.166304 0.108238 -0.020225 0.073754 0.318707 -0.075564 -0.060031 -0.102686 0.060667 -2.54E-4 -0.029725 0.02428 0.015132 0.171074 -0.026994 -0.11699
0.305527 -0.089901 0.107797 0.039249 0.080543 -0.023639 0.207728 0.316006 0.062313 0.128192 -0.09655 0.015669 -0.085788 0.055051 0.099828 -0.055451 -0.218524 0.16158 -0.016715 0.057037 -0.057567 -0.065178 -0.041134 0.298791 0.017763 0.224407 0.090732 -0.21472 -0.073612 0.03252 -0.184468 0.022568 -0.069446 -0.002326 0.062874 0.231417 0.044785 0.206157 0.081316 0.087334 0.031843 -0.067334 0.027586 -0.37006 -0.10362 0.09155 -0.124738 0.289558 -0.115339 -0.19118 -0.250696 0.401061 0.082603 -0.037928 -0.238239 0.089904 0.150108 -0.014525 -0.153926 -0.173213 0.024685 -9.48E-4 0.317706 0.067231 -0.115319 -0.12783 -0.084165 0.053238 -0.150689 0.17368 0.220611 -0.050532 0.050236 0.075959 0.042327 -0.081907 0.077509 0.092859 -0.070242 -0.047681 -0.021035 -0.118216 -0.033067 -0.05355 0.004375 -0.419499 0.081192 0.070665 0.176036 -0.029294 0.056977 0.065751 -0.094644 0.194289 -0.140604 -0.025403 0.035903 0.198845 0.138674 0.048332
0.047836 -0.260219 0.14638 0.007779 -0.104955 -0.050724 -0.319432 -0.027407 -0.104778 0.124311 0.14477 0.148278 -0.013076 -0.069917 0.254554 0.25292 0.091697 0.206138 0.168034 0.12307 -0.258927 -0.00695 0.102032 0.075771 -0.201948 -0.129118 -0.138297 -0.097396 0.264104 -0.141635 -0.00303 -0.004618 -0.171331 0.006413 -0.129962 -0.058793 -0.107657 -0.040955 0.117533 0.181708 -0.064138 0.225566 -0.062915 -0.035464 0.269723 -0.089994 -0.005719 -0.078063 -0.215832 0.079343 0.266575 -0.25419 -0.128297 0.038341 0.119308 -0.207662 -0.029523 0.019236 0.024436 -0.109361 0.007955 -0.078744 0.071111 -0.325345 -0.091151 0.006054 0.103893 0.156867 0.20827 -0.195221 -0.011492 -0.084134 -0.077224 -0.110934 0.098004 -0.068865 -0.108344 -0.153112 -0.094614 -0.187216 -0.01459 0.218526 0.241999 -0.141711 0.084584 0.252269 0.155438 -0.088298 0.260633 0.198838 -0.176457 -0.052125 -0.045839 0.131111 -0.115358 -0.197565 0.088973 -0.089591 0.060949 -0.086675
0.16475 0.005165 0.044029 0.334368 -0.204468 0.107 0.024311 -0.183908 0.100245 0.206766 0.109302 0.054589 0.013548 0.019675 0.019309 0.189321 0.032818 0.272432 -0.10987 0.016886 -0.433897 0.012191 -0.041802 -0.061196 0.043972 0.092901 -0.085993 -0.036727 0.038931 -0.126447 0.008292 0.076665 0.097715 0.191747 -0.08552 -0.1506 0.173316 0.078945 -0.058802 -0.146411 -0.185176 0.027477 0.059426 -0.208739 0.008851 -0.22495 0.033972 0.032393 0.213532 0.05961 -0.120454 -0.034846 -0.049957 0.12936 0.096976 -0.056923 0.198887 -0.224495 8.42E-4 -0.211725 0.146563 0.048087 0.060565 -0.082936 -0.199797 -0.117215 0.204814 0.003792 -0.1669 -0.049879 0.09896 0.121781 0.10151 -0.031375 -0.037774 -0.356898 -0.018634 0.250892 0.132376 0.150584 0.148773 -0.031047 0.176201 -0.199042 0.309876 0.026238 -0.166857 0.027317 0.049177 0.131762 0.044142 0.061998 0.013149 -0.039868 -0.044111 -0.077359 0.134442 -0.137561 0.149039 0.066507
-0.100832 -0.167433 -0.119031 0.147797 -0.060857 0.140499 0.026217 -0.015529 0.097914 0.072034 -0.010395 0.141089 0.03838 0.288693 -0.026145 -0.015905 0.262325 0.421521 0.159128 -0.039899 -0.256428 0.037927 0.12642 -0.04462 0.109923 0.108894 0.036471 -0.024048 -0.024169 0.236302 -0.094764 -0.200841 0.170941 0.003365 -0.196706 0.109674 -0.147498 -0.063847 -0.015159 -0.029111 -0.059665 0.147561 -0.093747 -0.181297 -0.012656 0.044699 -0.201995 0.015078 0.025077 -0.121767 -0.035209 -0.011586 -0.14075 0.085552 0.238001 0.221622 -0.078504 -0.066647 -0.007938 0.032074 -0.098062 -0.083487 -0.077202 0.116878 0.022714 0.102248 -0.006895 0.145679 -0.071001 -0.086913 -0.052738 0.245814 -0.199754 -0.147096 -0.059824 0.230914 0.01784 -0.021653 -0.083645 -0.014564 -0.314664 0.053471 0.086973 -0.005627 0.058735 0.012083 0.043044 0.149242 0.040369 0.066221 -0.188978 0.059495 0.07716 0.057047 0.193879 -0.014052 -0.125065 0.017725 0.07135 0.074717
-0.105296 -0.007183 0.064899 0.166489 -0.133355 -0.095549 -0.07463 0.289981 -0.047742 0.0133 0.249951 0.035616 -0.239536 -0.135138 -0.071614 -0.008035 0.014201 0.248911 0.12124 0.023735 -0.106211 0.128368 0.135592 -0.157028 -0.342266 -0.122862 0.10016 -0.059681 0.146843 -0.126048 0.057567 0.124984 0.042963 -0.005797 0.049704 -0.166772 -0.232372 0.230657 -0.119802 -0.051398 0.087628 0.229131 0.051532 -0.119173 0.123806 -0.217822 0.40315 -0.123501 -0.045692 0.068758 0.380448 0.023351 0.031704 0.019689 0.122965 -0.099367 0.055348 0.075167 0.26401 -0.098046 0.101772 -0.0356 0.207472 0.045987 -0.110685 0.027135 0.156061 -0.003181 0.121049 -0.24908 -0.100676 -0.008646 0.026818 0.186017 0.091903 -0.050674 0.032361 -0.255525 0.190137 0.20663 0.045332 0.169483 0.023635 -0.017628 -0.022788 0.032529 -0.150189 0.063252 0.261656 -0.260213 0.079098 0.225566 0.025029 0.264325 0.038639 -0.239627 -0.106946 -0.317061 -0.104717 -0.002278
-0.016095 -0.221284 0.154147 0.093093 -0.120192 0.173908 -0.009705 -0.062873 -0.097971 0.137386 0.059271 0.045163 -0.065457 0.01889 -0.037035 0.045368 0.1175 0.198912 0.027443 0.049138 -0.042477 0.075536 0.202853 0.161862 -0.146452 -0.063646 -0.104058 -0.063138 0.129651 -0.168296 -0.002577 -0.201428 -0.111876 0.014249 -0.123669 0.114499 0.087389 0.002974 0.04855 0.008512 -0.042541 0.277842 -0.001672 -0.050937 -0.046334 -0.066218 0.042947 -0.042938 -0.186846 0.030015 -0.10853 -0.017529 0.039545 -0.011386 0.134336 0.017813 -0.024028 -0.223112 -0.028306 -0.146831 0.074678 -0.10251 0.053908 -0.090249 0.05946 0.029108 0.159652 0.239093 0.131553 -0.085899 -0.158752 0.111013 -0.005195 -0.102156 0.082513 0.012178 0.041918 -0.038406 0.020171 -0.023594 -0.186237 -0.048326 -0.017435 -0.139643 0.051259 -0.004046 0.168775 0.021147 0.119302 0.125884 -0.196788 -0.0487 0.121817 0.079223 0.066627 -0.023851 -0.042194 0.036156 0.066127 -0.313196
1.035361 1.319725 0.388011 1.220811 -0.236045 1.447081 -1.78193 3.520004 0.063077 -1.681862 0.545208 0.767849 -1.479444 -1.152839 0.669301 0.685509 -2.946755 -2.239533 -1.187422 -1.793336 0.607402 0.130687 0.296681 -1.569517 1.825066 1.715849 -1.639836 0.849724 -1.742086 0.427502 3.84844 -1.377145 0.671096 -1.312902 -1.152387 0.705431 2.180344 2.97496 1.402098 -0.909545 -1.649212 -0.253421 1.186817 1.193823 3.167747 -0.387379 -0.12198 0.872223 0.13285 0.490844 0.029473 1.345032 0.297008 2.724698 -1.656047 -0.109585 1.500583 -1.148555 -3.658389 1.022988 -1.211381 0.342059 -0.023586 1.22536 -1.874871 -1.957746 -0.188066 -0.235303 -0.067175 1.107354 1.448404 0.838301 1.67396 -0.238039 -0.504146 -1.334739 0.688005 0.37731 -2.953094 0.650433 0.307563 -0.457962 -1.694326 2.40152 -0.816994 0.208705 1.853393 0.15935 -0.989952 1.089235 1.087388 -2.786835 -2.248864 -0.788939 0.405791 0.907533 -1.516669 1.970717 -0.345554 -0.134731
-0.05004 -0.030015 -0.083605 -0.076852 0.09147 0.072012 0.115087 -0.132753 -0.013351 0.107616 -0.078714 0.132395 -0.145359 -0.081244 -0.086263 -0.106545 -0.081139 -0.070913 -0.006741 -0.00931 -0.064856 -0.184029 0.02728 0.149807 0.011708 0.002561 -0.055129 0.05933 0.113622 0.125594 0.115072 0.042035 0.009456 0.117625 -0.003342 0.145614 0.014308 -0.142675 0.108459 0.131445 0.059147 -0.028125 -0.056868 0.057191 0.049525 0.054371 -0.060018 0.002236 0.075102 0.093821 0.139948 0.042938 -0.06637 -0.025162 -0.021264 0.122092 -0.085682 0.039476 -0.066757 -0.103404 -0.110363 0.017344 -0.036177 -0.050176 -0.09343 0.047064 -0.052832 -0.025367 -0.203295 0.025143 -0.146836 -0.075511 0.04781 0.006959 0.009088 0.206387 -0.004034 0.035135 -0.023607 -0.196689 0.080952 -0.117135 -0.048345 0.021855 -0.157456 0.113085 0.164192 -0.041667 0.028373 -0.012499 0.08341 -0.129966 -0.042436 -0.148675 0.142887 -0.009757 -0.09142 -0.076766 0.020515 -0.038196
0.041182 -0.071701 -0.007566 -0.111173 0.078129 -0.015794 0.102992 0.084804 -0.294614 0.062785 -0.224475 0.044822 -0.054604 0.018822 -0.254624 0.187632 0.057536 -0.04948 0.077868 0.052887 -0.065284 -0.04327 -0.015092 0.035227 -0.120777 -0.01384 0.019468 0.133926 -0.002242 0.025286 0.056421 -0.140413 -0.062551 0.118069 0.067541 0.127629 -0.190311 0.209374 0.192921 0.054712 -0.148947 0.032204 -0.170128 -0.03032 -0.002925 0.169345 0.085453 -0.024603 -0.011659 -0.145112 -0.290293 -0.065943 -0.09053 -0.275955 0.113964 -0.118032 -0.172779 -0.215132 0.00824 0.127013 -0.169866 0.062208 0.042766 -0.087616 -0.10884 0.286924 0.050741 0.130539 0.292731 0.017204 -0.096873 -0.187146 0.25168 0.10377 0.08209 -0.05794 0.019952 -0.023549 -0.204179 -0.090327 0.135311 0.171028 -0.109687 0.012397 -0.001672 0.281126 0.051025 0.031007 0.309401 0.149164 -0.249441 -0.005679 -0.012549 0.20681 0.267068 -0.060891 -0.256129 0.182048 0.03837 0.01928
-0.040122 -0.216084 0.190543 0.10571 -0.115889 -0.060173 -0.281082 0.062001 -0.219663 -0.015439 -0.055897 0.14243 0.10897 -0.053684 0.185391 0.276482 -0.093699 0.183872 0.098835 0.026181 -0.033893 0.178875 0.052035 -0.052021 -0.210788 -0.097991 -0.0463 -0.081225 0.221239 -0.165157 -0.048173 -0.065912 0.013306 -8.14E-4 -0.218156 -0.19275 0.052096 0.034297 -0.06269 0.024357 -0.097093 0.041655 -0.196055 0.037217 0.032243 -0.001619 0.031281 -0.017627 -0.166334 0.030709 -0.082717 -0.0611 -0.130645 0.327586 0.075701 -0.208704 -0.070803 0.010916 0.067632 -0.011382 0.113598 -0.123282 -0.096458 -0.183762 -0.096914 0.012357 -0.011634 -0.079333 -0.019792 -0.058406 0.072115 -0.122552 0.077483 -0.170776 0.085177 -0.250493 -0.094235 -0.06139 -0.139454 -0.16116 0.113756 0.170875 0.084029 -0.001907 -0.095013 -0.076374 0.033879 0.048232 0.097609 0.150378 -0.099129 -0.03576 0.016376 -0.022594 -0.027137 -0.198676 0.050503 -0.161184 -0.088723 0.028052
-0.062329 -0.177465 0.269583 0.263792 -0.066503 0.027953 -0.058286 -0.493776 0.006616 0.183992 0.128049 0.096864 -0.146205 -0.261229 0.247866 0.191331 -0.146678 0.123907 -0.243211 0.103924 -0.079424 0.058434 0.377909 0.009823 -0.218177 -0.033546 0.064836 -0.001985 0.022403 -0.017958 0.035053 -0.096556 -0.160819 -0.021811 -0.045678 -0.042434 0.008524 0.054422 -0.101521 -0.004415 0.165268 0.061385 -0.226926 0.089367 -0.130594 0.036211 -0.095074 0.096057 -0.191061 0.211289 0.091428 0.059307 -0.086647 0.272515 0.041868 -0.024233 -0.039208 0.023441 -0.032688 -0.193941 0.176817 -0.091203 -0.288007 -0.168289 -0.223941 0.181707 0.335493 0.058688 0.176044 -0.118803 -0.071199 -0.121156 -0.018917 -0.059623 -0.030932 0.241114 -0.157878 0.091531 -0.154346 0.029367 -0.013123 0.160583 0.038554 -0.118422 -0.100683 0.112671 0.173209 0.06046 0.074075 -0.093676 -0.112879 -0.052208 -0.109386 0.114437 -0.162123 -0.220927 0.128792 0.107394 -0.214403 -0.084302
-0.137152 -0.013417 0.228587 0.215114 -0.130263 -0.025571 -0.117494 -0.076612 -0.014219 -0.026666 -0.149278 0.159996 -0.050631 0.106175 0.024988 0.383621 -0.033884 -0.077077 -0.197636 0.085401 0.059607 -0.012551 -0.013858 0.057483 -0.043192 -0.032621 -0.029535 0.082722 0.099787 -0.197319 -0.156697 -0.125461 0.053312 0.058436 -0.026776 -0.07477 0.088497 0.111546 -0.171683 -0.094968 0.137966 0.068711 -0.014355 0.176864 0.045075 0.063936 0.011906 -0.246429 -0.118194 -0.039473 0.136879 0.084898 0.081714 -0.198114 0.147098 -0.171317 0.020438 -0.152772 0.086674 -0.015589 -0.109661 -0.266006 -0.124479 0.064778 0.066798 0.122153 0.034399 0.093207 -0.042365 0.195115 -0.168441 -0.002485 -3.99E-4 0.0406 -0.098846 -0.105012 -1.73E-4 -0.055259 -0.117726 0.016168 -0.020389 0.126051 -0.067187 -0.026185 -0.039654 0.006747 -0.056213 -0.017359 -0.020726 -0.17418 -0.023478 -0.076275 0.031256 0.359205 -0.139498 -0.078902 -0.118376 0.065748 -0.022493 -0.081184
-0.113592 0.021734 -0.107796 -0.055351 -0.254265 0.192693 -0.030184 -0.204755 -0.032514 0.111876 -0.069056 0.148943 0.022106 0.088739 -0.244831 0.054588 0.057001 -0.117027 -0.09707 -0.196372 0.046108 0.042787 0.105808 -0.087283 -0.181546 0.031456 -0.306925 -0.052706 0.028012 -0.156616 0.123923 -0.102664 -0.039407 -0.158384 0.032382 0.027736 -0.137251 -0.065033 -0.151039 -0.159096 -0.019389 0.092833 0.082254 0.212047 0.073603 0.018875 -0.01008 -0.040293 0.133672 0.113824 -0.128214 0.137444 0.021716 0.077402 0.033978 -0.009936 0.113947 0.065402 -0.020108 0.037263 0.100731 0.145186 0.110231 -0.145082 -0.027738 -0.002764 0.073832 0.061556 0.159483 0.005298 -0.093692 0.075918 0.096387 0.016326 0.17705 -0.051498 -0.021815 -0.081634 0.07395 0.065289 0.015232 0.069114 0.302198 -0.206156 -0.038991 0.009985 0.007459 -0.126381 0.025956 0.155047 0.010664 -0.107695 -0.057463 -0.109059 0.189162 -0.332972 0.179268 -0.195442 -0.156902 0.018572
-0.046589 0.212856 -0.084046 -0.083049 0.182973 0.098686 0.024807 -0.09791 0.146903 -0.030586 0.057587 0.155748 0.024233 -0.195365 0.099553 0.050277 -0.370305 0.204735 0.100148 -0.21515 -0.18701 -0.143741 0.13152 0.136527 0.084457 -0.005023 0.085882 -0.005495 -0.094035 -0.085943 0.109817 0.126276 -0.23687 0.105273 -0.128389 0.249257 0.15225 -0.032953 0.058142 -0.172954 -0.148832 0.032831 -0.025804 0.167196 -0.04795 -0.0565 -0.063998 0.137943 -0.050229 0.030336 0.27647 0.015177 -0.040493 0.106248 -0.246136 0.005046 -0.038554 -0.145748 0.019574 -0.021479 -0.044741 0.036379 -0.030011 0.172886 -0.04547 0.072459 -0.120599 0.019363 0.191993 0.124608 0.141546 -0.048386 0.2146 -0.058173 0.127338 0.178351 -0.002075 0.068614 -0.185503 -0.119878 0.053248 0.040159 0.20206 -0.052545 -0.189927 0.012101 0.213512 -0.019141 -0.110363 -0.256602 -0.064832 -0.076818 0.035399 0.102838 -0.169202 -0.302285 -0.188222 0.161803 0.188584 0.01812
-0.053833 0.079877 0.072856 0.139498 -0.105369 0.004769 -0.27073 -0.096518 -0.168103 -0.103006 0.202092 0.363744 -0.141267 -0.129923 0.01534 0.19683 -0.187167 0.111945 0.109179 -0.016332 0.035184 0.139347 0.315416 0.181261 -0.257633 -0.053217 -0.053058 -0.098832 0.23437 -0.331022 -0.084191 -0.075678 -0.001831 -0.110346 -0.013756 -0.266761 0.034555 -0.008762 -0.150297 0.165393 -0.060494 -0.197826 0.147763 -0.035721 0.031472 -0.210231 -0.085577 -0.109783 -0.244063 0.165008 0.054471 -0.00802 0.010601 -0.037268 0.221023 -0.133451 0.002637 -0.019477 0.129964 0.041991 -0.012534 -0.093924 -0.069187 -0.137315 -0.125857 -0.019287 -0.075852 -0.025292 0.08558 -0.045041 0.044839 -0.045932 0.096927 -0.044108 0.128249 -0.290646 -0.150284 -0.045275 0.037713 0.15651 0.143393 -0.066424 0.296246 -0.291488 0.055917 0.059085 0.065453 0.001004 0.226514 0.017525 -0.201115 -0.040421 -0.006957 -0.001567 -0.074785 -0.124046 0.079696 -0.095859 -0.218243 -0.010996
0.047836 -0.260219 0.14638 0.007779 -0.104955 -0.050724 -0.319432 -0.027407 -0.104778 0.124311 0.14477 0.148278 -0.013076 -0.069917 0.254554 0.25292 0.091697 0.206138 0.168034 0.12307 -0.258927 -0.00695 0.102032 0.075771 -0.201948 -0.129118 -0.138297 -0.097396 0.264104 -0.141635 -0.00303 -0.004618 -0.171331 0.006413 -0.129962 -0.058793 -0.107657 -0.040955 0.117533 0.181708 -0.064138 0.225566 -0.062915 -0.035464 0.269723 -0.089994 -0.005719 -0.078063 -0.215832 0.079343 0.266575 -0.25419 -0.128297 0.038341 0.119308 -0.207662 -0.029523 0.019236 0.024436 -0.109361 0.007955 -0.078744 0.071111 -0.325345 -0.091151 0.006054 0.103893 0.156867 0.20827 -0.195221 -0.011492 -0.084134 -0.077224 -0.110934 0.098004 -0.068865 -0.108344 -0.153112 -0.094614 -0.187216 -0.01459 0.218526 0.241999 -0.141711 0.084584 0.252269 0.155438 -0.088298 0.260633 0.198838 -0.176457 -0.052125 -0.045839 0.131111 -0.115358 -0.197565 0.088973 -0.089591 0.060949 -0.086675
1.560996 0.842868 -0.966121 0.794535 0.732082 2.167424 0.982662 0.057444 0.504819 0.07841 0.055279 1.416647 -0.670558 0.122239 -1.875473 -0.339444 -1.661959 -1.985793 -0.005729 -2.592115 -2.183448 0.044516 0.671895 -0.589479 0.827514 1.432932 1.133599 0.800224 0.356391 -1.617423 1.243533 -0.771712 1.46062 -1.283942 -0.283672 -0.793244 2.250382 0.636489 -0.035825 -2.112469 -0.960024 -2.532577 1.013875 -0.496549 -0.535743 1.359858 0.125133 -0.377994 0.914883 0.328853 0.713591 1.260942 -0.948324 1.504832 -1.93683 0.311228 0.965607 -1.013595 0.329382 -0.198887 0.96078 -0.013681 0.350227 0.828392 -1.894402 -0.039104 0.283785 -0.554694 -1.197001 0.540337 2.851685 1.269162 -1.080219 0.093043 0.787903 -0.091276 2.31099 1.354835 -1.181959 0.872145 0.826596 0.712391 -0.103207 1.442596 -0.009761 -0.491948 1.238818 0.369032 -0.415171 1.980595 2.066964 0.180408 -0.553874 -1.180511 -2.075199 0.329212 -1.398948 0.834816 -1.169907 1.291362
0.0 0.0 0.0 0.0 0.0 0.0 0.0 0.0 0.0 0.0 0.0 0.0 0.0 0.0 0.0 0.0 0.0 0.0 0.0 0.0 0.0 0.0 0.0 0.0 0.0 0.0 0.0 0.0 0.0 0.0 0.0 0.0 0.0 0.0 0.0 0.0 0.0 0.0 0.0 0.0 0.0 0.0 0.0 0.0 0.0 0.0 0.0 0.0 0.0 0.0 0.0 0.0 0.0 0.0 0.0 0.0 0.0 0.0 0.0 0.0 0.0 0.0 0.0 0.0 0.0 0.0 0.0 0.0 0.0 0.0 0.0 0.0 0.0 0.0 0.0 0.0 0.0 0.0 0.0 0.0 0.0 0.0 0.0 0.0 0.0 0.0 0.0 0.0 0.0 0.0 0.0 0.0 0.0 0.0 0.0 0.0 0.0 0.0 0.0 0.0
1.243502 1.134391 0.590862 1.996977 -0.962336 -0.661334 -0.266456 -0.127768 -2.444398 -0.206732 0.159857 0.567773 1.173683 2.792565 1.528644 0.200187 -1.456383 -0.054034 -3.834816 -0.264404 -0.383984 2.292137 -0.696916 3.749931 1.830361 1.59989 0.30863 -1.254181 -3.259688 0.94782 4.632703 -3.694376 -1.030734 -2.774173 -2.810608 -1.229032 -0.416032 -1.761895 -5.715088 -0.637618 -0.374351 -3.341895 2.349411 -1.224849 -1.040741 0.561559 -2.067217 -0.851357 0.11916 -0.328686 1.783671 0.306888 -1.463329 -1.416554 -2.271013 0.339539 -1.105978 -3.114801 -1.215474 -0.616442 -2.96255 -2.333351 0.596112 0.579091 1.016681 -1.657275 0.333222 -3.11828 0.449948 2.317412 3.116959 -4.062879 -0.695936 2.18573 1.152799 -0.142887 -0.55314 0.003107 -1.005673 1.720349 1.582172 0.572102 -1.442146 -0.198333 0.721274 -1.548869 0.557982 1.526505 0.840405 2.554603 0.385489 1.23189 -2.861935 -0.445422 2.396136 -1.341517 -0.027667 2.335921 -1.30239 0.433287
-0.033059 -0.003841 0.030108 0.163011 0.105352 0.147194 -0.036178 -0.068444 0.038477 0.06238 0.121326 0.096957 -0.03952 0.059737 0.108019 0.088335 -0.065316 -0.055853 0.004409 0.284164 -0.120727 0.012958 0.211637 -0.05379 -0.076821 0.048247 -0.036615 0.131151 0.105124 -0.132452 -0.004586 0.047553 0.018431 0.082375 -0.037184 -0.057503 -0.05921 0.098712 0.126763 0.00903 -0.082714 -0.216583 0.133272 -0.007393 0.089772 -0.115459 0.110736 -0.118571 0.00702 0.039542 0.055305 -0.1787 -0.106418 -0.041918 -0.069195 0.051072 -0.156254 0.108775 0.05522 -0.136086 -0.016338 0.004462 -0.009961 -0.119515 0.133079 0.064662 -0.03509 -0.099412 0.227227 0.051663 0.156802 -0.189851 -0.023435 0.082887 0.088759 0.099828 -0.107043 0.02213 -0.023956 -0.070325 -0.032073 0.11249 0.114516 -0.11666 -0.042468 0.059348 -0.026855 0.038676 0.052443 0.077647 0.162325 -0.039425 -5.71E-4 0.002889 -0.038787 -0.036086 -0.056988 0.015773 -0.025481 0.004083
0.100692 -0.157131 0.139302 0.123578 0.151543 0.178422 -0.012679 -0.103362 0.233611 0.029945 -0.033496 -0.02353 -0.150988 -0.078962 0.230475 0.006161 -0.201667 0.084881 -0.295978 -0.216595 -0.152078 -0.096403 -0.182565 -0.034674 -0.008271 0.123985 -0.225344 0.060741 0.064737 -0.027452 -0.020276 -0.040379 -0.062847 -0.021902 -0.155636 0.098869 0.118253 -0.054786 -0.035252 0.089718 -0.093516 0.108242 -0.165133 -0.010665 -0.002421 -0.171869 -0.111112 -0.041381 -0.044332 -0.069941 -0.02046 0.052983 -0.30701 0.053758 -0.133805 0.122561 8.2E-4 0.037855 -0.034898 0.091687 -0.127096 0.09488 -0.140734 -0.009746 -0.040595 0.12427 0.130515 0.010606 0.177229 0.063676 0.149195 0.026542 -0.108012 0.401386 -0.015993 -0.159563 0.171247 0.017552 -0.091249 -0.185777 0.041517 -0.021989 -0.300138 0.0411 -0.232056 0.111526 -0.051533 0.011578 0.198834 -0.128702 0.184857 -0.029913 -0.123641 -0.092647 0.286203 -0.109599 0.093666 0.015337 -0.091583 0.060957
-0.26639 -0.104912 0.180519 0.043667 0.041207 -0.008381 0.035828 -0.02579 0.038929 0.035407 -0.045987 0.093855 0.05433 0.066768 0.181295 0.016569 -0.262033 0.088718 -0.019571 0.052693 0.009422 0.007749 -0.062198 0.035078 -0.170783 -0.109887 -0.051371 0.088142 0.135591 -0.010743 0.025514 -0.009047 -0.121579 0.186548 0.022521 0.036774 0.17183 0.066132 0.09254 0.082441 -0.088491 -0.081832 0.017962 -0.036285 -0.059927 0.038842 -0.0052 0.081773 -0.050056 0.091032 0.203915 -0.091347 -0.101425 -0.177557 -0.044136 0.113395 0.140815 -0.005832 0.068476 -0.192456 0.057304 -0.102904 -0.094204 -0.199142 -0.166277 -0.01435 2.05E-4 0.073523 0.121399 0.031439 0.010424 -0.100921 0.049779 0.0731 0.03039 -0.023583 -0.137003 -0.08019 -0.121996 -0.288955 -0.041308 0.110603 0.155086 -0.11951 -0.218402 -0.075287 0.015009 -0.113641 0.196042 0.012681 -0.131442 0.013214 0.01092 0.144369 0.024212 -0.179417 -0.032645 -0.112605 0.114788 0.0294
