-0.042901 -0.005304 0.041755 0.003897 -0.134838 0.003227 -0.091136 0.047568 -0.077059 0.083897 0.02966 0.237501 0.098179 -0.111482 0.183506 0.087405 0.055204 0.090592 0.059999 0.100872 0.027446 0.118679 0.190265 0.098895 -0.173392 -0.128393 -0.133776 -0.066447 -0.111057 0.11008 -0.071122 0.022379 0.004191 0.040446 -0.132872 -0.204562 -0.016386 -0.020415 -0.097751 -0.118341 0.032179 -0.091011 0.124013 -0.059397 0.140481 -0.0746 -0.036663 0.064669 0.041772 -0.067914 0.067326 -0.032289 0.056221 -0.070365 -0.064095 -0.238566 0.072685 0.144329 0.051534 -0.078429 0.052147 0.034592 0.061356 -0.074571 0.002518 -0.003159 0.152812 -0.114289 0.090384 0.090689 0.025161 -0.127236 0.260611 0.136232 -0.00315 -0.020657 0.077489 -0.064292 -0.032831 -0.017186 -0.00701 0.121332 0.09737 -0.184836 -0.051002 0.105534 -0.006475 -0.049055 0.070192 -0.029413 0.015612 -0.133637 -0.104065 0.078434 0.003516 -0.018984 -0.25191 -0.10351 -0.111129 -0.00193
-0.007826 0.018777 0.08636 0.186447 0.107979 -0.00815 0.080352 0.1767 -0.038316 0.124456 0.002908 0.073264 0.197228 -0.111038 0.02343 -0.031871 0.106394 0.186544 0.202326 0.186491 -0.075624 0.196971 0.279306 0.136999 -0.030662 -0.339777 0.155407 0.020756 0.053512 0.006461 -0.054168 0.065825 -0.074855 0.204278 -0.194641 -0.27512 0.002619 -0.033009 0.231609 -0.204958 0.033174 0.039118 -0.003998 0.015427 0.15663 -0.058871 -0.1154 0.023608 -0.150317 -0.239554 0.06642 -0.19571 -0.101709 8.6E-4 0.004849 -0.191432 -0.04407 -0.040266 0.124501 0.052178 0.138761 -0.01761 -0.112193 -0.123212 -0.062369 0.106717 0.053339 0.111797 0.155838 -0.150812 -0.183521 0.047699 -0.151615 -0.137403 -0.004305 -0.114104 -0.240036 -0.011894 -0.013635 -0.122122 -0.089257 0.252698 0.113642 -0.153833 0.070426 0.152308 0.132024 -0.154574 0.161886 0.062396 -0.074886 -0.074825 -0.039742 -0.030485 -0.107707 -0.131207 -0.006451 0.058377 -0.036591 -0.114862
-0.087255 -0.05591 0.054305 -0.024922 0.12279 0.041971 0.011628 -0.098172 0.13061 0.088978 0.139548 0.154385 0.10967 -0.074364 0.077608 0.342633 -0.019875 0.008986 0.121981 0.055307 -0.003396 0.250389 -0.003606 -0.027202 -0.077535 -1.16E-4 -0.00206 0.156913 0.196292 -0.041947 -0.256602 -0.075561 -0.331833 -0.028169 -0.227118 -0.023069 -0.031505 -0.123196 0.067817 0.109003 -0.150311 -0.176863 -0.003222 0.297853 0.06886 0.054723 0.197442 -0.009663 0.124548 -0.115984 -0.107457 -0.134223 -0.057877 0.014351 -0.020055 -0.038021 0.086742 0.251573 0.36257 0.003758 0.053095 -0.086013 -0.02227 -0.136233 -0.017961 0.053643 0.053971 -0.264445 0.141244 -0.001727 0.102822 -0.045402 0.072919 -0.05572 -0.011331 -0.015733 -0.123198 -0.088768 0.042072 -0.014455 -0.084923 -0.030051 0.101633 -0.145179 0.084003 0.006179 0.137993 -0.044962 0.159725 0.029218 -0.030525 -0.103093 -0.1477 -0.002794 0.039423 -0.078334 0.05768 0.210979 -0.090714 -0.257268
0.029311 -0.00394 0.144591 0.005349 -0.224872 -0.14955 -0.330434 -0.13472 -0.234834 0.123263 0.161535 0.083347 0.113596 -0.025119 -0.039363 0.237404 0.02545 0.238108 0.19576 -0.053798 -0.023347 -0.268285 0.275654 0.156607 -0.094224 0.101317 -0.053377 -0.271919 -0.014906 -0.214083 0.083123 -0.139274 -0.178363 0.25395 0.103669 -0.070443 0.112469 -0.082278 0.001379 0.146319 -0.150933 0.113648 -0.03025 -0.077003 0.193874 -0.160045 0.001308 -0.291884 -0.043525 0.083474 0.176586 0.006538 -0.122754 0.083964 0.246809 0.146183 0.145932 0.184616 -0.127022 -0.183764 0.044634 -0.028374 0.026217 -0.140107 -0.250464 -0.062883 0.177839 0.01395 0.106302 -0.25498 -0.097386 -0.048577 0.021871 -0.049886 0.13255 -0.040562 -0.126186 0.036832 -0.066077 -0.110903 0.037933 0.286047 -0.113528 -0.040929 -0.086173 -0.078301 0.001312 -0.146959 0.076818 -0.004594 -0.108198 -0.170872 -0.053995 0.057122 0.157757 0.085169 0.007176 -0.052063 -0.081327 -0.250041
0.094813 0.117309 -0.001274 0.152066 -0.064586 -0.141143 -0.023825 0.02196 0.020262 -0.061845 -0.268483 0.077498 -0.008761 -0.09925 -0.096639 0.135279 -0.048213 0.033862 0.085887 0.109258 0.142124 -0.249674 -0.043441 -0.075167 -0.023964 0.143121 -0.041322 0.0441 0.167735 -0.156285 0.106829 0.180057 0.130779 -0.042515 -0.165895 0.058004 -0.066892 -0.087366 0.020009 -0.081486 -0.031855 0.097811 -0.017519 0.076865 0.111324 -0.089961 -0.150683 0.061799 0.078692 0.099306 0.098633 0.124768 -0.024231 0.032065 -0.052224 -0.222714 0.068721 0.137627 -0.222517 -0.092256 -0.033699 -0.205046 0.115193 -0.30744 0.051257 0.116453 0.045021 -0.105204 -0.010987 0.048304 0.049788 -0.047717 -0.221061 -0.021706 -0.009274 0.085995 0.025494 0.147942 -0.294596 -0.020253 -0.034498 0.070121 0.049284 -0.009881 0.02326 -0.072956 0.134654 -0.079613 -0.073377 0.042196 -0.017164 -0.072544 -0.014649 -0.066976 -0.026034 -0.058362 0.194931 0.16323 0.029312 -0.025253
0.123008 0.169377 -0.103694 0.215029 0.072872 0.001503 -0.053969 -0.160275 -0.044137 -0.216107 -0.110988 -0.048339 0.270895 0.153994 -0.088199 0.258615 -0.009259 -0.155013 0.019329 0.138878 -0.053906 0.06005 0.084345 0.197408 0.030362 0.145783 0.080306 0.179734 0.121882 0.119651 -0.086008 -0.027702 -0.090153 0.024635 -0.152199 0.121429 0.0472 0.070046 0.040754 -0.220477 -0.064183 0.07806 0.171198 -0.018527 0.040604 0.077667 -0.064233 -0.028377 -0.308459 0.005224 0.11109 -6.43E-4 -0.170879 0.026468 -0.109747 0.022558 -0.097542 -0.13828 -0.023484 0.104018 -0.040685 -0.159069 0.068574 -0.057325 0.034855 -0.140395 -0.135525 -0.04221 0.038382 0.012881 0.111301 -0.076008 -0.148059 -0.150636 0.043459 0.213834 -0.074915 0.102067 -0.105411 0.052511 -0.029027 0.259327 -0.151653 -0.186508 0.060893 -0.130884 -0.00754 0.203109 -0.115485 -0.038057 -0.082361 0.080875 -0.162533 0.098846 0.129129 -0.143438 -0.102503 -0.057266 0.095322 -0.074268
0.091672 0.075639 0.119181 -0.211395 0.199684 -0.022588 0.153795 -0.07079 -0.031442 -0.0312 0.018324 -0.015799 -0.066469 -0.094509 0.05229 -0.122138 -0.036531 -0.139652 0.070586 -0.111684 -0.019889 -0.068858 -0.163669 -0.087149 0.166976 -0.111961 -0.257902 0.040599 6.15E-4 0.036585 -0.118479 -0.116388 -0.003051 -8.92E-4 0.133326 0.00283 0.119995 -0.004492 0.120043 0.125634 0.094952 0.007577 0.092645 0.061393 -0.166231 0.139536 -0.04727 -0.038917 0.008833 0.004687 -0.049505 -0.058089 -0.12376 -0.004369 -0.139639 6.5E-4 0.038093 0.025959 -0.019211 0.017039 -0.148683 -0.057447 0.085465 0.051554 0.079783 0.166892 0.094453 -0.007781 -0.041022 -0.010264 -0.207578 0.01258 -0.046134 -0.055454 -0.018578 0.014716 0.045841 0.021157 0.014964 0.01778 -0.045395 0.05012 -0.068126 0.020794 0.075137 -0.139634 -0.064804 0.001908 -0.088039 -0.010205 0.185 -0.018831 0.164765 -0.235015 -0.032909 0.035354 -0.025189 0.0475 -0.019968 -0.057239
-0.087255 -0.05591 0.054305 -0.024922 0.12279 0.041971 0.011628 -0.098172 0.13061 0.088978 0.139548 0.154385 0.10967 -0.074364 0.077608 0.342633 -0.019875 0.008986 0.121981 0.055307 -0.003396 0.250389 -0.003606 -0.027202 -0.077535 -1.16E-4 -0.00206 0.156913 0.196292 -0.041947 -0.256602 -0.075561 -0.331833 -0.028169 -0.227118 -0.023069 -0.031505 -0.123196 0.067817 0.109003 -0.150311 -0.176863 -0.003222 0.297853 0.06886 0.054723 0.197442 -0.009663 0.124548 -0.115984 -0.107457 -0.134223 -0.057877 0.014351 -0.020055 -0.038021 0.086742 0.251573 0.36257 0.003758 0.053095 -0.086013 -0.02227 -0.136233 -0.017961 0.053643 0.053971 -0.264445 0.141244 -0.001727 0.102822 -0.045402 0.072919 -0.05572 -0.011331 -0.015733 -0.123198 -0.088768 0.042072 -0.014455 -0.084923 -0.030051 0.101633 -0.145179 0.084003 0.006179 0.137993 -0.044962 0.159725 0.029218 -0.030525 -0.103093 -0.1477 -0.002794 0.039423 -0.078334 0.05768 0.210979 -0.090714 -0.257268
2.591633 1.608701 -2.087245 2.00752 3.012652 4.995656 0.847355 -1.594905 -0.365708 -1.629805 -1.650237 3.712017 -0.231463 -0.537534 -2.036098 2.002639 -0.696666 -4.310136 -1.477319 -1.356504 -0.581823 -1.830239 -0.272773 -1.648095 0.090509 0.008711 0.330842 0.396714 2.341035 -0.526067 1.155793 -1.730906 -1.010387 -1.342646 -1.939355 0.734869 0.727366 0.700702 1.516974 -2.133831 -0.280653 -3.051674 0.017123 0.532043 1.478449 0.375441 0.920129 1.548929 1.087478 0.668327 0.707416 3.249232 -0.362503 1.273221 -2.929682 -0.245389 1.633444 -0.119836 0.103459 -3.445175 0.513245 0.427807 0.738792 1.448203 0.501908 0.362882 -0.731533 -0.391201 0.037778 3.053553 4.030229 1.793904 1.24136 0.081706 -1.401954 -0.638804 -0.487445 -0.267924 0.012844 0.538179 -0.241935 -0.068756 1.351665 -0.112558 0.001814 0.447262 0.833441 -0.023876 1.212707 1.514635 -0.568611 0.376173 -3.663739 -4.345135 -0.444319 2.139788 -2.53093 0.92131 -1.399435 1.763954
0.047932 -0.190813 0.06833 0.128804 0.145515 0.057816 0.021842 0.007906 0.060986 0.129232 0.216069 0.076667 0.071868 0.036271 -0.055828 -0.014789 0.138235 0.048174 0.055982 -0.026023 -0.038235 0.367365 0.155346 0.017366 -0.209618 0.140989 -0.021274 0.058164 -0.002232 0.012858 0.086936 -0.028284 -0.059348 0.106907 -0.173156 -0.061133 -0.016381 0.009237 -0.097548 -0.04766 -0.006476 0.042408 0.067184 -0.196095 -0.09539 -0.067961 -0.116101 0.127272 -0.100033 0.053922 0.16661 -0.059991 -0.044874 0.020384 -0.039578 -0.165925 -0.142193 0.009137 -0.118204 0.036282 -0.049239 0.042212 0.077793 -0.02959 -0.005675 0.046236 0.096409 0.108586 0.016702 -0.160992 -0.005082 -0.089859 0.011272 0.03352 -0.086922 0.057004 -0.134615 -0.025304 0.116946 0.062388 0.04579 0.185194 0.052642 -0.04505 -0.094408 0.044299 0.162949 0.253197 0.006095 0.17538 -0.276199 -0.040922 0.132221 -0.026628 -0.052802 0.072134 -0.089862 0.200979 -0.048778 -0.041062
-0.101668 -0.120271 0.151939 -0.109528 -0.182703 -0.069321 -0.046786 -0.038199 -0.098141 0.162163 0.088738 0.05861 0.111062 -0.11955 -0.101244 0.062228 0.078125 0.094577 0.044225 0.127683 -0.160441 -0.079559 0.027514 -0.029002 0.063847 -0.09555 -0.200959 0.042329 -0.021738 0.091049 -0.069167 -0.025404 -0.126238 0.069435 -0.096628 -0.012356 -0.024815 -0.07149 0.188776 0.059828 -0.054348 -0.074429 -0.19247 0.122484 0.003695 0.021129 0.098583 0.05681 -0.257823 0.082938 0.021307 0.022534 0.004633 -0.023027 -0.022009 0.02866 0.051104 -0.004359 0.20783 -0.002184 -0.051924 -0.068488 -0.058389 -0.101732 0.099298 0.011029 0.088963 -0.123508 0.037035 0.010401 -0.008769 -0.048126 0.028245 0.06828 -0.026831 -0.100449 -0.042298 -0.01313 -0.140773 0.012738 -0.022982 0.194944 -0.01358 -0.087388 -0.016912 0.038882 -0.087908 -0.129872 0.163282 0.022162 0.043544 0.063325 0.130336 0.065873 -0.069826 0.039946 -0.03088 -0.156838 0.00959 0.040352
-0.02951 -0.10093 -0.123216 -0.302362 -0.196236 0.042165 0.023508 -0.062289 -0.026636 0.183156 -0.044319 0.004399 0.064647 0.022353 -0.003475 0.050996 0.2705 0.205611 0.095731 -0.37856 -0.179047 0.182624 0.442037 -0.243417 -0.054766 -0.045367 -0.140801 0.204169 0.001776 -0.076517 0.062785 -0.407356 -0.039894 0.150269 -0.20229 -0.012589 0.108882 0.149502 -0.252643 0.266153 -0.143237 -0.020207 -0.108961 -0.148081 0.129883 0.029499 -0.014086 0.030034 -0.085399 0.052508 -0.122438 -0.025368 0.22147 0.092128 0.04232 0.079684 0.044989 0.070017 -0.020584 0.021227 -0.063883 2.3E-5 -0.260353 -0.227989 0.107689 -0.037163 -0.084378 0.08145 -0.077468 -0.122167 0.02928 0.214847 -0.033681 -0.028073 -0.012968 -0.073196 0.005089 0.004007 -0.048568 0.022159 -0.262071 -0.146007 0.031569 0.022726 0.113089 -0.349088 -0.021024 0.071374 0.094832 0.31796 -0.01226 -0.048493 0.019739 0.156768 -0.022196 -0.149034 0.152394 -0.136985 -0.191006 -0.039245
-0.146923 -0.086523 0.139554 -0.058793 -0.103729 -7.28E-4 -0.151138 -0.076536 -0.163527 0.04151 0.23966 0.144026 -0.005553 -0.027765 -0.113888 0.275682 0.031279 0.109198 0.156789 0.11658 0.015275 0.017859 0.30769 -0.06015 -0.003041 -0.115346 -0.127339 0.005773 0.220715 -0.139835 -0.139246 -0.060474 -0.065954 0.111245 -0.270323 -0.287499 0.122545 -0.057344 0.146182 -0.057474 -0.12236 0.002375 0.219496 0.090032 -0.021887 -0.175626 0.088167 -0.060378 -0.179956 0.144222 -0.024862 -0.01432 -0.121088 0.077654 0.09061 -0.175828 -0.158827 -0.113938 0.09303 -0.052254 0.04433 -0.172639 -0.248066 -0.198796 -0.091118 0.087582 -0.136861 -0.098317 0.167704 -0.088245 -0.05382 0.110025 -0.041731 0.112631 -0.066874 0.050673 -0.093651 -0.006012 -0.116647 -0.081235 0.110243 0.146173 -0.017939 -0.148981 -0.099161 -0.051983 0.071162 0.081146 0.149833 0.029866 -0.064162 0.027819 -0.119135 0.043803 0.114292 -0.14212 0.075904 0.119571 0.02832 -0.136258
-0.007826 0.018777 0.08636 0.186447 0.107979 -0.00815 0.080352 0.1767 -0.038316 0.124456 0.002908 0.073264 0.197228 -0.111038 0.02343 -0.031871 0.106394 0.186544 0.202326 0.186491 -0.075624 0.196971 0.279306 0.136999 -0.030662 -0.339777 0.155407 0.020756 0.053512 0.006461 -0.054168 0.065825 -0.074855 0.204278 -0.194641 -0.27512 0.002619 -0.033009 0.231609 -0.204958 0.033174 0.039118 -0.003998 0.015427 0.15663 -0.058871 -0.1154 0.023608 -0.150317 -0.239554 0.06642 -0.19571 -0.101709 8.6E-4 0.004849 -0.191432 -0.04407 -0.040266 0.124501 0.052178 0.138761 -0.01761 -0.112193 -0.123212 -0.062369 0.106717 0.053339 0.111797 0.155838 -0.150812 -0.183521 0.047699 -0.151615 -0.137403 -0.004305 -0.114104 -0.240036 -0.011894 -0.013635 -0.122122 -0.089257 0.252698 0.113642 -0.153833 0.070426 0.152308 0.132024 -0.154574 0.161886 0.062396 -0.074886 -0.074825 -0.039742 -0.030485 -0.107707 -0.131207 -0.006451 0.058377 -0.036591 -0.114862
-0.198993 -0.038833 0.084464 0.035459 0.072309 0.179254 -0.023182 -0.038349 -0.00192 -0.043359 0.05716 0.033052 -0.044886 -0.05034 0.040471 -0.007395 0.101527 0.026356 0.046298 0.183448 -0.070901 0.14118 0.138608 -0.056514 -0.119897 -0.030357 0.058616 -0.010924 0.056879 0.01442 0.034758 -0.143262 0.018721 -0.110238 -0.010141 -0.047775 -0.064593 -0.028203 0.238922 0.133151 0.055244 -0.013355 -0.069299 0.025915 -0.048973 -0.184971 0.168239 -0.017302 -0.134047 -0.04956 0.139145 -0.067974 -0.214556 -0.043842 -0.13873 0.060507 -0.0822 0.04571 0.202554 0.088807 -0.053065 0.134074 -0.084771 -0.082177 -0.200724 -0.154299 0.049874 -0.050157 -0.031405 -0.173391 -0.097618 -0.005724 -0.050184 0.122742 0.03889 -0.18666 -0.097963 -0.090014 -0.132312 -0.009465 -0.06537 0.043545 -0.006869 0.038956 0.222033 -0.069937 -0.022133 -0.035512 0.062168 0.002819 0.025548 0.057064 0.029098 -0.125841 0.003589 -0.112843 0.206959 -0.089189 -0.091126 -0.087675
-0.085494 -0.149316 0.183549 0.167682 0.055287 0.09294 0.029028 0.07634 -0.122433 -0.073176 0.107685 -0.009193 0.165838 -0.001106 0.001629 0.069658 0.093446 0.224895 0.036948 -0.132478 -0.252074 0.018657 0.345716 0.395379 -0.02237 -0.19747 -0.186649 -0.056215 0.312126 -0.120157 -0.16578 -0.073164 -0.082997 0.139289 -0.117811 0.010686 -0.018348 -0.116511 -0.079776 -0.254973 0.098406 0.322906 -0.072794 -0.05135 0.035556 0.13813 0.042459 0.075526 -0.299295 -1.97E-4 -0.134619 -0.079612 0.311913 -0.022074 0.247371 0.161953 0.061073 -0.250592 0.223209 -0.031304 0.004015 -0.189731 -0.018753 0.043932 -0.142347 0.020538 -0.0122 0.056568 0.120927 -0.255561 -0.048352 -0.073473 0.184326 0.060367 -0.110818 -0.146405 0.058358 -0.085777 0.003834 0.036698 -0.177666 -0.040515 9.46E-4 -0.114281 0.140738 -0.094118 -0.050403 -0.044612 0.438074 0.061267 -0.090135 -0.297988 0.208974 0.199893 -0.186718 0.005724 -0.048983 0.074326 -0.033767 -0.253751
-0.007826 0.018777 0.08636 0.186447 0.107979 -0.00815 0.080352 0.1767 -0.038316 0.124456 0.002908 0.073264 0.197228 -0.111038 0.02343 -0.031871 0.106394 0.186544 0.202326 0.186491 -0.075624 0.196971 0.279306 0.136999 -0.030662 -0.339777 0.155407 0.020756 0.053512 0.006461 -0.054168 0.065825 -0.074855 0.204278 -0.194641 -0.27512 0.002619 -0.033009 0.231609 -0.204958 0.033174 0.039118 -0.003998 0.015427 0.15663 -0.058871 -0.1154 0.023608 -0.150317 -0.239554 0.06642 -0.19571 -0.101709 8.6E-4 0.004849 -0.191432 -0.04407 -0.040266 0.124501 0.052178 0.138761 -0.01761 -0.112193 -0.123212 -0.062369 0.106717 0.053339 0.111797 0.155838 -0.150812 -0.183521 0.047699 -0.151615 -0.137403 -0.004305 -0.114104 -0.240036 -0.011894 -0.013635 -0.122122 -0.089257 0.252698 0.113642 -0.153833 0.070426 0.152308 0.132024 -0.154574 0.161886 0.062396 -0.074886 -0.074825 -0.039742 -0.030485 -0.107707 -0.131207 -0.006451 0.058377 -0.036591 -0.114862
0.01891 -0.060665 0.135969 0.183092 -0.055761 -0.076547 -0.222809 0.044102 -0.010539 0.189162 0.021543 0.105088 0.052464 0.106578 0.014072 -0.030556 0.001304 -0.009971 0.084897 -0.006616 -0.008994 -0.08879 -0.020135 0.107845 -0.014012 -0.087822 -0.084146 -0.025894 0.128106 -0.065299 -0.076678 -0.030183 -0.039492 -0.038769 0.035698 0.004731 0.135535 0.081022 -0.085718 -0.085159 0.051488 0.035486 -0.017824 0.205306 -0.150968 -0.046718 -0.089217 0.102943 0.009137 0.007239 0.210947 -0.084459 0.16431 0.077647 0.21221 -0.051225 0.111011 -0.059967 0.130746 0.149758 0.098683 -0.020428 0.132569 -0.058797 0.016501 -0.054702 0.116284 -0.152144 0.027769 -0.108143 0.051962 0.07111 0.045641 0.005755 -0.010936 -0.071829 0.061753 -0.077299 -0.123208 0.137011 -0.020861 -0.153239 0.054479 0.014044 0.059868 0.038198 0.029808 0.02053 0.145425 -0.259012 -0.029823 0.014488 0.015157 0.209326 0.003128 -0.199791 0.128203 -0.151176 0.138139 0.097779
0.064972 0.058596 -0.032691 0.053087 0.143901 0.052164 -0.16944 -0.078905 -0.116485 -0.214171 0.102676 0.018962 -0.009815 0.126596 0.133557 0.069466 -0.101903 0.051308 -0.012351 0.082806 -0.089063 0.060786 -0.084283 0.01124 0.040679 -0.030375 -0.049095 0.167968 0.053883 -0.147528 -0.056626 0.131629 0.092661 0.079578 0.018425 -0.012262 0.018527 -0.04337 0.154382 0.163745 -0.063613 -0.204173 -0.056514 -0.006736 0.102625 0.092278 -0.225406 -0.105912 -0.020977 -0.095816 0.107731 -0.066366 0.001544 0.096997 0.100461 -0.011096 -0.076986 0.043567 0.040234 -0.141538 -0.049348 0.136347 0.083989 -0.242881 -0.048612 0.059885 -0.032248 0.091066 -0.085017 -4.73E-4 -0.049963 -0.182822 -0.051532 0.044103 0.002373 -0.055515 -0.104741 0.043451 -0.02596 -0.091984 -0.090351 -0.091648 0.071519 -0.127205 -0.088834 0.174002 -0.076414 0.154685 0.064506 0.042966 0.015218 0.087912 -0.14577 -0.001175 0.011119 0.012726 -0.055176 -0.205005 0.015791 0.145085
-0.26639 -0.104912 0.180519 0.043667 0.041207 -0.008381 0.035828 -0.02579 0.038929 0.035407 -0.045987 0.093855 0.05433 0.066768 0.181295 0.016569 -0.262033 0.088718 -0.019571 0.052693 0.009422 0.007749 -0.062198 0.035078 -0.170783 -0.109887 -0.051371 0.088142 0.135591 -0.010743 0.025514 -0.009047 -0.121579 0.186548 0.022521 0.036774 0.17183 0.066132 0.09254 0.082441 -0.088491 -0.081832 0.017962 -0.036285 -0.059927 0.038842 -0.0052 0.081773 -0.050056 0.091032 0.203915 -0.091347 -0.101425 -0.177557 -0.044136 0.113395 0.140815 -0.005832 0.068476 -0.192456 0.057304 -0.102904 -0.094204 -0.199142 -0.166277 -0.01435 2.05E-4 0.073523 0.121399 0.031439 0.010424 -0.100921 0.049779 0.0731 0.03039 -0.023583 -0.137003 -0.08019 -0.121996 -0.288955 -0.041308 0.110603 0.155086 -0.11951 -0.218402 -0.075287 0.015009 -0.113641 0.196042 0.012681 -0.131442 0.013214 0.01092 0.144369 0.024212 -0.179417 -0.032645 -0.112605 0.114788 0.0294
0.024378 -0.116139 0.180639 0.111395 0.030568 -0.071668 -0.121108 -0.109806 -0.091698 0.013018 0.08259 0.069038 -0.061427 0.004082 0.229398 0.047504 0.066332 -0.026818 0.02069 0.023222 -0.024814 0.084488 0.163639 0.026093 -0.167495 -0.080491 0.015155 0.002639 0.149547 -0.107706 -0.032128 0.017933 0.035418 0.02069 0.071325 -0.134884 -0.023948 0.019409 -0.045767 0.036389 0.01007 -0.18179 0.153652 0.026089 -0.154465 -0.04553 -0.142306 0.003931 -0.113083 0.004437 0.142883 -0.219551 -0.115541 -0.039264 0.151018 0.201031 -0.024747 -0.016886 -0.027411 -0.073582 0.10617 -0.086841 -0.04312 0.003789 -0.024946 0.136003 0.096762 -0.080263 0.012766 -0.01203 0.076892 -0.020938 -0.04654 0.044006 0.078363 -0.05006 -0.068905 -0.123399 -0.034683 -0.051999 0.022561 -0.158305 0.056823 0.044635 0.08235 0.268783 0.147618 -0.026452 0.059026 0.082304 0.068505 -0.104877 -0.124045 0.110571 0.004564 -0.087215 -0.038814 -0.270774 -0.070765 0.099681
-0.023048 -0.075559 0.089013 0.074599 0.036617 -0.016575 -0.065294 0.073527 0.082576 0.073703 0.039779 0.080753 -0.144335 0.123856 0.120562 0.152327 0.192786 0.030123 0.102983 0.155921 0.035867 0.042479 0.16464 0.079699 -0.045218 -0.136347 0.081595 0.01262 0.100263 -0.062362 -0.074288 -0.017229 -0.060259 0.149709 -0.004826 -0.089736 -0.015256 -0.084929 -0.071211 0.020766 0.169976 -0.244806 0.04027 0.030154 0.041216 -0.145158 -0.017418 0.038086 0.136339 -0.041525 0.086332 -0.155148 -0.048086 0.049242 0.175243 0.151774 0.023566 0.00951 -0.113435 -0.144245 -0.005658 -0.15348 -0.119596 0.159963 -0.19456 -0.06463 -0.154455 0.044404 -0.098561 0.239588 -0.020848 -0.086674 0.123123 0.021512 0.006469 -0.003815 -0.086487 -0.192341 0.033447 1.39E-4 0.082603 -0.181809 -3.01E-4 -0.014442 -0.07597 -0.123217 -0.045134 0.093869 0.057797 0.062166 -0.143231 -0.147186 9.38E-4 -0.04615 0.080995 -0.035214 -0.008335 0.107681 -0.140075 0.064027
-0.006449 -0.153499 0.101213 0.025071 -0.025549 8.12E-4 -0.006798 -0.098634 -0.184565 0.05498 -0.124604 0.185318 0.001132 -0.02884 -0.053717 0.378249 -0.083008 0.143533 0.047323 -0.014438 -0.088582 -0.018581 0.085201 0.055559 -0.030266 -0.138266 0.189702 0.077809 0.241186 -0.062909 -0.165132 -0.040297 -0.046576 -0.068152 -0.060899 -0.183167 0.04104 -0.019354 0.175882 -0.161376 -0.147765 0.065251 0.004425 0.080523 0.018966 0.048547 -0.218597 -0.099258 -0.194519 0.016694 0.172033 -0.18357 -0.08039 0.022567 -0.042835 0.163554 -0.053181 -0.103303 0.055871 -0.157093 -0.123526 -0.04249 0.126128 -0.168031 -0.131907 -0.081317 -0.065406 0.166663 0.13953 -0.053365 0.083006 -0.06121 0.05693 -0.051551 0.006058 -0.068001 0.039408 -0.052797 -0.064339 -0.026476 -0.171262 0.033643 0.022305 -0.06295 -0.049789 0.164201 -0.088317 0.0451 0.030315 0.165859 -0.07309 0.015882 -0.06394 0.010069 0.02775 -0.080793 0.064878 0.073738 -0.14166 -0.020233
-0.128721 -0.020717 -0.03651 0.229706 0.051809 0.224327 0.123493 -0.038363 -0.063055 0.133587 0.069802 0.253002 0.135808 0.134685 -0.183566 0.161938 -0.071543 -0.060325 0.096975 0.111357 -0.135095 0.136486 -0.042982 -0.168204 0.178548 -0.135189 -0.098937 0.248464 0.105809 -0.012574 -0.092208 -0.148274 -0.138621 0.130555 -0.211548 -0.067794 0.168902 -0.138029 0.076011 -0.134448 0.043642 0.030261 0.118017 0.020174 0.104538 0.081722 0.022119 0.006976 -0.136463 0.003213 -0.13625 -0.119046 -0.15545 0.038575 0.011051 -0.096325 0.00649 -0.069671 0.152018 -0.110598 -0.075381 -0.047279 -0.020438 -0.09987 -0.090597 -0.122285 -0.03943 -0.115171 0.12068 -0.182765 0.094394 0.016552 -0.029941 -0.070159 -0.060483 0.024403 -0.015144 0.075776 -0.041238 0.116011 -0.063014 0.032542 -0.044304 0.078091 -0.118008 -0.041363 0.110233 -0.021164 0.091178 0.117985 0.072149 -0.036737 -0.172187 -0.081211 -0.091472 -0.030862 0.160934 0.157104 0.099529 0.069457
0.106819 -0.155273 0.100262 -0.203633 -0.113744 0.111418 0.013196 -0.164598 -0.127185 -0.165083 0.089429 0.075216 -0.011487 -0.23205 0.00902 0.111355 0.055741 0.249202 0.068646 -0.188616 -0.022875 -0.045377 0.075285 0.094837 0.09953 0.08352 -0.221726 0.199086 0.073367 -0.079957 -0.048898 0.031393 -0.061042 0.051715 0.06043 -0.0634 -0.172957 -0.081083 0.176533 0.10955 0.064371 0.067772 0.099143 -0.044073 0.116149 -0.196917 -0.069986 0.02172 -0.076782 0.107784 0.067828 -0.091854 -0.184321 -0.05151 -0.09098 -0.21381 -0.083922 0.015174 0.184239 0.036793 0.024972 -0.180812 0.10811 -0.268639 -0.014862 0.177306 0.295233 -0.003502 0.025697 0.009478 -0.113488 -0.037256 -0.071333 -0.03362 -5.3E-4 -0.055012 -0.119723 -0.117096 0.029741 -0.076297 0.066154 0.110038 0.269759 0.077774 0.025025 -0.0144 0.07612 0.018105 0.064228 0.067635 0.176666 0.164935 -0.019551 0.050667 0.264672 0.021985 -0.100457 -0.019675 0.025597 -0.011342
-0.001889 -0.015376 0.011577 -0.079922 0.019615 0.005975 0.018085 -0.133459 0.07886 -0.019014 -0.010821 0.041669 -0.011128 0.097962 -0.060935 0.042309 0.015014 8.49E-4 -0.002449 0.038756 0.0685 -0.030124 0.021652 -0.079703 0.075875 -0.122727 0.144977 0.073106 0.120718 -0.115022 0.047765 0.225363 -0.061747 -0.035103 0.080005 0.064342 -0.011293 0.032618 0.076202 0.118833 0.299047 0.176216 0.148892 -0.105455 -0.022399 0.118571 -0.05437 -0.136016 -0.04767 0.112361 0.012505 0.001737 0.056998 -0.132972 0.205737 0.014869 0.130993 0.242588 0.100312 0.073252 -0.019374 -0.073147 -0.042245 -0.05193 0.119558 0.067972 -0.198268 0.013905 0.103121 -0.09962 -0.010563 -0.219254 -0.117595 0.0375 -0.028297 0.03039 -0.116152 0.021365 0.041774 -0.247365 -0.187561 -0.063496 -0.088808 -0.029223 0.057963 0.069802 -0.07258 -0.052825 0.064478 0.040761 0.149345 0.085248 0.239559 0.137326 -0.140966 0.005439 0.083517 -0.02486 -0.028184 0.111642
0.352905 0.550922 -1.128945 -0.511125 0.774489 1.405335 -0.371647 0.106012 -0.779785 -0.640302 -0.68578 1.570717 -0.712288 -0.706705 -0.789609 -0.045278 -1.599722 -2.840112 -0.089543 -1.158838 -1.862605 -0.62748 -0.063542 -0.468696 0.750564 0.033551 -0.772222 -0.188991 -0.163115 0.455978 0.038455 -0.779588 0.172303 -1.114448 -0.548246 -0.008155 1.66721 -0.744821 -0.15746 -2.668482 -0.304702 -0.905716 0.479063 0.151803 -0.94063 -0.044338 -0.906122 -0.456182 0.281891 0.268287 0.47007 0.628019 0.328428 1.471286 -2.345457 0.072073 -0.345477 -0.998199 -1.496897 -0.053061 0.351206 -0.934426 0.295591 0.07336 0.24092 0.486976 0.390085 -0.621556 0.375246 -0.02625 1.957847 1.014101 0.004675 0.08874 -0.900479 -0.462149 0.922254 1.355385 -1.048724 0.105897 1.254466 0.410718 0.321258 1.066395 -0.171761 -0.128774 0.315556 0.697301 -0.180925 0.555334 1.005586 -0.891677 -1.232923 -1.994189 -0.567812 0.204184 -0.947385 -0.051526 -0.987029 0.725141
-0.066077 -0.04614 0.177105 0.014828 -0.224598 0.156356 -0.004028 -0.007531 -0.089205 0.028751 0.048576 0.148986 -0.014054 -0.167094 0.07888 0.286417 0.168158 0.125907 -0.00256 0.072251 -0.180823 0.195891 0.220981 1.61E-4 0.092377 -0.111037 0.037183 0.159373 0.115474 -0.107876 -0.034336 0.054294 0.073709 0.031907 -0.149478 -0.282266 -0.085972 -0.143729 0.088277 -0.091016 -0.101417 -0.193437 -0.068736 0.048832 0.079692 -0.219752 -0.076563 0.028148 0.112467 0.123575 0.054896 -0.144447 0.020002 -0.092077 -0.046204 -0.202982 -0.016351 -0.014284 -0.025389 -0.226911 -0.043733 -0.101362 0.021068 -0.219044 -0.134985 -0.073455 0.151863 -0.081384 0.059907 -0.118205 0.109246 0.06212 0.15729 0.025655 0.039673 -0.308074 -0.010718 0.0628 -0.013453 0.051374 0.110286 0.021042 0.042938 -0.12111 -0.059889 0.071295 0.013045 -0.111699 0.183925 0.143572 -0.171258 0.036566 -0.11123 0.166856 0.044894 -0.061448 0.014747 -0.005242 0.02121 -0.069617
-0.05814 -0.062277 0.091184 -0.080975 0.144662 0.148161 -0.041767 -0.119678 0.109622 0.071139 -0.199972 0.102128 -0.159858 -0.115942 0.134345 0.00651 -0.11432 0.07425 -0.078253 -0.078827 0.037085 -0.027536 0.186737 -0.139724 0.0829 -0.0475 0.023973 -0.102927 0.176881 -0.157865 0.14822 0.15949 0.10708 0.0089 -0.105193 0.015571 -0.014076 0.019537 -0.037472 0.063981 -0.077142 -0.153103 -0.18119 0.018924 0.206887 -0.021668 -0.185453 0.046066 0.133803 -0.080372 -0.112137 -0.051348 -0.192664 -0.179056 0.042807 0.229413 -0.160986 0.10713 -0.150806 -0.133955 -0.01159 0.01072 0.045888 -0.071638 -0.113676 -0.020209 -0.080992 0.113846 -0.044839 0.220387 0.051287 0.07076 0.082176 0.108409 -0.024652 0.075212 -0.064234 -0.105619 -0.110633 0.001542 0.081624 0.041049 -0.036275 0.062964 -0.04951 -0.130326 0.112317 0.04157 -0.044447 -0.045847 -0.039373 -0.052743 -0.165545 -0.065632 0.253525 -0.234858 0.110225 -0.133297 -0.06964 0.227271
0.013102 -0.269603 -0.086284 0.160456 0.108806 -0.057526 -0.40085 -0.192857 -0.312039 0.379437 0.116254 0.137695 -0.021482 0.087249 0.054428 0.401113 -0.122015 0.27731 0.090246 0.084589 -0.015504 0.002157 0.428404 0.044695 -0.142182 -0.13376 0.054551 0.009639 0.140493 -0.317095 0.100636 -0.053002 -0.243102 0.086627 -0.212866 -0.220794 0.177676 -0.182626 -0.062206 -0.13261 -0.085333 0.065903 0.163019 0.136248 -0.018948 -0.331758 -0.157521 0.071417 -0.325123 0.179207 -0.001855 -0.007705 -0.198831 0.167665 0.256517 -0.233632 0.067742 0.030735 0.147892 -0.259064 0.145307 -0.113404 0.001677 -0.242853 -0.161953 -0.181876 0.061151 0.03489 0.070403 0.061146 -0.145116 0.001026 -0.052993 -0.033434 -0.063975 -0.097015 0.048538 -0.059657 -0.036689 -0.096043 -0.198285 0.11004 -0.067306 0.080848 -0.004692 -0.13644 0.03536 0.05494 0.375153 0.225616 -0.246802 0.09007 -0.298684 0.059617 -0.188669 -0.138556 0.204132 -0.149843 -0.356932 -0.128659
0.09327 -0.024299 -0.170272 0.108681 0.019591 -0.067091 -0.068776 -0.158429 -0.264341 0.289291 0.256774 0.047994 0.049902 -0.012979 -0.348687 0.026755 0.006778 0.065538 -0.016384 0.015925 0.051236 -0.251136 0.127232 -0.163442 -0.050008 0.065408 0.196895 0.171008 -0.042408 -0.035502 0.117539 -0.13776 -0.156834 -0.328524 -0.11167 0.021162 -0.15879 -0.121887 0.103198 0.149026 0.130197 0.253959 0.130175 0.06706 3.1E-5 0.053319 -0.140755 0.07943 0.030892 0.106431 0.077613 0.033545 -0.005199 -0.071888 -0.163321 -0.266706 0.278028 0.281103 -0.042175 0.263883 -0.058214 -0.186156 -0.245901 0.056628 0.264118 0.291244 -0.066425 -0.019836 -9.87E-4 -0.01309 0.18985 0.066644 0.075345 -0.05088 0.029844 0.05566 -0.099257 -0.221926 -0.199334 0.111258 -0.170634 -0.060982 -0.095448 -0.068354 -0.065156 0.016441 0.071512 -0.035483 0.03423 -0.062903 -0.053883 0.041898 -0.033973 -0.13423 0.110132 -0.042355 0.037136 0.193543 0.078021 -0.167027
-0.005414 -0.060678 0.097872 -0.224339 -0.027938 0.040165 0.075799 0.055627 -0.050849 -0.11434 -0.060762 -0.154449 -0.043781 0.047279 0.123395 -0.022807 -0.075718 0.148259 0.154756 0.122727 0.089721 -0.099548 -0.012536 -0.06569 0.030729 0.036249 0.080516 0.13632 -0.125976 -0.037352 0.039675 -0.018375 0.049965 -0.174125 0.07308 -0.062536 0.061592 -0.09773 0.339992 0.151513 -0.031346 0.037355 -0.034329 -0.080057 -0.023399 -0.227926 0.1069 -0.036189 -0.099521 0.026773 0.073648 -0.117728 -0.133706 0.086768 -0.054642 0.174012 0.10703 -0.059331 -0.107385 -0.001173 -0.004935 0.092161 0.099618 -0.144376 -0.093145 -0.052803 -0.138652 -0.009664 0.062013 0.187274 0.072311 -0.067079 -0.097003 0.054984 -0.117642 0.091025 -0.083443 0.023424 0.082438 -0.100491 0.04367 0.090325 -0.093366 -0.08643 0.331632 0.117573 -0.235371 -0.232673 -0.091211 -0.104512 -0.132907 0.173944 0.077837 -0.281681 0.172702 -0.003477 0.049318 -0.060112 0.118495 -0.064533
0.004577 -0.077139 0.186696 0.192622 -0.122348 0.03174 -0.059208 -0.298223 -0.097779 0.049746 0.056097 0.240002 0.071719 0.068956 -0.03834 0.26472 -0.088507 0.336059 0.024975 0.081693 -0.025406 0.2262 0.20086 0.182967 -0.13429 -0.16792 0.0705 -0.047265 0.121626 -0.07506 -0.205217 -0.175597 -0.136736 0.135177 -0.017349 -0.206152 0.013709 0.103611 -0.102685 0.017773 -0.08926 0.153647 0.011442 -0.040664 -0.047171 -0.118774 -0.005246 0.044751 -0.058672 0.046157 0.080276 -0.048172 -0.03771 0.11095 0.029518 -0.070148 -0.033146 -0.008512 0.039747 -0.12649 0.006828 -0.086185 -0.00663 0.04893 -0.134276 -0.039226 0.118615 -0.071338 0.039573 0.041567 0.005918 0.051412 0.031927 -0.147693 0.180613 -0.124274 -0.281498 -0.032309 -0.057821 0.051871 0.100375 0.153059 0.088905 -0.204906 -0.017154 -0.053508 0.201842 0.070378 0.354441 -0.029274 -0.23367 0.03927 -0.015055 0.260397 -0.070372 -0.104677 0.127208 -0.056051 -0.229486 0.026219
-0.101668 -0.120271 0.151939 -0.109528 -0.182703 -0.069321 -0.046786 -0.038199 -0.098141 0.162163 0.088738 0.05861 0.111062 -0.11955 -0.101244 0.062228 0.078125 0.094577 0.044225 0.127683 -0.160441 -0.079559 0.027514 -0.029002 0.063847 -0.09555 -0.200959 0.042329 -0.021738 0.091049 -0.069167 -0.025404 -0.126238 0.069435 -0.096628 -0.012356 -0.024815 -0.07149 0.188776 0.059828 -0.054348 -0.074429 -0.19247 0.122484 0.003695 0.021129 0.098583 0.05681 -0.257823 0.082938 0.021307 0.022534 0.004633 -0.023027 -0.022009 0.02866 0.051104 -0.004359 0.20783 -0.002184 -0.051924 -0.068488 -0.058389 -0.101732 0.099298 0.011029 0.088963 -0.123508 0.037035 0.010401 -0.008769 -0.048126 0.028245 0.06828 -0.026831 -0.100449 -0.042298 -0.01313 -0.140773 0.012738 -0.022982 0.194944 -0.01358 -0.087388 -0.016912 0.038882 -0.087908 -0.129872 0.163282 0.022162 0.043544 0.063325 0.130336 0.065873 -0.069826 0.039946 -0.03088 -0.156838 0.00959 0.040352
0.040623 -0.057274 0.111178 0.007959 -0.131684 -0.033556 -0.012419 -0.024139 -0.06538 0.05662 0.150786 0.12467 -0.0347 -0.047848 0.086649 0.25161 0.004167 0.200083 0.031362 0.07359 -0.256944 0.065971 0.110642 0.096746 -0.188833 0.01308 -0.048661 -0.048883 0.131591 -0.126784 0.078684 -0.054419 0.016701 0.07877 0.044463 0.130279 0.01378 0.001379 0.090218 0.047085 -0.10428 0.149989 -0.110537 0.088166 0.100189 -0.04278 -0.009022 -0.058578 -0.140419 0.108196 0.064476 -0.093422 0.029795 0.01906 0.152845 -0.029165 0.104283 -0.044292 0.15091 -0.080926 0.248125 -0.197587 0.070118 -0.162591 -0.093276 -0.020701 -0.017846 0.00712 0.107525 -0.130746 0.003184 -0.131672 0.013464 0.104041 0.052824 -0.107644 -0.144435 0.031337 -0.207089 -0.120967 0.073397 0.072494 0.105494 -0.126719 0.077034 0.001388 0.067677 -0.006492 0.304912 0.061366 -0.167848 0.050293 -0.106863 0.076286 -0.098462 -0.138272 -0.056486 0.010821 0.122543 0.068138
0.047932 -0.190813 0.06833 0.128804 0.145515 0.057816 0.021842 0.007906 0.060986 0.129232 0.216069 0.076667 0.071868 0.036271 -0.055828 -0.014789 0.138235 0.048174 0.055982 -0.026023 -0.038235 0.367365 0.155346 0.017366 -0.209618 0.140989 -0.021274 0.058164 -0.002232 0.012858 0.086936 -0.028284 -0.059348 0.106907 -0.173156 -0.061133 -0.016381 0.009237 -0.097548 -0.04766 -0.006476 0.042408 0.067184 -0.196095 -0.09539 -0.067961 -0.116101 0.127272 -0.100033 0.053922 0.16661 -0.059991 -0.044874 0.020384 -0.039578 -0.165925 -0.142193 0.009137 -0.118204 0.036282 -0.049239 0.042212 0.077793 -0.02959 -0.005675 0.046236 0.096409 0.108586 0.016702 -0.160992 -0.005082 -0.089859 0.011272 0.03352 -0.086922 0.057004 -0.134615 -0.025304 0.116946 0.062388 0.04579 0.185194 0.052642 -0.04505 -0.094408 0.044299 0.162949 0.253197 0.006095 0.17538 -0.276199 -0.040922 0.132221 -0.026628 -0.052802 0.072134 -0.089862 0.200979 -0.048778 -0.041062
-0.101668 -0.120271 0.151939 -0.109528 -0.182703 -0.069321 -0.046786 -0.038199 -0.098141 0.162163 0.088738 0.05861 0.111062 -0.11955 -0.101244 0.062228 0.078125 0.094577 0.044225 0.127683 -0.160441 -0.079559 0.027514 -0.029002 0.063847 -0.09555 -0.200959 0.042329 -0.021738 0.091049 -0.069167 -0.025404 -0.126238 0.069435 -0.096628 -0.012356 -0.024815 -0.07149 0.188776 0.059828 -0.054348 -0.074429 -0.19247 0.122484 0.003695 0.021129 0.098583 0.05681 -0.257823 0.082938 0.021307 0.022534 0.004633 -0.023027 -0.022009 0.02866 0.051104 -0.004359 0.20783 -0.002184 -0.051924 -0.068488 -0.058389 -0.101732 0.099298 0.011029 0.088963 -0.123508 0.037035 0.010401 -0.008769 -0.048126 0.028245 0.06828 -0.026831 -0.100449 -0.042298 -0.01313 -0.140773 0.012738 -0.022982 0.194944 -0.01358 -0.087388 -0.016912 0.038882 -0.087908 -0.129872 0.163282 0.022162 0.043544 0.063325 0.130336 0.065873 -0.069826 0.039946 -0.03088 -0.156838 0.00959 0.040352
0.142855 2.096782 -0.44488 -0.186519 4.581101 0.368552 1.025096 -0.312802 -2.617651 -0.157005 2.963322 2.120705 -1.775955 -0.565663 0.972057 2.924774 -3.483148 -0.388176 -2.731071 -0.326463 1.005034 -0.173592 0.985748 -2.472826 -0.247049 -1.602126 -2.48254 -0.015307 0.921201 -0.634243 -0.734395 -4.469334 -2.338912 -3.86095 -2.404253 -1.170435 3.191081 0.66076 0.725646 -0.864367 -2.371157 -0.851367 -3.29822 -1.074393 -2.64488 2.784424 -0.996674 2.506345 2.15789 -2.159862 -0.441733 -0.926918 -0.098512 0.757891 -1.999629 -4.007104 0.387073 -3.003765 1.204233 -2.431844 -2.281004 -0.27222 1.915759 2.567541 -2.305997 0.668549 -1.469449 -4.443738 -0.244681 3.958085 3.663286 2.390184 0.145926 -1.914193 1.202993 0.085106 1.119028 1.764289 0.413107 1.270882 2.30135 -2.063297 -0.209725 -0.837978 1.54811 -1.075222 1.662849 3.024555 -0.817108 2.02425 0.827332 0.999754 -2.964958 -4.68355 2.112919 1.12159 -1.379614 1.011169 -1.034187 2.880255
0.38215 0.101332 -0.067345 -0.263622 -0.238167 0.003663 -0.015846 -0.015976 -0.208787 0.301192 0.046697 -0.236945 0.170186 0.093992 -0.060013 0.061724 0.131205 -0.115457 0.377106 -0.196005 0.108091 -0.324439 0.267062 0.135198 0.157462 0.128197 -0.085999 -0.018525 -0.139775 0.027915 0.113382 0.153284 0.239426 0.242782 0.201656 -0.124683 0.125974 -0.275736 -0.082514 0.107271 0.109849 -0.347705 0.090524 0.078621 0.100381 -0.130394 -0.122329 0.009871 0.167178 0.088173 0.23454 0.098299 0.009625 -0.108564 -0.048727 0.144774 0.205616 0.370146 -0.100029 0.031512 0.046396 -0.340625 0.095909 -0.156571 -0.20056 0.129961 0.19605 0.333662 -0.023556 -0.238306 -0.042549 0.003825 -0.055091 0.114785 0.162978 0.009109 -0.275328 0.016449 -0.14611 0.053853 0.232572 0.02957 -0.141966 0.148828 0.356939 -0.047736 0.194708 0.168119 0.081208 -0.364752 0.009822 -0.21057 -0.134215 0.330258 0.206456 0.177027 0.129793 -0.072396 -0.172702 -0.301788
0.004577 -0.077139 0.186696 0.192622 -0.122348 0.03174 -0.059208 -0.298223 -0.097779 0.049746 0.056097 0.240002 0.071719 0.068956 -0.03834 0.26472 -0.088507 0.336059 0.024975 0.081693 -0.025406 0.2262 0.20086 0.182967 -0.13429 -0.16792 0.0705 -0.047265 0.121626 -0.07506 -0.205217 -0.175597 -0.136736 0.135177 -0.017349 -0.206152 0.013709 0.103611 -0.102685 0.017773 -0.08926 0.153647 0.011442 -0.040664 -0.047171 -0.118774 -0.005246 0.044751 -0.058672 0.046157 0.080276 -0.048172 -0.03771 0.11095 0.029518 -0.070148 -0.033146 -0.008512 0.039747 -0.12649 0.006828 -0.086185 -0.00663 0.04893 -0.134276 -0.039226 0.118615 -0.071338 0.039573 0.041567 0.005918 0.051412 0.031927 -0.147693 0.180613 -0.124274 -0.281498 -0.032309 -0.057821 0.051871 0.100375 0.153059 0.088905 -0.204906 -0.017154 -0.053508 0.201842 0.070378 0.354441 -0.029274 -0.23367 0.03927 -0.015055 0.260397 -0.070372 -0.104677 0.127208 -0.056051 -0.229486 0.026219
0.352905 0.550922 -1.128945 -0.511125 0.774489 1.405335 -0.371647 0.106012 -0.779785 -0.640302 -0.68578 1.570717 -0.712288 -0.706705 -0.789609 -0.045278 -1.599722 -2.840112 -0.089543 -1.158838 -1.862605 -0.62748 -0.063542 -0.468696 0.750564 0.033551 -0.772222 -0.188991 -0.163115 0.455978 0.038455 -0.779588 0.172303 -1.114448 -0.548246 -0.008155 1.66721 -0.744821 -0.15746 -2.668482 -0.304702 -0.905716 0.479063 0.151803 -0.94063 -0.044338 -0.906122 -0.456182 0.281891 0.268287 0.47007 0.628019 0.328428 1.471286 -2.345457 0.072073 -0.345477 -0.998199 -1.496897 -0.053061 0.351206 -0.934426 0.295591 0.07336 0.24092 0.486976 0.390085 -0.621556 0.375246 -0.02625 1.957847 1.014101 0.004675 0.08874 -0.900479 -0.462149 0.922254 1.355385 -1.048724 0.105897 1.254466 0.410718 0.321258 1.066395 -0.171761 -0.128774 0.315556 0.697301 -0.180925 0.555334 1.005586 -0.891677 -1.232923 -1.994189 -0.567812 0.204184 -0.947385 -0.051526 -0.987029 0.725141
3.229447 1.832686 -0.196265 -0.303454 -0.824437 2.082854 1.150219 -0.493805 -3.50143 -0.594107 2.103319 2.396154 1.056781 -0.578498 -1.172209 3.210305 -0.978008 -1.908997 -0.472705 -1.788789 -2.346806 -2.098664 -0.288581 -2.078696 0.41261 0.520842 -1.276654 0.578767 1.70845 -0.136278 -1.41294 0.371846 1.173228 1.232021 0.598135 -3.597398 4.723318 -0.907374 3.160397 -2.027976 1.188048 -5.433854 0.01906 -0.240727 2.932695 1.836205 0.69537 0.647449 5.328198 0.625981 0.041762 2.070653 0.300511 1.656161 -2.571092 0.908767 3.294905 2.941907 -1.065341 -2.086696 -0.817265 -1.894089 0.299235 -1.879644 0.485823 1.848637 -0.344618 -2.532108 2.074767 0.482597 3.034693 1.42216 0.457834 2.431775 -0.318071 1.666885 -1.364005 1.576786 -1.71492 -0.790398 2.548478 -2.38312 -0.502643 1.256626 0.730181 1.714355 1.091085 4.672542 0.202716 -0.959086 0.774024 -2.161259 -1.810393 -2.763748 0.167227 4.207294 2.675714 0.636561 -0.117425 -0.284099
0.142855 2.096782 -0.44488 -0.186519 4.581101 0.368552 1.025096 -0.312802 -2.617651 -0.157005 2.963322 2.120705 -1.775955 -0.565663 0.972057 2.924774 -3.483148 -0.388176 -2.731071 -0.326463 1.005034 -0.173592 0.985748 -2.472826 -0.247049 -1.602126 -2.48254 -0.015307 0.921201 -0.634243 -0.734395 -4.469334 -2.338912 -3.86095 -2.404253 -1.170435 3.191081 0.66076 0.725646 -0.864367 -2.371157 -0.851367 -3.29822 -1.074393 -2.64488 2.784424 -0.996674 2.506345 2.15789 -2.159862 -0.441733 -0.926918 -0.098512 0.757891 -1.999629 -4.007104 0.387073 -3.003765 1.204233 -2.431844 -2.281004 -0.27222 1.915759 2.567541 -2.305997 0.668549 -1.469449 -4.443738 -0.244681 3.958085 3.663286 2.390184 0.145926 -1.914193 1.202993 0.085106 1.119028 1.764289 0.413107 1.270882 2.30135 -2.063297 -0.209725 -0.837978 1.54811 -1.075222 1.662849 3.024555 -0.817108 2.02425 0.827332 0.999754 -2.964958 -4.68355 2.112919 1.12159 -1.379614 1.011169 -1.034187 2.880255
2.564838 2.944327 -0.46659 1.214122 1.53197 0.925082 -0.519545 0.281412 -2.545102 1.74456 1.849219 -0.89195 1.120815 0.973538 2.022879 4.666583 -0.394636 -3.850543 -1.742644 0.448864 -0.08918 -2.463011 0.239167 0.588363 3.019687 -0.308986 0.272118 0.946405 1.144827 0.360637 2.711016 0.593794 2.900948 1.982387 0.31 -3.654342 5.381555 -3.934709 0.486999 0.215398 -0.246637 -6.495167 1.059066 -0.229008 4.361426 0.276029 0.54648 1.193341 3.179735 2.481158 3.911246 4.590344 -1.450665 0.158972 -2.655237 0.021886 2.84179 3.244385 -0.149399 -2.663898 -1.455794 -3.00571 0.746429 -1.790654 -0.577277 0.16391 0.328085 2.127652 0.032985 -0.051354 -0.62155 0.535529 -1.387627 2.982611 0.997136 -0.035349 -2.882978 0.962121 -1.46305 -0.076119 1.850097 -0.905466 -2.447642 0.61366 2.354732 -1.94614 0.762202 0.884332 0.478735 -1.656505 2.364273 -0.454621 1.060318 -0.264898 1.934866 2.928277 2.64633 0.135086 -1.211353 -0.59279
-0.036486 0.005401 0.040099 0.026889 0.05006 -0.091472 0.017121 0.123208 -0.181132 0.082191 0.350539 0.132306 0.104908 -0.114766 -0.009019 0.20523 -0.110896 -0.115572 0.170295 -0.084866 0.041985 0.124709 0.134185 -0.084192 -0.145134 -0.169725 -0.074694 0.045566 0.102397 -0.011389 -0.037438 -0.122909 0.04337 0.119853 -0.068184 -0.143118 0.239081 0.04104 0.048895 0.025586 -0.001485 -0.025357 0.204165 -0.028829 0.017361 0.039817 0.194285 0.107224 0.011202 0.005715 0.001488 -0.033153 -0.147939 -0.141705 -0.171433 -0.041721 -0.015832 -0.085395 0.126552 -0.074568 0.153934 0.003666 -0.066348 -0.18091 -0.115009 0.095708 0.02232 -6.58E-4 0.103283 -0.033384 0.007136 0.070525 0.071693 0.024884 0.028763 0.044025 -0.089645 0.032169 0.056176 -0.12927 -0.018552 0.174307 0.138283 -0.049134 0.190377 -0.134348 0.110502 0.055676 0.07763 0.021884 -0.085118 -0.002976 -0.001778 0.003432 -0.12478 -0.061896 0.00491 0.039518 -0.052617 -0.054114
-0.056999 -0.158509 -0.018362 0.070992 0.147826 -0.064124 -0.108268 -0.130334 -0.17257 0.073087 0.071047 0.174835 -0.036911 -0.027515 0.271218 0.248133 0.058208 0.047987 -0.064434 0.060639 0.019902 0.030471 0.116566 0.070869 -0.042572 -0.10112 -0.159462 -0.015594 0.199727 -0.270593 -0.223599 0.042439 4.63E-4 -0.008276 -0.0531 -0.103463 -0.044228 -0.106284 0.043963 -0.00853 -0.077059 0.0943 -0.07686 0.137008 0.05912 0.074989 -0.059077 -0.048718 -0.059362 -0.042617 0.178518 -0.278492 -0.129127 -0.070142 0.063248 -0.012159 -0.135296 0.036728 -0.067895 -0.032111 -0.147431 -0.005939 -0.033109 -0.132893 0.032005 0.024213 -9.08E-4 -0.043175 -0.004361 0.010211 -0.054773 0.135012 0.097594 -0.069736 0.04815 -0.175826 -0.14525 -0.049826 0.034553 -0.321595 -0.045485 0.118925 0.148454 -0.16954 0.102646 0.150185 5.66E-4 0.152498 0.087681 0.094117 -0.038354 -0.006521 -0.183671 -0.006654 0.091454 0.119018 -0.128132 -0.009501 -0.004531 0.003262
-0.172636 0.01033 0.161959 -0.183546 0.084826 0.001454 -0.012333 0.025399 -0.140257 -0.043156 0.065558 -0.05232 0.099666 0.00853 0.143223 0.114338 0.12441 0.125198 0.033525 0.036631 -0.100414 0.095781 0.079415 0.218911 -0.202953 -0.176273 0.003928 -0.080203 0.064255 -0.151939 -0.015762 -0.091797 0.058406 0.259075 0.142232 0.005009 -0.027051 -0.151772 -0.009225 0.087933 -0.047953 0.058876 -0.00632 0.200481 -0.051352 -0.062672 -0.004913 0.138106 0.006286 0.095799 0.155862 0.073325 -0.063141 -0.126818 0.080382 -0.03216 0.029759 0.0419 0.073559 0.032012 0.00921 -0.174483 -0.047889 -0.051292 -0.092714 0.114818 -0.104232 -0.056323 -0.006118 -0.033086 -0.071821 -0.058985 -0.082653 -0.01357 0.127079 -0.029265 0.032993 0.09375 -0.047027 -0.121647 0.078634 0.058114 0.019442 1.0E-5 0.027019 0.006064 0.011752 0.078438 0.206987 0.051293 -0.026753 -0.10776 0.076365 -7.58E-4 -0.123035 -0.129837 -0.027931 -0.05268 0.159075 3.06E-4
-0.101668 -0.120271 0.151939 -0.109528 -0.182703 -0.069321 -0.046786 -0.038199 -0.098141 0.162163 0.088738 0.05861 0.111062 -0.11955 -0.101244 0.062228 0.078125 0.094577 0.044225 0.127683 -0.160441 -0.079559 0.027514 -0.029002 0.063847 -0.09555 -0.200959 0.042329 -0.021738 0.091049 -0.069167 -0.025404 -0.126238 0.069435 -0.096628 -0.012356 -0.024815 -0.07149 0.188776 0.059828 -0.054348 -0.074429 -0.19247 0.122484 0.003695 0.021129 0.098583 0.05681 -0.257823 0.082938 0.021307 0.022534 0.004633 -0.023027 -0.022009 0.02866 0.051104 -0.004359 0.20783 -0.002184 -0.051924 -0.068488 -0.058389 -0.101732 0.099298 0.011029 0.088963 -0.123508 0.037035 0.010401 -0.008769 -0.048126 0.028245 0.06828 -0.026831 -0.100449 -0.042298 -0.01313 -0.140773 0.012738 -0.022982 0.194944 -0.01358 -0.087388 -0.016912 0.038882 -0.087908 -0.129872 0.163282 0.022162 0.043544 0.063325 0.130336 0.065873 -0.069826 0.039946 -0.03088 -0.156838 0.00959 0.040352
0.056379 -0.059457 0.037134 0.007857 0.070773 0.027115 -0.043018 -0.065117 -0.13166 0.101614 0.038961 0.118242 0.085246 -0.010038 0.01439 0.201177 -0.005683 0.07842 0.06244 0.023382 -0.122977 0.018643 0.034175 0.064879 0.029116 -0.048048 -0.115406 0.045564 0.203447 -0.071179 -0.114578 0.035504 -0.111264 0.081027 -0.147892 -0.029501 -0.013898 0.043235 -0.131136 -0.037491 0.180609 0.067812 -0.031593 0.078037 -0.045279 0.068725 -0.12475 -0.030545 -0.050605 0.209964 0.14595 -0.112409 -0.001771 0.131527 0.082876 -0.007819 -0.129686 -0.196203 0.034526 0.006872 0.02698 -0.044687 -0.007491 -0.003131 -0.044665 0.030268 -0.105273 0.009662 0.073209 -0.155387 0.115254 -0.048589 0.031926 0.163224 0.015395 0.091468 0.033922 0.095028 -0.114337 -0.124013 0.095376 0.135806 0.058465 -0.042259 -0.082602 0.023353 0.00969 0.069487 0.131031 0.130017 -0.103912 -0.010561 0.040985 0.020705 0.159831 0.002416 0.058963 -0.053129 0.103037 -0.097786
-1.371364 -0.905838 -2.28994 -1.283174 -1.310577 -1.606454 0.910305 1.305647 -4.371454 0.628874 1.806303 0.828653 -2.382652 -0.686732 0.545703 1.326346 0.154753 -3.264551 1.126633 -1.969114 -0.800301 -1.436766 3.728197 -1.038718 -2.327168 -1.817844 -1.522537 3.301526 -0.516965 -1.374094 -0.051603 -1.351815 -0.389973 -0.502437 0.25835 0.846892 1.917309 -2.564942 1.743738 0.299837 -0.077633 -0.203545 -1.348593 -0.075214 -1.608776 -1.418613 -1.239597 1.346437 1.05542 -0.955862 -1.024128 -0.739272 -1.267341 -0.406832 -0.563292 1.91249 -0.495804 -1.8464 -2.951108 -2.501113 -2.256394 0.158864 1.280809 0.511105 1.438967 -1.170372 -0.297717 -2.259045 1.504669 -0.129935 2.657114 -0.654912 -1.802167 1.676283 -1.228934 1.0964 1.563019 0.572077 -0.396552 -2.394884 0.52895 2.143209 0.307586 -0.887167 -1.371926 0.836945 0.408248 -0.956246 -1.326029 0.678732 3.122775 -1.439952 -0.709464 -1.94331 -0.773044 1.524834 1.347463 -1.037819 -0.217821 2.595661
0.004577 -0.077139 0.186696 0.192622 -0.122348 0.03174 -0.059208 -0.298223 -0.097779 0.049746 0.056097 0.240002 0.071719 0.068956 -0.03834 0.26472 -0.088507 0.336059 0.024975 0.081693 -0.025406 0.2262 0.20086 0.182967 -0.13429 -0.16792 0.0705 -0.047265 0.121626 -0.07506 -0.205217 -0.175597 -0.136736 0.135177 -0.017349 -0.206152 0.013709 0.103611 -0.102685 0.017773 -0.08926 0.153647 0.011442 -0.040664 -0.047171 -0.118774 -0.005246 0.044751 -0.058672 0.046157 0.080276 -0.048172 -0.03771 0.11095 0.029518 -0.070148 -0.033146 -0.008512 0.039747 -0.12649 0.006828 -0.086185 -0.00663 0.04893 -0.134276 -0.039226 0.118615 -0.071338 0.039573 0.041567 0.005918 0.051412 0.031927 -0.147693 0.180613 -0.124274 -0.281498 -0.032309 -0.057821 0.051871 0.100375 0.153059 0.088905 -0.204906 -0.017154 -0.053508 0.201842 0.070378 0.354441 -0.029274 -0.23367 0.03927 -0.015055 0.260397 -0.070372 -0.104677 0.127208 -0.056051 -0.229486 0.026219
0.032093 0.10565 0.07194 -0.10506 0.067235 -0.19423 -0.171559 -0.024872 -0.200596 -0.024021 0.081589 -0.134327 -0.133221 0.086563 0.035137 0.09023 -0.100221 -0.106837 0.216842 0.169637 -0.003546 -0.192428 0.026566 0.124055 -0.105236 -0.07848 -0.126731 0.139525 0.222664 -0.090607 -0.124343 0.162578 -0.11797 -0.040378 0.05487 -0.079472 0.01701 -0.189311 0.227341 0.071021 -0.038819 -0.184046 0.147 -0.091764 0.07601 -0.241426 -0.387516 -0.147508 -0.220456 -0.088583 0.035056 -0.086038 -0.204524 0.092743 -0.119635 -0.095464 -0.283729 -0.021 -0.056357 -0.143968 0.055836 -0.324437 0.105987 0.008046 -0.200878 0.013677 -0.124932 0.120835 0.008738 -0.22946 -0.008223 -0.04135 0.001859 -0.035757 0.290135 -0.016454 -0.251527 -0.091879 0.014693 -0.111384 0.234011 0.080886 0.195417 0.014571 -0.071411 0.018417 0.100924 0.06824 0.118381 0.038258 -0.140745 -0.154291 0.008683 0.183866 0.02895 0.005598 -0.0178 -0.029178 0.110665 -0.011781
1.709049 -0.241854 -1.964069 0.896246 -0.265823 -0.813604 0.061787 0.035651 -0.797708 -2.233744 -0.759974 0.653819 -0.841201 1.245719 2.053944 3.190658 0.299622 -1.13584 -2.119026 0.643628 -0.591288 -0.43081 0.530563 1.803925 0.853056 0.081592 2.126469 3.477157 2.233028 -2.854767 -0.663068 -0.092408 1.200876 1.652074 -3.823889 -1.233957 1.136059 -0.896801 0.408643 -0.779322 -0.115242 -1.941155 1.513496 0.864226 2.687529 1.202938 -2.458349 0.494939 3.189148 -1.045203 2.450843 1.502928 -0.938168 0.963905 -0.59942 -1.077117 0.301158 1.342674 0.044432 -3.817072 -1.974524 0.694558 -2.319904 -0.914547 -1.767233 -0.356706 -0.820455 -1.192577 1.534861 3.817737 1.467049 -0.795508 1.371364 1.318918 -0.725583 0.001055 1.580994 1.210247 0.663401 -0.060071 0.325036 -2.212825 0.232142 -0.178146 -1.062922 -0.034164 3.604011 -0.401558 0.005038 2.228723 0.231238 -0.539729 -2.624794 -2.092806 0.524439 3.068943 0.206235 -2.372268 -0.405579 1.744956
0.024378 -0.116139 0.180639 0.111395 0.030568 -0.071668 -0.121108 -0.109806 -0.091698 0.013018 0.08259 0.069038 -0.061427 0.004082 0.229398 0.047504 0.066332 -0.026818 0.02069 0.023222 -0.024814 0.084488 0.163639 0.026093 -0.167495 -0.080491 0.015155 0.002639 0.149547 -0.107706 -0.032128 0.017933 0.035418 0.02069 0.071325 -0.134884 -0.023948 0.019409 -0.045767 0.036389 0.01007 -0.18179 0.153652 0.026089 -0.154465 -0.04553 -0.142306 0.003931 -0.113083 0.004437 0.142883 -0.219551 -0.115541 -0.039264 0.151018 0.201031 -0.024747 -0.016886 -0.027411 -0.073582 0.10617 -0.086841 -0.04312 0.003789 -0.024946 0.136003 0.096762 -0.080263 0.012766 -0.01203 0.076892 -0.020938 -0.04654 0.044006 0.078363 -0.05006 -0.068905 -0.123399 -0.034683 -0.051999 0.022561 -0.158305 0.056823 0.044635 0.08235 0.268783 0.147618 -0.026452 0.059026 0.082304 0.068505 -0.104877 -0.124045 0.110571 0.004564 -0.087215 -0.038814 -0.270774 -0.070765 0.099681
0.042301 -0.021118 -0.002219 0.056439 0.020325 0.094558 -0.216911 0.048536 -0.159833 9.03E-4 0.239579 0.04729 -0.017582 -0.057755 -0.056331 0.175043 -0.010556 0.254134 -0.023952 0.001945 -0.161083 -0.005101 0.193145 0.073464 -0.055642 -0.035022 0.120662 0.018228 -0.107647 -0.102976 0.055227 0.018577 -0.308446 0.145268 -0.238507 -0.078004 0.017402 -0.023687 -0.106833 -0.029922 -0.061287 0.028024 0.079015 0.192533 -0.050487 -0.121277 -0.081093 0.090089 -0.111868 0.108836 -0.041103 -0.099423 -0.055836 0.142108 0.005729 -0.099871 -0.076428 0.169819 0.030807 0.026952 0.162379 -0.038806 0.077312 -0.153138 0.050308 -0.07769 0.056234 0.067894 0.116871 0.008203 0.047632 -0.043906 0.09895 0.09111 -0.031882 0.172238 -0.115888 0.016751 -0.153299 0.057254 -0.004629 0.131597 0.075967 0.048453 0.058252 -0.043846 0.037892 0.021069 0.144925 0.199647 -0.229249 -0.034252 0.02626 0.051142 -0.183994 -0.110028 -0.121121 -0.036865 0.029965 0.070637
0.024378 -0.116139 0.180639 0.111395 0.030568 -0.071668 -0.121108 -0.109806 -0.091698 0.013018 0.08259 0.069038 -0.061427 0.004082 0.229398 0.047504 0.066332 -0.026818 0.02069 0.023222 -0.024814 0.084488 0.163639 0.026093 -0.167495 -0.080491 0.015155 0.002639 0.149547 -0.107706 -0.032128 0.017933 0.035418 0.02069 0.071325 -0.134884 -0.023948 0.019409 -0.045767 0.036389 0.01007 -0.18179 0.153652 0.026089 -0.154465 -0.04553 -0.142306 0.003931 -0.113083 0.004437 0.142883 -0.219551 -0.115541 -0.039264 0.151018 0.201031 -0.024747 -0.016886 -0.027411 -0.073582 0.10617 -0.086841 -0.04312 0.003789 -0.024946 0.136003 0.096762 -0.080263 0.012766 -0.01203 0.076892 -0.020938 -0.04654 0.044006 0.078363 -0.05006 -0.068905 -0.123399 -0.034683 -0.051999 0.022561 -0.158305 0.056823 0.044635 0.08235 0.268783 0.147618 -0.026452 0.059026 0.082304 0.068505 -0.104877 -0.124045 0.110571 0.004564 -0.087215 -0.038814 -0.270774 -0.070765 0.099681
-0.181016 -0.126776 -0.00204 -0.121265 0.103095 0.037222 -0.040561 -0.006273 -0.070426 0.210671 0.027904 0.139159 0.158573 -0.198906 0.037756 0.160809 -0.257298 0.042275 0.15349 0.183653 -0.079227 0.158618 0.102353 -0.030057 -0.151801 -0.155387 0.087316 0.157636 0.177323 -0.138123 -0.245338 0.023218 -0.086855 0.23983 -0.217194 -0.326965 -0.014276 -0.136591 0.003146 0.075452 0.105114 0.037821 -0.033039 0.141366 0.133352 0.040019 0.141936 0.136758 -0.114451 -0.117631 0.063519 -0.181397 -0.102081 0.148578 0.002284 -0.239133 -0.110048 0.095141 -0.013837 -0.197638 0.143419 -0.126869 -0.03851 -0.08295 -0.133066 0.144363 -0.022699 -0.133583 0.101668 -0.12162 0.00473 0.196365 0.10772 -0.105911 0.124821 -0.127257 -0.164071 0.051662 -0.03433 -0.11206 0.030466 0.190672 0.177271 -0.005139 0.131751 0.191894 0.166605 -0.074512 -0.013007 0.039714 -0.052525 -0.035078 -0.024444 -0.089419 0.035711 -0.234373 0.170065 0.070902 0.16763 0.0911
0.106819 -0.155273 0.100262 -0.203633 -0.113744 0.111418 0.013196 -0.164598 -0.127185 -0.165083 0.089429 0.075216 -0.011487 -0.23205 0.00902 0.111355 0.055741 0.249202 0.068646 -0.188616 -0.022875 -0.045377 0.075285 0.094837 0.09953 0.08352 -0.221726 0.199086 0.073367 -0.079957 -0.048898 0.031393 -0.061042 0.051715 0.06043 -0.0634 -0.172957 -0.081083 0.176533 0.10955 0.064371 0.067772 0.099143 -0.044073 0.116149 -0.196917 -0.069986 0.02172 -0.076782 0.107784 0.067828 -0.091854 -0.184321 -0.05151 -0.09098 -0.21381 -0.083922 0.015174 0.184239 0.036793 0.024972 -0.180812 0.10811 -0.268639 -0.014862 0.177306 0.295233 -0.003502 0.025697 0.009478 -0.113488 -0.037256 -0.071333 -0.03362 -5.3E-4 -0.055012 -0.119723 -0.117096 0.029741 -0.076297 0.066154 0.110038 0.269759 0.077774 0.025025 -0.0144 0.07612 0.018105 0.064228 0.067635 0.176666 0.164935 -0.019551 0.050667 0.264672 0.021985 -0.100457 -0.019675 0.025597 -0.011342
-0.030478 -0.029704 0.104285 0.158612 0.020246 -0.063034 0.009871 0.064611 -0.121423 0.066949 0.0209 0.062737 0.101253 -0.059448 0.119358 0.179413 0.033275 -0.051668 -0.069776 0.090521 -0.128209 0.118932 0.104775 0.01293 -0.069656 0.075942 0.028342 -0.08674 0.186082 -0.187311 0.030275 -0.100482 -0.124546 0.020271 -0.210359 -0.018412 -0.064155 -0.088003 -0.069519 -0.003666 -0.074133 -0.112309 0.040917 0.061785 0.075892 -0.061442 0.030421 0.032333 -0.01834 0.025634 0.048241 -0.161526 0.052645 -0.041627 -0.005925 0.039892 -0.070295 0.009903 0.130391 -0.095444 0.015975 -0.076308 0.07472 -0.089704 0.041168 -0.0812 0.091911 -0.052093 -0.068306 -0.007351 0.037662 -0.004718 -0.079382 0.155061 0.077288 -0.017812 -0.161587 -0.073944 -0.051831 -0.090756 -0.080309 -0.070434 0.040414 -0.026328 0.0049 0.048362 0.031225 -0.061932 0.127734 0.095872 -0.111956 -0.009301 0.014213 -0.012897 -0.006996 -0.058216 -0.031507 0.120228 -0.046411 -0.020919
-0.02951 -0.10093 -0.123216 -0.302362 -0.196236 0.042165 0.023508 -0.062289 -0.026636 0.183156 -0.044319 0.004399 0.064647 0.022353 -0.003475 0.050996 0.2705 0.205611 0.095731 -0.37856 -0.179047 0.182624 0.442037 -0.243417 -0.054766 -0.045367 -0.140801 0.204169 0.001776 -0.076517 0.062785 -0.407356 -0.039894 0.150269 -0.20229 -0.012589 0.108882 0.149502 -0.252643 0.266153 -0.143237 -0.020207 -0.108961 -0.148081 0.129883 0.029499 -0.014086 0.030034 -0.085399 0.052508 -0.122438 -0.025368 0.22147 0.092128 0.04232 0.079684 0.044989 0.070017 -0.020584 0.021227 -0.063883 2.3E-5 -0.260353 -0.227989 0.107689 -0.037163 -0.084378 0.08145 -0.077468 -0.122167 0.02928 0.214847 -0.033681 -0.028073 -0.012968 -0.073196 0.005089 0.004007 -0.048568 0.022159 -0.262071 -0.146007 0.031569 0.022726 0.113089 -0.349088 -0.021024 0.071374 0.094832 0.31796 -0.01226 -0.048493 0.019739 0.156768 -0.022196 -0.149034 0.152394 -0.136985 -0.191006 -0.039245
-0.007826 0.018777 0.08636 0.186447 0.107979 -0.00815 0.080352 0.1767 -0.038316 0.124456 0.002908 0.073264 0.197228 -0.111038 0.02343 -0.031871 0.106394 0.186544 0.202326 0.186491 -0.075624 0.196971 0.279306 0.136999 -0.030662 -0.339777 0.155407 0.020756 0.053512 0.006461 -0.054168 0.065825 -0.074855 0.204278 -0.194641 -0.27512 0.002619 -0.033009 0.231609 -0.204958 0.033174 0.039118 -0.003998 0.015427 0.15663 -0.058871 -0.1154 0.023608 -0.150317 -0.239554 0.06642 -0.19571 -0.101709 8.6E-4 0.004849 -0.191432 -0.04407 -0.040266 0.124501 0.052178 0.138761 -0.01761 -0.112193 -0.123212 -0.062369 0.106717 0.053339 0.111797 0.155838 -0.150812 -0.183521 0.047699 -0.151615 -0.137403 -0.004305 -0.114104 -0.240036 -0.011894 -0.013635 -0.122122 -0.089257 0.252698 0.113642 -0.153833 0.070426 0.152308 0.132024 -0.154574 0.161886 0.062396 -0.074886 -0.074825 -0.039742 -0.030485 -0.107707 -0.131207 -0.006451 0.058377 -0.036591 -0.114862
0.01891 -0.060665 0.135969 0.183092 -0.055761 -0.076547 -0.222809 0.044102 -0.010539 0.189162 0.021543 0.105088 0.052464 0.106578 0.014072 -0.030556 0.001304 -0.009971 0.084897 -0.006616 -0.008994 -0.08879 -0.020135 0.107845 -0.014012 -0.087822 -0.084146 -0.025894 0.128106 -0.065299 -0.076678 -0.030183 -0.039492 -0.038769 0.035698 0.004731 0.135535 0.081022 -0.085718 -0.085159 0.051488 0.035486 -0.017824 0.205306 -0.150968 -0.046718 -0.089217 0.102943 0.009137 0.007239 0.210947 -0.084459 0.16431 0.077647 0.21221 -0.051225 0.111011 -0.059967 0.130746 0.149758 0.098683 -0.020428 0.132569 -0.058797 0.016501 -0.054702 0.116284 -0.152144 0.027769 -0.108143 0.051962 0.07111 0.045641 0.005755 -0.010936 -0.071829 0.061753 -0.077299 -0.123208 0.137011 -0.020861 -0.153239 0.054479 0.014044 0.059868 0.038198 0.029808 0.02053 0.145425 -0.259012 -0.029823 0.014488 0.015157 0.209326 0.003128 -0.199791 0.128203 -0.151176 0.138139 0.097779
0.064972 0.058596 -0.032691 0.053087 0.143901 0.052164 -0.16944 -0.078905 -0.116485 -0.214171 0.102676 0.018962 -0.009815 0.126596 0.133557 0.069466 -0.101903 0.051308 -0.012351 0.082806 -0.089063 0.060786 -0.084283 0.01124 0.040679 -0.030375 -0.049095 0.167968 0.053883 -0.147528 -0.056626 0.131629 0.092661 0.079578 0.018425 -0.012262 0.018527 -0.04337 0.154382 0.163745 -0.063613 -0.204173 -0.056514 -0.006736 0.102625 0.092278 -0.225406 -0.105912 -0.020977 -0.095816 0.107731 -0.066366 0.001544 0.096997 0.100461 -0.011096 -0.076986 0.043567 0.040234 -0.141538 -0.049348 0.136347 0.083989 -0.242881 -0.048612 0.059885 -0.032248 0.091066 -0.085017 -4.73E-4 -0.049963 -0.182822 -0.051532 0.044103 0.002373 -0.055515 -0.104741 0.043451 -0.02596 -0.091984 -0.090351 -0.091648 0.071519 -0.127205 -0.088834 0.174002 -0.076414 0.154685 0.064506 0.042966 0.015218 0.087912 -0.14577 -0.001175 0.011119 0.012726 -0.055176 -0.205005 0.015791 0.145085
-0.101668 -0.120271 0.151939 -0.109528 -0.182703 -0.069321 -0.046786 -0.038199 -0.098141 0.162163 0.088738 0.05861 0.111062 -0.11955 -0.101244 0.062228 0.078125 0.094577 0.044225 0.127683 -0.160441 -0.079559 0.027514 -0.029002 0.063847 -0.09555 -0.200959 0.042329 -0.021738 0.091049 -0.069167 -0.025404 -0.126238 0.069435 -0.096628 -0.012356 -0.024815 -0.07149 0.188776 0.059828 -0.054348 -0.074429 -0.19247 0.122484 0.003695 0.021129 0.098583 0.05681 -0.257823 0.082938 0.021307 0.022534 0.004633 -0.023027 -0.022009 0.02866 0.051104 -0.004359 0.20783 -0.002184 -0.051924 -0.068488 -0.058389 -0.101732 0.099298 0.011029 0.088963 -0.123508 0.037035 0.010401 -0.008769 -0.048126 0.028245 0.06828 -0.026831 -0.100449 -0.042298 -0.01313 -0.140773 0.012738 -0.022982 0.194944 -0.01358 -0.087388 -0.016912 0.038882 -0.087908 -0.129872 0.163282 0.022162 0.043544 0.063325 0.130336 0.065873 -0.069826 0.039946 -0.03088 -0.156838 0.00959 0.040352
0.0 0.0 0.0 0.0 0.0 0.0 0.0 0.0 0.0 0.0 0.0 0.0 0.0 0.0 0.0 0.0 0.0 0.0 0.0 0.0 0.0 0.0 0.0 0.0 0.0 0.0 0.0 0.0 0.0 0.0 0.0 0.0 0.0 0.0 0.0 0.0 0.0 0.0 0.0 0.0 0.0 0.0 0.0 0.0 0.0 0.0 0.0 0.0 0.0 0.0 0.0 0.0 0.0 0.0 0.0 0.0 0.0 0.0 0.0 0.0 0.0 0.0 0.0 0.0 0.0 0.0 0.0 0.0 0.0 0.0 0.0 0.0 0.0 0.0 0.0 0.0 0.0 0.0 0.0 0.0 0.0 0.0 0.0 0.0 0.0 0.0 0.0 0.0 0.0 0.0 0.0 0.0 0.0 0.0 0.0 0.0 0.0 0.0 0.0 0.0
-0.082941 0.014172 0.148723 0.034813 -0.032085 0.008053 -0.216955 -0.054012 -0.114888 0.067132 0.166536 0.073837 -0.022526 0.035107 3.85E-4 0.104536 0.107942 0.080195 0.03946 0.07239 0.007297 0.024186 0.083195 -0.019957 -0.0042 -0.010735 -0.092467 -0.144329 0.05294 0.074282 0.015576 0.055598 -0.100425 0.123635 -0.010029 0.005905 0.043028 0.102365 -0.020561 0.02833 -0.072725 -0.022163 0.051983 -0.089171 0.074003 -0.044492 0.023045 -0.036222 0.006336 0.013054 0.036892 0.002248 0.049786 0.072626 -3.45E-4 -0.060763 0.013551 0.064738 0.047274 -0.008288 0.047077 0.001093 0.047744 -0.098216 -0.087839 -0.111755 0.123715 -0.069542 0.085441 -0.142341 -0.040238 0.020186 3.67E-4 0.071454 0.009144 -0.088592 -0.018359 -0.009538 0.009949 -0.090259 0.019482 0.089435 0.13908 -0.057407 0.046256 0.012897 -0.038516 -0.029519 0.021989 -0.070519 -0.069759 -0.034112 -0.02802 0.051076 0.011241 -0.168682 -0.005778 -0.015861 0.016498 0.039856
-0.03565 -0.100696 -0.018209 0.141486 0.060372 0.092909 -0.015626 -0.002745 0.062568 0.036885 0.047103 0.182831 -0.129336 0.018142 0.103925 0.295781 -0.101293 0.02999 -0.077677 -0.058336 -0.055092 0.10057 0.13739 0.108688 -0.229841 0.003722 -0.051399 0.10737 0.081878 -0.100141 0.029502 -0.067911 -0.024437 0.031179 -0.046274 -0.124512 0.044924 -0.136048 -0.088552 0.155695 0.063187 0.009627 0.121183 0.132173 0.047165 -0.165771 -0.119729 0.020826 -0.002601 -0.036886 -0.042914 0.102129 -0.009303 0.125766 0.111736 0.094584 0.065628 -0.036816 0.144994 -0.085161 0.134878 -0.24026 -0.068417 0.019558 0.015414 0.135673 0.100891 0.02093 0.023804 -0.100704 -0.064668 0.022182 0.076249 0.027237 0.011886 -0.06533 -0.136987 -0.080291 -0.037063 -0.076144 0.066069 0.189403 0.122077 0.1833 -0.014154 -0.015402 0.134964 0.086471 0.096793 0.053529 -0.024095 -0.137494 0.084718 0.016831 -0.063593 -0.064013 0.124948 -0.102721 -0.027417 0.04525
3.15255 -0.907421 -3.642026 3.17996 3.42207 1.79741 -1.227643 1.238019 3.468645 -1.524123 -0.566973 2.247298 -5.676877 -3.465057 0.468239 -0.491914 -1.179421 -5.83672 -1.538257 2.775791 -2.00479 -1.449758 -1.2796 0.206099 1.947127 -2.184334 -0.629776 0.067498 1.962288 0.042905 -1.775377 -1.31689 1.177621 -0.477848 -4.149457 1.240261 2.627241 0.465456 3.275736 -0.229338 1.461656 -2.33524 -1.892225 -3.19226 0.177513 -1.76301 -0.410329 -0.595822 4.811452 1.986213 4.007822 4.845738 0.252917 1.747265 -0.348649 0.728273 3.103462 1.140455 -1.438188 -2.532658 1.100931 2.908969 -0.149113 1.39746 -0.110243 -0.869566 0.323433 0.189933 -0.593698 1.257804 3.346564 3.900447 -1.435939 2.359596 1.356138 -1.532728 -3.12145 -0.745096 3.148153 -1.649395 -2.176761 3.755593 -0.02329 1.428043 0.63312 -0.20617 3.715836 1.110841 1.264316 -1.176745 1.038138 -1.75898 -2.202135 1.199641 -2.789658 3.940613 -1.314701 0.546179 -0.086898 3.417288
-0.101668 -0.120271 0.151939 -0.109528 -0.182703 -0.069321 -0.046786 -0.038199 -0.098141 0.162163 0.088738 0.05861 0.111062 -0.11955 -0.101244 0.062228 0.078125 0.094577 0.044225 0.127683 -0.160441 -0.079559 0.027514 -0.029002 0.063847 -0.09555 -0.200959 0.042329 -0.021738 0.091049 -0.069167 -0.025404 -0.126238 0.069435 -0.096628 -0.012356 -0.024815 -0.07149 0.188776 0.059828 -0.054348 -0.074429 -0.19247 0.122484 0.003695 0.021129 0.098583 0.05681 -0.257823 0.082938 0.021307 0.022534 0.004633 -0.023027 -0.022009 0.02866 0.051104 -0.004359 0.20783 -0.002184 -0.051924 -0.068488 -0.058389 -0.101732 0.099298 0.011029 0.088963 -0.123508 0.037035 0.010401 -0.008769 -0.048126 0.028245 0.06828 -0.026831 -0.100449 -0.042298 -0.01313 -0.140773 0.012738 -0.022982 0.194944 -0.01358 -0.087388 -0.016912 0.038882 -0.087908 -0.129872 0.163282 0.022162 0.043544 0.063325 0.130336 0.065873 -0.069826 0.039946 -0.03088 -0.156838 0.00959 0.040352
-0.219936 -0.067721 -0.013209 -0.042437 0.04851 0.035264 -0.078125 -0.076667 -0.130761 0.155857 0.112074 0.060985 -0.004626 -0.015667 0.071499 0.061208 -0.026755 0.179012 0.143729 -0.076798 -0.098111 0.035587 0.150621 0.121856 -0.124475 -0.089416 -0.123457 0.074356 0.139182 0.038751 -0.005272 0.073431 -0.100427 0.012423 -0.013406 -0.001636 0.010209 -0.110047 -0.09609 0.127815 -0.068851 0.060821 -0.081765 -0.141657 -0.044266 -0.121606 0.033188 0.085272 -0.113091 -5.96E-4 0.115973 -0.104378 0.07202 -0.015882 0.021182 0.066903 -0.025513 -0.103935 0.05927 -0.067645 -0.109436 -0.005406 -0.03647 -0.030517 -0.005681 0.009377 0.152324 0.153507 -0.042793 -0.17006 -0.023583 0.061818 -0.040371 0.052568 -0.03188 0.088115 -0.095357 -0.016481 -0.012866 0.027737 -0.075782 0.044474 -0.031837 -0.07029 0.081726 -0.042527 0.086457 0.09411 0.192308 0.126992 -0.175601 -0.072075 0.023172 0.195318 0.039686 0.028802 0.013654 -0.023731 0.113933 -0.027616
-0.024322 -0.303699 6.57E-4 0.124013 0.096642 0.042796 0.078399 -0.043308 -0.039367 -0.030939 0.02516 -0.029414 -0.115077 -0.307309 0.071962 0.11219 -0.082688 -0.069067 0.068999 0.016192 -0.028041 0.198763 -0.032337 -0.011087 0.091512 -0.048044 -0.113547 0.011122 -0.004473 -0.060547 -0.104108 -0.030799 -0.092209 0.08433 -0.070757 -0.066028 0.039562 -0.090053 0.080573 -0.071696 -0.060823 -0.075948 0.110598 0.160809 0.022521 -0.159859 -0.015239 0.115199 -0.12507 -0.04408 -0.085618 0.011849 -0.15078 -0.064003 -0.050593 0.048569 0.072066 -0.039631 0.166476 0.071693 0.031732 0.025521 -0.155724 0.012469 0.070119 0.15155 0.003252 -0.071969 0.157402 -0.06635 -0.072398 0.026004 -0.136485 0.076075 0.056589 -0.064894 -0.249087 0.124056 0.065084 -0.085369 0.043376 -0.165438 -0.007667 0.039438 -0.106483 0.116727 -0.184719 -0.086273 0.029854 -0.045885 0.074966 -0.040103 0.001017 -0.194468 0.035261 -0.224162 0.096102 -0.025166 -0.050546 -0.067245
-0.029429 0.037654 -0.093839 0.126661 -0.039776 0.041818 0.033092 0.091947 0.094901 0.003831 -0.012158 -0.004886 -0.035885 0.087885 -0.065848 0.066256 0.288837 0.107403 0.104057 0.176158 0.050127 0.108265 -0.017981 0.027023 -0.172431 0.106677 0.197358 0.124833 0.007169 -0.192263 -0.010014 -0.075318 -0.087547 0.159623 -0.054422 -0.206869 -0.013889 -0.00302 -0.046114 0.142671 0.024166 -0.002883 -0.042809 -0.25313 -0.033892 -0.130242 0.034615 0.007823 -0.045194 0.172129 0.083531 -0.132435 -0.049901 0.110173 0.12214 -0.153838 0.057847 -0.02346 -0.236034 -0.038522 0.117039 -0.025274 -0.196461 -0.097943 0.013483 -0.126761 -0.011243 -0.069366 0.10897 -0.012921 0.037937 -0.247195 0.077401 -0.018415 0.021178 0.059383 -0.030939 0.068176 0.075878 -0.067617 0.073528 -0.254948 0.007268 -0.089997 0.127767 0.012203 -0.117119 0.113984 -0.00188 0.138588 -0.163714 -0.073541 -0.073757 0.225231 -0.067386 -0.121322 -0.061616 -0.002898 0.047261 -0.103104
0.0 0.0 0.0 0.0 0.0 0.0 0.0 0.0 0.0 0.0 0.0 0.0 0.0 0.0 0.0 0.0 0.0 0.0 0.0 0.0 0.0 0.0 0.0 0.0 0.0 0.0 0.0 0.0 0.0 0.0 0.0 0.0 0.0 0.0 0.0 0.0 0.0 0.0 0.0 0.0 0.0 0.0 0.0 0.0 0.0 0.0 0.0 0.0 0.0 0.0 0.0 0.0 0.0 0.0 0.0 0.0 0.0 0.0 0.0 0.0 0.0 0.0 0.0 0.0 0.0 0.0 0.0 0.0 0.0 0.0 0.0 0.0 0.0 0.0 0.0 0.0 0.0 0.0 0.0 0.0 0.0 0.0 0.0 0.0 0.0 0.0 0.0 0.0 0.0 0.0 0.0 0.0 0.0 0.0 0.0 0.0 0.0 0.0 0.0 0.0
-0.078588 -0.097971 -0.03746 0.035941 -0.053036 0.072905 -0.171685 -0.065452 -0.147951 0.009008 0.091456 0.123946 0.204973 -0.132621 -0.114572 0.031636 -0.070356 0.212192 0.097152 -0.032057 -0.207196 0.015671 0.227153 0.118136 0.003257 -0.048488 -0.184713 -0.021534 0.065763 -0.254562 -0.060238 -0.179866 -0.221621 0.07955 -0.084993 -0.021656 0.055303 -0.020881 0.056833 0.150228 0.006991 -0.108549 -0.050529 0.227405 0.08352 -0.189178 0.049666 0.010557 -0.264377 -0.119033 0.114633 -0.083072 0.061465 0.068739 -0.029806 -0.123115 0.006061 -0.00216 0.102131 -0.055328 -0.069119 -0.100321 -0.147187 -0.120857 -0.081965 0.110452 -0.02693 0.151699 0.21518 -0.215166 -0.018635 -0.005114 0.101098 0.07539 0.161219 -0.18379 -0.092865 -0.160566 -0.051634 -0.105156 0.128984 0.130935 0.00774 -0.100282 -0.217146 0.075741 -0.037717 -0.022984 0.242355 0.053557 -0.173115 0.118736 0.141811 0.447273 -0.129345 -0.11223 0.047031 -0.022653 -0.076437 0.01287
-0.128721 -0.020717 -0.03651 0.229706 0.051809 0.224327 0.123493 -0.038363 -0.063055 0.133587 0.069802 0.253002 0.135808 0.134685 -0.183566 0.161938 -0.071543 -0.060325 0.096975 0.111357 -0.135095 0.136486 -0.042982 -0.168204 0.178548 -0.135189 -0.098937 0.248464 0.105809 -0.012574 -0.092208 -0.148274 -0.138621 0.130555 -0.211548 -0.067794 0.168902 -0.138029 0.076011 -0.134448 0.043642 0.030261 0.118017 0.020174 0.104538 0.081722 0.022119 0.006976 -0.136463 0.003213 -0.13625 -0.119046 -0.15545 0.038575 0.011051 -0.096325 0.00649 -0.069671 0.152018 -0.110598 -0.075381 -0.047279 -0.020438 -0.09987 -0.090597 -0.122285 -0.03943 -0.115171 0.12068 -0.182765 0.094394 0.016552 -0.029941 -0.070159 -0.060483 0.024403 -0.015144 0.075776 -0.041238 0.116011 -0.063014 0.032542 -0.044304 0.078091 -0.118008 -0.041363 0.110233 -0.021164 0.091178 0.117985 0.072149 -0.036737 -0.172187 -0.081211 -0.091472 -0.030862 0.160934 0.157104 0.099529 0.069457
-0.14486 0.042445 0.035821 0.115572 -0.066611 0.005554 0.061734 0.005431 0.064381 0.263157 -0.175728 0.08706 -0.020624 -0.007216 0.181334 -0.043938 -0.053842 0.01781 -0.0147 -0.135309 -0.203958 0.023685 0.217575 0.082638 -0.143683 -0.057899 -0.044195 0.13201 0.198405 -0.154567 0.095425 -0.012018 -0.011304 0.034245 -0.044268 -0.023933 0.114571 0.208849 -0.111491 -0.213567 -0.044715 -0.018989 0.062111 -0.018797 0.077491 -0.129925 -0.0326 0.038792 -0.016729 -0.086311 -0.065634 -0.026807 0.077421 0.181373 -0.1041 0.132656 -0.286897 -0.003838 0.007893 -0.095975 -0.069202 -0.003663 0.00117 -0.136406 -0.117789 0.078426 0.026618 -0.037769 -0.010602 0.162271 0.01527 0.047645 -0.107258 0.138191 0.044915 -0.13003 0.013986 -0.137004 -0.03043 -0.064538 0.140956 0.144196 0.070032 0.095471 -0.043341 0.034344 0.01681 -0.005226 -0.003628 -0.192937 -0.115795 0.002477 -0.004742 0.014084 0.060466 -0.044955 -0.047538 0.048185 0.133765 0.07388
0.352905 0.550922 -1.128945 -0.511125 0.774489 1.405335 -0.371647 0.106012 -0.779785 -0.640302 -0.68578 1.570717 -0.712288 -0.706705 -0.789609 -0.045278 -1.599722 -2.840112 -0.089543 -1.158838 -1.862605 -0.62748 -0.063542 -0.468696 0.750564 0.033551 -0.772222 -0.188991 -0.163115 0.455978 0.038455 -0.779588 0.172303 -1.114448 -0.548246 -0.008155 1.66721 -0.744821 -0.15746 -2.668482 -0.304702 -0.905716 0.479063 0.151803 -0.94063 -0.044338 -0.906122 -0.456182 0.281891 0.268287 0.47007 0.628019 0.328428 1.471286 -2.345457 0.072073 -0.345477 -0.998199 -1.496897 -0.053061 0.351206 -0.934426 0.295591 0.07336 0.24092 0.486976 0.390085 -0.621556 0.375246 -0.02625 1.957847 1.014101 0.004675 0.08874 -0.900479 -0.462149 0.922254 1.355385 -1.048724 0.105897 1.254466 0.410718 0.321258 1.066395 -0.171761 -0.128774 0.315556 0.697301 -0.180925 0.555334 1.005586 -0.891677 -1.232923 -1.994189 -0.567812 0.204184 -0.947385 -0.051526 -0.987029 0.725141
-0.10612 0.163692 0.105359 -0.138329 0.239383 -0.15928 -0.121322 -0.046984 0.262521 0.113092 0.061599 0.008627 0.113736 -0.106165 -0.130631 -0.257569 0.159144 -0.128488 -0.140587 0.075967 -0.080148 -0.2176 0.149079 0.038873 -0.166963 -0.337443 0.139056 0.143331 -0.232781 -0.021646 -0.154697 -0.144504 0.079008 0.162852 -0.181747 -0.168812 -0.065055 -0.1785 0.314249 0.225026 -0.21882 0.099586 0.012012 0.100645 -0.354733 0.102387 0.174094 -0.092469 -0.013981 -0.056889 0.265602 0.053045 0.040513 -0.01695 -0.007934 -0.264468 0.250571 0.155643 -0.247916 0.008132 0.22182 -0.142392 -0.05713 0.158393 0.12585 0.1387 -0.086977 -0.096512 -0.068924 -0.042935 0.030499 -0.035487 0.261139 -0.149616 0.056959 -0.004838 0.367677 0.152263 -0.187161 0.010197 0.132851 -0.030878 -0.025279 -0.132706 0.001306 0.092219 -0.161102 -0.010758 0.1932 0.127197 0.232661 -0.254928 0.215236 -0.152908 -0.201771 -0.039888 0.030585 -0.133413 0.058938 -0.259669
1.519526 1.445578 -1.609499 2.582747 2.460795 3.529971 0.431498 -0.524736 0.238502 0.565084 -2.150664 2.607871 -3.578636 0.22885 1.205379 0.400126 -2.365878 -2.228676 -0.500047 -1.958516 -2.734259 -2.028213 -0.339577 -2.726884 0.003785 -1.85554 -0.90189 1.042933 0.930181 0.561229 0.956561 0.220468 -1.219533 -0.188243 -0.649085 -0.117874 2.101841 -0.317004 1.300647 -1.49228 0.533457 -2.976113 -0.635474 -1.431524 -0.943268 0.543614 -2.072507 -1.004219 4.072807 -1.496014 2.612373 2.458477 -0.120651 0.418572 -2.53177 0.646754 2.04053 2.0667 -2.403623 -3.037353 -1.289071 1.269349 0.447478 0.512568 0.464348 -0.142416 -1.155552 0.32258 -0.986119 3.909852 3.839548 0.865499 -1.089316 -1.400134 0.517204 -3.398406 -0.576028 -0.612853 -0.573641 -1.979957 1.278503 1.159562 0.583915 -0.210028 0.851463 1.075476 2.276915 0.114312 2.2836 1.968815 1.899569 0.001135 -2.286771 -2.666814 -1.408445 1.975128 -0.085175 1.44887 -1.994305 2.796178
0.156759 -0.069836 0.05418 -0.024715 0.056495 0.062231 0.07459 0.141016 -0.188914 0.068735 0.153471 0.015158 -0.232511 -0.032338 0.051971 0.056046 0.054589 -0.150627 -0.074157 -0.107783 0.00863 -0.007425 -0.067224 0.076062 -0.126569 0.04085 -0.025784 -0.117925 0.044882 -0.002761 -0.066657 0.135493 -0.116866 0.129824 0.217855 -0.025407 -0.012853 -0.158753 0.023647 0.012864 -0.040032 -0.005346 0.068616 -0.058817 0.053911 -0.015648 -0.019457 -0.133918 0.050333 -0.072024 0.117575 0.03964 -0.177565 0.118736 -0.044662 -0.071709 -0.062095 -0.022346 -0.126473 -0.241478 -0.086865 -0.070351 0.065599 -0.015032 -0.065406 0.106381 -0.049251 -0.063408 -0.056265 -0.039992 0.036461 0.081855 -0.110772 -0.264474 0.016735 0.012563 -0.042207 -0.040543 -0.009317 -0.053472 -0.061768 0.054219 0.093525 -0.097101 -0.052147 -0.058166 0.005769 0.172734 0.046511 0.12836 0.029146 -0.019302 -0.016471 0.07817 -0.073399 0.086936 -0.002938 0.143096 -0.146316 0.028281
1.035361 1.319725 0.388011 1.220811 -0.236045 1.447081 -1.78193 3.520004 0.063077 -1.681862 0.545208 0.767849 -1.479444 -1.152839 0.669301 0.685509 -2.946755 -2.239533 -1.187422 -1.793336 0.607402 0.130687 0.296681 -1.569517 1.825066 1.715849 -1.639836 0.849724 -1.742086 0.427502 3.84844 -1.377145 0.671096 -1.312902 -1.152387 0.705431 2.180344 2.97496 1.402098 -0.909545 -1.649212 -0.253421 1.186817 1.193823 3.167747 -0.387379 -0.12198 0.872223 0.13285 0.490844 0.029473 1.345032 0.297008 2.724698 -1.656047 -0.109585 1.500583 -1.148555 -3.658389 1.022988 -1.211381 0.342059 -0.023586 1.22536 -1.874871 -1.957746 -0.188066 -0.235303 -0.067175 1.107354 1.448404 0.838301 1.67396 -0.238039 -0.504146 -1.334739 0.688005 0.37731 -2.953094 0.650433 0.307563 -0.457962 -1.694326 2.40152 -0.816994 0.208705 1.853393 0.15935 -0.989952 1.089235 1.087388 -2.786835 -2.248864 -0.788939 0.405791 0.907533 -1.516669 1.970717 -0.345554 -0.134731
-0.259035 -0.03544 0.068662 0.233622 0.044005 -0.059957 -0.096752 0.009094 -0.07691 -0.001971 0.093255 0.009386 -0.032454 -0.126627 0.113945 0.314729 -0.03801 0.090597 -0.0126 0.009467 0.042303 0.080073 -0.035165 0.014249 -0.04233 0.009341 -0.096693 0.097912 0.095635 -0.104512 -0.173536 -0.098517 -0.040519 0.121149 -0.074563 -0.260754 0.132754 -0.305702 0.048906 7.24E-4 -0.004688 -0.062211 -0.157643 0.163787 -0.051187 -0.033076 -0.076364 -0.032618 -0.072498 0.128717 0.134201 -0.076602 -0.123722 0.083496 -0.028438 -0.183214 0.040369 0.0031 -0.033715 0.034729 -0.077765 -0.048612 -0.0688 -0.17546 -0.161476 0.108912 0.2117 -0.045156 0.084458 -0.266194 0.033087 0.178347 -0.02546 0.220646 0.003983 -0.205559 -0.152822 -0.086942 -0.068308 -0.084219 0.088495 0.168408 0.036985 -0.064849 0.133697 0.187529 0.036237 -0.085146 0.187172 0.188673 -0.158358 0.076023 -0.139607 -0.106972 0.089002 -0.125668 0.078949 0.10434 0.003305 0.044417
-0.26639 -0.104912 0.180519 0.043667 0.041207 -0.008381 0.035828 -0.02579 0.038929 0.035407 -0.045987 0.093855 0.05433 0.066768 0.181295 0.016569 -0.262033 0.088718 -0.019571 0.052693 0.009422 0.007749 -0.062198 0.035078 -0.170783 -0.109887 -0.051371 0.088142 0.135591 -0.010743 0.025514 -0.009047 -0.121579 0.186548 0.022521 0.036774 0.17183 0.066132 0.09254 0.082441 -0.088491 -0.081832 0.017962 -0.036285 -0.059927 0.038842 -0.0052 0.081773 -0.050056 0.091032 0.203915 -0.091347 -0.101425 -0.177557 -0.044136 0.113395 0.140815 -0.005832 0.068476 -0.192456 0.057304 -0.102904 -0.094204 -0.199142 -0.166277 -0.01435 2.05E-4 0.073523 0.121399 0.031439 0.010424 -0.100921 0.049779 0.0731 0.03039 -0.023583 -0.137003 -0.08019 -0.121996 -0.288955 -0.041308 0.110603 0.155086 -0.11951 -0.218402 -0.075287 0.015009 -0.113641 0.196042 0.012681 -0.131442 0.013214 0.01092 0.144369 0.024212 -0.179417 -0.032645 -0.112605 0.114788 0.0294
