0.174579 -0.136728 -0.051226 0.020722 -0.006999 0.182304 -0.026571 0.028348 -0.056181 -0.008225 -0.006719 0.123411 -0.116958 0.067063 -0.070431 0.036747 0.038718 0.027768 0.023312 -0.088689 0.061433 -0.020277 0.259541 -0.094786 -0.095916 0.094827 0.024537 -0.02138 0.088986 -0.222601 0.103167 -0.001705 -0.126386 0.084151 -0.211735 -0.029013 0.140156 -0.020962 0.053455 -0.191046 -0.124863 -0.041487 0.136145 0.105226 -0.015967 -0.183445 -0.047984 0.115111 -0.019542 0.13034 -0.027747 -0.056535 -0.108365 -0.105363 0.081886 -0.149182 -0.11381 -0.099116 -0.181035 -0.164047 0.046733 -0.125779 0.073804 -0.112401 0.07152 0.061743 0.019104 -0.098201 0.014577 0.063876 -0.025147 0.141799 0.106453 -0.019125 -0.084889 0.059635 -0.102028 0.054798 -0.039091 -0.147142 0.035738 0.191847 0.115855 -0.22498 -0.237968 0.006138 0.263927 0.028048 -0.051407 0.156325 -0.066949 -0.023049 0.193957 -0.012836 0.006804 -0.136759 -0.093368 0.121825 -0.030451 -0.039809
-0.19975 -0.163397 0.046376 0.108494 -0.086906 -0.079634 -0.174304 -0.190655 -0.16796 0.054171 0.073367 0.100495 0.028349 0.089697 0.084377 0.226077 -0.144981 0.170875 0.030617 -0.002744 -0.049142 0.147196 0.014105 -0.098415 -0.097857 -0.116433 -0.221617 -0.031682 0.328072 0.174668 0.066348 0.00991 0.088367 -0.047556 0.007861 -0.096847 0.029124 0.106336 -0.027728 0.071993 -0.012189 0.143203 -0.02933 0.062494 -0.056761 -0.120269 -0.12018 -0.017668 -0.062963 0.101128 0.16565 -0.026171 -0.079002 -0.131484 -0.015915 0.040522 -0.181151 -0.002836 0.057121 -0.107145 0.126391 -0.080741 0.019065 -0.07346 -0.064256 0.100005 0.14671 -0.007299 -0.060089 0.006398 0.030183 0.114927 0.121747 -0.032423 0.073375 -0.013173 -0.065432 0.056931 -0.211812 0.024416 -0.072059 -0.018436 0.023346 -0.02972 0.040747 0.006594 0.315286 0.127171 0.034984 0.125694 -0.126999 -0.159279 0.204473 0.190888 -0.115081 -0.166722 0.05582 -0.005334 0.014762 -0.26041
-0.100832 -0.167433 -0.119031 0.147797 -0.060857 0.140499 0.026217 -0.015529 0.097914 0.072034 -0.010395 0.141089 0.03838 0.288693 -0.026145 -0.015905 0.262325 0.421521 0.159128 -0.039899 -0.256428 0.037927 0.12642 -0.04462 0.109923 0.108894 0.036471 -0.024048 -0.024169 0.236302 -0.094764 -0.200841 0.170941 0.003365 -0.196706 0.109674 -0.147498 -0.063847 -0.015159 -0.029111 -0.059665 0.147561 -0.093747 -0.181297 -0.012656 0.044699 -0.201995 0.015078 0.025077 -0.121767 -0.035209 -0.011586 -0.14075 0.085552 0.238001 0.221622 -0.078504 -0.066647 -0.007938 0.032074 -0.098062 -0.083487 -0.077202 0.116878 0.022714 0.102248 -0.006895 0.145679 -0.071001 -0.086913 -0.052738 0.245814 -0.199754 -0.147096 -0.059824 0.230914 0.01784 -0.021653 -0.083645 -0.014564 -0.314664 0.053471 0.086973 -0.005627 0.058735 0.012083 0.043044 0.149242 0.040369 0.066221 -0.188978 0.059495 0.07716 0.057047 0.193879 -0.014052 -0.125065 0.017725 0.07135 0.074717
0.03048 0.007067 0.066437 0.110264 0.039294 0.28641 -0.091504 0.003767 0.105758 0.129142 0.177165 0.113921 0.17747 0.112849 0.118099 7.88E-4 -0.102701 0.143237 -0.009743 -0.058366 0.004019 0.091238 0.028345 0.035353 -0.063089 0.044144 -0.033796 0.063598 0.145833 0.03029 -0.038665 0.101491 -0.019263 0.069912 -0.004763 -0.186548 0.115663 -0.046041 0.133551 -0.038863 0.114932 0.127545 -0.086635 0.010162 0.169235 -0.142545 -0.054281 0.041189 -0.101893 -0.141725 0.230726 -0.149875 -0.062474 0.094772 -0.001916 -0.007034 0.094707 0.001199 0.27543 -0.082552 0.055239 -0.151701 -0.014898 0.022752 -0.09202 0.133973 0.008701 0.08961 -0.04152 -0.077138 0.030728 -0.127636 0.050314 0.006197 -0.100526 -0.135852 0.044598 -0.023529 0.083469 0.05779 -0.089943 0.106007 0.228453 -0.064187 0.02802 0.042907 0.057764 0.093516 0.109915 -0.125322 0.02987 -0.155376 0.002852 0.123995 -0.121056 -0.055451 -0.007149 0.060725 0.022712 0.037849
0.0 0.0 0.0 0.0 0.0 0.0 0.0 0.0 0.0 0.0 0.0 0.0 0.0 0.0 0.0 0.0 0.0 0.0 0.0 0.0 0.0 0.0 0.0 0.0 0.0 0.0 0.0 0.0 0.0 0.0 0.0 0.0 0.0 0.0 0.0 0.0 0.0 0.0 0.0 0.0 0.0 0.0 0.0 0.0 0.0 0.0 0.0 0.0 0.0 0.0 0.0 0.0 0.0 0.0 0.0 0.0 0.0 0.0 0.0 0.0 0.0 0.0 0.0 0.0 0.0 0.0 0.0 0.0 0.0 0.0 0.0 0.0 0.0 0.0 0.0 0.0 0.0 0.0 0.0 0.0 0.0 0.0 0.0 0.0 0.0 0.0 0.0 0.0 0.0 0.0 0.0 0.0 0.0 0.0 0.0 0.0 0.0 0.0 0.0 0.0
0.101145 0.15669 -0.075216 -0.012965 -0.172593 0.136055 -0.047106 -0.020894 -0.098427 0.177657 -0.027954 -9.77E-4 0.043696 -0.22642 0.134993 0.140644 -0.045135 -0.03132 -0.080121 0.077997 -0.134766 0.026247 0.013715 0.213535 0.06562 -0.033739 -0.007785 0.04712 0.109525 -0.055996 0.136015 -0.064471 -0.044764 0.046263 -0.023127 -0.082655 0.063356 0.062081 -0.051216 0.0961 -0.049368 -0.057214 -0.006612 -0.033743 -0.065137 -0.134565 -0.027695 -0.017369 -0.121104 -0.05514 -6.36E-4 0.068777 -0.099201 0.169947 0.036692 -0.39044 -0.070153 -0.037257 -0.029524 -0.054187 0.21618 -0.056195 -0.032832 -0.146839 -0.157263 0.008963 0.049732 -0.009567 -0.044956 -0.030138 0.173045 0.008961 0.075994 -0.071525 0.012238 -0.042978 -0.147955 -0.077704 -0.032304 0.057836 -0.162122 0.027784 0.22098 -0.080807 0.037609 -0.107201 0.106444 0.03943 0.047755 0.027214 -0.148785 -0.049889 0.073268 0.231671 -0.065024 -0.01688 -0.008576 0.07637 0.13363 0.001287
-0.076406 -0.100127 -0.232416 0.012887 0.157594 0.201507 -0.099088 -0.011303 -0.172642 0.015781 -0.014224 0.165784 0.011877 0.102927 0.124402 0.066357 -0.239772 0.012236 -0.025346 -0.039371 -0.049395 -0.161012 0.335282 0.127875 -0.051589 0.058899 -0.253514 0.069323 0.077275 0.063175 0.050303 0.018142 -0.040227 -0.089453 -0.036559 -0.123233 0.091025 -0.071215 0.103347 0.087254 0.072904 0.010095 0.165126 -0.147588 0.116606 -0.140354 -0.119898 0.018904 -0.092041 0.052399 0.022989 -0.013223 -0.047911 0.071431 -0.053143 -0.073292 -0.028873 -0.090654 0.024071 -0.027822 -0.074055 -0.073185 0.179461 0.008051 -0.060813 0.063534 0.101656 -0.058214 0.283243 -0.038787 0.014833 -0.065387 -0.154949 -0.044322 -0.065916 0.13015 -0.096562 -0.04366 -0.029025 -0.129169 -0.089413 0.153287 -0.132962 -0.003191 0.121974 -0.027895 0.160527 0.050522 0.032091 -0.208633 -0.11831 0.053393 0.067996 0.070655 -0.038391 -0.211943 -0.143158 -0.114363 -0.0679 0.071015
0.135717 -0.065497 0.02281 0.048052 -0.011836 -0.09375 0.0016 -0.035631 -0.026011 -0.016446 0.147576 0.093555 -0.033806 0.001119 0.136647 0.086354 -0.119676 0.293363 0.140583 -0.140273 0.092999 0.105554 0.007309 -0.047042 -0.138044 -0.144529 -0.090671 0.023305 0.042831 -0.089424 -0.009516 -0.050607 -0.11973 0.043476 -0.110033 -0.070775 0.210602 -0.044688 0.047415 0.07877 -0.058849 0.123783 -0.083304 0.146343 -0.016713 -0.014302 -0.083131 -0.029171 -0.052871 0.027786 -0.056479 -0.019677 -0.067362 0.060823 0.051262 -0.094924 0.099503 0.030649 0.106531 -0.086298 0.023543 -0.100214 0.036796 -0.033757 -0.018593 0.054249 -0.041703 -0.048402 0.151764 -0.052203 -0.028287 0.059596 0.03622 0.059919 0.042116 -0.083798 0.077838 -0.039275 -0.10326 -0.058138 -0.047792 -0.041267 0.071076 -0.034964 0.077873 0.115244 -0.016893 -0.059243 0.145701 -0.018047 -0.084552 -0.05323 0.136246 0.034465 0.051731 -0.033088 0.142559 -0.100828 -0.127029 -0.153227
0.01891 -0.060665 0.135969 0.183092 -0.055761 -0.076547 -0.222809 0.044102 -0.010539 0.189162 0.021543 0.105088 0.052464 0.106578 0.014072 -0.030556 0.001304 -0.009971 0.084897 -0.006616 -0.008994 -0.08879 -0.020135 0.107845 -0.014012 -0.087822 -0.084146 -0.025894 0.128106 -0.065299 -0.076678 -0.030183 -0.039492 -0.038769 0.035698 0.004731 0.135535 0.081022 -0.085718 -0.085159 0.051488 0.035486 -0.017824 0.205306 -0.150968 -0.046718 -0.089217 0.102943 0.009137 0.007239 0.210947 -0.084459 0.16431 0.077647 0.21221 -0.051225 0.111011 -0.059967 0.130746 0.149758 0.098683 -0.020428 0.132569 -0.058797 0.016501 -0.054702 0.116284 -0.152144 0.027769 -0.108143 0.051962 0.07111 0.045641 0.005755 -0.010936 -0.071829 0.061753 -0.077299 -0.123208 0.137011 -0.020861 -0.153239 0.054479 0.014044 0.059868 0.038198 0.029808 0.02053 0.145425 -0.259012 -0.029823 0.014488 0.015157 0.209326 0.003128 -0.199791 0.128203 -0.151176 0.138139 0.097779
0.036737 -0.032921 0.024463 0.001525 -0.14953 -0.081921 0.05195 0.033054 0.042371 0.187633 -0.169856 -0.043431 -0.173636 0.224604 -0.099043 -0.052621 -0.094147 -0.087315 -0.205223 0.126826 -0.051988 0.057934 0.007092 0.028646 0.030134 0.006318 0.118765 0.00841 -0.042876 -0.067148 -0.15148 -0.042306 0.047684 0.10077 -0.040846 -0.155266 0.173754 7.38E-4 -0.149543 -0.155015 0.042332 1.9E-5 0.164393 -0.109523 -0.01025 0.019395 0.060378 0.084138 0.12078 -0.042878 0.08194 -0.06976 0.047308 0.056745 0.006819 -0.026824 -0.156007 0.042841 -0.214906 -0.100455 0.001679 0.056153 0.00309 0.056995 -0.027269 0.054063 -0.021361 -0.118937 -0.039109 0.253888 -0.099679 0.068347 0.024916 0.004649 0.026359 0.067277 0.089904 -0.116294 -0.057639 -0.070171 0.238942 -0.101354 -0.104886 -0.195107 -0.268537 -0.124495 -0.010152 -7.27E-4 0.045996 0.182311 -0.129108 -0.070264 -0.013 0.100287 -0.131971 0.14376 -0.073632 0.262197 -0.055353 0.017675
0.174579 -0.136728 -0.051226 0.020722 -0.006999 0.182304 -0.026571 0.028348 -0.056181 -0.008225 -0.006719 0.123411 -0.116958 0.067063 -0.070431 0.036747 0.038718 0.027768 0.023312 -0.088689 0.061433 -0.020277 0.259541 -0.094786 -0.095916 0.094827 0.024537 -0.02138 0.088986 -0.222601 0.103167 -0.001705 -0.126386 0.084151 -0.211735 -0.029013 0.140156 -0.020962 0.053455 -0.191046 -0.124863 -0.041487 0.136145 0.105226 -0.015967 -0.183445 -0.047984 0.115111 -0.019542 0.13034 -0.027747 -0.056535 -0.108365 -0.105363 0.081886 -0.149182 -0.11381 -0.099116 -0.181035 -0.164047 0.046733 -0.125779 0.073804 -0.112401 0.07152 0.061743 0.019104 -0.098201 0.014577 0.063876 -0.025147 0.141799 0.106453 -0.019125 -0.084889 0.059635 -0.102028 0.054798 -0.039091 -0.147142 0.035738 0.191847 0.115855 -0.22498 -0.237968 0.006138 0.263927 0.028048 -0.051407 0.156325 -0.066949 -0.023049 0.193957 -0.012836 0.006804 -0.136759 -0.093368 0.121825 -0.030451 -0.039809
0.004577 -0.077139 0.186696 0.192622 -0.122348 0.03174 -0.059208 -0.298223 -0.097779 0.049746 0.056097 0.240002 0.071719 0.068956 -0.03834 0.26472 -0.088507 0.336059 0.024975 0.081693 -0.025406 0.2262 0.20086 0.182967 -0.13429 -0.16792 0.0705 -0.047265 0.121626 -0.07506 -0.205217 -0.175597 -0.136736 0.135177 -0.017349 -0.206152 0.013709 0.103611 -0.102685 0.017773 -0.08926 0.153647 0.011442 -0.040664 -0.047171 -0.118774 -0.005246 0.044751 -0.058672 0.046157 0.080276 -0.048172 -0.03771 0.11095 0.029518 -0.070148 -0.033146 -0.008512 0.039747 -0.12649 0.006828 -0.086185 -0.00663 0.04893 -0.134276 -0.039226 0.118615 -0.071338 0.039573 0.041567 0.005918 0.051412 0.031927 -0.147693 0.180613 -0.124274 -0.281498 -0.032309 -0.057821 0.051871 0.100375 0.153059 0.088905 -0.204906 -0.017154 -0.053508 0.201842 0.070378 0.354441 -0.029274 -0.23367 0.03927 -0.015055 0.260397 -0.070372 -0.104677 0.127208 -0.056051 -0.229486 0.026219
0.061869 -0.111893 -0.104704 0.038588 -0.027662 -0.150914 -0.082664 -0.087824 -0.0238 0.014632 0.239724 0.086829 0.086987 0.018041 0.205489 0.242158 -0.141868 0.09656 -0.018252 -0.010432 -0.037045 0.033473 0.177474 0.096608 -0.013109 0.094692 -0.046993 -0.013959 0.168963 -0.133854 -0.068923 0.034007 0.104908 0.150185 0.054569 -0.23316 0.063754 -0.050997 -0.021835 0.072243 -0.049167 -0.020543 0.013413 0.090295 0.003265 0.013871 -0.046153 -0.217645 -0.074171 0.106342 0.293804 -0.04259 -0.054993 -0.101248 -5.3E-4 -0.014684 -0.183755 0.036182 -0.021848 -0.04444 0.085862 -0.214131 -0.036174 -0.227309 -0.15702 -0.092573 0.016486 -0.070359 0.136976 -0.321065 0.010178 -0.065361 -0.019485 -0.058486 0.272975 -0.051299 0.059401 -0.079678 0.025382 -0.11111 -0.034027 -0.083333 0.001606 -0.151095 0.032154 0.069591 -0.198808 0.080249 0.108609 0.174773 -0.04599 -0.147645 -0.048645 -0.077721 -0.102518 0.049123 0.117885 0.09935 -0.084838 -0.206459
0.400334 -0.005717 -0.100227 0.144551 -0.429954 0.064191 -0.205345 0.070429 -0.094781 0.086761 -0.122258 0.136278 0.202322 -0.146372 0.057977 -0.232961 -0.003275 0.15694 -0.157654 0.237192 0.020287 9.54E-4 0.112531 0.154669 0.041378 -0.095541 -0.125854 0.248858 -0.100901 -0.205781 0.084816 -0.19054 -0.247548 0.05899 -0.12428 0.342685 -0.114292 -0.118341 0.033578 -0.17739 -0.149787 0.093875 -0.089946 -0.033698 0.111987 -0.211529 0.068838 0.060398 0.070619 -0.160641 -0.224035 -0.031498 0.112703 -0.002882 -0.244324 -0.043724 0.016674 -0.096552 0.06975 -0.26057 0.126634 0.035987 0.089952 0.104636 0.052463 0.02468 0.087311 0.025873 0.215434 -0.101129 0.105816 -0.218238 -0.091138 -0.225982 0.035176 -0.154522 0.012216 0.209217 -0.191416 0.042916 0.031414 0.184502 0.013583 -0.140949 0.069448 0.271609 0.023504 -0.065354 -0.232402 0.014519 -0.161084 0.210088 0.005642 0.156038 0.127019 -0.045198 0.081912 0.110852 0.140372 0.071726
-0.355547 -0.109787 -2.055126 0.839444 1.592105 1.750838 -1.62937 -0.311217 -1.129099 -0.823484 -0.55588 0.951222 -1.117573 -0.289065 -0.895517 2.202287 -0.661909 -1.6766 -0.486533 0.360222 -0.467223 -0.627957 1.386786 1.204164 1.085388 -0.66138 -1.898521 2.061689 0.886767 -0.161974 0.758239 -2.112221 -1.299941 1.443058 -0.065486 -0.173605 1.454085 -1.156886 3.743604 0.323008 -1.227411 -2.675763 0.565301 0.589028 -0.48076 -0.688074 -0.510322 0.001635 -1.025583 0.225798 0.127946 0.039461 0.143299 -1.007335 -1.536704 1.628386 -0.217522 -0.42883 0.853672 -0.813438 -0.458409 -0.636803 0.141393 0.178687 1.186972 -0.812238 -0.430678 -0.230549 -0.637437 -0.465646 0.961839 0.205122 -0.558696 -0.889203 -2.392014 0.192754 0.227327 0.520347 -1.805125 -1.474638 0.627641 -0.455912 0.358584 1.553994 -0.164334 0.052659 -0.576755 -0.697846 0.090415 0.770042 1.957542 0.927207 -2.507294 -1.859083 0.59264 -1.69777 0.251755 -1.337201 -0.694082 1.088784
0.0 0.0 0.0 0.0 0.0 0.0 0.0 0.0 0.0 0.0 0.0 0.0 0.0 0.0 0.0 0.0 0.0 0.0 0.0 0.0 0.0 0.0 0.0 0.0 0.0 0.0 0.0 0.0 0.0 0.0 0.0 0.0 0.0 0.0 0.0 0.0 0.0 0.0 0.0 0.0 0.0 0.0 0.0 0.0 0.0 0.0 0.0 0.0 0.0 0.0 0.0 0.0 0.0 0.0 0.0 0.0 0.0 0.0 0.0 0.0 0.0 0.0 0.0 0.0 0.0 0.0 0.0 0.0 0.0 0.0 0.0 0.0 0.0 0.0 0.0 0.0 0.0 0.0 0.0 0.0 0.0 0.0 0.0 0.0 0.0 0.0 0.0 0.0 0.0 0.0 0.0 0.0 0.0 0.0 0.0 0.0 0.0 0.0 0.0 0.0
0.061869 -0.111893 -0.104704 0.038588 -0.027662 -0.150914 -0.082664 -0.087824 -0.0238 0.014632 0.239724 0.086829 0.086987 0.018041 0.205489 0.242158 -0.141868 0.09656 -0.018252 -0.010432 -0.037045 0.033473 0.177474 0.096608 -0.013109 0.094692 -0.046993 -0.013959 0.168963 -0.133854 -0.068923 0.034007 0.104908 0.150185 0.054569 -0.23316 0.063754 -0.050997 -0.021835 0.072243 -0.049167 -0.020543 0.013413 0.090295 0.003265 0.013871 -0.046153 -0.217645 -0.074171 0.106342 0.293804 -0.04259 -0.054993 -0.101248 -5.3E-4 -0.014684 -0.183755 0.036182 -0.021848 -0.04444 0.085862 -0.214131 -0.036174 -0.227309 -0.15702 -0.092573 0.016486 -0.070359 0.136976 -0.321065 0.010178 -0.065361 -0.019485 -0.058486 0.272975 -0.051299 0.059401 -0.079678 0.025382 -0.11111 -0.034027 -0.083333 0.001606 -0.151095 0.032154 0.069591 -0.198808 0.080249 0.108609 0.174773 -0.04599 -0.147645 -0.048645 -0.077721 -0.102518 0.049123 0.117885 0.09935 -0.084838 -0.206459
-3.111451 -1.097816 -0.708848 0.3719 0.557646 4.473408 2.570452 -1.317564 3.500094 0.292153 2.736818 -1.15791 -2.033916 1.546392 -2.642146 -0.724147 -2.135307 -1.012875 -0.627488 -1.412465 -2.114168 0.285778 -0.757512 0.847603 -0.192975 0.041777 1.628874 -0.164979 1.796308 -0.407551 1.592383 -0.533838 -1.16788 3.70676 -3.695465 -0.890296 -1.298069 -2.179629 -0.557961 -2.954349 -1.233388 -2.814184 -1.422442 2.541631 2.241123 0.3199 -0.878194 0.840732 2.113489 -0.362061 1.232536 0.121984 0.44461 0.189656 -2.368154 0.700954 -0.204789 2.173295 1.662682 0.65977 2.452166 -2.963253 0.544639 1.268109 1.111436 0.772593 -3.531096 -1.812068 1.330313 3.273543 2.158901 1.851719 4.793502 -1.07867 -0.786565 -0.930172 1.289278 -0.025765 2.479807 -2.775456 2.280744 -1.958894 -2.405667 1.547439 1.161067 -0.033931 2.215222 0.452597 2.71108 1.192944 -0.23077 0.451142 -0.910827 -3.56153 -2.136022 -0.179215 0.811402 -0.134238 -2.176784 -2.696803
0.11752 0.081551 0.0936 0.08641 0.60707 -0.011842 -0.073599 -0.251984 0.248365 0.653659 -0.003695 0.275106 -0.33423 -0.459989 0.141284 0.276046 -0.662139 -0.26481 -0.171247 0.022711 -0.104172 -0.244387 0.316483 -0.077394 0.200551 0.064381 -0.255965 -0.055724 0.137597 0.095021 0.300985 0.087278 0.083496 -0.099994 0.047376 -6.58E-4 0.231717 -0.144593 0.054355 0.098774 0.285151 0.195694 -0.239271 -0.102359 0.024488 0.037606 -0.083783 -0.024512 0.162409 0.139432 0.054816 0.120929 -0.096705 0.215098 -0.069708 0.332749 0.196493 -0.068991 0.212432 -0.126032 0.375845 -0.065417 0.419379 -0.001067 0.224906 0.134951 0.204443 -0.094004 -0.009093 -0.06843 0.056679 0.060346 -0.492317 0.281791 -0.068231 0.099062 -0.236304 0.029767 0.217691 -0.043024 0.162971 0.09031 -0.388005 0.059224 -0.187857 0.231207 0.059115 -0.303454 -0.341425 0.123083 0.237167 0.244613 -0.216184 -0.237312 -0.198601 0.158972 -0.014881 -0.125342 -0.395068 -0.115908
-0.172782 -0.070309 0.040117 0.180325 -0.101198 0.030847 -0.035715 -0.072349 -0.135549 0.015693 -0.068738 0.19084 -0.123812 -0.032208 0.062518 0.109294 -0.065721 0.086424 0.101106 -0.027101 -0.131347 0.059589 0.214221 0.109907 -0.0618 -0.035208 0.002667 0.135327 0.07905 -0.205477 -0.135627 -0.028713 0.129589 0.181589 -0.114216 -0.183535 0.061437 0.018407 -0.042835 -0.017738 -0.071798 0.011358 -0.045776 0.161239 0.039898 -0.096866 0.024797 0.040146 0.066683 0.14602 0.012139 -0.079401 0.021672 0.012266 0.014078 -0.058259 -0.006959 -0.01806 -0.153682 -0.061983 0.019428 -0.084434 -0.010324 -0.226013 -0.081875 0.075968 0.006911 0.005661 0.079191 0.061927 0.030341 -0.055352 0.179532 0.007683 0.013131 -0.100686 0.02802 -0.030404 -0.141093 -0.090558 0.072587 0.090782 0.186827 -0.018 0.004474 0.017335 -0.046735 0.034821 0.028856 0.003204 -0.054245 -0.083203 -0.115851 0.065249 0.058964 0.030665 0.075109 -0.063058 0.004649 0.001585
0.166865 -0.033351 -0.013364 -0.059014 -0.095169 -0.021507 -0.126788 0.103728 -0.200711 -0.063152 0.044354 0.134222 0.002393 0.071524 0.209815 0.100187 0.025401 0.083631 0.120448 0.173878 -0.091184 0.033918 0.054121 0.121356 -0.168415 -0.048991 -0.209931 -0.016042 0.202225 -0.007166 -0.110802 -0.028926 -0.11468 0.016808 -0.064513 -0.05835 -0.015135 0.093734 0.167046 -0.014056 0.02555 -0.101082 -0.016676 -0.00246 -0.017495 0.184926 -0.038011 -0.106257 0.001132 0.03659 0.080797 -0.16487 -0.164051 -0.024617 0.144233 0.037146 0.064814 -0.135114 0.218106 -0.087954 0.024218 -0.008723 0.020657 -0.10933 -0.0401 -0.009808 -0.283523 0.179888 -0.016468 0.100665 -0.045627 0.125868 0.040189 0.113707 0.238166 -0.079786 0.009467 -0.061173 -0.064632 -0.277119 0.084403 -0.091058 0.212317 -0.16461 -0.095926 -0.049768 -0.09268 0.023356 0.096515 0.010373 -0.174271 -0.082788 -0.155016 0.104184 0.044246 0.051147 0.02525 -0.044468 -0.064392 -0.011243
-0.133171 0.07267 0.150127 0.017286 0.007353 0.163232 0.133741 -0.195195 -0.188102 0.003456 -0.2784 0.091006 -0.258535 -0.056465 0.392257 0.198061 -0.127876 -0.194359 -0.131834 0.07383 0.049799 0.034818 0.374566 0.162013 -0.04243 -0.121716 -0.155289 0.207693 0.163184 -0.18169 0.069944 -0.198635 0.006388 0.099751 -0.053914 -0.083748 0.214197 0.121498 -0.010874 -0.052318 0.043991 -0.08516 0.070206 0.087895 0.074792 0.027296 0.034846 -0.216629 0.010482 -0.103523 0.148766 -0.06199 0.036962 0.056296 0.001824 -0.002639 -0.095132 0.027857 -0.025811 -0.226189 0.066145 0.066684 0.013032 -0.038828 -0.107837 -0.053667 -0.074134 0.081482 -0.087255 0.308307 0.07753 0.05896 0.138613 0.003397 -0.067919 0.042912 0.280948 8.88E-4 -0.120076 0.06493 -0.108621 -0.165791 0.055443 -0.077234 0.022961 -0.060494 -0.002728 0.040448 -0.055311 0.050302 0.111676 0.085724 -0.137658 0.188317 0.120659 0.041778 -0.069715 -0.029423 -0.124513 0.053864
-0.13982 -0.070825 0.118315 -0.188916 -0.048283 -0.132856 -0.029281 0.019655 0.085709 0.086609 -1.09E-4 -0.165678 -0.168657 0.064968 0.117705 -0.089967 0.060461 0.154044 0.159206 -0.216385 -0.034292 0.002616 0.114454 0.012079 -0.101054 -0.066247 -0.019818 0.041505 0.08108 -0.193241 0.068194 0.076214 0.125376 -0.052328 0.091661 0.081679 -0.014446 0.060696 -0.224715 0.121678 0.111638 0.099933 -0.210582 -0.010916 -0.042724 -0.052161 0.059768 0.005555 -0.012583 0.011093 0.255467 -0.151262 0.143106 0.058177 -0.061392 0.09274 0.044614 -0.077992 0.039983 0.041117 0.050478 -0.036416 -0.244948 -0.113915 0.055078 0.070349 -0.061488 0.015295 -0.138233 0.021685 -0.017643 -0.02245 0.109452 0.020738 0.047203 -0.046728 0.127734 -0.069984 -0.010974 -0.151913 -0.108325 -0.106444 0.117066 0.045376 0.06448 0.087222 -0.020649 0.009947 0.146502 -0.081502 -0.023772 -0.027065 0.059738 0.169912 -0.134561 -0.043472 -0.114556 -0.049832 0.014935 -0.004474
0.101145 0.15669 -0.075216 -0.012965 -0.172593 0.136055 -0.047106 -0.020894 -0.098427 0.177657 -0.027954 -9.77E-4 0.043696 -0.22642 0.134993 0.140644 -0.045135 -0.03132 -0.080121 0.077997 -0.134766 0.026247 0.013715 0.213535 0.06562 -0.033739 -0.007785 0.04712 0.109525 -0.055996 0.136015 -0.064471 -0.044764 0.046263 -0.023127 -0.082655 0.063356 0.062081 -0.051216 0.0961 -0.049368 -0.057214 -0.006612 -0.033743 -0.065137 -0.134565 -0.027695 -0.017369 -0.121104 -0.05514 -6.36E-4 0.068777 -0.099201 0.169947 0.036692 -0.39044 -0.070153 -0.037257 -0.029524 -0.054187 0.21618 -0.056195 -0.032832 -0.146839 -0.157263 0.008963 0.049732 -0.009567 -0.044956 -0.030138 0.173045 0.008961 0.075994 -0.071525 0.012238 -0.042978 -0.147955 -0.077704 -0.032304 0.057836 -0.162122 0.027784 0.22098 -0.080807 0.037609 -0.107201 0.106444 0.03943 0.047755 0.027214 -0.148785 -0.049889 0.073268 0.231671 -0.065024 -0.01688 -0.008576 0.07637 0.13363 0.001287
-0.076406 -0.100127 -0.232416 0.012887 0.157594 0.201507 -0.099088 -0.011303 -0.172642 0.015781 -0.014224 0.165784 0.011877 0.102927 0.124402 0.066357 -0.239772 0.012236 -0.025346 -0.039371 -0.049395 -0.161012 0.335282 0.127875 -0.051589 0.058899 -0.253514 0.069323 0.077275 0.063175 0.050303 0.018142 -0.040227 -0.089453 -0.036559 -0.123233 0.091025 -0.071215 0.103347 0.087254 0.072904 0.010095 0.165126 -0.147588 0.116606 -0.140354 -0.119898 0.018904 -0.092041 0.052399 0.022989 -0.013223 -0.047911 0.071431 -0.053143 -0.073292 -0.028873 -0.090654 0.024071 -0.027822 -0.074055 -0.073185 0.179461 0.008051 -0.060813 0.063534 0.101656 -0.058214 0.283243 -0.038787 0.014833 -0.065387 -0.154949 -0.044322 -0.065916 0.13015 -0.096562 -0.04366 -0.029025 -0.129169 -0.089413 0.153287 -0.132962 -0.003191 0.121974 -0.027895 0.160527 0.050522 0.032091 -0.208633 -0.11831 0.053393 0.067996 0.070655 -0.038391 -0.211943 -0.143158 -0.114363 -0.0679 0.071015
-0.881416 0.309111 -0.69191 1.451894 -0.347549 -0.343868 0.805738 -1.77095 -2.916232 0.946793 -0.676629 -1.495462 -3.772348 0.023346 -0.002254 1.302988 -3.095001 -0.812749 -1.307371 0.651255 -1.764652 -2.335132 1.243694 -3.388856 0.366263 3.447577 0.255576 1.253381 -0.46441 0.423763 -1.078023 0.925175 -1.667307 -0.684766 -2.777677 2.894552 -0.696005 -0.633394 -3.639733 -1.695552 0.081449 -2.698459 -1.204619 0.320707 -3.771821 0.741806 -3.371368 3.065992 2.28341 0.8643 -2.230765 2.881926 -1.126603 1.391262 -0.116751 1.896763 -2.139688 -0.629848 -1.001224 -2.660161 -0.846113 0.490942 -1.995314 -1.300623 -1.949069 2.262386 0.94745 -1.94424 2.226337 -0.919071 0.261965 -1.000627 0.330037 2.453983 -0.99071 0.074714 -1.137889 3.346991 1.074988 1.192938 0.983321 -0.836326 1.37132 -1.546803 -2.293052 1.626772 -0.530167 0.248945 1.272817 2.532237 -1.408983 -0.999483 -3.238902 -1.416201 1.022711 -2.133163 -0.710195 -1.061345 -2.693438 -1.737305
2.639274 0.860779 1.914535 0.075096 -2.067821 0.868151 2.41574 -0.571041 1.339049 -1.281174 -0.433602 0.871327 -1.548308 0.966946 -0.786386 -0.714393 -0.087621 -1.306236 -1.047139 -0.923836 -2.264294 -2.588521 -1.458217 -1.134626 3.310679 -0.54589 2.199729 -1.371259 0.466074 -3.369755 1.958229 3.033066 0.421195 1.634074 1.586538 1.129434 3.1813 -0.503733 0.596682 -1.070617 2.576208 -4.845244 0.269594 -0.305141 -0.001004 0.927763 -1.411168 -0.369687 5.073754 1.296224 2.814874 2.86693 1.155716 1.341413 0.524913 -2.458242 1.601557 1.575213 -1.137998 -0.420681 -0.255038 -1.034292 0.758403 1.042079 -2.456706 0.577587 2.169803 -0.212162 -0.74104 -0.859061 4.336587 1.523722 -1.638986 -0.00237 0.544093 -2.246276 -2.027173 0.113195 -2.980508 2.742148 0.260742 0.054881 -3.011818 -0.787116 2.629465 2.104289 4.309555 2.458298 -0.916654 -0.451662 0.519842 0.217335 -1.218073 1.333352 0.545333 1.80372 -1.063515 1.367284 -4.092412 2.91449
0.100692 -0.157131 0.139302 0.123578 0.151543 0.178422 -0.012679 -0.103362 0.233611 0.029945 -0.033496 -0.02353 -0.150988 -0.078962 0.230475 0.006161 -0.201667 0.084881 -0.295978 -0.216595 -0.152078 -0.096403 -0.182565 -0.034674 -0.008271 0.123985 -0.225344 0.060741 0.064737 -0.027452 -0.020276 -0.040379 -0.062847 -0.021902 -0.155636 0.098869 0.118253 -0.054786 -0.035252 0.089718 -0.093516 0.108242 -0.165133 -0.010665 -0.002421 -0.171869 -0.111112 -0.041381 -0.044332 -0.069941 -0.02046 0.052983 -0.30701 0.053758 -0.133805 0.122561 8.2E-4 0.037855 -0.034898 0.091687 -0.127096 0.09488 -0.140734 -0.009746 -0.040595 0.12427 0.130515 0.010606 0.177229 0.063676 0.149195 0.026542 -0.108012 0.401386 -0.015993 -0.159563 0.171247 0.017552 -0.091249 -0.185777 0.041517 -0.021989 -0.300138 0.0411 -0.232056 0.111526 -0.051533 0.011578 0.198834 -0.128702 0.184857 -0.029913 -0.123641 -0.092647 0.286203 -0.109599 0.093666 0.015337 -0.091583 0.060957
-0.001889 -0.015376 0.011577 -0.079922 0.019615 0.005975 0.018085 -0.133459 0.07886 -0.019014 -0.010821 0.041669 -0.011128 0.097962 -0.060935 0.042309 0.015014 8.49E-4 -0.002449 0.038756 0.0685 -0.030124 0.021652 -0.079703 0.075875 -0.122727 0.144977 0.073106 0.120718 -0.115022 0.047765 0.225363 -0.061747 -0.035103 0.080005 0.064342 -0.011293 0.032618 0.076202 0.118833 0.299047 0.176216 0.148892 -0.105455 -0.022399 0.118571 -0.05437 -0.136016 -0.04767 0.112361 0.012505 0.001737 0.056998 -0.132972 0.205737 0.014869 0.130993 0.242588 0.100312 0.073252 -0.019374 -0.073147 -0.042245 -0.05193 0.119558 0.067972 -0.198268 0.013905 0.103121 -0.09962 -0.010563 -0.219254 -0.117595 0.0375 -0.028297 0.03039 -0.116152 0.021365 0.041774 -0.247365 -0.187561 -0.063496 -0.088808 -0.029223 0.057963 0.069802 -0.07258 -0.052825 0.064478 0.040761 0.149345 0.085248 0.239559 0.137326 -0.140966 0.005439 0.083517 -0.02486 -0.028184 0.111642
0.03048 0.007067 0.066437 0.110264 0.039294 0.28641 -0.091504 0.003767 0.105758 0.129142 0.177165 0.113921 0.17747 0.112849 0.118099 7.88E-4 -0.102701 0.143237 -0.009743 -0.058366 0.004019 0.091238 0.028345 0.035353 -0.063089 0.044144 -0.033796 0.063598 0.145833 0.03029 -0.038665 0.101491 -0.019263 0.069912 -0.004763 -0.186548 0.115663 -0.046041 0.133551 -0.038863 0.114932 0.127545 -0.086635 0.010162 0.169235 -0.142545 -0.054281 0.041189 -0.101893 -0.141725 0.230726 -0.149875 -0.062474 0.094772 -0.001916 -0.007034 0.094707 0.001199 0.27543 -0.082552 0.055239 -0.151701 -0.014898 0.022752 -0.09202 0.133973 0.008701 0.08961 -0.04152 -0.077138 0.030728 -0.127636 0.050314 0.006197 -0.100526 -0.135852 0.044598 -0.023529 0.083469 0.05779 -0.089943 0.106007 0.228453 -0.064187 0.02802 0.042907 0.057764 0.093516 0.109915 -0.125322 0.02987 -0.155376 0.002852 0.123995 -0.121056 -0.055451 -0.007149 0.060725 0.022712 0.037849
0.0 0.0 0.0 0.0 0.0 0.0 0.0 0.0 0.0 0.0 0.0 0.0 0.0 0.0 0.0 0.0 0.0 0.0 0.0 0.0 0.0 0.0 0.0 0.0 0.0 0.0 0.0 0.0 0.0 0.0 0.0 0.0 0.0 0.0 0.0 0.0 0.0 0.0 0.0 0.0 0.0 0.0 0.0 0.0 0.0 0.0 0.0 0.0 0.0 0.0 0.0 0.0 0.0 0.0 0.0 0.0 0.0 0.0 0.0 0.0 0.0 0.0 0.0 0.0 0.0 0.0 0.0 0.0 0.0 0.0 0.0 0.0 0.0 0.0 0.0 0.0 0.0 0.0 0.0 0.0 0.0 0.0 0.0 0.0 0.0 0.0 0.0 0.0 0.0 0.0 0.0 0.0 0.0 0.0 0.0 0.0 0.0 0.0 0.0 0.0
0.352905 0.550922 -1.128945 -0.511125 0.774489 1.405335 -0.371647 0.106012 -0.779785 -0.640302 -0.68578 1.570717 -0.712288 -0.706705 -0.789609 -0.045278 -1.599722 -2.840112 -0.089543 -1.158838 -1.862605 -0.62748 -0.063542 -0.468696 0.750564 0.033551 -0.772222 -0.188991 -0.163115 0.455978 0.038455 -0.779588 0.172303 -1.114448 -0.548246 -0.008155 1.66721 -0.744821 -0.15746 -2.668482 -0.304702 -0.905716 0.479063 0.151803 -0.94063 -0.044338 -0.906122 -0.456182 0.281891 0.268287 0.47007 0.628019 0.328428 1.471286 -2.345457 0.072073 -0.345477 -0.998199 -1.496897 -0.053061 0.351206 -0.934426 0.295591 0.07336 0.24092 0.486976 0.390085 -0.621556 0.375246 -0.02625 1.957847 1.014101 0.004675 0.08874 -0.900479 -0.462149 0.922254 1.355385 -1.048724 0.105897 1.254466 0.410718 0.321258 1.066395 -0.171761 -0.128774 0.315556 0.697301 -0.180925 0.555334 1.005586 -0.891677 -1.232923 -1.994189 -0.567812 0.204184 -0.947385 -0.051526 -0.987029 0.725141
-0.053044 -0.098579 0.153805 0.020748 -0.006039 0.042792 -0.063599 -0.036797 -0.032181 0.077805 0.107503 0.061913 -0.015086 0.034208 0.101807 0.06549 -0.037072 0.16974 -0.022944 0.012271 0.021331 0.068849 0.068195 0.112151 -0.106355 0.040838 -0.052889 -0.034675 0.079452 -0.054119 -0.048378 -0.034103 0.031947 0.116298 0.006423 0.003367 0.022412 -0.039345 -0.033898 0.053739 0.011625 0.1451 -0.002707 -0.097336 -0.020977 0.008861 -0.013381 0.053942 -0.118555 -0.011506 0.015944 -0.03021 -0.022479 -0.009598 0.101942 0.02082 -0.045721 -0.058835 0.100985 -0.046964 0.056754 -0.080555 -0.04221 -0.071694 -0.007446 0.034489 0.05324 0.111668 0.069721 -0.071575 -0.003502 -0.037487 0.027441 -0.088808 -0.044819 0.058927 -0.080941 -0.058404 0.019466 0.014092 -0.06903 0.068269 -0.042075 -0.134262 0.075102 0.073033 0.055451 0.099222 0.149695 0.005886 -0.061082 -0.021204 0.026334 0.017141 0.022538 -0.038947 0.018615 0.08089 3.69E-4 -0.027057
0.127044 0.04522 0.170557 0.197847 -0.032011 -0.030549 -0.038911 0.061856 0.154727 -0.083701 -0.048964 0.11023 0.150017 -0.157072 0.048836 -0.093021 0.001473 0.059607 0.011316 0.042303 0.062096 0.059292 -0.057001 0.116019 -0.076162 0.026444 -0.160763 -7.63E-4 -0.095763 0.076721 0.049383 -0.004756 -0.064103 0.036634 0.069373 -0.01112 -0.091185 0.073684 0.100887 0.138028 -0.116379 0.095718 0.049098 -0.166515 0.207191 -0.027012 -0.055476 0.169289 -0.147361 -0.021526 -0.107092 0.095293 -0.036906 0.167709 0.017644 -0.121407 0.024107 -0.042863 0.045088 0.131368 -0.032182 -0.039279 -0.12731 0.145719 -0.003819 0.064404 -0.077416 0.018089 0.1035 0.008875 -0.031101 -0.016521 0.056245 -0.038562 0.094138 0.044356 -0.075948 0.087261 -0.056573 -0.126255 -0.051394 0.044003 0.042023 0.06168 -0.093013 0.058644 0.006591 -0.084731 -0.039341 0.073961 -0.065886 -0.17555 -0.024203 0.02816 -0.162075 0.076576 0.094898 -0.072146 -0.062463 -0.101742
-0.136608 -0.112907 0.081887 0.115804 0.026589 -0.08471 -0.189474 -0.10426 -0.01937 0.055111 0.162671 0.076167 0.019677 -0.077347 0.007028 0.045989 0.006479 -0.004969 0.110901 -0.106953 -0.069564 0.031333 0.21694 0.143576 0.034481 0.005207 0.035557 -0.009004 0.033905 -0.160577 0.040863 0.005099 -0.115643 0.056054 -0.033253 -0.117239 0.077017 -0.050142 0.100461 0.04755 -0.038019 0.259106 -0.060564 -0.082436 -0.090527 -0.198785 0.001372 0.041888 -0.128054 -0.044035 -0.02194 0.200738 0.05202 -0.021051 0.029426 -0.07729 0.101381 -0.105408 -0.129003 -0.023282 0.224378 -0.161699 0.02309 -0.07691 -0.064309 -0.059395 0.153488 0.119233 -0.054759 -0.079308 0.114458 -0.053076 0.164733 0.087498 0.087374 -0.035829 0.055022 -0.194259 -0.125375 -0.04708 -0.063987 0.02919 0.118028 -0.024074 0.171808 0.001819 0.076589 0.020911 0.040461 9.81E-4 0.060272 -0.120208 -0.027782 -0.065936 0.097724 -0.025902 0.092415 0.004855 -0.24467 0.075145
0.035921 0.044006 -0.041087 0.045923 0.11486 0.091657 -0.134703 0.067704 -0.179971 9.43E-4 0.115089 0.086446 -0.195778 -0.041377 0.144411 0.070663 0.050673 -0.068756 -0.170502 0.074419 -0.041609 -0.012886 0.194753 0.080801 -0.100149 0.052385 -0.123323 0.09808 0.168779 -0.054431 -0.077236 0.146937 0.098696 0.1154 -0.099998 -0.097791 -0.100788 -0.301166 0.073453 0.074044 -0.208999 -0.043171 0.013785 0.073091 -0.053111 -0.092939 -0.127185 0.070022 0.080147 -0.007156 -0.025386 -0.013825 0.006077 0.148636 -0.005753 -0.023443 -0.047861 -0.060011 -0.035341 0.108214 0.099431 -0.170558 -0.027039 -0.206107 -0.040687 0.009126 0.141363 0.0169 -0.173301 0.225059 0.142689 0.164679 0.025707 -0.013744 0.066723 0.076411 -0.060868 -0.060411 0.144979 0.071495 -0.017427 -0.091595 -0.003676 -0.002334 0.019185 -0.004108 0.16325 -0.157031 -0.111803 0.031695 -0.11572 0.036403 -0.044024 -0.175905 -0.048256 -0.071706 0.065096 -0.141065 0.034124 -0.148347
-0.120275 -0.076624 0.060001 0.16806 -0.099074 -0.179 -0.138545 -0.046315 -0.153346 -0.013029 0.06142 0.100548 -0.052307 -0.083166 0.098766 0.303514 0.078996 0.09986 -0.114068 -0.063848 -0.002261 0.297448 0.251458 0.137863 -0.068201 -0.015344 -0.004984 -0.065486 0.205865 -0.073548 0.131509 0.089437 -0.064868 -0.074377 -0.033386 -0.048961 0.13246 0.014515 -0.140166 0.058029 -0.057859 0.061261 -0.025467 -0.037082 0.041226 -0.122018 -0.082621 -0.012521 0.038862 0.110036 0.17262 -0.110084 0.001906 -0.259051 0.146055 -0.013699 0.034776 0.073848 -0.020211 -0.078644 0.032437 -0.212562 -0.079578 -0.174384 -0.06224 -5.31E-4 -0.125005 -0.085579 0.122879 -0.004955 -0.219484 -0.163308 -0.336882 0.086699 -0.014117 -0.105441 -0.110134 -0.021006 -0.038278 -0.097487 -0.135202 0.045969 0.166956 -0.171197 -0.14435 0.013855 -0.032949 -0.034161 -0.050665 0.034896 -0.09674 0.05297 -0.165976 0.174622 -0.149682 -0.092368 0.033895 0.02091 -0.035898 -0.080623
1.519526 1.445578 -1.609499 2.582747 2.460795 3.529971 0.431498 -0.524736 0.238502 0.565084 -2.150664 2.607871 -3.578636 0.22885 1.205379 0.400126 -2.365878 -2.228676 -0.500047 -1.958516 -2.734259 -2.028213 -0.339577 -2.726884 0.003785 -1.85554 -0.90189 1.042933 0.930181 0.561229 0.956561 0.220468 -1.219533 -0.188243 -0.649085 -0.117874 2.101841 -0.317004 1.300647 -1.49228 0.533457 -2.976113 -0.635474 -1.431524 -0.943268 0.543614 -2.072507 -1.004219 4.072807 -1.496014 2.612373 2.458477 -0.120651 0.418572 -2.53177 0.646754 2.04053 2.0667 -2.403623 -3.037353 -1.289071 1.269349 0.447478 0.512568 0.464348 -0.142416 -1.155552 0.32258 -0.986119 3.909852 3.839548 0.865499 -1.089316 -1.400134 0.517204 -3.398406 -0.576028 -0.612853 -0.573641 -1.979957 1.278503 1.159562 0.583915 -0.210028 0.851463 1.075476 2.276915 0.114312 2.2836 1.968815 1.899569 0.001135 -2.286771 -2.666814 -1.408445 1.975128 -0.085175 1.44887 -1.994305 2.796178
-0.036533 0.013563 -0.034647 -0.132113 -0.039242 -0.013482 0.020767 -0.11202 -0.079659 -0.040964 0.244441 0.140079 0.029209 0.074709 0.06394 0.087049 -0.196787 -0.001982 -0.001555 -0.087163 -0.093588 -0.079858 0.082799 0.073034 -0.091428 -0.011185 -0.038456 -0.168148 0.102105 0.031218 -0.014456 -0.188875 -0.065162 0.219069 -0.085475 0.044953 0.31142 -0.067579 0.303383 0.023725 0.088575 0.216594 0.056095 -0.072324 -0.089656 -0.069528 0.241405 -0.05335 -0.10567 -0.030719 -0.075463 -0.328098 -0.020065 0.017881 0.068038 0.058327 0.101177 -0.072826 0.060275 0.010051 -0.067152 -0.154962 0.161106 -0.091476 0.048943 0.083592 0.072515 0.004668 0.169835 -0.008061 0.094833 -0.088206 0.012403 0.013592 0.016581 0.176515 0.133283 -0.124887 -0.017064 -0.100227 0.063188 -0.036814 -0.130537 -0.084606 0.116406 -0.005685 0.063041 0.025121 0.081439 -0.004796 0.045701 0.033883 0.025184 0.039506 -0.069342 -0.031487 -0.110908 -0.044808 0.118815 -0.088248
0.004577 -0.077139 0.186696 0.192622 -0.122348 0.03174 -0.059208 -0.298223 -0.097779 0.049746 0.056097 0.240002 0.071719 0.068956 -0.03834 0.26472 -0.088507 0.336059 0.024975 0.081693 -0.025406 0.2262 0.20086 0.182967 -0.13429 -0.16792 0.0705 -0.047265 0.121626 -0.07506 -0.205217 -0.175597 -0.136736 0.135177 -0.017349 -0.206152 0.013709 0.103611 -0.102685 0.017773 -0.08926 0.153647 0.011442 -0.040664 -0.047171 -0.118774 -0.005246 0.044751 -0.058672 0.046157 0.080276 -0.048172 -0.03771 0.11095 0.029518 -0.070148 -0.033146 -0.008512 0.039747 -0.12649 0.006828 -0.086185 -0.00663 0.04893 -0.134276 -0.039226 0.118615 -0.071338 0.039573 0.041567 0.005918 0.051412 0.031927 -0.147693 0.180613 -0.124274 -0.281498 -0.032309 -0.057821 0.051871 0.100375 0.153059 0.088905 -0.204906 -0.017154 -0.053508 0.201842 0.070378 0.354441 -0.029274 -0.23367 0.03927 -0.015055 0.260397 -0.070372 -0.104677 0.127208 -0.056051 -0.229486 0.026219
0.226987 -0.035836 0.041932 2.5E-4 -0.038814 -0.05458 0.018241 -0.074156 0.014142 0.063861 -0.064829 0.011951 0.062754 -0.070142 -0.024137 0.042474 0.024992 -0.066062 0.160076 0.107669 -0.041749 -0.038826 -0.07789 0.03426 -0.040822 0.075137 -0.041272 0.010432 0.075612 0.062213 -0.040321 0.057809 0.030201 0.125812 -0.04174 0.053276 -0.038319 -0.044342 0.061757 0.09174 -0.040079 0.065522 0.085593 -0.033281 -0.023967 0.00295 -0.142556 0.021687 -0.094734 -0.014526 -0.117396 0.049728 0.037194 -0.05541 -0.097567 -0.033477 -0.043133 -0.053671 0.003808 0.080905 0.008973 0.019761 -0.010541 -0.004033 0.05307 -0.110122 -0.013031 -0.074214 0.043119 0.049976 -0.137243 -0.071266 -0.056797 0.055959 0.091102 0.102959 -0.170027 -0.019287 0.00914 -0.077058 -0.067616 -0.025266 0.018294 -0.05862 -0.041032 0.065922 0.106957 0.02821 -0.085747 0.055956 -0.073579 0.032359 -0.022346 0.077635 -0.041721 -0.060995 -0.051509 0.090421 0.102977 -0.019773
-0.069159 -0.027833 -0.003239 0.054753 -0.103123 0.026747 -0.026075 -0.135114 -0.013364 0.157431 0.006557 0.083933 -0.071533 0.025515 -0.044166 0.208472 -0.037189 0.053885 -0.027483 0.079925 -0.145532 0.069296 0.116436 -0.018744 0.004142 -0.037588 -0.064473 0.059549 0.175459 -0.069095 -0.054609 -0.100185 -0.122934 0.021899 -0.158521 0.010062 0.09297 -0.039998 0.004662 -0.025748 -0.037249 0.030709 0.047603 -0.00714 0.005286 0.008724 -0.056686 -0.057773 -0.181348 0.043071 -0.010797 -0.080771 -0.081015 -0.086426 -0.014991 -0.052765 0.112725 -0.099316 0.065974 -0.087692 -0.059407 -0.013112 -0.104484 -0.151371 0.01025 0.010907 0.115989 0.140221 0.089452 -0.115562 -6.75E-4 -0.118789 -0.074383 0.034438 0.020424 -0.059134 -0.126158 -0.012108 -0.108836 0.013363 -0.09303 0.025614 0.037865 -0.023423 -0.09503 0.047697 0.015522 -0.051912 0.223283 -0.036177 -0.141672 -0.046233 -0.053984 0.19976 0.021005 -0.107931 0.071409 0.030154 0.090067 -0.002575
0.0 0.0 0.0 0.0 0.0 0.0 0.0 0.0 0.0 0.0 0.0 0.0 0.0 0.0 0.0 0.0 0.0 0.0 0.0 0.0 0.0 0.0 0.0 0.0 0.0 0.0 0.0 0.0 0.0 0.0 0.0 0.0 0.0 0.0 0.0 0.0 0.0 0.0 0.0 0.0 0.0 0.0 0.0 0.0 0.0 0.0 0.0 0.0 0.0 0.0 0.0 0.0 0.0 0.0 0.0 0.0 0.0 0.0 0.0 0.0 0.0 0.0 0.0 0.0 0.0 0.0 0.0 0.0 0.0 0.0 0.0 0.0 0.0 0.0 0.0 0.0 0.0 0.0 0.0 0.0 0.0 0.0 0.0 0.0 0.0 0.0 0.0 0.0 0.0 0.0 0.0 0.0 0.0 0.0 0.0 0.0 0.0 0.0 0.0 0.0
-0.057061 0.011149 0.001734 -0.020052 -0.017081 0.013941 0.008496 0.040012 -0.075553 -0.197986 0.032026 0.009435 -0.106191 0.031608 -0.012292 0.318777 -0.009516 -0.046213 -0.090637 0.038706 0.125612 0.062519 0.195047 0.098049 -0.113457 0.018712 0.148141 0.00787 0.09623 0.031306 -0.025809 -0.115358 0.020562 0.167505 -0.102459 -0.100414 0.084804 -0.172228 -0.012478 -0.127311 -0.113151 -0.111403 -0.074078 0.173185 -0.120525 -0.012161 0.115619 -0.203002 0.041297 0.110835 0.020572 0.050428 0.01241 -0.140832 -0.056825 -0.093047 -0.02145 0.144323 0.136851 0.055992 -0.155845 -0.053673 -0.234939 -0.072383 -0.151869 -7.4E-5 0.057808 -0.039778 -0.022082 0.043285 0.041492 -0.033646 0.043119 0.108812 -0.009271 0.050276 -0.031341 0.11336 -0.027364 -0.130399 -0.201851 -0.043934 0.247729 -0.166567 0.0175 0.063581 0.069506 0.032938 0.097215 -0.033042 0.019769 -0.002347 -0.087393 0.197666 -0.235837 0.057836 0.087323 0.156435 -0.17795 0.171984
2.639274 0.860779 1.914535 0.075096 -2.067821 0.868151 2.41574 -0.571041 1.339049 -1.281174 -0.433602 0.871327 -1.548308 0.966946 -0.786386 -0.714393 -0.087621 -1.306236 -1.047139 -0.923836 -2.264294 -2.588521 -1.458217 -1.134626 3.310679 -0.54589 2.199729 -1.371259 0.466074 -3.369755 1.958229 3.033066 0.421195 1.634074 1.586538 1.129434 3.1813 -0.503733 0.596682 -1.070617 2.576208 -4.845244 0.269594 -0.305141 -0.001004 0.927763 -1.411168 -0.369687 5.073754 1.296224 2.814874 2.86693 1.155716 1.341413 0.524913 -2.458242 1.601557 1.575213 -1.137998 -0.420681 -0.255038 -1.034292 0.758403 1.042079 -2.456706 0.577587 2.169803 -0.212162 -0.74104 -0.859061 4.336587 1.523722 -1.638986 -0.00237 0.544093 -2.246276 -2.027173 0.113195 -2.980508 2.742148 0.260742 0.054881 -3.011818 -0.787116 2.629465 2.104289 4.309555 2.458298 -0.916654 -0.451662 0.519842 0.217335 -1.218073 1.333352 0.545333 1.80372 -1.063515 1.367284 -4.092412 2.91449
0.124163 -0.108025 0.080177 0.201129 0.064997 0.00291 -0.118629 0.05812 -0.105918 -0.083664 -0.008031 0.113392 -0.065957 -0.052616 0.046459 0.090641 0.023913 -0.066431 -0.066816 -0.017118 -0.008254 0.083262 -0.008613 0.042121 -0.044476 -0.047273 0.012092 -0.057745 0.09025 -0.226699 0.010546 0.070738 0.143097 -0.139673 0.080863 0.082349 -0.226874 0.091202 -0.112369 0.04834 -0.112233 -0.084539 -0.051783 -0.222232 0.173448 0.031238 0.150921 -0.229681 -0.100333 -0.1031 0.015307 -0.275189 -0.069642 -0.082814 0.127326 0.156302 -0.116402 -0.029552 -0.155967 0.010843 -0.099545 -0.002197 0.017184 -0.091472 -0.011367 -0.071028 -0.090594 -0.098156 0.02436 0.125602 -0.011356 0.094211 -0.134011 0.054961 0.019922 -0.054168 -0.001421 -0.050757 0.008425 -0.067389 -0.057119 -0.011763 0.100349 -0.195981 -0.042237 -0.043334 0.086582 0.003854 0.093561 0.020049 -0.09211 -0.013682 0.040694 -0.101484 -0.048768 0.035387 0.034679 -0.127314 -0.130703 0.063141
0.0 0.0 0.0 0.0 0.0 0.0 0.0 0.0 0.0 0.0 0.0 0.0 0.0 0.0 0.0 0.0 0.0 0.0 0.0 0.0 0.0 0.0 0.0 0.0 0.0 0.0 0.0 0.0 0.0 0.0 0.0 0.0 0.0 0.0 0.0 0.0 0.0 0.0 0.0 0.0 0.0 0.0 0.0 0.0 0.0 0.0 0.0 0.0 0.0 0.0 0.0 0.0 0.0 0.0 0.0 0.0 0.0 0.0 0.0 0.0 0.0 0.0 0.0 0.0 0.0 0.0 0.0 0.0 0.0 0.0 0.0 0.0 0.0 0.0 0.0 0.0 0.0 0.0 0.0 0.0 0.0 0.0 0.0 0.0 0.0 0.0 0.0 0.0 0.0 0.0 0.0 0.0 0.0 0.0 0.0 0.0 0.0 0.0 0.0 0.0
-0.012683 0.127902 -0.124641 -0.142734 -0.024095 0.099038 -0.154157 -0.040035 -0.176223 0.071298 0.106111 0.09183 -0.077713 -0.030315 0.044314 0.177385 5.19E-4 0.308422 -0.062428 0.047581 -0.08567 0.105532 0.182221 0.011012 -0.126774 -0.0821 0.008487 0.195786 0.18747 0.022831 0.005751 -0.002476 -0.267944 0.135727 -0.030776 -0.037924 0.112185 -0.133358 -0.037555 0.034642 0.116223 0.018911 0.104795 0.119776 -4.97E-4 -0.055028 0.054481 -0.010994 -0.026698 -0.011973 0.096777 -0.071652 -0.037439 0.06456 0.173527 -0.171525 -0.026431 0.001409 0.034247 -0.025106 0.007001 -0.074577 -0.103096 -0.149736 -0.030636 0.062231 0.103592 -0.052537 0.055556 -0.129013 0.045424 -0.009556 -0.071696 -0.113066 -0.021663 -0.017693 0.01129 0.002326 0.07706 -0.13136 0.108565 0.060182 0.10359 -0.238421 0.047896 0.159335 0.011991 0.041359 0.181111 0.085639 -0.158514 -0.140183 0.052232 0.120771 -0.213506 -0.031931 -0.029931 -0.032429 -0.003078 -0.050342
-0.032258 -0.018216 0.084218 0.137079 0.07494 0.010693 -0.06759 0.015317 -0.028708 0.011758 0.005003 0.100863 0.024456 -0.119398 0.024284 0.143376 0.075431 -0.069767 0.022475 -0.018492 -0.101328 0.026879 0.074612 0.151187 -0.048297 -0.022602 0.134806 0.103482 0.183131 -0.332765 -0.096346 -0.062758 0.04555 0.174304 0.033256 -0.061823 0.034594 0.059245 -0.028448 0.007123 0.027663 -0.097076 -0.119193 0.071519 0.152655 0.207365 0.133892 0.102038 -0.014352 -0.103142 0.196944 0.020007 -0.022444 0.205441 0.258657 -0.180489 0.017867 -0.180154 -0.005264 -0.139387 0.018772 -0.118449 -0.021569 -0.082867 -0.173894 0.028285 -0.02639 -0.068446 0.009798 0.071408 -0.107288 -0.030864 -0.105211 -0.055785 0.12737 -0.009214 0.164603 -0.008871 -0.06811 -0.033108 -0.154667 -0.033676 0.035083 -0.047649 0.045336 -0.070942 0.006486 -0.008822 0.165403 -0.12703 -0.068671 -0.090951 -0.089883 0.132506 -0.061187 -9.3E-5 0.001586 0.066745 -0.099408 0.075028
-0.080481 -0.009962 0.189838 -0.007768 -0.011631 -0.085393 -0.105126 -0.050759 0.002763 -0.020935 0.112363 0.264969 0.093886 -0.058001 0.051243 0.184558 0.15713 0.088501 -0.061186 -0.152251 -0.120184 -0.060814 0.124666 -0.01098 -0.081197 -0.086006 0.162646 -0.032732 0.04484 -0.064173 -0.055515 -0.007416 -0.150223 0.056606 -0.072742 -0.101007 0.012109 0.047957 0.101941 -0.038072 -0.066684 -0.063196 -0.064034 -0.118065 0.037895 -0.114178 -0.125067 0.146901 -0.103011 0.059141 0.101024 0.085854 0.039939 0.045696 0.100446 -0.01436 -0.041022 0.008895 0.044074 0.014132 0.08056 -0.121519 -0.142957 -0.111898 -0.158276 -0.132436 0.084798 -0.078358 -0.002545 -0.183637 -0.036174 -0.026154 0.105649 0.057 -0.10449 0.043871 -0.101479 0.03689 -0.005021 -0.023944 0.057124 0.233154 0.1503 -0.056377 -0.107714 -0.007474 -0.065833 0.081137 0.193942 -0.018544 -0.047915 -0.034444 0.032945 0.005585 -0.120075 -0.104482 0.035381 -0.149944 0.025046 0.082279
-0.007027 -0.141752 -0.056677 -0.141015 0.198299 0.089064 -0.004255 0.141904 -0.062552 -0.08783 0.158097 0.061725 -0.079299 -0.138404 0.022841 0.203767 -0.009093 -0.041644 0.150112 -0.097071 -0.111478 0.13084 0.237076 -0.132706 -0.120667 -0.08614 -0.035819 -0.18279 0.062375 -0.076215 0.065329 -0.090597 -0.033162 -0.032387 0.116548 -0.053667 0.265789 0.104244 0.118399 -0.028552 -0.020001 -0.078637 0.227796 0.042127 -0.17352 0.066788 0.185133 0.15542 -0.066444 0.161347 0.108328 -0.07514 -0.015656 0.157912 0.028017 0.080115 0.029388 0.033096 0.123887 -0.082757 0.054185 -0.054458 -0.138001 0.061632 -0.020234 -0.129647 -0.016699 -0.017694 0.156437 0.011152 -0.018373 -1.68E-4 0.02578 -0.064791 -0.058016 0.220288 -0.069944 -0.003506 -0.006624 -0.140721 -0.055383 0.145472 0.07505 -0.147881 -0.099639 -0.008731 -0.018824 0.087563 0.021792 -0.170363 -0.131424 0.141896 -0.024361 -0.012488 -0.127052 -0.208713 0.006517 0.04657 -0.126676 0.112019
-0.128641 -0.183213 -0.025735 -0.034176 0.160712 -0.036422 -0.036115 -0.077515 -1.15E-4 0.064225 0.097519 0.040625 -0.15152 0.142198 0.188817 0.411136 0.084774 -0.074436 0.095654 0.155364 -0.112567 0.133825 0.171567 0.1377 0.038063 -0.058251 -0.102751 0.210723 0.240286 -0.112156 -0.168119 -0.042751 0.036296 0.040575 0.036436 0.039973 -0.04516 -0.110347 0.099325 0.109729 0.020007 -0.122481 0.010572 0.057796 0.002663 0.13818 -0.090978 -0.091819 0.047471 0.079869 0.133509 -0.122069 -0.185639 -0.09021 0.080296 0.081482 -0.16927 0.20784 -0.029878 -0.165858 -0.094827 -0.056128 -0.036886 -0.055492 -0.027106 -0.165992 -0.106628 -0.10127 -0.078411 0.062786 -0.055879 0.102041 0.023516 0.006048 -0.059012 0.085451 0.150937 -0.062654 0.01721 -0.277391 0.143405 -0.030187 0.034032 -0.211539 -0.170891 0.113003 -0.013435 -0.030922 0.083932 0.142354 0.136289 0.057324 -0.264924 -0.092581 0.063097 0.032443 0.025964 0.052933 -0.01686 0.10931
-0.671963 -1.356401 3.602218 0.823366 -0.502176 -0.026847 2.688116 0.953721 0.412325 -0.074957 -2.563688 0.379861 -0.279054 0.512633 -0.426346 -0.669122 -2.193019 -1.985633 1.195718 -0.843091 -3.07709 -2.336138 0.676971 -1.157188 0.84245 -0.067074 1.662677 -0.902702 0.573933 0.762577 1.605777 -0.494156 -0.764054 -4.857189 1.199538 0.081996 1.582965 -1.800896 1.133021 -2.874443 -0.067305 0.527258 -0.963475 2.056148 -0.810059 -2.590427 0.192699 -0.925293 0.533123 0.50128 0.198265 1.047486 -1.15476 -0.133629 -3.660616 2.9145 0.67414 -1.747608 -1.472014 0.506851 -0.089567 -1.009712 -0.989767 -0.231732 -1.20197 -0.899847 -0.180586 -0.280434 1.214359 0.601947 3.002038 1.452004 1.898121 0.64863 -0.773459 -0.546508 1.482508 0.349815 -0.022055 1.977613 1.349274 -0.187718 2.026595 2.419264 -2.256871 -0.764584 -0.110956 2.609596 -0.511332 0.497735 1.205947 -0.553892 0.146347 -2.201324 -0.117853 -0.193777 0.312823 3.388883 -4.036498 2.412019
-0.019706 -0.145242 -0.122787 -0.025671 0.145106 0.031524 -0.275041 -0.0709 -0.006053 0.073354 0.286241 0.343709 -0.212871 -0.07867 -0.045261 0.186722 0.170896 0.305223 0.354803 0.088141 -0.030515 0.042086 0.02879 0.169761 -0.133984 -0.226611 -0.123985 -0.004098 0.120111 -0.147155 -0.048636 -0.263586 -0.069398 0.071883 -0.039912 -0.213113 -0.020763 -0.006976 0.062398 0.013356 -0.004257 0.519273 -0.017954 0.199207 0.073616 -0.144031 -0.001655 -0.206376 -0.227646 -0.059971 -0.058292 -0.020765 -0.065085 -0.023748 0.090468 -0.073725 0.069063 0.114197 -0.326625 -0.26851 0.198798 -0.297594 -0.044988 -0.148157 -0.043126 -0.157496 0.180401 0.117417 0.023881 -0.20358 0.03505 -0.016076 -0.212179 0.099587 -0.052272 -0.092711 -0.058712 -0.012781 -0.036761 -0.098762 -0.078315 0.067382 0.034245 -0.093544 0.132454 -0.083435 0.121453 -0.149926 0.285521 0.124799 0.05276 0.04325 -0.05441 0.059682 -0.139771 0.157769 0.166039 0.23828 -0.0291 -0.129086
0.156696 -0.001803 -0.256788 0.276501 -0.079846 -0.084222 0.003242 0.10715 -0.104042 -0.108705 -0.060053 -0.023859 -0.044502 0.029932 0.053318 -0.142441 -0.31039 -0.141924 0.031567 -0.09979 -0.067343 -0.132928 0.051944 -0.08382 -0.092995 0.269139 -0.226536 -0.004344 0.181613 -0.145828 -0.02547 0.2787 -0.130449 7.4E-4 -0.176524 0.135239 -0.096878 0.065442 0.04818 -0.111916 0.185909 0.028599 0.174005 -0.1977 -0.02456 -0.025174 -0.175939 0.020805 -0.176832 -0.012226 0.310437 0.037553 -0.038398 0.087654 -0.158104 -0.013819 -0.169246 0.059754 0.036533 0.02821 0.015215 -0.267029 0.145448 -0.135708 0.201626 -0.036747 0.076586 -0.101661 0.071582 0.138712 -0.144416 0.001375 0.1856 -0.10997 0.055953 0.138638 -0.021906 0.359848 -0.073629 -0.031469 -0.13357 0.152931 -0.101978 0.020763 0.134931 -0.024115 0.179308 -0.081757 -0.140978 -0.065975 -0.16062 -0.041727 0.132574 -0.123236 0.072735 0.076844 -0.073489 0.110048 0.168445 -0.077372
-0.38434 -0.570338 -3.334123 -0.990325 -0.281295 3.633702 1.320934 0.804616 -0.499895 -0.831205 0.460112 1.388349 -2.264975 3.215568 -3.90167 1.353361 -1.448904 -2.546085 -1.024352 -1.734034 -1.344124 0.93203 0.532723 0.23208 -0.507331 0.823317 0.659701 0.36019 1.191168 -0.162178 -0.263719 -1.148898 -0.733443 1.049014 -0.463284 0.424462 1.721949 -2.279087 -0.239497 -3.509027 0.274708 -0.478871 -0.254635 1.092364 -0.333634 -0.504492 -0.065145 -0.538987 0.565458 0.780359 -0.571438 2.952173 0.370658 -0.759209 -2.924849 1.720769 0.511283 1.62778 2.047539 0.727555 2.155394 -1.325505 -0.576841 2.155423 -1.025197 1.359344 -0.744288 -2.504187 -1.775349 1.348846 2.846446 1.640962 1.869469 1.38429 0.797755 -0.790083 2.739745 1.110482 1.051984 -1.114181 2.453474 -0.002451 -1.249565 3.986771 0.736882 -1.32782 1.044597 0.12676 2.039398 0.327395 0.179204 -1.66492 -0.55174 -2.138355 -3.629091 -1.09422 -3.320013 0.282001 -1.758182 -2.017416
0.174579 -0.136728 -0.051226 0.020722 -0.006999 0.182304 -0.026571 0.028348 -0.056181 -0.008225 -0.006719 0.123411 -0.116958 0.067063 -0.070431 0.036747 0.038718 0.027768 0.023312 -0.088689 0.061433 -0.020277 0.259541 -0.094786 -0.095916 0.094827 0.024537 -0.02138 0.088986 -0.222601 0.103167 -0.001705 -0.126386 0.084151 -0.211735 -0.029013 0.140156 -0.020962 0.053455 -0.191046 -0.124863 -0.041487 0.136145 0.105226 -0.015967 -0.183445 -0.047984 0.115111 -0.019542 0.13034 -0.027747 -0.056535 -0.108365 -0.105363 0.081886 -0.149182 -0.11381 -0.099116 -0.181035 -0.164047 0.046733 -0.125779 0.073804 -0.112401 0.07152 0.061743 0.019104 -0.098201 0.014577 0.063876 -0.025147 0.141799 0.106453 -0.019125 -0.084889 0.059635 -0.102028 0.054798 -0.039091 -0.147142 0.035738 0.191847 0.115855 -0.22498 -0.237968 0.006138 0.263927 0.028048 -0.051407 0.156325 -0.066949 -0.023049 0.193957 -0.012836 0.006804 -0.136759 -0.093368 0.121825 -0.030451 -0.039809
0.004577 -0.077139 0.186696 0.192622 -0.122348 0.03174 -0.059208 -0.298223 -0.097779 0.049746 0.056097 0.240002 0.071719 0.068956 -0.03834 0.26472 -0.088507 0.336059 0.024975 0.081693 -0.025406 0.2262 0.20086 0.182967 -0.13429 -0.16792 0.0705 -0.047265 0.121626 -0.07506 -0.205217 -0.175597 -0.136736 0.135177 -0.017349 -0.206152 0.013709 0.103611 -0.102685 0.017773 -0.08926 0.153647 0.011442 -0.040664 -0.047171 -0.118774 -0.005246 0.044751 -0.058672 0.046157 0.080276 -0.048172 -0.03771 0.11095 0.029518 -0.070148 -0.033146 -0.008512 0.039747 -0.12649 0.006828 -0.086185 -0.00663 0.04893 -0.134276 -0.039226 0.118615 -0.071338 0.039573 0.041567 0.005918 0.051412 0.031927 -0.147693 0.180613 -0.124274 -0.281498 -0.032309 -0.057821 0.051871 0.100375 0.153059 0.088905 -0.204906 -0.017154 -0.053508 0.201842 0.070378 0.354441 -0.029274 -0.23367 0.03927 -0.015055 0.260397 -0.070372 -0.104677 0.127208 -0.056051 -0.229486 0.026219
0.101145 0.15669 -0.075216 -0.012965 -0.172593 0.136055 -0.047106 -0.020894 -0.098427 0.177657 -0.027954 -9.77E-4 0.043696 -0.22642 0.134993 0.140644 -0.045135 -0.03132 -0.080121 0.077997 -0.134766 0.026247 0.013715 0.213535 0.06562 -0.033739 -0.007785 0.04712 0.109525 -0.055996 0.136015 -0.064471 -0.044764 0.046263 -0.023127 -0.082655 0.063356 0.062081 -0.051216 0.0961 -0.049368 -0.057214 -0.006612 -0.033743 -0.065137 -0.134565 -0.027695 -0.017369 -0.121104 -0.05514 -6.36E-4 0.068777 -0.099201 0.169947 0.036692 -0.39044 -0.070153 -0.037257 -0.029524 -0.054187 0.21618 -0.056195 -0.032832 -0.146839 -0.157263 0.008963 0.049732 -0.009567 -0.044956 -0.030138 0.173045 0.008961 0.075994 -0.071525 0.012238 -0.042978 -0.147955 -0.077704 -0.032304 0.057836 -0.162122 0.027784 0.22098 -0.080807 0.037609 -0.107201 0.106444 0.03943 0.047755 0.027214 -0.148785 -0.049889 0.073268 0.231671 -0.065024 -0.01688 -0.008576 0.07637 0.13363 0.001287
0.086508 -0.207047 -0.197091 0.021004 -0.045945 0.108586 -0.103468 0.286188 -0.114469 0.028162 0.226828 0.087281 0.113369 -0.051167 -0.064187 0.21821 0.109739 0.011475 0.024056 0.01805 -0.094492 -0.002347 0.090354 0.067028 0.051237 -0.00144 -0.069097 -0.063352 -0.015349 -0.001828 -0.006946 -0.049898 -0.077758 -0.018526 0.027785 -0.288101 -0.035825 -0.048369 0.080624 0.12945 -0.01063 0.228305 -0.031417 0.076396 -0.120716 -0.119287 0.032134 -0.08186 0.034116 -0.016069 0.19381 -0.118881 -0.088925 0.115064 -0.055208 -0.162909 0.150587 0.040744 0.154398 0.15467 -0.059425 -0.007786 0.076112 0.058092 0.12584 -0.151347 0.066071 -0.002804 0.018975 0.006295 0.017121 -0.017264 0.08723 -0.02658 0.09842 -0.100288 -0.195384 -0.072144 0.024054 0.055585 -0.037072 0.004297 0.070694 0.006659 0.104434 0.008057 -0.051394 -0.062601 0.052688 0.032975 -0.207335 -0.166307 0.126911 0.002295 -0.129979 -0.00615 0.003277 0.055278 0.007664 0.119663
-0.135225 0.034289 -0.043185 0.106464 -0.012268 0.179434 -0.031425 0.03066 -0.15331 -0.089299 0.186111 0.053473 -0.190632 -0.04744 0.041314 0.119439 -0.146776 -0.024343 -0.237076 0.018889 0.040103 -0.033873 0.094554 0.08481 -0.042434 0.155633 -0.042588 0.218102 0.166261 0.041272 -0.131725 0.130792 -0.011621 0.141483 -0.019265 -0.214836 -0.058797 -0.062342 0.007188 0.006873 -0.078714 -0.313985 0.015466 0.034243 -0.01508 0.057313 -0.020592 0.194497 0.01443 0.077316 0.113326 0.074384 -0.099274 -0.240877 -0.12995 0.074709 -0.173331 0.073526 -0.081592 -0.256194 0.015111 0.035099 -0.043913 0.108272 -0.07415 0.007161 -0.21737 -0.214049 0.110842 0.158386 0.036878 0.063908 0.098494 0.203131 0.005445 -0.0582 -0.039611 0.103145 0.114089 0.15598 -0.039347 -0.035805 0.136621 -0.02417 -0.040707 -0.220386 -0.007625 -0.136979 0.006663 0.253954 0.159784 -0.090624 -0.065124 0.029583 -0.107635 0.001375 0.016625 0.03261 -0.034136 0.089861
-0.064896 -0.196794 0.143578 0.101575 -0.177518 -0.04359 -0.156896 -0.059369 -0.16471 0.125684 0.0269 0.157253 0.051718 0.077536 -0.118896 0.212877 0.119679 0.21554 0.117082 0.155959 0.021476 0.10147 0.140044 -0.006998 0.013094 -0.175582 0.08595 -0.018131 0.138468 -0.142036 -0.070371 0.039771 -0.15812 0.135029 -0.170863 0.020465 0.010313 -0.028697 0.068596 0.102927 -0.134365 0.067095 0.091666 0.164715 -0.121948 -0.273947 -0.084815 0.166316 -0.160316 0.112877 0.034992 -0.033464 -0.205972 0.111844 0.102094 -0.111932 0.070398 -0.018119 0.144124 -0.040443 0.157841 0.048866 -0.123314 -0.042892 0.131187 -0.023365 -0.022507 0.0988 -0.016925 -0.206059 -0.076688 -0.042382 0.121199 -0.019569 0.032009 -0.015987 -0.303357 -0.002857 -0.031879 -0.046333 -0.05447 0.159942 0.083551 -0.13417 0.018146 0.013018 0.076404 0.094329 0.226571 0.146319 -0.066522 -0.030941 -0.042562 -0.087484 -0.033203 -0.079904 0.363963 -0.020599 -0.061367 -0.085195
0.039715 -0.046228 0.029945 0.008739 0.191388 0.007417 -0.049903 0.151225 -0.096195 -0.048468 0.247249 -0.065735 -0.084102 -0.078711 -0.054218 0.186488 -0.144779 0.058616 -0.083753 0.025959 -0.015932 0.13498 0.170341 0.144862 -0.146179 -0.101651 -0.083484 -0.07311 0.197297 -0.124423 -0.069702 0.064253 -2.89E-4 0.054515 -0.004292 -0.067672 0.125435 -0.094424 0.063972 0.139423 -0.087856 -0.114893 0.122909 0.09463 -0.047012 0.120688 0.127904 0.037356 -0.019683 -0.034899 0.051662 -0.16529 -0.120363 0.047277 0.142503 -0.02119 0.057509 -0.0569 0.115999 -0.079738 -0.010127 -0.011754 -0.197187 0.040207 0.022673 -0.07547 -0.041961 0.094666 0.060468 -0.033385 -0.098161 -0.011101 0.069325 -0.003396 0.068909 0.006375 -0.118918 -0.022127 -0.10386 -0.136169 0.183288 0.058597 0.018504 -0.039823 -0.042346 0.041864 -0.044887 -0.018025 0.037951 0.033835 -0.288964 0.008459 -0.062176 -0.022852 -0.084179 -0.035595 0.035166 0.103569 0.050111 -0.020895
0.03048 0.007067 0.066437 0.110264 0.039294 0.28641 -0.091504 0.003767 0.105758 0.129142 0.177165 0.113921 0.17747 0.112849 0.118099 7.88E-4 -0.102701 0.143237 -0.009743 -0.058366 0.004019 0.091238 0.028345 0.035353 -0.063089 0.044144 -0.033796 0.063598 0.145833 0.03029 -0.038665 0.101491 -0.019263 0.069912 -0.004763 -0.186548 0.115663 -0.046041 0.133551 -0.038863 0.114932 0.127545 -0.086635 0.010162 0.169235 -0.142545 -0.054281 0.041189 -0.101893 -0.141725 0.230726 -0.149875 -0.062474 0.094772 -0.001916 -0.007034 0.094707 0.001199 0.27543 -0.082552 0.055239 -0.151701 -0.014898 0.022752 -0.09202 0.133973 0.008701 0.08961 -0.04152 -0.077138 0.030728 -0.127636 0.050314 0.006197 -0.100526 -0.135852 0.044598 -0.023529 0.083469 0.05779 -0.089943 0.106007 0.228453 -0.064187 0.02802 0.042907 0.057764 0.093516 0.109915 -0.125322 0.02987 -0.155376 0.002852 0.123995 -0.121056 -0.055451 -0.007149 0.060725 0.022712 0.037849
1.519526 1.445578 -1.609499 2.582747 2.460795 3.529971 0.431498 -0.524736 0.238502 0.565084 -2.150664 2.607871 -3.578636 0.22885 1.205379 0.400126 -2.365878 -2.228676 -0.500047 -1.958516 -2.734259 -2.028213 -0.339577 -2.726884 0.003785 -1.85554 -0.90189 1.042933 0.930181 0.561229 0.956561 0.220468 -1.219533 -0.188243 -0.649085 -0.117874 2.101841 -0.317004 1.300647 -1.49228 0.533457 -2.976113 -0.635474 -1.431524 -0.943268 0.543614 -2.072507 -1.004219 4.072807 -1.496014 2.612373 2.458477 -0.120651 0.418572 -2.53177 0.646754 2.04053 2.0667 -2.403623 -3.037353 -1.289071 1.269349 0.447478 0.512568 0.464348 -0.142416 -1.155552 0.32258 -0.986119 3.909852 3.839548 0.865499 -1.089316 -1.400134 0.517204 -3.398406 -0.576028 -0.612853 -0.573641 -1.979957 1.278503 1.159562 0.583915 -0.210028 0.851463 1.075476 2.276915 0.114312 2.2836 1.968815 1.899569 0.001135 -2.286771 -2.666814 -1.408445 1.975128 -0.085175 1.44887 -1.994305 2.796178
-0.076406 -0.100127 -0.232416 0.012887 0.157594 0.201507 -0.099088 -0.011303 -0.172642 0.015781 -0.014224 0.165784 0.011877 0.102927 0.124402 0.066357 -0.239772 0.012236 -0.025346 -0.039371 -0.049395 -0.161012 0.335282 0.127875 -0.051589 0.058899 -0.253514 0.069323 0.077275 0.063175 0.050303 0.018142 -0.040227 -0.089453 -0.036559 -0.123233 0.091025 -0.071215 0.103347 0.087254 0.072904 0.010095 0.165126 -0.147588 0.116606 -0.140354 -0.119898 0.018904 -0.092041 0.052399 0.022989 -0.013223 -0.047911 0.071431 -0.053143 -0.073292 -0.028873 -0.090654 0.024071 -0.027822 -0.074055 -0.073185 0.179461 0.008051 -0.060813 0.063534 0.101656 -0.058214 0.283243 -0.038787 0.014833 -0.065387 -0.154949 -0.044322 -0.065916 0.13015 -0.096562 -0.04366 -0.029025 -0.129169 -0.089413 0.153287 -0.132962 -0.003191 0.121974 -0.027895 0.160527 0.050522 0.032091 -0.208633 -0.11831 0.053393 0.067996 0.070655 -0.038391 -0.211943 -0.143158 -0.114363 -0.0679 0.071015
-0.076094 -0.125177 0.268777 0.080031 0.046874 -0.117273 0.054005 -0.044229 -0.05311 -0.072817 0.05301 -0.019455 -0.191376 -0.07825 0.13282 0.172158 -0.081733 0.111833 -0.045751 -0.145095 -0.046012 0.046645 0.141887 0.176136 -0.213094 -0.054854 -0.010207 0.092693 0.068499 -0.1694 -0.054 0.033305 0.002856 0.054712 0.042907 -0.007351 0.074227 -0.018459 0.165115 0.042153 -0.142693 -0.149174 0.140457 -0.002511 0.04367 -0.040157 -0.05802 -0.121621 -0.090128 0.078152 0.221849 -0.194177 -0.117129 -0.041425 -0.003289 0.046077 -0.044702 -0.011549 0.06011 -0.030559 -0.037705 0.034392 0.06461 -0.173934 -0.173424 -0.046227 -0.147467 0.059084 0.078415 -0.026759 -0.011484 -0.120463 -0.10253 0.054631 0.044064 0.011846 -0.012038 -0.033723 -0.047446 -0.181786 -0.0155 -0.068596 0.107438 -0.224851 -0.211342 -0.001678 -0.077963 -0.015455 0.062744 0.006104 -0.123383 0.009574 -0.087065 0.166047 -0.145776 -0.03045 0.008402 -0.010776 0.105832 0.037214
-0.067935 -0.051604 0.169497 0.069911 0.002771 0.024395 -0.165393 0.001525 -0.015943 0.056186 0.193742 0.13084 0.046294 0.150411 0.083977 0.093873 0.065303 0.193362 0.026806 0.016113 -0.013651 0.072494 0.101997 0.101245 -0.053162 -0.049122 -0.068687 -0.071321 0.084494 -0.093497 -0.085589 -0.045736 0.047039 0.150544 -0.095737 0.017532 0.022946 -0.057591 -2.7E-4 0.14099 -0.001092 0.137163 -0.075197 -0.0713 0.089549 7.25E-4 0.080986 0.001936 -0.059281 -0.144257 0.044117 -0.097451 0.084186 0.044383 0.100487 0.070878 0.017503 -0.086632 0.160314 -0.090568 0.104172 -0.089883 -0.031449 -0.011862 -0.097046 0.029356 0.130416 0.092513 0.059126 -0.052065 -0.027014 -0.067074 -0.036482 -0.100869 -0.012769 -0.02695 -0.098467 -0.089505 0.022276 0.084725 -0.055321 0.102413 0.041645 -0.193145 0.046459 0.067221 0.096221 -0.012148 0.214381 -0.023733 -0.038384 0.045905 0.029497 0.101358 -0.013367 0.015337 0.036496 0.084052 -0.024359 -0.10569
0.156696 -0.001803 -0.256788 0.276501 -0.079846 -0.084222 0.003242 0.10715 -0.104042 -0.108705 -0.060053 -0.023859 -0.044502 0.029932 0.053318 -0.142441 -0.31039 -0.141924 0.031567 -0.09979 -0.067343 -0.132928 0.051944 -0.08382 -0.092995 0.269139 -0.226536 -0.004344 0.181613 -0.145828 -0.02547 0.2787 -0.130449 7.4E-4 -0.176524 0.135239 -0.096878 0.065442 0.04818 -0.111916 0.185909 0.028599 0.174005 -0.1977 -0.02456 -0.025174 -0.175939 0.020805 -0.176832 -0.012226 0.310437 0.037553 -0.038398 0.087654 -0.158104 -0.013819 -0.169246 0.059754 0.036533 0.02821 0.015215 -0.267029 0.145448 -0.135708 0.201626 -0.036747 0.076586 -0.101661 0.071582 0.138712 -0.144416 0.001375 0.1856 -0.10997 0.055953 0.138638 -0.021906 0.359848 -0.073629 -0.031469 -0.13357 0.152931 -0.101978 0.020763 0.134931 -0.024115 0.179308 -0.081757 -0.140978 -0.065975 -0.16062 -0.041727 0.132574 -0.123236 0.072735 0.076844 -0.073489 0.110048 0.168445 -0.077372
0.005618 -0.063775 0.140838 0.041317 0.184821 0.091202 -0.017893 0.162129 0.007939 -0.358482 -0.18305 0.268387 -0.13832 0.084799 0.129093 0.19589 -0.170997 0.141055 0.210985 -0.096464 0.141904 -0.142419 0.089955 -0.122391 -0.01875 -0.148297 0.043442 0.242346 -0.208001 -0.057551 0.071382 -0.129551 -0.094814 0.14939 -0.075009 -0.137293 0.081659 -0.04073 0.00532 0.079523 -0.097085 0.111317 0.162628 0.369169 0.110272 0.162329 0.117905 0.068594 0.081526 0.01852 -0.193216 -0.214977 0.011929 -0.209763 0.130089 -0.23372 -0.124929 -0.018345 -0.133635 0.143442 -0.056251 -0.002006 -0.255382 -0.028011 0.062351 -0.1061 -0.048721 0.094724 0.039535 0.087913 -0.134523 -0.014754 0.045207 0.195282 -0.061976 -0.280744 0.306357 -0.231605 -0.001846 -0.155415 0.1032 0.200605 -0.048484 0.044925 -0.060805 -0.122534 0.125793 -0.024885 -0.045008 -0.081781 -0.211168 0.037529 -0.00555 0.364246 0.034764 0.205921 -0.113179 0.034761 -0.077934 0.144281
-0.001889 -0.015376 0.011577 -0.079922 0.019615 0.005975 0.018085 -0.133459 0.07886 -0.019014 -0.010821 0.041669 -0.011128 0.097962 -0.060935 0.042309 0.015014 8.49E-4 -0.002449 0.038756 0.0685 -0.030124 0.021652 -0.079703 0.075875 -0.122727 0.144977 0.073106 0.120718 -0.115022 0.047765 0.225363 -0.061747 -0.035103 0.080005 0.064342 -0.011293 0.032618 0.076202 0.118833 0.299047 0.176216 0.148892 -0.105455 -0.022399 0.118571 -0.05437 -0.136016 -0.04767 0.112361 0.012505 0.001737 0.056998 -0.132972 0.205737 0.014869 0.130993 0.242588 0.100312 0.073252 -0.019374 -0.073147 -0.042245 -0.05193 0.119558 0.067972 -0.198268 0.013905 0.103121 -0.09962 -0.010563 -0.219254 -0.117595 0.0375 -0.028297 0.03039 -0.116152 0.021365 0.041774 -0.247365 -0.187561 -0.063496 -0.088808 -0.029223 0.057963 0.069802 -0.07258 -0.052825 0.064478 0.040761 0.149345 0.085248 0.239559 0.137326 -0.140966 0.005439 0.083517 -0.02486 -0.028184 0.111642
0.162341 -0.102783 -0.028442 0.061075 -0.216581 0.106706 0.02853 -0.032283 0.068093 -0.130633 0.193091 0.110865 -0.029832 0.031807 0.121393 0.036244 -0.060879 -0.034152 -0.042765 0.090943 0.020449 -0.148476 0.302902 -0.131266 -0.072389 -0.023694 0.27184 -0.008157 0.001308 -0.18989 0.136689 -0.073772 -0.079325 -0.055735 0.216987 0.081451 -0.033584 -0.005166 -0.057831 0.01158 0.091817 0.108317 -0.175409 0.029888 0.1308 -0.062178 -0.029943 0.038948 0.075956 0.086876 0.070573 -0.038688 0.073981 0.182097 -0.120434 0.00669 -0.198732 0.127464 0.122785 0.107317 0.152806 0.078759 0.012193 -0.142342 -0.118283 0.114987 0.014062 -0.122747 -0.01477 0.445345 0.141965 -0.114602 -0.147742 0.065521 0.098222 0.167831 0.037391 -0.039743 -0.006801 -0.345095 0.009663 -0.16797 -0.005895 0.083778 -0.06777 0.032641 0.003042 0.005467 -0.109125 -0.015971 -0.128688 -0.106928 -0.219958 0.12942 -0.192383 -0.020141 0.055568 -0.010538 0.02407 0.038399
0.100342 -0.046996 0.118235 -0.195914 -0.062845 -0.00263 -0.049219 -0.025702 0.070879 -0.088164 -0.065009 0.03587 -0.089495 0.200695 0.197936 -0.134646 -0.082224 -0.070048 -0.145857 0.084524 -0.062734 -0.0729 0.007797 0.175391 -0.101227 -0.157721 -0.084787 0.070467 0.110842 0.121566 0.010786 0.118229 -0.061778 0.140583 0.236701 0.12967 0.077058 -0.126444 0.138968 0.008993 -0.082232 -0.142226 -0.252312 -0.076795 0.025792 0.126785 -0.198613 0.115954 0.031074 0.049458 -0.036227 -0.047244 -0.072856 -0.047129 0.072417 0.286561 -0.197108 0.154958 -0.024637 -0.143688 -0.172099 -0.056494 -0.036697 -0.030624 0.102039 0.094845 -0.130347 0.005958 0.05083 0.076224 -0.109301 -0.01604 0.056115 -0.1556 -0.06116 -0.096975 -0.078609 0.096475 -0.006104 -0.21483 0.140204 0.106451 -0.001017 -0.16566 0.049768 -0.057636 0.107731 -0.120294 -0.05759 0.026303 -0.024757 -0.006144 0.035358 0.009715 -0.044794 -0.222967 -0.004228 -0.028474 0.152531 0.056453
-0.028706 0.033732 -0.114421 -0.07457 0.127383 -0.072256 0.225561 0.060203 0.083158 -0.055015 -0.008016 -0.013805 -0.051516 0.044168 0.111501 0.025036 -0.238953 0.036993 0.171614 -0.137027 -0.117078 -0.077618 -0.049104 -0.008848 0.057426 -0.057326 0.059874 0.011163 0.064202 0.02249 0.115982 -0.050116 -0.037287 0.022451 0.317696 0.035591 0.023828 -0.193618 -0.051534 -0.084514 -0.011266 -0.085479 -0.049087 0.026278 0.053149 0.155973 -0.017962 0.090405 0.046952 -0.046551 0.079632 -0.054336 -0.079931 -0.02083 -0.19082 0.195755 -0.172548 -0.076107 -0.039663 -0.041625 -9.09E-4 -0.037134 -0.03562 -0.121145 -1.21E-4 -0.01738 0.076054 0.018905 0.018724 -0.037724 0.134652 -0.041302 0.140077 -0.048912 -0.024278 0.051511 -0.020874 0.112695 -0.215306 0.087446 0.074303 -0.127096 0.103432 -0.089674 -0.052799 0.058982 -0.081369 0.292689 -0.046317 0.05673 -0.017009 0.029554 -0.09257 0.016177 0.031009 -0.141385 -0.131271 0.186623 0.243762 0.077857
0.03048 0.007067 0.066437 0.110264 0.039294 0.28641 -0.091504 0.003767 0.105758 0.129142 0.177165 0.113921 0.17747 0.112849 0.118099 7.88E-4 -0.102701 0.143237 -0.009743 -0.058366 0.004019 0.091238 0.028345 0.035353 -0.063089 0.044144 -0.033796 0.063598 0.145833 0.03029 -0.038665 0.101491 -0.019263 0.069912 -0.004763 -0.186548 0.115663 -0.046041 0.133551 -0.038863 0.114932 0.127545 -0.086635 0.010162 0.169235 -0.142545 -0.054281 0.041189 -0.101893 -0.141725 0.230726 -0.149875 -0.062474 0.094772 -0.001916 -0.007034 0.094707 0.001199 0.27543 -0.082552 0.055239 -0.151701 -0.014898 0.022752 -0.09202 0.133973 0.008701 0.08961 -0.04152 -0.077138 0.030728 -0.127636 0.050314 0.006197 -0.100526 -0.135852 0.044598 -0.023529 0.083469 0.05779 -0.089943 0.106007 0.228453 -0.064187 0.02802 0.042907 0.057764 0.093516 0.109915 -0.125322 0.02987 -0.155376 0.002852 0.123995 -0.121056 -0.055451 -0.007149 0.060725 0.022712 0.037849
0.0 0.0 0.0 0.0 0.0 0.0 0.0 0.0 0.0 0.0 0.0 0.0 0.0 0.0 0.0 0.0 0.0 0.0 0.0 0.0 0.0 0.0 0.0 0.0 0.0 0.0 0.0 0.0 0.0 0.0 0.0 0.0 0.0 0.0 0.0 0.0 0.0 0.0 0.0 0.0 0.0 0.0 0.0 0.0 0.0 0.0 0.0 0.0 0.0 0.0 0.0 0.0 0.0 0.0 0.0 0.0 0.0 0.0 0.0 0.0 0.0 0.0 0.0 0.0 0.0 0.0 0.0 0.0 0.0 0.0 0.0 0.0 0.0 0.0 0.0 0.0 0.0 0.0 0.0 0.0 0.0 0.0 0.0 0.0 0.0 0.0 0.0 0.0 0.0 0.0 0.0 0.0 0.0 0.0 0.0 0.0 0.0 0.0 0.0 0.0
-0.055181 -0.092678 -0.022107 0.08712 -0.101184 -0.177112 -0.076408 0.006569 -0.135864 0.009218 0.149526 0.046041 -0.184596 0.105353 0.061596 0.159773 0.012365 0.006049 0.17019 0.058319 -0.103075 0.189919 0.142835 0.068681 -0.163124 -0.217384 -0.080896 0.041775 0.206721 -0.18616 0.081685 0.031375 -0.142672 0.057867 -0.038573 0.077913 -0.002953 -0.079231 0.019953 0.061209 0.033035 -0.076174 -0.019854 0.086351 0.163353 -0.029554 0.045185 0.008684 -0.035896 0.170436 0.106 -0.230473 -0.114574 -0.054562 0.179283 0.124264 -0.021861 -8.14E-4 0.010991 -0.082285 -0.061133 -0.209933 -0.042535 -0.24434 -0.052061 0.055039 -0.0765 0.011459 -0.186665 0.108366 0.004851 0.039243 -0.054653 -0.003782 0.15306 -0.006873 -0.008529 -0.074 -0.113743 -0.132941 0.188758 -0.134712 0.120189 -0.075198 0.13826 -0.06336 0.089864 -0.043055 0.095522 0.090066 -0.021111 -0.187141 -0.086231 -0.031694 -0.020262 -0.162338 -0.067745 -0.094713 0.256494 -0.045589
2.591633 1.608701 -2.087245 2.00752 3.012652 4.995656 0.847355 -1.594905 -0.365708 -1.629805 -1.650237 3.712017 -0.231463 -0.537534 -2.036098 2.002639 -0.696666 -4.310136 -1.477319 -1.356504 -0.581823 -1.830239 -0.272773 -1.648095 0.090509 0.008711 0.330842 0.396714 2.341035 -0.526067 1.155793 -1.730906 -1.010387 -1.342646 -1.939355 0.734869 0.727366 0.700702 1.516974 -2.133831 -0.280653 -3.051674 0.017123 0.532043 1.478449 0.375441 0.920129 1.548929 1.087478 0.668327 0.707416 3.249232 -0.362503 1.273221 -2.929682 -0.245389 1.633444 -0.119836 0.103459 -3.445175 0.513245 0.427807 0.738792 1.448203 0.501908 0.362882 -0.731533 -0.391201 0.037778 3.053553 4.030229 1.793904 1.24136 0.081706 -1.401954 -0.638804 -0.487445 -0.267924 0.012844 0.538179 -0.241935 -0.068756 1.351665 -0.112558 0.001814 0.447262 0.833441 -0.023876 1.212707 1.514635 -0.568611 0.376173 -3.663739 -4.345135 -0.444319 2.139788 -2.53093 0.92131 -1.399435 1.763954
-0.105486 0.062548 0.172308 0.26912 0.02298 -0.022743 -0.036664 -0.112677 0.045531 0.070562 -0.156411 0.20489 -0.059234 -0.232079 -0.028827 0.099696 -0.144333 0.090475 -0.046058 -0.016007 -0.172248 0.014032 0.088105 0.076599 -0.078285 0.089105 -0.157644 0.02999 0.153725 0.0334 -0.111992 -0.045022 0.077307 0.025996 -0.05799 0.116329 -0.093149 0.195218 -0.166711 0.177136 0.052255 0.144775 0.093379 -0.01989 0.022542 0.062329 -0.061201 0.012425 -0.009334 0.140898 0.039107 -0.193213 0.178841 -0.094725 0.165555 -0.138426 0.018767 -0.159448 0.016365 -0.121239 0.053004 -0.085996 -0.041862 -0.03996 -0.09242 -0.083854 -0.114623 0.229023 0.099094 -0.143087 0.088961 -0.08399 -0.184308 0.058117 -0.133647 0.123585 -0.150791 -0.111853 -0.057174 -0.013288 0.011215 0.081524 -0.063082 -0.102412 0.01046 -0.013436 0.064244 -0.131678 0.173404 0.038949 -0.166279 -0.004736 0.111122 0.050999 -0.038309 -0.198229 0.011183 0.104183 -0.008244 -0.024963
-0.0891 -0.144461 -0.057017 -0.070416 0.045373 -0.107981 -0.129167 -0.103864 -0.124654 -0.008779 0.123814 0.188678 0.106826 -0.153742 0.014999 0.281412 -0.034629 0.213143 0.026036 -0.088796 -0.001588 -0.114568 0.06213 0.067306 -0.054845 -0.145533 -0.193391 -0.112014 0.165276 -0.179063 0.041846 -0.090403 -0.045318 0.193483 -0.011932 -0.140549 0.156708 0.027081 0.047085 0.029902 0.016612 0.027198 0.003329 0.020565 0.087359 -0.199945 -0.035139 -0.093182 -0.111493 -0.097486 0.124337 -0.136198 -0.142667 0.090453 0.14183 -0.039798 0.062032 0.085301 -0.023641 -0.051126 -0.021064 -0.13809 0.059836 -0.222809 -0.061695 0.011454 0.004537 -0.042846 0.194849 -0.088094 -0.147016 -0.109841 0.070142 0.023741 0.053972 0.063962 -0.038999 -0.03233 -0.10152 -0.248707 -0.048343 0.222105 0.064535 -0.166033 -0.052098 0.010799 -0.087112 -0.003161 0.064008 -0.037142 -0.199703 0.085901 -0.063067 0.105991 -0.154608 -0.019899 0.060383 -0.134689 -0.02267 -0.084386
-0.087255 -0.05591 0.054305 -0.024922 0.12279 0.041971 0.011628 -0.098172 0.13061 0.088978 0.139548 0.154385 0.10967 -0.074364 0.077608 0.342633 -0.019875 0.008986 0.121981 0.055307 -0.003396 0.250389 -0.003606 -0.027202 -0.077535 -1.16E-4 -0.00206 0.156913 0.196292 -0.041947 -0.256602 -0.075561 -0.331833 -0.028169 -0.227118 -0.023069 -0.031505 -0.123196 0.067817 0.109003 -0.150311 -0.176863 -0.003222 0.297853 0.06886 0.054723 0.197442 -0.009663 0.124548 -0.115984 -0.107457 -0.134223 -0.057877 0.014351 -0.020055 -0.038021 0.086742 0.251573 0.36257 0.003758 0.053095 -0.086013 -0.02227 -0.136233 -0.017961 0.053643 0.053971 -0.264445 0.141244 -0.001727 0.102822 -0.045402 0.072919 -0.05572 -0.011331 -0.015733 -0.123198 -0.088768 0.042072 -0.014455 -0.084923 -0.030051 0.101633 -0.145179 0.084003 0.006179 0.137993 -0.044962 0.159725 0.029218 -0.030525 -0.103093 -0.1477 -0.002794 0.039423 -0.078334 0.05768 0.210979 -0.090714 -0.257268
1.458453 0.461621 -0.565007 2.153983 1.51962 1.489104 1.12339 -0.248968 1.192089 0.7237 -0.648262 3.44491 -1.066014 0.026964 0.446642 0.456607 1.349734 -3.452647 -4.421166 -0.763816 -2.213671 0.705645 0.393467 -0.181625 0.229686 0.207294 0.320559 0.019115 0.444893 -1.975344 -0.528647 1.327188 0.780856 0.31256 -1.117735 -1.383431 1.000022 -0.017067 2.980781 1.12181 0.989779 -2.912537 1.385431 -0.457764 -1.05709 -0.654492 -1.555168 2.653252 1.273307 -1.535628 2.192677 1.010449 0.526815 -0.587353 -1.194146 0.011337 0.313473 1.081607 -0.682398 0.040844 -1.530213 -0.538433 -0.398161 -0.074265 -0.122616 1.621629 -1.335092 -1.93905 -1.359527 -0.752871 2.206322 0.579388 0.817437 -0.307137 2.518895 -1.285975 1.722628 -2.015369 -1.763765 2.312843 -1.772004 -1.339821 -0.815019 0.351869 0.673671 1.040771 1.45817 0.388091 1.099494 1.640597 1.818861 0.214964 -3.369435 -0.480493 0.702955 -0.023233 0.409945 -0.795231 -1.670928 4.596399
0.045555 0.007208 -0.07943 -0.037425 0.120561 0.151644 0.012482 -0.006141 0.087092 -0.134325 0.144301 -0.004894 0.06267 -0.143113 0.070516 0.044681 -0.131122 0.087037 0.145195 0.030444 -0.021647 -0.095882 0.082084 -0.045793 -0.008082 -0.182904 -0.120148 0.203049 0.104602 0.016803 -0.255388 -0.115168 -0.063893 0.022982 0.003158 -0.255395 -0.011725 -0.219181 0.133863 0.077955 0.080301 0.039159 0.067326 0.113492 -0.056525 -0.085112 0.172954 0.126161 -0.111708 -0.028217 0.327731 -0.117564 -0.114329 0.06968 0.006565 0.022028 -0.02233 0.104357 -0.054171 -0.098991 -0.037705 0.027566 5.97E-4 -0.064251 0.019535 0.075996 -0.008513 -0.038285 0.039696 -0.02698 0.049605 -0.033079 0.04017 -0.093289 -0.081304 -0.091881 -0.093509 0.027382 -0.193682 0.079125 0.05926 0.074041 0.094008 -0.13708 0.226075 0.215087 -0.023054 -0.039036 0.057983 -0.012818 -0.090953 -0.07412 -0.043376 -0.083748 0.008501 -0.127196 -0.01228 0.021754 -0.06477 0.164316
0.162341 -0.102783 -0.028442 0.061075 -0.216581 0.106706 0.02853 -0.032283 0.068093 -0.130633 0.193091 0.110865 -0.029832 0.031807 0.121393 0.036244 -0.060879 -0.034152 -0.042765 0.090943 0.020449 -0.148476 0.302902 -0.131266 -0.072389 -0.023694 0.27184 -0.008157 0.001308 -0.18989 0.136689 -0.073772 -0.079325 -0.055735 0.216987 0.081451 -0.033584 -0.005166 -0.057831 0.01158 0.091817 0.108317 -0.175409 0.029888 0.1308 -0.062178 -0.029943 0.038948 0.075956 0.086876 0.070573 -0.038688 0.073981 0.182097 -0.120434 0.00669 -0.198732 0.127464 0.122785 0.107317 0.152806 0.078759 0.012193 -0.142342 -0.118283 0.114987 0.014062 -0.122747 -0.01477 0.445345 0.141965 -0.114602 -0.147742 0.065521 0.098222 0.167831 0.037391 -0.039743 -0.006801 -0.345095 0.009663 -0.16797 -0.005895 0.083778 -0.06777 0.032641 0.003042 0.005467 -0.109125 -0.015971 -0.128688 -0.106928 -0.219958 0.12942 -0.192383 -0.020141 0.055568 -0.010538 0.02407 0.038399
-0.359777 -2.465054 2.882461 0.939938 3.348684 2.585976 1.682339 -1.899997 -2.490719 0.710049 0.502721 -0.382654 -0.647445 -4.213941 -2.743373 -1.015725 -0.966649 -3.184361 -0.158937 5.485148 -2.222748 -1.03087 2.660257 -2.037821 -0.598545 1.137486 0.855164 -0.09383 -0.021965 0.540775 2.860456 1.36724 1.829254 2.40486 -1.55964 2.903237 -0.690144 2.19759 -0.200682 -0.601951 2.129161 -5.497226 0.630884 -1.194251 -3.5332 3.001564 -4.727843 2.892083 4.741505 3.03613 -2.86987 -1.662984 -0.289236 0.39293 -2.703683 4.743021 0.515623 -2.610237 -0.55628 -4.42472 -2.811883 0.333764 1.027337 -1.608495 -1.768869 2.550002 0.008569 -0.033919 3.130137 -1.212566 -0.798563 -1.412037 1.483047 -3.014494 0.742874 0.922709 0.914801 -1.080324 -3.097724 -1.993648 1.342595 1.604417 2.263614 1.091698 3.023443 2.163206 -0.755941 0.051241 4.562863 1.113142 -0.191601 -2.250907 -1.559998 1.618655 -0.304178 -0.56191 2.812681 0.02586 -1.560488 0.38831
0.069629 -0.210514 0.19078 0.205428 -0.101388 0.061802 -0.01753 0.084463 -0.014109 0.043138 0.00664 0.337824 -0.026971 -0.024758 0.084056 0.144318 0.076682 0.029956 -0.124511 -0.03629 0.046648 0.186181 0.22597 0.170854 -0.178675 -0.172917 -0.052331 0.127733 0.094056 -0.17714 -0.017005 -0.253938 -0.116362 0.219874 0.050494 -0.243214 0.014644 0.075964 6.23E-4 0.011629 -0.200402 0.005539 0.094275 -0.062243 0.185897 0.019028 -0.060641 0.084417 0.060547 -0.127887 0.168291 -0.175484 -0.032943 -0.019659 0.068878 -0.049383 0.022933 -0.004888 0.056829 -0.036707 0.03978 -0.236753 -0.025944 0.032623 -0.107307 -0.099613 0.192788 -0.005838 0.05383 -0.080185 -0.014888 0.034694 0.020806 -0.084474 0.172704 -0.002313 0.008594 0.004667 0.062483 -0.095012 0.03285 0.155091 0.049594 -0.074778 -0.190457 0.011992 0.026464 -0.009019 0.003389 0.010498 -0.04262 0.068331 -0.157864 0.104362 -0.027587 -0.059829 -0.069805 -0.004378 0.203945 0.079914
-0.124276 -2.054402 -0.343635 1.81865 -2.16991 1.782205 0.82505 0.982572 -2.067194 -1.156199 0.298204 0.610046 -4.440783 -0.456446 1.442584 1.853605 -0.146562 2.077692 0.195573 -0.915147 0.599326 0.594442 1.900077 -1.11832 -0.711089 1.802311 -0.934321 4.923428 0.778654 -0.69484 -0.912197 0.151877 -0.031909 -0.121674 -3.551828 0.057548 0.447763 -0.623346 2.678004 -1.345078 -3.955954 -4.075293 -1.036935 -1.334541 -0.166985 -0.129224 -1.031956 -2.988586 3.17002 0.328676 1.405671 0.778493 -1.163548 2.145235 -1.779305 1.663516 1.887483 0.848116 -1.423908 -2.594846 -0.535155 -0.166339 0.121853 -0.577388 -1.832659 -2.926389 -3.361567 0.159506 -0.752505 4.326194 2.90284 -1.469079 -0.616227 0.788738 -0.806913 2.13246 1.096647 1.237584 -0.288162 0.179698 1.570163 0.091941 -1.524701 -1.102449 -1.615839 -0.364109 -2.101004 -0.663784 -0.318699 0.051272 0.686067 -1.094801 1.568548 -3.03993 1.893188 -1.377119 -2.094228 3.564402 -2.235058 -0.581437
-0.063002 -0.234083 0.048008 -0.021485 0.118425 -0.069097 -0.089614 0.015575 -0.088887 0.008327 0.207637 0.145627 0.039454 -0.145483 0.089805 0.196481 -0.026693 0.037297 0.038377 -0.023252 -0.091593 0.155254 0.091762 0.050857 -0.144125 -0.075574 0.049194 -0.032084 0.088898 -0.067973 -0.157209 -0.065605 -0.063939 0.138195 -0.158256 -0.04692 0.110173 -0.083955 0.114583 -0.018865 -0.089491 -0.035668 -0.039526 -0.115205 0.064068 0.002368 -0.123687 -0.024408 -0.086747 -0.035676 0.106402 -0.137065 -0.237056 -0.05544 0.044405 -0.024529 -0.050672 -0.058347 0.091211 -0.044203 0.049511 -0.047131 -0.007296 -0.041396 -0.197592 0.039256 0.094077 0.002507 0.045318 -0.030448 -0.002259 0.129894 0.004666 -0.055742 0.17851 -0.088069 -0.097555 -0.041865 -0.069832 -0.013662 0.134387 0.047405 0.029899 -0.225063 -0.109655 -0.168055 0.098443 0.06128 0.226794 0.174187 -0.15428 5.93E-4 -0.052234 -0.024077 0.128116 -0.13384 -0.03913 0.070803 -0.065908 0.038777
