0.01891 -0.060665 0.135969 0.183092 -0.055761 -0.076547 -0.222809 0.044102 -0.010539 0.189162 0.021543 0.105088 0.052464 0.106578 0.014072 -0.030556 0.001304 -0.009971 0.084897 -0.006616 -0.008994 -0.08879 -0.020135 0.107845 -0.014012 -0.087822 -0.084146 -0.025894 0.128106 -0.065299 -0.076678 -0.030183 -0.039492 -0.038769 0.035698 0.004731 0.135535 0.081022 -0.085718 -0.085159 0.051488 0.035486 -0.017824 0.205306 -0.150968 -0.046718 -0.089217 0.102943 0.009137 0.007239 0.210947 -0.084459 0.16431 0.077647 0.21221 -0.051225 0.111011 -0.059967 0.130746 0.149758 0.098683 -0.020428 0.132569 -0.058797 0.016501 -0.054702 0.116284 -0.152144 0.027769 -0.108143 0.051962 0.07111 0.045641 0.005755 -0.010936 -0.071829 0.061753 -0.077299 -0.123208 0.137011 -0.020861 -0.153239 0.054479 0.014044 0.059868 0.038198 0.029808 0.02053 0.145425 -0.259012 -0.029823 0.014488 0.015157 0.209326 0.003128 -0.199791 0.128203 -0.151176 0.138139 0.097779
-0.013663 -0.017904 -0.071069 -0.027412 -0.106277 -0.070689 0.0441 -0.065723 -0.01079 0.138118 -0.010105 0.046432 -0.062129 -0.027962 0.152809 0.006251 -0.00829 0.147524 -0.103551 -0.00816 0.071308 0.113974 0.102471 -0.008174 -0.161043 -0.065183 0.002317 -0.18834 0.018161 -0.012515 0.060593 -0.025239 -0.066279 -0.054458 -0.088463 -0.021271 0.082925 0.065061 0.068101 -0.001538 -0.153881 0.177298 0.18044 0.232386 -0.058677 -0.043418 0.089598 0.123697 -0.141886 -0.079594 0.120406 -0.092358 -0.034454 0.020755 0.097099 -0.083526 -0.08484 -0.007254 0.081385 -0.053535 0.092838 -0.045633 -0.00582 -0.133896 -0.116863 0.062812 -0.018595 0.044284 0.22196 -0.284501 0.085767 0.028283 0.009004 0.002828 -0.042202 -0.188489 -0.105119 0.013402 -0.151123 -0.016756 -0.165417 0.041837 0.081233 0.055275 0.096289 0.166944 0.143259 -0.074497 0.267854 -0.056319 -0.045625 0.071536 -0.032727 0.190066 -0.154213 -0.097282 0.011885 0.062398 0.130281 -0.103205
-0.125002 -0.066817 -0.180766 -0.059979 -0.092662 0.094897 -0.157281 0.149876 -0.054601 0.166557 -0.072196 0.088903 -0.020504 0.030954 0.011593 0.059236 -0.015654 0.027102 -0.072601 -6.44E-4 -0.078562 0.006416 0.115282 0.100459 -0.12915 0.113299 0.140987 -0.12095 -0.008716 -0.12589 0.203538 0.027711 -0.108113 0.027425 -0.207183 0.041097 0.067443 0.016476 0.109709 -0.043383 0.097247 0.087611 0.04971 0.11518 -0.029272 0.019313 0.044622 0.126768 0.085755 -0.041414 -0.035159 -0.020206 0.044492 -0.04271 0.164299 -0.173956 0.054438 -0.129314 0.01258 -0.154185 0.057271 -0.092325 0.08629 -0.193376 -0.149163 0.081389 0.135752 0.015912 3.93E-4 -0.028525 -0.160906 0.162119 0.114114 -0.051617 0.16827 -0.17756 -0.052901 0.055456 0.057253 -0.128881 0.052534 0.293794 0.215936 -0.042191 0.051492 -0.083139 -0.037911 0.10892 0.014079 0.182417 -0.069847 0.044903 -0.082355 0.156042 -0.11172 -0.100245 -0.050986 0.080645 -0.011823 0.110605
-0.08334 -0.062759 0.065847 -0.047314 -0.066011 0.018953 -0.177292 -0.003118 -0.244402 0.139823 0.144123 0.268994 0.057431 0.014678 0.047699 0.21078 0.039985 0.050327 0.09248 0.081344 -0.152833 0.092308 0.235873 -0.055987 -0.048392 -0.214798 0.053862 -0.101758 0.222719 0.012595 -0.099538 -0.153367 -0.051172 0.0802 0.0044 -0.039231 0.003401 0.088843 -9.23E-4 0.058324 -0.137694 0.104632 -0.039962 -0.100074 0.07523 -0.162019 0.06399 -0.160543 -0.230165 0.186746 -0.192023 0.078516 -0.173737 -0.095369 -0.053739 0.02566 0.175244 -0.007854 0.090233 -0.153113 0.158202 0.090688 0.037144 -0.120493 -0.142213 -0.128768 0.189517 -0.089584 0.113603 -0.095619 0.082312 0.011033 -0.001696 -0.003523 -0.230079 -0.131064 -0.22617 0.017569 -0.135291 0.263589 -0.070091 0.234457 0.12554 -0.162653 0.046748 -0.049166 -0.033725 0.019245 0.27165 -0.044076 -0.127168 0.054081 2.85E-4 0.0359 0.022658 -0.189445 0.055439 -0.116051 -0.169127 -0.120159
2.13E-4 -0.049307 0.072899 0.006129 0.050615 0.012467 -0.097711 -0.035589 -0.162331 -0.140429 0.01302 0.084477 -0.060589 0.117149 -0.009214 0.06867 -0.092715 0.010699 -0.032614 -0.059592 0.03963 0.027581 0.02697 0.142012 -0.011719 -0.005771 0.020724 0.025448 0.197659 -0.084795 0.041242 -0.165967 -0.001382 0.137198 0.03344 -0.028928 0.093898 0.010328 0.149239 -0.003898 -0.009222 -0.160735 -2.63E-4 0.110294 -0.121119 0.0268 0.00304 -0.031128 -0.091666 -0.016481 0.046048 -0.0154 -0.232481 -0.085101 0.020624 -0.035974 -0.109907 -0.0055 -0.027902 -0.109031 -0.089104 -0.059246 -0.295593 -0.156424 0.026911 0.134819 -0.113929 0.001699 0.165319 0.079719 0.044356 0.022627 0.093824 -0.04391 0.133565 -0.129784 -0.059288 -0.109577 -0.071097 -0.034371 -0.020688 0.041542 0.074053 -0.074511 -0.04548 0.023734 0.014272 -0.034788 0.061586 -0.016588 -0.130291 0.073905 -0.061896 0.076689 -0.015738 -0.028718 0.026226 0.142794 0.038859 0.095937
0.089428 -0.072969 -0.071582 -0.074315 -0.09435 -0.077113 -0.18598 -0.024945 -0.119288 0.097548 0.026786 -0.056896 -0.190231 -0.070748 -0.007417 0.166059 0.025945 0.247249 0.176128 0.184981 -0.099357 -0.070837 0.151245 0.098348 0.00964 -0.070758 0.126871 -0.053717 -0.081162 -0.035602 0.090918 0.114448 -0.099057 0.12916 -0.024083 -0.057128 0.026025 -0.041746 0.128698 -0.05128 -0.052104 0.076369 0.035026 0.056081 0.003064 0.002462 -0.00174 7.6E-4 -0.150721 0.05675 -0.016396 -0.195707 0.163174 -0.064443 0.183973 -0.025811 0.053246 -0.012543 -0.175544 0.152713 0.045347 -0.01205 -0.126207 -0.202812 0.035474 0.067711 -0.190175 0.074014 0.091176 -0.134102 -0.080377 0.016934 -0.020277 0.137085 0.022339 -0.083576 -0.08473 0.03951 -0.058904 -0.217611 -0.06235 0.247562 0.105138 -0.076778 -0.019122 -0.093246 -0.120016 0.048278 0.113403 0.056523 -0.134852 -0.20442 0.144858 0.031277 0.208845 -0.183773 0.15618 0.037487 -0.027174 -0.181421
-0.868528 -2.096773 -2.297737 -1.92163 -4.782328 0.495511 -1.206954 1.840061 -1.578795 -0.700643 -3.577079 -1.237034 -0.150158 0.357047 2.689426 1.942271 0.847547 1.002508 -0.879021 0.683427 -1.236998 2.313119 -1.140837 -3.390305 -0.563054 1.933463 0.53114 -1.7645 -0.167898 0.908317 -1.752758 -0.08637 1.506495 -4.882413 -0.345224 -2.903016 -1.359395 1.282631 0.118259 -0.512948 -1.371479 0.680884 1.05754 1.586138 0.208767 0.975685 0.34396 0.853164 1.211654 0.287068 -0.159279 0.015548 0.713871 -0.284979 1.809821 -0.114466 1.046905 0.317113 1.188733 -1.737614 1.92399 2.02477 1.418323 -1.801728 -0.940321 1.53376 1.831906 1.767443 -0.878986 1.170077 -0.540883 -0.103387 -1.58598 1.634518 2.327548 -0.082331 -0.626056 0.225148 1.340655 1.077765 -1.529258 0.601304 2.107917 -0.287201 -0.495747 1.723457 -0.288982 -0.9477 1.226922 0.15435 -1.211208 3.125587 0.046566 1.063728 0.145621 -1.113295 2.055665 0.911951 -0.038015 -2.449436
-0.085622 0.027432 -0.161416 0.023156 0.129845 -0.015921 -0.123546 -0.138227 -0.152169 0.075562 -0.042926 -0.056828 0.12054 -0.025706 -0.333907 -0.122875 0.133213 -0.100569 -0.072196 -0.011231 0.143455 -0.155223 0.044628 -0.075075 0.06976 -0.047349 -0.020827 -0.017574 0.130598 0.085895 -0.132242 -0.297382 0.200774 0.155463 -0.1613 -0.095652 -0.385789 -0.099705 -0.181174 0.042435 -0.011003 0.144018 0.094566 -0.140961 -0.05235 -0.144909 -0.013835 -0.066684 -0.105497 -0.005453 0.257395 -0.146191 0.020681 0.025143 0.055363 -0.218195 -0.04547 0.15098 -0.088743 -0.028925 -0.073702 0.090541 0.086524 0.030406 0.026765 0.253508 -0.006747 0.157587 0.230148 0.001197 0.104295 -0.14357 0.02848 0.112559 0.153954 0.007585 -0.312471 -0.110767 0.156817 0.09175 0.147888 0.281164 0.031739 0.041017 -0.102471 -0.02735 0.046529 0.082707 0.245731 0.048893 -0.053881 -0.089741 -0.273945 0.045103 -0.056185 -0.3169 0.077676 -0.086101 -0.03389 -0.068574
-0.041077 -0.046971 0.12257 -0.040869 -0.082339 -0.073433 0.03466 0.022263 -0.168397 0.066255 -0.011146 0.060876 -0.130089 0.050535 -0.003479 0.17541 -0.041009 0.2033 0.038303 0.064522 -0.164091 0.174974 0.130191 0.049081 -0.108982 -0.050347 0.039878 0.064941 0.03257 -0.228331 0.135591 -0.074348 -0.068179 0.062799 -0.117356 -0.078491 0.00313 0.127379 0.134381 -0.010967 -0.169136 -0.04402 -0.05013 -0.035006 0.013893 -0.04264 0.119254 -0.043959 0.101737 -0.002023 0.164761 -0.065662 -0.184098 -0.07635 -0.095084 -0.099496 -0.014413 0.00761 0.055457 -0.124257 0.108216 0.037334 -0.141402 -0.278608 -0.139197 -0.073526 0.04865 0.094266 0.001292 -0.047586 0.112574 0.007568 -0.055103 0.031144 0.068608 -0.143775 -0.193248 -0.059545 -0.02459 -0.030364 -0.045168 0.243924 0.054219 -0.061257 0.160239 -0.077431 0.171155 0.04903 0.342964 0.041425 -0.042881 0.009159 -0.175121 0.026866 -0.086331 0.118966 0.100929 -0.095159 -0.101371 -0.069956
1.313101 -1.828077 1.255073 -0.57291 -1.221992 -0.141653 0.892546 0.262095 -0.422972 0.52527 2.770927 -2.116018 -1.303039 2.034119 -1.042658 -1.877754 -0.113988 2.948427 -1.157758 0.228368 -1.62103 2.370189 -1.087966 -1.275151 0.610923 3.24562 1.0986 -0.229467 -3.034251 -1.557004 2.718354 -0.823788 -1.708001 -1.364332 0.304998 -1.19356 3.176471 -0.233449 -3.484355 -2.844404 -0.168624 -3.026944 2.318517 -0.33999 -1.533419 -0.264688 -2.004779 -1.258036 -0.82825 0.612678 2.337875 2.021732 1.255669 0.960029 -3.233 -0.309413 2.678803 -1.321722 -2.726613 1.188582 0.358215 2.072681 -2.899753 -1.608204 0.117954 -1.026589 -1.877072 0.22054 -0.516172 0.998566 1.496877 -0.451898 0.04087 3.884146 3.578913 0.680106 -1.856922 0.764707 -0.523331 -0.239934 1.850372 2.376356 -2.081512 2.089242 -1.78243 -2.297229 1.245129 1.257432 -0.202896 -1.347756 -1.270859 2.061053 -0.332924 -0.64474 -1.876097 2.53156 0.742881 -0.423323 2.234084 -1.244354
0.053585 -0.085687 0.067096 -0.088437 0.096007 -0.003382 0.083439 -0.094563 -0.057592 -0.136014 0.148233 -0.066694 0.086388 -0.221666 -0.010859 0.020634 -0.012664 0.07768 0.012359 0.036294 -0.098641 -0.017315 0.147532 -0.036405 -0.073578 -0.254248 -0.006893 0.111129 -0.003768 0.128239 0.020426 -0.114203 0.085361 0.143291 -0.06281 -0.107839 -0.073802 -0.012484 0.081937 0.121195 -0.032644 -0.16444 0.035742 0.113197 -0.07082 -0.048438 0.191946 0.05252 -0.180794 -0.089245 0.004575 -0.090255 -0.073881 -0.008915 -0.066027 0.006861 0.1337 0.136297 0.213497 0.086248 -0.052701 -0.013609 -0.079877 -0.069191 0.071066 0.072653 -0.021971 -0.041377 0.216102 -0.120348 0.021081 -0.030102 0.033889 0.012821 0.011163 -0.041069 -0.112718 0.047008 0.094062 -0.011663 -0.009726 -0.039355 -0.018346 0.139121 -0.024697 0.146486 -0.013283 0.14293 0.144096 -0.003453 -0.100662 -0.132569 -0.210418 0.110042 0.02961 -0.077611 0.195663 0.109405 0.047124 0.045664
-0.028706 0.033732 -0.114421 -0.07457 0.127383 -0.072256 0.225561 0.060203 0.083158 -0.055015 -0.008016 -0.013805 -0.051516 0.044168 0.111501 0.025036 -0.238953 0.036993 0.171614 -0.137027 -0.117078 -0.077618 -0.049104 -0.008848 0.057426 -0.057326 0.059874 0.011163 0.064202 0.02249 0.115982 -0.050116 -0.037287 0.022451 0.317696 0.035591 0.023828 -0.193618 -0.051534 -0.084514 -0.011266 -0.085479 -0.049087 0.026278 0.053149 0.155973 -0.017962 0.090405 0.046952 -0.046551 0.079632 -0.054336 -0.079931 -0.02083 -0.19082 0.195755 -0.172548 -0.076107 -0.039663 -0.041625 -9.09E-4 -0.037134 -0.03562 -0.121145 -1.21E-4 -0.01738 0.076054 0.018905 0.018724 -0.037724 0.134652 -0.041302 0.140077 -0.048912 -0.024278 0.051511 -0.020874 0.112695 -0.215306 0.087446 0.074303 -0.127096 0.103432 -0.089674 -0.052799 0.058982 -0.081369 0.292689 -0.046317 0.05673 -0.017009 0.029554 -0.09257 0.016177 0.031009 -0.141385 -0.131271 0.186623 0.243762 0.077857
-0.092265 0.082248 0.012927 -0.016024 -0.062939 0.133263 0.055623 0.111133 -0.084174 -0.095102 -0.085548 0.0857 0.052345 0.151086 -0.228528 -0.013301 0.078283 -0.246989 -0.104853 -0.018143 0.19854 0.078998 -0.032793 -0.124299 0.102625 0.039511 0.066512 0.0747 -0.085935 0.039049 -0.057263 -0.138269 -0.025072 -0.227119 -0.006418 -0.138393 0.105334 0.166187 0.075984 -0.409682 -0.029354 0.072623 -0.002361 0.100894 -0.060112 -0.001228 -0.010819 0.055117 0.162306 -0.083537 -0.006362 0.164623 -0.001822 -0.00768 0.015383 -0.033217 -0.148009 -0.002918 0.130316 0.01783 -0.04314 0.0691 -0.031808 -0.046124 0.142022 0.048312 0.090315 0.164714 0.016771 0.138998 0.189205 0.017203 -0.042272 0.061441 -0.138715 0.127954 0.128097 0.017683 0.067956 -0.150433 0.091323 0.388301 0.128892 0.174512 0.097185 0.055721 0.008529 0.097805 -0.11237 0.023005 0.059826 0.078158 0.098221 0.107606 0.002746 -0.113529 -0.096094 0.112278 0.129986 0.090366
0.0 0.0 0.0 0.0 0.0 0.0 0.0 0.0 0.0 0.0 0.0 0.0 0.0 0.0 0.0 0.0 0.0 0.0 0.0 0.0 0.0 0.0 0.0 0.0 0.0 0.0 0.0 0.0 0.0 0.0 0.0 0.0 0.0 0.0 0.0 0.0 0.0 0.0 0.0 0.0 0.0 0.0 0.0 0.0 0.0 0.0 0.0 0.0 0.0 0.0 0.0 0.0 0.0 0.0 0.0 0.0 0.0 0.0 0.0 0.0 0.0 0.0 0.0 0.0 0.0 0.0 0.0 0.0 0.0 0.0 0.0 0.0 0.0 0.0 0.0 0.0 0.0 0.0 0.0 0.0 0.0 0.0 0.0 0.0 0.0 0.0 0.0 0.0 0.0 0.0 0.0 0.0 0.0 0.0 0.0 0.0 0.0 0.0 0.0 0.0
-0.013663 -0.017904 -0.071069 -0.027412 -0.106277 -0.070689 0.0441 -0.065723 -0.01079 0.138118 -0.010105 0.046432 -0.062129 -0.027962 0.152809 0.006251 -0.00829 0.147524 -0.103551 -0.00816 0.071308 0.113974 0.102471 -0.008174 -0.161043 -0.065183 0.002317 -0.18834 0.018161 -0.012515 0.060593 -0.025239 -0.066279 -0.054458 -0.088463 -0.021271 0.082925 0.065061 0.068101 -0.001538 -0.153881 0.177298 0.18044 0.232386 -0.058677 -0.043418 0.089598 0.123697 -0.141886 -0.079594 0.120406 -0.092358 -0.034454 0.020755 0.097099 -0.083526 -0.08484 -0.007254 0.081385 -0.053535 0.092838 -0.045633 -0.00582 -0.133896 -0.116863 0.062812 -0.018595 0.044284 0.22196 -0.284501 0.085767 0.028283 0.009004 0.002828 -0.042202 -0.188489 -0.105119 0.013402 -0.151123 -0.016756 -0.165417 0.041837 0.081233 0.055275 0.096289 0.166944 0.143259 -0.074497 0.267854 -0.056319 -0.045625 0.071536 -0.032727 0.190066 -0.154213 -0.097282 0.011885 0.062398 0.130281 -0.103205
-0.029726 0.076254 -0.043253 -0.06772 -0.22033 0.01855 -0.066726 0.032707 -0.094885 0.076482 0.061445 0.068985 0.015108 0.151036 0.187685 -0.016618 0.052733 0.051528 0.148928 0.098733 -0.057047 0.110345 0.180638 -0.10677 0.041385 -0.024806 0.02373 -0.165381 0.126851 -0.075643 -0.086759 0.076212 -0.153734 -0.007216 0.086395 -0.140313 -0.048144 0.111659 -0.013826 0.146968 0.062046 -0.012812 -0.024199 0.027978 -0.046799 -0.208904 -0.007162 0.014712 0.035203 0.166753 -0.012674 -0.051442 -0.064539 -0.106369 0.238432 -0.115187 0.199619 0.047404 0.172367 0.053899 -0.021537 0.028902 0.007633 -0.211662 -0.127392 -0.053215 0.064011 0.03418 0.049895 -0.169153 -0.091904 -0.183801 0.043242 0.050616 0.121947 -0.194548 -0.094897 0.123131 0.039047 0.034574 0.065232 0.017795 0.114781 -0.053006 0.026596 0.022333 0.066283 0.005065 -0.060928 -0.017108 -0.202857 -0.070939 0.082003 0.091078 -0.018481 -0.256749 -0.0863 -0.021072 -0.054922 0.06291
0.0 0.0 0.0 0.0 0.0 0.0 0.0 0.0 0.0 0.0 0.0 0.0 0.0 0.0 0.0 0.0 0.0 0.0 0.0 0.0 0.0 0.0 0.0 0.0 0.0 0.0 0.0 0.0 0.0 0.0 0.0 0.0 0.0 0.0 0.0 0.0 0.0 0.0 0.0 0.0 0.0 0.0 0.0 0.0 0.0 0.0 0.0 0.0 0.0 0.0 0.0 0.0 0.0 0.0 0.0 0.0 0.0 0.0 0.0 0.0 0.0 0.0 0.0 0.0 0.0 0.0 0.0 0.0 0.0 0.0 0.0 0.0 0.0 0.0 0.0 0.0 0.0 0.0 0.0 0.0 0.0 0.0 0.0 0.0 0.0 0.0 0.0 0.0 0.0 0.0 0.0 0.0 0.0 0.0 0.0 0.0 0.0 0.0 0.0 0.0
0.233485 -0.169544 -0.176879 -0.264085 -0.107436 0.057878 -0.060163 0.020134 -0.075479 0.113908 -0.09997 -0.174725 -0.252921 -0.122678 -0.035219 -0.077484 0.037537 -0.037793 0.129264 -0.099879 0.019875 -0.018207 0.00781 -0.131311 -0.122916 0.092196 -0.101513 -0.137821 -0.180387 0.028172 0.152386 0.192303 -0.095574 -0.106227 0.072159 0.021054 0.055603 -0.084775 0.048133 -0.033319 -0.145469 -0.052611 0.055902 0.169461 -0.069542 -0.067575 -0.154715 -0.139578 0.004359 -0.018258 0.099611 -0.130799 0.00714 -0.072897 0.088522 -0.010623 -0.01831 -0.120719 -0.232138 0.024499 0.020253 0.024691 -0.092193 -0.006159 -0.073972 0.145627 -0.15225 -0.053373 0.093501 -0.006107 0.04413 0.186046 -0.098408 0.199472 0.186096 0.163884 0.172805 0.064425 -0.04161 0.131829 0.010201 -0.12358 0.009225 -0.16262 -0.009664 -0.110038 0.19284 0.088062 0.137671 -0.018017 -0.1722 -0.015099 -0.007537 0.047423 -0.025555 0.128165 -0.06147 -0.007149 0.227166 0.114048
0.04638 0.084651 -0.047326 -0.360825 -0.267693 -0.041 0.042013 0.074692 0.012729 -0.033728 -0.037797 0.018026 -0.137492 -0.004249 -0.096124 -0.025067 0.036437 -0.004565 -0.172747 -0.155899 -0.07228 0.054561 0.022394 -0.009443 -0.197926 -0.026367 0.193093 -0.119754 0.020623 0.082947 0.014353 0.032847 -0.139957 0.022493 -0.182905 0.041514 -0.013932 0.161205 0.053491 0.027261 -0.081334 0.005421 -0.154199 0.024965 -0.011818 -0.096124 -0.069872 0.028464 0.195904 0.107377 -0.34343 -0.0781 0.188986 -0.167166 -0.027906 0.035301 -0.0727 -0.07741 -0.018542 -0.051571 0.063807 0.001605 0.026243 -0.117973 0.003921 0.054212 0.093347 0.055704 0.084389 -0.080522 -0.133084 -0.170045 -0.130651 0.04577 -0.007305 -0.087716 -0.13632 -0.014304 -0.107102 -0.160997 0.102931 0.15833 0.05093 -0.01358 0.102738 -0.042346 0.100767 0.128895 0.068898 0.285796 -0.127291 0.112381 -0.138326 0.078845 0.056817 0.102927 0.037438 0.085991 0.058668 0.009152
0.110693 -0.089382 -0.1042 0.088095 -0.094345 0.076031 -0.001375 -0.149925 -0.141647 -0.046288 -0.009878 0.081474 0.097894 0.157953 0.193783 0.151017 0.029816 0.045103 0.112677 -0.001287 -0.040243 -0.205078 0.109363 0.019802 -0.036564 0.213122 0.034571 0.016138 0.198142 -0.094925 -0.158766 -0.099852 0.056161 0.174886 0.117313 -0.005402 0.027828 -0.05355 -0.113252 -0.060183 -0.015416 -0.097592 0.052105 -0.240972 -0.013886 0.036541 -0.090512 0.020933 0.110999 -0.240721 0.009113 0.19445 -0.117784 0.048751 0.25332 0.072291 0.195416 -0.001097 0.143113 -0.130869 0.028272 -0.109788 0.033535 0.03135 -0.029411 0.142338 -0.145301 -0.038271 0.050975 0.139342 0.024327 0.05233 0.09886 -0.072485 0.074771 -0.011289 -0.045876 -0.02924 0.042561 -0.086063 0.04112 -0.054474 0.049727 -0.143901 -0.008168 -0.026263 0.234975 0.080949 0.041974 -0.087995 0.054594 -0.096466 0.035802 0.180267 0.040454 0.093537 -0.045373 0.004663 -0.030548 -0.065697
2.735627 1.911991 2.207572 -0.243918 3.059796 2.881378 -0.050708 -3.314988 -0.909884 3.004574 -1.412095 -2.03655 0.575961 3.938374 0.990056 3.118296 -6.106544 1.003095 -5.976558 0.204897 0.016601 -0.447435 -0.139797 -0.051878 1.717802 -0.720457 -0.476128 -1.573267 -3.426135 2.253019 5.509523 0.891262 -0.560815 -1.416073 -0.502214 1.076433 0.266527 -4.59643 -3.966937 -1.792206 2.102021 -2.341192 -0.495636 -1.290502 -2.240983 1.70634 0.812719 0.6077 1.136911 1.995065 1.299041 1.631031 -2.180637 -0.02708 -1.260314 0.987608 0.189567 -0.515334 2.089374 -2.136908 -1.212806 -0.26026 -0.701556 -0.566644 0.52968 2.669856 2.020021 -3.381282 -0.092072 -0.166419 1.841678 -0.905626 0.447408 0.560447 2.487623 2.800544 -0.822819 -1.180274 -1.180283 0.796465 -1.278145 -2.565069 -1.132028 -0.834124 -1.631137 -1.694372 1.926981 -2.13709 0.738847 2.925954 -1.562184 1.506096 1.040091 -2.178136 -0.392694 -1.757307 1.15199 1.587731 -3.09427 -0.772619
0.104521 -0.022524 -0.089485 0.140945 0.017571 -0.062233 -0.062064 0.19467 0.154833 -0.10452 0.032147 0.089365 -0.022693 0.005099 0.123811 -0.009882 -0.093267 0.100835 -0.10221 0.215875 -0.198532 -0.225448 -0.119138 0.034235 0.05069 -0.094229 -0.115096 -0.084582 0.051567 0.024805 0.086189 -0.111065 -0.10429 0.072786 0.006149 0.107831 0.039752 0.011015 0.04741 0.182582 0.049178 -0.012106 -0.063859 0.075492 0.076793 0.195027 -0.043515 0.222418 -0.0537 -0.033176 0.063428 -0.029679 -0.082016 0.04391 0.063593 -0.02228 -0.196835 -3.31E-4 -0.011803 -0.104623 0.095179 -0.134286 -0.117118 0.015209 0.063479 0.069683 0.038101 -0.021807 0.090883 -0.225056 -0.034131 0.081706 -0.094029 -0.002793 0.05257 -0.039642 0.080451 -0.11606 -0.039145 -0.039903 -0.118925 0.22589 0.131965 -0.176494 -0.143966 0.011856 0.144299 0.019884 0.144936 -0.126845 0.015464 0.094627 0.098333 0.239999 -0.10419 -0.081246 0.014058 0.070391 0.167373 0.085178
0.0 0.0 0.0 0.0 0.0 0.0 0.0 0.0 0.0 0.0 0.0 0.0 0.0 0.0 0.0 0.0 0.0 0.0 0.0 0.0 0.0 0.0 0.0 0.0 0.0 0.0 0.0 0.0 0.0 0.0 0.0 0.0 0.0 0.0 0.0 0.0 0.0 0.0 0.0 0.0 0.0 0.0 0.0 0.0 0.0 0.0 0.0 0.0 0.0 0.0 0.0 0.0 0.0 0.0 0.0 0.0 0.0 0.0 0.0 0.0 0.0 0.0 0.0 0.0 0.0 0.0 0.0 0.0 0.0 0.0 0.0 0.0 0.0 0.0 0.0 0.0 0.0 0.0 0.0 0.0 0.0 0.0 0.0 0.0 0.0 0.0 0.0 0.0 0.0 0.0 0.0 0.0 0.0 0.0 0.0 0.0 0.0 0.0 0.0 0.0
-0.081886 0.08331 -0.028382 0.124027 -0.036617 -0.043156 0.009069 0.134815 -0.09018 -0.041327 -0.033041 0.045117 0.055155 -0.009991 -0.124044 -0.188976 0.104629 0.110813 -0.06637 0.155515 0.061604 0.079554 0.076605 -0.126117 -0.053801 0.009985 -0.071253 -0.014116 -0.099278 -0.056385 -0.107187 -0.152096 0.036669 0.012115 0.090789 -0.092586 -0.017654 0.077995 -0.037351 0.030685 -0.009524 0.066678 -0.091618 -0.033864 -0.096038 -0.056734 -0.054848 -0.009941 0.097215 0.068939 -0.170422 0.005656 0.015225 -0.030557 -0.016547 -0.057579 -0.197706 0.045143 -0.022137 -0.012842 -0.007553 0.160793 0.171306 0.045646 0.007079 0.192991 0.013734 0.059926 -0.121218 -0.016479 0.059871 -0.021013 0.115005 -0.022912 -0.048291 0.175074 0.016307 0.020637 0.061035 -0.210906 0.10931 2.84E-4 -0.03172 -0.017428 3.65E-4 -0.081142 0.047955 0.200429 -0.201312 0.028431 -0.024579 -0.114419 0.022804 0.00838 0.158407 0.256447 -0.02784 0.037138 0.02529 -0.009391
-0.062338 -0.124399 0.222502 0.171342 -0.145245 -0.032374 -0.075462 -0.014118 0.083902 0.152422 0.152625 0.053222 -0.063609 -0.082105 0.127556 0.341953 -0.049064 0.121494 0.092791 0.172334 -0.126053 0.107444 0.313795 0.085774 -0.123598 -0.150989 -0.029682 0.011488 0.204145 -0.156859 -0.024337 -0.141687 0.016288 0.098427 -0.027396 -0.049221 -0.008055 -0.103217 0.057424 0.098527 0.004836 0.07801 -0.003217 -0.10341 -0.001169 -0.174447 0.083729 0.010583 -0.164549 0.126125 0.094658 -0.137487 -0.018932 0.032768 0.076673 -0.158112 -0.001802 0.083678 0.140364 -0.133812 0.057549 -0.038643 0.08358 -0.11427 -0.128801 -0.039315 0.124813 -0.06215 0.054214 -0.076049 -0.02626 -0.035573 -0.123242 0.049204 -0.070051 -0.034477 -0.199232 -0.09361 -0.0969 0.015546 -0.131448 0.173865 0.129118 -0.219474 0.044803 0.08539 0.023968 0.035078 0.253595 -0.091363 -0.141844 0.030406 -0.021609 0.091249 -0.051436 -0.181611 0.025554 0.023735 -0.077116 6.83E-4
1.392901 -0.788312 -2.423696 0.363859 -3.305615 0.128143 3.461813 -2.016391 -1.384095 -3.947135 5.218111 1.155244 0.254229 -1.86108 1.814396 1.853947 1.70585 -2.817121 -1.062142 0.037362 -3.693292 -2.575259 0.122499 -1.48993 1.275079 2.234722 1.550187 -1.114331 -6.576571 1.712761 -1.50735 0.815468 -2.963025 -0.129209 0.166625 2.179276 2.130191 2.708524 0.315995 -0.326468 6.035157 -0.173823 2.840967 -1.066569 0.48872 -1.374533 -2.922435 1.934456 0.419995 1.525117 -0.530607 -0.213727 4.550854 -3.156938 -1.496915 0.983738 0.670824 2.059749 2.409517 -2.406973 0.263116 0.51099 1.866174 2.964115 -3.439539 -2.525119 2.11547 2.749032 1.289994 1.640284 3.931649 -2.80737 -0.199252 -5.314263 -0.962183 0.659229 -1.368842 1.308344 3.32091 1.689934 -0.272208 -1.221051 0.326311 -0.889746 0.38701 -0.549574 -4.376913 2.868137 3.717038 3.953528 5.568576 -4.744875 -2.243931 1.083578 -5.538053 -0.496071 -0.20483 0.881473 3.428312 -0.912288
3.206997 -4.877361 -0.910472 -1.395845 1.572584 1.195669 -0.645877 1.514129 4.001514 1.012958 -3.145483 -0.395437 1.874785 5.030729 -0.714288 0.493562 2.05343 -0.729517 -2.326681 -4.578588 4.021246 1.018946 2.697827 -0.157538 -0.814339 -0.486008 0.989437 1.830659 2.35274 1.218592 0.83605 -0.84899 0.6027 -2.480923 0.003665 -0.862534 3.024495 1.349808 1.198729 -1.537208 -0.457143 0.652121 -3.708537 -0.665668 -1.704043 -1.144021 1.079376 1.529449 -1.413777 -4.361203 0.251599 0.959199 -3.679446 3.251751 -0.363336 -1.856911 1.311208 -0.087199 1.337398 -2.061584 0.277746 0.363671 1.62815 -2.562427 4.072415 2.277454 0.413444 0.269817 -3.077566 -2.043647 0.637895 -0.133715 -0.513107 4.057566 0.540331 -0.387082 4.579637 1.656738 0.39891 -4.182041 2.762143 1.010128 0.478 2.292752 0.772669 -0.49472 0.716144 -1.1895 2.324726 -3.328852 0.040878 2.011935 1.095551 -0.375816 -0.64119 -1.44337 -2.397953 0.997347 -0.139075 -1.143159
0.007246 0.053204 0.100928 0.006342 -0.101763 -0.085197 -0.083461 -0.123321 -0.100071 -0.042788 -0.155182 0.073053 -0.120455 0.059108 0.2188 0.103057 0.06081 0.00949 -0.182921 0.034294 -0.122566 -0.124692 0.14027 0.020579 -0.119203 -0.013958 -0.156626 0.105013 0.218325 -0.087863 -0.012293 -0.149912 -0.102018 0.191563 0.052477 0.053501 0.163665 0.035356 0.069416 0.115013 -0.105517 0.133498 0.044305 0.046916 -0.031637 0.092181 -0.128598 0.004537 -0.117556 -0.017436 0.142292 -0.170739 -0.094203 -0.159656 0.003728 0.017704 -0.079291 -0.10274 0.020011 -0.019057 -0.097359 -0.03764 -0.0914 -0.086059 0.119906 0.067012 0.096686 0.157964 0.068966 -0.023785 0.046974 -0.008436 -0.065665 0.102192 0.01846 0.034072 0.013473 -0.054716 0.045957 -0.220794 -0.231742 0.033982 0.162247 0.016021 0.050697 0.09313 2.07E-4 -0.205807 -0.080609 0.012886 -0.152411 -0.018133 -0.019331 0.073492 -0.026605 -0.060685 -0.069619 0.142252 -0.100558 -0.024004
0.0 0.0 0.0 0.0 0.0 0.0 0.0 0.0 0.0 0.0 0.0 0.0 0.0 0.0 0.0 0.0 0.0 0.0 0.0 0.0 0.0 0.0 0.0 0.0 0.0 0.0 0.0 0.0 0.0 0.0 0.0 0.0 0.0 0.0 0.0 0.0 0.0 0.0 0.0 0.0 0.0 0.0 0.0 0.0 0.0 0.0 0.0 0.0 0.0 0.0 0.0 0.0 0.0 0.0 0.0 0.0 0.0 0.0 0.0 0.0 0.0 0.0 0.0 0.0 0.0 0.0 0.0 0.0 0.0 0.0 0.0 0.0 0.0 0.0 0.0 0.0 0.0 0.0 0.0 0.0 0.0 0.0 0.0 0.0 0.0 0.0 0.0 0.0 0.0 0.0 0.0 0.0 0.0 0.0 0.0 0.0 0.0 0.0 0.0 0.0
-0.085622 0.027432 -0.161416 0.023156 0.129845 -0.015921 -0.123546 -0.138227 -0.152169 0.075562 -0.042926 -0.056828 0.12054 -0.025706 -0.333907 -0.122875 0.133213 -0.100569 -0.072196 -0.011231 0.143455 -0.155223 0.044628 -0.075075 0.06976 -0.047349 -0.020827 -0.017574 0.130598 0.085895 -0.132242 -0.297382 0.200774 0.155463 -0.1613 -0.095652 -0.385789 -0.099705 -0.181174 0.042435 -0.011003 0.144018 0.094566 -0.140961 -0.05235 -0.144909 -0.013835 -0.066684 -0.105497 -0.005453 0.257395 -0.146191 0.020681 0.025143 0.055363 -0.218195 -0.04547 0.15098 -0.088743 -0.028925 -0.073702 0.090541 0.086524 0.030406 0.026765 0.253508 -0.006747 0.157587 0.230148 0.001197 0.104295 -0.14357 0.02848 0.112559 0.153954 0.007585 -0.312471 -0.110767 0.156817 0.09175 0.147888 0.281164 0.031739 0.041017 -0.102471 -0.02735 0.046529 0.082707 0.245731 0.048893 -0.053881 -0.089741 -0.273945 0.045103 -0.056185 -0.3169 0.077676 -0.086101 -0.03389 -0.068574
0.352905 0.550922 -1.128945 -0.511125 0.774489 1.405335 -0.371647 0.106012 -0.779785 -0.640302 -0.68578 1.570717 -0.712288 -0.706705 -0.789609 -0.045278 -1.599722 -2.840112 -0.089543 -1.158838 -1.862605 -0.62748 -0.063542 -0.468696 0.750564 0.033551 -0.772222 -0.188991 -0.163115 0.455978 0.038455 -0.779588 0.172303 -1.114448 -0.548246 -0.008155 1.66721 -0.744821 -0.15746 -2.668482 -0.304702 -0.905716 0.479063 0.151803 -0.94063 -0.044338 -0.906122 -0.456182 0.281891 0.268287 0.47007 0.628019 0.328428 1.471286 -2.345457 0.072073 -0.345477 -0.998199 -1.496897 -0.053061 0.351206 -0.934426 0.295591 0.07336 0.24092 0.486976 0.390085 -0.621556 0.375246 -0.02625 1.957847 1.014101 0.004675 0.08874 -0.900479 -0.462149 0.922254 1.355385 -1.048724 0.105897 1.254466 0.410718 0.321258 1.066395 -0.171761 -0.128774 0.315556 0.697301 -0.180925 0.555334 1.005586 -0.891677 -1.232923 -1.994189 -0.567812 0.204184 -0.947385 -0.051526 -0.987029 0.725141
0.073071 0.014953 -0.002246 -0.015718 0.015815 -0.096317 -0.088744 0.037532 0.005138 -0.120385 0.025738 0.061058 0.145372 0.012242 0.129813 0.107592 -0.053609 0.12751 0.021364 -0.03115 -0.068026 0.068191 0.126724 0.009326 -0.057095 -0.114447 -0.040905 0.011377 0.068943 0.003671 0.02751 -0.126347 -0.072269 -0.071854 0.012907 -0.167991 -0.069143 0.095215 -0.039467 0.113845 -0.033434 0.06278 0.031019 0.072844 -0.058034 0.07195 0.029596 -0.037162 -0.061823 0.149231 0.068848 -0.045706 -0.020389 -0.04325 0.019031 -0.118493 0.008271 0.057843 0.068441 -0.029649 -0.068408 -0.175273 0.105537 -0.119337 -0.118318 0.064512 0.115622 0.04742 0.225543 0.015338 -0.037489 -0.149448 0.097955 -0.013106 0.197931 -0.122936 0.069194 0.083054 0.084382 -0.081216 0.021515 0.05585 0.028737 -0.073726 0.209076 -0.039329 -0.064931 -0.132595 -0.032317 0.042176 0.029814 0.011914 0.093959 0.066623 0.147634 -0.006915 -0.018213 0.088564 -0.179946 0.022493
-0.164568 -0.024124 0.077644 0.007139 -0.077064 -0.104386 1.69E-4 0.071176 -0.015268 -0.001037 -0.128253 -0.118918 0.125556 0.011455 0.085515 -0.057284 0.004464 -0.028876 0.016223 -0.003982 0.014911 0.145995 0.065261 -0.017469 -0.014878 -0.023019 -0.029417 0.009526 0.100427 0.02266 -0.224429 0.06996 -0.067405 -0.059804 0.036775 -0.051635 -0.323539 0.012041 -0.004264 0.129617 -0.063949 0.010039 0.060702 0.074483 -0.11385 -0.095143 0.024586 0.07136 -0.045062 0.060525 -0.114628 -0.013109 -0.073977 0.005222 0.06839 -0.02695 0.022941 0.072553 0.027381 0.088562 0.076013 0.039683 0.068842 -0.048055 0.041811 0.129199 0.042904 0.084474 0.084013 -0.103461 -0.042666 -0.042521 0.098118 0.090905 0.049411 -0.019099 -0.104671 -0.002094 0.168133 0.012922 0.050121 0.151416 0.102822 0.013683 -0.010095 0.021373 -0.108218 -0.047255 0.046195 0.193705 -0.031969 -0.04779 0.073136 -0.053281 0.080974 -0.151229 0.026552 -0.089446 -0.02469 -0.06892
-0.042265 -0.072276 -7.3E-4 -0.050871 -0.205451 -0.105181 0.020281 0.075323 0.096635 0.191729 -0.022535 -0.071239 -0.089411 -0.026375 0.066345 0.130687 -0.029574 0.139249 0.176874 -0.025522 -0.063891 0.026284 0.005472 -0.048837 -0.058192 0.030341 0.08387 -0.141761 0.121566 -0.094073 0.07717 -0.313415 0.062036 -0.008822 -0.046787 0.104583 -0.105915 -0.037728 0.010413 0.120142 -0.060344 0.219909 -0.001999 0.130724 -0.001946 -0.223661 0.058095 0.128882 -0.113035 0.013839 0.037299 0.09249 -0.031141 -0.069674 0.234641 -0.13737 0.243317 -0.128436 -0.010015 0.090042 0.081393 0.05177 0.006529 -0.146564 -0.111158 0.034348 -0.011962 0.078488 0.266479 -0.009384 0.122488 -0.107541 0.083497 0.089243 0.07847 0.033501 0.108692 -0.011405 -0.192101 0.031571 -0.187587 -0.011481 0.080802 -0.018183 -0.00586 0.010373 -0.042899 0.124311 0.060525 0.019102 -0.179547 -0.053736 -0.018906 0.114827 0.023012 -0.11268 0.155097 -0.06651 0.174466 -0.054766
-0.145451 -0.097512 -0.187141 -0.192286 -0.12018 -0.058057 -0.100819 0.067673 -0.074865 -0.162622 -0.209397 -0.012274 -0.001182 -0.059332 0.057104 -0.12667 0.027346 -0.100352 0.024283 0.021036 0.091868 -0.288825 -0.065265 -0.164311 -0.023961 -0.050834 0.092912 0.020776 0.102914 0.111487 0.05577 0.249819 0.028857 -0.012051 0.077855 0.073421 -0.065746 0.226599 0.053982 -0.142295 0.11147 0.122969 0.023051 0.093921 -0.072391 0.061959 -0.05439 -0.004295 0.035553 -0.053791 -0.041051 0.240742 -0.034207 -0.036903 0.078736 0.060153 -0.069077 -0.119143 0.046095 -0.003216 -0.102864 -0.127849 0.047513 -0.068562 0.160513 0.172161 -0.097011 -0.129802 -0.22172 0.036035 -0.057673 -0.038534 -0.062388 0.020215 0.006921 0.071856 -0.037591 -0.03065 0.054783 -0.137877 -0.034317 0.003041 0.097768 0.026225 -0.09256 -0.133553 0.066328 0.17835 0.034874 -0.058234 -0.033304 0.136187 0.112059 -0.104314 0.125444 -0.102396 -0.078011 -0.123254 -0.074191 0.113272
0.233485 -0.169544 -0.176879 -0.264085 -0.107436 0.057878 -0.060163 0.020134 -0.075479 0.113908 -0.09997 -0.174725 -0.252921 -0.122678 -0.035219 -0.077484 0.037537 -0.037793 0.129264 -0.099879 0.019875 -0.018207 0.00781 -0.131311 -0.122916 0.092196 -0.101513 -0.137821 -0.180387 0.028172 0.152386 0.192303 -0.095574 -0.106227 0.072159 0.021054 0.055603 -0.084775 0.048133 -0.033319 -0.145469 -0.052611 0.055902 0.169461 -0.069542 -0.067575 -0.154715 -0.139578 0.004359 -0.018258 0.099611 -0.130799 0.00714 -0.072897 0.088522 -0.010623 -0.01831 -0.120719 -0.232138 0.024499 0.020253 0.024691 -0.092193 -0.006159 -0.073972 0.145627 -0.15225 -0.053373 0.093501 -0.006107 0.04413 0.186046 -0.098408 0.199472 0.186096 0.163884 0.172805 0.064425 -0.04161 0.131829 0.010201 -0.12358 0.009225 -0.16262 -0.009664 -0.110038 0.19284 0.088062 0.137671 -0.018017 -0.1722 -0.015099 -0.007537 0.047423 -0.025555 0.128165 -0.06147 -0.007149 0.227166 0.114048
-0.868528 -2.096773 -2.297737 -1.92163 -4.782328 0.495511 -1.206954 1.840061 -1.578795 -0.700643 -3.577079 -1.237034 -0.150158 0.357047 2.689426 1.942271 0.847547 1.002508 -0.879021 0.683427 -1.236998 2.313119 -1.140837 -3.390305 -0.563054 1.933463 0.53114 -1.7645 -0.167898 0.908317 -1.752758 -0.08637 1.506495 -4.882413 -0.345224 -2.903016 -1.359395 1.282631 0.118259 -0.512948 -1.371479 0.680884 1.05754 1.586138 0.208767 0.975685 0.34396 0.853164 1.211654 0.287068 -0.159279 0.015548 0.713871 -0.284979 1.809821 -0.114466 1.046905 0.317113 1.188733 -1.737614 1.92399 2.02477 1.418323 -1.801728 -0.940321 1.53376 1.831906 1.767443 -0.878986 1.170077 -0.540883 -0.103387 -1.58598 1.634518 2.327548 -0.082331 -0.626056 0.225148 1.340655 1.077765 -1.529258 0.601304 2.107917 -0.287201 -0.495747 1.723457 -0.288982 -0.9477 1.226922 0.15435 -1.211208 3.125587 0.046566 1.063728 0.145621 -1.113295 2.055665 0.911951 -0.038015 -2.449436
-0.085622 0.027432 -0.161416 0.023156 0.129845 -0.015921 -0.123546 -0.138227 -0.152169 0.075562 -0.042926 -0.056828 0.12054 -0.025706 -0.333907 -0.122875 0.133213 -0.100569 -0.072196 -0.011231 0.143455 -0.155223 0.044628 -0.075075 0.06976 -0.047349 -0.020827 -0.017574 0.130598 0.085895 -0.132242 -0.297382 0.200774 0.155463 -0.1613 -0.095652 -0.385789 -0.099705 -0.181174 0.042435 -0.011003 0.144018 0.094566 -0.140961 -0.05235 -0.144909 -0.013835 -0.066684 -0.105497 -0.005453 0.257395 -0.146191 0.020681 0.025143 0.055363 -0.218195 -0.04547 0.15098 -0.088743 -0.028925 -0.073702 0.090541 0.086524 0.030406 0.026765 0.253508 -0.006747 0.157587 0.230148 0.001197 0.104295 -0.14357 0.02848 0.112559 0.153954 0.007585 -0.312471 -0.110767 0.156817 0.09175 0.147888 0.281164 0.031739 0.041017 -0.102471 -0.02735 0.046529 0.082707 0.245731 0.048893 -0.053881 -0.089741 -0.273945 0.045103 -0.056185 -0.3169 0.077676 -0.086101 -0.03389 -0.068574
-0.125002 -0.066817 -0.180766 -0.059979 -0.092662 0.094897 -0.157281 0.149876 -0.054601 0.166557 -0.072196 0.088903 -0.020504 0.030954 0.011593 0.059236 -0.015654 0.027102 -0.072601 -6.44E-4 -0.078562 0.006416 0.115282 0.100459 -0.12915 0.113299 0.140987 -0.12095 -0.008716 -0.12589 0.203538 0.027711 -0.108113 0.027425 -0.207183 0.041097 0.067443 0.016476 0.109709 -0.043383 0.097247 0.087611 0.04971 0.11518 -0.029272 0.019313 0.044622 0.126768 0.085755 -0.041414 -0.035159 -0.020206 0.044492 -0.04271 0.164299 -0.173956 0.054438 -0.129314 0.01258 -0.154185 0.057271 -0.092325 0.08629 -0.193376 -0.149163 0.081389 0.135752 0.015912 3.93E-4 -0.028525 -0.160906 0.162119 0.114114 -0.051617 0.16827 -0.17756 -0.052901 0.055456 0.057253 -0.128881 0.052534 0.293794 0.215936 -0.042191 0.051492 -0.083139 -0.037911 0.10892 0.014079 0.182417 -0.069847 0.044903 -0.082355 0.156042 -0.11172 -0.100245 -0.050986 0.080645 -0.011823 0.110605
2.591633 1.608701 -2.087245 2.00752 3.012652 4.995656 0.847355 -1.594905 -0.365708 -1.629805 -1.650237 3.712017 -0.231463 -0.537534 -2.036098 2.002639 -0.696666 -4.310136 -1.477319 -1.356504 -0.581823 -1.830239 -0.272773 -1.648095 0.090509 0.008711 0.330842 0.396714 2.341035 -0.526067 1.155793 -1.730906 -1.010387 -1.342646 -1.939355 0.734869 0.727366 0.700702 1.516974 -2.133831 -0.280653 -3.051674 0.017123 0.532043 1.478449 0.375441 0.920129 1.548929 1.087478 0.668327 0.707416 3.249232 -0.362503 1.273221 -2.929682 -0.245389 1.633444 -0.119836 0.103459 -3.445175 0.513245 0.427807 0.738792 1.448203 0.501908 0.362882 -0.731533 -0.391201 0.037778 3.053553 4.030229 1.793904 1.24136 0.081706 -1.401954 -0.638804 -0.487445 -0.267924 0.012844 0.538179 -0.241935 -0.068756 1.351665 -0.112558 0.001814 0.447262 0.833441 -0.023876 1.212707 1.514635 -0.568611 0.376173 -3.663739 -4.345135 -0.444319 2.139788 -2.53093 0.92131 -1.399435 1.763954
-0.019303 -0.002529 -0.008422 0.115266 0.028528 0.037318 -0.171611 -0.119728 0.08063 0.123641 0.205162 0.12071 0.033668 -0.050189 0.029205 0.160692 0.102192 0.160543 0.019279 -0.006701 -0.046097 0.22825 0.183039 -0.002247 -0.195626 -0.026982 -0.115158 0.044293 0.015434 -0.147153 -0.05616 -0.040167 -0.025384 0.009314 -0.123721 -0.240182 0.052266 0.018256 0.061974 0.057055 0.214691 0.236485 0.001764 -0.022228 0.117568 0.037046 0.018025 -0.122168 -0.073133 -0.028363 0.068127 0.029865 0.107291 0.044675 0.143504 -0.03141 0.003965 0.039915 -0.03263 -0.097703 0.064074 -0.166368 -0.173704 -0.022724 -0.099146 -0.117954 0.187166 0.031134 -0.034354 -0.038352 -0.109104 -0.274885 0.059596 -0.048928 0.006633 -0.076135 0.007098 -0.031185 -0.109211 0.02168 0.12185 0.082277 0.034144 0.007481 -0.037421 0.062545 -0.068271 -0.06697 0.030207 0.002634 -0.10734 -0.058583 -0.021734 0.131197 0.062131 -0.189168 0.135714 -0.272799 -0.004568 0.012972
-0.101423 -0.111223 0.204943 0.132795 0.05788 0.002316 -0.036371 0.128742 -0.099987 -0.203751 -0.005747 -0.076661 0.061493 0.129923 0.03874 0.055627 -0.263836 -0.184604 0.011424 -0.007279 0.055684 -0.07375 0.014547 0.147661 -0.137906 -0.053606 -0.109156 0.116562 0.167124 -0.150614 0.060862 0.022001 -0.10916 0.25015 -0.078021 -0.006786 -0.141903 0.141898 -0.160938 -0.126208 0.099444 0.188346 -0.14893 0.061422 -0.089297 -0.141281 -0.053777 0.056071 -0.033157 -0.040216 0.128842 -0.039396 0.153451 -0.099596 0.009729 -0.066533 -0.087515 -0.014641 -0.090516 0.13632 -0.012204 -0.13469 0.080049 0.037476 -0.028325 0.033903 0.019994 0.045848 0.02642 0.068674 -0.091896 0.015101 0.058041 -0.015662 0.014985 0.073895 0.155834 -0.167799 -0.15315 0.063915 0.007151 -0.100262 0.020611 0.155 -0.277609 0.145833 0.11182 0.07878 -0.028091 -0.019437 0.04089 -0.021383 0.025695 0.057773 -0.115688 0.142605 -0.064814 -0.090623 0.132294 -0.086139
-0.023268 -0.198653 0.080259 -0.033119 -0.009743 -0.077713 -0.122981 -0.032361 -0.011665 0.125902 0.163899 0.139932 -0.018659 -0.058227 0.110694 0.117736 -0.045761 0.207168 0.079638 0.004144 -0.095891 0.025603 0.182632 0.144277 -0.051799 -0.022182 -0.087243 -0.005502 0.110512 -0.224808 -0.007787 0.053096 -0.085415 0.106602 -0.140467 -0.132593 -0.064546 -0.018292 0.102037 -0.025144 0.053432 -0.005489 -0.062178 0.060401 0.07321 -0.115869 -0.091859 0.033327 -0.098097 -0.015728 0.249048 -0.222925 -0.182726 0.086475 0.147986 -0.172737 0.025388 -0.1178 0.021929 -0.02277 7.85E-4 -0.052999 -0.03631 -0.156838 3.0E-6 0.036481 0.046044 -0.071523 0.221617 -0.076884 -0.132658 -0.022169 -0.091823 -0.115637 0.042923 -0.159996 -0.226336 -0.049036 -0.00876 -0.097735 -0.049872 -0.037068 0.087594 -0.221507 -0.187444 0.202736 -0.08508 0.009997 0.012409 0.006737 -0.068729 0.049978 -0.029349 -0.049498 0.081399 -0.06883 -0.072567 -0.089351 0.081084 0.039825
-0.258308 -0.108394 0.022958 -0.004101 0.047779 -0.171712 -0.072103 0.131246 -0.048988 0.06657 0.123995 0.041433 -0.234884 -0.02199 0.30164 0.052077 0.079492 0.008455 0.006319 0.012655 -0.072702 0.12341 0.203618 0.014153 -0.0841 0.014383 0.029615 0.126504 0.14127 -0.087756 -0.062961 0.23386 -0.155911 0.00531 -0.011699 0.035597 0.051275 -0.065885 0.213869 -0.207487 -0.081531 -0.343385 0.068798 -0.001441 -0.094427 -0.05294 -0.066201 -6.09E-4 0.091683 0.135202 0.175144 0.022562 -0.001889 0.057189 0.273859 0.09827 -0.160663 0.021815 0.024199 -0.163398 0.141852 0.224879 -0.093696 0.039375 0.010414 0.056515 -0.183767 -0.211433 -0.194554 0.157222 -0.010812 -0.149703 -0.033354 0.0679 -0.019148 0.056006 0.133898 -0.096498 -0.080068 0.036891 0.118654 -0.040662 -0.125016 -0.202784 -0.0362 0.125578 0.086064 0.013093 0.063226 0.216142 0.156492 -0.119817 -0.342229 -0.030519 0.04713 0.061711 -0.239814 -0.134669 0.159457 0.187545
0.104521 -0.022524 -0.089485 0.140945 0.017571 -0.062233 -0.062064 0.19467 0.154833 -0.10452 0.032147 0.089365 -0.022693 0.005099 0.123811 -0.009882 -0.093267 0.100835 -0.10221 0.215875 -0.198532 -0.225448 -0.119138 0.034235 0.05069 -0.094229 -0.115096 -0.084582 0.051567 0.024805 0.086189 -0.111065 -0.10429 0.072786 0.006149 0.107831 0.039752 0.011015 0.04741 0.182582 0.049178 -0.012106 -0.063859 0.075492 0.076793 0.195027 -0.043515 0.222418 -0.0537 -0.033176 0.063428 -0.029679 -0.082016 0.04391 0.063593 -0.02228 -0.196835 -3.31E-4 -0.011803 -0.104623 0.095179 -0.134286 -0.117118 0.015209 0.063479 0.069683 0.038101 -0.021807 0.090883 -0.225056 -0.034131 0.081706 -0.094029 -0.002793 0.05257 -0.039642 0.080451 -0.11606 -0.039145 -0.039903 -0.118925 0.22589 0.131965 -0.176494 -0.143966 0.011856 0.144299 0.019884 0.144936 -0.126845 0.015464 0.094627 0.098333 0.239999 -0.10419 -0.081246 0.014058 0.070391 0.167373 0.085178
-0.167083 -0.107108 0.179851 0.109552 -0.024213 0.229157 -0.075334 -0.070437 -0.095383 0.224548 0.109642 0.033348 -0.067277 0.172258 0.1025 -0.097087 0.07275 0.08372 -0.048898 0.027978 -0.092038 0.129573 0.121068 -0.016639 -0.051471 0.206066 -0.057988 -0.03292 0.161717 -0.096696 -0.254576 -0.039036 0.243231 0.132109 0.006361 0.039556 -0.111924 -0.13768 -0.026979 0.009431 0.032213 0.298426 0.011437 -0.207073 0.049479 0.133506 0.130962 0.042425 -0.12671 -0.055215 -0.040495 -0.081002 -0.0113 0.131594 0.136972 0.066241 -0.142628 0.006467 0.082331 -0.023632 0.12726 -0.08866 -0.004003 0.125163 0.172583 0.066611 0.037084 0.379506 0.156894 -0.038809 -0.05146 -0.216693 0.014711 -0.345933 -0.145663 0.265907 -0.165782 -0.251349 0.045053 0.094664 -0.003293 0.027445 -0.371954 -0.293996 0.223192 0.186416 0.033611 0.26388 0.406974 -0.063905 -0.0194 0.070162 0.237415 -0.230282 0.156302 0.152369 -0.00777 0.17857 0.087777 -0.019579
-0.100536 -0.049864 0.130206 -0.049731 -0.042941 -0.032091 -0.064091 0.108566 -0.059113 0.016186 0.090179 0.075443 -0.067953 -0.011079 0.13148 0.00617 -0.112359 0.073998 0.241716 0.119249 -0.08097 0.047562 0.095701 -0.08766 -0.049792 0.050357 -0.046013 0.01235 -0.109682 -0.080465 -0.131787 -0.099841 0.047698 0.13177 -0.112354 -0.111422 -0.075306 0.035333 0.11044 0.153253 -0.10884 0.129701 0.023678 0.040154 0.049655 -0.102259 -0.006475 -0.118121 -0.071722 -0.007759 -0.084045 -0.034862 0.002983 -0.09286 -0.066786 -0.12839 0.05938 -0.082218 0.038846 -0.05921 0.095984 -0.036154 0.046281 -0.156993 -0.221218 -0.030603 0.07015 -0.124411 0.133795 0.036911 0.017639 0.084227 -0.038401 -0.027062 -0.088096 0.029048 -0.06855 -0.005337 -0.01606 -0.054779 0.131409 0.210188 0.010738 -0.053459 -0.106127 0.131147 0.087429 -0.065199 0.099535 -0.074751 -0.113806 -0.011074 -0.057863 0.103176 -0.082159 -0.063912 0.032556 -0.199189 -0.124562 -0.041265
0.11528 -0.10853 0.054011 -0.222579 -0.156439 0.116489 -0.029415 -0.017927 0.062685 -0.120894 0.185361 -0.030278 -0.127736 -0.079202 0.226964 -0.071155 -0.100193 -0.096936 0.160796 -0.203943 -0.062275 0.018475 0.152368 0.05979 -0.307545 -0.034952 -0.061557 -0.088636 0.282542 -0.039568 -0.098485 0.110848 -0.080966 0.101197 0.176262 -0.024326 -0.233683 -0.013424 -0.022867 0.188165 -0.050379 0.292787 0.171879 -0.148182 0.036053 -0.107074 -0.211086 0.094624 -0.117816 0.14373 0.239267 -0.079637 -0.026266 0.010484 0.078866 0.075074 0.022596 -0.069078 0.197702 -0.193673 -0.014243 -0.10861 -0.029888 -0.054985 -0.088183 -0.064916 0.114909 -0.10494 0.104607 -0.13797 -0.042 -0.132698 -0.008404 -0.139528 0.032938 -0.309985 -0.115284 0.056278 -0.125558 -0.030852 0.049107 -0.19527 0.191994 -0.125326 -0.079857 0.059126 -0.061918 -0.026669 0.107076 -0.1712 -0.120305 0.257032 0.047293 0.044664 0.071794 -0.018668 -0.075369 0.094257 -0.062691 -0.095309
-0.060317 -0.185768 0.125092 0.084002 -0.023781 0.010062 -0.132434 -0.112336 0.09662 0.077173 0.089994 0.173536 -0.162985 -0.001258 -0.118031 0.196006 0.003489 0.129756 0.109496 0.054622 -0.19341 0.17497 0.027743 0.131055 -0.157129 -0.106043 -0.051362 -0.141257 0.084564 -0.112368 0.020951 -0.059109 0.091277 0.030046 0.009358 0.001048 0.012038 0.184747 -0.042884 0.158793 -0.11931 0.131304 0.064261 -0.046558 0.096218 -0.128499 0.106703 0.048772 -0.211841 -0.069897 0.049191 -0.117679 -0.019676 0.079907 0.006998 -0.095724 0.039219 -0.102723 -0.025602 -0.22502 0.163782 -0.100485 -0.053381 -0.149087 -0.22844 -0.062795 0.108693 0.018257 -0.030787 -0.14662 -0.104606 -0.06983 -0.005023 0.162654 -0.048451 -0.242432 -0.077297 -0.014558 0.03753 -0.048222 -0.028545 0.037133 0.113992 -0.133898 0.020122 0.004067 0.057321 0.067061 0.1185 0.011596 -0.003561 -0.118988 0.041775 0.152545 -0.074691 -0.164905 0.010836 -0.001873 -0.003608 -9.34E-4
0.13493 0.036274 0.157525 -0.081266 0.126886 -0.038114 -0.028389 0.015498 0.035798 -0.013627 -0.010809 0.076351 -0.187949 0.132411 0.071624 -0.008837 0.116775 0.025242 0.080382 -0.042078 -0.035321 0.127772 -0.031786 0.031119 -0.239573 0.027004 0.030593 -0.156156 0.071316 0.045594 0.010251 0.052273 -0.03603 -0.204217 -0.137927 -0.136314 -0.128455 -0.152054 -0.069397 -0.117234 -0.073844 -0.246348 0.039723 0.039415 0.074679 0.143091 0.043895 0.021662 0.145187 -0.02316 -0.161013 -0.174648 -0.059821 0.192131 0.194132 0.247764 -0.094465 -0.057794 -0.192386 -0.14099 0.14746 -0.020372 -0.009972 -0.135005 -0.14551 -0.117229 -0.070658 -0.083751 -0.159886 0.082106 0.046688 0.032229 0.072937 0.190152 0.189495 -0.099564 -0.042013 -0.009373 0.1891 0.065594 0.084144 -0.021609 -0.009592 -0.097709 0.121495 -0.143588 -0.06007 0.172616 0.079152 0.150969 -0.028575 0.090323 -0.029373 -0.079741 -0.035699 0.041709 -0.135741 0.225283 0.098729 0.05581
0.072925 -0.078121 -0.168109 0.145852 -0.194802 0.053044 -0.09932 -0.01277 0.169892 -0.075038 -0.091551 -0.079792 -0.228667 0.01942 0.001252 0.031399 0.060011 0.154503 -0.064518 -0.029463 -0.061422 0.014196 0.11446 0.177187 -0.139148 -0.012957 0.104087 0.255626 0.239276 -0.115108 -0.001216 0.10221 -0.010466 -0.039153 -0.178109 -0.05484 0.131711 -0.025911 0.107715 0.065308 3.3E-4 -0.036047 0.062837 -0.22369 0.167455 -0.102572 -0.068743 -0.198805 -0.012169 -0.00835 0.069706 -0.1365 0.078195 0.106518 0.101695 -0.093003 0.077784 0.210226 0.057122 -0.024459 -0.049675 -0.13378 -0.092191 0.00302 -0.031288 -0.033144 -0.109794 0.018615 0.121461 -0.143836 0.131141 0.066065 0.074654 -0.06303 0.148979 0.029023 -0.108707 0.100366 0.024438 -0.099329 0.067665 -0.239793 0.020645 -0.381835 0.026622 -0.033033 -0.058807 0.059209 -0.015369 0.145721 -0.114845 0.024762 0.251875 0.022659 -0.079458 -0.275567 -0.082294 0.135238 0.05521 -0.017169
0.233485 -0.169544 -0.176879 -0.264085 -0.107436 0.057878 -0.060163 0.020134 -0.075479 0.113908 -0.09997 -0.174725 -0.252921 -0.122678 -0.035219 -0.077484 0.037537 -0.037793 0.129264 -0.099879 0.019875 -0.018207 0.00781 -0.131311 -0.122916 0.092196 -0.101513 -0.137821 -0.180387 0.028172 0.152386 0.192303 -0.095574 -0.106227 0.072159 0.021054 0.055603 -0.084775 0.048133 -0.033319 -0.145469 -0.052611 0.055902 0.169461 -0.069542 -0.067575 -0.154715 -0.139578 0.004359 -0.018258 0.099611 -0.130799 0.00714 -0.072897 0.088522 -0.010623 -0.01831 -0.120719 -0.232138 0.024499 0.020253 0.024691 -0.092193 -0.006159 -0.073972 0.145627 -0.15225 -0.053373 0.093501 -0.006107 0.04413 0.186046 -0.098408 0.199472 0.186096 0.163884 0.172805 0.064425 -0.04161 0.131829 0.010201 -0.12358 0.009225 -0.16262 -0.009664 -0.110038 0.19284 0.088062 0.137671 -0.018017 -0.1722 -0.015099 -0.007537 0.047423 -0.025555 0.128165 -0.06147 -0.007149 0.227166 0.114048
0.056379 -0.059457 0.037134 0.007857 0.070773 0.027115 -0.043018 -0.065117 -0.13166 0.101614 0.038961 0.118242 0.085246 -0.010038 0.01439 0.201177 -0.005683 0.07842 0.06244 0.023382 -0.122977 0.018643 0.034175 0.064879 0.029116 -0.048048 -0.115406 0.045564 0.203447 -0.071179 -0.114578 0.035504 -0.111264 0.081027 -0.147892 -0.029501 -0.013898 0.043235 -0.131136 -0.037491 0.180609 0.067812 -0.031593 0.078037 -0.045279 0.068725 -0.12475 -0.030545 -0.050605 0.209964 0.14595 -0.112409 -0.001771 0.131527 0.082876 -0.007819 -0.129686 -0.196203 0.034526 0.006872 0.02698 -0.044687 -0.007491 -0.003131 -0.044665 0.030268 -0.105273 0.009662 0.073209 -0.155387 0.115254 -0.048589 0.031926 0.163224 0.015395 0.091468 0.033922 0.095028 -0.114337 -0.124013 0.095376 0.135806 0.058465 -0.042259 -0.082602 0.023353 0.00969 0.069487 0.131031 0.130017 -0.103912 -0.010561 0.040985 0.020705 0.159831 0.002416 0.058963 -0.053129 0.103037 -0.097786
-1.371364 -0.905838 -2.28994 -1.283174 -1.310577 -1.606454 0.910305 1.305647 -4.371454 0.628874 1.806303 0.828653 -2.382652 -0.686732 0.545703 1.326346 0.154753 -3.264551 1.126633 -1.969114 -0.800301 -1.436766 3.728197 -1.038718 -2.327168 -1.817844 -1.522537 3.301526 -0.516965 -1.374094 -0.051603 -1.351815 -0.389973 -0.502437 0.25835 0.846892 1.917309 -2.564942 1.743738 0.299837 -0.077633 -0.203545 -1.348593 -0.075214 -1.608776 -1.418613 -1.239597 1.346437 1.05542 -0.955862 -1.024128 -0.739272 -1.267341 -0.406832 -0.563292 1.91249 -0.495804 -1.8464 -2.951108 -2.501113 -2.256394 0.158864 1.280809 0.511105 1.438967 -1.170372 -0.297717 -2.259045 1.504669 -0.129935 2.657114 -0.654912 -1.802167 1.676283 -1.228934 1.0964 1.563019 0.572077 -0.396552 -2.394884 0.52895 2.143209 0.307586 -0.887167 -1.371926 0.836945 0.408248 -0.956246 -1.326029 0.678732 3.122775 -1.439952 -0.709464 -1.94331 -0.773044 1.524834 1.347463 -1.037819 -0.217821 2.595661
0.127562 0.126777 0.109766 0.188158 -0.155575 -0.031873 -0.108265 -0.117906 0.139016 0.167494 0.027182 0.03272 -0.213548 -0.207611 -0.049334 0.102244 -0.249865 0.134433 -0.035542 0.125479 -0.002085 0.081458 -0.01325 -0.06115 -0.011645 0.10632 -0.108895 0.212048 0.048391 0.039626 0.14956 -0.001545 0.136653 -0.143183 -0.012496 0.155947 -0.055609 0.061141 -0.033287 -0.019948 -0.114016 -0.085848 0.016373 -0.09375 -0.119007 0.237021 -0.021449 -0.00812 0.137854 -0.097096 0.179015 -0.151113 -0.070912 0.115661 -0.011515 0.046384 0.058698 0.089331 0.011395 0.045242 -0.155992 0.002457 -0.042458 -0.106543 -0.145773 0.090295 0.043075 0.101465 0.220083 0.014286 0.08947 0.035282 0.142415 0.188392 0.049469 0.005141 0.149438 -0.127686 -0.218303 0.077345 -0.042054 -0.133834 -0.056502 -0.134421 -0.171466 0.179921 -0.01008 0.010931 0.232039 0.220086 -0.125946 -0.086242 0.027143 -0.180221 0.045105 -0.127972 -2.45E-4 -0.059906 -0.14766 0.015604
2.228393 0.34685 -0.205175 0.82637 0.289877 -2.298858 0.681781 1.239856 -0.707785 -0.608658 -0.290369 -0.876865 0.099785 1.166189 -0.473867 -1.227859 -0.269474 0.198573 -3.08047 0.854924 0.123546 0.462013 -1.0203 1.068178 0.821477 1.275464 -0.337148 -1.261662 -3.037685 -0.774771 2.00484 -1.162408 -1.237125 -0.677399 -1.214062 0.652619 1.411875 -0.462005 -1.911843 0.064866 0.505802 -1.85091 2.147551 0.364446 0.751133 -0.179934 -0.471851 0.506221 0.639084 0.916085 0.439025 0.008913 -0.331632 -0.485567 0.24824 1.093501 -0.356465 1.132369 -0.456586 -0.346699 -1.606035 -1.179737 0.21645 0.197727 0.333372 -0.60164 -1.595328 -1.041308 -1.539244 -0.337694 0.658138 0.67983 -0.87268 -0.124004 1.315665 -1.347592 -2.326769 -0.243804 -2.005278 0.148622 -1.967384 0.500666 -0.677995 -0.176367 0.196794 -0.460945 -0.058576 1.807961 1.980513 1.165275 0.048983 -0.547535 -0.918819 0.778197 -0.2067 -0.593413 -0.3427 1.449719 0.132054 -1.22163
0.047752 -0.011346 0.0923 -0.029609 0.057311 -0.018942 0.101697 -0.008816 0.160723 0.047691 0.071984 0.076167 -0.075283 -0.019033 0.020958 0.126101 -0.130388 0.006598 -0.014525 0.04765 -0.051593 0.1344 -0.019667 0.017882 0.076152 -0.006446 0.103046 0.003142 0.050101 -0.034555 0.102535 -0.03113 -0.059746 -0.06714 0.009189 -0.056583 -0.121006 -0.048071 -0.068459 0.107579 -0.067348 -0.079693 -0.025409 -0.126253 0.011246 0.093704 0.001957 -0.055331 0.072705 0.08961 0.033024 -0.078931 -0.030987 -0.136595 0.078724 -0.06895 -0.159063 -0.014373 -0.09182 -0.019845 0.021328 0.038025 -0.035713 -0.219075 -0.179694 0.088581 0.019521 0.046478 -0.034868 -0.055462 0.066894 0.044192 -0.038243 -0.03165 -0.04116 0.112415 -0.038024 -0.034903 -0.099677 -0.034058 -0.072879 0.11684 -0.027534 -0.060155 0.022785 -0.180086 0.147153 -0.028915 0.09839 0.09891 0.033324 -0.024952 -0.007763 0.133121 -0.043308 -0.063667 -0.016107 0.045521 -0.041694 0.037351
0.04638 0.084651 -0.047326 -0.360825 -0.267693 -0.041 0.042013 0.074692 0.012729 -0.033728 -0.037797 0.018026 -0.137492 -0.004249 -0.096124 -0.025067 0.036437 -0.004565 -0.172747 -0.155899 -0.07228 0.054561 0.022394 -0.009443 -0.197926 -0.026367 0.193093 -0.119754 0.020623 0.082947 0.014353 0.032847 -0.139957 0.022493 -0.182905 0.041514 -0.013932 0.161205 0.053491 0.027261 -0.081334 0.005421 -0.154199 0.024965 -0.011818 -0.096124 -0.069872 0.028464 0.195904 0.107377 -0.34343 -0.0781 0.188986 -0.167166 -0.027906 0.035301 -0.0727 -0.07741 -0.018542 -0.051571 0.063807 0.001605 0.026243 -0.117973 0.003921 0.054212 0.093347 0.055704 0.084389 -0.080522 -0.133084 -0.170045 -0.130651 0.04577 -0.007305 -0.087716 -0.13632 -0.014304 -0.107102 -0.160997 0.102931 0.15833 0.05093 -0.01358 0.102738 -0.042346 0.100767 0.128895 0.068898 0.285796 -0.127291 0.112381 -0.138326 0.078845 0.056817 0.102927 0.037438 0.085991 0.058668 0.009152
0.036737 -0.032921 0.024463 0.001525 -0.14953 -0.081921 0.05195 0.033054 0.042371 0.187633 -0.169856 -0.043431 -0.173636 0.224604 -0.099043 -0.052621 -0.094147 -0.087315 -0.205223 0.126826 -0.051988 0.057934 0.007092 0.028646 0.030134 0.006318 0.118765 0.00841 -0.042876 -0.067148 -0.15148 -0.042306 0.047684 0.10077 -0.040846 -0.155266 0.173754 7.38E-4 -0.149543 -0.155015 0.042332 1.9E-5 0.164393 -0.109523 -0.01025 0.019395 0.060378 0.084138 0.12078 -0.042878 0.08194 -0.06976 0.047308 0.056745 0.006819 -0.026824 -0.156007 0.042841 -0.214906 -0.100455 0.001679 0.056153 0.00309 0.056995 -0.027269 0.054063 -0.021361 -0.118937 -0.039109 0.253888 -0.099679 0.068347 0.024916 0.004649 0.026359 0.067277 0.089904 -0.116294 -0.057639 -0.070171 0.238942 -0.101354 -0.104886 -0.195107 -0.268537 -0.124495 -0.010152 -7.27E-4 0.045996 0.182311 -0.129108 -0.070264 -0.013 0.100287 -0.131971 0.14376 -0.073632 0.262197 -0.055353 0.017675
0.0 0.0 0.0 0.0 0.0 0.0 0.0 0.0 0.0 0.0 0.0 0.0 0.0 0.0 0.0 0.0 0.0 0.0 0.0 0.0 0.0 0.0 0.0 0.0 0.0 0.0 0.0 0.0 0.0 0.0 0.0 0.0 0.0 0.0 0.0 0.0 0.0 0.0 0.0 0.0 0.0 0.0 0.0 0.0 0.0 0.0 0.0 0.0 0.0 0.0 0.0 0.0 0.0 0.0 0.0 0.0 0.0 0.0 0.0 0.0 0.0 0.0 0.0 0.0 0.0 0.0 0.0 0.0 0.0 0.0 0.0 0.0 0.0 0.0 0.0 0.0 0.0 0.0 0.0 0.0 0.0 0.0 0.0 0.0 0.0 0.0 0.0 0.0 0.0 0.0 0.0 0.0 0.0 0.0 0.0 0.0 0.0 0.0 0.0 0.0
0.20461 -0.166756 0.038146 0.047243 0.125238 -0.073833 -0.085065 0.00104 0.019704 -0.243412 0.016709 0.0694 -0.130919 0.200043 0.217566 0.002633 0.126128 0.095798 -0.079815 0.041479 -0.029584 0.147163 0.036164 -0.031427 -0.199607 0.047198 -0.004909 0.069272 0.195524 0.001992 -0.099026 0.003667 -0.048972 -0.019635 -0.013023 0.004434 0.018591 -0.032837 0.088044 0.050994 0.076305 -0.226519 -0.011972 0.11313 0.025772 0.085519 -0.037052 0.057438 0.107295 0.049766 0.00145 0.023882 0.146907 -0.167524 0.069246 -0.25554 0.04342 0.059759 -0.152636 0.136538 -0.097229 0.048584 -0.019764 0.099383 -0.06156 0.043025 0.007856 -0.042876 -0.144602 0.086851 0.016789 0.083486 0.079693 -0.05871 -0.020907 -0.048861 0.160337 0.148756 -0.068688 -0.041918 0.109307 -0.209784 -0.055152 -0.202888 0.12491 -0.026853 0.020186 -0.041216 0.003019 -0.025021 -0.207269 0.152877 -0.034352 0.170913 -0.007669 -0.084765 -0.014427 -0.005015 0.069233 0.097403
4.262803 -1.890382 0.098391 1.536035 -1.687492 0.061622 0.499833 -0.870893 2.405686 0.098833 2.249794 0.502215 2.836509 -1.115595 -0.478439 0.034863 0.70996 0.838104 -3.211371 1.283498 1.837589 -0.533442 -2.040802 -0.838205 -0.850688 1.437247 3.042732 0.225905 -0.239472 2.1588 1.776828 -2.156094 -0.119065 -0.89227 -1.640866 2.188249 1.397856 -3.953466 -2.753357 0.618416 -0.788158 -0.499679 0.092752 -0.08431 -0.02332 0.506942 -0.678939 -1.001021 2.3368 -0.470408 0.128312 -1.856187 -0.857492 0.894124 -1.265139 -1.848677 -2.978855 0.061351 -1.037864 -0.06904 2.825289 -1.148157 -2.013495 -0.101056 -0.842776 -2.063927 2.691944 -1.998592 -0.61004 1.594881 3.794458 -2.911707 -1.316633 1.413582 -0.866055 -3.566408 2.394211 -1.219406 -1.952718 1.333707 -1.296772 -4.589664 -0.364504 -3.791755 1.108652 -0.22178 0.64616 -1.535036 -1.02833 -2.649289 0.612957 -0.250225 0.032554 1.022895 -1.20846 0.461679 0.175464 2.148988 -0.752262 0.592474
0.092565 -0.26577 0.084904 0.125198 -0.141259 0.063201 0.151542 -0.027854 0.019198 0.074523 -0.067946 0.181689 -0.182951 0.066674 0.007442 0.046171 -0.138937 0.179599 0.134215 0.162229 -0.236579 -0.102568 0.129576 -0.063364 -0.012891 -0.123043 0.031788 0.002727 -0.083917 -0.066056 0.125953 -0.321362 -0.072295 0.068344 -0.060563 -0.003713 0.073182 -0.031893 -0.014424 0.03679 -0.073919 0.067536 -0.122481 -0.040211 0.013253 -0.354691 0.112749 0.072846 -0.12013 0.107066 -0.058991 -0.001791 0.013255 -0.134253 -0.089337 0.243069 -0.040744 -0.119324 -0.248394 -0.312691 0.102306 0.030072 -0.176953 -0.047744 -0.111513 -0.038966 -0.093125 0.030811 0.128136 -0.338271 -0.058651 0.238292 0.013615 0.009239 0.183808 -0.03057 -0.124073 -0.026276 -0.121169 0.206086 0.046375 0.020102 0.284456 -0.096984 -0.264585 -0.042713 0.161097 0.291938 0.104717 -0.005885 0.155121 -0.040537 0.045015 0.220429 -0.072065 -0.085922 0.105958 0.18047 -0.247575 0.178813
-0.718438 -0.830038 -0.584242 2.1215 -0.644012 1.416116 -0.587713 -0.321771 0.15449 -1.337212 0.646351 2.943981 -2.520119 -0.053393 1.892255 -0.247068 0.153723 -1.774544 -1.713547 1.03615 -2.316809 -1.758234 0.596352 -1.216816 0.651834 0.378166 -0.461749 -1.113127 -1.262089 1.808952 2.079526 -0.645053 -1.036425 -0.051591 0.752853 1.877822 1.149022 -1.563167 0.088195 1.179668 0.264795 -0.643595 -1.254162 2.294433 -0.67558 -0.480528 -1.903531 -1.404449 3.451226 0.215378 -0.348073 3.059608 -0.201534 3.176656 -2.660815 -0.397857 0.658943 0.204092 -2.861443 -2.700162 -0.267356 1.597524 -0.058446 0.400235 0.112722 2.04443 -0.418444 -0.708333 -0.409393 0.970238 4.077705 1.113589 0.123738 0.071757 1.385313 -2.550826 0.377188 -1.266978 -0.033552 1.268038 1.334944 -1.192168 -2.617046 1.325431 1.537295 0.868143 0.029881 0.136091 0.48518 -1.968409 0.753802 -0.972635 0.324233 1.386425 1.801178 1.298403 -2.240443 1.965765 -0.567086 2.183566
-0.024332 0.12393 0.078446 0.077273 0.087825 -0.030776 -0.021689 -0.067762 0.038686 -0.027187 -0.098732 0.079939 0.031073 -0.244603 -0.073523 0.198997 -0.084706 0.148938 -0.066343 -0.154611 -0.13568 -0.052557 0.119636 0.234974 -0.099266 0.165647 -0.024254 -0.044397 0.12634 -0.00728 -0.042855 -0.076837 0.240122 0.092112 -0.082746 -0.030403 -0.003105 -0.121605 -0.100904 0.004095 0.004881 0.090103 -0.103702 -0.088421 0.093385 -0.102521 -0.103887 0.052089 -0.132442 0.144585 -0.083093 -0.152121 -0.0912 -0.056624 0.0907 -0.04516 0.023219 -0.01606 0.066706 -0.051962 0.017082 0.089367 -0.050009 -0.177445 -0.010374 0.129284 -0.042369 -0.053705 0.065317 -0.065148 -0.092822 0.138736 0.050699 -0.103055 -0.013783 0.032222 0.088585 0.004632 -0.02115 -0.038337 0.048833 0.035867 0.16071 0.032081 -0.0859 -0.083532 0.009257 0.037773 0.181752 -0.050896 0.037151 0.215277 -0.07769 0.195781 0.020256 -0.118444 -0.056932 0.012902 -0.004726 -0.075849
-0.019201 0.028111 0.019217 0.052324 -0.012545 0.076041 0.041859 0.132425 -0.042682 -0.25324 0.153679 -0.052639 -0.234426 0.154245 0.001178 0.07083 0.073083 0.160228 0.024133 -0.054811 0.001969 0.005439 0.181016 0.099355 -0.126409 -0.051701 0.037309 -0.123638 0.247936 -0.162055 0.114555 0.125901 0.087982 0.08593 -0.090916 0.032607 0.058566 -0.084423 -0.083684 -0.120125 -0.142636 -0.134573 0.099572 -0.067549 0.144656 -0.140025 -0.119758 0.069446 0.087216 -0.032862 -0.006618 -0.111395 0.032981 -0.031112 -0.118341 0.110071 -0.111936 0.153878 0.041608 0.007703 0.064796 -0.130385 0.030277 0.045725 -0.1256 0.149386 -0.11782 -0.166733 0.122695 0.114102 -0.065025 -0.01284 -0.004014 -0.036946 -0.052576 0.183617 0.039352 -0.109896 0.002856 -0.049741 0.098582 -0.079185 0.058208 -0.092538 -0.020486 -0.024785 0.136707 0.03449 -0.090652 0.201497 -0.097455 0.025029 -0.120762 -0.013839 -0.051103 -0.067125 -0.00444 -0.252706 0.02388 -0.108891
-0.26639 -0.104912 0.180519 0.043667 0.041207 -0.008381 0.035828 -0.02579 0.038929 0.035407 -0.045987 0.093855 0.05433 0.066768 0.181295 0.016569 -0.262033 0.088718 -0.019571 0.052693 0.009422 0.007749 -0.062198 0.035078 -0.170783 -0.109887 -0.051371 0.088142 0.135591 -0.010743 0.025514 -0.009047 -0.121579 0.186548 0.022521 0.036774 0.17183 0.066132 0.09254 0.082441 -0.088491 -0.081832 0.017962 -0.036285 -0.059927 0.038842 -0.0052 0.081773 -0.050056 0.091032 0.203915 -0.091347 -0.101425 -0.177557 -0.044136 0.113395 0.140815 -0.005832 0.068476 -0.192456 0.057304 -0.102904 -0.094204 -0.199142 -0.166277 -0.01435 2.05E-4 0.073523 0.121399 0.031439 0.010424 -0.100921 0.049779 0.0731 0.03039 -0.023583 -0.137003 -0.08019 -0.121996 -0.288955 -0.041308 0.110603 0.155086 -0.11951 -0.218402 -0.075287 0.015009 -0.113641 0.196042 0.012681 -0.131442 0.013214 0.01092 0.144369 0.024212 -0.179417 -0.032645 -0.112605 0.114788 0.0294
0.0 0.0 0.0 0.0 0.0 0.0 0.0 0.0 0.0 0.0 0.0 0.0 0.0 0.0 0.0 0.0 0.0 0.0 0.0 0.0 0.0 0.0 0.0 0.0 0.0 0.0 0.0 0.0 0.0 0.0 0.0 0.0 0.0 0.0 0.0 0.0 0.0 0.0 0.0 0.0 0.0 0.0 0.0 0.0 0.0 0.0 0.0 0.0 0.0 0.0 0.0 0.0 0.0 0.0 0.0 0.0 0.0 0.0 0.0 0.0 0.0 0.0 0.0 0.0 0.0 0.0 0.0 0.0 0.0 0.0 0.0 0.0 0.0 0.0 0.0 0.0 0.0 0.0 0.0 0.0 0.0 0.0 0.0 0.0 0.0 0.0 0.0 0.0 0.0 0.0 0.0 0.0 0.0 0.0 0.0 0.0 0.0 0.0 0.0 0.0
-0.013663 -0.017904 -0.071069 -0.027412 -0.106277 -0.070689 0.0441 -0.065723 -0.01079 0.138118 -0.010105 0.046432 -0.062129 -0.027962 0.152809 0.006251 -0.00829 0.147524 -0.103551 -0.00816 0.071308 0.113974 0.102471 -0.008174 -0.161043 -0.065183 0.002317 -0.18834 0.018161 -0.012515 0.060593 -0.025239 -0.066279 -0.054458 -0.088463 -0.021271 0.082925 0.065061 0.068101 -0.001538 -0.153881 0.177298 0.18044 0.232386 -0.058677 -0.043418 0.089598 0.123697 -0.141886 -0.079594 0.120406 -0.092358 -0.034454 0.020755 0.097099 -0.083526 -0.08484 -0.007254 0.081385 -0.053535 0.092838 -0.045633 -0.00582 -0.133896 -0.116863 0.062812 -0.018595 0.044284 0.22196 -0.284501 0.085767 0.028283 0.009004 0.002828 -0.042202 -0.188489 -0.105119 0.013402 -0.151123 -0.016756 -0.165417 0.041837 0.081233 0.055275 0.096289 0.166944 0.143259 -0.074497 0.267854 -0.056319 -0.045625 0.071536 -0.032727 0.190066 -0.154213 -0.097282 0.011885 0.062398 0.130281 -0.103205
0.233485 -0.169544 -0.176879 -0.264085 -0.107436 0.057878 -0.060163 0.020134 -0.075479 0.113908 -0.09997 -0.174725 -0.252921 -0.122678 -0.035219 -0.077484 0.037537 -0.037793 0.129264 -0.099879 0.019875 -0.018207 0.00781 -0.131311 -0.122916 0.092196 -0.101513 -0.137821 -0.180387 0.028172 0.152386 0.192303 -0.095574 -0.106227 0.072159 0.021054 0.055603 -0.084775 0.048133 -0.033319 -0.145469 -0.052611 0.055902 0.169461 -0.069542 -0.067575 -0.154715 -0.139578 0.004359 -0.018258 0.099611 -0.130799 0.00714 -0.072897 0.088522 -0.010623 -0.01831 -0.120719 -0.232138 0.024499 0.020253 0.024691 -0.092193 -0.006159 -0.073972 0.145627 -0.15225 -0.053373 0.093501 -0.006107 0.04413 0.186046 -0.098408 0.199472 0.186096 0.163884 0.172805 0.064425 -0.04161 0.131829 0.010201 -0.12358 0.009225 -0.16262 -0.009664 -0.110038 0.19284 0.088062 0.137671 -0.018017 -0.1722 -0.015099 -0.007537 0.047423 -0.025555 0.128165 -0.06147 -0.007149 0.227166 0.114048
-0.041077 -0.046971 0.12257 -0.040869 -0.082339 -0.073433 0.03466 0.022263 -0.168397 0.066255 -0.011146 0.060876 -0.130089 0.050535 -0.003479 0.17541 -0.041009 0.2033 0.038303 0.064522 -0.164091 0.174974 0.130191 0.049081 -0.108982 -0.050347 0.039878 0.064941 0.03257 -0.228331 0.135591 -0.074348 -0.068179 0.062799 -0.117356 -0.078491 0.00313 0.127379 0.134381 -0.010967 -0.169136 -0.04402 -0.05013 -0.035006 0.013893 -0.04264 0.119254 -0.043959 0.101737 -0.002023 0.164761 -0.065662 -0.184098 -0.07635 -0.095084 -0.099496 -0.014413 0.00761 0.055457 -0.124257 0.108216 0.037334 -0.141402 -0.278608 -0.139197 -0.073526 0.04865 0.094266 0.001292 -0.047586 0.112574 0.007568 -0.055103 0.031144 0.068608 -0.143775 -0.193248 -0.059545 -0.02459 -0.030364 -0.045168 0.243924 0.054219 -0.061257 0.160239 -0.077431 0.171155 0.04903 0.342964 0.041425 -0.042881 0.009159 -0.175121 0.026866 -0.086331 0.118966 0.100929 -0.095159 -0.101371 -0.069956
-0.868528 -2.096773 -2.297737 -1.92163 -4.782328 0.495511 -1.206954 1.840061 -1.578795 -0.700643 -3.577079 -1.237034 -0.150158 0.357047 2.689426 1.942271 0.847547 1.002508 -0.879021 0.683427 -1.236998 2.313119 -1.140837 -3.390305 -0.563054 1.933463 0.53114 -1.7645 -0.167898 0.908317 -1.752758 -0.08637 1.506495 -4.882413 -0.345224 -2.903016 -1.359395 1.282631 0.118259 -0.512948 -1.371479 0.680884 1.05754 1.586138 0.208767 0.975685 0.34396 0.853164 1.211654 0.287068 -0.159279 0.015548 0.713871 -0.284979 1.809821 -0.114466 1.046905 0.317113 1.188733 -1.737614 1.92399 2.02477 1.418323 -1.801728 -0.940321 1.53376 1.831906 1.767443 -0.878986 1.170077 -0.540883 -0.103387 -1.58598 1.634518 2.327548 -0.082331 -0.626056 0.225148 1.340655 1.077765 -1.529258 0.601304 2.107917 -0.287201 -0.495747 1.723457 -0.288982 -0.9477 1.226922 0.15435 -1.211208 3.125587 0.046566 1.063728 0.145621 -1.113295 2.055665 0.911951 -0.038015 -2.449436
-0.085622 0.027432 -0.161416 0.023156 0.129845 -0.015921 -0.123546 -0.138227 -0.152169 0.075562 -0.042926 -0.056828 0.12054 -0.025706 -0.333907 -0.122875 0.133213 -0.100569 -0.072196 -0.011231 0.143455 -0.155223 0.044628 -0.075075 0.06976 -0.047349 -0.020827 -0.017574 0.130598 0.085895 -0.132242 -0.297382 0.200774 0.155463 -0.1613 -0.095652 -0.385789 -0.099705 -0.181174 0.042435 -0.011003 0.144018 0.094566 -0.140961 -0.05235 -0.144909 -0.013835 -0.066684 -0.105497 -0.005453 0.257395 -0.146191 0.020681 0.025143 0.055363 -0.218195 -0.04547 0.15098 -0.088743 -0.028925 -0.073702 0.090541 0.086524 0.030406 0.026765 0.253508 -0.006747 0.157587 0.230148 0.001197 0.104295 -0.14357 0.02848 0.112559 0.153954 0.007585 -0.312471 -0.110767 0.156817 0.09175 0.147888 0.281164 0.031739 0.041017 -0.102471 -0.02735 0.046529 0.082707 0.245731 0.048893 -0.053881 -0.089741 -0.273945 0.045103 -0.056185 -0.3169 0.077676 -0.086101 -0.03389 -0.068574
-0.023577 -0.047359 0.136496 -0.007111 -0.231999 -0.102611 -0.072123 -0.05753 -0.018736 0.012564 0.107156 0.219856 -0.027062 -0.0998 0.091219 0.151776 -0.093913 0.09002 -0.062086 0.141022 0.128186 0.069016 0.133812 0.043151 -0.097306 -0.105079 -0.089354 -0.194567 -0.088137 -0.039658 -0.181855 0.114894 0.009322 0.033044 -0.097214 -0.122896 -0.08831 0.194864 9.8E-5 -0.004734 0.023143 0.123402 0.039376 0.066878 -0.011213 -0.09637 0.023619 0.059134 -0.02883 0.02038 0.07651 -0.066316 -0.129485 0.079563 0.138728 0.066439 -0.080641 -0.071447 0.104827 -0.052133 0.126336 -0.132126 0.043176 -0.183578 0.015769 0.035776 -0.049368 0.125558 0.138498 -0.198609 -0.132514 -0.089681 0.040819 -0.014779 0.025687 -0.071244 -0.02242 0.011233 -0.011505 -0.055527 -0.13241 0.092515 0.172506 -0.210758 0.098336 -0.071408 0.113657 -0.124189 0.150283 -0.040794 0.00272 0.06662 0.049213 0.10508 0.031015 -0.062662 0.13678 -0.007926 0.098621 -0.063979
-0.088368 -0.057667 0.057068 0.036988 -0.157763 -0.178164 -0.053356 0.003555 -0.042266 0.14383 0.164627 0.077566 0.024942 -0.060627 0.11539 0.117117 0.102107 0.277495 0.017183 0.091084 -0.170821 0.226028 0.111775 0.043211 -0.15497 -0.00843 0.10101 -0.198082 0.236415 -0.15701 -0.055351 -0.034511 -0.055173 0.139243 -0.142295 -0.111432 -0.028987 0.02194 -0.032348 0.161212 -0.099582 0.12479 -0.062526 -0.034122 0.120054 -0.131988 0.011933 0.087219 -0.14144 0.136297 0.049784 -0.151225 -0.057765 0.078596 0.147915 -0.105573 0.103406 -0.056849 0.062888 -0.007702 0.137955 -0.113183 0.098167 -0.192924 -0.118126 -0.02781 0.002624 0.018399 0.065394 -0.15655 -0.169229 -0.006272 -0.020752 -0.037602 0.132208 -0.111042 -0.18175 -0.013878 -0.06598 -0.153508 0.017163 0.100105 0.12229 -0.075392 -0.005691 0.026123 0.034237 0.021068 0.202382 0.14332 -0.210798 -0.037144 -0.049736 0.076086 -0.14891 -0.160237 0.087386 -0.073836 0.047467 -0.066698
0.352905 0.550922 -1.128945 -0.511125 0.774489 1.405335 -0.371647 0.106012 -0.779785 -0.640302 -0.68578 1.570717 -0.712288 -0.706705 -0.789609 -0.045278 -1.599722 -2.840112 -0.089543 -1.158838 -1.862605 -0.62748 -0.063542 -0.468696 0.750564 0.033551 -0.772222 -0.188991 -0.163115 0.455978 0.038455 -0.779588 0.172303 -1.114448 -0.548246 -0.008155 1.66721 -0.744821 -0.15746 -2.668482 -0.304702 -0.905716 0.479063 0.151803 -0.94063 -0.044338 -0.906122 -0.456182 0.281891 0.268287 0.47007 0.628019 0.328428 1.471286 -2.345457 0.072073 -0.345477 -0.998199 -1.496897 -0.053061 0.351206 -0.934426 0.295591 0.07336 0.24092 0.486976 0.390085 -0.621556 0.375246 -0.02625 1.957847 1.014101 0.004675 0.08874 -0.900479 -0.462149 0.922254 1.355385 -1.048724 0.105897 1.254466 0.410718 0.321258 1.066395 -0.171761 -0.128774 0.315556 0.697301 -0.180925 0.555334 1.005586 -0.891677 -1.232923 -1.994189 -0.567812 0.204184 -0.947385 -0.051526 -0.987029 0.725141
0.073071 0.014953 -0.002246 -0.015718 0.015815 -0.096317 -0.088744 0.037532 0.005138 -0.120385 0.025738 0.061058 0.145372 0.012242 0.129813 0.107592 -0.053609 0.12751 0.021364 -0.03115 -0.068026 0.068191 0.126724 0.009326 -0.057095 -0.114447 -0.040905 0.011377 0.068943 0.003671 0.02751 -0.126347 -0.072269 -0.071854 0.012907 -0.167991 -0.069143 0.095215 -0.039467 0.113845 -0.033434 0.06278 0.031019 0.072844 -0.058034 0.07195 0.029596 -0.037162 -0.061823 0.149231 0.068848 -0.045706 -0.020389 -0.04325 0.019031 -0.118493 0.008271 0.057843 0.068441 -0.029649 -0.068408 -0.175273 0.105537 -0.119337 -0.118318 0.064512 0.115622 0.04742 0.225543 0.015338 -0.037489 -0.149448 0.097955 -0.013106 0.197931 -0.122936 0.069194 0.083054 0.084382 -0.081216 0.021515 0.05585 0.028737 -0.073726 0.209076 -0.039329 -0.064931 -0.132595 -0.032317 0.042176 0.029814 0.011914 0.093959 0.066623 0.147634 -0.006915 -0.018213 0.088564 -0.179946 0.022493
-0.164568 -0.024124 0.077644 0.007139 -0.077064 -0.104386 1.69E-4 0.071176 -0.015268 -0.001037 -0.128253 -0.118918 0.125556 0.011455 0.085515 -0.057284 0.004464 -0.028876 0.016223 -0.003982 0.014911 0.145995 0.065261 -0.017469 -0.014878 -0.023019 -0.029417 0.009526 0.100427 0.02266 -0.224429 0.06996 -0.067405 -0.059804 0.036775 -0.051635 -0.323539 0.012041 -0.004264 0.129617 -0.063949 0.010039 0.060702 0.074483 -0.11385 -0.095143 0.024586 0.07136 -0.045062 0.060525 -0.114628 -0.013109 -0.073977 0.005222 0.06839 -0.02695 0.022941 0.072553 0.027381 0.088562 0.076013 0.039683 0.068842 -0.048055 0.041811 0.129199 0.042904 0.084474 0.084013 -0.103461 -0.042666 -0.042521 0.098118 0.090905 0.049411 -0.019099 -0.104671 -0.002094 0.168133 0.012922 0.050121 0.151416 0.102822 0.013683 -0.010095 0.021373 -0.108218 -0.047255 0.046195 0.193705 -0.031969 -0.04779 0.073136 -0.053281 0.080974 -0.151229 0.026552 -0.089446 -0.02469 -0.06892
-0.038626 0.039445 -0.026789 -0.179215 0.132791 0.006032 0.018645 0.095015 0.114287 -0.020689 -0.046721 0.075712 -0.004447 0.03578 0.249641 -0.038765 -0.135991 0.154525 0.296704 0.166314 -0.066031 -0.072977 0.181304 0.010852 0.073719 -0.112435 0.072673 -0.133779 0.104124 -0.036222 8.73E-4 -0.023392 -0.03544 0.078565 -0.167642 -0.03292 0.166525 0.05627 -0.165715 0.211041 -0.014734 0.057737 0.03826 0.118253 -0.033206 -0.032742 -0.108513 0.05169 -0.04313 0.09378 0.060891 0.015419 -0.245636 0.084133 -0.300616 0.038352 -0.067725 -0.036052 0.004653 0.004813 -0.075828 -0.076097 -0.026635 -0.123079 0.095858 0.196873 0.126273 -0.005125 0.138118 -0.039099 -0.120491 0.001509 0.19482 -0.103971 0.125492 0.155083 -0.062518 -0.150541 -0.139808 -0.052223 -0.269784 -0.017276 0.0108 -0.081076 -0.078294 0.112235 0.160014 0.1652 0.064887 0.110933 -0.204737 -0.180643 -0.061101 -0.032471 -0.17622 -0.121352 0.012358 0.062652 0.007143 -0.199798
-0.058488 -0.128206 0.226812 0.01957 -0.015679 0.198432 -0.033719 0.01031 0.08858 0.084122 0.065234 0.174699 -0.115774 -0.166792 0.166205 0.01482 -0.181565 0.079631 0.020639 -0.005477 -0.075673 -0.11855 0.037942 0.086904 -0.057394 -0.09221 0.076278 0.083261 0.060987 -0.129159 -0.076956 0.119694 -0.039107 0.113165 -0.084008 -0.143939 0.084848 -0.112696 -0.265772 0.082036 0.116166 -0.10622 0.042605 -0.052686 0.041788 0.072304 0.022143 0.111461 -0.247706 -0.072874 0.16652 -0.075431 -0.016153 -0.042745 0.072708 -0.007479 -0.093147 0.010078 -0.098548 -0.009567 -0.185784 -0.048014 0.029533 0.016838 -0.007121 -0.087393 -0.178166 0.043206 5.68E-4 0.03761 -0.047408 0.088074 0.168599 0.034339 -0.072391 0.071417 -0.085363 -8.69E-4 -0.038666 -0.098226 0.116488 -0.059277 0.203249 0.067789 0.162273 -0.01442 0.01482 -0.051441 -0.081006 0.108997 0.089447 -0.105196 -0.036458 0.126448 0.076881 -0.131828 -0.022909 -0.051369 -0.061009 -0.007787
0.233485 -0.169544 -0.176879 -0.264085 -0.107436 0.057878 -0.060163 0.020134 -0.075479 0.113908 -0.09997 -0.174725 -0.252921 -0.122678 -0.035219 -0.077484 0.037537 -0.037793 0.129264 -0.099879 0.019875 -0.018207 0.00781 -0.131311 -0.122916 0.092196 -0.101513 -0.137821 -0.180387 0.028172 0.152386 0.192303 -0.095574 -0.106227 0.072159 0.021054 0.055603 -0.084775 0.048133 -0.033319 -0.145469 -0.052611 0.055902 0.169461 -0.069542 -0.067575 -0.154715 -0.139578 0.004359 -0.018258 0.099611 -0.130799 0.00714 -0.072897 0.088522 -0.010623 -0.01831 -0.120719 -0.232138 0.024499 0.020253 0.024691 -0.092193 -0.006159 -0.073972 0.145627 -0.15225 -0.053373 0.093501 -0.006107 0.04413 0.186046 -0.098408 0.199472 0.186096 0.163884 0.172805 0.064425 -0.04161 0.131829 0.010201 -0.12358 0.009225 -0.16262 -0.009664 -0.110038 0.19284 0.088062 0.137671 -0.018017 -0.1722 -0.015099 -0.007537 0.047423 -0.025555 0.128165 -0.06147 -0.007149 0.227166 0.114048
-0.181151 -0.065345 -0.233199 -0.070962 -0.016742 0.155468 0.015825 -0.102479 -0.176653 -0.163715 0.096019 0.223036 0.063294 -0.294334 0.096063 0.1192 -0.053271 -0.046736 0.104155 -0.038419 -0.2609 0.105994 0.189754 -0.132611 -0.080706 -0.026826 0.027948 0.102625 0.090177 -0.050293 -0.114326 -0.005794 -0.074012 0.018535 0.139589 -0.237837 -7.43E-4 -0.067564 0.077661 0.2343 0.064815 0.024758 -0.011872 0.112055 0.017454 -0.127604 0.172231 0.109593 0.028753 -0.005423 0.104931 0.033336 -0.044062 0.032595 -0.051126 -0.013849 0.127557 -0.129648 0.104342 -0.070731 0.00557 0.070474 0.012963 -0.076191 -0.064982 0.163917 0.132454 0.031528 -0.034558 -0.111677 0.068344 -0.028401 0.014567 0.019277 -0.118358 -0.192703 -0.073373 -0.0397 -0.076639 -0.104863 0.129762 0.102461 0.148782 -0.138394 0.188366 0.04508 -0.049597 0.059399 -0.021323 0.163658 -0.03426 -0.133416 -0.010369 -0.091176 0.052758 -0.053613 0.16004 -0.192891 -0.09287 -0.018925
-0.069111 0.046548 -0.008312 0.105836 0.105086 0.032645 -0.056969 -0.090508 -0.042349 0.118831 0.073036 0.11191 -0.00996 -0.111465 0.125245 0.127278 -0.195593 -0.053023 0.019282 -0.059959 -0.087979 -0.051653 -0.014814 -0.040968 -0.05435 -0.007141 -0.085557 0.051497 0.178824 -0.015102 -0.020477 -0.031027 -0.04191 -0.115135 -0.005581 0.107725 0.182544 -0.059586 -0.119391 5.44E-4 -0.021003 -0.047002 -0.077257 0.023988 -0.066141 0.002582 -0.193802 0.297125 -0.067886 -0.001133 0.149761 -0.125232 -0.061393 0.003964 -0.178116 -0.235613 -0.156319 0.019428 -0.038522 -0.124441 0.119419 -0.129489 -0.038163 -0.05294 -0.0354 0.178579 -0.097483 0.073568 0.195927 -0.032625 -0.118337 0.023638 0.009228 0.069056 -0.052637 -0.172236 0.051714 0.094459 -0.025784 -0.092401 0.115431 0.126662 0.005714 -0.019721 0.070804 0.005111 0.029751 -0.039322 0.152108 -0.015547 -0.052262 -0.069156 -0.015054 0.032116 0.129339 -0.181947 -0.072277 0.087652 0.111146 -0.087853
0.0 0.0 0.0 0.0 0.0 0.0 0.0 0.0 0.0 0.0 0.0 0.0 0.0 0.0 0.0 0.0 0.0 0.0 0.0 0.0 0.0 0.0 0.0 0.0 0.0 0.0 0.0 0.0 0.0 0.0 0.0 0.0 0.0 0.0 0.0 0.0 0.0 0.0 0.0 0.0 0.0 0.0 0.0 0.0 0.0 0.0 0.0 0.0 0.0 0.0 0.0 0.0 0.0 0.0 0.0 0.0 0.0 0.0 0.0 0.0 0.0 0.0 0.0 0.0 0.0 0.0 0.0 0.0 0.0 0.0 0.0 0.0 0.0 0.0 0.0 0.0 0.0 0.0 0.0 0.0 0.0 0.0 0.0 0.0 0.0 0.0 0.0 0.0 0.0 0.0 0.0 0.0 0.0 0.0 0.0 0.0 0.0 0.0 0.0 0.0
-0.096904 -0.049504 -0.082471 -0.050801 -0.175429 0.021206 0.034848 0.045176 -0.193814 0.016602 0.164478 0.025249 -0.024159 -0.110062 -0.136905 0.065549 0.103004 0.160755 -0.009444 -0.125299 -0.114883 0.040214 0.191318 -0.081817 0.066316 -0.065548 -0.067374 -0.085891 0.113077 -0.121134 -0.10236 0.003337 -0.18259 -0.194313 -0.039843 -0.331344 -0.047765 -0.082314 -0.072703 0.049634 -0.144728 0.101607 -0.160328 0.150916 -0.001313 -0.182803 0.231857 0.098347 -0.006359 0.071247 -0.106722 -0.262918 0.005404 0.108825 0.097083 -0.109244 0.053893 -0.128451 0.190794 -0.069653 0.238598 -0.146518 0.037883 -0.085972 0.02993 0.106087 0.336965 -0.160098 0.129957 0.065108 -0.147377 0.095608 0.178532 -0.033717 -0.023657 0.038147 -0.146698 -0.014592 0.163545 -0.012975 0.050209 0.038704 0.231172 -0.015421 -0.038847 0.011368 -0.004337 0.04574 0.057537 0.210886 -0.060135 0.090964 0.080115 -0.014874 -0.066099 0.035194 -0.020067 -0.273852 0.060846 -0.102303
-0.216608 -0.135263 0.271362 0.064631 -0.058472 0.007236 -0.105295 -0.067634 -0.178555 -0.063222 0.176318 0.001652 -0.070044 0.037822 0.172801 0.12771 0.058199 0.16586 -0.077341 0.120071 -0.154733 0.161664 0.291504 0.113562 -0.051629 -0.227728 -0.120683 -0.018789 0.021112 -0.156981 -0.055216 -0.150219 0.028774 0.006067 0.008834 0.083017 0.087725 0.10309 0.144559 0.230401 -0.145693 -0.003684 0.046353 0.177527 0.089936 -0.188201 -0.014907 -0.080068 -0.009225 0.080584 0.247199 0.027727 -0.023643 -0.333408 0.080675 -0.009407 0.001642 -0.139457 0.103284 -0.065379 -0.067105 -0.208892 -0.147464 -0.189518 0.068986 -0.133539 -0.101328 -0.17995 -0.04107 -0.066256 0.014339 0.094617 -0.039733 -0.009701 0.132607 -0.0652 -0.233482 -0.146858 -0.004052 -0.222281 -0.051324 -0.077138 0.144242 -0.164035 -0.018531 -0.175091 0.132275 -0.148507 0.099047 0.175248 0.122157 0.03334 0.073291 0.004423 -0.025155 -0.054521 0.05249 -0.01786 0.107547 -0.007077
0.135717 -0.065497 0.02281 0.048052 -0.011836 -0.09375 0.0016 -0.035631 -0.026011 -0.016446 0.147576 0.093555 -0.033806 0.001119 0.136647 0.086354 -0.119676 0.293363 0.140583 -0.140273 0.092999 0.105554 0.007309 -0.047042 -0.138044 -0.144529 -0.090671 0.023305 0.042831 -0.089424 -0.009516 -0.050607 -0.11973 0.043476 -0.110033 -0.070775 0.210602 -0.044688 0.047415 0.07877 -0.058849 0.123783 -0.083304 0.146343 -0.016713 -0.014302 -0.083131 -0.029171 -0.052871 0.027786 -0.056479 -0.019677 -0.067362 0.060823 0.051262 -0.094924 0.099503 0.030649 0.106531 -0.086298 0.023543 -0.100214 0.036796 -0.033757 -0.018593 0.054249 -0.041703 -0.048402 0.151764 -0.052203 -0.028287 0.059596 0.03622 0.059919 0.042116 -0.083798 0.077838 -0.039275 -0.10326 -0.058138 -0.047792 -0.041267 0.071076 -0.034964 0.077873 0.115244 -0.016893 -0.059243 0.145701 -0.018047 -0.084552 -0.05323 0.136246 0.034465 0.051731 -0.033088 0.142559 -0.100828 -0.127029 -0.153227
-0.001889 -0.015376 0.011577 -0.079922 0.019615 0.005975 0.018085 -0.133459 0.07886 -0.019014 -0.010821 0.041669 -0.011128 0.097962 -0.060935 0.042309 0.015014 8.49E-4 -0.002449 0.038756 0.0685 -0.030124 0.021652 -0.079703 0.075875 -0.122727 0.144977 0.073106 0.120718 -0.115022 0.047765 0.225363 -0.061747 -0.035103 0.080005 0.064342 -0.011293 0.032618 0.076202 0.118833 0.299047 0.176216 0.148892 -0.105455 -0.022399 0.118571 -0.05437 -0.136016 -0.04767 0.112361 0.012505 0.001737 0.056998 -0.132972 0.205737 0.014869 0.130993 0.242588 0.100312 0.073252 -0.019374 -0.073147 -0.042245 -0.05193 0.119558 0.067972 -0.198268 0.013905 0.103121 -0.09962 -0.010563 -0.219254 -0.117595 0.0375 -0.028297 0.03039 -0.116152 0.021365 0.041774 -0.247365 -0.187561 -0.063496 -0.088808 -0.029223 0.057963 0.069802 -0.07258 -0.052825 0.064478 0.040761 0.149345 0.085248 0.239559 0.137326 -0.140966 0.005439 0.083517 -0.02486 -0.028184 0.111642
