0.092506 -0.190181 -0.169651 -0.176859 -0.157274 0.117434 -0.246053 -0.095055 -0.226845 0.056095 -0.066084 0.025004 -0.043226 -0.06793 -0.068137 0.165682 0.061116 0.071951 0.064888 0.034774 -0.026295 0.078465 0.039067 -0.01204 -0.068662 -0.153453 0.017397 -0.052319 0.055524 -0.091639 0.124383 0.018886 -0.198151 0.077424 -0.103548 0.018512 -0.201059 0.101664 0.168027 0.022853 0.047591 -0.143808 -0.088134 0.074183 -0.119839 -0.069799 -0.289185 -0.063018 -0.136762 0.08873 0.186365 0.03422 -0.076668 -0.108907 0.163803 0.019469 -0.087732 -0.04543 1.34E-4 -0.053077 -0.090084 -0.032118 0.017588 -0.110636 0.093312 0.082828 -0.008866 -0.122675 0.005555 -0.156537 0.059343 0.058546 0.136846 -0.008335 0.094648 -0.058541 0.079997 0.127917 -0.051985 -0.109897 0.141124 -0.007186 0.001759 0.100589 -0.004111 0.049543 -0.027096 0.154899 0.081346 0.093517 -0.033063 -0.068032 0.135419 7.35E-4 -0.010201 0.097192 -0.043545 -0.058325 0.031733 0.071254
-0.034812 -0.133515 -0.086204 0.022457 -0.029721 -0.02075 -0.16369 -0.079586 -0.077429 0.132016 0.258768 0.143891 0.166757 -0.093488 0.059792 0.22027 -0.005194 0.097421 0.009307 -0.139972 -0.170596 0.038615 0.248116 0.063334 -0.104465 -0.091829 -0.083461 0.023524 0.148531 -0.151568 0.090073 -0.108381 -0.147843 0.186743 -0.140073 -0.063208 0.212287 -0.204516 0.334855 -0.036292 -0.194393 0.007633 0.169108 0.097309 -0.082062 -0.066794 0.134093 0.097946 -0.12322 0.061138 0.127938 -0.26024 0.012624 0.127768 -0.002512 -0.18753 0.017756 0.061517 -0.082691 -0.177179 0.092168 -0.011432 0.087983 -0.142896 -0.151101 -0.038403 -0.008946 -0.028721 0.097233 -0.048524 -0.109176 0.109497 0.120938 0.088499 -0.03967 0.024029 -0.169295 0.045749 -0.150652 0.00335 -0.069099 0.224476 0.033231 -0.134366 0.079649 0.134569 0.137641 0.128788 0.212644 -0.029561 -0.120304 -0.069512 -0.049811 0.101987 -0.041591 -0.155753 -0.009334 -0.028792 0.025867 0.146575
0.069355 -0.039597 -0.005989 -0.062185 0.022728 -0.165311 0.035234 -0.120425 0.132455 -0.128698 0.083455 0.01307 -0.224119 0.017696 0.110708 0.178055 -0.047257 0.143673 0.176347 0.049199 -0.101734 0.055208 0.102758 -0.040931 -0.159739 0.006094 -0.021728 0.087741 0.131223 -0.1361 -0.093542 -0.040734 -0.07027 0.14508 -0.057161 0.039198 0.070968 -0.045177 0.071631 0.020347 -0.001218 -0.027881 0.014169 -0.147398 0.002425 0.095469 -0.076174 0.005815 0.150788 0.003418 0.074724 -0.110043 -0.166538 -0.043396 -0.032079 0.103605 -0.152401 0.005723 -0.137949 -0.066454 -0.038214 -0.033129 0.084629 -0.108333 -0.013591 -0.01227 -0.097467 -0.192776 -0.040405 0.135597 0.004788 -0.067766 0.017649 0.025558 0.119741 -0.07408 0.068083 -0.066217 -0.098091 -0.324407 0.052583 -0.038355 -0.063136 -0.060229 -0.228332 -0.085798 0.014013 -0.1166 0.007 0.018169 -0.066404 0.030598 -0.015261 -0.13397 0.088973 0.049941 -0.032936 0.053388 0.0688 -0.063472
0.352905 0.550922 -1.128945 -0.511125 0.774489 1.405335 -0.371647 0.106012 -0.779785 -0.640302 -0.68578 1.570717 -0.712288 -0.706705 -0.789609 -0.045278 -1.599722 -2.840112 -0.089543 -1.158838 -1.862605 -0.62748 -0.063542 -0.468696 0.750564 0.033551 -0.772222 -0.188991 -0.163115 0.455978 0.038455 -0.779588 0.172303 -1.114448 -0.548246 -0.008155 1.66721 -0.744821 -0.15746 -2.668482 -0.304702 -0.905716 0.479063 0.151803 -0.94063 -0.044338 -0.906122 -0.456182 0.281891 0.268287 0.47007 0.628019 0.328428 1.471286 -2.345457 0.072073 -0.345477 -0.998199 -1.496897 -0.053061 0.351206 -0.934426 0.295591 0.07336 0.24092 0.486976 0.390085 -0.621556 0.375246 -0.02625 1.957847 1.014101 0.004675 0.08874 -0.900479 -0.462149 0.922254 1.355385 -1.048724 0.105897 1.254466 0.410718 0.321258 1.066395 -0.171761 -0.128774 0.315556 0.697301 -0.180925 0.555334 1.005586 -0.891677 -1.232923 -1.994189 -0.567812 0.204184 -0.947385 -0.051526 -0.987029 0.725141
3.229447 1.832686 -0.196265 -0.303454 -0.824437 2.082854 1.150219 -0.493805 -3.50143 -0.594107 2.103319 2.396154 1.056781 -0.578498 -1.172209 3.210305 -0.978008 -1.908997 -0.472705 -1.788789 -2.346806 -2.098664 -0.288581 -2.078696 0.41261 0.520842 -1.276654 0.578767 1.70845 -0.136278 -1.41294 0.371846 1.173228 1.232021 0.598135 -3.597398 4.723318 -0.907374 3.160397 -2.027976 1.188048 -5.433854 0.01906 -0.240727 2.932695 1.836205 0.69537 0.647449 5.328198 0.625981 0.041762 2.070653 0.300511 1.656161 -2.571092 0.908767 3.294905 2.941907 -1.065341 -2.086696 -0.817265 -1.894089 0.299235 -1.879644 0.485823 1.848637 -0.344618 -2.532108 2.074767 0.482597 3.034693 1.42216 0.457834 2.431775 -0.318071 1.666885 -1.364005 1.576786 -1.71492 -0.790398 2.548478 -2.38312 -0.502643 1.256626 0.730181 1.714355 1.091085 4.672542 0.202716 -0.959086 0.774024 -2.161259 -1.810393 -2.763748 0.167227 4.207294 2.675714 0.636561 -0.117425 -0.284099
-0.002795 -0.21011 0.127834 -0.00823 -0.075374 -0.049741 -0.051842 0.023443 0.018768 -0.117286 0.045673 0.183873 0.015618 -0.036521 0.075886 0.215219 0.107905 0.119021 0.182006 0.062936 -0.144146 0.152029 0.062304 0.056924 -0.279897 0.087017 -0.005324 -0.117567 0.147729 -0.255287 -0.046132 0.019501 -0.055959 0.094213 -0.050329 -0.036217 -0.00157 -0.093652 -0.011233 0.091959 0.066806 -0.016812 0.035635 -0.080524 0.108885 0.097184 -0.127981 -0.100494 0.097114 0.06797 0.071666 -0.219084 0.018324 0.088269 0.129009 -0.074538 0.012713 0.049284 -0.05631 -0.001185 0.050445 -0.309752 0.153069 0.02032 0.031139 -0.038214 -0.02165 0.032416 0.07491 -0.108447 -1.66E-4 -0.022387 -0.086169 0.107621 -0.046035 0.011636 -0.032401 0.038874 -0.016808 -0.016776 -0.053123 -0.108705 -0.001653 -0.219547 0.019661 -0.061742 0.059893 0.069224 0.170744 0.235562 -0.269585 0.015752 0.026174 0.05651 0.149015 -0.078086 -0.043971 -0.007838 -0.036333 -0.090567
-0.052715 -0.038998 -0.16444 0.049124 -0.015978 -0.149057 -0.05501 -0.013735 0.053223 0.196633 0.308633 0.104351 0.157396 0.070924 0.035568 0.142951 -0.025482 0.201723 0.053221 -0.107126 -0.194649 0.148213 0.269342 -0.037292 -0.043388 -0.092734 -0.130584 -0.220212 -0.157765 -0.12906 -0.025164 -0.157361 -0.16662 0.118292 -0.069179 -0.171658 -0.127907 0.093472 0.051968 0.094136 0.178459 0.178893 0.04254 0.182228 -0.032798 -0.16299 0.121079 0.063377 -0.327012 0.090266 0.016433 0.034733 -0.056157 0.031454 -0.127232 -0.143897 0.032864 -0.031992 0.367187 -0.042565 -0.003675 -0.039525 0.042732 -0.175399 -0.171811 -0.03937 -0.018327 -0.034729 0.174532 -0.19341 -0.084291 0.052293 -0.114735 -0.049049 0.081341 -0.045953 -0.116723 -0.140401 -0.052308 0.171687 -0.008138 0.182776 0.136911 -0.014853 0.18642 -0.035388 0.085561 0.058216 0.105436 0.084524 -0.051845 0.003789 0.019284 0.14831 -0.159767 0.017744 0.034457 -0.018589 -0.009806 -0.216695
0.859239 0.673689 -0.290939 -0.531477 -2.10922 2.035813 0.053013 3.136615 -1.086866 -0.032847 0.700746 1.333968 -1.724528 0.82957 0.674361 0.223577 0.753121 0.578528 -0.651298 0.69981 -1.840673 -2.421198 -1.92774 0.812465 0.305951 1.477557 -0.399502 -1.129891 -2.029444 -0.492184 2.567479 -0.03574 0.170095 -0.827749 1.449535 -1.2361 -0.253805 1.273949 0.472593 0.797911 0.335013 1.029314 -0.778648 0.990085 0.468485 -1.201123 0.862058 -0.348481 -0.001726 -1.9189 1.271396 -2.092349 0.466189 3.51941 -3.694 -1.725301 -1.842322 -0.531707 0.297758 -0.785766 -0.083723 1.17025 -0.678009 0.474607 1.714605 -1.459293 0.138731 0.742116 0.572401 0.622107 2.813798 1.670515 -2.990878 -3.204301 1.355485 1.509645 2.264333 -0.90668 0.397642 2.573653 2.178542 -0.616305 -1.750986 1.607468 -0.153016 -0.720591 -0.02845 2.540763 -0.831948 -0.886 0.163541 3.093616 -1.617663 0.557102 -1.36222 -1.985592 -0.264349 -1.714483 -3.242204 -0.922903
-0.029286 -0.014455 0.059149 0.033118 -0.032637 -0.067667 -0.08093 0.027355 -0.160822 0.06104 0.064252 -0.015261 -0.23257 0.159481 0.071223 0.078452 0.02138 0.031978 -0.070376 0.051055 0.167258 -0.024817 0.197827 0.065265 -0.076168 0.011676 -0.029734 0.143341 0.05525 -0.036865 -0.015966 0.031316 0.07905 0.08625 0.02865 0.036293 -0.052834 -0.183621 0.138387 0.091953 -0.154564 -0.126113 -0.090987 0.031969 0.097322 0.022643 -0.092082 -0.019082 -8.9E-4 -0.133906 0.06438 -0.089912 0.03693 0.137816 -0.11469 0.064534 -0.08614 0.001976 0.0226 -0.148874 -0.107001 0.042298 -0.03552 -0.084001 -0.01756 -0.03727 0.068266 -0.097254 0.068175 0.036138 0.111631 0.014317 -0.061953 -0.078465 0.038628 -0.078335 -0.164786 -0.038389 0.117773 -0.136854 0.103996 -0.032816 0.069406 0.009716 -0.086636 0.182745 0.01029 -0.019687 -0.087212 -6.07E-4 0.063293 -0.016581 -0.118043 -0.009156 0.083954 0.032562 0.046468 -0.053734 -0.025457 -0.002224
2.87464 -0.701464 -1.945087 0.798465 -1.901464 1.233586 0.415548 0.910772 -0.151839 1.954772 -2.264912 0.994107 0.647736 1.938717 -1.183067 0.135941 1.050214 0.11356 0.379275 1.268901 0.645368 0.378905 1.320608 -1.295395 0.750989 0.976305 1.28864 -0.982362 -1.931958 -1.239804 1.587084 0.099185 -0.294902 0.436027 0.579342 -1.183696 2.604155 -3.317551 -3.743154 -0.710407 -1.556585 -0.511151 -0.532478 0.756932 1.957984 -0.225002 -2.678844 0.397858 3.112323 3.965641 -0.165851 0.658701 -0.352562 2.544936 -1.39593 -0.599487 1.586211 -0.84923 -1.311629 -0.481193 1.327159 -0.223012 1.456903 -1.794692 0.410009 1.426936 2.365917 0.247322 -1.171522 1.262023 0.9894 3.527386 0.238687 -0.61635 1.079046 0.388121 -2.076334 0.369052 0.602814 0.861609 -0.099859 -1.472652 -1.350623 2.55205 2.553534 -0.407998 0.322457 1.532821 -1.233828 -0.554601 -1.412275 -1.700174 0.034869 0.921896 0.269059 1.176658 0.871542 0.570573 0.448573 0.170237
-0.160964 -0.094626 0.098633 0.014047 -0.138226 -0.005299 -0.093419 -0.016437 -0.177173 0.202246 0.067315 0.121794 8.61E-4 -0.02007 0.104691 0.190844 0.077111 0.117915 0.024073 0.160621 0.060641 0.096829 0.153424 -0.060769 -0.121863 -0.21134 0.063202 -0.113822 0.090528 0.027924 -0.114146 -0.098044 -0.021458 -0.0115 -0.036491 -0.108236 -0.09914 0.07663 0.047677 0.138815 -0.012787 0.205858 0.047559 -0.00546 0.085569 -0.174634 -0.021994 -0.008224 -0.045399 0.086753 -0.010033 -0.10313 -0.087121 0.064991 0.088456 0.033131 0.023405 -0.072037 0.089387 0.02255 0.067149 -0.145382 0.05875 -0.156249 -0.081582 -0.063474 0.072824 0.011042 0.1378 -0.150452 8.16E-4 -0.106755 0.015175 -4.18E-4 0.12196 -0.063824 -0.09083 -0.090681 0.054167 0.005595 -0.193273 0.108874 0.156035 -0.108006 0.104212 0.04742 0.085393 -0.060193 0.072479 0.066224 -0.086835 0.056733 0.035653 0.143154 -0.04686 -0.124419 0.144546 -0.004988 0.007061 -0.059544
-0.027751 -0.236417 0.035329 -0.015178 0.085594 0.115009 -0.256773 -0.207905 -0.036317 0.205622 0.307445 0.068497 0.1779 0.00518 0.225303 0.282446 -0.094408 0.034572 0.063258 0.03769 -0.133753 0.069426 0.338632 0.045353 -0.072922 -0.216289 0.042021 -0.220968 -0.025668 0.009022 0.093263 -0.104672 0.082561 0.155492 -0.03495 -0.085293 -0.0462 -0.07143 0.077188 0.062255 0.005506 0.084593 0.044633 0.016101 -0.060731 -0.014676 0.10661 -0.033706 -0.199983 0.299911 0.054336 -0.057527 -0.116818 0.097577 0.186033 -0.054987 0.077285 0.071407 0.200615 -0.057269 -0.008148 0.063125 -0.017685 -0.160977 -0.085853 -0.129897 0.239829 -0.137082 0.035124 -0.04857 0.042273 -0.219691 0.086647 -0.076075 0.260529 0.02115 -0.013517 0.124725 -0.046989 0.020679 0.013599 0.084107 0.021875 -0.22103 -0.140909 0.028579 -0.132448 -0.260188 -0.107119 0.099412 -0.217944 0.142839 -0.171686 -0.089725 -0.078693 -0.113678 0.308513 -0.040371 -0.024131 -0.151473
-0.114473 -0.155414 0.042098 0.002039 0.077422 -0.097985 0.024291 0.093053 0.028946 0.120671 0.163696 -0.094898 -0.234116 0.113523 0.168026 0.335099 0.05916 0.242567 -0.053954 -0.009865 -0.111606 0.092528 0.015933 -0.192728 -0.168109 0.2041 0.009646 -0.049399 0.081493 -0.078529 -0.002897 -0.04712 0.105097 -0.039472 -0.240108 -0.061162 -0.0912 -0.102917 -0.005904 0.138998 0.088982 0.007432 -0.115058 -0.098205 0.057058 0.149967 -0.03631 0.029508 0.165355 -0.042082 0.199658 0.078242 -0.126291 0.091864 0.181171 0.043341 0.064153 0.060046 -0.07306 -0.219137 -0.021196 -0.117696 -0.018033 -0.037492 -0.030772 -0.027623 0.193357 0.055739 -4.79E-4 -0.046838 0.025956 -0.170112 -0.117761 0.18726 0.076568 -0.035138 -0.181882 0.067111 0.020856 -0.157244 -0.035996 -0.15199 -0.141367 -0.186486 -0.224046 0.02562 0.073983 -0.043289 0.113765 0.065088 -0.185133 -0.098226 -0.066507 0.090427 0.00669 -0.219231 0.003431 0.021746 -0.048995 -0.051032
-0.052715 -0.038998 -0.16444 0.049124 -0.015978 -0.149057 -0.05501 -0.013735 0.053223 0.196633 0.308633 0.104351 0.157396 0.070924 0.035568 0.142951 -0.025482 0.201723 0.053221 -0.107126 -0.194649 0.148213 0.269342 -0.037292 -0.043388 -0.092734 -0.130584 -0.220212 -0.157765 -0.12906 -0.025164 -0.157361 -0.16662 0.118292 -0.069179 -0.171658 -0.127907 0.093472 0.051968 0.094136 0.178459 0.178893 0.04254 0.182228 -0.032798 -0.16299 0.121079 0.063377 -0.327012 0.090266 0.016433 0.034733 -0.056157 0.031454 -0.127232 -0.143897 0.032864 -0.031992 0.367187 -0.042565 -0.003675 -0.039525 0.042732 -0.175399 -0.171811 -0.03937 -0.018327 -0.034729 0.174532 -0.19341 -0.084291 0.052293 -0.114735 -0.049049 0.081341 -0.045953 -0.116723 -0.140401 -0.052308 0.171687 -0.008138 0.182776 0.136911 -0.014853 0.18642 -0.035388 0.085561 0.058216 0.105436 0.084524 -0.051845 0.003789 0.019284 0.14831 -0.159767 0.017744 0.034457 -0.018589 -0.009806 -0.216695
0.167398 0.004644 0.02515 0.010764 0.058063 -0.079151 -0.12942 -0.039785 -0.098318 0.095404 0.178593 0.224865 0.009918 -0.028459 -0.10332 0.318965 0.055402 0.003749 0.107393 -0.200526 -0.017718 -0.030007 0.226047 -0.068388 -0.089264 0.082168 -0.121839 -0.026798 0.177096 -0.105603 -0.105466 -0.047138 -0.07516 0.080358 -0.130578 -0.031277 0.021382 -0.225708 0.119428 0.132973 -0.008771 0.107208 0.152057 -0.13353 0.153186 0.002221 0.01584 -0.1092 -0.015741 -0.009375 -0.019298 -0.175763 -0.066393 -0.105815 0.37311 -0.078517 -0.020958 -0.175307 0.131626 -0.161119 -0.181016 -0.040402 -0.296199 -0.038168 0.043043 0.140919 -0.010267 0.138521 0.100395 0.007599 -0.077492 -0.021561 0.159846 0.040841 -0.064983 -0.028461 -0.133431 0.17978 0.17541 -0.003263 -0.136142 0.044712 0.027019 -0.262012 0.082318 0.159688 0.030479 0.063661 0.188758 0.117957 -0.041994 -0.071264 0.226374 0.223312 -0.017596 -0.151403 -0.001226 0.192689 -0.005731 -0.283727
9.06E-4 -0.08672 0.1837 0.153191 0.017464 -0.127129 -0.1323 -0.028166 0.004941 0.06673 0.016713 0.074364 -0.130037 0.082898 0.095981 0.061965 -0.150572 -0.049081 -0.059865 -0.092489 0.010503 -0.066442 0.179259 0.133894 -0.204678 0.129487 0.010077 -0.027386 0.061798 -0.106095 0.061361 -0.104853 -0.164252 0.080896 8.32E-4 0.027142 0.193679 0.180087 -0.011187 -0.068474 -0.033247 0.088208 0.047271 0.085032 -0.161062 -0.019781 -0.107089 -0.12747 -0.16173 0.188029 0.054563 -0.108034 -0.081749 0.053912 0.088773 0.204041 -0.024065 0.058741 -0.027409 -0.127634 -0.008097 -0.180388 0.108834 -0.057163 -0.014886 -0.006022 0.061899 -0.233875 0.05471 0.137299 -0.109398 -0.117312 0.030826 0.135823 0.091538 0.057803 -0.08771 -0.001882 -0.056519 -0.114807 -0.006541 -0.016584 -0.001263 -0.017088 0.057231 -0.002202 -0.023964 -0.217265 0.021371 -0.064586 -0.036124 -0.055204 -0.084857 -0.007687 -0.118515 -0.213067 0.049048 -0.058339 -0.038645 -0.043829
-0.004166 -0.084744 0.170731 0.047307 0.021447 -0.100976 0.09902 0.029355 0.047133 -0.062846 0.076322 -0.038243 -0.074493 0.089623 0.123443 0.121758 -0.027813 -0.039351 -0.094512 0.224857 0.016598 0.121319 0.079266 -0.027554 -0.195723 0.09312 0.070936 0.138514 0.107562 -0.054548 0.048501 -0.134609 -0.042303 -0.096938 0.028206 0.052513 0.12179 -0.151056 0.033904 0.014205 0.135686 -0.016101 0.04239 0.051335 -0.052406 0.106766 0.024557 -0.047017 0.00691 -0.075339 0.063541 -0.31325 -0.046709 -0.026951 0.103087 0.157259 -0.006518 0.13046 -0.119446 -0.187516 -0.196816 0.026366 0.102915 -0.049197 -0.046518 -0.157755 0.016752 0.059004 0.049682 -0.024189 0.095357 0.070965 -0.098474 0.146203 0.037867 -0.027468 -0.044177 -0.08416 -1.74E-4 -0.307284 0.153967 -0.077734 -0.034667 -0.200793 -0.078144 0.098399 0.120686 0.064864 0.144241 -0.006992 -0.110342 0.101871 -0.116171 0.073213 -0.22237 -0.123635 -0.11764 -0.026472 -0.167112 -0.034131
0.167398 0.004644 0.02515 0.010764 0.058063 -0.079151 -0.12942 -0.039785 -0.098318 0.095404 0.178593 0.224865 0.009918 -0.028459 -0.10332 0.318965 0.055402 0.003749 0.107393 -0.200526 -0.017718 -0.030007 0.226047 -0.068388 -0.089264 0.082168 -0.121839 -0.026798 0.177096 -0.105603 -0.105466 -0.047138 -0.07516 0.080358 -0.130578 -0.031277 0.021382 -0.225708 0.119428 0.132973 -0.008771 0.107208 0.152057 -0.13353 0.153186 0.002221 0.01584 -0.1092 -0.015741 -0.009375 -0.019298 -0.175763 -0.066393 -0.105815 0.37311 -0.078517 -0.020958 -0.175307 0.131626 -0.161119 -0.181016 -0.040402 -0.296199 -0.038168 0.043043 0.140919 -0.010267 0.138521 0.100395 0.007599 -0.077492 -0.021561 0.159846 0.040841 -0.064983 -0.028461 -0.133431 0.17978 0.17541 -0.003263 -0.136142 0.044712 0.027019 -0.262012 0.082318 0.159688 0.030479 0.063661 0.188758 0.117957 -0.041994 -0.071264 0.226374 0.223312 -0.017596 -0.151403 -0.001226 0.192689 -0.005731 -0.283727
-0.022493 -0.063723 -0.352066 0.154353 -0.11579 0.04542 -0.245524 -0.045161 -0.022878 -0.008763 0.075214 0.039576 0.068963 0.100374 0.024456 0.162144 0.091165 -0.038209 -0.093194 -0.107591 -0.054855 0.082824 -0.050979 0.157059 -0.02621 0.203365 0.085608 -0.011936 -0.076597 -0.145933 0.001596 -0.026138 -0.143163 -0.121366 0.055544 -0.022687 0.077745 -0.05405 -0.082235 -0.08763 0.077542 0.009519 0.19534 -0.171709 2.83E-4 -0.059787 0.013935 -0.050949 0.198382 -0.10324 -0.063382 0.083672 0.046819 0.146041 0.043459 -0.079976 -0.038742 0.063636 -0.187882 -0.019619 0.046315 0.042381 0.095067 0.027151 0.184969 -0.123818 -0.092333 -0.083622 0.131729 -0.056539 0.121585 0.162671 0.069608 -0.20657 0.032034 0.094476 0.066448 -0.015591 0.122915 0.096101 0.060364 -0.038754 0.107303 0.101254 -0.026686 0.048645 -0.089914 0.029737 -0.089507 0.14308 -0.006002 0.010694 -0.10749 -0.074467 -0.104624 0.028916 -0.202982 0.123299 -0.012073 -0.096612
-0.192047 0.046634 -0.025507 -0.017735 -0.077364 -0.11422 -0.0034 -0.034042 -0.256144 -0.003132 -0.151935 0.203796 0.065871 0.024345 0.239676 -0.07121 -0.090976 0.062615 -0.098213 0.034355 -0.071763 0.003012 0.144503 0.011921 -0.201755 -0.16991 -0.025441 0.027094 0.220065 -0.112787 0.224746 -0.052433 0.025149 0.120856 -0.152425 0.071928 -0.033648 -0.072602 -0.06787 -0.181808 0.110906 0.138022 -0.107145 -0.09036 0.117089 0.049377 -0.102668 0.066023 -0.072763 -0.053975 -0.015716 -0.143952 -0.092685 0.145094 -0.03028 0.07168 -0.130559 -0.171083 -0.108527 0.097885 0.118666 -0.162538 -0.079745 -0.130957 0.235092 -0.235734 0.173992 0.091378 0.041473 0.159102 0.13515 0.178551 0.079093 -0.023142 -0.106257 0.171671 -0.116628 0.064079 0.137293 0.008595 0.123745 0.111024 0.007556 -0.110378 0.070343 0.143211 -0.183159 0.037262 -0.028518 -0.204046 0.162363 0.112246 -0.054051 0.014568 -0.093728 0.053761 -0.009016 -2.4E-5 -0.083554 -0.196086
-0.051783 0.108937 0.231379 0.182121 -0.006821 0.071168 -0.049853 -0.128687 0.111999 -0.08916 -0.234616 0.067633 0.158279 0.0577 0.17022 0.163762 -0.135463 0.13095 0.004936 0.170924 0.022808 0.082541 -0.12179 0.108387 -0.110215 -0.115583 0.073963 0.132547 0.113731 -0.176583 -0.185194 -0.221464 0.018968 -0.112513 -0.114131 0.053599 0.130261 -0.034306 -0.08431 -0.035119 -0.092746 0.010898 -0.196916 -0.051015 0.016472 0.172692 -0.140889 -0.090469 -0.035583 -0.136071 0.146463 -0.162718 -0.084016 -0.133122 0.063065 -0.189671 -0.181631 -0.063891 -0.086186 0.072505 -0.089536 0.034427 0.119912 0.184007 0.093234 -0.066662 -0.006857 0.088026 -0.116681 0.134064 0.137552 0.013994 0.117712 0.115345 0.133336 -0.142702 0.119209 0.052641 -0.053779 -0.12146 0.204655 0.127625 -0.105728 -0.022685 -0.056315 -0.005917 0.040197 -0.032136 0.177735 0.0331 -0.140758 -0.008698 -0.020509 0.159676 0.135142 -0.023693 -0.019821 -0.149445 0.015906 -0.119505
4.088196 0.297704 -1.028615 4.747435 1.110235 3.134462 1.265814 0.610371 -0.19393 -2.629615 0.757407 2.031496 -1.681606 -0.750734 0.607439 1.730475 -0.575801 -4.9484 -3.106981 1.433708 -2.933383 -0.607278 0.21502 -0.936141 2.201521 -3.425759 0.586913 1.130422 0.587819 -0.544596 0.736509 0.737671 0.264796 0.179184 -4.64829 0.041762 0.734897 0.498987 2.005224 -0.478501 -0.946017 -3.056592 0.966226 -1.025565 0.551075 0.107511 -0.35197 -2.926284 3.608778 0.68242 1.34705 3.202598 -2.869086 -0.732502 -1.947601 1.534661 1.056872 2.271927 0.48151 -4.047965 -0.142861 1.538222 0.398362 -0.676201 0.098441 0.236745 -0.520654 -2.577075 -1.766508 3.842722 3.056848 1.899663 0.194581 1.398197 0.852022 -0.084509 -1.080607 0.04108 1.806659 -3.684653 -2.340004 0.651856 0.016765 1.240274 3.416146 5.020018 2.589897 0.918731 3.34579 -1.734813 2.131855 2.079846 1.246448 0.333801 -2.336565 1.727393 -1.314646 0.072673 -2.721992 3.204293
-0.186541 -0.103562 0.084023 0.068019 -0.042658 0.054326 -0.089113 -0.0586 -0.025315 -0.00483 0.037133 -0.143385 0.173072 0.036562 0.055564 0.101954 0.116651 0.250489 -4.29E-4 0.128986 -0.083048 0.134853 0.021164 -0.044882 0.023076 -0.022995 0.005891 0.150916 0.099036 0.101321 -0.210468 -0.077551 -0.2085 0.03748 -0.099077 -0.230315 0.105746 0.0173 0.018374 0.002226 0.042904 0.004448 -0.065016 0.114949 -0.029602 -0.120527 0.170661 0.145994 -0.119024 0.034657 0.031884 0.088794 -0.236671 -0.086782 0.134083 -0.088449 0.009924 0.128028 0.028588 0.042431 -0.029266 0.238106 -0.114075 0.005546 -0.205787 -0.028912 -0.106685 -0.09506 0.073417 -0.110768 -0.143758 0.00801 0.015002 -0.05882 -0.073469 0.00593 0.022303 -0.037623 0.017789 -0.007934 0.081754 0.15582 0.049966 -0.037966 0.135168 0.012886 0.042194 -9.5E-5 0.229344 -0.123858 -0.051609 0.032549 -0.058954 0.110117 0.067044 -0.152377 0.082909 -0.154981 0.060898 0.14248
-0.02951 -0.10093 -0.123216 -0.302362 -0.196236 0.042165 0.023508 -0.062289 -0.026636 0.183156 -0.044319 0.004399 0.064647 0.022353 -0.003475 0.050996 0.2705 0.205611 0.095731 -0.37856 -0.179047 0.182624 0.442037 -0.243417 -0.054766 -0.045367 -0.140801 0.204169 0.001776 -0.076517 0.062785 -0.407356 -0.039894 0.150269 -0.20229 -0.012589 0.108882 0.149502 -0.252643 0.266153 -0.143237 -0.020207 -0.108961 -0.148081 0.129883 0.029499 -0.014086 0.030034 -0.085399 0.052508 -0.122438 -0.025368 0.22147 0.092128 0.04232 0.079684 0.044989 0.070017 -0.020584 0.021227 -0.063883 2.3E-5 -0.260353 -0.227989 0.107689 -0.037163 -0.084378 0.08145 -0.077468 -0.122167 0.02928 0.214847 -0.033681 -0.028073 -0.012968 -0.073196 0.005089 0.004007 -0.048568 0.022159 -0.262071 -0.146007 0.031569 0.022726 0.113089 -0.349088 -0.021024 0.071374 0.094832 0.31796 -0.01226 -0.048493 0.019739 0.156768 -0.022196 -0.149034 0.152394 -0.136985 -0.191006 -0.039245
-0.113018 -0.099501 -0.106448 -0.02261 0.057658 -0.05626 -0.196924 -0.05769 -0.004004 0.122338 0.021298 0.016447 -0.009211 0.169079 0.124819 0.121173 0.161139 0.10401 0.069374 0.096987 -0.153319 0.124843 0.180103 0.023698 -0.313487 -0.058109 0.091321 -0.031339 0.147471 -0.174867 -0.040356 0.053018 0.081134 0.07513 -0.134188 -0.121205 0.097693 0.033447 0.203154 0.05936 -0.206536 -0.072002 0.100595 0.063055 -0.0188 -0.149722 0.026452 0.051584 0.046996 0.177333 -0.024145 -0.222961 -0.091259 0.038301 0.073201 -0.164593 -0.063159 -0.077305 -0.103001 -0.064421 0.146288 -0.070307 0.059076 -0.082523 -0.116772 -0.066069 -0.125459 -0.080593 0.105792 -0.007363 0.01362 -0.089349 -0.057377 -0.116967 0.017702 -0.083344 -0.178671 -0.074922 0.169842 0.062928 0.087333 0.001311 0.266421 -0.057941 0.05242 0.098365 -0.034037 -0.089437 0.169189 0.202764 -0.044596 -0.002929 -0.061194 0.065154 0.047794 -0.203194 0.028021 -0.072047 0.005623 -0.008401
-0.38434 -0.570338 -3.334123 -0.990325 -0.281295 3.633702 1.320934 0.804616 -0.499895 -0.831205 0.460112 1.388349 -2.264975 3.215568 -3.90167 1.353361 -1.448904 -2.546085 -1.024352 -1.734034 -1.344124 0.93203 0.532723 0.23208 -0.507331 0.823317 0.659701 0.36019 1.191168 -0.162178 -0.263719 -1.148898 -0.733443 1.049014 -0.463284 0.424462 1.721949 -2.279087 -0.239497 -3.509027 0.274708 -0.478871 -0.254635 1.092364 -0.333634 -0.504492 -0.065145 -0.538987 0.565458 0.780359 -0.571438 2.952173 0.370658 -0.759209 -2.924849 1.720769 0.511283 1.62778 2.047539 0.727555 2.155394 -1.325505 -0.576841 2.155423 -1.025197 1.359344 -0.744288 -2.504187 -1.775349 1.348846 2.846446 1.640962 1.869469 1.38429 0.797755 -0.790083 2.739745 1.110482 1.051984 -1.114181 2.453474 -0.002451 -1.249565 3.986771 0.736882 -1.32782 1.044597 0.12676 2.039398 0.327395 0.179204 -1.66492 -0.55174 -2.138355 -3.629091 -1.09422 -3.320013 0.282001 -1.758182 -2.017416
-0.052715 -0.038998 -0.16444 0.049124 -0.015978 -0.149057 -0.05501 -0.013735 0.053223 0.196633 0.308633 0.104351 0.157396 0.070924 0.035568 0.142951 -0.025482 0.201723 0.053221 -0.107126 -0.194649 0.148213 0.269342 -0.037292 -0.043388 -0.092734 -0.130584 -0.220212 -0.157765 -0.12906 -0.025164 -0.157361 -0.16662 0.118292 -0.069179 -0.171658 -0.127907 0.093472 0.051968 0.094136 0.178459 0.178893 0.04254 0.182228 -0.032798 -0.16299 0.121079 0.063377 -0.327012 0.090266 0.016433 0.034733 -0.056157 0.031454 -0.127232 -0.143897 0.032864 -0.031992 0.367187 -0.042565 -0.003675 -0.039525 0.042732 -0.175399 -0.171811 -0.03937 -0.018327 -0.034729 0.174532 -0.19341 -0.084291 0.052293 -0.114735 -0.049049 0.081341 -0.045953 -0.116723 -0.140401 -0.052308 0.171687 -0.008138 0.182776 0.136911 -0.014853 0.18642 -0.035388 0.085561 0.058216 0.105436 0.084524 -0.051845 0.003789 0.019284 0.14831 -0.159767 0.017744 0.034457 -0.018589 -0.009806 -0.216695
-0.341617 1.271173 -0.130955 0.795787 -2.761413 -0.037935 -2.08451 -0.749854 0.456374 0.189509 -1.784466 1.321352 -0.024572 0.775721 0.351052 -0.494201 0.597239 -2.035014 -1.822623 -1.26338 -1.852038 -3.261221 1.17085 -0.884857 0.341201 1.056519 -0.475283 -0.906839 -0.359697 -0.03678 0.485601 -0.573014 1.410657 0.602444 -0.65226 0.019708 2.334166 -4.120307 2.452699 0.37493 -0.43807 -0.885798 -0.909782 -0.866844 0.863746 -0.109914 -1.745782 -0.759427 1.102647 -0.229513 0.72866 5.020656 0.453599 0.948257 -0.341321 1.003234 1.507241 0.335139 -0.119095 -0.324834 2.432309 -1.518503 1.178541 1.207634 -1.537357 0.986701 1.190043 1.531747 -0.881239 0.152745 2.223002 -0.773424 1.003136 -1.671927 1.512302 -1.435468 2.471683 -0.288325 -0.945258 1.550236 1.231926 -1.03075 -3.561653 2.778667 1.207369 -1.904946 0.700824 -0.061776 -1.652007 -1.511937 -0.523117 -3.702699 1.471395 1.453605 -0.015539 0.288359 -0.016453 0.953476 -0.698522 -1.664865
-0.19975 -0.163397 0.046376 0.108494 -0.086906 -0.079634 -0.174304 -0.190655 -0.16796 0.054171 0.073367 0.100495 0.028349 0.089697 0.084377 0.226077 -0.144981 0.170875 0.030617 -0.002744 -0.049142 0.147196 0.014105 -0.098415 -0.097857 -0.116433 -0.221617 -0.031682 0.328072 0.174668 0.066348 0.00991 0.088367 -0.047556 0.007861 -0.096847 0.029124 0.106336 -0.027728 0.071993 -0.012189 0.143203 -0.02933 0.062494 -0.056761 -0.120269 -0.12018 -0.017668 -0.062963 0.101128 0.16565 -0.026171 -0.079002 -0.131484 -0.015915 0.040522 -0.181151 -0.002836 0.057121 -0.107145 0.126391 -0.080741 0.019065 -0.07346 -0.064256 0.100005 0.14671 -0.007299 -0.060089 0.006398 0.030183 0.114927 0.121747 -0.032423 0.073375 -0.013173 -0.065432 0.056931 -0.211812 0.024416 -0.072059 -0.018436 0.023346 -0.02972 0.040747 0.006594 0.315286 0.127171 0.034984 0.125694 -0.126999 -0.159279 0.204473 0.190888 -0.115081 -0.166722 0.05582 -0.005334 0.014762 -0.26041
-2.011273 -1.605936 -0.452837 0.531597 -0.232634 2.378869 2.322897 1.54229 0.846706 -2.966805 -0.808192 -1.353793 1.883152 -0.302236 0.298977 -0.661951 1.136663 2.727132 -0.39084 0.462988 -3.921237 1.705052 1.20819 -1.694399 -0.489271 0.078796 1.331889 0.201879 0.646419 2.414565 0.18035 -0.751221 1.209751 0.50097 -0.258759 -1.45417 -0.513311 -1.710305 -0.168919 -2.050175 -0.477788 0.160655 -0.316494 -1.385537 -0.376846 0.114848 -1.6468 1.227257 -0.529794 0.293407 0.896387 1.132956 -0.864631 3.18234 -0.381689 0.272191 -2.015448 -0.591606 -0.125537 -0.213738 -0.091675 -0.727804 -0.253225 2.051622 0.528743 -1.907949 1.471822 -0.906788 -0.81398 0.497982 1.108728 1.050559 -1.189966 -0.719144 -0.300175 1.151064 1.725232 -0.382093 -0.621638 0.642728 -0.427574 -0.656976 -0.545976 -1.134405 2.114153 0.682701 0.400055 0.81321 -0.242437 1.904575 -0.338015 -0.916583 -1.532616 1.637215 0.250935 2.532169 -3.420403 1.957681 0.840461 0.494845
-0.047421 -0.15849 0.107499 0.089927 0.167776 0.08617 -0.300314 -0.309623 0.108092 0.189928 0.056687 0.033222 -0.077897 -0.080874 0.159018 0.266839 -0.245001 0.016831 -0.085825 0.058383 -0.059198 -0.055262 0.240707 -0.12969 -0.22039 0.060318 -0.047124 -0.139865 0.089529 -0.172326 0.039714 -0.133083 -0.093917 0.050088 -0.217563 -0.099461 0.041898 -0.126919 0.020688 0.317283 0.16597 0.022872 0.046324 -0.073254 -0.180954 0.079862 0.019486 0.185367 0.118476 0.006355 -0.032953 -0.037425 0.063885 0.11699 0.184923 0.052025 0.128145 -0.13686 0.190992 -0.211976 0.013083 -0.015876 -0.029147 0.01214 -0.021098 0.071397 0.239282 -0.021331 -0.132596 -0.213218 -0.047197 -0.061747 0.108005 0.06585 0.170104 0.21 0.017802 0.149472 0.139998 -0.100998 0.016478 -0.071088 -0.215638 -0.123884 -0.172349 0.055991 -0.115719 -0.021301 0.071983 0.092645 -0.139537 0.078519 -0.099633 0.035876 -0.078405 -0.346964 0.042416 0.013565 -0.105723 -0.0419
1.166535 0.571929 -2.296376 2.672156 -0.836627 -0.08581 -1.487717 0.680374 -1.051267 1.860963 -0.259307 -0.30104 -0.791023 3.516942 -3.423764 -1.714332 1.810032 0.385578 -0.596675 -0.336783 -0.307858 1.439698 3.283819 1.759804 -1.324751 3.053141 1.546661 -0.869133 -0.988947 -2.841006 -0.807501 0.71782 1.020934 -2.112568 -3.849263 -0.088448 -0.204372 0.604028 -2.055051 -0.926484 2.240313 0.079563 1.47677 -1.077266 2.965209 -1.837141 -0.07257 0.520574 2.179644 1.024933 -3.643406 1.180127 0.780232 2.966327 1.259519 -1.287425 1.510162 -2.776232 -1.020438 -2.465755 2.42826 -1.10543 1.35111 -0.106856 0.198081 -0.329907 0.006786 -1.935482 -0.023294 -0.879974 -0.607877 1.109545 2.518159 1.083583 0.067156 -1.138621 -2.607427 1.556449 0.183065 4.80035 -0.619828 0.54766 3.136885 4.279558 1.376504 -1.614635 3.284498 2.685056 0.304438 4.452716 -1.6901 -1.877963 1.03142 -2.114648 2.29784 0.653892 0.564788 1.18588 0.542849 1.578378
0.0 0.0 0.0 0.0 0.0 0.0 0.0 0.0 0.0 0.0 0.0 0.0 0.0 0.0 0.0 0.0 0.0 0.0 0.0 0.0 0.0 0.0 0.0 0.0 0.0 0.0 0.0 0.0 0.0 0.0 0.0 0.0 0.0 0.0 0.0 0.0 0.0 0.0 0.0 0.0 0.0 0.0 0.0 0.0 0.0 0.0 0.0 0.0 0.0 0.0 0.0 0.0 0.0 0.0 0.0 0.0 0.0 0.0 0.0 0.0 0.0 0.0 0.0 0.0 0.0 0.0 0.0 0.0 0.0 0.0 0.0 0.0 0.0 0.0 0.0 0.0 0.0 0.0 0.0 0.0 0.0 0.0 0.0 0.0 0.0 0.0 0.0 0.0 0.0 0.0 0.0 0.0 0.0 0.0 0.0 0.0 0.0 0.0 0.0 0.0
-0.047421 -0.15849 0.107499 0.089927 0.167776 0.08617 -0.300314 -0.309623 0.108092 0.189928 0.056687 0.033222 -0.077897 -0.080874 0.159018 0.266839 -0.245001 0.016831 -0.085825 0.058383 -0.059198 -0.055262 0.240707 -0.12969 -0.22039 0.060318 -0.047124 -0.139865 0.089529 -0.172326 0.039714 -0.133083 -0.093917 0.050088 -0.217563 -0.099461 0.041898 -0.126919 0.020688 0.317283 0.16597 0.022872 0.046324 -0.073254 -0.180954 0.079862 0.019486 0.185367 0.118476 0.006355 -0.032953 -0.037425 0.063885 0.11699 0.184923 0.052025 0.128145 -0.13686 0.190992 -0.211976 0.013083 -0.015876 -0.029147 0.01214 -0.021098 0.071397 0.239282 -0.021331 -0.132596 -0.213218 -0.047197 -0.061747 0.108005 0.06585 0.170104 0.21 0.017802 0.149472 0.139998 -0.100998 0.016478 -0.071088 -0.215638 -0.123884 -0.172349 0.055991 -0.115719 -0.021301 0.071983 0.092645 -0.139537 0.078519 -0.099633 0.035876 -0.078405 -0.346964 0.042416 0.013565 -0.105723 -0.0419
1.815418 0.654852 -0.256483 -1.397407 2.101842 1.802144 0.385527 2.62131 -2.104203 2.033119 -3.526781 0.092577 0.341161 -0.002891 0.571047 4.609436 1.150391 -4.177905 -2.28919 2.579473 0.094588 -3.001034 -2.291169 -2.804683 0.549761 -1.088593 -0.577049 -1.444589 0.215522 -1.710604 0.815599 -1.145555 2.183792 1.684825 -2.399412 -0.199692 2.755002 -4.765173 -0.211239 -2.361275 2.043496 -6.213054 0.143804 -1.141037 -0.167978 -2.013893 -1.801212 0.128754 0.607318 2.293955 4.997328 4.457933 0.624194 1.0149 -1.872277 -0.111373 2.908833 0.237943 -1.067192 -0.826865 -1.561504 -1.192556 -1.311968 0.727627 1.634309 -0.557627 2.040709 0.621674 -1.590427 -1.427803 1.08292 -0.633078 -1.880037 1.151657 0.483396 -1.245704 -0.391996 -1.074685 0.546417 1.938725 1.355645 1.00482 1.007191 1.431956 -1.261764 -0.704501 4.181545 -1.494449 1.834674 -0.418833 -1.774271 -2.066933 -1.337595 0.111644 1.270495 3.44202 0.964179 2.28273 1.161315 0.280188
-0.055587 -0.024879 -0.095132 -0.105576 0.144029 0.076057 -0.061821 -0.015695 -0.148082 0.124611 0.15281 0.088171 0.026963 0.027312 0.085004 0.14632 -0.087824 0.229277 0.083812 -0.022445 0.047327 0.107496 0.190865 0.124383 0.037662 -0.290207 -0.042369 -0.050937 -0.007265 0.024754 -0.144668 -0.221973 -0.119292 0.162604 -0.147821 -0.159178 0.204559 -0.052188 0.196134 0.029413 -0.206649 0.038471 0.046959 0.245755 -0.20909 -0.21628 0.007198 0.100133 0.024292 0.018504 0.098815 0.136439 -0.246285 0.05936 0.041581 -0.011614 -0.101398 0.085889 0.04437 -0.047023 0.105535 0.119098 0.050504 -0.060198 -0.06233 -0.037827 0.141918 -0.030907 0.045634 -0.165694 0.104298 -0.061929 0.062084 -0.124255 0.118497 -0.04962 -0.137357 -0.16921 -0.097154 0.021473 0.105708 0.244284 0.067069 -0.25576 -0.005835 0.204486 0.121989 -0.042621 0.016268 0.115758 -0.004702 -0.106193 -0.056468 -0.075591 0.04228 -0.208913 0.051416 -0.1362 0.042066 -0.010223
-0.002795 -0.21011 0.127834 -0.00823 -0.075374 -0.049741 -0.051842 0.023443 0.018768 -0.117286 0.045673 0.183873 0.015618 -0.036521 0.075886 0.215219 0.107905 0.119021 0.182006 0.062936 -0.144146 0.152029 0.062304 0.056924 -0.279897 0.087017 -0.005324 -0.117567 0.147729 -0.255287 -0.046132 0.019501 -0.055959 0.094213 -0.050329 -0.036217 -0.00157 -0.093652 -0.011233 0.091959 0.066806 -0.016812 0.035635 -0.080524 0.108885 0.097184 -0.127981 -0.100494 0.097114 0.06797 0.071666 -0.219084 0.018324 0.088269 0.129009 -0.074538 0.012713 0.049284 -0.05631 -0.001185 0.050445 -0.309752 0.153069 0.02032 0.031139 -0.038214 -0.02165 0.032416 0.07491 -0.108447 -1.66E-4 -0.022387 -0.086169 0.107621 -0.046035 0.011636 -0.032401 0.038874 -0.016808 -0.016776 -0.053123 -0.108705 -0.001653 -0.219547 0.019661 -0.061742 0.059893 0.069224 0.170744 0.235562 -0.269585 0.015752 0.026174 0.05651 0.149015 -0.078086 -0.043971 -0.007838 -0.036333 -0.090567
2.591633 1.608701 -2.087245 2.00752 3.012652 4.995656 0.847355 -1.594905 -0.365708 -1.629805 -1.650237 3.712017 -0.231463 -0.537534 -2.036098 2.002639 -0.696666 -4.310136 -1.477319 -1.356504 -0.581823 -1.830239 -0.272773 -1.648095 0.090509 0.008711 0.330842 0.396714 2.341035 -0.526067 1.155793 -1.730906 -1.010387 -1.342646 -1.939355 0.734869 0.727366 0.700702 1.516974 -2.133831 -0.280653 -3.051674 0.017123 0.532043 1.478449 0.375441 0.920129 1.548929 1.087478 0.668327 0.707416 3.249232 -0.362503 1.273221 -2.929682 -0.245389 1.633444 -0.119836 0.103459 -3.445175 0.513245 0.427807 0.738792 1.448203 0.501908 0.362882 -0.731533 -0.391201 0.037778 3.053553 4.030229 1.793904 1.24136 0.081706 -1.401954 -0.638804 -0.487445 -0.267924 0.012844 0.538179 -0.241935 -0.068756 1.351665 -0.112558 0.001814 0.447262 0.833441 -0.023876 1.212707 1.514635 -0.568611 0.376173 -3.663739 -4.345135 -0.444319 2.139788 -2.53093 0.92131 -1.399435 1.763954
7.24E-4 -0.031559 0.045731 0.030518 0.120621 -0.048906 -0.01325 -0.186245 0.021287 0.0085 0.05109 0.021243 -0.076045 -0.188208 0.004679 0.160169 0.017064 0.141879 0.054208 0.022435 -0.170883 -0.050834 0.085081 0.040636 0.089485 0.090979 0.04581 -0.154161 -0.072734 -0.065645 0.18534 0.059918 0.067037 -0.097336 -0.001173 0.088524 0.079779 -0.006823 0.076717 0.010213 0.022031 0.112512 0.032199 -0.030851 -0.040039 0.062614 0.100346 0.009072 0.020054 0.092271 0.083237 -0.212266 -0.062808 0.036227 -0.025637 -0.064927 -0.130073 -0.048118 0.030728 0.01007 -0.069525 0.085343 9.57E-4 -0.069792 -0.041382 -0.051717 0.015703 0.198753 -0.064245 -0.092735 -0.08027 0.058291 0.056399 0.04245 -0.006346 -0.049423 4.03E-4 0.0354 -0.057731 -0.008255 -0.021348 0.103489 0.047552 -0.043407 -0.160651 -0.078624 0.0135 0.04979 0.131747 0.198337 -0.035769 -0.072526 0.066841 -0.032415 0.006947 0.005046 0.009104 0.060922 0.029884 -0.186175
-0.047524 -0.056418 0.152426 0.164386 -0.068943 0.049205 -0.200131 -0.172014 0.015844 -0.097376 -0.129815 0.072003 -0.036051 0.388767 0.068266 -0.038304 0.0949 0.018618 0.094448 0.118131 -0.059074 0.003758 0.132824 0.164657 -0.109614 0.087625 -0.102257 0.07855 0.184949 0.017492 -0.027249 0.102367 -0.009004 0.078221 -0.107879 -0.248584 -0.127962 -0.148823 0.074154 -0.083384 0.015023 -0.273287 0.114582 -0.262055 0.025994 -0.014456 -0.169826 -0.29523 -0.045169 -0.059713 -0.083546 -0.239749 -0.095238 -0.156067 -0.019737 -0.059052 -0.172925 -0.03516 -0.101309 0.270739 -0.166443 0.0027 -0.110807 -0.047799 0.063499 0.002647 0.10562 -0.127266 -0.105035 0.069806 0.107506 0.079007 -0.001581 -0.093473 0.07171 0.374933 -0.055934 0.08382 0.066629 0.020428 0.064735 -0.049276 0.067481 -0.104993 -0.042289 0.107203 -0.109638 -0.036018 0.103351 0.287212 0.002522 0.082882 0.157033 0.21881 0.071961 -0.092656 -0.048382 0.003596 0.145041 0.084943
0.092506 -0.190181 -0.169651 -0.176859 -0.157274 0.117434 -0.246053 -0.095055 -0.226845 0.056095 -0.066084 0.025004 -0.043226 -0.06793 -0.068137 0.165682 0.061116 0.071951 0.064888 0.034774 -0.026295 0.078465 0.039067 -0.01204 -0.068662 -0.153453 0.017397 -0.052319 0.055524 -0.091639 0.124383 0.018886 -0.198151 0.077424 -0.103548 0.018512 -0.201059 0.101664 0.168027 0.022853 0.047591 -0.143808 -0.088134 0.074183 -0.119839 -0.069799 -0.289185 -0.063018 -0.136762 0.08873 0.186365 0.03422 -0.076668 -0.108907 0.163803 0.019469 -0.087732 -0.04543 1.34E-4 -0.053077 -0.090084 -0.032118 0.017588 -0.110636 0.093312 0.082828 -0.008866 -0.122675 0.005555 -0.156537 0.059343 0.058546 0.136846 -0.008335 0.094648 -0.058541 0.079997 0.127917 -0.051985 -0.109897 0.141124 -0.007186 0.001759 0.100589 -0.004111 0.049543 -0.027096 0.154899 0.081346 0.093517 -0.033063 -0.068032 0.135419 7.35E-4 -0.010201 0.097192 -0.043545 -0.058325 0.031733 0.071254
-0.034812 -0.133515 -0.086204 0.022457 -0.029721 -0.02075 -0.16369 -0.079586 -0.077429 0.132016 0.258768 0.143891 0.166757 -0.093488 0.059792 0.22027 -0.005194 0.097421 0.009307 -0.139972 -0.170596 0.038615 0.248116 0.063334 -0.104465 -0.091829 -0.083461 0.023524 0.148531 -0.151568 0.090073 -0.108381 -0.147843 0.186743 -0.140073 -0.063208 0.212287 -0.204516 0.334855 -0.036292 -0.194393 0.007633 0.169108 0.097309 -0.082062 -0.066794 0.134093 0.097946 -0.12322 0.061138 0.127938 -0.26024 0.012624 0.127768 -0.002512 -0.18753 0.017756 0.061517 -0.082691 -0.177179 0.092168 -0.011432 0.087983 -0.142896 -0.151101 -0.038403 -0.008946 -0.028721 0.097233 -0.048524 -0.109176 0.109497 0.120938 0.088499 -0.03967 0.024029 -0.169295 0.045749 -0.150652 0.00335 -0.069099 0.224476 0.033231 -0.134366 0.079649 0.134569 0.137641 0.128788 0.212644 -0.029561 -0.120304 -0.069512 -0.049811 0.101987 -0.041591 -0.155753 -0.009334 -0.028792 0.025867 0.146575
0.047752 -0.011346 0.0923 -0.029609 0.057311 -0.018942 0.101697 -0.008816 0.160723 0.047691 0.071984 0.076167 -0.075283 -0.019033 0.020958 0.126101 -0.130388 0.006598 -0.014525 0.04765 -0.051593 0.1344 -0.019667 0.017882 0.076152 -0.006446 0.103046 0.003142 0.050101 -0.034555 0.102535 -0.03113 -0.059746 -0.06714 0.009189 -0.056583 -0.121006 -0.048071 -0.068459 0.107579 -0.067348 -0.079693 -0.025409 -0.126253 0.011246 0.093704 0.001957 -0.055331 0.072705 0.08961 0.033024 -0.078931 -0.030987 -0.136595 0.078724 -0.06895 -0.159063 -0.014373 -0.09182 -0.019845 0.021328 0.038025 -0.035713 -0.219075 -0.179694 0.088581 0.019521 0.046478 -0.034868 -0.055462 0.066894 0.044192 -0.038243 -0.03165 -0.04116 0.112415 -0.038024 -0.034903 -0.099677 -0.034058 -0.072879 0.11684 -0.027534 -0.060155 0.022785 -0.180086 0.147153 -0.028915 0.09839 0.09891 0.033324 -0.024952 -0.007763 0.133121 -0.043308 -0.063667 -0.016107 0.045521 -0.041694 0.037351
0.069355 -0.039597 -0.005989 -0.062185 0.022728 -0.165311 0.035234 -0.120425 0.132455 -0.128698 0.083455 0.01307 -0.224119 0.017696 0.110708 0.178055 -0.047257 0.143673 0.176347 0.049199 -0.101734 0.055208 0.102758 -0.040931 -0.159739 0.006094 -0.021728 0.087741 0.131223 -0.1361 -0.093542 -0.040734 -0.07027 0.14508 -0.057161 0.039198 0.070968 -0.045177 0.071631 0.020347 -0.001218 -0.027881 0.014169 -0.147398 0.002425 0.095469 -0.076174 0.005815 0.150788 0.003418 0.074724 -0.110043 -0.166538 -0.043396 -0.032079 0.103605 -0.152401 0.005723 -0.137949 -0.066454 -0.038214 -0.033129 0.084629 -0.108333 -0.013591 -0.01227 -0.097467 -0.192776 -0.040405 0.135597 0.004788 -0.067766 0.017649 0.025558 0.119741 -0.07408 0.068083 -0.066217 -0.098091 -0.324407 0.052583 -0.038355 -0.063136 -0.060229 -0.228332 -0.085798 0.014013 -0.1166 0.007 0.018169 -0.066404 0.030598 -0.015261 -0.13397 0.088973 0.049941 -0.032936 0.053388 0.0688 -0.063472
-0.047421 -0.15849 0.107499 0.089927 0.167776 0.08617 -0.300314 -0.309623 0.108092 0.189928 0.056687 0.033222 -0.077897 -0.080874 0.159018 0.266839 -0.245001 0.016831 -0.085825 0.058383 -0.059198 -0.055262 0.240707 -0.12969 -0.22039 0.060318 -0.047124 -0.139865 0.089529 -0.172326 0.039714 -0.133083 -0.093917 0.050088 -0.217563 -0.099461 0.041898 -0.126919 0.020688 0.317283 0.16597 0.022872 0.046324 -0.073254 -0.180954 0.079862 0.019486 0.185367 0.118476 0.006355 -0.032953 -0.037425 0.063885 0.11699 0.184923 0.052025 0.128145 -0.13686 0.190992 -0.211976 0.013083 -0.015876 -0.029147 0.01214 -0.021098 0.071397 0.239282 -0.021331 -0.132596 -0.213218 -0.047197 -0.061747 0.108005 0.06585 0.170104 0.21 0.017802 0.149472 0.139998 -0.100998 0.016478 -0.071088 -0.215638 -0.123884 -0.172349 0.055991 -0.115719 -0.021301 0.071983 0.092645 -0.139537 0.078519 -0.099633 0.035876 -0.078405 -0.346964 0.042416 0.013565 -0.105723 -0.0419
-0.114473 -0.155414 0.042098 0.002039 0.077422 -0.097985 0.024291 0.093053 0.028946 0.120671 0.163696 -0.094898 -0.234116 0.113523 0.168026 0.335099 0.05916 0.242567 -0.053954 -0.009865 -0.111606 0.092528 0.015933 -0.192728 -0.168109 0.2041 0.009646 -0.049399 0.081493 -0.078529 -0.002897 -0.04712 0.105097 -0.039472 -0.240108 -0.061162 -0.0912 -0.102917 -0.005904 0.138998 0.088982 0.007432 -0.115058 -0.098205 0.057058 0.149967 -0.03631 0.029508 0.165355 -0.042082 0.199658 0.078242 -0.126291 0.091864 0.181171 0.043341 0.064153 0.060046 -0.07306 -0.219137 -0.021196 -0.117696 -0.018033 -0.037492 -0.030772 -0.027623 0.193357 0.055739 -4.79E-4 -0.046838 0.025956 -0.170112 -0.117761 0.18726 0.076568 -0.035138 -0.181882 0.067111 0.020856 -0.157244 -0.035996 -0.15199 -0.141367 -0.186486 -0.224046 0.02562 0.073983 -0.043289 0.113765 0.065088 -0.185133 -0.098226 -0.066507 0.090427 0.00669 -0.219231 0.003431 0.021746 -0.048995 -0.051032
0.0 0.0 0.0 0.0 0.0 0.0 0.0 0.0 0.0 0.0 0.0 0.0 0.0 0.0 0.0 0.0 0.0 0.0 0.0 0.0 0.0 0.0 0.0 0.0 0.0 0.0 0.0 0.0 0.0 0.0 0.0 0.0 0.0 0.0 0.0 0.0 0.0 0.0 0.0 0.0 0.0 0.0 0.0 0.0 0.0 0.0 0.0 0.0 0.0 0.0 0.0 0.0 0.0 0.0 0.0 0.0 0.0 0.0 0.0 0.0 0.0 0.0 0.0 0.0 0.0 0.0 0.0 0.0 0.0 0.0 0.0 0.0 0.0 0.0 0.0 0.0 0.0 0.0 0.0 0.0 0.0 0.0 0.0 0.0 0.0 0.0 0.0 0.0 0.0 0.0 0.0 0.0 0.0 0.0 0.0 0.0 0.0 0.0 0.0 0.0
0.167398 0.004644 0.02515 0.010764 0.058063 -0.079151 -0.12942 -0.039785 -0.098318 0.095404 0.178593 0.224865 0.009918 -0.028459 -0.10332 0.318965 0.055402 0.003749 0.107393 -0.200526 -0.017718 -0.030007 0.226047 -0.068388 -0.089264 0.082168 -0.121839 -0.026798 0.177096 -0.105603 -0.105466 -0.047138 -0.07516 0.080358 -0.130578 -0.031277 0.021382 -0.225708 0.119428 0.132973 -0.008771 0.107208 0.152057 -0.13353 0.153186 0.002221 0.01584 -0.1092 -0.015741 -0.009375 -0.019298 -0.175763 -0.066393 -0.105815 0.37311 -0.078517 -0.020958 -0.175307 0.131626 -0.161119 -0.181016 -0.040402 -0.296199 -0.038168 0.043043 0.140919 -0.010267 0.138521 0.100395 0.007599 -0.077492 -0.021561 0.159846 0.040841 -0.064983 -0.028461 -0.133431 0.17978 0.17541 -0.003263 -0.136142 0.044712 0.027019 -0.262012 0.082318 0.159688 0.030479 0.063661 0.188758 0.117957 -0.041994 -0.071264 0.226374 0.223312 -0.017596 -0.151403 -0.001226 0.192689 -0.005731 -0.283727
-0.013006 -0.118379 0.033248 -0.086703 -0.122945 0.054024 -0.105954 0.086953 -0.008314 0.037737 0.026517 0.202887 0.057473 0.10463 0.060993 0.164488 0.280731 0.235639 0.060156 0.073235 -0.105967 0.095067 0.21609 0.159707 -0.247029 -0.053178 0.213588 -0.163418 0.172043 -0.043476 0.005781 0.076681 0.0549 0.065827 -0.131163 -0.008544 0.018881 -0.024295 0.029425 0.145305 -0.053472 0.092048 -0.040266 0.194685 0.051225 -0.056091 0.052884 -0.035118 -0.044842 0.033586 0.030209 -0.225483 0.071924 -0.138642 0.181913 -0.179615 0.121881 -0.129775 -0.069768 -0.016177 0.31128 -0.011069 0.071507 -0.269585 -0.039461 -0.20419 0.164372 0.040425 -0.144214 0.019767 -0.143172 0.054418 -0.140112 0.15995 0.007503 -0.086442 -0.073308 0.181186 0.068323 0.055373 0.063983 0.035385 0.17434 -0.02698 0.121368 -0.207728 0.02406 0.033372 0.03302 0.306965 -0.173081 -0.053316 -0.094297 0.09213 -0.07528 -0.11779 0.025709 -0.15948 0.064401 0.00683
0.047752 -0.011346 0.0923 -0.029609 0.057311 -0.018942 0.101697 -0.008816 0.160723 0.047691 0.071984 0.076167 -0.075283 -0.019033 0.020958 0.126101 -0.130388 0.006598 -0.014525 0.04765 -0.051593 0.1344 -0.019667 0.017882 0.076152 -0.006446 0.103046 0.003142 0.050101 -0.034555 0.102535 -0.03113 -0.059746 -0.06714 0.009189 -0.056583 -0.121006 -0.048071 -0.068459 0.107579 -0.067348 -0.079693 -0.025409 -0.126253 0.011246 0.093704 0.001957 -0.055331 0.072705 0.08961 0.033024 -0.078931 -0.030987 -0.136595 0.078724 -0.06895 -0.159063 -0.014373 -0.09182 -0.019845 0.021328 0.038025 -0.035713 -0.219075 -0.179694 0.088581 0.019521 0.046478 -0.034868 -0.055462 0.066894 0.044192 -0.038243 -0.03165 -0.04116 0.112415 -0.038024 -0.034903 -0.099677 -0.034058 -0.072879 0.11684 -0.027534 -0.060155 0.022785 -0.180086 0.147153 -0.028915 0.09839 0.09891 0.033324 -0.024952 -0.007763 0.133121 -0.043308 -0.063667 -0.016107 0.045521 -0.041694 0.037351
-0.029286 -0.014455 0.059149 0.033118 -0.032637 -0.067667 -0.08093 0.027355 -0.160822 0.06104 0.064252 -0.015261 -0.23257 0.159481 0.071223 0.078452 0.02138 0.031978 -0.070376 0.051055 0.167258 -0.024817 0.197827 0.065265 -0.076168 0.011676 -0.029734 0.143341 0.05525 -0.036865 -0.015966 0.031316 0.07905 0.08625 0.02865 0.036293 -0.052834 -0.183621 0.138387 0.091953 -0.154564 -0.126113 -0.090987 0.031969 0.097322 0.022643 -0.092082 -0.019082 -8.9E-4 -0.133906 0.06438 -0.089912 0.03693 0.137816 -0.11469 0.064534 -0.08614 0.001976 0.0226 -0.148874 -0.107001 0.042298 -0.03552 -0.084001 -0.01756 -0.03727 0.068266 -0.097254 0.068175 0.036138 0.111631 0.014317 -0.061953 -0.078465 0.038628 -0.078335 -0.164786 -0.038389 0.117773 -0.136854 0.103996 -0.032816 0.069406 0.009716 -0.086636 0.182745 0.01029 -0.019687 -0.087212 -6.07E-4 0.063293 -0.016581 -0.118043 -0.009156 0.083954 0.032562 0.046468 -0.053734 -0.025457 -0.002224
0.115683 -0.161491 0.089347 -0.047625 -0.058345 0.02617 -0.034146 0.014423 -0.024135 0.171234 0.088478 0.029582 0.012706 -0.183313 -0.058293 -0.057251 0.188823 0.005452 0.134691 0.079315 -0.020006 0.066078 0.005033 0.13984 -0.111965 -0.206444 0.103515 -0.155672 0.093647 -0.10035 -0.165396 -0.073737 -0.121377 -0.007344 -0.024579 -0.113854 0.125673 -7.19E-4 -0.012865 -0.002797 -0.065121 0.173711 0.018683 -0.097723 -0.109378 -0.100256 -0.115151 0.182842 -0.087488 0.084969 0.127792 -0.067866 -0.110329 0.087548 -4.0E-6 0.030446 0.017211 0.19935 0.275686 -0.132125 0.127558 -0.132777 -0.018337 -0.057541 0.107782 -0.074203 0.069082 -0.047437 0.035111 -0.006139 0.073847 -0.111299 -0.072353 -0.057739 -0.002042 -0.079449 0.154318 -0.003491 -0.002905 -0.111874 -0.069697 0.030692 0.024201 -0.027529 -0.019946 0.064733 -0.032952 -0.030066 0.073001 -0.021831 0.066618 -0.019804 0.05954 0.159122 -0.152756 -0.253882 -0.022978 -0.057542 0.065885 0.005061
-0.718438 -0.830038 -0.584242 2.1215 -0.644012 1.416116 -0.587713 -0.321771 0.15449 -1.337212 0.646351 2.943981 -2.520119 -0.053393 1.892255 -0.247068 0.153723 -1.774544 -1.713547 1.03615 -2.316809 -1.758234 0.596352 -1.216816 0.651834 0.378166 -0.461749 -1.113127 -1.262089 1.808952 2.079526 -0.645053 -1.036425 -0.051591 0.752853 1.877822 1.149022 -1.563167 0.088195 1.179668 0.264795 -0.643595 -1.254162 2.294433 -0.67558 -0.480528 -1.903531 -1.404449 3.451226 0.215378 -0.348073 3.059608 -0.201534 3.176656 -2.660815 -0.397857 0.658943 0.204092 -2.861443 -2.700162 -0.267356 1.597524 -0.058446 0.400235 0.112722 2.04443 -0.418444 -0.708333 -0.409393 0.970238 4.077705 1.113589 0.123738 0.071757 1.385313 -2.550826 0.377188 -1.266978 -0.033552 1.268038 1.334944 -1.192168 -2.617046 1.325431 1.537295 0.868143 0.029881 0.136091 0.48518 -1.968409 0.753802 -0.972635 0.324233 1.386425 1.801178 1.298403 -2.240443 1.965765 -0.567086 2.183566
-0.00958 0.004779 -0.024414 -0.078748 -0.184514 -0.157573 -0.036586 -0.101469 -0.035798 0.236761 0.103034 0.005237 -0.035636 -0.057458 0.170297 0.178783 0.041936 0.117555 0.204183 0.144812 -0.062891 0.054492 0.105867 -0.078329 -0.203364 -0.086341 -0.036898 -0.225086 0.148518 -0.09471 -0.105071 -0.089975 0.020672 0.102613 -0.071905 -0.132502 -0.041551 0.017562 -0.118913 0.248351 -0.032532 0.062073 -0.01467 -0.035004 0.135757 -0.071653 -0.035178 -0.131039 -0.244881 0.161457 -0.078074 -0.164822 -0.150768 -0.075089 0.107258 -0.180657 0.004359 0.08051 0.102605 -0.058276 0.176221 0.068492 0.06232 -0.200891 -0.04281 -0.03971 0.048284 -0.054035 0.10341 -0.147117 -0.095291 -0.152589 0.087217 -0.016831 0.187624 -0.088712 -0.11255 -0.016213 0.001646 0.065953 0.093858 0.112408 0.104839 -0.080499 -0.118865 0.07848 0.064366 -0.037675 0.091534 0.113206 -0.238769 0.021285 0.056052 -0.011077 -0.008687 -0.346112 -0.057323 -0.141467 -0.024582 -0.00406
-0.100678 -0.154449 -0.106939 0.090241 0.072362 -0.085626 -0.188968 -0.030932 -0.08659 0.031899 -0.151622 0.19776 -0.055731 -0.06112 -0.135391 0.246336 0.119886 -0.051766 0.140524 0.029097 -0.126097 0.137603 0.028588 -0.053973 0.025666 0.001632 0.047064 -0.009642 0.163244 -0.008208 -0.153253 0.072349 -0.073437 -0.055129 -0.017573 -0.062464 0.019293 -0.012092 0.154359 0.14884 -0.044178 0.243331 0.164164 0.055441 0.01022 -0.129052 0.061729 -0.05584 -0.058865 0.10578 -0.197961 0.108557 -0.067851 0.024482 0.079837 -0.138802 0.240963 -0.177551 0.144683 -0.072789 0.028412 -0.045093 0.028155 0.028417 -0.049322 -0.104076 0.085016 0.120295 -0.024117 -0.022975 0.051948 -0.012776 -0.034355 0.106428 0.05339 -0.142985 -0.078092 0.037719 -0.042194 0.136045 0.005872 0.142055 -0.0573 0.079947 0.254025 -0.010228 -0.087251 -0.100753 -0.018992 0.117401 -0.04506 0.076749 -0.010579 -0.026872 9.59E-4 -0.198615 0.064842 0.087362 -0.228983 -0.139207
0.07611 6.176937 -4.024954 -0.152799 -2.611577 -0.115381 0.932446 1.946854 1.311749 -0.324909 -0.427938 1.262544 -0.68511 3.632591 1.927551 1.270604 2.426764 -0.977381 -0.421679 -1.494797 -2.423079 0.333647 2.486931 -0.104988 1.926675 -1.838044 -1.601556 3.130612 -2.23777 -1.452693 -0.454798 1.310511 1.673438 2.141662 -2.485883 -0.304088 1.858173 1.644059 1.345879 -1.347004 -2.571566 -3.26268 1.576922 1.958896 -2.542197 -4.008856 -0.937075 0.586795 1.228258 1.083476 1.167285 -2.397261 2.037039 2.522987 0.662491 5.506076 0.171352 1.72639 0.260488 -3.582518 -4.282837 -0.768711 -3.866513 1.338652 0.729399 0.19433 2.075198 1.005766 -1.587821 0.855072 1.177313 0.970442 -1.559649 0.667002 1.205354 1.776141 0.068128 1.277045 3.049097 1.409261 2.45482 -2.465083 2.571739 -3.216688 -1.342003 -0.907837 2.906307 0.454904 3.753747 2.751511 -2.881533 2.515108 1.234815 -2.305182 -2.053955 -2.38751 0.287504 -1.379754 -1.367956 3.266842
0.042738 -0.084635 0.25918 0.04597 0.012433 0.259542 -0.144416 -0.007299 -0.057523 -0.027536 -0.095535 0.105845 -0.124473 -0.05655 0.174919 0.113363 -0.124699 0.038497 -0.041204 0.192746 -0.063625 -0.196461 -0.053362 0.075095 -0.19855 0.034971 0.12265 -0.029677 0.217734 -0.197108 -0.190874 0.158011 -0.069049 0.067984 -0.149562 -0.083955 0.079922 0.025325 -0.257813 0.028928 0.056451 -0.114001 0.022256 -0.02596 0.142912 0.066804 0.026155 0.172736 -0.104948 0.175957 0.176747 -0.169114 -0.227616 -0.124708 0.122113 -0.100054 -0.141451 0.266829 -0.059475 -0.012998 -0.205238 -0.050835 -0.027864 0.009316 -0.121875 0.10682 -0.209655 0.038476 -0.034115 0.145239 0.0764 -0.06325 0.200161 -0.075474 -0.092517 0.060149 0.087267 -0.08047 -0.007602 -0.129783 0.171047 -0.018375 0.171448 0.216411 0.142643 0.02747 0.168105 -0.046838 0.032408 0.169742 0.070969 -0.028215 -0.116882 -0.061203 0.159343 -0.135234 0.092112 0.047835 -0.146755 0.178946
1.155368 3.302179 -0.818617 0.201583 -0.372035 -0.220049 -2.421694 1.24088 1.022918 0.281963 -0.56672 0.218504 -2.654141 0.687099 1.426786 -2.744465 -2.044989 -0.49789 -1.769702 -2.328375 -1.105508 0.104665 -0.061522 -2.669585 1.369504 1.778184 -0.869744 -1.441309 0.051265 1.116249 1.903031 -0.163683 1.731475 -0.652558 -1.459245 -0.212579 0.382415 1.861636 -0.394668 -0.423196 -0.983827 -1.176007 1.844253 0.853456 0.976233 -0.076248 -1.490589 -0.553926 0.506191 0.326236 0.251095 1.038919 -0.803142 0.658979 -3.236482 -1.07965 1.27678 -0.350029 -1.778651 0.292774 0.002745 0.267431 1.072933 -0.321661 -1.19536 -1.465055 -2.523761 -3.574044 -0.123843 -0.515256 3.2036 -0.08683 1.099575 -0.639959 -1.310584 0.629968 -0.142079 0.66081 -1.289981 -0.152693 -0.105374 0.388507 -1.068849 2.207516 -1.516502 0.618648 0.057959 1.61471 0.888036 -0.337188 -0.73306 -0.809614 -1.409634 -0.094797 -0.938314 1.210802 1.47048 2.210952 -1.933366 0.819087
0.036516 -0.017106 -0.012625 -0.110259 -0.058703 -0.07175 -0.00426 -0.131734 -0.17749 0.038933 -0.060178 0.147241 0.043538 -0.146855 -0.259103 0.238953 0.030855 0.017162 0.045796 -0.054197 -0.051733 0.127415 0.054889 -0.012925 -0.102312 0.033884 0.031345 -0.052135 -0.024182 -0.040765 -0.151597 -0.038209 -0.108257 0.05294 -0.241157 0.035253 0.045651 -0.070801 0.105832 0.039027 -0.066623 0.144984 -0.065799 0.083979 -0.083561 -0.141144 -0.113824 0.103352 -0.268195 0.14047 0.018391 -0.074496 -0.007179 -0.094198 -0.160231 -0.005318 -4.73E-4 0.001548 0.061552 -0.13544 0.014767 -0.087623 -4.07E-4 -0.213449 -0.013584 0.130976 0.053651 -0.025226 0.125211 0.083925 -0.028544 -0.030039 0.039968 -0.079752 -0.018216 -0.04572 -0.048005 -0.056497 -0.205491 -0.038741 0.067133 0.18957 0.007287 -0.13699 -0.05781 0.117331 -0.044041 0.139468 0.208917 0.163011 -0.011396 0.121648 -0.07081 0.029104 -0.103234 0.01825 0.070253 -0.101864 -0.06658 -0.024084
-0.001889 -0.015376 0.011577 -0.079922 0.019615 0.005975 0.018085 -0.133459 0.07886 -0.019014 -0.010821 0.041669 -0.011128 0.097962 -0.060935 0.042309 0.015014 8.49E-4 -0.002449 0.038756 0.0685 -0.030124 0.021652 -0.079703 0.075875 -0.122727 0.144977 0.073106 0.120718 -0.115022 0.047765 0.225363 -0.061747 -0.035103 0.080005 0.064342 -0.011293 0.032618 0.076202 0.118833 0.299047 0.176216 0.148892 -0.105455 -0.022399 0.118571 -0.05437 -0.136016 -0.04767 0.112361 0.012505 0.001737 0.056998 -0.132972 0.205737 0.014869 0.130993 0.242588 0.100312 0.073252 -0.019374 -0.073147 -0.042245 -0.05193 0.119558 0.067972 -0.198268 0.013905 0.103121 -0.09962 -0.010563 -0.219254 -0.117595 0.0375 -0.028297 0.03039 -0.116152 0.021365 0.041774 -0.247365 -0.187561 -0.063496 -0.088808 -0.029223 0.057963 0.069802 -0.07258 -0.052825 0.064478 0.040761 0.149345 0.085248 0.239559 0.137326 -0.140966 0.005439 0.083517 -0.02486 -0.028184 0.111642
1.689573 -3.33416 -0.965511 1.659158 -2.050425 0.905817 0.616603 -1.236455 0.264234 0.116286 2.828547 -0.818173 3.425179 0.32026 -0.230604 -0.933714 1.517891 -2.206357 -2.333181 1.706021 -1.337884 -1.802898 -3.115646 -2.161618 0.396112 1.045809 -0.535179 -1.029279 0.575166 1.168335 2.254203 -0.600774 -0.395665 0.105068 1.514405 -1.091109 0.454944 -2.441265 -0.065855 2.977762 -3.536724 1.513917 0.177496 -2.236573 0.88964 0.056402 -1.424071 4.912244 -0.847541 0.177235 2.607983 1.122429 0.466989 1.756088 -1.46236 1.090806 -0.102955 -1.618671 -0.618892 0.452311 0.862881 1.170666 -0.134624 0.793154 0.725869 -0.502087 3.166721 -1.875811 1.70199 1.531229 0.903765 -1.472035 0.202289 0.083957 -2.683779 2.354843 3.556185 1.287474 4.547928 0.2347 -0.142178 -1.887723 -1.267192 0.089062 -0.250018 1.020479 1.599436 -0.179524 -2.011244 -2.396106 -0.833792 -2.697081 1.037187 3.167086 -2.967411 -0.012214 -0.079422 2.516347 1.045697 -2.228649
0.009575 -0.051264 0.044909 -0.032713 -0.0574 -0.106584 -0.122102 -0.17221 -0.086028 -0.035444 0.077454 0.022105 -0.059515 0.039737 -0.045884 0.159052 -0.093335 0.041009 -0.003092 0.129919 0.083514 -0.046494 0.076829 0.117321 0.078019 -0.03425 -0.137296 -0.071785 -0.083001 0.131202 -0.061198 0.07307 0.044392 0.068291 -0.207902 -0.107799 0.131154 0.02336 -0.024492 -0.148635 0.055218 0.079823 -0.02174 -0.178573 -0.045766 0.035458 -0.060286 -0.087993 -0.009767 3.06E-4 -0.204642 -0.001181 0.050705 0.038854 -0.114841 -0.008169 -0.088058 0.045126 -0.072613 -0.104418 0.06064 -0.042591 -0.065132 0.081098 0.203948 0.177768 0.20119 -0.094733 -0.014996 0.11659 0.087911 0.024915 -0.039774 -0.032379 0.151598 0.107749 0.080427 -0.120729 0.118647 0.082409 -0.02591 -0.024987 0.008089 -0.097304 0.091261 -0.053682 0.088033 -0.051835 -0.032531 -0.272309 0.051024 -0.015833 -0.099335 0.122505 0.014549 0.031548 0.168782 -0.017346 0.050898 -0.048876
0.119543 -0.098845 -0.037714 -0.109978 0.006724 -0.064213 -0.017966 -0.00879 0.093102 0.195654 0.069978 -0.132936 -0.043819 0.031945 0.136193 0.146298 0.223466 0.111889 -3.86E-4 0.118569 0.070665 -0.019117 0.206676 -0.030207 -0.060498 0.162569 0.064252 -0.183234 0.191801 -0.11567 0.086209 0.192376 0.048048 0.008989 -0.166379 -0.027005 0.089526 -0.255029 -0.042573 0.178489 -0.091676 0.090374 -0.075718 0.006751 0.037016 -0.1554 -0.077604 -0.003354 -0.125188 0.088358 0.109363 -0.114744 -0.131184 -0.007272 0.212568 -0.068136 -0.010978 0.092478 -0.147094 -0.207465 0.041197 -0.077272 0.020971 -0.119614 -0.076995 0.09041 0.083315 -0.114875 -0.08149 -0.031268 -0.027144 -0.05189 0.03982 0.026015 -0.036309 0.132585 -0.057323 -0.018631 -0.119114 -0.255793 0.038823 0.046476 -0.004397 -0.149644 -0.090484 0.145183 0.043359 0.093701 -0.1645 0.18206 -0.17213 0.006534 0.127857 -0.058469 0.095311 -0.108041 -0.081614 0.025465 -0.004298 -0.116915
-0.034424 -0.090495 -0.006773 -0.063608 0.025844 -0.050896 -0.030293 -0.009106 0.026906 -0.044443 0.083632 0.211106 -0.056644 -0.003204 0.068913 0.139971 -0.018232 0.07223 -0.008158 0.135321 -0.211678 -0.044636 0.214762 0.104317 0.126688 -0.145755 0.048735 0.080406 -0.019864 0.022406 0.099692 0.117281 -0.121534 0.048982 -0.07444 -0.216494 -0.038637 -0.052552 -0.00625 0.010676 0.060297 0.130151 -0.090589 0.288476 -0.221613 -0.216615 0.061654 -0.118286 -0.087815 0.034581 0.236602 -0.157248 -0.139222 -0.027552 -0.022158 -0.059575 -0.003735 -0.02372 0.188294 -0.13495 -0.07087 0.007757 -0.074851 -0.140176 -0.063901 0.010573 0.05899 0.168781 0.096597 -0.009023 0.052519 -0.089059 0.224771 -0.058932 -0.025187 -0.033411 -0.005812 -0.092213 -0.003395 0.189132 -0.02921 -0.05402 0.261623 -0.065074 -0.04169 0.037347 -0.209589 0.033176 -0.019425 0.056532 0.089111 -0.092857 -0.05726 0.157672 -0.220883 -0.115913 0.054802 -0.003083 0.108346 0.096591
-0.072674 -7.172178 3.243542 -3.416216 -3.078808 6.196021 -4.841667 1.097196 -0.069161 1.281094 -1.867299 2.00664 -3.509578 -1.91784 -3.71946 -1.31319 -2.045076 0.300286 -1.171953 -1.055153 0.413733 -4.900678 -1.569404 0.87886 -2.045129 -1.808549 3.916455 -0.208298 2.321721 -2.340044 -1.758158 0.426659 -1.302078 -0.956855 -1.534045 -0.5092 3.699516 -1.615464 -4.803689 1.209575 2.470521 -1.772277 -1.289194 0.075271 2.969475 5.294761 1.165935 1.551812 -2.864125 -2.655352 5.174971 1.730763 -3.638956 -1.622863 -1.08695 -1.558467 -3.220565 0.142856 -2.906218 2.40766 -2.416126 -0.276478 1.480663 0.762824 -0.901475 0.444124 -2.828977 2.000263 -3.260752 0.442676 2.227862 0.843619 -0.517631 -1.033588 -2.178106 1.253474 -1.086825 1.923508 1.341381 -3.757782 1.47075 1.992821 3.822498 6.974607 4.826773 0.101915 1.476335 -1.446077 -2.964966 2.275137 5.51195 -1.78916 -2.196929 -0.36233 1.699235 -0.269662 -2.034092 -1.169337 -1.898828 -0.46444
-0.114473 -0.155414 0.042098 0.002039 0.077422 -0.097985 0.024291 0.093053 0.028946 0.120671 0.163696 -0.094898 -0.234116 0.113523 0.168026 0.335099 0.05916 0.242567 -0.053954 -0.009865 -0.111606 0.092528 0.015933 -0.192728 -0.168109 0.2041 0.009646 -0.049399 0.081493 -0.078529 -0.002897 -0.04712 0.105097 -0.039472 -0.240108 -0.061162 -0.0912 -0.102917 -0.005904 0.138998 0.088982 0.007432 -0.115058 -0.098205 0.057058 0.149967 -0.03631 0.029508 0.165355 -0.042082 0.199658 0.078242 -0.126291 0.091864 0.181171 0.043341 0.064153 0.060046 -0.07306 -0.219137 -0.021196 -0.117696 -0.018033 -0.037492 -0.030772 -0.027623 0.193357 0.055739 -4.79E-4 -0.046838 0.025956 -0.170112 -0.117761 0.18726 0.076568 -0.035138 -0.181882 0.067111 0.020856 -0.157244 -0.035996 -0.15199 -0.141367 -0.186486 -0.224046 0.02562 0.073983 -0.043289 0.113765 0.065088 -0.185133 -0.098226 -0.066507 0.090427 0.00669 -0.219231 0.003431 0.021746 -0.048995 -0.051032
-0.052715 -0.038998 -0.16444 0.049124 -0.015978 -0.149057 -0.05501 -0.013735 0.053223 0.196633 0.308633 0.104351 0.157396 0.070924 0.035568 0.142951 -0.025482 0.201723 0.053221 -0.107126 -0.194649 0.148213 0.269342 -0.037292 -0.043388 -0.092734 -0.130584 -0.220212 -0.157765 -0.12906 -0.025164 -0.157361 -0.16662 0.118292 -0.069179 -0.171658 -0.127907 0.093472 0.051968 0.094136 0.178459 0.178893 0.04254 0.182228 -0.032798 -0.16299 0.121079 0.063377 -0.327012 0.090266 0.016433 0.034733 -0.056157 0.031454 -0.127232 -0.143897 0.032864 -0.031992 0.367187 -0.042565 -0.003675 -0.039525 0.042732 -0.175399 -0.171811 -0.03937 -0.018327 -0.034729 0.174532 -0.19341 -0.084291 0.052293 -0.114735 -0.049049 0.081341 -0.045953 -0.116723 -0.140401 -0.052308 0.171687 -0.008138 0.182776 0.136911 -0.014853 0.18642 -0.035388 0.085561 0.058216 0.105436 0.084524 -0.051845 0.003789 0.019284 0.14831 -0.159767 0.017744 0.034457 -0.018589 -0.009806 -0.216695
-0.253313 -0.011669 0.118994 0.073782 -0.12197 0.082215 -0.091985 -0.145117 0.137304 0.05342 0.076411 0.184456 0.025223 -0.172177 0.096143 0.205529 0.012401 0.056904 -0.084749 0.015403 -0.063431 0.190379 0.100507 0.017202 -0.107924 0.054241 0.046193 0.142495 0.102504 0.08729 0.066586 -0.098855 0.023272 0.07352 -0.193009 -0.087837 0.040061 -0.01653 -0.099192 -0.102304 -6.51E-4 0.112913 0.021825 -0.055398 0.013775 -0.12491 -0.094102 0.057799 0.092422 0.025687 -0.009384 0.024817 -0.050939 0.159246 0.023134 0.007526 0.118953 -0.034079 0.141116 -0.245055 0.250452 0.062814 0.14196 -0.163914 0.07494 0.063559 0.142866 0.096105 0.155659 -0.112934 0.133719 0.028865 -0.150449 -0.080325 -0.030608 -0.007615 0.008917 0.137176 -0.204966 -0.018115 -0.059625 0.073389 0.182854 -0.077647 0.12814 -0.045901 0.055981 0.059072 0.139878 -0.075122 -0.034386 -0.109798 -0.179243 0.16043 -0.103287 -0.20537 -0.021451 0.093099 0.0021 -0.075002
-0.127289 -0.033535 -0.002654 0.021356 0.003834 -0.072479 0.040649 -0.10071 -0.035915 -0.016152 0.052938 0.203389 -0.006705 0.088955 0.019089 0.19442 0.022009 0.125704 0.062436 0.048246 0.024704 -0.036144 0.251523 0.085013 -0.238506 -0.169494 -0.007207 0.08153 0.313826 -0.245214 0.024599 0.018135 -0.049687 0.07095 -0.036985 -0.048098 0.217191 0.015423 0.059857 0.065984 -6.99E-4 -0.162974 0.03122 0.153743 -0.105147 -0.032629 -0.005784 -0.009523 -0.031866 0.017145 0.100365 -0.099224 0.0071 0.080369 0.115431 -0.088047 -0.206371 -0.076003 0.038441 -0.233953 -0.030688 -0.101956 0.050931 -0.034584 -0.04582 -0.035907 -0.053458 -0.052091 0.005392 -0.036388 -0.038292 -0.147517 0.083808 0.031172 0.08733 0.00766 -0.045876 -0.203356 -0.172851 -0.11001 0.097199 0.066178 0.163895 0.092716 -0.091375 0.111047 0.088126 0.067545 7.7E-4 0.064595 -0.108282 -0.015357 -0.117401 0.107263 -0.065776 -0.074334 -0.002595 -0.082235 -0.016136 0.039314
