0.0 0.0 0.0 0.0 0.0 0.0 0.0 0.0 0.0 0.0 0.0 0.0 0.0 0.0 0.0 0.0 0.0 0.0 0.0 0.0 0.0 0.0 0.0 0.0 0.0 0.0 0.0 0.0 0.0 0.0 0.0 0.0 0.0 0.0 0.0 0.0 0.0 0.0 0.0 0.0 0.0 0.0 0.0 0.0 0.0 0.0 0.0 0.0 0.0 0.0 0.0 0.0 0.0 0.0 0.0 0.0 0.0 0.0 0.0 0.0 0.0 0.0 0.0 0.0 0.0 0.0 0.0 0.0 0.0 0.0 0.0 0.0 0.0 0.0 0.0 0.0 0.0 0.0 0.0 0.0 0.0 0.0 0.0 0.0 0.0 0.0 0.0 0.0 0.0 0.0 0.0 0.0 0.0 0.0 0.0 0.0 0.0 0.0 0.0 0.0
-0.016095 -0.221284 0.154147 0.093093 -0.120192 0.173908 -0.009705 -0.062873 -0.097971 0.137386 0.059271 0.045163 -0.065457 0.01889 -0.037035 0.045368 0.1175 0.198912 0.027443 0.049138 -0.042477 0.075536 0.202853 0.161862 -0.146452 -0.063646 -0.104058 -0.063138 0.129651 -0.168296 -0.002577 -0.201428 -0.111876 0.014249 -0.123669 0.114499 0.087389 0.002974 0.04855 0.008512 -0.042541 0.277842 -0.001672 -0.050937 -0.046334 -0.066218 0.042947 -0.042938 -0.186846 0.030015 -0.10853 -0.017529 0.039545 -0.011386 0.134336 0.017813 -0.024028 -0.223112 -0.028306 -0.146831 0.074678 -0.10251 0.053908 -0.090249 0.05946 0.029108 0.159652 0.239093 0.131553 -0.085899 -0.158752 0.111013 -0.005195 -0.102156 0.082513 0.012178 0.041918 -0.038406 0.020171 -0.023594 -0.186237 -0.048326 -0.017435 -0.139643 0.051259 -0.004046 0.168775 0.021147 0.119302 0.125884 -0.196788 -0.0487 0.121817 0.079223 0.066627 -0.023851 -0.042194 0.036156 0.066127 -0.313196
0.061531 0.170333 0.282724 0.097472 0.175185 -0.12149 -0.127926 -0.271244 0.107004 0.00611 -0.065157 0.210045 0.006397 -0.08112 0.051879 -0.134196 0.155295 0.042493 -0.140228 0.264008 0.065883 0.148488 0.151512 0.017953 -0.065076 0.05063 0.099743 0.126277 0.098796 0.080731 -0.113769 0.071113 0.01386 -0.110883 -0.068471 0.112091 0.12967 0.011165 -0.121588 -0.238228 0.224141 0.163648 -0.034938 0.205958 -0.036749 0.061058 -0.061592 0.181561 0.140406 -0.164028 -0.103451 0.043777 0.178198 -0.133936 -0.036089 0.104535 -0.038015 -0.118276 -0.043864 0.037353 0.033779 -0.174 -0.057669 0.020099 0.103926 -0.104764 0.021371 0.092568 -0.075609 -0.047284 0.059329 -0.169212 -0.258581 0.084066 0.04006 0.092308 0.036526 0.014758 -0.094589 0.004755 0.035315 0.011493 -0.053433 0.116085 -0.018023 0.173399 0.013837 -0.027568 0.236076 -0.080163 0.02923 0.131836 -0.295298 0.198775 -0.11733 0.206983 -0.072392 0.160786 -0.272304 -0.229275
0.163611 0.113749 0.057287 0.002474 -9.1E-5 -0.182831 0.196601 0.053192 -0.008331 0.064688 -0.003465 0.007597 -0.147846 0.091706 0.015572 -0.046308 -0.012372 0.092807 -0.044293 0.09243 0.02945 -0.173343 -0.010695 -0.096414 0.113858 0.150217 -0.052033 0.073955 -0.004484 0.060487 0.187169 0.047479 0.311916 -0.212233 -0.123727 0.080536 -0.014451 0.142792 -0.155428 -0.02544 -0.119473 -0.058977 -0.058619 0.029314 -0.031292 -0.111073 0.220957 0.038774 0.025177 -5.45E-4 0.175057 0.009791 -0.059633 0.035467 -0.0654 -0.190896 -0.12479 -0.071489 -0.34021 -0.035335 0.12892 -0.029217 0.285678 -0.443755 -0.114726 -0.095243 0.02283 -0.027281 -0.050164 0.209599 0.254135 -0.104839 -0.167599 0.094447 0.00904 0.058695 0.068095 -0.06747 0.026676 0.036699 0.077637 -0.213635 -0.131714 0.040453 -0.125371 -0.134078 0.185134 -0.185736 -0.012589 -0.012299 0.187806 -0.055119 -0.150046 -0.002023 -0.089394 0.347766 0.169156 0.255228 -0.155455 0.120752
1.313101 -1.828077 1.255073 -0.57291 -1.221992 -0.141653 0.892546 0.262095 -0.422972 0.52527 2.770927 -2.116018 -1.303039 2.034119 -1.042658 -1.877754 -0.113988 2.948427 -1.157758 0.228368 -1.62103 2.370189 -1.087966 -1.275151 0.610923 3.24562 1.0986 -0.229467 -3.034251 -1.557004 2.718354 -0.823788 -1.708001 -1.364332 0.304998 -1.19356 3.176471 -0.233449 -3.484355 -2.844404 -0.168624 -3.026944 2.318517 -0.33999 -1.533419 -0.264688 -2.004779 -1.258036 -0.82825 0.612678 2.337875 2.021732 1.255669 0.960029 -3.233 -0.309413 2.678803 -1.321722 -2.726613 1.188582 0.358215 2.072681 -2.899753 -1.608204 0.117954 -1.026589 -1.877072 0.22054 -0.516172 0.998566 1.496877 -0.451898 0.04087 3.884146 3.578913 0.680106 -1.856922 0.764707 -0.523331 -0.239934 1.850372 2.376356 -2.081512 2.089242 -1.78243 -2.297229 1.245129 1.257432 -0.202896 -1.347756 -1.270859 2.061053 -0.332924 -0.64474 -1.876097 2.53156 0.742881 -0.423323 2.234084 -1.244354
-0.19067 -3.50126 0.295219 1.863789 -0.810668 2.541253 0.729446 1.315252 -0.819179 1.549394 -0.653487 1.601857 1.448681 -0.25061 0.874619 0.151413 1.097331 -1.112379 -2.647507 -1.866492 0.623707 1.508137 0.707326 0.60591 -2.267404 -0.102035 -1.069082 -0.099136 0.970806 -1.22272 0.727506 -1.040267 1.308173 -0.6193 -3.362411 -0.900184 0.110196 -1.829504 -0.636844 -3.160394 0.228702 -2.318318 1.615119 -3.646494 0.837692 -1.38201 -1.980929 -0.85099 3.765313 -1.027761 -1.198587 2.291965 0.076693 2.595317 4.244563 3.294897 2.438562 -0.85716 -0.464617 0.716513 -2.92915 -0.665073 -0.503376 2.870808 -0.297534 -1.9507 -0.289981 -0.375172 0.91998 -2.315188 1.438618 2.323437 -0.230973 -1.014521 -4.035345 0.369123 -1.242214 0.128265 0.958058 1.269588 0.05471 1.318141 0.328054 -0.570438 1.23982 -1.517879 0.154458 1.354117 0.3229 1.420719 -1.233333 -1.059596 2.743893 0.748914 -1.387094 -1.165495 1.123346 0.77722 0.808243 -1.421686
-0.05814 -0.062277 0.091184 -0.080975 0.144662 0.148161 -0.041767 -0.119678 0.109622 0.071139 -0.199972 0.102128 -0.159858 -0.115942 0.134345 0.00651 -0.11432 0.07425 -0.078253 -0.078827 0.037085 -0.027536 0.186737 -0.139724 0.0829 -0.0475 0.023973 -0.102927 0.176881 -0.157865 0.14822 0.15949 0.10708 0.0089 -0.105193 0.015571 -0.014076 0.019537 -0.037472 0.063981 -0.077142 -0.153103 -0.18119 0.018924 0.206887 -0.021668 -0.185453 0.046066 0.133803 -0.080372 -0.112137 -0.051348 -0.192664 -0.179056 0.042807 0.229413 -0.160986 0.10713 -0.150806 -0.133955 -0.01159 0.01072 0.045888 -0.071638 -0.113676 -0.020209 -0.080992 0.113846 -0.044839 0.220387 0.051287 0.07076 0.082176 0.108409 -0.024652 0.075212 -0.064234 -0.105619 -0.110633 0.001542 0.081624 0.041049 -0.036275 0.062964 -0.04951 -0.130326 0.112317 0.04157 -0.044447 -0.045847 -0.039373 -0.052743 -0.165545 -0.065632 0.253525 -0.234858 0.110225 -0.133297 -0.06964 0.227271
0.016761 -0.116603 -0.128803 -0.085956 -0.331505 -0.005635 -0.24598 -0.189948 -0.156206 -0.002443 0.075572 -0.008364 -0.139675 0.126897 -0.004456 0.057895 -0.088723 0.174266 0.085188 -0.085007 -0.075556 0.123927 0.088185 0.026955 -0.130153 0.076374 0.0957 -0.25201 0.003484 -0.238015 -0.036255 0.039226 -0.015772 -0.079196 -0.335473 0.006978 0.172757 -0.121315 -0.06076 -0.098614 -0.100969 0.179943 -0.134157 -0.075677 0.053369 -0.162456 0.128946 0.087226 -0.11526 0.126585 0.04661 -0.14619 0.024327 0.220343 0.068667 -0.090185 0.082926 -0.065364 0.019387 0.003375 0.059688 0.017492 -0.074307 -0.126323 -0.142204 0.029827 -0.080282 -0.049183 0.133455 0.03925 0.081019 0.02228 -0.085705 0.010979 0.090813 -0.218384 -0.081749 0.05013 0.043586 0.112995 0.092207 0.051805 0.232937 0.013064 -0.138894 0.218488 0.139092 0.161748 0.127503 -0.165375 -0.172091 -0.015813 -0.013581 0.0414 -0.044944 -0.06549 -0.065871 -0.026492 -0.022413 -0.13116
-1.903468 -4.076094 1.46074 0.748189 -2.473773 -0.472584 1.186116 -0.924864 0.874956 -0.898696 1.764015 -1.85867 3.857203 2.606628 1.935132 0.49948 2.080246 0.576151 -0.933926 -0.200075 -3.194881 0.62049 -0.982479 -1.933111 1.261947 2.73016 -0.011064 1.265761 2.211414 0.25676 0.323556 0.261307 -1.287353 0.603221 1.486812 -1.86328 -1.750979 -0.700186 -1.035365 2.879259 -1.816001 -0.88317 0.707568 -3.625924 0.355877 -0.793736 0.035959 1.035592 1.025851 -1.732493 1.648392 0.877364 -1.661495 2.040612 0.800908 0.470556 0.739327 -1.187239 -2.164405 0.212937 1.094807 0.858002 0.252656 0.236469 0.328618 -0.23889 1.338922 0.730136 1.010155 0.656569 1.33904 -0.332885 -0.9853 -1.714858 0.529342 0.067337 1.142434 1.404417 -1.05734 0.780285 -1.311124 -1.890333 2.587917 -1.297477 -0.816915 1.16461 -0.432897 -0.79295 -1.723618 -0.398678 -3.302602 0.549459 -0.533374 2.445416 1.677246 0.416041 -0.203441 0.245084 -0.774534 -1.839729
0.07396 -0.020501 0.149745 -0.128783 -0.018989 0.108415 -0.231806 -0.077838 -0.244941 0.165577 -0.069212 0.511304 0.026993 -0.119427 -0.109176 0.280104 -0.094546 0.143172 -0.013302 0.140466 0.11421 -0.025395 0.244112 -0.068387 -0.305244 -0.056504 -0.045247 -0.222001 0.068969 0.030326 -0.140598 -0.210902 -0.063533 0.071718 0.039681 -0.090099 -0.003713 0.12499 0.059677 0.085528 0.060863 0.116491 -0.106436 0.086493 -0.062386 -0.036049 0.20675 -0.118094 -0.218661 0.023022 -0.12842 -0.009693 -0.030092 -0.081296 0.033384 0.084222 -0.023638 0.028779 0.090651 -0.231066 -0.020964 -0.201528 0.035788 -0.083398 0.048117 0.035243 0.06506 0.032591 0.182351 -0.028231 0.124406 0.128257 0.122743 -0.041241 -0.050873 -0.055175 0.049764 0.017204 -0.039332 -0.031937 -0.1153 0.155639 -0.122741 -0.054348 0.057463 0.045429 -0.014378 -0.171655 0.191169 -0.053082 0.165269 -0.059798 0.111246 0.151529 0.02028 -0.099944 -0.020296 0.014399 -0.049377 -0.228145
-0.125002 -0.066817 -0.180766 -0.059979 -0.092662 0.094897 -0.157281 0.149876 -0.054601 0.166557 -0.072196 0.088903 -0.020504 0.030954 0.011593 0.059236 -0.015654 0.027102 -0.072601 -6.44E-4 -0.078562 0.006416 0.115282 0.100459 -0.12915 0.113299 0.140987 -0.12095 -0.008716 -0.12589 0.203538 0.027711 -0.108113 0.027425 -0.207183 0.041097 0.067443 0.016476 0.109709 -0.043383 0.097247 0.087611 0.04971 0.11518 -0.029272 0.019313 0.044622 0.126768 0.085755 -0.041414 -0.035159 -0.020206 0.044492 -0.04271 0.164299 -0.173956 0.054438 -0.129314 0.01258 -0.154185 0.057271 -0.092325 0.08629 -0.193376 -0.149163 0.081389 0.135752 0.015912 3.93E-4 -0.028525 -0.160906 0.162119 0.114114 -0.051617 0.16827 -0.17756 -0.052901 0.055456 0.057253 -0.128881 0.052534 0.293794 0.215936 -0.042191 0.051492 -0.083139 -0.037911 0.10892 0.014079 0.182417 -0.069847 0.044903 -0.082355 0.156042 -0.11172 -0.100245 -0.050986 0.080645 -0.011823 0.110605
-0.38434 -0.570338 -3.334123 -0.990325 -0.281295 3.633702 1.320934 0.804616 -0.499895 -0.831205 0.460112 1.388349 -2.264975 3.215568 -3.90167 1.353361 -1.448904 -2.546085 -1.024352 -1.734034 -1.344124 0.93203 0.532723 0.23208 -0.507331 0.823317 0.659701 0.36019 1.191168 -0.162178 -0.263719 -1.148898 -0.733443 1.049014 -0.463284 0.424462 1.721949 -2.279087 -0.239497 -3.509027 0.274708 -0.478871 -0.254635 1.092364 -0.333634 -0.504492 -0.065145 -0.538987 0.565458 0.780359 -0.571438 2.952173 0.370658 -0.759209 -2.924849 1.720769 0.511283 1.62778 2.047539 0.727555 2.155394 -1.325505 -0.576841 2.155423 -1.025197 1.359344 -0.744288 -2.504187 -1.775349 1.348846 2.846446 1.640962 1.869469 1.38429 0.797755 -0.790083 2.739745 1.110482 1.051984 -1.114181 2.453474 -0.002451 -1.249565 3.986771 0.736882 -1.32782 1.044597 0.12676 2.039398 0.327395 0.179204 -1.66492 -0.55174 -2.138355 -3.629091 -1.09422 -3.320013 0.282001 -1.758182 -2.017416
-0.03565 -0.100696 -0.018209 0.141486 0.060372 0.092909 -0.015626 -0.002745 0.062568 0.036885 0.047103 0.182831 -0.129336 0.018142 0.103925 0.295781 -0.101293 0.02999 -0.077677 -0.058336 -0.055092 0.10057 0.13739 0.108688 -0.229841 0.003722 -0.051399 0.10737 0.081878 -0.100141 0.029502 -0.067911 -0.024437 0.031179 -0.046274 -0.124512 0.044924 -0.136048 -0.088552 0.155695 0.063187 0.009627 0.121183 0.132173 0.047165 -0.165771 -0.119729 0.020826 -0.002601 -0.036886 -0.042914 0.102129 -0.009303 0.125766 0.111736 0.094584 0.065628 -0.036816 0.144994 -0.085161 0.134878 -0.24026 -0.068417 0.019558 0.015414 0.135673 0.100891 0.02093 0.023804 -0.100704 -0.064668 0.022182 0.076249 0.027237 0.011886 -0.06533 -0.136987 -0.080291 -0.037063 -0.076144 0.066069 0.189403 0.122077 0.1833 -0.014154 -0.015402 0.134964 0.086471 0.096793 0.053529 -0.024095 -0.137494 0.084718 0.016831 -0.063593 -0.064013 0.124948 -0.102721 -0.027417 0.04525
-1.482363 1.198757 -2.795043 4.105337 -0.505949 1.000841 -1.353562 3.555108 -2.45069 2.79382 -0.919809 0.93274 0.684084 2.558134 -2.615721 -1.252693 1.459412 0.172322 -1.468399 -2.51459 -0.540749 3.031043 -0.0363 1.98412 -1.12275 3.951102 -1.137981 -1.932574 -1.797927 -4.762658 1.537316 0.135806 1.639663 -1.590274 -2.206267 -1.268076 0.736708 1.798377 -4.134606 -0.954425 1.50566 -0.38337 1.635739 -0.997211 -0.073292 -0.940158 -0.069585 1.948804 2.71211 1.050769 -0.475509 2.857272 0.811727 1.930054 1.717178 -0.169999 1.080929 -2.035098 0.879811 -2.555648 -0.335963 -0.226552 0.742867 0.445288 -1.10652 -0.983096 0.183443 -1.280834 -0.378664 -3.331041 -1.033956 2.531596 2.087368 0.625961 -0.03295 -0.897418 -0.79729 0.618051 -0.84824 2.206427 0.46944 1.120584 2.752258 5.112256 0.900844 -2.315369 3.242269 3.898458 0.535597 3.744396 -1.994592 -4.003265 1.879596 -1.416936 3.000749 -0.911197 2.187157 -0.077727 -0.628997 1.9995
0.100195 -0.080192 0.098636 -0.002196 0.010816 -0.057799 -0.189106 0.035665 -0.158401 0.017096 0.057723 -0.073496 -0.154333 -0.058186 0.055717 0.179485 -0.09119 0.047592 -1.1E-5 -0.036447 0.069542 -0.026364 0.113772 0.231986 -0.134337 -0.215597 0.010651 -0.012594 -0.064549 -0.007239 -0.011789 -0.096077 0.077943 -0.071619 -8.0E-5 -0.047155 0.073651 0.037863 -0.040627 0.055824 0.044377 0.007974 0.031266 0.114302 -0.02862 -0.031345 -0.079388 -0.051952 -0.221712 0.085653 0.037433 -0.19096 0.086855 -0.018699 -0.0544 0.140116 -0.057536 -0.02972 0.014695 -0.057303 -0.13393 -0.114809 -0.125779 -0.174829 0.064946 0.061459 0.014127 -0.050541 0.147494 -0.078643 -0.089289 0.069975 -0.046343 0.105745 0.018637 0.028574 -0.076456 -0.003611 -0.026723 -0.119504 0.041653 -0.081001 0.007688 -0.065893 0.117237 -0.046508 -0.04831 0.071317 0.133236 0.021252 0.027556 0.093483 -0.054558 0.072389 -0.048773 -0.055195 -0.030206 -0.077247 -0.105549 -0.120534
0.061531 0.170333 0.282724 0.097472 0.175185 -0.12149 -0.127926 -0.271244 0.107004 0.00611 -0.065157 0.210045 0.006397 -0.08112 0.051879 -0.134196 0.155295 0.042493 -0.140228 0.264008 0.065883 0.148488 0.151512 0.017953 -0.065076 0.05063 0.099743 0.126277 0.098796 0.080731 -0.113769 0.071113 0.01386 -0.110883 -0.068471 0.112091 0.12967 0.011165 -0.121588 -0.238228 0.224141 0.163648 -0.034938 0.205958 -0.036749 0.061058 -0.061592 0.181561 0.140406 -0.164028 -0.103451 0.043777 0.178198 -0.133936 -0.036089 0.104535 -0.038015 -0.118276 -0.043864 0.037353 0.033779 -0.174 -0.057669 0.020099 0.103926 -0.104764 0.021371 0.092568 -0.075609 -0.047284 0.059329 -0.169212 -0.258581 0.084066 0.04006 0.092308 0.036526 0.014758 -0.094589 0.004755 0.035315 0.011493 -0.053433 0.116085 -0.018023 0.173399 0.013837 -0.027568 0.236076 -0.080163 0.02923 0.131836 -0.295298 0.198775 -0.11733 0.206983 -0.072392 0.160786 -0.272304 -0.229275
2.435781 0.100349 0.308449 3.152133 1.825135 5.043144 3.475524 1.030966 -0.034425 -0.654124 0.54443 1.85661 0.966298 0.552882 -3.802456 1.108151 -0.250147 -3.79877 -1.904833 -0.011453 -2.159244 -1.572273 0.732551 0.260713 -0.645201 0.187067 1.392596 -0.244902 1.131114 -0.728669 3.354901 -1.622406 0.818601 -3.344845 -0.890048 -2.218333 1.226071 3.380607 0.571719 -2.18929 1.393823 -1.89321 0.90535 -0.21635 1.300456 0.529849 -0.278674 -0.392318 1.942874 1.160389 1.082429 3.002813 -1.929275 -0.063759 -3.057961 0.757342 3.298706 -0.827257 0.491665 -2.297385 -1.09161 0.13502 0.61725 0.757817 1.588338 0.095699 -1.589534 -0.620415 0.900094 3.029701 5.348423 0.97465 1.26103 1.909403 -0.68424 -1.054519 -2.714854 2.056666 0.763454 0.435456 1.053121 0.26585 -1.053407 0.188019 1.656854 0.11074 1.51996 -0.017017 1.002859 0.300488 -0.510804 0.786016 -1.453753 -2.532027 -2.289254 1.557155 -1.175717 1.880744 -2.001581 3.864802
0.352905 0.550922 -1.128945 -0.511125 0.774489 1.405335 -0.371647 0.106012 -0.779785 -0.640302 -0.68578 1.570717 -0.712288 -0.706705 -0.789609 -0.045278 -1.599722 -2.840112 -0.089543 -1.158838 -1.862605 -0.62748 -0.063542 -0.468696 0.750564 0.033551 -0.772222 -0.188991 -0.163115 0.455978 0.038455 -0.779588 0.172303 -1.114448 -0.548246 -0.008155 1.66721 -0.744821 -0.15746 -2.668482 -0.304702 -0.905716 0.479063 0.151803 -0.94063 -0.044338 -0.906122 -0.456182 0.281891 0.268287 0.47007 0.628019 0.328428 1.471286 -2.345457 0.072073 -0.345477 -0.998199 -1.496897 -0.053061 0.351206 -0.934426 0.295591 0.07336 0.24092 0.486976 0.390085 -0.621556 0.375246 -0.02625 1.957847 1.014101 0.004675 0.08874 -0.900479 -0.462149 0.922254 1.355385 -1.048724 0.105897 1.254466 0.410718 0.321258 1.066395 -0.171761 -0.128774 0.315556 0.697301 -0.180925 0.555334 1.005586 -0.891677 -1.232923 -1.994189 -0.567812 0.204184 -0.947385 -0.051526 -0.987029 0.725141
1.166535 0.571929 -2.296376 2.672156 -0.836627 -0.08581 -1.487717 0.680374 -1.051267 1.860963 -0.259307 -0.30104 -0.791023 3.516942 -3.423764 -1.714332 1.810032 0.385578 -0.596675 -0.336783 -0.307858 1.439698 3.283819 1.759804 -1.324751 3.053141 1.546661 -0.869133 -0.988947 -2.841006 -0.807501 0.71782 1.020934 -2.112568 -3.849263 -0.088448 -0.204372 0.604028 -2.055051 -0.926484 2.240313 0.079563 1.47677 -1.077266 2.965209 -1.837141 -0.07257 0.520574 2.179644 1.024933 -3.643406 1.180127 0.780232 2.966327 1.259519 -1.287425 1.510162 -2.776232 -1.020438 -2.465755 2.42826 -1.10543 1.35111 -0.106856 0.198081 -0.329907 0.006786 -1.935482 -0.023294 -0.879974 -0.607877 1.109545 2.518159 1.083583 0.067156 -1.138621 -2.607427 1.556449 0.183065 4.80035 -0.619828 0.54766 3.136885 4.279558 1.376504 -1.614635 3.284498 2.685056 0.304438 4.452716 -1.6901 -1.877963 1.03142 -2.114648 2.29784 0.653892 0.564788 1.18588 0.542849 1.578378
-0.057576 0.021258 0.111809 0.120853 -0.135245 -0.125378 -0.074262 -0.190041 -0.022991 0.144656 0.133213 0.229461 -0.013154 -0.17523 0.089572 0.216772 0.072275 0.331845 0.15376 0.049922 -0.043661 0.088775 0.169921 0.018048 -0.202383 -0.084132 -0.03074 -0.011057 0.207567 -0.019808 -0.061248 0.059504 -0.114443 0.147758 -0.226808 -0.067315 0.066502 0.125827 -0.008253 0.073527 0.022577 0.195007 0.021681 0.027467 0.03523 -0.182953 0.066869 -0.073501 -0.039539 0.0475 0.011664 -0.135688 -0.068095 -0.019017 0.062993 -0.028621 -0.125798 -0.032863 0.031444 -0.086287 -0.005567 -0.287805 0.040977 -0.199335 -0.06405 0.043103 0.024839 0.063262 0.01961 -0.260191 0.050947 -0.01357 -0.189573 -0.054632 -0.031576 -0.13437 -0.145102 0.037617 -0.021669 -0.169573 -0.009782 0.203329 0.205126 -0.257736 0.146926 0.014874 0.06041 0.003074 0.312721 0.081618 -0.220875 -0.062147 0.080814 0.169876 0.053879 -0.313203 0.017823 0.097901 0.102664 -0.083761
-0.113146 -0.117547 0.061665 -0.085304 -0.136893 -0.097721 -0.072904 0.003446 -0.109916 0.071062 0.268059 0.093359 0.11999 -0.01886 -0.109472 0.019232 -0.02185 0.159122 -0.001706 0.078915 -0.108194 0.12327 0.049678 -0.036 -0.08301 -0.0598 -0.219685 0.068877 0.030498 -0.226858 0.024704 -0.07855 -0.127007 -8.22E-4 0.114303 0.049521 -0.056957 -0.119619 -0.044854 0.228512 -0.096898 -0.018864 -0.061194 0.154871 -0.031474 -0.032946 -0.048262 -0.14001 -0.130054 0.018467 -0.022673 -0.041417 -0.152567 0.054507 0.095407 0.064052 -0.068736 0.020637 -0.033593 0.076806 -0.131088 -0.084465 -0.003058 -0.249282 0.008923 -0.057582 0.126005 0.108405 0.053214 -0.217501 -0.185958 0.182605 -0.217935 -0.157172 0.094489 -0.072229 -0.282014 -0.097648 0.001894 -0.12622 0.021964 -0.056976 0.300304 -0.253607 0.042858 -0.120403 -0.07228 -0.268736 0.007188 -0.18277 -0.108851 0.053028 0.003483 0.20577 -0.049967 -0.358349 0.082748 -0.017297 -0.153077 0.052274
1.035361 1.319725 0.388011 1.220811 -0.236045 1.447081 -1.78193 3.520004 0.063077 -1.681862 0.545208 0.767849 -1.479444 -1.152839 0.669301 0.685509 -2.946755 -2.239533 -1.187422 -1.793336 0.607402 0.130687 0.296681 -1.569517 1.825066 1.715849 -1.639836 0.849724 -1.742086 0.427502 3.84844 -1.377145 0.671096 -1.312902 -1.152387 0.705431 2.180344 2.97496 1.402098 -0.909545 -1.649212 -0.253421 1.186817 1.193823 3.167747 -0.387379 -0.12198 0.872223 0.13285 0.490844 0.029473 1.345032 0.297008 2.724698 -1.656047 -0.109585 1.500583 -1.148555 -3.658389 1.022988 -1.211381 0.342059 -0.023586 1.22536 -1.874871 -1.957746 -0.188066 -0.235303 -0.067175 1.107354 1.448404 0.838301 1.67396 -0.238039 -0.504146 -1.334739 0.688005 0.37731 -2.953094 0.650433 0.307563 -0.457962 -1.694326 2.40152 -0.816994 0.208705 1.853393 0.15935 -0.989952 1.089235 1.087388 -2.786835 -2.248864 -0.788939 0.405791 0.907533 -1.516669 1.970717 -0.345554 -0.134731
2.435781 0.100349 0.308449 3.152133 1.825135 5.043144 3.475524 1.030966 -0.034425 -0.654124 0.54443 1.85661 0.966298 0.552882 -3.802456 1.108151 -0.250147 -3.79877 -1.904833 -0.011453 -2.159244 -1.572273 0.732551 0.260713 -0.645201 0.187067 1.392596 -0.244902 1.131114 -0.728669 3.354901 -1.622406 0.818601 -3.344845 -0.890048 -2.218333 1.226071 3.380607 0.571719 -2.18929 1.393823 -1.89321 0.90535 -0.21635 1.300456 0.529849 -0.278674 -0.392318 1.942874 1.160389 1.082429 3.002813 -1.929275 -0.063759 -3.057961 0.757342 3.298706 -0.827257 0.491665 -2.297385 -1.09161 0.13502 0.61725 0.757817 1.588338 0.095699 -1.589534 -0.620415 0.900094 3.029701 5.348423 0.97465 1.26103 1.909403 -0.68424 -1.054519 -2.714854 2.056666 0.763454 0.435456 1.053121 0.26585 -1.053407 0.188019 1.656854 0.11074 1.51996 -0.017017 1.002859 0.300488 -0.510804 0.786016 -1.453753 -2.532027 -2.289254 1.557155 -1.175717 1.880744 -2.001581 3.864802
0.035921 0.044006 -0.041087 0.045923 0.11486 0.091657 -0.134703 0.067704 -0.179971 9.43E-4 0.115089 0.086446 -0.195778 -0.041377 0.144411 0.070663 0.050673 -0.068756 -0.170502 0.074419 -0.041609 -0.012886 0.194753 0.080801 -0.100149 0.052385 -0.123323 0.09808 0.168779 -0.054431 -0.077236 0.146937 0.098696 0.1154 -0.099998 -0.097791 -0.100788 -0.301166 0.073453 0.074044 -0.208999 -0.043171 0.013785 0.073091 -0.053111 -0.092939 -0.127185 0.070022 0.080147 -0.007156 -0.025386 -0.013825 0.006077 0.148636 -0.005753 -0.023443 -0.047861 -0.060011 -0.035341 0.108214 0.099431 -0.170558 -0.027039 -0.206107 -0.040687 0.009126 0.141363 0.0169 -0.173301 0.225059 0.142689 0.164679 0.025707 -0.013744 0.066723 0.076411 -0.060868 -0.060411 0.144979 0.071495 -0.017427 -0.091595 -0.003676 -0.002334 0.019185 -0.004108 0.16325 -0.157031 -0.111803 0.031695 -0.11572 0.036403 -0.044024 -0.175905 -0.048256 -0.071706 0.065096 -0.141065 0.034124 -0.148347
-0.120275 -0.076624 0.060001 0.16806 -0.099074 -0.179 -0.138545 -0.046315 -0.153346 -0.013029 0.06142 0.100548 -0.052307 -0.083166 0.098766 0.303514 0.078996 0.09986 -0.114068 -0.063848 -0.002261 0.297448 0.251458 0.137863 -0.068201 -0.015344 -0.004984 -0.065486 0.205865 -0.073548 0.131509 0.089437 -0.064868 -0.074377 -0.033386 -0.048961 0.13246 0.014515 -0.140166 0.058029 -0.057859 0.061261 -0.025467 -0.037082 0.041226 -0.122018 -0.082621 -0.012521 0.038862 0.110036 0.17262 -0.110084 0.001906 -0.259051 0.146055 -0.013699 0.034776 0.073848 -0.020211 -0.078644 0.032437 -0.212562 -0.079578 -0.174384 -0.06224 -5.31E-4 -0.125005 -0.085579 0.122879 -0.004955 -0.219484 -0.163308 -0.336882 0.086699 -0.014117 -0.105441 -0.110134 -0.021006 -0.038278 -0.097487 -0.135202 0.045969 0.166956 -0.171197 -0.14435 0.013855 -0.032949 -0.034161 -0.050665 0.034896 -0.09674 0.05297 -0.165976 0.174622 -0.149682 -0.092368 0.033895 0.02091 -0.035898 -0.080623
2.530173 0.327177 0.044399 2.625334 0.517888 3.557013 2.451318 1.203172 0.111454 -0.877836 0.993505 0.925239 1.70411 0.184584 -3.344441 1.315561 -0.223449 -2.33738 -2.700772 -0.177901 -1.208876 -0.974611 0.664627 0.037142 -0.411572 -1.077825 -0.024273 -1.794378 -0.79838 -0.926177 3.292136 -1.096174 0.976798 -1.896207 -1.609797 -1.230844 0.232738 2.949578 -0.057924 -1.08101 1.370068 -0.923634 0.013831 -0.366606 1.583532 1.295864 0.295803 -0.518726 2.034311 1.638716 1.043836 2.014617 -1.517668 -0.761905 -2.216174 -0.119334 3.167721 0.564994 0.454407 -1.398431 -0.704063 0.182806 0.235055 0.009481 2.114973 0.423103 -0.915837 0.320128 -0.302114 1.741244 4.241235 1.532705 0.087395 1.733089 -1.914919 -1.555496 -2.553138 1.728217 0.554317 -0.161995 -0.15281 1.367703 -2.754788 0.402091 1.267373 0.151077 2.107006 0.23132 0.858491 -0.235151 -0.562467 1.447642 0.923927 -1.409843 -1.953653 0.852024 -1.663305 0.809944 -2.182186 3.15735
-0.047204 -0.051203 -0.014369 -0.038905 0.041531 0.227181 -0.163966 -0.03859 0.019979 0.124949 0.069844 0.106647 -0.062747 -0.017759 -0.012895 0.075187 -0.06542 -0.018225 -0.102123 -0.044671 -0.060492 0.081559 0.077466 0.189488 -0.052785 -0.091078 -0.111194 0.011025 0.020608 -0.136805 0.040115 0.057347 0.082627 0.018781 0.018761 0.034559 0.047284 -0.040794 0.113704 0.027154 0.001987 0.140039 -0.045382 0.056079 0.061555 0.015053 -0.067187 0.010602 -0.14831 0.01322 -0.053556 0.090763 -0.003492 0.102078 -0.114017 0.09551 0.073339 -0.120041 0.008976 -0.060382 0.073653 -0.116666 0.07179 -0.053368 0.081959 0.014627 -0.00665 0.027077 0.063393 -0.093204 -0.017248 0.1912 -0.079149 -0.014096 -0.082211 -0.039391 0.010247 0.086791 -0.028482 0.007591 -0.142495 0.073403 0.019013 -0.144657 -0.090097 0.03288 0.046311 -0.076366 0.110742 0.014623 0.050198 -0.078104 0.017695 -0.018336 -0.05276 0.018201 -4.89E-4 0.049739 -0.045344 -0.024893
-0.38434 -0.570338 -3.334123 -0.990325 -0.281295 3.633702 1.320934 0.804616 -0.499895 -0.831205 0.460112 1.388349 -2.264975 3.215568 -3.90167 1.353361 -1.448904 -2.546085 -1.024352 -1.734034 -1.344124 0.93203 0.532723 0.23208 -0.507331 0.823317 0.659701 0.36019 1.191168 -0.162178 -0.263719 -1.148898 -0.733443 1.049014 -0.463284 0.424462 1.721949 -2.279087 -0.239497 -3.509027 0.274708 -0.478871 -0.254635 1.092364 -0.333634 -0.504492 -0.065145 -0.538987 0.565458 0.780359 -0.571438 2.952173 0.370658 -0.759209 -2.924849 1.720769 0.511283 1.62778 2.047539 0.727555 2.155394 -1.325505 -0.576841 2.155423 -1.025197 1.359344 -0.744288 -2.504187 -1.775349 1.348846 2.846446 1.640962 1.869469 1.38429 0.797755 -0.790083 2.739745 1.110482 1.051984 -1.114181 2.453474 -0.002451 -1.249565 3.986771 0.736882 -1.32782 1.044597 0.12676 2.039398 0.327395 0.179204 -1.66492 -0.55174 -2.138355 -3.629091 -1.09422 -3.320013 0.282001 -1.758182 -2.017416
-0.016095 -0.221284 0.154147 0.093093 -0.120192 0.173908 -0.009705 -0.062873 -0.097971 0.137386 0.059271 0.045163 -0.065457 0.01889 -0.037035 0.045368 0.1175 0.198912 0.027443 0.049138 -0.042477 0.075536 0.202853 0.161862 -0.146452 -0.063646 -0.104058 -0.063138 0.129651 -0.168296 -0.002577 -0.201428 -0.111876 0.014249 -0.123669 0.114499 0.087389 0.002974 0.04855 0.008512 -0.042541 0.277842 -0.001672 -0.050937 -0.046334 -0.066218 0.042947 -0.042938 -0.186846 0.030015 -0.10853 -0.017529 0.039545 -0.011386 0.134336 0.017813 -0.024028 -0.223112 -0.028306 -0.146831 0.074678 -0.10251 0.053908 -0.090249 0.05946 0.029108 0.159652 0.239093 0.131553 -0.085899 -0.158752 0.111013 -0.005195 -0.102156 0.082513 0.012178 0.041918 -0.038406 0.020171 -0.023594 -0.186237 -0.048326 -0.017435 -0.139643 0.051259 -0.004046 0.168775 0.021147 0.119302 0.125884 -0.196788 -0.0487 0.121817 0.079223 0.066627 -0.023851 -0.042194 0.036156 0.066127 -0.313196
0.0 0.0 0.0 0.0 0.0 0.0 0.0 0.0 0.0 0.0 0.0 0.0 0.0 0.0 0.0 0.0 0.0 0.0 0.0 0.0 0.0 0.0 0.0 0.0 0.0 0.0 0.0 0.0 0.0 0.0 0.0 0.0 0.0 0.0 0.0 0.0 0.0 0.0 0.0 0.0 0.0 0.0 0.0 0.0 0.0 0.0 0.0 0.0 0.0 0.0 0.0 0.0 0.0 0.0 0.0 0.0 0.0 0.0 0.0 0.0 0.0 0.0 0.0 0.0 0.0 0.0 0.0 0.0 0.0 0.0 0.0 0.0 0.0 0.0 0.0 0.0 0.0 0.0 0.0 0.0 0.0 0.0 0.0 0.0 0.0 0.0 0.0 0.0 0.0 0.0 0.0 0.0 0.0 0.0 0.0 0.0 0.0 0.0 0.0 0.0
0.163611 0.113749 0.057287 0.002474 -9.1E-5 -0.182831 0.196601 0.053192 -0.008331 0.064688 -0.003465 0.007597 -0.147846 0.091706 0.015572 -0.046308 -0.012372 0.092807 -0.044293 0.09243 0.02945 -0.173343 -0.010695 -0.096414 0.113858 0.150217 -0.052033 0.073955 -0.004484 0.060487 0.187169 0.047479 0.311916 -0.212233 -0.123727 0.080536 -0.014451 0.142792 -0.155428 -0.02544 -0.119473 -0.058977 -0.058619 0.029314 -0.031292 -0.111073 0.220957 0.038774 0.025177 -5.45E-4 0.175057 0.009791 -0.059633 0.035467 -0.0654 -0.190896 -0.12479 -0.071489 -0.34021 -0.035335 0.12892 -0.029217 0.285678 -0.443755 -0.114726 -0.095243 0.02283 -0.027281 -0.050164 0.209599 0.254135 -0.104839 -0.167599 0.094447 0.00904 0.058695 0.068095 -0.06747 0.026676 0.036699 0.077637 -0.213635 -0.131714 0.040453 -0.125371 -0.134078 0.185134 -0.185736 -0.012589 -0.012299 0.187806 -0.055119 -0.150046 -0.002023 -0.089394 0.347766 0.169156 0.255228 -0.155455 0.120752
-0.047204 -0.051203 -0.014369 -0.038905 0.041531 0.227181 -0.163966 -0.03859 0.019979 0.124949 0.069844 0.106647 -0.062747 -0.017759 -0.012895 0.075187 -0.06542 -0.018225 -0.102123 -0.044671 -0.060492 0.081559 0.077466 0.189488 -0.052785 -0.091078 -0.111194 0.011025 0.020608 -0.136805 0.040115 0.057347 0.082627 0.018781 0.018761 0.034559 0.047284 -0.040794 0.113704 0.027154 0.001987 0.140039 -0.045382 0.056079 0.061555 0.015053 -0.067187 0.010602 -0.14831 0.01322 -0.053556 0.090763 -0.003492 0.102078 -0.114017 0.09551 0.073339 -0.120041 0.008976 -0.060382 0.073653 -0.116666 0.07179 -0.053368 0.081959 0.014627 -0.00665 0.027077 0.063393 -0.093204 -0.017248 0.1912 -0.079149 -0.014096 -0.082211 -0.039391 0.010247 0.086791 -0.028482 0.007591 -0.142495 0.073403 0.019013 -0.144657 -0.090097 0.03288 0.046311 -0.076366 0.110742 0.014623 0.050198 -0.078104 0.017695 -0.018336 -0.05276 0.018201 -4.89E-4 0.049739 -0.045344 -0.024893
-0.109163 -0.191478 0.176938 0.158747 -0.094603 0.014841 -0.097218 0.023553 -0.118593 0.29949 0.062688 0.138529 0.020623 0.106482 0.050719 0.08577 0.066896 0.274331 0.045083 0.035189 -0.17428 0.162765 0.114625 0.100983 -0.212349 0.005975 -0.044796 -0.0677 0.13026 -0.162669 -0.063661 -0.080109 -0.010793 0.127913 -0.205086 0.034233 0.016162 -0.138748 -0.03618 0.060254 -0.004051 0.254393 -0.064235 -0.256121 0.010128 -0.088343 0.124967 -0.071961 -0.124844 0.025526 0.107904 -0.098654 2.27E-4 0.06325 0.167935 0.066961 -0.050435 -0.029641 0.157162 -0.015336 0.072403 0.002033 -0.05103 0.012141 -0.007908 0.027512 0.104649 0.051594 0.084238 0.010704 -0.124188 -0.04354 0.016384 -0.051366 -0.095012 0.002764 -0.100361 -0.193219 0.091158 0.018723 0.004189 0.090707 0.054073 -0.281747 0.119344 0.007114 -0.050421 0.145364 0.172627 -0.030182 -0.154156 -0.020021 0.013087 0.026662 0.130919 -0.147982 0.047687 -0.05669 -0.013603 0.0402
-1.482363 1.198757 -2.795043 4.105337 -0.505949 1.000841 -1.353562 3.555108 -2.45069 2.79382 -0.919809 0.93274 0.684084 2.558134 -2.615721 -1.252693 1.459412 0.172322 -1.468399 -2.51459 -0.540749 3.031043 -0.0363 1.98412 -1.12275 3.951102 -1.137981 -1.932574 -1.797927 -4.762658 1.537316 0.135806 1.639663 -1.590274 -2.206267 -1.268076 0.736708 1.798377 -4.134606 -0.954425 1.50566 -0.38337 1.635739 -0.997211 -0.073292 -0.940158 -0.069585 1.948804 2.71211 1.050769 -0.475509 2.857272 0.811727 1.930054 1.717178 -0.169999 1.080929 -2.035098 0.879811 -2.555648 -0.335963 -0.226552 0.742867 0.445288 -1.10652 -0.983096 0.183443 -1.280834 -0.378664 -3.331041 -1.033956 2.531596 2.087368 0.625961 -0.03295 -0.897418 -0.79729 0.618051 -0.84824 2.206427 0.46944 1.120584 2.752258 5.112256 0.900844 -2.315369 3.242269 3.898458 0.535597 3.744396 -1.994592 -4.003265 1.879596 -1.416936 3.000749 -0.911197 2.187157 -0.077727 -0.628997 1.9995
0.104671 0.17484 0.041356 0.115069 -0.127099 -0.166531 -0.006417 -0.095255 -0.196482 0.04505 0.452547 0.078481 0.116997 -0.014906 0.023928 0.134881 -0.001945 0.023802 0.072309 -0.090033 -0.020951 0.004501 0.119041 -0.005484 0.1633 -0.353225 -0.036991 -0.019432 -0.080684 0.166376 -0.011298 -0.31071 0.079628 0.080635 -0.258755 -0.0317 0.053796 -0.128452 0.115793 0.018216 0.122281 0.236327 0.160658 -0.059036 0.044542 -0.076993 0.156776 -0.002263 -0.061596 0.017262 0.126065 -0.130702 0.058292 0.067016 -0.218319 -0.076478 0.075923 0.054071 -0.130859 -0.14749 0.031832 -0.204209 -0.025786 0.101007 -0.191068 0.070923 0.121514 0.092876 -0.014123 -0.193556 0.147348 0.123205 -0.129965 0.062784 -0.039243 -0.051359 0.046893 -0.075873 -0.183976 0.021061 -0.10275 -0.025188 -0.21314 -0.092395 0.130696 0.03802 0.212836 -0.138924 -1.52E-4 0.223038 0.026852 0.02503 -0.034571 0.280264 0.199545 -0.026406 0.017909 0.056321 -0.057039 -0.12374
0.049848 0.097387 0.130266 0.053026 -0.079318 0.151538 0.017263 -0.027791 -0.147927 -0.007314 -0.035129 -0.038599 0.078021 0.204493 -0.103003 0.15102 0.128976 0.18009 -0.068093 0.011879 0.128567 -0.012997 -0.027419 -0.058743 0.014492 0.149992 0.002686 0.13275 0.008568 -0.094475 -0.10997 -0.00586 0.196402 0.05641 -0.014312 0.002157 0.135434 -0.094768 -0.032276 -0.086894 -0.011383 -0.026096 -0.021752 -0.21423 -0.066961 0.074309 0.090267 0.106844 -2.76E-4 -0.181893 -0.169542 -0.144533 0.005646 -0.053731 0.221712 0.046204 -0.131725 0.144744 0.03255 -0.055031 -0.103262 -0.361844 -0.053172 0.009639 -0.085063 -0.016888 0.001084 -0.041904 -0.087938 -0.1411 0.125761 0.05511 -0.011455 -0.289632 -0.067127 0.201406 0.152354 0.080947 0.060562 0.058327 -0.182172 -0.15033 -0.002696 -0.025433 -0.169191 0.057218 -0.280985 0.012668 0.034411 0.057704 -0.198103 -0.088443 0.065379 -0.207227 0.020887 0.07027 -0.068335 -0.157693 0.086587 -0.095629
0.0 0.0 0.0 0.0 0.0 0.0 0.0 0.0 0.0 0.0 0.0 0.0 0.0 0.0 0.0 0.0 0.0 0.0 0.0 0.0 0.0 0.0 0.0 0.0 0.0 0.0 0.0 0.0 0.0 0.0 0.0 0.0 0.0 0.0 0.0 0.0 0.0 0.0 0.0 0.0 0.0 0.0 0.0 0.0 0.0 0.0 0.0 0.0 0.0 0.0 0.0 0.0 0.0 0.0 0.0 0.0 0.0 0.0 0.0 0.0 0.0 0.0 0.0 0.0 0.0 0.0 0.0 0.0 0.0 0.0 0.0 0.0 0.0 0.0 0.0 0.0 0.0 0.0 0.0 0.0 0.0 0.0 0.0 0.0 0.0 0.0 0.0 0.0 0.0 0.0 0.0 0.0 0.0 0.0 0.0 0.0 0.0 0.0 0.0 0.0
-0.077255 0.112019 -0.090607 0.042007 0.105788 0.058572 -0.040941 0.081618 -0.115801 -0.160215 0.130306 -0.058302 0.029868 0.147528 -0.07463 0.21915 -0.08655 0.033289 -0.027098 -0.113842 -0.115628 0.006626 0.060278 0.033787 -0.03745 -0.088661 -0.038217 0.081207 0.08566 0.146055 0.005014 -0.2397 -0.234273 -0.152922 -0.145682 -0.174192 0.307877 -0.361557 -0.220216 -0.070075 -0.159367 -0.258453 0.04947 0.158734 -0.189794 -0.108181 0.102914 0.012656 0.010407 -0.05314 -0.046533 0.035983 -0.161329 0.017858 -0.122521 -0.180577 0.098842 0.112544 0.078906 -0.012639 -0.05822 0.014938 -0.135303 0.143764 -0.143151 0.159538 0.006289 -0.024182 0.160163 -0.116369 0.119835 0.092295 -0.024268 0.168376 0.045233 -0.008533 0.173394 0.029747 -0.063907 -0.102766 0.047518 -0.032419 -0.022459 0.004283 0.159738 -0.033043 0.192152 0.103556 0.213534 0.067977 0.065288 -0.098827 -0.135587 0.228419 0.061055 0.057647 -0.131235 0.188273 -0.176153 0.188881
0.0 0.0 0.0 0.0 0.0 0.0 0.0 0.0 0.0 0.0 0.0 0.0 0.0 0.0 0.0 0.0 0.0 0.0 0.0 0.0 0.0 0.0 0.0 0.0 0.0 0.0 0.0 0.0 0.0 0.0 0.0 0.0 0.0 0.0 0.0 0.0 0.0 0.0 0.0 0.0 0.0 0.0 0.0 0.0 0.0 0.0 0.0 0.0 0.0 0.0 0.0 0.0 0.0 0.0 0.0 0.0 0.0 0.0 0.0 0.0 0.0 0.0 0.0 0.0 0.0 0.0 0.0 0.0 0.0 0.0 0.0 0.0 0.0 0.0 0.0 0.0 0.0 0.0 0.0 0.0 0.0 0.0 0.0 0.0 0.0 0.0 0.0 0.0 0.0 0.0 0.0 0.0 0.0 0.0 0.0 0.0 0.0 0.0 0.0 0.0
0.074266 -0.083584 0.10381 0.009316 -0.100393 0.041528 0.206775 0.0874 0.177736 -0.184213 -0.141885 -0.084431 0.044739 -0.003175 -0.06206 -0.255855 -0.151046 0.152906 0.071981 0.060812 -0.125603 -0.186607 0.007438 0.294078 -0.015399 0.053068 0.006472 -0.264982 0.008458 -0.232665 -0.039382 -0.095008 -0.050913 -0.142619 -0.022468 0.308708 -0.0207 -0.123285 -0.110717 -0.135324 -0.07595 0.107326 0.273885 -0.180899 -0.039922 -0.082021 0.036557 0.030889 0.040008 0.27814 0.035281 0.130966 -0.169793 0.057624 -0.079476 0.119774 0.129925 -0.219924 0.209522 0.085482 0.169377 -0.058617 0.121146 -0.083859 0.09149 -0.291108 0.153496 0.034093 0.006612 -0.002705 0.120406 0.109493 0.2516 0.289534 -4.72E-4 0.238352 0.171747 0.016699 -0.131213 0.141447 0.032134 -0.058164 0.021208 -0.003352 -0.087276 -0.203016 -0.005762 0.049771 -0.350146 0.038196 0.08068 0.087874 -0.059072 -0.111434 -0.023852 0.047128 7.82E-4 0.022237 0.073106 0.011801
0.005636 0.105127 -0.007056 -0.172244 -0.096803 -0.04571 -0.24602 0.22734 0.068631 -0.130904 -0.086823 -0.051959 -0.003283 0.027601 0.069065 -0.087802 -0.195592 0.050046 -0.04359 0.12799 -0.114953 0.022765 -0.18023 0.094829 -0.03844 -0.106423 0.06611 0.102306 0.197611 -0.001328 -0.038099 0.019652 0.048837 -0.071834 -0.264245 0.016765 -0.265913 -0.052944 -0.146632 -0.051008 -0.058155 -0.216728 -0.021407 -0.124788 0.085278 -0.175691 -0.256444 0.079094 0.085064 0.102354 -0.057563 -0.112644 -0.106284 0.018205 0.151263 0.058528 -0.200164 -0.072288 -0.025471 -0.016313 0.204809 -0.043008 0.029408 0.104077 0.106926 -0.124363 -0.035448 -0.144312 -0.21045 0.095171 0.055171 0.071872 -0.022194 -0.092009 -0.145273 -0.057442 0.067945 0.205087 0.050753 -0.020316 -0.131554 0.113936 -0.01824 0.021614 -1.3E-5 0.07197 -0.015619 0.099305 -0.014504 0.303015 -0.171102 0.033228 0.046335 0.002625 0.174846 0.031718 -0.094093 -0.115956 -0.005613 0.081926
0.139293 -0.152202 0.050718 0.097513 0.090066 -0.04194 -0.077302 0.125605 0.036623 -0.084624 -0.089634 -0.035482 -0.002836 -0.028967 -0.050003 0.058269 0.03985 0.023198 -0.10886 -0.009601 -0.00876 0.002052 -0.00245 -0.028219 0.067149 -0.026418 -0.135377 0.027553 0.090925 -0.038079 0.124803 -0.003935 -0.204104 0.119866 -0.128041 -0.145261 0.110508 0.051285 0.061817 0.167302 0.011794 0.041224 0.017654 -0.009896 -0.015019 -0.148133 -0.002441 -0.089565 -0.020752 0.052052 0.027758 -0.097856 -0.076696 -0.051449 0.111338 -0.077657 0.058927 -0.076227 0.326918 -0.154141 0.076569 -0.092737 -0.068628 -0.12238 -0.095831 -0.036741 -0.068062 0.063662 0.12565 -0.046808 0.059169 -0.043688 -0.118968 -0.003076 0.108859 -0.226327 0.177088 0.126017 0.05862 -0.187545 -0.175144 0.207181 0.041746 0.06179 0.097342 0.272586 0.148562 -0.119153 0.069624 -0.063608 0.078295 0.107775 0.100925 0.132371 -0.105119 0.069993 -0.006277 -0.036953 -0.113525 -0.072612
0.104671 0.17484 0.041356 0.115069 -0.127099 -0.166531 -0.006417 -0.095255 -0.196482 0.04505 0.452547 0.078481 0.116997 -0.014906 0.023928 0.134881 -0.001945 0.023802 0.072309 -0.090033 -0.020951 0.004501 0.119041 -0.005484 0.1633 -0.353225 -0.036991 -0.019432 -0.080684 0.166376 -0.011298 -0.31071 0.079628 0.080635 -0.258755 -0.0317 0.053796 -0.128452 0.115793 0.018216 0.122281 0.236327 0.160658 -0.059036 0.044542 -0.076993 0.156776 -0.002263 -0.061596 0.017262 0.126065 -0.130702 0.058292 0.067016 -0.218319 -0.076478 0.075923 0.054071 -0.130859 -0.14749 0.031832 -0.204209 -0.025786 0.101007 -0.191068 0.070923 0.121514 0.092876 -0.014123 -0.193556 0.147348 0.123205 -0.129965 0.062784 -0.039243 -0.051359 0.046893 -0.075873 -0.183976 0.021061 -0.10275 -0.025188 -0.21314 -0.092395 0.130696 0.03802 0.212836 -0.138924 -1.52E-4 0.223038 0.026852 0.02503 -0.034571 0.280264 0.199545 -0.026406 0.017909 0.056321 -0.057039 -0.12374
-0.671963 -1.356401 3.602218 0.823366 -0.502176 -0.026847 2.688116 0.953721 0.412325 -0.074957 -2.563688 0.379861 -0.279054 0.512633 -0.426346 -0.669122 -2.193019 -1.985633 1.195718 -0.843091 -3.07709 -2.336138 0.676971 -1.157188 0.84245 -0.067074 1.662677 -0.902702 0.573933 0.762577 1.605777 -0.494156 -0.764054 -4.857189 1.199538 0.081996 1.582965 -1.800896 1.133021 -2.874443 -0.067305 0.527258 -0.963475 2.056148 -0.810059 -2.590427 0.192699 -0.925293 0.533123 0.50128 0.198265 1.047486 -1.15476 -0.133629 -3.660616 2.9145 0.67414 -1.747608 -1.472014 0.506851 -0.089567 -1.009712 -0.989767 -0.231732 -1.20197 -0.899847 -0.180586 -0.280434 1.214359 0.601947 3.002038 1.452004 1.898121 0.64863 -0.773459 -0.546508 1.482508 0.349815 -0.022055 1.977613 1.349274 -0.187718 2.026595 2.419264 -2.256871 -0.764584 -0.110956 2.609596 -0.511332 0.497735 1.205947 -0.553892 0.146347 -2.201324 -0.117853 -0.193777 0.312823 3.388883 -4.036498 2.412019
-0.124222 -0.075637 0.144327 0.075525 0.017828 0.041418 -0.190549 -0.028216 0.13211 0.037584 0.192554 0.126847 -0.066061 -0.039147 0.11224 0.063219 -0.01116 0.132231 -0.057645 0.076516 -0.136632 0.21004 -0.037426 0.175893 -0.124999 0.055672 -0.054988 -0.085403 0.027264 -0.128215 0.040066 -0.022509 0.04042 0.001232 0.043197 -0.020315 0.071008 0.05978 0.067429 0.090946 -0.063531 0.075375 -0.080345 -0.027498 0.070977 -0.198618 0.056249 0.198348 -0.20487 -0.01377 -0.015151 -0.035202 -0.041249 0.096808 0.129262 0.024266 -0.052759 -0.084294 -0.024862 0.002523 0.283853 -0.064645 0.032988 -0.037784 -0.095169 -0.041189 0.086425 0.013726 0.175213 -0.195326 -0.001538 -0.017631 0.043619 -0.156578 0.100427 0.01108 -0.117471 -0.009754 -0.035464 0.125129 -0.073973 0.196793 -0.043237 -0.067385 0.158795 -0.076593 0.138856 0.00785 0.143852 -0.044356 -0.044597 -0.095045 -0.068104 0.011035 -0.191861 -0.212275 0.068272 -0.057953 -0.036996 -0.020596
0.061531 0.170333 0.282724 0.097472 0.175185 -0.12149 -0.127926 -0.271244 0.107004 0.00611 -0.065157 0.210045 0.006397 -0.08112 0.051879 -0.134196 0.155295 0.042493 -0.140228 0.264008 0.065883 0.148488 0.151512 0.017953 -0.065076 0.05063 0.099743 0.126277 0.098796 0.080731 -0.113769 0.071113 0.01386 -0.110883 -0.068471 0.112091 0.12967 0.011165 -0.121588 -0.238228 0.224141 0.163648 -0.034938 0.205958 -0.036749 0.061058 -0.061592 0.181561 0.140406 -0.164028 -0.103451 0.043777 0.178198 -0.133936 -0.036089 0.104535 -0.038015 -0.118276 -0.043864 0.037353 0.033779 -0.174 -0.057669 0.020099 0.103926 -0.104764 0.021371 0.092568 -0.075609 -0.047284 0.059329 -0.169212 -0.258581 0.084066 0.04006 0.092308 0.036526 0.014758 -0.094589 0.004755 0.035315 0.011493 -0.053433 0.116085 -0.018023 0.173399 0.013837 -0.027568 0.236076 -0.080163 0.02923 0.131836 -0.295298 0.198775 -0.11733 0.206983 -0.072392 0.160786 -0.272304 -0.229275
0.133144 -0.044199 0.108877 0.124427 -0.066738 0.186109 -0.067011 0.080744 0.008025 0.062749 0.0356 0.097814 -0.036093 0.064094 0.086915 -0.046078 0.117013 0.052341 0.056322 0.073257 -0.023793 -0.027754 0.151548 0.118631 0.129059 -0.016441 0.106545 -0.056812 0.031686 0.059142 0.023374 -0.047582 -0.09548 -0.125731 -0.002883 -0.098507 -0.107889 -0.109139 -0.104965 -0.150702 0.101404 0.158212 0.141756 0.06291 0.012806 -0.26097 0.003295 -0.160959 0.110102 -0.139878 0.045816 -0.091344 -0.017966 0.004736 -0.001849 -0.057952 -0.083052 0.162722 0.044609 0.071145 -0.019402 0.01992 0.15405 -0.016777 0.19026 -0.100738 0.082974 -0.027586 0.040233 -0.27824 0.071935 -4.4E-4 0.201422 0.127079 -0.049423 -0.138459 0.00115 0.015266 -0.044575 0.276624 0.016688 0.065407 0.234307 -0.120265 0.072553 0.240948 -0.037669 0.033475 0.155346 0.156729 -0.211888 -0.07229 -0.15144 2.45E-4 -0.050106 0.054392 -0.183123 0.215552 -0.041958 0.14038
0.185876 -0.011869 0.100705 0.112163 0.080256 0.141071 -0.151618 0.143222 -0.175017 0.030114 0.163705 0.156386 -0.011132 0.054157 0.139156 0.010372 0.073503 -0.092586 0.015034 0.120511 -0.0244 0.123545 -0.215413 0.009621 -0.113759 -0.126752 -0.060248 0.067905 0.152502 -0.230414 -0.127258 -0.12572 -0.199061 0.143204 -0.120161 -0.164143 0.148195 -0.147587 -0.098508 -0.10885 -0.160747 -0.21142 0.029466 0.284737 0.182756 0.157189 0.052026 -0.02986 0.101467 -0.04096 0.004722 0.00978 0.060817 0.032063 -0.201491 -0.041881 -0.051333 0.114354 0.015539 -0.048627 -0.028554 -0.06943 -0.099436 -0.070814 0.023597 0.115418 0.047535 0.228612 -0.037104 -0.101583 -0.006304 -0.147032 0.064755 0.096142 0.152089 -0.265677 -0.091004 -0.152659 -0.10843 -0.173956 0.242359 -0.04338 -0.033612 0.082726 -0.08859 0.100996 0.128488 0.052833 0.250449 0.12179 -0.121469 -0.020346 0.037838 0.007108 -0.024228 -3.45E-4 0.143239 0.104323 0.071197 -0.00955
0.058697 -0.090157 0.079635 -0.115154 0.026468 -0.12812 -0.105896 0.133009 -0.070255 -0.264494 -0.270748 0.101294 0.114711 0.082819 0.225209 0.142837 0.059299 -0.013728 -0.190346 -0.211771 0.088302 -0.082987 0.279166 -0.009284 -0.159183 -0.148536 -0.00268 -0.07318 0.242921 -0.160126 -0.056925 -0.131437 -0.0643 0.24243 0.174872 0.13506 0.314898 0.155542 -0.008422 0.031618 -0.043803 -0.057936 0.016824 -0.158188 -0.117612 -0.242231 0.005685 -0.083644 -0.215595 -0.090401 0.14393 -0.088757 -0.112631 0.138396 0.232564 -0.14991 0.035966 0.042154 -0.124703 -0.22343 -0.229599 0.070635 -0.007254 -0.291838 0.022215 0.118819 -0.23259 -0.048078 0.187245 -0.09073 -0.138408 0.004123 0.153502 0.150612 -0.168999 -0.089557 0.246244 0.014959 -0.38606 -0.185251 -0.260069 0.226863 0.093716 -0.092753 0.194042 -0.090475 0.130633 -0.084859 0.234414 -0.034695 0.104905 -0.016999 0.356269 0.114 -0.02324 -0.06922 -0.190968 0.052491 0.009115 -0.068273
-0.178361 0.023108 0.030516 -0.00779 -0.127135 0.033774 -0.058489 0.108023 -0.081989 0.181792 0.15754 -0.042374 0.022531 0.074904 0.06134 0.212379 0.125077 0.182368 0.042925 0.141779 -0.175989 0.068378 0.056694 0.173894 -0.156246 -0.052193 0.009312 0.006255 0.137546 -0.101633 -0.01366 -4.65E-4 -0.057965 0.105498 0.088793 -0.099231 -0.069107 0.033709 -0.094455 0.070188 0.08289 0.088396 0.081002 -0.251021 0.005646 -0.147359 -0.131828 0.036224 -0.096342 -0.051767 -0.006245 -0.057025 -0.177246 0.121287 0.13194 -0.054862 -1.47E-4 -0.090271 0.044172 -0.094164 0.068466 0.014386 0.044188 0.055794 -0.294903 -0.052435 0.071505 -0.126545 0.164685 -0.079436 -0.032483 0.014316 0.023237 0.036095 -0.003958 -0.126208 -0.175707 0.050816 0.018969 -0.135684 -0.112811 0.192106 0.262908 -0.161332 0.045463 -0.091907 -0.012066 -0.066752 -0.01573 0.008406 -0.178769 -0.032234 0.170579 0.307644 -0.092665 -0.064283 -0.192889 -0.104724 0.032471 -0.060748
0.0 0.0 0.0 0.0 0.0 0.0 0.0 0.0 0.0 0.0 0.0 0.0 0.0 0.0 0.0 0.0 0.0 0.0 0.0 0.0 0.0 0.0 0.0 0.0 0.0 0.0 0.0 0.0 0.0 0.0 0.0 0.0 0.0 0.0 0.0 0.0 0.0 0.0 0.0 0.0 0.0 0.0 0.0 0.0 0.0 0.0 0.0 0.0 0.0 0.0 0.0 0.0 0.0 0.0 0.0 0.0 0.0 0.0 0.0 0.0 0.0 0.0 0.0 0.0 0.0 0.0 0.0 0.0 0.0 0.0 0.0 0.0 0.0 0.0 0.0 0.0 0.0 0.0 0.0 0.0 0.0 0.0 0.0 0.0 0.0 0.0 0.0 0.0 0.0 0.0 0.0 0.0 0.0 0.0 0.0 0.0 0.0 0.0 0.0 0.0
0.311386 -0.088869 -0.104218 0.130087 0.183488 0.022315 -0.082123 0.133895 -0.162771 -0.035674 0.062013 0.068237 0.160958 0.027073 -0.100362 0.167218 -0.042139 -0.102363 0.051867 0.210541 -0.049528 0.077626 -0.081211 0.124142 0.154735 -0.092879 -0.098679 -0.086667 -0.09524 -0.180662 -0.069217 0.051259 -0.163076 0.09531 -0.210824 0.131975 0.024457 0.009266 -0.002694 -0.037793 0.025627 -0.095514 0.10237 0.054793 -0.091383 -0.032542 0.037963 0.051818 0.04797 0.108934 0.299935 0.148108 0.02485 -0.041405 -0.014041 -0.079868 0.124825 0.082945 0.208714 -0.190215 0.089154 0.032792 -0.228709 -0.080581 0.121245 0.103708 0.242305 -0.127837 -0.008612 0.049873 0.151503 0.011067 0.006107 0.092054 -0.034946 0.223306 -0.336444 0.025374 0.022252 -0.069033 -0.231604 0.066545 0.052049 0.116581 -0.120114 -0.1049 0.217058 0.061186 0.084725 0.124448 0.085271 0.223431 0.029766 0.067547 -0.155722 -0.157657 0.230428 0.145588 0.022589 -0.06954
-0.06583 -0.22552 0.01727 0.011724 0.058642 0.048091 0.085541 -0.076712 -0.1348 0.054475 0.146513 0.053409 -0.024379 0.256087 -0.013025 0.004575 -0.264844 0.052009 0.059988 -0.013629 0.216591 0.103449 0.297255 0.124458 0.146011 0.028068 0.012468 0.086669 -0.203467 -0.42 0.243491 -0.134547 -0.129524 2.15E-4 -0.046122 -0.012116 0.032605 -0.00453 -0.050289 -0.076488 0.071211 -0.345013 0.226192 -0.072875 -0.074486 -0.08038 -0.046684 -0.178828 -0.050649 0.014131 -0.068447 0.030138 -0.203824 -0.099399 -0.078293 0.018454 -0.017997 -0.217149 0.192538 -0.035284 0.027904 0.013869 -0.164478 -0.086286 -0.115851 -0.025857 -0.113248 -0.252455 -0.103066 -0.014769 0.096346 -0.034821 0.016478 0.205536 0.167105 -0.040707 -0.021126 0.214731 -0.01373 0.169297 0.054049 0.095003 0.139171 -0.132953 0.15614 -0.242937 0.06109 0.004167 0.184597 0.151248 0.055445 0.014003 -0.252558 -0.331437 0.119729 -0.052785 0.110388 0.228981 -0.068822 0.052204
-0.38434 -0.570338 -3.334123 -0.990325 -0.281295 3.633702 1.320934 0.804616 -0.499895 -0.831205 0.460112 1.388349 -2.264975 3.215568 -3.90167 1.353361 -1.448904 -2.546085 -1.024352 -1.734034 -1.344124 0.93203 0.532723 0.23208 -0.507331 0.823317 0.659701 0.36019 1.191168 -0.162178 -0.263719 -1.148898 -0.733443 1.049014 -0.463284 0.424462 1.721949 -2.279087 -0.239497 -3.509027 0.274708 -0.478871 -0.254635 1.092364 -0.333634 -0.504492 -0.065145 -0.538987 0.565458 0.780359 -0.571438 2.952173 0.370658 -0.759209 -2.924849 1.720769 0.511283 1.62778 2.047539 0.727555 2.155394 -1.325505 -0.576841 2.155423 -1.025197 1.359344 -0.744288 -2.504187 -1.775349 1.348846 2.846446 1.640962 1.869469 1.38429 0.797755 -0.790083 2.739745 1.110482 1.051984 -1.114181 2.453474 -0.002451 -1.249565 3.986771 0.736882 -1.32782 1.044597 0.12676 2.039398 0.327395 0.179204 -1.66492 -0.55174 -2.138355 -3.629091 -1.09422 -3.320013 0.282001 -1.758182 -2.017416
-0.124222 -0.075637 0.144327 0.075525 0.017828 0.041418 -0.190549 -0.028216 0.13211 0.037584 0.192554 0.126847 -0.066061 -0.039147 0.11224 0.063219 -0.01116 0.132231 -0.057645 0.076516 -0.136632 0.21004 -0.037426 0.175893 -0.124999 0.055672 -0.054988 -0.085403 0.027264 -0.128215 0.040066 -0.022509 0.04042 0.001232 0.043197 -0.020315 0.071008 0.05978 0.067429 0.090946 -0.063531 0.075375 -0.080345 -0.027498 0.070977 -0.198618 0.056249 0.198348 -0.20487 -0.01377 -0.015151 -0.035202 -0.041249 0.096808 0.129262 0.024266 -0.052759 -0.084294 -0.024862 0.002523 0.283853 -0.064645 0.032988 -0.037784 -0.095169 -0.041189 0.086425 0.013726 0.175213 -0.195326 -0.001538 -0.017631 0.043619 -0.156578 0.100427 0.01108 -0.117471 -0.009754 -0.035464 0.125129 -0.073973 0.196793 -0.043237 -0.067385 0.158795 -0.076593 0.138856 0.00785 0.143852 -0.044356 -0.044597 -0.095045 -0.068104 0.011035 -0.191861 -0.212275 0.068272 -0.057953 -0.036996 -0.020596
0.034733 -0.047239 0.146198 0.07865 -0.106409 -0.077535 -0.019588 -0.016829 -0.066054 0.223105 0.111722 0.224105 0.141952 -0.12976 0.046701 0.064269 -0.183748 0.21341 -0.061861 0.127766 0.038256 0.019132 0.17944 -0.002331 -0.097874 0.087884 -0.177085 -0.098658 0.183255 -0.263653 3.6E-5 -0.155376 -0.096569 0.226488 -0.004206 -0.065823 -0.005457 -0.107038 -0.005512 0.128521 -0.133505 0.10497 0.003064 -0.249338 0.022386 0.241815 -0.04324 -0.188904 -0.013142 0.067457 -0.075317 -0.091254 -0.026665 -0.062898 0.168704 -0.046895 0.049197 -0.00872 0.111297 -0.166359 0.151071 -0.209862 -0.087078 0.013302 -0.054052 -0.045986 0.174819 -0.150406 0.177557 -0.055979 -0.010461 0.056778 -0.018561 -0.047682 -0.027504 -0.03564 -0.156768 -0.105095 0.023277 -0.007893 -0.048374 0.100354 0.220367 -0.081184 -0.101513 0.201738 -0.075197 0.094998 0.149967 -0.051212 -0.118531 -0.119864 -0.062471 0.015945 -0.101983 -0.196547 1.96E-4 -0.198289 0.002339 -0.282652
0.046078 -0.16559 0.085199 0.192158 -0.056375 0.124526 -0.228539 0.022624 -0.133617 0.008889 -0.012444 0.047974 0.059323 0.093989 0.003469 0.235171 0.022379 0.094844 -0.035673 0.329614 -0.113719 0.013463 -0.047139 0.097402 -0.171511 0.030033 0.053172 0.068547 0.297521 -0.309687 -0.089883 0.096876 -0.159228 0.01496 -0.121544 -0.082513 -0.018 -0.159739 0.188235 0.078311 -0.177561 -0.037442 0.200169 0.127958 -0.109887 -0.090557 -0.10996 0.032875 0.041471 0.116197 0.003177 -0.113117 7.2E-5 -0.029877 0.172584 -0.060538 -0.020635 0.05906 0.357221 -0.089356 0.085225 -0.03962 0.028204 -0.09046 -0.079547 -0.050159 -0.059871 0.017685 -0.16751 -0.081328 0.112659 -0.23481 0.054212 1.75E-4 0.200413 -0.14775 -0.22432 -0.015627 -0.05553 -0.237301 -0.086933 0.001785 -0.033283 0.054194 0.080176 0.114696 0.109936 0.200503 0.266354 0.062204 -0.168169 0.13079 0.084851 0.221444 -0.006012 -0.308509 -0.231806 -0.055836 -0.065827 -0.006843
0.00976 -0.029011 -0.167583 -0.136389 -0.04235 -0.087478 -0.06282 0.168848 -0.088873 -0.106764 0.099547 -0.118225 -0.060725 0.114486 -0.053095 0.156853 -0.014471 0.165533 0.078055 0.075475 0.002296 -0.080016 -0.067211 0.039424 -0.220619 0.124831 0.128278 -0.044997 0.17069 -0.025035 0.052021 0.05291 0.040505 0.036947 0.107447 0.053323 -0.079015 0.080809 0.088934 0.034707 -0.062037 -0.07338 0.042201 -0.02814 -0.069484 0.023902 0.029255 -0.054546 0.079837 -2.4E-4 0.085762 -0.170256 0.043985 -0.052561 0.087938 0.061837 -0.028307 -0.072329 3.63E-4 -0.063338 0.003446 0.168835 -0.093545 -0.098297 -0.077857 -0.061867 -0.141289 0.003553 -0.019723 -0.114562 -0.106439 -0.058728 -0.028213 -0.038634 0.047563 0.016434 0.003482 -0.087054 -0.07354 0.035877 0.080327 -0.113443 0.118096 -0.109026 -0.153241 0.061016 0.174513 -0.027935 0.146412 0.091721 -0.133203 0.053448 -0.103674 0.080885 -0.011991 -0.151354 0.095787 0.152927 0.007498 0.178358
-2.648351 -0.794316 -2.108887 0.20446 0.883061 0.242784 1.848653 1.149137 -4.975573 0.237654 -1.499665 2.924494 0.344217 -1.640431 0.763777 0.138944 -3.029439 -2.813434 -0.761102 -1.057557 -1.373735 -0.870599 1.234095 0.127805 -1.372618 1.35802 -1.501738 0.80945 0.172993 -0.484995 1.783363 -0.047587 0.483285 -1.526831 2.103549 2.116639 4.583491 -4.022388 -0.843817 0.361243 -0.546655 -2.301259 -2.000973 2.64631 -1.604053 -1.914206 -1.581895 -0.464185 1.757769 1.056301 0.263866 -0.904419 -0.422466 0.007824 -1.651553 0.7499 1.638666 -0.336108 -3.288466 -2.953238 -1.135414 1.165223 -1.047256 -0.821696 -0.135806 0.434207 -2.389307 -3.56953 -0.656773 0.578325 3.337902 0.782195 -1.250815 2.925509 -1.981492 0.121786 0.836257 1.710923 -2.640405 -0.628995 0.247469 0.863847 1.749171 -0.214156 -0.274807 2.192709 -0.892334 -1.614644 -1.225919 -0.042182 2.51632 3.464583 -3.591523 -2.506587 0.990426 1.8843 -2.460629 0.953462 0.359605 2.267383
-0.110651 -0.173398 0.101909 0.067269 0.17956 0.108908 0.125747 0.00318 -0.070452 0.069928 -0.157624 0.08367 -0.054363 -0.02635 -0.052663 0.087998 0.065655 -0.11842 0.103341 0.063926 -0.050702 0.071707 0.325356 -0.201229 0.024214 -0.053235 0.028217 0.126726 -0.049247 6.3E-4 0.049279 -0.03711 0.064563 0.160079 -0.23697 -0.097316 0.044317 0.115374 -0.061548 -0.21192 -0.210261 -0.309193 0.117032 -0.022843 0.02802 0.128846 -0.243904 0.053219 0.038696 -0.116121 -0.26448 -0.071067 -0.046603 -0.162343 -0.016114 -0.03295 -0.114393 -0.105456 0.041408 -0.074951 -0.086702 -0.064309 0.100984 -0.313513 0.005323 0.039077 -0.017903 -0.043287 0.149058 -0.25114 -0.009081 0.095673 0.108376 0.061094 0.036786 0.196532 0.076844 0.248075 -0.07681 -0.113205 0.092681 0.126026 0.088743 -0.060631 -0.106194 0.031337 -0.085588 -0.061222 0.013251 0.118296 -0.076785 0.051161 -0.035687 0.101416 0.139062 -0.146569 0.001285 0.162515 -0.166458 0.052769
-0.018526 -0.132569 -0.039853 0.020789 -0.098594 0.010845 -0.084798 -0.050468 -0.021691 -0.091163 -0.008085 0.23895 -0.10934 -0.22538 0.017207 0.239284 0.154358 0.068183 0.138905 0.022623 0.038821 0.048104 0.140353 0.035455 -0.144 -0.042718 0.143499 0.09064 0.139819 -0.089234 0.038759 0.015217 -0.084139 0.064523 -0.096041 -0.19079 0.114427 -0.11514 0.031828 -0.039993 -0.08034 -0.17336 0.039336 0.037269 -0.13178 -0.153692 -0.012082 -0.019685 0.024811 0.170573 -0.012257 -0.26079 -0.167252 0.00149 0.093574 0.046726 0.043948 0.076035 -0.034339 -0.043413 0.090067 0.083938 0.082086 0.04149 0.033331 -0.161202 -0.113797 -0.120274 0.148388 0.067553 -0.081632 0.074049 -0.013941 -0.039966 0.123309 0.080754 -2.95E-4 -0.117833 -0.024665 -0.045212 -0.140133 -0.074383 -0.001376 -0.14039 -0.0425 0.002939 -0.107367 0.009288 0.041704 0.096572 -0.111375 0.109174 -0.11535 -0.100375 -0.173692 -0.059303 -0.060649 0.050252 -0.020041 0.114796
-0.156132 -0.087009 0.184057 -0.064291 0.025926 -0.140273 0.153118 0.011303 -0.120193 -0.051684 -0.148623 0.32417 0.008043 -0.0575 0.098355 0.172891 -0.213084 0.217379 -0.092906 -0.032151 -0.129642 -0.155223 0.29281 -0.02845 -0.281571 -0.053774 0.133214 -0.273369 -0.051298 0.091218 -0.066916 0.178554 -0.064064 -0.004631 0.051336 -0.106444 0.182168 0.006947 0.079249 -0.161683 -0.273434 -0.019243 0.119573 -0.054022 0.021513 -0.022141 -0.044654 -0.006673 0.021181 0.006375 -0.118817 0.051245 -0.095237 -0.058976 0.00512 -0.273265 0.036794 -0.106845 -0.010845 -0.008263 -0.067046 -0.210741 -0.286682 -0.167816 0.112543 -0.067089 0.027545 -0.019236 0.178136 -0.045337 -0.137948 0.227984 0.082 -0.194051 -0.116966 -0.061753 0.033496 -0.205845 0.062885 -0.122352 -4.59E-4 -0.090407 0.065653 -0.066077 -0.228103 -0.26281 0.136919 0.197287 0.10598 -0.055988 0.084248 -0.199512 0.042654 -0.216336 -0.05094 -0.048441 0.111954 -0.05957 -0.144613 0.068956
-0.064195 -0.117086 -0.039943 0.169783 -0.049972 -0.131549 0.028375 0.128883 -0.276888 0.043386 -0.031909 0.175556 -0.100628 -0.197332 0.049809 0.087903 0.078242 0.170539 -0.136416 0.104461 0.078807 0.07651 0.171874 0.1068 -0.131497 -0.105907 -0.072115 -0.029739 0.091957 -0.223834 0.106718 0.023237 -0.054262 -0.130882 0.033409 -0.029223 0.119043 -0.091811 -0.121317 0.029602 -0.106251 0.142973 0.020019 0.090746 0.06177 -0.247453 -0.128954 0.162439 -0.04877 0.1303 0.007417 -0.041617 0.007381 -0.059681 0.258224 0.038548 -0.00134 0.040674 -0.101333 -0.037116 0.139645 0.07904 0.067312 -0.243378 -0.012248 -0.024835 -0.073562 -0.077112 -0.135011 -0.026165 -0.013964 -0.027847 -0.173528 0.246164 -0.05887 -0.051838 -0.180275 0.119143 -0.033255 -0.064342 -0.092832 0.070973 0.105014 -0.073728 0.004946 0.186448 0.0736 -0.009804 0.035064 0.123994 -0.006252 0.014451 -0.032777 -0.006731 -0.06405 0.029499 0.090927 -0.08189 0.024738 -0.051373
1.519526 1.445578 -1.609499 2.582747 2.460795 3.529971 0.431498 -0.524736 0.238502 0.565084 -2.150664 2.607871 -3.578636 0.22885 1.205379 0.400126 -2.365878 -2.228676 -0.500047 -1.958516 -2.734259 -2.028213 -0.339577 -2.726884 0.003785 -1.85554 -0.90189 1.042933 0.930181 0.561229 0.956561 0.220468 -1.219533 -0.188243 -0.649085 -0.117874 2.101841 -0.317004 1.300647 -1.49228 0.533457 -2.976113 -0.635474 -1.431524 -0.943268 0.543614 -2.072507 -1.004219 4.072807 -1.496014 2.612373 2.458477 -0.120651 0.418572 -2.53177 0.646754 2.04053 2.0667 -2.403623 -3.037353 -1.289071 1.269349 0.447478 0.512568 0.464348 -0.142416 -1.155552 0.32258 -0.986119 3.909852 3.839548 0.865499 -1.089316 -1.400134 0.517204 -3.398406 -0.576028 -0.612853 -0.573641 -1.979957 1.278503 1.159562 0.583915 -0.210028 0.851463 1.075476 2.276915 0.114312 2.2836 1.968815 1.899569 0.001135 -2.286771 -2.666814 -1.408445 1.975128 -0.085175 1.44887 -1.994305 2.796178
-0.079705 -0.00982 0.048693 -0.031077 0.102375 0.014261 -0.166017 -0.050237 -0.142458 0.216548 0.052275 0.183186 0.074702 0.07403 0.187212 -0.002286 0.148544 0.284238 0.204104 0.131839 0.102347 0.10251 0.132246 0.006668 0.039868 -0.191978 0.007489 -0.22714 -0.076693 0.053087 -0.225312 0.092043 -0.072434 0.025744 -0.060089 0.053958 -0.064263 0.116749 -0.00591 -0.001093 0.049946 0.192275 0.124727 0.120368 0.055669 0.050612 0.100146 0.054321 -0.093042 0.098358 -0.004394 -0.025176 0.003648 0.056023 0.273264 -0.069858 0.168579 0.040079 0.092591 -0.01619 -0.036516 -0.049934 0.041822 -0.136447 -0.118666 -0.069571 0.078213 0.095838 -0.068948 0.048359 -0.080978 -0.225815 -0.053206 0.034585 0.152497 -0.218659 -0.026619 0.044708 0.071186 -0.108052 -0.136472 0.057954 -0.001526 -0.134722 -0.017998 -7.9E-4 0.044567 -0.069105 -0.085579 -0.029555 -0.181781 -0.104784 0.00824 0.009907 -0.066423 -0.12315 0.21492 -0.069621 -0.041674 -0.088963
-0.124222 -0.075637 0.144327 0.075525 0.017828 0.041418 -0.190549 -0.028216 0.13211 0.037584 0.192554 0.126847 -0.066061 -0.039147 0.11224 0.063219 -0.01116 0.132231 -0.057645 0.076516 -0.136632 0.21004 -0.037426 0.175893 -0.124999 0.055672 -0.054988 -0.085403 0.027264 -0.128215 0.040066 -0.022509 0.04042 0.001232 0.043197 -0.020315 0.071008 0.05978 0.067429 0.090946 -0.063531 0.075375 -0.080345 -0.027498 0.070977 -0.198618 0.056249 0.198348 -0.20487 -0.01377 -0.015151 -0.035202 -0.041249 0.096808 0.129262 0.024266 -0.052759 -0.084294 -0.024862 0.002523 0.283853 -0.064645 0.032988 -0.037784 -0.095169 -0.041189 0.086425 0.013726 0.175213 -0.195326 -0.001538 -0.017631 0.043619 -0.156578 0.100427 0.01108 -0.117471 -0.009754 -0.035464 0.125129 -0.073973 0.196793 -0.043237 -0.067385 0.158795 -0.076593 0.138856 0.00785 0.143852 -0.044356 -0.044597 -0.095045 -0.068104 0.011035 -0.191861 -0.212275 0.068272 -0.057953 -0.036996 -0.020596
0.034733 -0.047239 0.146198 0.07865 -0.106409 -0.077535 -0.019588 -0.016829 -0.066054 0.223105 0.111722 0.224105 0.141952 -0.12976 0.046701 0.064269 -0.183748 0.21341 -0.061861 0.127766 0.038256 0.019132 0.17944 -0.002331 -0.097874 0.087884 -0.177085 -0.098658 0.183255 -0.263653 3.6E-5 -0.155376 -0.096569 0.226488 -0.004206 -0.065823 -0.005457 -0.107038 -0.005512 0.128521 -0.133505 0.10497 0.003064 -0.249338 0.022386 0.241815 -0.04324 -0.188904 -0.013142 0.067457 -0.075317 -0.091254 -0.026665 -0.062898 0.168704 -0.046895 0.049197 -0.00872 0.111297 -0.166359 0.151071 -0.209862 -0.087078 0.013302 -0.054052 -0.045986 0.174819 -0.150406 0.177557 -0.055979 -0.010461 0.056778 -0.018561 -0.047682 -0.027504 -0.03564 -0.156768 -0.105095 0.023277 -0.007893 -0.048374 0.100354 0.220367 -0.081184 -0.101513 0.201738 -0.075197 0.094998 0.149967 -0.051212 -0.118531 -0.119864 -0.062471 0.015945 -0.101983 -0.196547 1.96E-4 -0.198289 0.002339 -0.282652
-0.08527 -0.011954 -0.008522 -0.070471 -0.027368 -0.034217 -0.154683 0.170025 -0.211351 0.005175 0.035054 0.061369 -0.05016 0.042209 -0.103162 0.026348 -0.113398 0.250342 0.37709 -0.140929 0.03508 0.14316 0.155727 0.199993 -0.055704 0.038226 -0.057878 -0.17484 -0.071578 -0.310512 -0.031749 -0.282726 -0.202981 0.040096 0.005533 -0.088928 -0.075045 0.079848 -0.186911 0.116578 0.097923 0.069315 0.293092 0.16102 -0.093612 -0.038429 0.253428 0.110811 -0.095616 0.076348 -0.077247 -0.117277 -0.007219 -0.015298 0.02128 -0.16697 0.077035 -0.250845 0.226215 -0.091739 0.065957 0.055509 0.058185 0.002781 -0.163207 0.072809 -0.02191 0.153176 0.112132 -0.189062 0.007301 0.122526 0.076668 0.120301 0.118231 -0.078156 -0.030493 0.179634 0.032708 0.039865 -0.070133 0.396054 0.247863 -0.05226 -0.019937 -0.18977 0.174569 0.286988 -0.121259 0.104363 -0.223968 0.007609 -0.014909 -0.062617 -0.202583 0.046452 0.124781 0.043147 -6.14E-4 -0.1257
-0.110219 -0.054863 0.131964 0.095026 -0.02765 0.072971 -0.02047 -0.019829 -0.04289 0.133869 -0.013438 0.105802 -0.039679 0.088848 0.042299 0.074354 0.027724 0.189357 0.003583 0.027196 -0.070605 0.075001 0.077431 0.107128 -0.199626 -0.049695 -0.037097 9.83E-4 0.068723 -0.225718 -0.072842 -0.04289 0.015463 0.141246 -0.040208 0.007258 0.006091 -0.078412 -0.050227 0.03702 -0.021744 0.174918 0.025914 -0.13634 0.102746 0.036424 -0.043767 -0.107007 0.004202 0.069259 0.025591 -0.047569 -0.079402 -0.002302 0.173758 0.057677 -0.033813 -0.010973 0.037321 -0.060336 -0.05955 -0.13553 -0.053729 -0.004612 -0.043018 0.002101 0.107912 0.078548 0.029926 -0.09096 0.014971 0.002338 0.044006 -0.099597 -0.120789 0.014117 -0.1451 -0.073583 -0.026365 0.014169 -0.042023 0.119466 0.13098 -0.133023 0.039161 0.087776 -0.040214 0.034792 0.153907 -1.88E-4 -0.0235 0.003284 0.052354 -0.027541 0.056595 -0.111237 -4.53E-4 0.080179 0.005241 0.042347
-0.087475 0.186701 -0.046917 -0.041847 -0.059088 -0.013273 -0.073892 0.233091 -0.003596 -0.039339 0.066277 0.094805 0.150238 -0.09346 -0.021952 -0.202147 0.117833 8.46E-4 -0.091551 -0.028534 -0.237071 0.054316 -0.011612 -0.160773 0.222265 0.005336 0.12038 0.033854 -0.004107 0.003107 0.168426 0.016482 -0.08677 -0.113422 0.086407 0.106075 -0.149861 0.126073 -0.0634 0.062826 -0.083977 -0.145637 0.061467 -0.051229 0.204229 -0.17109 0.026782 -0.001161 -0.009186 0.041333 0.019968 0.012454 -0.139774 0.27773 0.102443 0.019878 -0.056911 0.009365 0.008677 0.008326 -0.019961 -0.155983 0.037278 0.082971 0.091306 -0.05795 -0.070034 -0.19837 -0.104056 0.119097 0.096727 0.077648 -0.004616 -0.085341 -0.201546 0.033147 -0.083137 -0.088842 -0.009531 0.066588 -0.075343 -0.080456 -0.068234 -0.087612 -0.042374 -0.007313 -0.137535 0.008539 0.080121 0.119683 -0.07983 0.023474 -0.158168 0.093865 -0.115452 -0.038433 0.056332 0.205291 -0.056107 -0.130454
-0.06583 -0.22552 0.01727 0.011724 0.058642 0.048091 0.085541 -0.076712 -0.1348 0.054475 0.146513 0.053409 -0.024379 0.256087 -0.013025 0.004575 -0.264844 0.052009 0.059988 -0.013629 0.216591 0.103449 0.297255 0.124458 0.146011 0.028068 0.012468 0.086669 -0.203467 -0.42 0.243491 -0.134547 -0.129524 2.15E-4 -0.046122 -0.012116 0.032605 -0.00453 -0.050289 -0.076488 0.071211 -0.345013 0.226192 -0.072875 -0.074486 -0.08038 -0.046684 -0.178828 -0.050649 0.014131 -0.068447 0.030138 -0.203824 -0.099399 -0.078293 0.018454 -0.017997 -0.217149 0.192538 -0.035284 0.027904 0.013869 -0.164478 -0.086286 -0.115851 -0.025857 -0.113248 -0.252455 -0.103066 -0.014769 0.096346 -0.034821 0.016478 0.205536 0.167105 -0.040707 -0.021126 0.214731 -0.01373 0.169297 0.054049 0.095003 0.139171 -0.132953 0.15614 -0.242937 0.06109 0.004167 0.184597 0.151248 0.055445 0.014003 -0.252558 -0.331437 0.119729 -0.052785 0.110388 0.228981 -0.068822 0.052204
-0.005612 -0.096986 0.019153 0.002166 0.037412 0.037842 0.039307 -0.047066 0.004366 0.008355 -0.064595 0.066464 -0.075895 0.045547 0.209032 0.231979 -0.057423 0.093535 -0.045609 0.0569 -0.04288 -0.025495 -0.074861 -0.059906 -0.049173 -0.050735 -0.092418 0.006275 0.185429 -0.101456 -0.125542 -0.153191 0.064086 -0.023796 0.03986 0.075427 0.052455 -0.101363 -0.131163 -0.066062 0.116568 0.064655 -0.067694 0.021047 -0.038874 -0.010017 0.002615 0.130261 -0.106011 0.095085 0.038134 -0.185608 -0.02533 -0.117872 0.178104 0.163115 -0.119569 0.007608 0.038391 -0.023338 -0.008468 -0.142654 -0.015133 -0.02348 0.090826 -0.119562 0.048002 0.076576 0.06779 -0.186672 -0.203585 0.145807 -0.048195 0.103293 0.019762 -0.118417 0.181526 -0.025695 0.057311 -0.151571 -0.024071 -0.115664 0.046426 -8.08E-4 -0.071823 0.074993 -0.032345 -0.034987 0.158047 0.12944 0.060021 0.037734 0.003534 0.160466 -0.112815 0.041895 -0.109015 0.037668 0.001371 -0.117252
0.041182 -0.071701 -0.007566 -0.111173 0.078129 -0.015794 0.102992 0.084804 -0.294614 0.062785 -0.224475 0.044822 -0.054604 0.018822 -0.254624 0.187632 0.057536 -0.04948 0.077868 0.052887 -0.065284 -0.04327 -0.015092 0.035227 -0.120777 -0.01384 0.019468 0.133926 -0.002242 0.025286 0.056421 -0.140413 -0.062551 0.118069 0.067541 0.127629 -0.190311 0.209374 0.192921 0.054712 -0.148947 0.032204 -0.170128 -0.03032 -0.002925 0.169345 0.085453 -0.024603 -0.011659 -0.145112 -0.290293 -0.065943 -0.09053 -0.275955 0.113964 -0.118032 -0.172779 -0.215132 0.00824 0.127013 -0.169866 0.062208 0.042766 -0.087616 -0.10884 0.286924 0.050741 0.130539 0.292731 0.017204 -0.096873 -0.187146 0.25168 0.10377 0.08209 -0.05794 0.019952 -0.023549 -0.204179 -0.090327 0.135311 0.171028 -0.109687 0.012397 -0.001672 0.281126 0.051025 0.031007 0.309401 0.149164 -0.249441 -0.005679 -0.012549 0.20681 0.267068 -0.060891 -0.256129 0.182048 0.03837 0.01928
0.104671 0.17484 0.041356 0.115069 -0.127099 -0.166531 -0.006417 -0.095255 -0.196482 0.04505 0.452547 0.078481 0.116997 -0.014906 0.023928 0.134881 -0.001945 0.023802 0.072309 -0.090033 -0.020951 0.004501 0.119041 -0.005484 0.1633 -0.353225 -0.036991 -0.019432 -0.080684 0.166376 -0.011298 -0.31071 0.079628 0.080635 -0.258755 -0.0317 0.053796 -0.128452 0.115793 0.018216 0.122281 0.236327 0.160658 -0.059036 0.044542 -0.076993 0.156776 -0.002263 -0.061596 0.017262 0.126065 -0.130702 0.058292 0.067016 -0.218319 -0.076478 0.075923 0.054071 -0.130859 -0.14749 0.031832 -0.204209 -0.025786 0.101007 -0.191068 0.070923 0.121514 0.092876 -0.014123 -0.193556 0.147348 0.123205 -0.129965 0.062784 -0.039243 -0.051359 0.046893 -0.075873 -0.183976 0.021061 -0.10275 -0.025188 -0.21314 -0.092395 0.130696 0.03802 0.212836 -0.138924 -1.52E-4 0.223038 0.026852 0.02503 -0.034571 0.280264 0.199545 -0.026406 0.017909 0.056321 -0.057039 -0.12374
0.0 0.0 0.0 0.0 0.0 0.0 0.0 0.0 0.0 0.0 0.0 0.0 0.0 0.0 0.0 0.0 0.0 0.0 0.0 0.0 0.0 0.0 0.0 0.0 0.0 0.0 0.0 0.0 0.0 0.0 0.0 0.0 0.0 0.0 0.0 0.0 0.0 0.0 0.0 0.0 0.0 0.0 0.0 0.0 0.0 0.0 0.0 0.0 0.0 0.0 0.0 0.0 0.0 0.0 0.0 0.0 0.0 0.0 0.0 0.0 0.0 0.0 0.0 0.0 0.0 0.0 0.0 0.0 0.0 0.0 0.0 0.0 0.0 0.0 0.0 0.0 0.0 0.0 0.0 0.0 0.0 0.0 0.0 0.0 0.0 0.0 0.0 0.0 0.0 0.0 0.0 0.0 0.0 0.0 0.0 0.0 0.0 0.0 0.0 0.0
-0.03465 0.057645 -0.014494 0.047907 -0.056534 0.020841 -0.088075 -0.075684 0.11978 0.162074 0.048734 0.050684 0.121228 0.059882 0.005145 -0.033401 0.136772 0.192176 0.101531 0.100533 -0.022028 -0.044585 -0.030063 0.071547 0.090323 0.116802 0.056497 -0.036478 0.080892 -0.045804 0.074654 -0.089752 0.001933 0.047382 -0.045524 -0.012518 -0.076183 0.070093 -0.035094 0.287442 0.001229 0.313728 -0.042271 0.08963 0.053511 -0.014413 0.115778 -0.077324 0.094934 -0.136918 0.05552 -0.06543 -0.029358 -0.044215 -0.001041 -0.025251 0.02801 0.013687 -0.154969 -0.08779 -0.107689 0.05513 -0.024721 0.139219 0.066781 -0.04134 0.107118 0.077285 0.009856 0.101353 -0.123748 -0.16232 -0.017751 -0.038294 0.046339 0.004852 0.003389 -0.163816 -0.069648 -0.021435 0.086789 0.076375 0.081804 0.036839 0.145777 -0.022423 -0.013371 -0.004977 -0.020763 0.009155 -0.135038 -0.156216 0.027726 -0.0513 -0.19831 -0.026902 0.148375 -0.086923 -0.031353 -0.114069
-0.099779 -0.088851 -0.036921 0.088425 -0.040922 0.072369 -0.154586 0.011688 -0.007618 0.076278 0.089523 0.224786 0.062236 -0.233317 0.06423 0.133326 -0.132016 0.100983 -0.096608 0.02889 -0.116602 0.025416 0.115793 0.091144 -0.181606 0.01795 -0.140598 -0.079933 0.06915 -0.108515 0.060402 0.033142 -0.039611 0.073342 -0.337017 -0.119071 0.154116 0.004965 0.122293 -0.024123 -0.094374 0.202871 0.064663 -0.093456 -0.016288 -0.107149 -0.02292 -0.015554 -0.210102 0.17543 0.117124 -0.187922 0.003764 0.002373 0.07756 -0.167652 0.007686 -0.033869 0.020928 -0.055266 0.082302 -0.15228 0.001255 -0.170724 0.066994 0.10561 0.053247 0.006181 0.130398 -0.056247 0.049538 0.055487 0.010175 0.04748 0.065952 -0.050069 -0.103701 -0.065108 -0.023664 -0.057811 -0.024543 0.009046 0.093955 -0.110368 -0.096206 -0.04799 0.09091 0.135345 0.033909 0.149976 -0.22925 0.022657 -0.119194 0.012082 -0.17202 0.012624 0.055093 0.005004 -0.105271 -0.143153
0.0 0.0 0.0 0.0 0.0 0.0 0.0 0.0 0.0 0.0 0.0 0.0 0.0 0.0 0.0 0.0 0.0 0.0 0.0 0.0 0.0 0.0 0.0 0.0 0.0 0.0 0.0 0.0 0.0 0.0 0.0 0.0 0.0 0.0 0.0 0.0 0.0 0.0 0.0 0.0 0.0 0.0 0.0 0.0 0.0 0.0 0.0 0.0 0.0 0.0 0.0 0.0 0.0 0.0 0.0 0.0 0.0 0.0 0.0 0.0 0.0 0.0 0.0 0.0 0.0 0.0 0.0 0.0 0.0 0.0 0.0 0.0 0.0 0.0 0.0 0.0 0.0 0.0 0.0 0.0 0.0 0.0 0.0 0.0 0.0 0.0 0.0 0.0 0.0 0.0 0.0 0.0 0.0 0.0 0.0 0.0 0.0 0.0 0.0 0.0
0.104671 0.17484 0.041356 0.115069 -0.127099 -0.166531 -0.006417 -0.095255 -0.196482 0.04505 0.452547 0.078481 0.116997 -0.014906 0.023928 0.134881 -0.001945 0.023802 0.072309 -0.090033 -0.020951 0.004501 0.119041 -0.005484 0.1633 -0.353225 -0.036991 -0.019432 -0.080684 0.166376 -0.011298 -0.31071 0.079628 0.080635 -0.258755 -0.0317 0.053796 -0.128452 0.115793 0.018216 0.122281 0.236327 0.160658 -0.059036 0.044542 -0.076993 0.156776 -0.002263 -0.061596 0.017262 0.126065 -0.130702 0.058292 0.067016 -0.218319 -0.076478 0.075923 0.054071 -0.130859 -0.14749 0.031832 -0.204209 -0.025786 0.101007 -0.191068 0.070923 0.121514 0.092876 -0.014123 -0.193556 0.147348 0.123205 -0.129965 0.062784 -0.039243 -0.051359 0.046893 -0.075873 -0.183976 0.021061 -0.10275 -0.025188 -0.21314 -0.092395 0.130696 0.03802 0.212836 -0.138924 -1.52E-4 0.223038 0.026852 0.02503 -0.034571 0.280264 0.199545 -0.026406 0.017909 0.056321 -0.057039 -0.12374
0.0 0.0 0.0 0.0 0.0 0.0 0.0 0.0 0.0 0.0 0.0 0.0 0.0 0.0 0.0 0.0 0.0 0.0 0.0 0.0 0.0 0.0 0.0 0.0 0.0 0.0 0.0 0.0 0.0 0.0 0.0 0.0 0.0 0.0 0.0 0.0 0.0 0.0 0.0 0.0 0.0 0.0 0.0 0.0 0.0 0.0 0.0 0.0 0.0 0.0 0.0 0.0 0.0 0.0 0.0 0.0 0.0 0.0 0.0 0.0 0.0 0.0 0.0 0.0 0.0 0.0 0.0 0.0 0.0 0.0 0.0 0.0 0.0 0.0 0.0 0.0 0.0 0.0 0.0 0.0 0.0 0.0 0.0 0.0 0.0 0.0 0.0 0.0 0.0 0.0 0.0 0.0 0.0 0.0 0.0 0.0 0.0 0.0 0.0 0.0
0.104671 0.17484 0.041356 0.115069 -0.127099 -0.166531 -0.006417 -0.095255 -0.196482 0.04505 0.452547 0.078481 0.116997 -0.014906 0.023928 0.134881 -0.001945 0.023802 0.072309 -0.090033 -0.020951 0.004501 0.119041 -0.005484 0.1633 -0.353225 -0.036991 -0.019432 -0.080684 0.166376 -0.011298 -0.31071 0.079628 0.080635 -0.258755 -0.0317 0.053796 -0.128452 0.115793 0.018216 0.122281 0.236327 0.160658 -0.059036 0.044542 -0.076993 0.156776 -0.002263 -0.061596 0.017262 0.126065 -0.130702 0.058292 0.067016 -0.218319 -0.076478 0.075923 0.054071 -0.130859 -0.14749 0.031832 -0.204209 -0.025786 0.101007 -0.191068 0.070923 0.121514 0.092876 -0.014123 -0.193556 0.147348 0.123205 -0.129965 0.062784 -0.039243 -0.051359 0.046893 -0.075873 -0.183976 0.021061 -0.10275 -0.025188 -0.21314 -0.092395 0.130696 0.03802 0.212836 -0.138924 -1.52E-4 0.223038 0.026852 0.02503 -0.034571 0.280264 0.199545 -0.026406 0.017909 0.056321 -0.057039 -0.12374
-0.065662 -0.159158 0.138973 0.12429 0.11811 -0.036319 -0.122557 -0.072115 0.03285 0.057169 0.049204 0.158023 -0.069364 -0.109279 0.150675 0.146788 -0.025496 0.24592 0.053721 0.201051 -0.159635 0.176816 0.178518 0.16666 -0.182766 -0.078315 -0.088261 0.15949 0.100623 -0.264982 -0.054933 0.078379 -0.089004 0.106997 -0.152486 -0.115227 -0.085861 -0.050081 0.047047 0.019643 -0.084132 0.054999 -0.036799 0.022406 -0.075717 -0.063405 0.035303 0.026855 -0.022837 0.221482 0.159424 -0.225889 -0.017763 -0.109235 0.122015 -0.037506 -0.132153 0.043429 0.007781 -0.152294 0.01362 -0.109737 -0.120256 -0.264688 -0.124466 -0.1104 -0.001599 0.066743 0.161814 -0.053968 -0.201017 -0.098717 -0.080201 -0.03199 -0.047792 -0.122905 -0.131691 -0.149114 -0.025585 -0.156704 -0.07061 0.151074 0.084024 -0.210805 0.001431 0.136279 0.00592 -0.127417 0.154826 0.114673 -0.095744 0.09559 0.032062 0.086163 -0.054598 -0.25453 0.042209 -0.011737 -0.079044 -0.05455
0.036737 -0.032921 0.024463 0.001525 -0.14953 -0.081921 0.05195 0.033054 0.042371 0.187633 -0.169856 -0.043431 -0.173636 0.224604 -0.099043 -0.052621 -0.094147 -0.087315 -0.205223 0.126826 -0.051988 0.057934 0.007092 0.028646 0.030134 0.006318 0.118765 0.00841 -0.042876 -0.067148 -0.15148 -0.042306 0.047684 0.10077 -0.040846 -0.155266 0.173754 7.38E-4 -0.149543 -0.155015 0.042332 1.9E-5 0.164393 -0.109523 -0.01025 0.019395 0.060378 0.084138 0.12078 -0.042878 0.08194 -0.06976 0.047308 0.056745 0.006819 -0.026824 -0.156007 0.042841 -0.214906 -0.100455 0.001679 0.056153 0.00309 0.056995 -0.027269 0.054063 -0.021361 -0.118937 -0.039109 0.253888 -0.099679 0.068347 0.024916 0.004649 0.026359 0.067277 0.089904 -0.116294 -0.057639 -0.070171 0.238942 -0.101354 -0.104886 -0.195107 -0.268537 -0.124495 -0.010152 -7.27E-4 0.045996 0.182311 -0.129108 -0.070264 -0.013 0.100287 -0.131971 0.14376 -0.073632 0.262197 -0.055353 0.017675
