0.652152 1.133402 0.742892 -1.851552 -2.436201 -3.352688 -0.059947 1.069592 0.347807 0.850303 0.748933 0.725945 0.431967 2.988736 0.746868 -1.874699 0.35127 0.667277 -0.759044 -2.380101 0.60818 -0.30599 -0.599525 -0.831824 -0.834357 0.702901 -1.29464 -2.27774 -0.326079 0.351108 -1.003812 -0.665168 0.29774 -2.064026 0.492767 0.008162 -2.262853 0.956528 0.412814 0.602081 -0.90495 -0.970223 0.250976 1.266006 2.300311 -2.534665 0.015732 1.87714 -2.173779 2.064622 -1.860812 -1.990734 0.411622 -0.614461 0.90266 0.498711 -0.96518 -1.132372 0.989398 -0.985841 0.84911 1.299962 2.255228 0.435234 -1.726969 -0.734581 1.826257 1.000809 2.131398 -1.703253 0.728468 -1.697183 1.932365 1.78816 0.398515 0.161957 -0.368934 3.386885 2.111351 -0.597592 0.819766 1.56338 0.008261 1.69361 0.144904 -1.564986 1.689612 -1.151342 -1.74929 -0.207911 -0.015816 0.743225 -0.31835 2.245111 -0.947142 -0.445275 1.161168 -0.667204 -0.080608 -1.264524
0.123295 0.239989 0.143773 0.39045 -0.054962 0.106095 -0.121834 -0.073757 -0.115494 0.185919 -0.034975 0.110963 0.002643 -0.12193 -0.093991 -1.94E-4 -0.090788 -0.032285 -0.265039 -0.002162 -0.166049 0.091071 -0.134436 0.055191 0.033293 0.090585 0.023791 -0.084147 0.199396 0.069477 0.016937 0.053086 -0.020605 -0.102134 -0.02124 -0.044019 0.020847 -0.003965 -0.073889 -0.001019 0.007896 -0.069899 0.2217 0.184927 0.064037 -0.037742 -0.012992 -0.091069 0.158823 0.152293 0.027222 -0.05651 0.085497 0.005892 -0.117082 -0.148396 -0.031177 0.090728 -0.058678 0.020711 -0.103901 -0.0081 0.00537 -0.134567 -0.013325 0.031383 0.13482 0.201102 0.096211 0.085852 0.07425 -0.003868 -0.039827 0.196034 -0.020546 -0.02422 0.101628 -0.003547 0.137906 -0.058137 0.161256 -0.2073 -0.203658 0.02098 -0.025635 -0.100514 0.204025 0.092952 0.047573 0.086653 0.081252 0.018465 -0.128931 0.113034 0.001175 -0.00937 0.069904 0.124005 0.143413 -0.023677
-0.4988 -0.500544 -0.627979 0.62632 -0.025377 0.787252 0.204313 0.635644 0.095777 -0.300566 -1.104409 0.133466 -0.215419 0.377885 -0.244136 0.092694 0.111898 -0.001071 -0.13592 0.029024 -0.387152 0.201148 -0.062202 0.26156 -0.380063 0.399448 -0.175169 -0.241109 -0.127682 -0.7002 0.071312 -0.136754 -0.177517 -0.246443 -0.121027 -0.681795 0.733832 -0.266031 -0.424615 -0.615985 0.709433 -0.003219 0.309336 0.032007 -0.225322 0.125941 -0.165803 0.034047 0.32551 -0.022514 -0.08344 0.159664 0.426939 0.415506 0.213921 -0.539826 -0.033948 0.221179 -0.067665 -0.527448 0.230474 -0.264953 -0.227174 0.060531 -0.35877 -0.094955 0.23428 -0.168957 0.194467 -0.231205 0.107903 0.02177 1.040779 -0.401779 0.344191 -0.518315 0.644715 0.208879 -0.62795 0.585343 0.480295 0.338472 0.326246 0.868584 0.231674 -0.370046 -0.303416 0.468264 -0.184693 0.151093 -0.752458 -0.606844 0.3795 -0.148501 -0.241945 -0.004687 0.414666 -0.447652 -0.390789 0.480631
0.077315 0.094458 -0.007108 -0.173733 -0.124016 0.10268 -0.147921 -0.038812 -0.110229 0.125727 0.078715 0.103655 -0.14702 0.038875 0.173455 0.029172 0.085332 0.02049 0.028974 0.209103 -0.048985 0.096129 0.022119 0.051125 -0.02515 0.079908 0.031651 0.190444 0.035202 -0.042677 -0.105544 -0.140258 -0.017468 -0.128506 -0.137886 -0.069351 -0.162297 -0.091859 -0.189312 0.107815 0.219664 0.041735 -0.07544 -0.084491 -0.059106 -0.063775 -0.109205 0.196058 0.051562 -0.084445 -0.072622 -0.069628 -0.035997 -0.118006 0.208404 -0.229657 -0.07943 -0.150258 0.011007 0.191667 0.083006 -0.084947 0.014942 0.17921 -0.015157 0.068533 0.004176 0.048989 0.028669 0.143713 0.076645 0.028479 -0.023023 0.029246 -0.099158 0.02435 -0.105521 0.100665 0.051662 -0.025748 0.125299 -0.043305 0.202724 -0.034303 0.013237 -0.157912 0.118345 0.092195 -0.004208 0.186132 -0.235138 0.02556 0.023231 0.199088 -0.027192 0.068552 0.0464 0.132222 -0.011505 0.162654
0.652152 1.133402 0.742892 -1.851552 -2.436201 -3.352688 -0.059947 1.069592 0.347807 0.850303 0.748933 0.725945 0.431967 2.988736 0.746868 -1.874699 0.35127 0.667277 -0.759044 -2.380101 0.60818 -0.30599 -0.599525 -0.831824 -0.834357 0.702901 -1.29464 -2.27774 -0.326079 0.351108 -1.003812 -0.665168 0.29774 -2.064026 0.492767 0.008162 -2.262853 0.956528 0.412814 0.602081 -0.90495 -0.970223 0.250976 1.266006 2.300311 -2.534665 0.015732 1.87714 -2.173779 2.064622 -1.860812 -1.990734 0.411622 -0.614461 0.90266 0.498711 -0.96518 -1.132372 0.989398 -0.985841 0.84911 1.299962 2.255228 0.435234 -1.726969 -0.734581 1.826257 1.000809 2.131398 -1.703253 0.728468 -1.697183 1.932365 1.78816 0.398515 0.161957 -0.368934 3.386885 2.111351 -0.597592 0.819766 1.56338 0.008261 1.69361 0.144904 -1.564986 1.689612 -1.151342 -1.74929 -0.207911 -0.015816 0.743225 -0.31835 2.245111 -0.947142 -0.445275 1.161168 -0.667204 -0.080608 -1.264524
0.123295 0.239989 0.143773 0.39045 -0.054962 0.106095 -0.121834 -0.073757 -0.115494 0.185919 -0.034975 0.110963 0.002643 -0.12193 -0.093991 -1.94E-4 -0.090788 -0.032285 -0.265039 -0.002162 -0.166049 0.091071 -0.134436 0.055191 0.033293 0.090585 0.023791 -0.084147 0.199396 0.069477 0.016937 0.053086 -0.020605 -0.102134 -0.02124 -0.044019 0.020847 -0.003965 -0.073889 -0.001019 0.007896 -0.069899 0.2217 0.184927 0.064037 -0.037742 -0.012992 -0.091069 0.158823 0.152293 0.027222 -0.05651 0.085497 0.005892 -0.117082 -0.148396 -0.031177 0.090728 -0.058678 0.020711 -0.103901 -0.0081 0.00537 -0.134567 -0.013325 0.031383 0.13482 0.201102 0.096211 0.085852 0.07425 -0.003868 -0.039827 0.196034 -0.020546 -0.02422 0.101628 -0.003547 0.137906 -0.058137 0.161256 -0.2073 -0.203658 0.02098 -0.025635 -0.100514 0.204025 0.092952 0.047573 0.086653 0.081252 0.018465 -0.128931 0.113034 0.001175 -0.00937 0.069904 0.124005 0.143413 -0.023677
-0.4988 -0.500544 -0.627979 0.62632 -0.025377 0.787252 0.204313 0.635644 0.095777 -0.300566 -1.104409 0.133466 -0.215419 0.377885 -0.244136 0.092694 0.111898 -0.001071 -0.13592 0.029024 -0.387152 0.201148 -0.062202 0.26156 -0.380063 0.399448 -0.175169 -0.241109 -0.127682 -0.7002 0.071312 -0.136754 -0.177517 -0.246443 -0.121027 -0.681795 0.733832 -0.266031 -0.424615 -0.615985 0.709433 -0.003219 0.309336 0.032007 -0.225322 0.125941 -0.165803 0.034047 0.32551 -0.022514 -0.08344 0.159664 0.426939 0.415506 0.213921 -0.539826 -0.033948 0.221179 -0.067665 -0.527448 0.230474 -0.264953 -0.227174 0.060531 -0.35877 -0.094955 0.23428 -0.168957 0.194467 -0.231205 0.107903 0.02177 1.040779 -0.401779 0.344191 -0.518315 0.644715 0.208879 -0.62795 0.585343 0.480295 0.338472 0.326246 0.868584 0.231674 -0.370046 -0.303416 0.468264 -0.184693 0.151093 -0.752458 -0.606844 0.3795 -0.148501 -0.241945 -0.004687 0.414666 -0.447652 -0.390789 0.480631
0.352905 0.550922 -1.128945 -0.511125 0.774489 1.405335 -0.371647 0.106012 -0.779785 -0.640302 -0.68578 1.570717 -0.712288 -0.706705 -0.789609 -0.045278 -1.599722 -2.840112 -0.089543 -1.158838 -1.862605 -0.62748 -0.063542 -0.468696 0.750564 0.033551 -0.772222 -0.188991 -0.163115 0.455978 0.038455 -0.779588 0.172303 -1.114448 -0.548246 -0.008155 1.66721 -0.744821 -0.15746 -2.668482 -0.304702 -0.905716 0.479063 0.151803 -0.94063 -0.044338 -0.906122 -0.456182 0.281891 0.268287 0.47007 0.628019 0.328428 1.471286 -2.345457 0.072073 -0.345477 -0.998199 -1.496897 -0.053061 0.351206 -0.934426 0.295591 0.07336 0.24092 0.486976 0.390085 -0.621556 0.375246 -0.02625 1.957847 1.014101 0.004675 0.08874 -0.900479 -0.462149 0.922254 1.355385 -1.048724 0.105897 1.254466 0.410718 0.321258 1.066395 -0.171761 -0.128774 0.315556 0.697301 -0.180925 0.555334 1.005586 -0.891677 -1.232923 -1.994189 -0.567812 0.204184 -0.947385 -0.051526 -0.987029 0.725141
0.156694 -0.02766 0.100343 -0.070748 -0.09336 -0.090625 -0.088975 0.049861 0.072536 -0.184641 -0.162001 0.138309 -0.111699 -0.168495 -0.081078 0.086827 0.007589 0.22223 0.180834 -0.061848 -0.061439 0.095537 0.103645 0.146024 0.086698 -0.105522 0.061453 -0.046661 0.061516 0.025991 -0.102605 0.070342 -0.121039 0.055248 0.060695 0.183026 -0.027724 0.142634 -0.055438 -0.073019 -0.058969 0.014222 -0.016759 0.079416 -0.066169 -0.13086 0.140314 0.267708 -0.126077 0.065716 0.173857 0.019259 -0.139388 0.010398 0.028445 0.12161 -0.009942 -0.183367 -0.004458 -0.01737 0.079496 -0.137634 -0.025251 0.007177 0.00118 0.11025 -0.077459 -0.024244 0.145152 -0.023526 0.048063 -0.023401 0.200091 -0.103278 -0.177445 0.082278 -0.108198 -0.060334 0.004432 -0.05817 -0.062668 0.094306 -0.025353 0.159049 -0.103863 0.010283 0.118143 -0.048837 -0.043673 0.172602 -0.153873 0.123604 -0.064072 0.144921 0.015265 -0.257143 0.044589 0.165181 0.164565 -0.154181
-0.030885 -0.144321 -0.114702 0.217662 0.211589 -0.053987 -0.097003 -0.006081 0.106184 -0.19225 0.27341 -0.001627 0.016032 0.129187 0.122865 0.275623 0.107108 0.015691 -0.006037 -0.142418 0.154025 0.072765 0.018387 0.066267 -0.104664 -0.006477 0.087715 0.040843 0.034405 0.004746 0.039952 -0.088957 -0.181448 -0.001554 -0.10838 -0.160819 0.092186 0.063095 0.122768 0.314943 0.242977 -0.016442 0.08086 -0.187816 -0.065589 0.009327 -0.195008 -0.022111 -0.130963 0.172486 -0.154043 0.265711 -0.20106 -0.103358 -0.136246 -0.050717 0.091639 0.246584 -0.062686 -0.121922 0.146996 -0.181055 0.086087 0.057641 0.023334 0.102189 0.243386 -0.168638 0.136789 0.176157 0.096496 -0.143393 0.292765 0.056737 0.006438 0.021837 0.10669 -0.038937 -0.173303 0.097368 0.113572 0.012511 0.167639 0.141569 -0.033348 -0.203654 0.101294 0.038416 0.015401 -0.010755 -0.009777 0.259372 -0.136286 0.311787 -0.060587 -0.019881 0.228563 -0.291013 0.134961 -0.008458
0.131091 0.040378 0.187753 -0.0136 -0.151112 -0.015483 -0.229911 -0.119415 -0.135619 0.206785 0.058313 0.203716 0.044907 0.002114 0.134741 0.317725 0.016305 0.240915 0.108114 -0.042891 -0.053838 0.043872 0.353852 0.033303 -0.206055 0.011541 -0.263719 -0.367923 0.093667 -0.134255 -0.024277 0.073892 -0.13228 0.236357 -0.089342 -0.100615 0.017162 -0.078197 -0.155731 0.186402 0.010776 0.126961 -0.046915 0.083543 0.092611 -0.179597 -0.043854 0.071314 -0.225823 0.132846 -0.006139 -0.08422 -0.065481 0.040719 0.092901 -0.096592 0.087253 0.050141 0.210442 -0.223603 0.159073 -0.189099 0.03539 -0.085086 -0.15492 -0.049877 0.024321 0.074458 0.081588 -0.232742 0.053911 0.031676 0.101916 -0.045063 0.152612 -0.156943 -0.010101 0.027036 0.025917 -1.63E-4 0.02858 0.113919 0.110167 -0.124989 0.153046 -0.035816 -0.051011 0.039916 0.053406 0.017487 -0.13414 -0.115926 0.060659 0.128598 -0.107206 -0.129645 0.219075 -0.041944 -0.151026 -0.169909
0.652152 1.133402 0.742892 -1.851552 -2.436201 -3.352688 -0.059947 1.069592 0.347807 0.850303 0.748933 0.725945 0.431967 2.988736 0.746868 -1.874699 0.35127 0.667277 -0.759044 -2.380101 0.60818 -0.30599 -0.599525 -0.831824 -0.834357 0.702901 -1.29464 -2.27774 -0.326079 0.351108 -1.003812 -0.665168 0.29774 -2.064026 0.492767 0.008162 -2.262853 0.956528 0.412814 0.602081 -0.90495 -0.970223 0.250976 1.266006 2.300311 -2.534665 0.015732 1.87714 -2.173779 2.064622 -1.860812 -1.990734 0.411622 -0.614461 0.90266 0.498711 -0.96518 -1.132372 0.989398 -0.985841 0.84911 1.299962 2.255228 0.435234 -1.726969 -0.734581 1.826257 1.000809 2.131398 -1.703253 0.728468 -1.697183 1.932365 1.78816 0.398515 0.161957 -0.368934 3.386885 2.111351 -0.597592 0.819766 1.56338 0.008261 1.69361 0.144904 -1.564986 1.689612 -1.151342 -1.74929 -0.207911 -0.015816 0.743225 -0.31835 2.245111 -0.947142 -0.445275 1.161168 -0.667204 -0.080608 -1.264524
1.83235 -1.065827 -2.733082 2.613914 -3.423922 2.334559 -0.03394 1.049622 -1.121852 1.413599 -0.718806 1.085254 -0.368398 1.569461 -0.520217 -0.313955 -0.665365 -1.52618 -2.014019 1.05422 0.145931 1.652913 5.580864 -0.435509 -1.730615 0.945913 1.781686 -1.660368 -0.868939 -2.006499 -0.692075 -0.484411 0.341632 -1.272827 -1.872421 0.877364 -2.812239 -1.053434 -1.901957 -0.977062 0.130624 -1.014773 -0.240168 0.825833 1.952508 -0.296647 -0.005508 0.563201 4.199321 3.249165 -2.085681 -1.570944 -0.283066 1.929722 -1.152847 -0.963255 0.939534 -2.678518 1.043763 -0.088999 2.257969 -0.501612 -0.767168 1.384746 2.040856 -1.959923 1.288882 -2.173142 -0.136806 2.296971 2.385215 1.187417 1.651964 0.328664 -1.917686 1.938381 -0.63959 2.060738 1.033902 3.202502 0.177728 -0.371882 0.383214 1.437827 0.463614 -2.305655 0.319943 0.683279 0.311865 1.218879 0.256998 -0.762622 -0.726542 -0.946642 -0.003158 0.767837 1.351655 2.32633 -0.424417 1.353899
0.047964 -0.069501 -0.228902 -0.016337 -0.069884 0.042694 -0.109464 0.045751 -0.062078 -0.053961 -0.15293 0.178492 -0.082622 -0.030605 -0.025431 -0.098749 -0.110394 0.015113 -8.53E-4 -0.152089 -0.09425 -0.058442 0.080024 0.07191 0.012551 0.297885 0.111016 -0.008872 0.007516 -0.070631 0.011933 -0.124452 0.024267 0.011002 -0.153358 0.041654 -0.073466 0.037715 0.092594 -0.036643 -0.092036 0.207285 0.095301 0.059961 0.024259 -0.043283 -0.083745 0.063168 0.038013 0.085664 0.081271 0.068655 -0.127636 0.202816 0.163441 0.138332 0.074697 -0.104548 0.165417 -0.147556 -0.01918 -0.161796 0.018204 0.060057 0.026721 0.017184 0.191276 0.218602 0.025437 -0.069277 0.294863 0.15458 -0.06973 -0.014134 0.040024 0.198639 0.00572 -0.062885 0.030424 -0.012386 -0.057557 0.099053 -0.055325 -0.118539 -0.005547 -0.090675 -0.027903 0.001844 -0.004449 0.007587 0.038847 0.055435 0.190304 0.006768 -0.030324 -0.067174 0.064977 0.209606 -0.051907 -0.030303
-0.065232 -0.319628 0.553498 -1.554947 -1.189484 -0.500669 -1.127876 0.19097 -0.040159 0.690846 -0.649218 -0.558763 -0.130757 0.430408 1.457989 0.974203 -0.121786 1.61638 0.473576 1.83188 1.169093 0.612616 0.455991 -0.865188 0.546571 0.716326 0.22072 -1.887779 -0.924542 0.827251 -1.574202 0.044125 -1.3064 -2.038664 0.291647 -0.381766 -0.402884 1.038347 1.098386 1.74706 0.201794 1.529986 0.403729 1.837933 1.041898 -0.682371 1.774318 1.181401 0.072178 -0.468988 -0.59837 -1.4758 -1.039061 2.237832 0.58072 0.552967 -0.020635 0.391622 0.378916 0.733369 0.91439 0.557163 2.065654 0.373732 -1.716134 1.146576 2.388042 1.033775 0.71877 -0.068042 0.748894 0.783839 -1.526913 2.27592 2.844584 -0.917919 -0.877682 -0.463312 2.198974 0.396411 -0.950244 1.039579 0.784076 -0.164023 -1.107618 1.056574 1.323508 0.393638 -0.410222 0.890258 -0.769813 1.974009 0.026639 0.137002 -0.090602 -0.303019 2.136152 -1.681065 0.690361 -0.550156
0.652152 1.133402 0.742892 -1.851552 -2.436201 -3.352688 -0.059947 1.069592 0.347807 0.850303 0.748933 0.725945 0.431967 2.988736 0.746868 -1.874699 0.35127 0.667277 -0.759044 -2.380101 0.60818 -0.30599 -0.599525 -0.831824 -0.834357 0.702901 -1.29464 -2.27774 -0.326079 0.351108 -1.003812 -0.665168 0.29774 -2.064026 0.492767 0.008162 -2.262853 0.956528 0.412814 0.602081 -0.90495 -0.970223 0.250976 1.266006 2.300311 -2.534665 0.015732 1.87714 -2.173779 2.064622 -1.860812 -1.990734 0.411622 -0.614461 0.90266 0.498711 -0.96518 -1.132372 0.989398 -0.985841 0.84911 1.299962 2.255228 0.435234 -1.726969 -0.734581 1.826257 1.000809 2.131398 -1.703253 0.728468 -1.697183 1.932365 1.78816 0.398515 0.161957 -0.368934 3.386885 2.111351 -0.597592 0.819766 1.56338 0.008261 1.69361 0.144904 -1.564986 1.689612 -1.151342 -1.74929 -0.207911 -0.015816 0.743225 -0.31835 2.245111 -0.947142 -0.445275 1.161168 -0.667204 -0.080608 -1.264524
0.0 0.0 0.0 0.0 0.0 0.0 0.0 0.0 0.0 0.0 0.0 0.0 0.0 0.0 0.0 0.0 0.0 0.0 0.0 0.0 0.0 0.0 0.0 0.0 0.0 0.0 0.0 0.0 0.0 0.0 0.0 0.0 0.0 0.0 0.0 0.0 0.0 0.0 0.0 0.0 0.0 0.0 0.0 0.0 0.0 0.0 0.0 0.0 0.0 0.0 0.0 0.0 0.0 0.0 0.0 0.0 0.0 0.0 0.0 0.0 0.0 0.0 0.0 0.0 0.0 0.0 0.0 0.0 0.0 0.0 0.0 0.0 0.0 0.0 0.0 0.0 0.0 0.0 0.0 0.0 0.0 0.0 0.0 0.0 0.0 0.0 0.0 0.0 0.0 0.0 0.0 0.0 0.0 0.0 0.0 0.0 0.0 0.0 0.0 0.0
-1.590659 -0.830142 -1.251662 -2.309199 -0.712103 -0.922931 -0.235935 3.461369 3.73647 -1.285374 -0.47583 4.044626 -3.756972 0.099905 -2.350302 -5.043975 -3.016126 1.625301 1.018771 -0.538002 2.334602 0.352481 0.186378 -1.034787 -3.18083 0.828302 -0.400794 -0.675271 -2.566344 1.174289 3.166212 1.072313 1.868574 -2.190373 2.642458 -4.791054 0.366475 -0.024238 -3.812966 4.178689 -1.37746 2.744673 -0.945407 1.448252 2.036977 -3.543319 1.361822 3.017318 4.241773 -0.517944 2.869107 0.36942 1.433903 -0.778178 -0.141671 1.722979 3.374294 -0.268846 0.451057 -1.230654 0.518195 2.2784 1.632033 2.501698 3.068465 0.508192 -1.074796 -2.666543 1.692307 -1.65749 2.786076 -1.051128 1.298032 2.545214 2.326283 -1.197141 0.137494 2.516592 2.205317 0.568702 3.683872 1.651758 -0.429302 -3.663671 0.622471 -0.703518 1.429985 -5.586027 3.469893 1.758976 0.386014 0.385611 -0.567554 1.236725 -1.381369 0.374637 -0.436515 -1.405918 2.524003 -2.059431
0.0 0.0 0.0 0.0 0.0 0.0 0.0 0.0 0.0 0.0 0.0 0.0 0.0 0.0 0.0 0.0 0.0 0.0 0.0 0.0 0.0 0.0 0.0 0.0 0.0 0.0 0.0 0.0 0.0 0.0 0.0 0.0 0.0 0.0 0.0 0.0 0.0 0.0 0.0 0.0 0.0 0.0 0.0 0.0 0.0 0.0 0.0 0.0 0.0 0.0 0.0 0.0 0.0 0.0 0.0 0.0 0.0 0.0 0.0 0.0 0.0 0.0 0.0 0.0 0.0 0.0 0.0 0.0 0.0 0.0 0.0 0.0 0.0 0.0 0.0 0.0 0.0 0.0 0.0 0.0 0.0 0.0 0.0 0.0 0.0 0.0 0.0 0.0 0.0 0.0 0.0 0.0 0.0 0.0 0.0 0.0 0.0 0.0 0.0 0.0
-0.36841 1.513444 -1.838171 3.403038 0.671672 1.622458 -2.908681 -1.708858 0.863716 2.282866 0.635927 -0.103462 0.331327 2.300215 1.017446 5.214146 -1.881265 -0.23936 0.333033 -0.844694 -3.591968 -2.612507 0.919915 -1.027188 0.497727 1.467576 0.224107 3.03871 -2.756592 2.188018 1.117249 0.052708 -0.885234 -1.085475 0.032046 1.576074 1.698914 0.318818 -0.029863 -0.116492 -2.056068 -2.644953 1.452071 -0.582875 -1.927319 1.999539 -0.720461 2.422593 2.040711 2.822704 1.843434 -1.513669 1.937895 -0.581443 -2.485586 -0.940137 0.316515 3.948978 0.16494 -0.302284 3.51631 2.876316 -0.965426 -0.904518 -0.289307 0.658121 0.923617 -2.860303 0.806213 1.394096 3.472015 1.425355 4.661679 4.072598 -2.100009 -2.317379 1.78491 -0.0546 0.753992 -0.211913 -0.352573 -1.606013 4.150368 0.369519 0.272659 -0.573907 0.054241 -0.329642 -1.305306 0.819769 2.941053 2.908024 1.617088 0.703031 1.032178 0.368721 -1.464458 -0.340373 -0.38375 -0.451768
-0.019303 -0.002529 -0.008422 0.115266 0.028528 0.037318 -0.171611 -0.119728 0.08063 0.123641 0.205162 0.12071 0.033668 -0.050189 0.029205 0.160692 0.102192 0.160543 0.019279 -0.006701 -0.046097 0.22825 0.183039 -0.002247 -0.195626 -0.026982 -0.115158 0.044293 0.015434 -0.147153 -0.05616 -0.040167 -0.025384 0.009314 -0.123721 -0.240182 0.052266 0.018256 0.061974 0.057055 0.214691 0.236485 0.001764 -0.022228 0.117568 0.037046 0.018025 -0.122168 -0.073133 -0.028363 0.068127 0.029865 0.107291 0.044675 0.143504 -0.03141 0.003965 0.039915 -0.03263 -0.097703 0.064074 -0.166368 -0.173704 -0.022724 -0.099146 -0.117954 0.187166 0.031134 -0.034354 -0.038352 -0.109104 -0.274885 0.059596 -0.048928 0.006633 -0.076135 0.007098 -0.031185 -0.109211 0.02168 0.12185 0.082277 0.034144 0.007481 -0.037421 0.062545 -0.068271 -0.06697 0.030207 0.002634 -0.10734 -0.058583 -0.021734 0.131197 0.062131 -0.189168 0.135714 -0.272799 -0.004568 0.012972
0.662522 1.456834 -0.624594 -1.371466 -2.635769 -1.298266 0.275288 1.660436 0.026299 2.821041 -1.047636 0.170185 1.062123 0.939121 0.932437 1.186796 -0.913131 0.364152 -1.504588 2.06465 1.153337 0.426102 1.257656 -2.493773 0.010759 -0.62837 1.696703 -2.490599 1.009476 0.453099 -1.705179 1.291242 -0.408232 -3.176374 -0.250912 -1.38073 -0.984648 1.522888 0.619823 1.433749 0.850481 1.192059 1.184926 2.334271 0.081698 0.221895 2.26704 1.557649 -0.341726 0.817931 0.763058 -2.01324 -0.565266 0.896713 2.776493 0.248419 -0.05441 -0.158675 -0.875278 -0.321623 2.072939 0.018231 0.289196 -0.078206 -1.149068 1.355834 2.60827 0.530087 -0.112774 -0.549125 -0.258539 -1.430704 -0.75055 0.688224 2.107235 -1.406761 0.919899 -0.46187 0.260607 0.868188 0.60091 1.986032 1.505199 0.940905 2.122282 -0.518925 -0.16531 0.480776 0.335518 0.873984 -0.53862 3.875761 -0.810598 -0.279772 0.964957 0.022043 2.008704 -2.048523 -0.381396 -1.757497
-0.094878 -0.045073 0.015697 0.138964 -0.063371 0.025438 -0.089994 9.73E-4 0.053229 -0.013985 0.131803 -0.220339 0.140077 -0.035497 -0.067866 -0.085194 0.072482 0.126591 0.008539 -0.024894 -0.106307 0.213819 -0.120506 -0.079917 -0.164447 -0.170271 0.004759 -0.057596 0.204746 0.31939 0.082705 0.00161 0.057158 0.008478 0.056258 -0.2213 -0.017826 0.025177 -0.047854 0.232458 0.064586 0.057115 0.055657 -0.260754 0.073326 0.076541 -0.018086 -0.050309 -0.175713 0.181665 -0.121084 -0.06224 -0.014999 -0.173638 0.007327 -0.256175 0.185576 0.202755 0.009511 0.153636 -0.212272 0.102315 -0.236767 -0.005444 -0.091225 0.175474 0.175753 -0.004303 0.153247 0.089404 -0.049455 0.098035 -0.011167 -0.120716 0.167117 -0.030202 -0.045456 0.133978 0.167462 0.152158 0.25678 0.175789 -0.118451 0.246914 0.044416 0.260581 0.003985 -0.213051 -0.132225 -0.024808 -0.061802 0.137565 -0.085022 0.192865 -0.16403 0.035662 -0.182632 0.012701 -0.060044 -0.05962
0.0 0.0 0.0 0.0 0.0 0.0 0.0 0.0 0.0 0.0 0.0 0.0 0.0 0.0 0.0 0.0 0.0 0.0 0.0 0.0 0.0 0.0 0.0 0.0 0.0 0.0 0.0 0.0 0.0 0.0 0.0 0.0 0.0 0.0 0.0 0.0 0.0 0.0 0.0 0.0 0.0 0.0 0.0 0.0 0.0 0.0 0.0 0.0 0.0 0.0 0.0 0.0 0.0 0.0 0.0 0.0 0.0 0.0 0.0 0.0 0.0 0.0 0.0 0.0 0.0 0.0 0.0 0.0 0.0 0.0 0.0 0.0 0.0 0.0 0.0 0.0 0.0 0.0 0.0 0.0 0.0 0.0 0.0 0.0 0.0 0.0 0.0 0.0 0.0 0.0 0.0 0.0 0.0 0.0 0.0 0.0 0.0 0.0 0.0 0.0
-0.671963 -1.356401 3.602218 0.823366 -0.502176 -0.026847 2.688116 0.953721 0.412325 -0.074957 -2.563688 0.379861 -0.279054 0.512633 -0.426346 -0.669122 -2.193019 -1.985633 1.195718 -0.843091 -3.07709 -2.336138 0.676971 -1.157188 0.84245 -0.067074 1.662677 -0.902702 0.573933 0.762577 1.605777 -0.494156 -0.764054 -4.857189 1.199538 0.081996 1.582965 -1.800896 1.133021 -2.874443 -0.067305 0.527258 -0.963475 2.056148 -0.810059 -2.590427 0.192699 -0.925293 0.533123 0.50128 0.198265 1.047486 -1.15476 -0.133629 -3.660616 2.9145 0.67414 -1.747608 -1.472014 0.506851 -0.089567 -1.009712 -0.989767 -0.231732 -1.20197 -0.899847 -0.180586 -0.280434 1.214359 0.601947 3.002038 1.452004 1.898121 0.64863 -0.773459 -0.546508 1.482508 0.349815 -0.022055 1.977613 1.349274 -0.187718 2.026595 2.419264 -2.256871 -0.764584 -0.110956 2.609596 -0.511332 0.497735 1.205947 -0.553892 0.146347 -2.201324 -0.117853 -0.193777 0.312823 3.388883 -4.036498 2.412019
4.76163 1.26357 1.983434 -3.241431 -0.190595 -0.981892 -2.537386 -0.971982 1.981266 1.91581 0.647951 2.249639 1.925516 -0.881635 0.670117 -1.671246 -0.990685 -1.909093 3.149828 2.324589 1.79477 -3.351541 -1.310747 0.942017 0.464855 0.99477 2.16948 -3.41188 0.133886 0.922233 -2.103961 0.394077 0.328511 -0.408673 1.985816 -2.668612 -1.071366 3.288182 -3.191575 0.267321 -1.716076 -1.944385 1.322036 1.132855 2.110551 -4.53036 0.761684 1.90552 1.438342 -1.495778 0.357801 0.855883 3.219477 3.019401 1.728805 1.137802 2.171787 0.397664 5.3E-5 -2.470649 4.175722 0.599448 0.727725 -0.955843 -1.43997 -2.585124 1.94472 -1.046579 1.745605 -2.096902 -0.272464 3.937497 0.004584 1.932676 -0.01352 -1.837908 1.334861 0.55551 1.925677 0.530871 2.817571 0.770253 -0.699519 -1.093684 -0.825747 -0.395748 -0.948909 -0.844632 0.807481 1.119861 0.511956 4.900125 0.252624 1.84578 -0.460999 -3.241187 0.987263 1.683647 0.320895 -0.26796
2.050385 -0.325427 1.979713 0.839387 -5.593003 -1.550963 -0.616861 1.778305 -0.565452 1.650545 -0.058648 -2.080607 -2.712963 2.187927 0.164358 -2.409708 -1.212686 -0.300525 -0.649187 -1.192278 -0.114418 -1.787979 -3.493151 -0.972186 -1.689345 -1.478005 -2.230852 -2.504815 -2.957476 0.778515 -2.276535 -0.427062 -0.384258 -1.737221 -0.528312 -2.418021 -2.099365 4.03637 -1.489505 3.301522 -0.949174 -0.085545 -0.566684 0.564458 -1.59419 -0.771173 4.837199 4.549995 3.238524 -1.266981 -1.341425 -4.674468 0.818781 -1.583212 0.41547 1.038054 0.422617 0.284285 -0.194079 -1.256715 2.792988 0.513976 2.905741 -1.76327 0.480608 -3.130651 -0.120795 -1.724326 0.09703 -1.582283 0.69926 -1.22627 -0.122073 3.297771 -3.17226 -0.373546 -0.761719 -1.321006 -0.667824 0.293692 0.428048 1.979986 5.484241 0.239164 0.845773 2.214548 -0.483024 2.359693 4.279835 1.350312 1.880894 2.474575 -0.519737 2.880378 -0.242922 -0.997619 2.393658 0.590021 -2.358591 -1.302932
0.077315 0.094458 -0.007108 -0.173733 -0.124016 0.10268 -0.147921 -0.038812 -0.110229 0.125727 0.078715 0.103655 -0.14702 0.038875 0.173455 0.029172 0.085332 0.02049 0.028974 0.209103 -0.048985 0.096129 0.022119 0.051125 -0.02515 0.079908 0.031651 0.190444 0.035202 -0.042677 -0.105544 -0.140258 -0.017468 -0.128506 -0.137886 -0.069351 -0.162297 -0.091859 -0.189312 0.107815 0.219664 0.041735 -0.07544 -0.084491 -0.059106 -0.063775 -0.109205 0.196058 0.051562 -0.084445 -0.072622 -0.069628 -0.035997 -0.118006 0.208404 -0.229657 -0.07943 -0.150258 0.011007 0.191667 0.083006 -0.084947 0.014942 0.17921 -0.015157 0.068533 0.004176 0.048989 0.028669 0.143713 0.076645 0.028479 -0.023023 0.029246 -0.099158 0.02435 -0.105521 0.100665 0.051662 -0.025748 0.125299 -0.043305 0.202724 -0.034303 0.013237 -0.157912 0.118345 0.092195 -0.004208 0.186132 -0.235138 0.02556 0.023231 0.199088 -0.027192 0.068552 0.0464 0.132222 -0.011505 0.162654
-0.001889 -0.015376 0.011577 -0.079922 0.019615 0.005975 0.018085 -0.133459 0.07886 -0.019014 -0.010821 0.041669 -0.011128 0.097962 -0.060935 0.042309 0.015014 8.49E-4 -0.002449 0.038756 0.0685 -0.030124 0.021652 -0.079703 0.075875 -0.122727 0.144977 0.073106 0.120718 -0.115022 0.047765 0.225363 -0.061747 -0.035103 0.080005 0.064342 -0.011293 0.032618 0.076202 0.118833 0.299047 0.176216 0.148892 -0.105455 -0.022399 0.118571 -0.05437 -0.136016 -0.04767 0.112361 0.012505 0.001737 0.056998 -0.132972 0.205737 0.014869 0.130993 0.242588 0.100312 0.073252 -0.019374 -0.073147 -0.042245 -0.05193 0.119558 0.067972 -0.198268 0.013905 0.103121 -0.09962 -0.010563 -0.219254 -0.117595 0.0375 -0.028297 0.03039 -0.116152 0.021365 0.041774 -0.247365 -0.187561 -0.063496 -0.088808 -0.029223 0.057963 0.069802 -0.07258 -0.052825 0.064478 0.040761 0.149345 0.085248 0.239559 0.137326 -0.140966 0.005439 0.083517 -0.02486 -0.028184 0.111642
0.131091 0.040378 0.187753 -0.0136 -0.151112 -0.015483 -0.229911 -0.119415 -0.135619 0.206785 0.058313 0.203716 0.044907 0.002114 0.134741 0.317725 0.016305 0.240915 0.108114 -0.042891 -0.053838 0.043872 0.353852 0.033303 -0.206055 0.011541 -0.263719 -0.367923 0.093667 -0.134255 -0.024277 0.073892 -0.13228 0.236357 -0.089342 -0.100615 0.017162 -0.078197 -0.155731 0.186402 0.010776 0.126961 -0.046915 0.083543 0.092611 -0.179597 -0.043854 0.071314 -0.225823 0.132846 -0.006139 -0.08422 -0.065481 0.040719 0.092901 -0.096592 0.087253 0.050141 0.210442 -0.223603 0.159073 -0.189099 0.03539 -0.085086 -0.15492 -0.049877 0.024321 0.074458 0.081588 -0.232742 0.053911 0.031676 0.101916 -0.045063 0.152612 -0.156943 -0.010101 0.027036 0.025917 -1.63E-4 0.02858 0.113919 0.110167 -0.124989 0.153046 -0.035816 -0.051011 0.039916 0.053406 0.017487 -0.13414 -0.115926 0.060659 0.128598 -0.107206 -0.129645 0.219075 -0.041944 -0.151026 -0.169909
1.155368 3.302179 -0.818617 0.201583 -0.372035 -0.220049 -2.421694 1.24088 1.022918 0.281963 -0.56672 0.218504 -2.654141 0.687099 1.426786 -2.744465 -2.044989 -0.49789 -1.769702 -2.328375 -1.105508 0.104665 -0.061522 -2.669585 1.369504 1.778184 -0.869744 -1.441309 0.051265 1.116249 1.903031 -0.163683 1.731475 -0.652558 -1.459245 -0.212579 0.382415 1.861636 -0.394668 -0.423196 -0.983827 -1.176007 1.844253 0.853456 0.976233 -0.076248 -1.490589 -0.553926 0.506191 0.326236 0.251095 1.038919 -0.803142 0.658979 -3.236482 -1.07965 1.27678 -0.350029 -1.778651 0.292774 0.002745 0.267431 1.072933 -0.321661 -1.19536 -1.465055 -2.523761 -3.574044 -0.123843 -0.515256 3.2036 -0.08683 1.099575 -0.639959 -1.310584 0.629968 -0.142079 0.66081 -1.289981 -0.152693 -0.105374 0.388507 -1.068849 2.207516 -1.516502 0.618648 0.057959 1.61471 0.888036 -0.337188 -0.73306 -0.809614 -1.409634 -0.094797 -0.938314 1.210802 1.47048 2.210952 -1.933366 0.819087
0.032817 -0.089134 0.148761 0.025345 -0.01923 -0.148821 -0.205892 -0.112301 -0.237202 0.136287 0.134762 0.239492 0.128875 -0.183372 -0.040242 0.281763 -0.240697 0.347354 0.168752 0.047089 -0.180048 -8.65E-4 0.143859 0.078207 -0.204834 -0.147421 -0.064213 -0.052187 0.122064 -0.083446 0.001249 0.0749 -0.269208 0.095034 -0.185838 -0.031473 -0.047511 -0.052145 0.047224 0.114331 -0.122967 0.263975 -0.021193 0.034501 0.034191 -0.11869 0.125529 -0.031421 -0.229566 0.209471 0.051123 -0.197017 3.63E-4 -0.036714 0.266471 -0.174432 0.161867 -0.057331 0.167893 -0.052871 -0.059991 -0.070231 -0.143268 -0.104599 0.070071 0.004926 0.083664 -0.082291 0.204389 -0.107821 0.130021 0.012917 -4.5E-5 0.116778 -0.04665 0.060235 -0.244325 -0.149496 -0.014409 0.098801 -0.108386 0.101742 0.127589 -0.155718 -0.007094 0.228894 -0.07404 -0.030787 0.131071 -0.137504 -0.042937 0.107759 0.021141 0.202488 -0.106122 -0.297171 0.180313 -0.048691 0.07668 -0.105126
-0.098389 -0.096893 -0.077237 0.036968 -0.031453 -0.128401 -0.201742 -0.124489 0.221506 0.035649 0.155408 -0.081859 0.012803 -0.26374 0.08621 0.192492 0.02959 0.16208 0.01052 0.134687 0.124177 0.250011 -0.094643 0.152951 -0.004557 0.070481 -0.055673 -0.152366 0.031647 -0.040854 0.101086 0.036788 -0.005676 0.134194 -0.040703 -0.03461 0.049643 0.017076 0.133914 0.236731 -0.040427 0.002383 -0.043853 -0.154493 0.24496 -0.028639 -0.239555 -0.079778 -0.210664 0.018336 0.028756 -0.006505 0.055481 0.06932 -0.147877 -0.153433 -0.04725 -0.101515 0.089189 -0.004806 -0.009616 -0.146244 -0.24941 0.199065 -0.006107 -0.089878 0.052757 -0.145255 0.22938 -0.216267 -0.218587 -0.05224 0.09485 0.050469 0.067819 -0.145165 0.088673 0.120063 0.157248 -0.039366 -0.009665 0.210493 0.161281 -0.030194 -0.113 0.191373 -0.144517 -0.115702 -0.099164 -0.103893 -0.142294 -0.049918 -0.018548 0.219829 -0.031536 -0.038589 0.112003 -0.10621 -0.008975 -0.069164
0.0 0.0 0.0 0.0 0.0 0.0 0.0 0.0 0.0 0.0 0.0 0.0 0.0 0.0 0.0 0.0 0.0 0.0 0.0 0.0 0.0 0.0 0.0 0.0 0.0 0.0 0.0 0.0 0.0 0.0 0.0 0.0 0.0 0.0 0.0 0.0 0.0 0.0 0.0 0.0 0.0 0.0 0.0 0.0 0.0 0.0 0.0 0.0 0.0 0.0 0.0 0.0 0.0 0.0 0.0 0.0 0.0 0.0 0.0 0.0 0.0 0.0 0.0 0.0 0.0 0.0 0.0 0.0 0.0 0.0 0.0 0.0 0.0 0.0 0.0 0.0 0.0 0.0 0.0 0.0 0.0 0.0 0.0 0.0 0.0 0.0 0.0 0.0 0.0 0.0 0.0 0.0 0.0 0.0 0.0 0.0 0.0 0.0 0.0 0.0
0.102295 -0.240422 0.010012 0.053166 -0.027497 0.320665 -0.035525 -0.088939 0.086417 0.029556 0.16135 0.075931 0.304175 0.095895 0.297639 -0.169228 0.170488 0.207696 0.154338 0.133064 0.055276 0.236413 -0.080775 0.096113 -0.169152 -0.326194 -0.169088 0.017196 0.130731 0.066222 -0.077559 -0.01006 -0.178335 0.026392 0.071605 0.013552 -0.446789 -0.133676 0.203855 0.427957 -0.070661 0.098276 -0.295991 0.166012 -0.169068 -0.268796 -0.152722 0.170494 -0.289373 0.162984 0.157495 -0.078439 0.184938 0.098342 0.014381 0.004111 -0.10989 0.110829 0.164908 -0.195501 0.074158 0.179283 0.084023 0.004652 -0.044949 -0.241008 -0.112556 0.213146 0.023971 -0.255321 0.066564 -0.033196 0.037359 0.10351 -0.169014 -0.188596 0.073634 -0.048759 0.032205 0.019929 0.007838 0.187837 0.030621 -0.056623 0.225093 0.151392 -0.1858 0.071991 0.020573 -0.021221 0.155206 -0.116856 0.041443 0.103258 -0.194928 0.0188 0.043367 -0.076404 -0.015092 0.029961
1.774083 -1.239834 -0.467936 -2.806536 -1.810838 0.545087 -1.02429 1.83723 1.158701 -1.625989 0.340988 -1.17261 -2.189499 -0.804216 -0.180708 -0.091657 1.895767 -0.320348 0.451964 1.724314 -0.417324 0.753446 -2.824431 0.576214 -3.016223 -0.958171 3.485548 -1.603 -1.925125 -0.252719 0.036924 0.323992 -1.983643 0.07902 0.565887 -0.594099 -2.73139 1.200274 -0.476343 2.105894 -1.365326 -1.305424 -0.571431 1.302197 0.437009 -4.208892 4.104939 0.662439 0.983121 2.742857 -0.996272 1.066681 -1.083097 1.429614 0.906091 -2.455654 0.03661 0.14017 0.890076 0.137046 -0.389517 -1.592894 0.739705 -0.980924 -0.738566 2.222133 4.430971 -3.317749 0.88395 -1.482913 1.242388 -0.566689 -0.212825 4.734146 -0.782145 -0.431644 -1.174922 -0.853366 0.711677 1.259674 0.685724 1.149269 0.210347 -1.160726 -0.892552 -1.03765 -2.526481 1.237212 0.440334 -0.128668 0.881437 1.196877 0.10897 -0.455657 0.251262 -0.969626 -0.204264 -0.326492 0.394575 0.57675
0.0 0.0 0.0 0.0 0.0 0.0 0.0 0.0 0.0 0.0 0.0 0.0 0.0 0.0 0.0 0.0 0.0 0.0 0.0 0.0 0.0 0.0 0.0 0.0 0.0 0.0 0.0 0.0 0.0 0.0 0.0 0.0 0.0 0.0 0.0 0.0 0.0 0.0 0.0 0.0 0.0 0.0 0.0 0.0 0.0 0.0 0.0 0.0 0.0 0.0 0.0 0.0 0.0 0.0 0.0 0.0 0.0 0.0 0.0 0.0 0.0 0.0 0.0 0.0 0.0 0.0 0.0 0.0 0.0 0.0 0.0 0.0 0.0 0.0 0.0 0.0 0.0 0.0 0.0 0.0 0.0 0.0 0.0 0.0 0.0 0.0 0.0 0.0 0.0 0.0 0.0 0.0 0.0 0.0 0.0 0.0 0.0 0.0 0.0 0.0
2.763139 -1.500145 -1.054949 0.108129 -2.441239 2.409272 -0.628655 2.54715 0.077627 -0.447567 0.838375 -0.585443 -4.814465 -0.839256 -0.044537 0.14507 1.902158 -0.088702 1.068148 -1.829617 0.774778 1.827085 -1.33367 -1.018203 -2.298032 0.806193 4.646079 0.435196 -0.767047 2.630828 3.288036 1.184743 -2.818143 -1.28687 -1.55878 1.998231 -2.645496 -1.070538 -0.272486 -0.592495 2.340952 2.298635 -2.254341 0.835384 0.76466 -0.233515 -0.589683 0.660476 -0.292724 0.196121 -1.743456 0.467143 -0.293524 -1.36158 -1.286497 -0.345213 1.68089 -2.735131 0.150425 -1.745792 0.999559 -1.352985 1.809873 0.524243 -0.542897 -0.451405 -0.850107 -0.394458 -1.819923 -1.793292 5.570456 0.433684 0.71208 0.305952 -0.312276 -0.536647 -0.100762 1.983368 1.605956 1.458349 1.519876 3.813322 -1.471682 -0.197783 -0.983431 1.355965 -2.265172 1.588993 -0.126059 0.738662 -0.823898 2.627036 3.975982 -0.745065 -1.519473 0.033927 -2.716809 -1.402747 -0.110809 0.28648
0.769459 -0.809569 -1.565273 -3.125539 -2.435361 2.149243 -0.089879 -0.902935 -0.576634 0.726227 1.506818 0.084238 -2.473681 -0.875242 -0.215138 1.003545 -0.643834 0.263603 0.723626 1.11344 1.682144 -0.571321 0.024862 -0.625601 0.553605 -0.589137 3.000607 -1.060852 -0.649561 -0.018075 1.316982 -1.880767 0.301754 -1.328776 0.764244 1.405312 0.249019 0.289863 1.809085 -0.424272 -0.80267 0.944015 0.712399 0.839054 -1.044647 -2.68281 0.412471 0.706068 -0.41705 0.707171 0.697536 0.307873 -0.227383 -0.2523 0.250234 1.730227 1.49114 -1.456072 0.665136 0.833077 0.323197 -0.262775 -2.179022 -0.236342 0.372324 1.175063 -0.498806 -1.623488 0.032533 0.369722 0.24755 -0.73524 -0.938155 1.450531 -0.596513 1.830008 1.261858 0.322021 0.052982 1.599664 -0.3642 0.076981 1.100806 1.347856 0.075766 -0.785507 -1.097181 2.226999 1.773524 1.08141 -1.367806 0.576402 0.268834 1.761368 1.670088 0.571415 -0.048802 0.570539 1.384716 1.423697
1.004601 -0.743233 -4.067981 -0.115656 -4.78554 -1.348942 2.419182 2.357476 -2.448898 -0.814841 3.523834 0.777489 -2.602386 -3.684219 1.882039 2.851424 0.932776 -0.167332 2.162096 1.796146 -2.943569 -0.711736 -0.846711 -4.953481 0.668005 1.155602 3.503482 -1.075282 -5.496662 -2.198818 -1.69896 -1.028642 -0.786465 -0.977382 -0.33742 5.029888 -1.285761 1.821492 -0.494964 -3.531214 3.671537 1.748062 3.59724 0.823504 -0.66142 -2.286017 0.474634 2.062092 0.301434 3.612205 1.554486 0.277725 4.616766 -1.768205 -1.874105 -0.795375 2.160397 -1.086374 0.222593 -0.405206 1.348289 2.511848 0.259574 4.331522 -3.64873 1.181193 -2.812983 -0.849223 5.515554 1.853815 1.326603 1.686581 0.288277 -1.031511 -0.284904 0.170317 -3.617597 -1.328192 1.910008 1.853312 1.727481 -3.112874 3.115184 0.811244 3.990662 0.391952 -3.110993 3.73 1.721627 6.608438 3.749666 -2.058105 -2.229838 1.086227 -2.394405 -3.280911 2.275012 0.865206 5.480224 0.256254
3.206997 -4.877361 -0.910472 -1.395845 1.572584 1.195669 -0.645877 1.514129 4.001514 1.012958 -3.145483 -0.395437 1.874785 5.030729 -0.714288 0.493562 2.05343 -0.729517 -2.326681 -4.578588 4.021246 1.018946 2.697827 -0.157538 -0.814339 -0.486008 0.989437 1.830659 2.35274 1.218592 0.83605 -0.84899 0.6027 -2.480923 0.003665 -0.862534 3.024495 1.349808 1.198729 -1.537208 -0.457143 0.652121 -3.708537 -0.665668 -1.704043 -1.144021 1.079376 1.529449 -1.413777 -4.361203 0.251599 0.959199 -3.679446 3.251751 -0.363336 -1.856911 1.311208 -0.087199 1.337398 -2.061584 0.277746 0.363671 1.62815 -2.562427 4.072415 2.277454 0.413444 0.269817 -3.077566 -2.043647 0.637895 -0.133715 -0.513107 4.057566 0.540331 -0.387082 4.579637 1.656738 0.39891 -4.182041 2.762143 1.010128 0.478 2.292752 0.772669 -0.49472 0.716144 -1.1895 2.324726 -3.328852 0.040878 2.011935 1.095551 -0.375816 -0.64119 -1.44337 -2.397953 0.997347 -0.139075 -1.143159
0.0 0.0 0.0 0.0 0.0 0.0 0.0 0.0 0.0 0.0 0.0 0.0 0.0 0.0 0.0 0.0 0.0 0.0 0.0 0.0 0.0 0.0 0.0 0.0 0.0 0.0 0.0 0.0 0.0 0.0 0.0 0.0 0.0 0.0 0.0 0.0 0.0 0.0 0.0 0.0 0.0 0.0 0.0 0.0 0.0 0.0 0.0 0.0 0.0 0.0 0.0 0.0 0.0 0.0 0.0 0.0 0.0 0.0 0.0 0.0 0.0 0.0 0.0 0.0 0.0 0.0 0.0 0.0 0.0 0.0 0.0 0.0 0.0 0.0 0.0 0.0 0.0 0.0 0.0 0.0 0.0 0.0 0.0 0.0 0.0 0.0 0.0 0.0 0.0 0.0 0.0 0.0 0.0 0.0 0.0 0.0 0.0 0.0 0.0 0.0
0.123314 0.024232 0.067758 -0.019176 0.04035 0.102721 0.022867 0.004876 -0.130388 -0.025998 -0.111174 -0.099004 0.08676 0.050864 -0.09914 -0.024014 -0.171609 -0.023554 -0.121212 -0.180475 0.179989 0.036153 -0.154862 -0.046345 0.094379 -0.14447 -0.041587 -0.048431 -0.136792 0.120946 0.186365 -0.07131 -0.07154 -0.104935 0.223496 -0.046738 -0.060067 -0.130754 -0.062099 -0.018454 0.144663 0.005022 0.142013 0.055336 -0.079464 0.134955 -0.01171 0.012333 -0.042385 0.102204 0.067493 0.045559 0.08181 -0.037308 -0.105499 0.04795 0.127704 0.287375 0.072091 0.04644 0.063593 0.228401 -0.07889 -0.03959 0.122115 0.054482 0.084107 0.013265 0.011559 -0.014696 0.109437 0.025601 -0.204002 0.310683 0.003437 0.019704 0.139319 0.086808 -0.081497 -0.018019 -0.014725 -0.169411 -0.017058 0.108817 -0.009525 -0.201578 -0.092985 0.072472 0.005488 0.045185 0.12776 0.042456 -0.19091 0.059921 -0.111423 0.013748 -0.096482 0.111096 0.034894 -0.026429
0.131091 0.040378 0.187753 -0.0136 -0.151112 -0.015483 -0.229911 -0.119415 -0.135619 0.206785 0.058313 0.203716 0.044907 0.002114 0.134741 0.317725 0.016305 0.240915 0.108114 -0.042891 -0.053838 0.043872 0.353852 0.033303 -0.206055 0.011541 -0.263719 -0.367923 0.093667 -0.134255 -0.024277 0.073892 -0.13228 0.236357 -0.089342 -0.100615 0.017162 -0.078197 -0.155731 0.186402 0.010776 0.126961 -0.046915 0.083543 0.092611 -0.179597 -0.043854 0.071314 -0.225823 0.132846 -0.006139 -0.08422 -0.065481 0.040719 0.092901 -0.096592 0.087253 0.050141 0.210442 -0.223603 0.159073 -0.189099 0.03539 -0.085086 -0.15492 -0.049877 0.024321 0.074458 0.081588 -0.232742 0.053911 0.031676 0.101916 -0.045063 0.152612 -0.156943 -0.010101 0.027036 0.025917 -1.63E-4 0.02858 0.113919 0.110167 -0.124989 0.153046 -0.035816 -0.051011 0.039916 0.053406 0.017487 -0.13414 -0.115926 0.060659 0.128598 -0.107206 -0.129645 0.219075 -0.041944 -0.151026 -0.169909
0.652152 1.133402 0.742892 -1.851552 -2.436201 -3.352688 -0.059947 1.069592 0.347807 0.850303 0.748933 0.725945 0.431967 2.988736 0.746868 -1.874699 0.35127 0.667277 -0.759044 -2.380101 0.60818 -0.30599 -0.599525 -0.831824 -0.834357 0.702901 -1.29464 -2.27774 -0.326079 0.351108 -1.003812 -0.665168 0.29774 -2.064026 0.492767 0.008162 -2.262853 0.956528 0.412814 0.602081 -0.90495 -0.970223 0.250976 1.266006 2.300311 -2.534665 0.015732 1.87714 -2.173779 2.064622 -1.860812 -1.990734 0.411622 -0.614461 0.90266 0.498711 -0.96518 -1.132372 0.989398 -0.985841 0.84911 1.299962 2.255228 0.435234 -1.726969 -0.734581 1.826257 1.000809 2.131398 -1.703253 0.728468 -1.697183 1.932365 1.78816 0.398515 0.161957 -0.368934 3.386885 2.111351 -0.597592 0.819766 1.56338 0.008261 1.69361 0.144904 -1.564986 1.689612 -1.151342 -1.74929 -0.207911 -0.015816 0.743225 -0.31835 2.245111 -0.947142 -0.445275 1.161168 -0.667204 -0.080608 -1.264524
0.352905 0.550922 -1.128945 -0.511125 0.774489 1.405335 -0.371647 0.106012 -0.779785 -0.640302 -0.68578 1.570717 -0.712288 -0.706705 -0.789609 -0.045278 -1.599722 -2.840112 -0.089543 -1.158838 -1.862605 -0.62748 -0.063542 -0.468696 0.750564 0.033551 -0.772222 -0.188991 -0.163115 0.455978 0.038455 -0.779588 0.172303 -1.114448 -0.548246 -0.008155 1.66721 -0.744821 -0.15746 -2.668482 -0.304702 -0.905716 0.479063 0.151803 -0.94063 -0.044338 -0.906122 -0.456182 0.281891 0.268287 0.47007 0.628019 0.328428 1.471286 -2.345457 0.072073 -0.345477 -0.998199 -1.496897 -0.053061 0.351206 -0.934426 0.295591 0.07336 0.24092 0.486976 0.390085 -0.621556 0.375246 -0.02625 1.957847 1.014101 0.004675 0.08874 -0.900479 -0.462149 0.922254 1.355385 -1.048724 0.105897 1.254466 0.410718 0.321258 1.066395 -0.171761 -0.128774 0.315556 0.697301 -0.180925 0.555334 1.005586 -0.891677 -1.232923 -1.994189 -0.567812 0.204184 -0.947385 -0.051526 -0.987029 0.725141
0.070173 0.039308 0.107688 0.062789 0.15652 0.124082 -0.056432 -0.112537 0.025132 0.140503 0.126967 0.06071 -0.074298 -0.14931 0.052424 0.182899 -0.246843 0.13267 -0.060832 0.014249 -0.124324 -0.021889 0.167993 -0.041896 -0.118065 0.060061 0.024644 0.032088 -0.098378 -0.030464 0.132668 0.111752 -0.096096 -0.07199 -0.297173 -0.090519 -0.107836 -0.01026 -0.033938 0.139789 0.127173 0.008027 -0.077124 0.028844 -0.130697 0.091795 0.126437 -0.176726 -0.119183 0.06901 -0.076019 -0.118921 0.198999 0.162416 0.114462 -0.029789 0.075884 0.002354 0.191814 -0.180285 0.032249 -0.02917 -0.088008 -0.271657 -0.066763 -0.045206 0.183388 -0.151886 -0.047672 0.030697 0.168009 0.04855 -0.083223 0.016797 -0.059652 0.092677 -0.173666 0.089986 0.132784 0.016604 -0.157277 0.026626 9.7E-4 -0.212108 0.094052 0.06787 0.070273 -0.148841 0.03981 0.105973 -0.0732 0.025499 0.047122 -0.076291 -0.093202 -0.17149 0.085148 -0.038776 -0.170445 -0.100314
0.0 0.0 0.0 0.0 0.0 0.0 0.0 0.0 0.0 0.0 0.0 0.0 0.0 0.0 0.0 0.0 0.0 0.0 0.0 0.0 0.0 0.0 0.0 0.0 0.0 0.0 0.0 0.0 0.0 0.0 0.0 0.0 0.0 0.0 0.0 0.0 0.0 0.0 0.0 0.0 0.0 0.0 0.0 0.0 0.0 0.0 0.0 0.0 0.0 0.0 0.0 0.0 0.0 0.0 0.0 0.0 0.0 0.0 0.0 0.0 0.0 0.0 0.0 0.0 0.0 0.0 0.0 0.0 0.0 0.0 0.0 0.0 0.0 0.0 0.0 0.0 0.0 0.0 0.0 0.0 0.0 0.0 0.0 0.0 0.0 0.0 0.0 0.0 0.0 0.0 0.0 0.0 0.0 0.0 0.0 0.0 0.0 0.0 0.0 0.0
0.06553 -0.125673 0.034491 0.043696 -0.08785 -0.070191 -0.104459 -0.048669 0.006119 0.030927 -0.13537 -0.036367 -0.163152 -0.059444 0.060532 -0.023973 0.098727 0.031182 -0.080261 0.051743 -0.07395 0.036216 -0.082271 -0.07694 -0.227916 8.49E-4 0.074039 -0.007776 0.046045 -0.104478 0.002922 0.032865 -0.001549 -0.142678 0.054115 -0.01641 0.00671 0.02971 0.075554 0.035918 0.017778 0.02266 0.074529 -0.007011 -0.166621 -0.149341 -0.036893 0.187838 -0.051182 0.035542 0.035646 -0.071808 0.164016 0.07998 0.087969 -0.192645 -0.030305 -0.225898 -0.106839 -0.021025 0.244137 -0.057087 -0.051305 0.059616 -0.184024 0.189175 0.205994 -0.054882 -0.034451 -0.087239 0.044602 -0.036991 -0.094929 -0.008204 0.212651 0.003758 -0.115127 0.104404 0.032918 0.078207 0.184447 0.044535 -0.025218 -0.026929 -0.017865 0.117728 0.029414 -0.031504 0.043071 0.093661 -0.096078 -0.012874 0.052235 0.078689 -0.053345 -0.059396 0.152948 -0.086422 -0.102222 -0.027954
0.073551 -0.08271 0.119388 -0.071696 -0.185095 -0.099653 -0.080006 -0.057058 -0.034738 0.171236 0.089732 0.214073 0.029902 -0.115018 0.26095 0.200697 0.033857 0.04357 0.113385 0.061918 -0.088086 0.074724 0.002679 -0.033298 -0.133439 -0.052122 0.003757 -0.065229 0.101004 -0.066237 0.001781 -0.038123 -0.031914 -0.046859 -0.122478 -0.168752 0.02244 0.028122 -0.146512 0.046364 -0.039705 0.06051 -0.018115 0.039062 0.076234 -0.315336 -0.018179 -0.013292 -0.172548 0.059216 0.020377 -0.098518 -0.066587 0.014018 0.054278 -0.258838 0.138245 0.075082 0.042076 -0.006749 0.098075 -0.009913 0.050603 -0.101765 -0.03447 -0.066037 0.018721 -0.001236 0.178933 -0.175994 0.094442 -0.075073 0.044764 -0.025964 0.002674 -0.008957 -0.102304 -0.048897 0.029401 0.035927 -0.097147 -0.043313 0.139893 -0.038715 4.12E-4 0.097006 0.075143 0.021586 0.126397 0.086318 -0.190515 0.059021 0.059148 0.166981 0.046978 -0.332659 0.015388 -0.018876 -0.14458 0.024274
-0.093926 0.023814 0.073747 -0.061555 -0.116715 -0.149556 -0.050524 -0.082775 -0.09923 0.082254 0.030538 0.112215 -0.01085 -0.060936 0.114247 0.095828 -0.006405 0.141951 0.145364 0.20864 0.183106 0.122841 0.046541 0.064328 -0.082586 0.007733 -0.045936 -0.071326 -0.063139 -0.005273 -0.170061 0.099401 -0.072833 -0.015587 -0.144579 -0.086864 -0.143316 0.153133 -0.006448 0.112935 0.03109 0.168668 0.056305 0.130857 0.036802 -0.124556 0.033545 0.062602 -0.105382 0.060684 0.029045 -0.13055 -0.063186 3.5E-4 0.147365 0.103712 -0.101914 -0.030796 0.10603 -0.005211 0.096558 -0.11566 0.037681 -0.182361 -0.078911 -0.031194 0.047862 0.032923 0.054995 -0.161768 -0.03628 0.021128 -0.051767 -0.00708 0.077052 -0.163099 -0.115242 0.02665 0.053292 -0.173323 -0.071821 0.108783 0.157423 -0.15368 0.081277 -0.046826 -0.002937 -0.0736 0.061593 -0.018512 -0.05715 0.020482 0.054701 0.032873 0.173807 -0.087348 0.145565 -0.123977 0.031934 -0.090923
1.155368 3.302179 -0.818617 0.201583 -0.372035 -0.220049 -2.421694 1.24088 1.022918 0.281963 -0.56672 0.218504 -2.654141 0.687099 1.426786 -2.744465 -2.044989 -0.49789 -1.769702 -2.328375 -1.105508 0.104665 -0.061522 -2.669585 1.369504 1.778184 -0.869744 -1.441309 0.051265 1.116249 1.903031 -0.163683 1.731475 -0.652558 -1.459245 -0.212579 0.382415 1.861636 -0.394668 -0.423196 -0.983827 -1.176007 1.844253 0.853456 0.976233 -0.076248 -1.490589 -0.553926 0.506191 0.326236 0.251095 1.038919 -0.803142 0.658979 -3.236482 -1.07965 1.27678 -0.350029 -1.778651 0.292774 0.002745 0.267431 1.072933 -0.321661 -1.19536 -1.465055 -2.523761 -3.574044 -0.123843 -0.515256 3.2036 -0.08683 1.099575 -0.639959 -1.310584 0.629968 -0.142079 0.66081 -1.289981 -0.152693 -0.105374 0.388507 -1.068849 2.207516 -1.516502 0.618648 0.057959 1.61471 0.888036 -0.337188 -0.73306 -0.809614 -1.409634 -0.094797 -0.938314 1.210802 1.47048 2.210952 -1.933366 0.819087
0.032817 -0.089134 0.148761 0.025345 -0.01923 -0.148821 -0.205892 -0.112301 -0.237202 0.136287 0.134762 0.239492 0.128875 -0.183372 -0.040242 0.281763 -0.240697 0.347354 0.168752 0.047089 -0.180048 -8.65E-4 0.143859 0.078207 -0.204834 -0.147421 -0.064213 -0.052187 0.122064 -0.083446 0.001249 0.0749 -0.269208 0.095034 -0.185838 -0.031473 -0.047511 -0.052145 0.047224 0.114331 -0.122967 0.263975 -0.021193 0.034501 0.034191 -0.11869 0.125529 -0.031421 -0.229566 0.209471 0.051123 -0.197017 3.63E-4 -0.036714 0.266471 -0.174432 0.161867 -0.057331 0.167893 -0.052871 -0.059991 -0.070231 -0.143268 -0.104599 0.070071 0.004926 0.083664 -0.082291 0.204389 -0.107821 0.130021 0.012917 -4.5E-5 0.116778 -0.04665 0.060235 -0.244325 -0.149496 -0.014409 0.098801 -0.108386 0.101742 0.127589 -0.155718 -0.007094 0.228894 -0.07404 -0.030787 0.131071 -0.137504 -0.042937 0.107759 0.021141 0.202488 -0.106122 -0.297171 0.180313 -0.048691 0.07668 -0.105126
0.154123 0.047563 0.040411 -0.025842 -0.179896 -0.010435 -0.050621 0.00237 -0.049744 0.07091 -0.041747 -0.012541 -0.048257 -0.090657 0.055859 0.186725 -0.004751 0.171183 0.001236 0.158634 -0.21469 -0.010507 0.102164 0.110818 -0.098456 -0.085806 0.017572 -0.096755 -0.147182 -0.186661 -0.039628 0.028152 -0.195531 0.01169 -0.167175 -0.030783 0.02964 -0.087287 -0.087261 -0.023518 0.047187 0.164952 0.016142 0.082714 0.017606 -0.118475 -0.053953 0.042236 -0.041302 -0.037061 0.072247 0.097291 -0.159811 -0.004034 0.05793 -0.045614 0.022116 -0.091234 -0.01504 3.98E-4 0.150496 -0.218684 -0.064446 -0.051485 0.07339 0.113821 0.042366 0.042209 0.178948 -0.005155 0.136168 -0.048544 -0.11089 -0.004225 -0.01148 -0.061701 -0.025146 0.12647 -0.124816 0.092732 -0.026414 0.003393 0.08225 -0.049433 0.086746 0.143483 -0.01664 -0.02826 0.209263 -0.049219 -0.221231 -0.093525 -0.091385 0.050663 -0.107876 -0.042471 -0.063453 0.067362 0.064494 -0.007492
-0.079125 0.165496 0.110897 -0.05513 -0.065724 -0.016421 -0.129675 -0.099214 0.02807 -0.013086 0.098924 0.006428 0.015865 0.019545 -0.032119 -0.00207 -0.045287 -0.050114 0.055247 0.03426 0.233659 0.072283 -0.012443 -0.03855 0.031879 -0.210001 -0.099797 -0.143277 0.004465 -0.144344 0.108815 0.013896 0.093599 -0.034792 0.068236 0.288351 0.068627 0.01563 0.272114 0.010639 -0.007226 -0.080718 -0.127818 -0.11284 -0.050929 -0.118455 0.067435 0.03741 -0.036989 -0.080063 0.041965 -0.124513 -0.086496 0.030034 0.236339 -0.182109 -0.019218 -0.122632 -0.245188 0.10252 0.060751 0.064868 -0.041636 -0.091022 0.104927 0.017689 0.096578 0.10721 0.097177 0.042127 0.07152 -0.005611 0.094549 0.007239 -0.062212 -0.051875 0.108705 0.011637 -0.124956 -0.015681 -0.121867 -0.007958 0.040644 0.024469 0.141174 0.121792 0.197302 -0.088771 0.159092 -0.241288 -0.069209 -0.034296 0.127442 -0.006425 -0.121656 -0.116899 0.054485 0.121344 0.041694 0.048051
-0.019201 0.028111 0.019217 0.052324 -0.012545 0.076041 0.041859 0.132425 -0.042682 -0.25324 0.153679 -0.052639 -0.234426 0.154245 0.001178 0.07083 0.073083 0.160228 0.024133 -0.054811 0.001969 0.005439 0.181016 0.099355 -0.126409 -0.051701 0.037309 -0.123638 0.247936 -0.162055 0.114555 0.125901 0.087982 0.08593 -0.090916 0.032607 0.058566 -0.084423 -0.083684 -0.120125 -0.142636 -0.134573 0.099572 -0.067549 0.144656 -0.140025 -0.119758 0.069446 0.087216 -0.032862 -0.006618 -0.111395 0.032981 -0.031112 -0.118341 0.110071 -0.111936 0.153878 0.041608 0.007703 0.064796 -0.130385 0.030277 0.045725 -0.1256 0.149386 -0.11782 -0.166733 0.122695 0.114102 -0.065025 -0.01284 -0.004014 -0.036946 -0.052576 0.183617 0.039352 -0.109896 0.002856 -0.049741 0.098582 -0.079185 0.058208 -0.092538 -0.020486 -0.024785 0.136707 0.03449 -0.090652 0.201497 -0.097455 0.025029 -0.120762 -0.013839 -0.051103 -0.067125 -0.00444 -0.252706 0.02388 -0.108891
-0.172636 0.01033 0.161959 -0.183546 0.084826 0.001454 -0.012333 0.025399 -0.140257 -0.043156 0.065558 -0.05232 0.099666 0.00853 0.143223 0.114338 0.12441 0.125198 0.033525 0.036631 -0.100414 0.095781 0.079415 0.218911 -0.202953 -0.176273 0.003928 -0.080203 0.064255 -0.151939 -0.015762 -0.091797 0.058406 0.259075 0.142232 0.005009 -0.027051 -0.151772 -0.009225 0.087933 -0.047953 0.058876 -0.00632 0.200481 -0.051352 -0.062672 -0.004913 0.138106 0.006286 0.095799 0.155862 0.073325 -0.063141 -0.126818 0.080382 -0.03216 0.029759 0.0419 0.073559 0.032012 0.00921 -0.174483 -0.047889 -0.051292 -0.092714 0.114818 -0.104232 -0.056323 -0.006118 -0.033086 -0.071821 -0.058985 -0.082653 -0.01357 0.127079 -0.029265 0.032993 0.09375 -0.047027 -0.121647 0.078634 0.058114 0.019442 1.0E-5 0.027019 0.006064 0.011752 0.078438 0.206987 0.051293 -0.026753 -0.10776 0.076365 -7.58E-4 -0.123035 -0.129837 -0.027931 -0.05268 0.159075 3.06E-4
